<art>
    <ui>s12888-014-0308-6</ui>
    <ji>1471-244X</ji>
    <fm>
       <dochead>Study protocol</dochead>
       <bibl>
          <title>
             <p>Initial and long-term evaluation of patients with Alzheimer&#8217;s after hospitalization in cognitive and behavioural units: the EVITAL study design</p>
          </title>
          <aug>
             <au id="A1" ca="yes">
                <snm>Pongan</snm>
                <fnm>Elodie</fnm>
                <insr iid="I1"/>
                <insr iid="I2"/>
                <email>elodie.pongan@gmail.com</email>
             </au>
             <au id="A2">
                <snm>Freulon</snm>
                <fnm>Magalie</fnm>
                <insr iid="I1"/>
                <email>magalie.freulon@hotmail.com</email>
             </au>
             <au id="A3">
                <snm>Delphin-Combe</snm>
                <fnm>Floriane</fnm>
                <insr iid="I2"/>
                <email>floriane.delphin-combe@chu-lyon.fr</email>
             </au>
             <au id="A4">
                <snm>Dibie-Racoupeau</snm>
                <fnm>Florence</fnm>
                <insr iid="I3"/>
                <email>florence.dibie-racoupeau@arhm.fr</email>
             </au>
             <au id="A5">
                <snm>Martin-Gaujard</snm>
                <fnm>G&#233;raldine</fnm>
                <insr iid="I2"/>
                <email>geraldine.martin-gaujard@chu-lyon.fr</email>
             </au>
             <au id="A6">
                <snm>Federico</snm>
                <fnm>Denis</fnm>
                <insr iid="I2"/>
                <email>denis.federico@chu-lyon.fr</email>
             </au>
             <au id="A7">
                <snm>Waissi</snm>
                <fnm>Aziza</fnm>
                <insr iid="I2"/>
                <email>aziza.waissi@chu-lyon.fr</email>
             </au>
             <au id="A8">
                <snm>Richard</snm>
                <fnm>Ga&#235;lle</fnm>
                <insr iid="I1"/>
                <insr iid="I2"/>
                <email>gaelle.richard@chu-lyon.fr</email>
             </au>
             <au id="A9">
                <snm>Jacqueline</snm>
                <fnm>Sophie</fnm>
                <insr iid="I4"/>
                <email>sophiejacqueline@live.fr</email>
             </au>
             <au id="A10">
                <snm>Fabre</snm>
                <fnm>Florence</fnm>
                <insr iid="I4"/>
                <email>florence.fabre@chu-st-etienne.fr</email>
             </au>
             <au id="A11">
                <snm>Trombert-Paviot</snm>
                <fnm>B&#233;atrice</fnm>
                <insr iid="I5"/>
                <insr iid="I6"/>
                <email>beatrice.trombert_paviot@chu-st-etienne.fr</email>
             </au>
             <au id="A12">
                <snm>Krolak-Salmon</snm>
                <fnm>Pierre</fnm>
                <insr iid="I2"/>
                <insr iid="I7"/>
                <email>pierre.krolak-salmon@chu-lyon.fr</email>
             </au>
             <au id="A13">
                <snm>Laurent</snm>
                <fnm>Bernard</fnm>
                <insr iid="I1"/>
                <email>bernard.laurent@chu-st-etienne.fr</email>
             </au>
             <au id="A14">
                <snm>Rouch</snm>
                <fnm>Isabelle</fnm>
                <insr iid="I1"/>
                <insr iid="I2"/>
                <insr iid="I6"/>
                <email>isabelle.rouch@chu-st-etienne.fr</email>
             </au>
          </aug>
          <insg>
             <ins id="I1">
                <p>Service de Neurologie, CM2R, CHU de Saint Etienne, H&#244;pital Nord, Avenue Albert Raimond, Saint Etienne, 42055, France</p>
             </ins>
             <ins id="I2">
                <p>Hospices civils de Lyon, CM2R, H&#244;pital g&#233;riatrique des Charpennes, 27 rue Gabriel P&#233;ri, Villeurbanne, 69100, France</p>
             </ins>
             <ins id="I3">
                <p>Centre hospitalier St Jean de Dieu, 290 Route de Vienne, Lyon, 69008, France</p>
             </ins>
             <ins id="I4">
                <p>Service de G&#233;rontologie clinique, CM2R, CHU de Saint Etienne, H&#244;pital Nord, Avenue Albert Raimond, Saint Etienne, 42055, France</p>
             </ins>
             <ins id="I5">
                <p>Public Health and Medical Informatics unit, University hospital of Saint-Etienne, Saint Etienne, 42055, France</p>
             </ins>
             <ins id="I6">
                <p>EA 4607 SNA- EPIS PRES Lyon, Universit&#233; Jean Monnet, Saint Etienne cedex, 42023, France</p>
             </ins>
             <ins id="I7">
                <p>Dynamique C&#233;r&#233;brale et Cognition INSERM U1028 - CNRS UMR5292, Centre de Recherche en Neurosciences de Lyon, 95 boulevard Pinel, Bron, 69500, France</p>
             </ins>
          </insg>
          <source>BMC Psychiatry</source>
          <section>
             <title>
                <p>Geriatric psychiatry and cognitive disorders</p>
             </title>
          </section>
          <issn>1471-244X</issn>
          <pubdate>2014</pubdate>
          <volume>14</volume>
          <issue>1</issue>
          <fpage>308</fpage>
          <url>http://www.biomedcentral.com/1471-244X/14/308</url>
          <xrefbib>
             <pubidlist>
                <pubid idtype="doi">10.1186/s12888-014-0308-6</pubid>
             </pubidlist>
          </xrefbib>
       </bibl>
       <history>
          <rec>
             <date>
                <day>6</day>
                <month>10</month>
                <year>2014</year>
             </date>
          </rec>
          <acc>
             <date>
                <day>20</day>
                <month>10</month>
                <year>2014</year>
             </date>
          </acc>
          <pub>
             <date>
                <day>15</day>
                <month>11</month>
                <year>2014</year>
             </date>
          </pub>
       </history>
       <cpyrt>
          <year>2014</year>
          <collab>Pongan et al.; licensee BioMed Central Ltd.</collab>
          <note>This is an Open Access article distributed under the terms of the Creative Commons Attribution License (<url>http://creativecommons.org/licenses/by/4.0</url>), which permits unrestricted use, distribution, and reproduction in any medium, provided the original work is properly credited. The Creative Commons Public Domain Dedication waiver (<url>http://creativecommons.org/publicdomain/zero/1.0/</url>) applies to the data made available in this article, unless otherwise stated.</note>
       </cpyrt>
       <kwdg>
          <kwd>Alzheimer&#8217;s disease and related disorders</kwd>
          <kwd>Behavioural and psychological symptoms of dementia</kwd>
          <kwd>Quality of life</kwd>
       </kwdg>
       <abs>
          <sec>
             <st>
                <p>Abstract</p>
             </st>
             <sec>
                <st>
                   <p>Background</p>
                </st>
                <p>Alzheimer&#8217;s disease and related disorders are characterized by cognitive impairment associated with behavioral and psychological symptoms of dementia. These symptoms have significant consequences for both the patient and his family environment. While risk factors for behavioral disorders have been identified in several studies, few studies have focused on the evolution of these disorders. Moreover, it is important to identify factors linked to the long-term evolution of behavioral disorders, as well as patients&#8217; and caregivers&#8217; quality of life. Our purpose is to present the methodology of the EVITAL study, which primary objective is to determine the factors associated with the evolution of behavioral disorders among patients with Alzheimer&#8217;s disease and related disorders during the year following their hospitalization in cognitive and behavioral units. Secondary objectives were 1) to assess the factors related to the evolution of behavioral disorders during hospitalization in cognitive and behavioral units; 2) to identify the factors linked to patients&#8217; and caregivers&#8217; quality of life, as well as caregivers&#8217; burden; 3) to assess the factors associated with rehospitalization of the patients for behavioral disorders in the year following their hospitalization in cognitive and behavioral units.</p>
             </sec>
             <sec>
                <st>
                   <p>Method/Design</p>
                </st>
                <p>A multicenter, prospective cohort of patients with Alzheimer&#8217;s disease and related disorders as well as behavioral disorders who are hospitalized in cognitive and behavioral units.</p>
                <p>The patients will be included in the study for a period of 24&#160;months and followed-up for 12&#160;months. Socio-demographic and environmental data, behavioral disorders, medications, patients&#8217; and caregivers&#8217; quality of life as well as caregivers&#8217; burden will be assessed throughout hospitalization in cognitive and behavioral units. Follow-up will be performed at months 3, 6 and 12 after hospitalization. Socio-demographic and environmental data, behavioral disorders, medications, patients&#8217; and caregivers&#8217; quality of life, unplanned rehospitalization as well as caregivers&#8217; burden will also be assessed at each follow-up interview.</p>
             </sec>
             <sec>
                <st>
                   <p>Discussion</p>
                </st>
                <p>The present study should help better identify the factors associated with reduction or stabilization of the behavioral and psychological symptoms of dementia in patients with Alzheimer&#8217;s disease. It could therefore help clinicians to better manage these symptoms.</p>
             </sec>
             <sec>
                <st>
                   <p>Trial registration</p>
                </st>
                <p>Clinical Trials <url>NCT01901263</url>. Registered July 9, 2013.</p>
             </sec>
          </sec>
       </abs>
    </fm>
    <bdy>
       <sec>
          <st>
             <p>Background</p>
          </st>
          <p>Alzheimer&#8217;s disease and related disorders (ADRD) are characterized by cognitive impairment associated with behavioral and psychological symptoms of dementia (BPSD) <abbrgrp>
                <abbr bid="B1">1</abbr>
             </abbrgrp>. The BPSD are common in ADRD and often associated with one another <abbrgrp>
                <abbr bid="B2">2</abbr>
             </abbrgrp>-<abbrgrp>
                <abbr bid="B4">4</abbr>
             </abbrgrp>. They may occur at all stages of the disease and worsen with cognitive decline.</p>
          <p>Besides apathy and depression, which are frequent during the early/middle stages of the disease (40 to 60% of patients), other BPSD such as agitation (30%), irritability (30%), delusions (10 to 20%), aberrant motor behavior (15 to 30%) and hallucinations (6 to 10%) <abbrgrp>
                <abbr bid="B5">5</abbr>
             </abbrgrp>,<abbrgrp>
                <abbr bid="B6">6</abbr>
             </abbrgrp> can be very upsetting for both the patient and the caregiver.</p>
          <p>BPSD have significant consequences for both the patient and the family as they may lead to difficulties in activities of daily living (ADL) <abbrgrp>
                <abbr bid="B3">3</abbr>
             </abbrgrp> and interfere with patients&#8217; quality of life (QoL) <abbrgrp>
                <abbr bid="B7">7</abbr>
             </abbrgrp>. Moreover, they are associated with faster cognitive impairment <abbrgrp>
                <abbr bid="B8">8</abbr>
             </abbrgrp>. They increase the risk of hospitalization as well as developing other complications of dementia. Furthermore, they can lead to an increase in caregivers&#8217; health problems and a decrease in their QoL <abbrgrp>
                <abbr bid="B7">7</abbr>
             </abbrgrp>. Studies have shown that the severity of BPSD was connected with the burden and psychological state of caregivers <abbrgrp>
                <abbr bid="B9">9</abbr>
             </abbrgrp>-<abbrgrp>
                <abbr bid="B11">11</abbr>
             </abbrgrp>. All these consequences result in increased health expenditures <abbrgrp>
                <abbr bid="B12">12</abbr>
             </abbrgrp>. Finally, they can precipitate nursing home placement regardless of cognitive impairment <abbrgrp>
                <abbr bid="B13">13</abbr>
             </abbrgrp>,<abbrgrp>
                <abbr bid="B14">14</abbr>
             </abbrgrp>.</p>
          <p>Identification of BPSD is important to optimize ADRD patient management. Current treatment strategies consist in non-drug therapies and subsequently pharmacological treatments, including specific treatment for Alzheimer&#8217;s disease. A previous study showed that the management of BPSD can reduce the rate of home nursing placement as well as caregivers&#8217; burden and increase a QoL <abbrgrp>
                <abbr bid="B15">15</abbr>
             </abbrgrp>. The unpredictable occurrence of these symptoms and difficulty to stabilize them may lead to crises. The French Alzheimer Plan 2008&#8211;2012 has provided specific hospital units called cognitive and behavioral units (CBUs). These units are intended for patients with ADRD and productive behavior disorders. While risk factors for BPSD have been identified in several studies, few studies have focused on the evolution of these symptoms. To our knowledge, only two studies focused on BPSD evolution in patients admitted to CBUs. The first one assessed short-term BPSD evolution from CBU admission to discharge <abbrgrp>
                <abbr bid="B16">16</abbr>
             </abbrgrp>. The second showed a favorable effect of hospitalization in the CBU on BPSD at hospital discharge and 15&#160;days after discharge <abbrgrp>
                <abbr bid="B17">17</abbr>
             </abbrgrp>. Beyond the assessment of the short-term BPSD evolution during hospitalization in CBUs, it would be important to identify factors that are linked to the long-term evolution of BPSD, as well as patients&#8217; and caregivers&#8217; QoL. The EVITAL study was designed to assess these questions. The purpose of this paper is to provide the methodology of the EVITAL study.</p>
          <sec>
             <st>
                <p>Study objectives</p>
             </st>
             <sec>
                <st>
                   <p>Primary objective</p>
                </st>
                <p> To identify the factors associated with the long-term evolution of BPSD among patients with ADRD during the year following their hospitalization in the CBU.</p>
             </sec>
             <sec>
                <st>
                   <p>Secondary objectives</p>
                </st>
                <p> To assess the factors related to the reduction of BPSD during hospitalization in CBUs.</p>
                   <p> To identify the factors linked to patients&#8217; and caregivers&#8217; QoL, and caregivers&#8217; burden.</p>
                   <p> To assess the factors associated with rehospitalization of the patients for BPSD in the year following their hospitalization in CBUs.</p>
             </sec>
          </sec>
       </sec>
       <sec>
          <st>
             <p>Methods/Design</p>
          </st>
          <sec>
             <st>
                <p>Study design</p>
             </st>
             <p>This is a multicenter prospective cohort study.</p>
          </sec>
          <sec>
             <st>
                <p>Setting and patients</p>
             </st>
             <p>The EVITAL study will take place in the CBUs of 3 different hospitals located in Lyon and Saint Etienne, France.</p>
             <p>Inclusion criteria are: age 50&#160;years or older, admission to the CBU of participating centers, ADRD patients at the dementia stage, no severe progressive or unstable disease that may interfere with the results of the assessment, and presence of a caregiver having sufficient contact with the subject to be able to notice behavioral changes.</p>
             <p>Exclusion criteria are: patients at high risk of death and isolated patients.</p>
          </sec>
          <sec>
             <st>
                <p>Ethics approval</p>
             </st>
             <p>The study protocol has been reviewed and approved by an Ethics Committee (Comit&#233; de Protection des Personnes). This committee covers the ethical approval of all three sites of our data collection. All procedures are in accordance with the Declaration of Helsinki and the International Conference on Harmonization (ICH) Good Clinical Practice Guidelines.</p>
             <p>This is a routine care research that does not require written informed consent. An information sheet will be given to the patient and his/her caregiver at admission in the CBU.</p>
             <p>Their acceptance or refusal will be noted in medical records.</p>
          </sec>
          <sec>
             <st>
                <p>Independent variables</p>
             </st>
             <sec>
                <st>
                   <p>Clinical and neuropsychological assessment</p>
                </st>
                <p>An interview and a physical examination will be performed by the neurologist, geriatrician or psychiatrist in charge of the patient. Other factors favoring BPSD such as family situation, living conditions, previous diseases, comorbidities, date of diagnosis, and medications will be investigated during hospitalization.</p>
                <p>For patients living at home, relationship with informal and professional caregivers will be collected.</p>
                <p>Global cognitive function will be assessed using the Mini Mental State Examination (MMSE) <abbrgrp>
                      <abbr bid="B18">18</abbr>
                   </abbrgrp>, with scores ranging from 0 to 30 points.</p>
             </sec>
             <sec>
                <st>
                   <p>Hospitalization in CBUs</p>
                </st>
                <p>The following factors will be collected during hospitalization in the CBU are: reason for hospitalization, length of stay, type of non-drug therapies used.</p>
             </sec>
             <sec>
                <st>
                   <p>Use of psychotropic drugs</p>
                </st>
                <p>Psychotropic drug use will be collected at CBU admission and discharge, and at each follow-up interview.</p>
             </sec>
          </sec>
          <sec>
             <st>
                <p>Dependent variables</p>
             </st>
             <sec>
                <st>
                   <p>Evaluation of BPSD</p>
                </st>
                <p>Among the scales used for exploring these disorders, the Neuropsychiatric Inventory (NPI) <abbrgrp>
                      <abbr bid="B19">19</abbr>
                   </abbrgrp> is commonly used. It is often used in international studies and has been validated in French <abbrgrp>
                      <abbr bid="B20">20</abbr>
                   </abbrgrp>.</p>
                <p>The NPI is a questionnaire designed to collect information on neuropsychiatric problems from patients with brain disorders.</p>
                <p>Behavioral disorders will be assessed during the initial visit and each subsequent interview with the patient and the caregiver. The short form of the Neuropsychiatric Inventory (NPI-Q) will be used. Twelve types of neuropsychiatric symptoms are covered by the questionnaire: delusions, hallucinations, agitation, depression, anxiety, euphoria, apathy, impulsive behavior, mood swings, aberrant motor behavior, and eating and sleeping disorders. For each symptom, the severity, frequency and effect on the caregiver are assessed. A total subscale score is calculated by multiplying frequency and severity, and a global score is generated by summing up the total scores of the individual subscales (maximum = 144). Score measuring the effect on the caregiver ranges from 0 to 60 points.</p>
                <p>The &#8220;family&#8221; NPI will be given to the caregiver at home or referent caregivers at the nursing homes. The &#8220;healthcare team&#8221; NPI will be completed by the healthcare team during hospitalization.</p>
             </sec>
             <sec>
                <st>
                   <p>Patients&#8217; quality of life</p>
                </st>
                <p>The EuroQuol EQ-5D is used for assessing the QoL of patients with Alzheimer&#8217;s disease. This scale includes five areas: mobility, self-care, daily activity, physical pain, and anxiety/depressive symptoms. A one-to-five scale is used for each dimension. The scale will be completed by both patient and caregiver about their own QoL. In addition, the caregiver will answer the questions about the patient&#8217;s QoL <abbrgrp>
                      <abbr bid="B21">21</abbr>
                   </abbrgrp>.</p>
             </sec>
             <sec>
                <st>
                   <p>Caregivers&#8217; quality of life and caregivers&#8217; burden</p>
                </st>
                <p>The Caregiver&#8217;s Quality of Life (French abbreviation QDVA) is a 20-item scale exploring caregiver&#8217;s QoL. Four categories of situations are studied, according to the angst and coping capability of caregivers. Caregiver&#8217;s QoL and vulnerability are assessed, taking into account the socio-demographic characteristics of both patients and their principal caregivers, and the patients&#8217; medical and therapeutic data <abbrgrp>
                      <abbr bid="B22">22</abbr>
                   </abbrgrp>. Each item is coded 5 (high QoL) or 0 (weak QoL). A total scale score represents the percentage of remaining QoL.</p>
                <p>The subjective caregivers burden will be assessed using the mini-Zarit, a validated short version of the Zarit Burden Inventory, which was previously developed for routine medical care <abbrgrp>
                      <abbr bid="B23">23</abbr>
                   </abbrgrp>.</p>
             </sec>
             <sec>
                <st>
                   <p>Unplanned hospitalization</p>
                </st>
                <p>The duration and reason for unplanned hospital readmission will be noted during the year following discharge.</p>
             </sec>
          </sec>
          <sec>
             <st>
                <p>Data collection procedure</p>
             </st>
             <p>Typical schedule for a patient included in the EVITAL protocol is given in Figure&#160;<figr fid="F1">1</figr>.</p>
             
                <fig id="F1">
                   <title>
                      <p>Figure 1</p>
                   </title>
                   <caption>
                      <p>Typical schedule for a patient included in the EVITAL protocol: a summary of different stages.</p>
                   </caption>
                   <text>
                      <p>
                         <b>Typical schedule for a patient included in the EVITAL protocol: a summary of different stages.</b> T0&#8201;=&#8201;inclusion visit. T1&#8201;=&#8201;End of hospitalization visit. T2&#8201;=&#8201;3-month follow-up visit at home. T3&#8201;=&#8201;6-month follow-up phone call. T4&#8201;=&#8201;12-month follow-up phone call.</p>
                   </text>
                   <graphic file="s12888-014-0308-6-1"/>
                </fig>
             
             <sec>
                <st>
                   <p>Inclusion visit</p>
                </st>
                <p>The inclusion visit will take place on the day of patient admission in the CBU. It will be carried out by the neurologist, geriatrician or psychiatrist in charge of the patient. Inclusion criteria will be validated through an interview with the patient and his/her caregiver. During this examination, various data will be collected: demographic and environmental data, patient&#8217;s living conditions, previous diseases and comorbidities, medications and non-drug therapies, global cognitive performance (MMSE), BPSD (NPI and NPI-ES), caregivers&#8217; burden (mini-Zarit), and patients&#8217; and caregivers&#8217; QoL (EQ-5D, QDVA).</p>
             </sec>
             <sec>
                <st>
                   <p>End of hospitalization visit</p>
                </st>
                <p>This visit will be carried out by the neurologist, geriatrician or psychiatrist in charge of the patient according to standard practices. During this visit, the following data will be collected: demographic and environmental data, medications and nondrug therapies used duringhospitalization, and BPSD at the outcome (NPI-ES).</p>
             </sec>
             <sec>
                <st>
                   <p>Follow-up</p>
                </st>
                <p>A follow-up visit will be performed 3&#160;months after discharge at the patient&#8217;s residence (home or nursing home). Follow-up phone calls will be made to caregivers (patients&#8217; informal caregivers at home or referent caregivers at the nursing homes) at 6 and 12&#160;months. During these follow-up interviews, the following data will be collected: demographic and environmental data, patient&#8217;s living conditions, concomitant events, medications and non-drug therapies, BPSD (NPI and NPI-ES), caregivers&#8217; burden (mini-Zarit), and patients&#8217; and caregivers&#8217; QoL (EQ-5D, QDVA).</p>
             </sec>
          </sec>
          <sec>
             <st>
                <p>Sample size</p>
             </st>
             <p>As this is a prospective, observational cohort study that will includes a large number of specific factors to be analyzed, there is no issue of statistical power to be considered. However, we need a sufficient number of participants to obtain useful outcome measures. The three participant CBUs have a total of 300 patients per year. We can expect that about 60% of patients will consent to participate and meet the inclusion criteria. Preliminary analysis made on the 50 first patients gave an annual attrition rate of 20% during the 12-month follow-up period, mainly due to death. All patients who meet the inclusion criteria and are hospitalized in the 3 participant CBUs in the span of two years will be included in the study.</p>
          </sec>
          <sec>
             <st>
                <p>Data analysis</p>
             </st>
             <p>Univariate analysis will be first performed to assess each study objective. Associations between the rehospitalization or psychotropic consumption rates and independent qualitative variables will be determined with chi2 tests. The link between the NPI score and qualitative risk factors will be assessed using Student t tests. Multivariate analyses will be used to take into account potential confounding factors.</p>
             <p>To identify the factors associated with the evolution of BPSD in patients with ADRD during the year following their hospitalization in the CBU, linear regression models and survival models will be used.</p>
             <p>The link between management in CBUs and evolution of BPSD during patients&#8217; hospitalization will be assessed with linear regression models and survival models.</p>
             <p>To identify the factors associated with patients&#8217; and caregivers&#8217; QoL, and caregivers&#8217; burden, linear regression models and survival models will be used.</p>
             <p>The association between changes in psychotropic drug consumption (especially neuroleptic drugs) and the evolution of BPSD will be assessed with linear regression models and survival models.</p>
             <p>Finally, to assess the factors associated with rehospitalization of the patients for BPSD in the year following their hospitalization in the CBU, logistic regression models will be used.</p>
             <p>SPSS software will be used for data analyzes.</p>
          </sec>
       </sec>
       <sec>
          <st>
             <p>Discussion</p>
          </st>
          <p>The EVITAL project aims to better understand the factors associated with the evolution of BPSD in the year following patient hospitalization in CBUs. It should help us better identify the factors affecting patient&#8217;s and caregiver&#8217;s QoL. Moreover, it could bring out factors that modulate the risk of unplanned hospital readmission. Finally, it should contribute to a better understanding of the natural history of BPSD.</p>
          <p>The originality of this project is based on three criteria: the choice of the study population, duration of follow-up and inclusion of patients from different CBUs. Our study focuses on patients with ADRD and productive BPSD requiring hospitalization in a specific unit. To our knowledge, only two previous studies assessed the evolution of BPSD during hospitalization in CBUs. The results of these studies were encouraging, showing a decrease in BPSD after patient management in CBUs. However, both studies were limited as they only assessed the evolution of the BPSD from patient admission to discharge <abbrgrp>
                <abbr bid="B16">16</abbr>
             </abbrgrp> and 15&#160;days after discharge <abbrgrp>
                <abbr bid="B17">17</abbr>
             </abbrgrp>, respectively. These studies did not give us information on the long-term outcome of the patients after CBU management. The present study is the first to follow patients for one year, with assessments performed 3, 6 and 12&#160;months after their CBU discharge.</p>
          <p>Moreover, these studies were conducted in only one CBU whereas the present study includes patients from different CBUs. The multicenter design may allow us to include patients with various profiles, regardless of each unit specific organization.</p>
          <p>BPSD are also known to have a negative impact on both patients&#8217; and caregivers&#8217; quality of life <abbrgrp>
                <abbr bid="B7">7</abbr>
             </abbrgrp>, which is an important point to consider. Moreover, caregivers play a major role in helping patients stay at home, which is one of the CBU objectives. It was showed that successful patient management with a specific pharmacological or non- drug therapy can have a positive impact on both patients&#8217; and caregivers&#8217; QoL, which are intrinsically connected to each other <abbrgrp>
                <abbr bid="B24">24</abbr>
             </abbrgrp>. It will be interesting to observe the evolution of their QoL as well as caregivers&#8217; burden after CBU management.</p>
          <p>The assessment of patients admitted to CBUs will help better describe and value the work done by the CBU healthcare team. Moreover, the results of this study could be helpful for other CBU teams to develop effective management strategies in the CBU, and to better identify patients at high risk of increasing BPSD. The database designed in the present research could also be proposed to other CBUs to help them better describe their activity with standardized data.</p>
          <p>The EVITAL study may have several limitations. Some patients who were living at home before their admission in the CBU may move to a new place of residence, e.g. in an institution, after discharge. Some scales, such as the mini-Zarit, will be therefore used only for patients living at home. Furthermore, the NPI will be assessed by two different persons. However, the inter-rater reliability of the NPI has been established <abbrgrp>
                <abbr bid="B19">19</abbr>
             </abbrgrp> and the number of patients involved should be limited, as one of the main objectives of CBU management is to facilitate the return to their initial place of residence after discharge.</p>
          <p>In spite of these limitations, the management of patients with Alzheimer&#8217;s disease or related diseases is currently a major challenge. Therefore, it seems important to better identify the factors associated with BPSD reduction and patients&#8217; and caregivers&#8217; QoL in order to improve patient management in the CBU and after hospitalization discharge. The EVITAL project will help better understand these topics.</p>
       </sec>
       <sec>
          <st>
             <p>Competing interests</p>
          </st>
          <p>The authors declare that they have no competing interests.</p>
       </sec>
       <sec>
          <st>
             <p>Authors&#8217; contributions</p>
          </st>
          <p>IR conceived the idea for the study, helped to draft the manuscript, and managed the design of the study and coordination. EP drafted the manuscript for submission to BMC Psychiatry and participated in its design and coordination management. MF, FDC, GR, SJ participated in coordination and helped to draft the manuscript. FDR, GMG, PKS and BL participated in its design and coordination. DF, AW and FF participated in coordination and helped to draft the manuscript. BTP participated in the design of the study and helped to draft the manuscript. All authors approved the final version of the manuscript.</p>
       </sec>
    </bdy>
    <bm>
       <ack>
          <sec>
             <st>
                <p>Acknowledgements</p>
             </st>
             <p>The authors would like to acknowledge Chantal Girtanner, Cedric Granet and care team of CBU for the contribution to patients&#8217; inclusion in EVITAL study.</p>
             <p>No specific funding was attributed to them.</p>
             <p>This study was funded by the French Ministry of Health, via Rh&#244;ne-Alpes Regional Health Agency.</p>
          </sec>
       </ack>
       <refgrp>
          
          <bibl id="B1">
             <title>
                <p>Behavioral and psychological signs and symptoms of dementia: a consensus statement on current knowledge and implications for research and treatment</p>
             </title>
             <aug>
                <au>
                   <snm>Finkel</snm>
                   <fnm>SI</fnm>
                </au>
                <au>
                   <snm>Costa e Silva</snm>
                   <fnm>J</fnm>
                </au>
                <au>
                   <snm>Cohen</snm>
                   <fnm>G</fnm>
                </au>
                <au>
                   <snm>Miller</snm>
                   <fnm>S</fnm>
                </au>
                <au>
                   <snm>Sartorius</snm>
                   <fnm>N</fnm>
                </au>
             </aug>
             <source>Int Psychogeriatr</source>
             <pubdate>1996</pubdate>
             <volume>8</volume>
             <issue>Suppl 3</issue>
             <fpage>497</fpage>
             <lpage>500</lpage>
             <xrefbib>
                <pubidlist>
                   <pubid idtype="pmpid" link="fulltext">9154615</pubid>
                </pubidlist>
             </xrefbib>
          </bibl>
          <bibl id="B2">
             <title>
                <p>Overview of depression and psychosis in Alzheimer&#8217;s disease</p>
             </title>
             <aug>
                <au>
                   <snm>Wragg</snm>
                   <fnm>RE</fnm>
                </au>
                <au>
                   <snm>Jeste</snm>
                   <fnm>DV</fnm>
                </au>
             </aug>
             <source>Am J Psychiatry</source>
             <pubdate>1989</pubdate>
             <volume>146</volume>
             <issue>5</issue>
             <fpage>577</fpage>
             <lpage>587</lpage>
             <xrefbib>
                <pubidlist>
                   <pubid idtype="pmpid" link="fulltext">2653053</pubid>
                </pubidlist>
             </xrefbib>
          </bibl>
          <bibl id="B3">
             <title>
                <p>Mental and behavioral disturbances in dementia: findings from the Cache County Study on Memory in Aging</p>
             </title>
             <aug>
                <au>
                   <snm>Lyketsos</snm>
                   <fnm>CG</fnm>
                </au>
                <au>
                   <snm>Steinberg</snm>
                   <fnm>M</fnm>
                </au>
                <au>
                   <snm>Tschanz</snm>
                   <fnm>JT</fnm>
                </au>
                <au>
                   <snm>Norton</snm>
                   <fnm>MC</fnm>
                </au>
                <au>
                   <snm>Steffens</snm>
                   <fnm>DC</fnm>
                </au>
                <au>
                   <snm>Breitner</snm>
                   <fnm>JC</fnm>
                </au>
             </aug>
             <source>Am J Psychiatry</source>
             <pubdate>2000</pubdate>
             <volume>157</volume>
             <issue>5</issue>
             <fpage>708</fpage>
             <lpage>714</lpage>
             <xrefbib>
                <pubidlist>
                   <pubid idtype="doi">10.1176/appi.ajp.157.5.708</pubid>
                   <pubid idtype="pmpid" link="fulltext">10784462</pubid>
                </pubidlist>
             </xrefbib>
          </bibl>
          <bibl id="B4">
             <title>
                <p>[Behavioral and psychologic symptoms in Alzheimer&#8217;s disease: results of the REAL.FR study]</p>
             </title>
             <aug>
                <au>
                   <snm>Benoit</snm>
                   <fnm>M</fnm>
                </au>
                <au>
                   <snm>Staccini</snm>
                   <fnm>P</fnm>
                </au>
                <au>
                   <snm>Brocker</snm>
                   <fnm>P</fnm>
                </au>
                <au>
                   <snm>Benhamidat</snm>
                   <fnm>T</fnm>
                </au>
                <au>
                   <snm>Bertogliati</snm>
                   <fnm>C</fnm>
                </au>
                <au>
                   <snm>Lechowski</snm>
                   <fnm>L</fnm>
                </au>
                <au>
                   <snm>Tortrat</snm>
                   <fnm>D</fnm>
                </au>
                <au>
                   <snm>Robert</snm>
                   <fnm>PH</fnm>
                </au>
             </aug>
             <source>Rev Med Interne</source>
             <pubdate>2003</pubdate>
             <volume>24</volume>
             <issue>Suppl 3</issue>
             <fpage>319s</fpage>
             <lpage>324s</lpage>
             <xrefbib>
                <pubidlist>
                   <pubid idtype="doi">10.1016/S0248-8663(03)80690-2</pubid>
                   <pubid idtype="pmpid" link="fulltext">14710451</pubid>
                </pubidlist>
             </xrefbib>
          </bibl>
          <bibl id="B5">
             <title>
                <p>Grouping for behavioral and psychological symptoms in dementia: clinical and biological aspects. Consensus paper of the European Alzheimer disease consortium</p>
             </title>
             <aug>
                <au>
                   <snm>Robert</snm>
                   <fnm>PH</fnm>
                </au>
                <au>
                   <snm>Verhey</snm>
                   <fnm>FR</fnm>
                </au>
                <au>
                   <snm>Byrne</snm>
                   <fnm>EJ</fnm>
                </au>
                <au>
                   <snm>Hurt</snm>
                   <fnm>C</fnm>
                </au>
                <au>
                   <snm>De Deyn</snm>
                   <fnm>PP</fnm>
                </au>
                <au>
                   <snm>Nobili</snm>
                   <fnm>F</fnm>
                </au>
                <au>
                   <snm>Riello</snm>
                   <fnm>R</fnm>
                </au>
                <au>
                   <snm>Rodriguez</snm>
                   <fnm>G</fnm>
                </au>
                <au>
                   <snm>Frisoni</snm>
                   <fnm>GB</fnm>
                </au>
                <au>
                   <snm>Tsolaki</snm>
                   <fnm>M</fnm>
                </au>
                <au>
                   <snm>Kyriazopoulou</snm>
                   <fnm>N</fnm>
                </au>
                <au>
                   <snm>Bullock</snm>
                   <fnm>R</fnm>
                </au>
                <au>
                   <snm>Burns</snm>
                   <fnm>A</fnm>
                </au>
                <au>
                   <snm>Vellas</snm>
                   <fnm>B</fnm>
                </au>
             </aug>
             <source>Eur Psychiatry</source>
             <pubdate>2005</pubdate>
             <volume>20</volume>
             <issue>7</issue>
             <fpage>490</fpage>
             <lpage>496</lpage>
             <xrefbib>
                <pubidlist>
                   <pubid idtype="doi">10.1016/j.eurpsy.2004.09.031</pubid>
                   <pubid idtype="pmpid" link="fulltext">16310680</pubid>
                </pubidlist>
             </xrefbib>
          </bibl>
          <bibl id="B6">
             <title>
                <p>Neuropsychiatric syndromes in dementia. Results from the European Alzheimer Disease Consortium: part I</p>
             </title>
             <aug>
                <au>
                   <snm>Aalten</snm>
                   <fnm>P</fnm>
                </au>
                <au>
                   <snm>Verhey</snm>
                   <fnm>FR</fnm>
                </au>
                <au>
                   <snm>Boziki</snm>
                   <fnm>M</fnm>
                </au>
                <au>
                   <snm>Bullock</snm>
                   <fnm>R</fnm>
                </au>
                <au>
                   <snm>Byrne</snm>
                   <fnm>EJ</fnm>
                </au>
                <au>
                   <snm>Camus</snm>
                   <fnm>V</fnm>
                </au>
                <au>
                   <snm>Caputo</snm>
                   <fnm>M</fnm>
                </au>
                <au>
                   <snm>Collins</snm>
                   <fnm>D</fnm>
                </au>
                <au>
                   <snm>De Deyn</snm>
                   <fnm>PP</fnm>
                </au>
                <au>
                   <snm>Elina</snm>
                   <fnm>K</fnm>
                </au>
                <au>
                   <snm>Frisoni</snm>
                   <fnm>G</fnm>
                </au>
                <au>
                   <snm>Girtler</snm>
                   <fnm>N</fnm>
                </au>
                <au>
                   <snm>Holmes</snm>
                   <fnm>C</fnm>
                </au>
                <au>
                   <snm>Hurt</snm>
                   <fnm>C</fnm>
                </au>
                <au>
                   <snm>Marriott</snm>
                   <fnm>A</fnm>
                </au>
                <au>
                   <snm>Nobili</snm>
                   <fnm>F</fnm>
                </au>
                <au>
                   <snm>Ousset</snm>
                   <fnm>PJ</fnm>
                </au>
                <au>
                   <snm>Reynish</snm>
                   <fnm>E</fnm>
                </au>
                <au>
                   <snm>Salmon</snm>
                   <fnm>E</fnm>
                </au>
                <au>
                   <snm>Tsolaki</snm>
                   <fnm>M</fnm>
                </au>
                <au>
                   <snm>Vellas</snm>
                   <fnm>B</fnm>
                </au>
                <au>
                   <snm>Robert</snm>
                   <fnm>PH</fnm>
                </au>
             </aug>
             <source>Dement Geriatr Cogn Disord</source>
             <pubdate>2007</pubdate>
             <volume>24</volume>
             <issue>6</issue>
             <fpage>457</fpage>
             <lpage>463</lpage>
             <xrefbib>
                <pubidlist>
                   <pubid idtype="doi">10.1159/000110738</pubid>
                   <pubid idtype="pmpid" link="fulltext">17986816</pubid>
                </pubidlist>
             </xrefbib>
          </bibl>
          <bibl id="B7">
             <title>
                <p>The stress and psychological morbidity of the Alzheimer patient caregiver</p>
             </title>
             <aug>
                <au>
                   <snm>Gonzalez-Salvador</snm>
                   <fnm>MT</fnm>
                </au>
                <au>
                   <snm>Arango</snm>
                   <fnm>C</fnm>
                </au>
                <au>
                   <snm>Lyketsos</snm>
                   <fnm>CG</fnm>
                </au>
                <au>
                   <snm>Barba</snm>
                   <fnm>AC</fnm>
                </au>
             </aug>
             <source>Int J Geriatr Psychiatry</source>
             <pubdate>1999</pubdate>
             <volume>14</volume>
             <issue>9</issue>
             <fpage>701</fpage>
             <lpage>710</lpage>
             <xrefbib>
                <pubidlist>
                   <pubid idtype="doi">10.1002/(SICI)1099-1166(199909)14:9&lt;701::AID-GPS5&gt;3.0.CO;2-#</pubid>
                   <pubid idtype="pmpid" link="fulltext">10479740</pubid>
                </pubidlist>
             </xrefbib>
          </bibl>
          <bibl id="B8">
             <title>
                <p>Predicting time to nursing home care and death in individuals with Alzheimer disease</p>
             </title>
             <aug>
                <au>
                   <snm>Stern</snm>
                   <fnm>Y</fnm>
                </au>
                <au>
                   <snm>Tang</snm>
                   <fnm>MX</fnm>
                </au>
                <au>
                   <snm>Albert</snm>
                   <fnm>MS</fnm>
                </au>
                <au>
                   <snm>Brandt</snm>
                   <fnm>J</fnm>
                </au>
                <au>
                   <snm>Jacobs</snm>
                   <fnm>DM</fnm>
                </au>
                <au>
                   <snm>Bell</snm>
                   <fnm>K</fnm>
                </au>
                <au>
                   <snm>Marder</snm>
                   <fnm>K</fnm>
                </au>
                <au>
                   <snm>Sano</snm>
                   <fnm>M</fnm>
                </au>
                <au>
                   <snm>Devanand</snm>
                   <fnm>D</fnm>
                </au>
                <au>
                   <snm>Albert</snm>
                   <fnm>SM</fnm>
                </au>
                <au>
                   <snm>Bylsma</snm>
                   <fnm>F</fnm>
                </au>
                <au>
                   <snm>Tsai</snm>
                   <fnm>WY</fnm>
                </au>
             </aug>
             <source>JAMA</source>
             <pubdate>1997</pubdate>
             <volume>277</volume>
             <issue>10</issue>
             <fpage>806</fpage>
             <lpage>812</lpage>
             <xrefbib>
                <pubidlist>
                   <pubid idtype="doi">10.1001/jama.1997.03540340040030</pubid>
                   <pubid idtype="pmpid" link="fulltext">9052710</pubid>
                </pubidlist>
             </xrefbib>
          </bibl>
          <bibl id="B9">
             <title>
                <p>A systematic review of the association between the Behavioral and Psychological Symptoms of Dementia and burden of care</p>
             </title>
             <aug>
                <au>
                   <snm>Black</snm>
                   <fnm>W</fnm>
                </au>
                <au>
                   <snm>Almeida</snm>
                   <fnm>OP</fnm>
                </au>
             </aug>
             <source>Int Psychogeriatr</source>
             <pubdate>2004</pubdate>
             <volume>16</volume>
             <issue>3</issue>
             <fpage>295</fpage>
             <lpage>315</lpage>
             <xrefbib>
                <pubidlist>
                   <pubid idtype="doi">10.1017/S1041610204000468</pubid>
                   <pubid idtype="pmpid" link="fulltext">15559754</pubid>
                </pubidlist>
             </xrefbib>
          </bibl>
          <bibl id="B10">
             <title>
                <p>The impact of the symptoms of dementia on caregivers</p>
             </title>
             <aug>
                <au>
                   <snm>Donaldson</snm>
                   <fnm>C</fnm>
                </au>
                <au>
                   <snm>Tarrier</snm>
                   <fnm>N</fnm>
                </au>
                <au>
                   <snm>Burns</snm>
                   <fnm>A</fnm>
                </au>
             </aug>
             <source>Br J Psychiatry</source>
             <pubdate>1997</pubdate>
             <volume>170</volume>
             <fpage>62</fpage>
             <lpage>68</lpage>
             <xrefbib>
                <pubidlist>
                   <pubid idtype="doi">10.1192/bjp.170.1.62</pubid>
                   <pubid idtype="pmpid" link="fulltext">9068778</pubid>
                </pubidlist>
             </xrefbib>
          </bibl>
          <bibl id="B11">
             <title>
                <p>Caregiver characteristics are associated with neuropsychiatric symptoms of dementia</p>
             </title>
             <aug>
                <au>
                   <snm>Sink</snm>
                   <fnm>KM</fnm>
                </au>
                <au>
                   <snm>Covinsky</snm>
                   <fnm>KE</fnm>
                </au>
                <au>
                   <snm>Barnes</snm>
                   <fnm>DE</fnm>
                </au>
                <au>
                   <snm>Newcomer</snm>
                   <fnm>RJ</fnm>
                </au>
                <au>
                   <snm>Yaffe</snm>
                   <fnm>K</fnm>
                </au>
             </aug>
             <source>J Am Geriatr Soc</source>
             <pubdate>2006</pubdate>
             <volume>54</volume>
             <issue>5</issue>
             <fpage>796</fpage>
             <lpage>803</lpage>
             <xrefbib>
                <pubidlist>
                   <pubid idtype="doi">10.1111/j.1532-5415.2006.00697.x</pubid>
                   <pubid idtype="pmpid" link="fulltext">16696746</pubid>
                </pubidlist>
             </xrefbib>
          </bibl>
          <bibl id="B12">
             <title>
                <p>Agitation in the elderly</p>
             </title>
             <aug>
                <au>
                   <snm>Cohen-Mansfield</snm>
                   <fnm>J</fnm>
                </au>
             </aug>
             <source>Adv Psychosom Med</source>
             <pubdate>1989</pubdate>
             <volume>19</volume>
             <fpage>101</fpage>
             <lpage>113</lpage>
             <xrefbib>
                <pubidlist>
                   <pubid idtype="pmpid" link="fulltext">2686357</pubid>
                </pubidlist>
             </xrefbib>
          </bibl>
          <bibl id="B13">
             <title>
                <p>Prevalence of neuropsychiatric symptoms in dementia and mild cognitive impairment: results from the cardiovascular health study</p>
             </title>
             <aug>
                <au>
                   <snm>Lyketsos</snm>
                   <fnm>CG</fnm>
                </au>
                <au>
                   <snm>Lopez</snm>
                   <fnm>O</fnm>
                </au>
                <au>
                   <snm>Jones</snm>
                   <fnm>B</fnm>
                </au>
                <au>
                   <snm>Fitzpatrick</snm>
                   <fnm>AL</fnm>
                </au>
                <au>
                   <snm>Breitner</snm>
                   <fnm>J</fnm>
                </au>
                <au>
                   <snm>DeKosky</snm>
                   <fnm>S</fnm>
                </au>
             </aug>
             <source>JAMA</source>
             <pubdate>2002</pubdate>
             <volume>288</volume>
             <issue>12</issue>
             <fpage>1475</fpage>
             <lpage>1483</lpage>
             <xrefbib>
                <pubidlist>
                   <pubid idtype="doi">10.1001/jama.288.12.1475</pubid>
                   <pubid idtype="pmpid" link="fulltext">12243634</pubid>
                </pubidlist>
             </xrefbib>
          </bibl>
          <bibl id="B14">
             <title>
                <p>Predictors of institutionalization for people with dementia living at home with a carer</p>
             </title>
             <aug>
                <au>
                   <snm>Hope</snm>
                   <fnm>T</fnm>
                </au>
                <au>
                   <snm>Keene</snm>
                   <fnm>J</fnm>
                </au>
                <au>
                   <snm>Gedling</snm>
                   <fnm>K</fnm>
                </au>
                <au>
                   <snm>Fairburn</snm>
                   <fnm>CG</fnm>
                </au>
                <au>
                   <snm>Jacoby</snm>
                   <fnm>R</fnm>
                </au>
             </aug>
             <source>Int J Geriatr Psychiatry</source>
             <pubdate>1998</pubdate>
             <volume>13</volume>
             <issue>10</issue>
             <fpage>682</fpage>
             <lpage>690</lpage>
             <xrefbib>
                <pubidlist>
                   <pubid idtype="doi">10.1002/(SICI)1099-1166(1998100)13:10&lt;682::AID-GPS847&gt;3.0.CO;2-Y</pubid>
                   <pubid idtype="pmpid" link="fulltext">9818303</pubid>
                </pubidlist>
             </xrefbib>
          </bibl>
          <bibl id="B15">
             <title>
                <p>Pharmacological treatment of neuropsychiatric symptoms of dementia: a review of the evidence</p>
             </title>
             <aug>
                <au>
                   <snm>Sink</snm>
                   <fnm>KM</fnm>
                </au>
                <au>
                   <snm>Holden</snm>
                   <fnm>KF</fnm>
                </au>
                <au>
                   <snm>Yaffe</snm>
                   <fnm>K</fnm>
                </au>
             </aug>
             <source>JAMA</source>
             <pubdate>2005</pubdate>
             <volume>293</volume>
             <issue>5</issue>
             <fpage>596</fpage>
             <lpage>608</lpage>
             <xrefbib>
                <pubidlist>
                   <pubid idtype="doi">10.1001/jama.293.5.596</pubid>
                   <pubid idtype="pmpid" link="fulltext">15687315</pubid>
                </pubidlist>
             </xrefbib>
          </bibl>
          <bibl id="B16">
             <title>
                <p>Management of behavioral and psychological symptoms of dementia in a dedicated psychogeriatric unit: a pilot experience</p>
             </title>
             <aug>
                <au>
                   <snm>Koskas</snm>
                   <fnm>P</fnm>
                </au>
                <au>
                   <snm>Feugeas</snm>
                   <fnm>MC</fnm>
                </au>
                <au>
                   <snm>Saad</snm>
                   <fnm>S</fnm>
                </au>
                <au>
                   <snm>Belqadi</snm>
                   <fnm>S</fnm>
                </au>
                <au>
                   <snm>Daraux</snm>
                   <fnm>J</fnm>
                </au>
                <au>
                   <snm>Drunat</snm>
                   <fnm>O</fnm>
                </au>
             </aug>
             <source>Alzheimer Dis Assoc Disord</source>
             <pubdate>2011</pubdate>
             <volume>25</volume>
             <issue>2</issue>
             <fpage>184</fpage>
             <lpage>186</lpage>
             <xrefbib>
                <pubidlist>
                   <pubid idtype="doi">10.1097/WAD.0b013e3181fa2f81</pubid>
                   <pubid idtype="pmpid" link="fulltext">21606906</pubid>
                </pubidlist>
             </xrefbib>
          </bibl>
          <bibl id="B17">
             <title>
                <p>Effectiveness of a cognitive-behavioral unit on behavioral and psychological symptoms of dementia</p>
             </title>
             <aug>
                <au>
                   <snm>Delphin-Combe</snm>
                   <fnm>F</fnm>
                </au>
                <au>
                   <snm>Roubaud</snm>
                   <fnm>C</fnm>
                </au>
                <au>
                   <snm>Martin-Gaujard</snm>
                   <fnm>G</fnm>
                </au>
                <au>
                   <snm>Fortin</snm>
                   <fnm>ME</fnm>
                </au>
                <au>
                   <snm>Rouch</snm>
                   <fnm>I</fnm>
                </au>
                <au>
                   <snm>Krolak-Salmon</snm>
                   <fnm>P</fnm>
                </au>
             </aug>
             <source>Rev Neurol</source>
             <pubdate>2013</pubdate>
             <volume>169</volume>
             <issue>6&#8211;7</issue>
             <fpage>490</fpage>
             <lpage>494</lpage>
             <xrefbib>
                <pubidlist>
                   <pubid idtype="doi">10.1016/j.neurol.2012.10.017</pubid>
                   <pubid idtype="pmpid" link="fulltext">23523558</pubid>
                </pubidlist>
             </xrefbib>
          </bibl>
          <bibl id="B18">
             <title>
                <p>&#8220;Mini Mental State&#8221;. A practical method for grading the cognitive state of patients for the clinician</p>
             </title>
             <aug>
                <au>
                   <snm>Folstein</snm>
                   <fnm>MF</fnm>
                </au>
                <au>
                   <snm>Folstein</snm>
                   <fnm>SE</fnm>
                </au>
                <au>
                   <snm>McHugh</snm>
                   <fnm>PR</fnm>
                </au>
             </aug>
             <source>J Psychiatr Res</source>
             <pubdate>1975</pubdate>
             <volume>12</volume>
             <fpage>189</fpage>
             <lpage>198</lpage>
             <xrefbib>
                <pubidlist>
                   <pubid idtype="doi">10.1016/0022-3956(75)90026-6</pubid>
                   <pubid idtype="pmpid" link="fulltext">1202204</pubid>
                </pubidlist>
             </xrefbib>
          </bibl>
          <bibl id="B19">
             <title>
                <p>The Neuropsychiatric Inventory: comprehensive assessment of psychopathology in dementia</p>
             </title>
             <aug>
                <au>
                   <snm>Cummings</snm>
                   <fnm>JL</fnm>
                </au>
                <au>
                   <snm>Mega</snm>
                   <fnm>M</fnm>
                </au>
                <au>
                   <snm>Gray</snm>
                   <fnm>K</fnm>
                </au>
                <au>
                   <snm>Rosenberg-Thompson</snm>
                   <fnm>S</fnm>
                </au>
                <au>
                   <snm>Carusi</snm>
                   <fnm>DA</fnm>
                </au>
                <au>
                   <snm>Gornbein</snm>
                   <fnm>J</fnm>
                </au>
             </aug>
             <source>Neurology</source>
             <pubdate>1994</pubdate>
             <volume>44</volume>
             <issue>12</issue>
             <fpage>2308</fpage>
             <lpage>2314</lpage>
             <xrefbib>
                <pubidlist>
                   <pubid idtype="doi">10.1212/WNL.44.12.2308</pubid>
                   <pubid idtype="pmpid" link="fulltext">7991117</pubid>
                </pubidlist>
             </xrefbib>
          </bibl>
          <bibl id="B20">
             <title>
                <p>L&#8217;inventaire Neuropsychiatrique: validation de la version Fran&#231;aise d&#8217;un instrument destin&#233; &#224; &#233;valuer les troubles du comportement chez les sujets d&#233;ments</p>
             </title>
             <aug>
                <au>
                   <snm>Robert</snm>
                   <fnm>PH</fnm>
                </au>
                <au>
                   <snm>M&#233;decin</snm>
                   <fnm>I</fnm>
                </au>
                <au>
                   <snm>Vincent</snm>
                   <fnm>S</fnm>
                </au>
                <au>
                   <snm>Staccini</snm>
                   <fnm>P</fnm>
                </au>
                <au>
                   <snm>Cattelin</snm>
                   <fnm>F</fnm>
                </au>
                <au>
                   <snm>Goni</snm>
                   <fnm>S</fnm>
                </au>
             </aug>
             <source>L&#8217;ann&#233;e G&#233;rontologique</source>
             <pubdate>1998</pubdate>
             <volume>5</volume>
             <fpage>63</fpage>
             <lpage>87</lpage>
          </bibl>
          <bibl id="B21">
             <title>
                <p>EQ-5D: a measure of health status from the EuroQol Group</p>
             </title>
             <aug>
                <au>
                   <snm>Rabin</snm>
                   <fnm>R</fnm>
                </au>
                <au>
                   <snm>deCharro</snm>
                   <fnm>F</fnm>
                </au>
             </aug>
             <source>Ann Med</source>
             <pubdate>2001</pubdate>
             <volume>33</volume>
             <fpage>337</fpage>
             <lpage>343</lpage>
             <xrefbib>
                <pubidlist>
                   <pubid idtype="doi">10.3109/07853890109002087</pubid>
                   <pubid idtype="pmpid" link="fulltext">11491192</pubid>
                </pubidlist>
             </xrefbib>
          </bibl>
          <bibl id="B22">
             <title>
                <p>[Facilitating environment for dementia patients&#8211;the Pixel study]</p>
             </title>
             <aug>
                <au>
                   <snm>Thomas</snm>
                   <fnm>P</fnm>
                </au>
                <au>
                   <snm>Hazif-Thomas</snm>
                   <fnm>C</fnm>
                </au>
                <au>
                   <snm>Delagnes</snm>
                   <fnm>V</fnm>
                </au>
                <au>
                   <snm>Bonduelle</snm>
                   <fnm>P</fnm>
                </au>
                <au>
                   <snm>Clement</snm>
                   <fnm>JP</fnm>
                </au>
             </aug>
             <source>Enc&#233;phale</source>
             <pubdate>2007</pubdate>
             <volume>33</volume>
             <issue>3 Pt 1</issue>
             <fpage>317</fpage>
             <lpage>325</lpage>
             <xrefbib>
                <pubidlist>
                   <pubid idtype="doi">10.1016/S0013-7006(07)92045-X</pubid>
                   <pubid idtype="pmpid" link="fulltext">17675929</pubid>
                </pubidlist>
             </xrefbib>
          </bibl>
          <bibl id="B23">
             <title>
                <p>Construction d&#8217;une &#233;chelle simplifi&#233;e pour la d&#233;tection en m&#233;decine g&#233;n&#233;rale du fardeau de l&#8217;aidant d&#8217;une personne &#226;g&#233;e d&#233;pendante</p>
             </title>
             <aug>
                <au>
                   <snm>Revel Da Rocha</snm>
                   <fnm>V</fnm>
                </au>
                <au>
                   <snm>Haritchabalet</snm>
                   <fnm>I</fnm>
                </au>
                <au>
                   <snm>Kervinio</snm>
                   <fnm>C</fnm>
                </au>
                <au>
                   <snm>Drode</snm>
                   <fnm>M</fnm>
                </au>
                <au>
                   <snm>Sauvanier</snm>
                   <fnm>M</fnm>
                </au>
                <au>
                   <snm>Geny</snm>
                   <fnm>C</fnm>
                </au>
                <au>
                   <snm>Placines</snm>
                   <fnm>B</fnm>
                </au>
                <au>
                   <snm>Roux</snm>
                   <fnm>C</fnm>
                </au>
                <au>
                   <snm>Albert</snm>
                   <fnm>D</fnm>
                </au>
                <au>
                   <snm>Delafourni&#232;re</snm>
                   <fnm>F</fnm>
                </au>
                <au>
                   <snm>Dartigues</snm>
                   <fnm>JF</fnm>
                </au>
             </aug>
             <source>L&#8217;ann&#233;e g&#233;rontologique</source>
             <pubdate>2002</pubdate>
             <volume>16</volume>
             <fpage>131</fpage>
             <lpage>137</lpage>
          </bibl>
          <bibl id="B24">
             <title>
                <p>La vuln&#233;rabilit&#233; de l&#8217;aidant principal des malades d&#233;ments &#224; domicile L&#8217;&#233;tude Pixel</p>
             </title>
             <aug>
                <au>
                   <snm>Thomas</snm>
                   <fnm>P</fnm>
                </au>
                <au>
                   <snm>Hazif-Thomas</snm>
                   <fnm>C</fnm>
                </au>
                <au>
                   <snm>Delagnes</snm>
                   <fnm>V</fnm>
                </au>
                <au>
                   <snm>Bonduelle</snm>
                   <fnm>P</fnm>
                </au>
                <au>
                   <snm>Cl&#233;ment</snm>
                   <fnm>JP</fnm>
                </au>
             </aug>
             <source>Psychol NeuroPsychiatr Viell</source>
             <pubdate>2005</pubdate>
             <volume>3</volume>
             <fpage>207</fpage>
             <lpage>220</lpage>
          </bibl>
       </refgrp>
    </bm>
 </art>
