<art>
    <ui>s12870-014-0243-1</ui>
    <ji>1471-2229</ji>
    <fm>
       <dochead>Database</dochead>
       <bibl>
          <title>
             <p>TMDB: A literature-curated database for small molecular compounds found from tea</p>
          </title>
          <aug>
             <au id="A1">
                <snm>Yue</snm>
                <fnm>Yi</fnm>
                <insr iid="I1"/>
                <email>1023625041@qq.com</email>
             </au>
             <au id="A2">
                <snm>Chu</snm>
                <fnm>Gang-Xiu</fnm>
                <insr iid="I1"/>
                <email>chugx109@hotmail.com</email>
             </au>
             <au id="A3">
                <snm>Liu</snm>
                <fnm>Xue-Shi</fnm>
                <insr iid="I1"/>
                <email>2246208056@qq.com</email>
             </au>
             <au id="A4">
                <snm>Tang</snm>
                <fnm>Xing</fnm>
                <insr iid="I1"/>
                <email>813068298@qq.com</email>
             </au>
             <au id="A5">
                <snm>Wang</snm>
                <fnm>Wei</fnm>
                <insr iid="I1"/>
                <email>1321936144@qq.com</email>
             </au>
             <au id="A6">
                <snm>Liu</snm>
                <fnm>Guang-Jin</fnm>
                <insr iid="I1"/>
                <email>279938992@qq.com</email>
             </au>
             <au id="A7">
                <snm>Yang</snm>
                <fnm>Tao</fnm>
                <insr iid="I1"/>
                <email>1933720449@qq.com</email>
             </au>
             <au id="A8">
                <snm>Ling</snm>
                <fnm>Tie-Jun</fnm>
                <insr iid="I1"/>
                <email>lingtj@ahau.edu.cn</email>
             </au>
             <au id="A9">
                <snm>Wang</snm>
                <fnm>Xiao-Gang</fnm>
                <insr iid="I1"/>
                <email>xgwang@ahau.edu.cn</email>
             </au>
             <au id="A10">
                <snm>Zhang</snm>
                <fnm>Zheng-Zhu</fnm>
                <insr iid="I1"/>
                <email>zzz@ahau.edu.cn</email>
             </au>
             <au id="A11">
                <snm>Xia</snm>
                <fnm>Tao</fnm>
                <insr iid="I1"/>
                <email>xiatao62@126.com</email>
             </au>
             <au id="A12" ca="yes">
                <snm>Wan</snm>
                <fnm>Xiao-Chun</fnm>
                <insr iid="I1"/>
                <email>xcwan@ahau.edu.cn</email>
             </au>
             <au id="A13" ca="yes">
                <snm>Bao</snm>
                <fnm>Guan-Hu</fnm>
                <insr iid="I1"/>
                <email>baoguanhu@ahau.edu.cn</email>
             </au>
          </aug>
          <insg>
             <ins id="I1">
                <p>Key Laboratory of Tea Biochemistry and Biotechnology, Anhui Agricultural University, 130 West Changjiang Road, Hefei 230036, Anhui Province, China</p>
             </ins>
          </insg>
          <source>BMC Plant Biology</source>
          <issn>1471-2229</issn>
          <pubdate>2014</pubdate>
          <volume>14</volume>
          <issue>1</issue>
          <fpage>243</fpage>
          <url>http://www.biomedcentral.com/1471-2229/14/243</url>
          <xrefbib>
             <pubidlist>
                <pubid idtype="doi">10.1186/s12870-014-0243-1</pubid>
                <pubid idtype="pmpid"><!-- Need to check source for data--></pubid>
             </pubidlist>
          </xrefbib>
       </bibl>
       <history>
          <rec>
             <date>
                <day>5</day>
                <month>6</month>
                <year>2014</year>
             </date>
          </rec>
          <acc>
             <date>
                <day>8</day>
                <month>9</month>
                <year>2014</year>
             </date>
          </acc>
          <pub>
             <date>
                <day>16</day>
                <month>9</month>
                <year>2014</year>
             </date>
          </pub>
       </history>
       <cpyrt>
          <year>2014</year>
          <collab>Yue et al.; licensee BioMed Central Ltd.</collab>
          <note>This is an Open Access article distributed under the terms of the Creative Commons Attribution License (<url>http://creativecommons.org/licenses/by/4.0</url>), which permits unrestricted use, distribution, and reproduction in any medium, provided the original work is properly credited. The Creative Commons Public Domain Dedication waiver (<url>http://creativecommons.org/publicdomain/zero/1.0/</url>) applies to the data made available in this article, unless otherwise stated.</note>
       </cpyrt>
       <kwdg>
          <kwd>Tea</kwd>
          <kwd>Camellia sinensis</kwd>
          <kwd>Small molecular</kwd>
          <kwd>Compounds</kwd>
          <kwd>Metabolites</kwd>
       </kwdg>
       <abs>
          <sec>
             <st>
                <p>Abstract</p>
             </st>
             <sec>
                <st>
                   <p>Background</p>
                </st>
                <p>Tea is one of the most consumed beverages worldwide. The healthy effects of tea are attributed to a wealthy of different chemical components from tea. Thousands of studies on the chemical constituents of tea had been reported. However, data from these individual reports have not been collected into a single database. The lack of a curated database of related information limits research in this field, and thus a cohesive database system should necessarily be constructed for data deposit and further application.</p>
             </sec>
             <sec>
                <st>
                   <p>Description</p>
                </st>
                <p>The Tea Metabolome database (TMDB), a manually curated and web-accessible database, was developed to provide detailed, searchable descriptions of small molecular compounds found in <it>Camellia spp.</it> esp. in the plant <it>Camellia sinensis</it> and compounds in its manufactured products (different kinds of tea infusion). TMDB is currently the most complete and comprehensive curated collection of tea compounds data in the world. It contains records for more than 1393 constituents found in tea with information gathered from 364 published books, journal articles, and electronic databases. It also contains experimental <sup>1</sup>H NMR and <sup>13</sup>C NMR data collected from the purified reference compounds or collected from other database resources such as HMDB. TMDB interface allows users to retrieve tea compounds entries by keyword search using compound name, formula, occurrence, and CAS register number. Each entry in the TMDB contains an average of 24 separate data fields including its original plant species, compound structure, formula, molecular weight, name, CAS registry number, compound types, compound uses including healthy benefits, reference literatures, NMR, MS data, and the corresponding ID from databases such as HMDB and Pubmed. Users can also contribute novel regulatory entries by using a web-based submission page. The TMDB database is freely accessible from the URL of <url>http://pcsb.ahau.edu.cn:8080/TCDB/index.jsp</url>. The TMDB is designed to address the broad needs of tea biochemists, natural products chemists, nutritionists, and members of tea related research community.</p>
             </sec>
             <sec>
                <st>
                   <p>Conclusion</p>
                </st>
                <p>The TMDB database provides a solid platform for collection, standardization, and searching of compounds information found in tea. As such this database will be a comprehensive repository for tea biochemistry and tea health research community.</p>
             </sec>
          </sec>
       </abs>
    </fm>
    <bdy>
       <sec>
          <st>
             <p>1 Background</p>
          </st>
          <p>Tea is the second most highly consumed beverage worldwide other than water. However, unlike water, tea contains thousands of chemical components including polyphenols (mainly catechins, flavonoids and its glycosides, proanthocyanidins, phenolic acids and their derivatives), purine (xanthine) alkaloids, terpenoids and its glycosides, aroma precursors, aroma compounds, fatty acids, amino acids, carbohydrates, etc., which showed a wide spectrum of bioactivities <abbrgrp>
                <abbr bid="B1">1</abbr>
             </abbrgrp>-<abbrgrp>
                <abbr bid="B11">11</abbr>
             </abbrgrp>. Since the 1950s, tea has been vigorously researched. According to the web of knowledge, the published items on tea compounds have increased from single digit number of articles per year in 1950s to current more than 600 ones, with total citations of more than 23,000 each year now (Figure&#160;<figr fid="F1">1</figr>). The high average citations (27/item) and high h-index (149) suggested that research related to tea is a hot spot (Figure&#160;<figr fid="F1">1</figr>). However, data from these individual reports have not been collected into a single database. The lack of a curated database of related chemicals limits research in this field, and thus a cohesive database system should necessarily be constructed for data deposit and further application in related field.</p>
          
             <fig id="F1">
                <title>
                   <p>Figure 1</p>
                </title>
                <caption>
                   <p>Published items and citations for Tea chemistry during the latest 20&#160;years.</p>
                </caption>
                <text>
                   <p>
                      <b>Published items and citations for Tea chemistry during the latest 20&#160;years.</b>
                   </p>
                </text>
                <graphic file="s12870-014-0243-1-1"/>
             </fig>
          
          <p>Therefore, the tea metabolome project has been launched as an effort to identify all detectable compounds in tea and tea related manufactured products. In addition to experimentally identifying and quantifying hundreds of compounds in tea infusions, this multi-year project was also formally tasked with backfilling and validating the information on all previously identified compounds and providing this information as a freely available electronic database called the Tea Metabolome Database (TMDB). Most of the collecting compounds in the current TMDB version 1.0 are known compounds thanks to the work done by thousands of tea biochemists, natural products chemists, and metabolic biochemists over the last 60&#160;years. Currently, TMDB collects 1473 compounds information, including 1393 compounds from the species <it>Camellia sinensis and its varieties</it>, 60 compounds from other <it>Camellia spp.</it>, 1 from red tea (<it>Leptospermum scoparium</it>), and 17 in vivo metabolites of tea catechins which had been found in human, mice, and rats. Flavonoids, terpenoids, purine alkaloids, and theanine are the four major types of chemicals in tea. Metabolic pathways of the four classes of compounds are now available as those in the on-line metabolic pathway database KEGG <abbrgrp>
                <abbr bid="B12">12</abbr>
             </abbrgrp>. More recently, information about <it>C. sinensis</it> unigene involved the secondary metabolic pathways of flavonoids, theanine, and caffeine was also reported <abbrgrp>
                <abbr bid="B13">13</abbr>
             </abbrgrp>. Although most of the compounds can be found in the already known databases, dictionaries, and textbooks such as HMDB <abbrgrp>
                <abbr bid="B14">14</abbr>
             </abbrgrp>-<abbrgrp>
                <abbr bid="B16">16</abbr>
             </abbrgrp>, Dictionary of Natural Products (DNP) <abbrgrp>
                <abbr bid="B17">17</abbr>
             </abbrgrp>, Combined Chemical Dictironary (CCD) <abbrgrp>
                <abbr bid="B18">18</abbr>
             </abbrgrp>, KNApSAcK <abbrgrp>
                <abbr bid="B19">19</abbr>
             </abbrgrp>, Phenol-Explorer <abbrgrp>
                <abbr bid="B20">20</abbr>
             </abbrgrp>-<abbrgrp>
                <abbr bid="B22">22</abbr>
             </abbrgrp>, Tea Biochemistry <abbrgrp>
                <abbr bid="B23">23</abbr>
             </abbrgrp>, and Grand Dictionary of Chinese Tea <abbrgrp>
                <abbr bid="B24">24</abbr>
             </abbrgrp>, etc., the information included in these resources does not meet the unique data requirements for tea biochemists or tea related researchers. Besides, very limited amount of chemical constituents were included in above databases (Table&#160;<tblr tid="T1">1</tblr>). Researchers need data directly related to chemical constituents from tea. The tea related data need to be readily available, fully referenced, easily searched and to cover as much information about tea compounds as possible. To address these needs, and to serve as a potential model for other tea metabolomic resources, we have developed the TMDB.</p>
          
             <table id="T1">
                <title>
                   <p>Table 1</p>
                </title>
                <caption>
                   <p>
                      <b>Different amounts of chemical constituents from the genus Camellia included in the major compounds databases or dictionaries</b>
                   </p>
                </caption>
                <tgroup align="left" cols="6">
                   <colspec align="left" colname="c1" colnum="1" colwidth="*"/>
                   <colspec align="left" colname="c2" colnum="2" colwidth="*"/>
                   <colspec align="left" colname="c3" colnum="3" colwidth="*"/>
                   <colspec align="left" colname="c4" colnum="4" colwidth="*"/>
                   <colspec align="left" colname="c5" colnum="5" colwidth="*"/>
                   <colspec align="left" colname="c6" colnum="6" colwidth="*"/>
                   <thead>
                      <row rowsep="1" valign="top">
                         <entry colname="c1">
                            <p>
                               <b>Databases</b>
                            </p>
                         </entry>
                         <entry colname="c2">
                            <p>
                               <b>HMDB</b>
                            </p>
                         </entry>
                         <entry colname="c3">
                            <p>
                               <b>CCD</b>
                            </p>
                         </entry>
                         <entry colname="c4">
                            <p>
                               <b>DNP</b>
                            </p>
                         </entry>
                         <entry colname="c5">
                            <p>
                               <b>KNApSAcK</b>
                            </p>
                         </entry>
                         <entry colname="c6">
                            <p>
                               <b>TMDB</b>
                            </p>
                         </entry>
                      </row>
                   </thead>
                   <tbody>
                      <row valign="top">
                         <entry colname="c1">
                            <p>Number of compounds from <it>Camellia (sinensis)</it>
                            </p>
                         </entry>
                         <entry colname="c2">
                            <p>106</p>
                         </entry>
                         <entry colname="c3">
                            <p>312</p>
                         </entry>
                         <entry colname="c4">
                            <p>295</p>
                         </entry>
                         <entry colname="c5">
                            <p>250 (195)</p>
                         </entry>
                         <entry colname="c6">
                            <p>1473 (1393)</p>
                         </entry>
                      </row>
                   </tbody>
                </tgroup>
             </table>
          
          <p>The Tea Metabolome Database will collect the small molecular compounds (MW&#8201;&lt;&#8201;2000&#160;Da) found in tea and its related manufactured products.</p>
       </sec>
       <sec>
          <st>
             <p>2 Description, construction, content</p>
          </st>
          <p>Fundamentally, the TMDB is a multi-purpose biocheminformics database with focus on qualitative, analytic, and molecular scale description of the compounds from tea and their bioactivities. It combines enriched data from textbooks, journal articles, and other existing databases such as HMDB, Pubmed, etc. It also provides a large body of collected experimental data especially the original NMR spectra.</p>
          <p>To compile, confirm, and validate the diverse data, the quantity and quality of experimental data, broad knowledge are needed to meet the difficult and time consuming task of constructing the TMDB. Thus, the team of TMDB includes eight tea biochemists and natural products chemists, two NMR specialists, and three bioinformticians with dual training in chemistry and computer science.</p>
          <p>The TMDB currently contains more than 1473 compounds entries with more than 30,000 different data entry fields. The metabolic pathways for flavonoids, terpenoids, theanine, and caffeine are also provided. Hundreds of the compounds are linked to experimentally acquired or literature-sourced <sup>1</sup>H, <sup>13</sup>C NMR, data and the original NMR spectra as well.</p>
       </sec>
       <sec>
          <st>
             <p>3 Utility</p>
          </st>
          <p>The TMDB is fully searchable with built-in tools for viewing, extracting, and sorting metabolites, NMR and bioassay data. Detailed instructions on where to locate and how to use these browsing/search tools are provided on the TMDB homepage. It supports text queries instead of specific name queries. It also offers general data browsing using the &#8220;Browse&#8221; button located in the TMDB menu bar. When you put the mouse at &#8220;Browse&#8221; button, five items (TMDB ID browse, compounds sources browse, pathway browse, Latin name browse, and compound classification browse) will appear in drop-down box (Figure&#160;<figr fid="F2">2</figr>). Clicking on the item opens a webpage describing the compound of interest in much greater detail. Each compound entry contains an average of 24 data fields (Table&#160;<tblr tid="T2">2</tblr>) with most of the information being devoted to chemical or physico-chemical data.</p>
          
             <fig id="F2">
                <title>
                   <p>Figure 2</p>
                </title>
                <caption>
                   <p>TMDB: screenshot of drop-down box browse (left), name, other, and 1D NMR search.</p>
                </caption>
                <text>
                   <p>
                      <b>TMDB: screenshot of drop-down box browse (left), name, other, and 1D NMR search.</b>
                   </p>
                </text>
                <graphic file="s12870-014-0243-1-2"/>
             </fig>
          
          
             <table id="T2">
                <title>
                   <p>Table 2</p>
                </title>
                <caption>
                   <p>
                      <b>Each compound entry contains averagely 24 data fields</b>
                   </p>
                </caption>
                <tgroup align="left" cols="2">
                   <colspec align="left" colname="c1" colnum="1" colwidth="*"/>
                   <colspec align="left" colname="c2" colnum="2" colwidth="*"/>
                   <thead>
                      <row rowsep="1" valign="top">
                         <entry colname="c1">
                            <p>
                               <b>TMDB ID</b>
                            </p>
                         </entry>
                         <entry colname="c2">
                            <p>
                               <b>TMDB00001</b>
                            </p>
                         </entry>
                      </row>
                   </thead>
                   <tbody>
                      <row valign="top">
                         <entry colname="c1">
                            <p>CAS RN</p>
                         </entry>
                         <entry colname="c2">
                            <p>989-51-5</p>
                         </entry>
                      </row>
                      <row valign="top">
                         <entry colname="c1">
                            <p>Entry name</p>
                         </entry>
                         <entry colname="c2">
                            <p>3-O-(3,4,5-Trihydroxybenzoyl) 3,3&#8242;,4&#8242;,5,5&#8242;,7-Hexahydroxyflavan</p>
                         </entry>
                      </row>
                      <row valign="top">
                         <entry colname="c1">
                            <p>Synonym(s)</p>
                         </entry>
                         <entry colname="c2">
                            <p>3-O-Galloylepigallocatechin. Teatannin II. Epigallocatechin 3-gallate. EGCG</p>
                         </entry>
                      </row>
                      <row valign="top">
                         <entry colname="c1">
                            <p>System name</p>
                         </entry>
                         <entry colname="c2">
                            <p>(2R,3R)-5,7-dihydroxy-2-(3,4,5-trihydroxyphenyl)chroman-3-yl 3,4,5-trihydroxybenzoate</p>
                         </entry>
                      </row>
                      <row valign="top">
                         <entry colname="c1">
                            <p>2D structure</p>
                         </entry>
                         <entry colname="c2"/>
                      </row>
                      <row valign="top">
                         <entry colname="c1">
                            <p>Formula</p>
                         </entry>
                         <entry colname="c2">
                            <p>C22H18O11</p>
                         </entry>
                      </row>
                      <row valign="top">
                         <entry colname="c1">
                            <p>Mol weight</p>
                         </entry>
                         <entry colname="c2">
                            <p>458.37172</p>
                         </entry>
                      </row>
                      <row valign="top">
                         <entry colname="c1">
                            <p>Compound classification</p>
                         </entry>
                         <entry colname="c2">
                            <p>Catechins, Flavonoids</p>
                         </entry>
                      </row>
                      <row valign="top">
                         <entry colname="c1">
                            <p>Tea taxonomy</p>
                         </entry>
                         <entry colname="c2">
                            <p>Green tea, Black tea, Oolong tea, Dark tea</p>
                         </entry>
                      </row>
                      <row valign="top">
                         <entry colname="c1">
                            <p>Latin name</p>
                         </entry>
                         <entry colname="c2">
                            <p>Camellia sinensis</p>
                         </entry>
                      </row>
                      <row valign="top">
                         <entry colname="c1">
                            <p>Chemists</p>
                         </entry>
                         <entry colname="c2">
                            <p>Bao Guanhu, Zhu Yunfei</p>
                         </entry>
                      </row>
                      <row valign="top">
                         <entry colname="c1">
                            <p>Initial amount</p>
                         </entry>
                         <entry colname="c2">
                            <p>1&#160;g</p>
                         </entry>
                      </row>
                      <row valign="top">
                         <entry colname="c1">
                            <p>Bioactivities</p>
                         </entry>
                         <entry colname="c2">
                            <p>Shows anti-HIV activity. Tumour promotion inhibitor, putative cancer chemopreventive agent, affects tumour cell adhesion and invasion. Implicated in occup. asthma in green tea factories. Inhibits metalloproteinases</p>
                         </entry>
                      </row>
                      <row valign="top">
                         <entry colname="c1">
                            <p>References</p>
                         </entry>
                         <entry colname="c2">
                            <p>J. Chromatogr. A 2005,1083, 223&#8211;228; Phytochemistry 2006, 67, 1849&#8211;1855; Magn. Reson. Chem. 1996, 34, 887&#8211;890. (occur, nmr, ms)</p>
                         </entry>
                      </row>
                      <row valign="top">
                         <entry colname="c1">
                            <p>Publication year(s)</p>
                         </entry>
                         <entry colname="c2">
                            <p>1996. 2005. 2006</p>
                         </entry>
                      </row>
                      <row valign="top">
                         <entry colname="c1">
                            <p>
                               <sup>1</sup>H NMR data</p>
                         </entry>
                         <entry colname="c2">
                            <p>2.71,2.92,4.86,5.42,5.87,6.42,6.86</p>
                         </entry>
                      </row>
                      <row valign="top">
                         <entry colname="c1">
                            <p>
                               <sup>1</sup>H NMR spectrum</p>
                         </entry>
                         <entry colname="c2"/>
                      </row>
                      <row valign="top">
                         <entry colname="c1">
                            <p>
                               <sup>13</sup>C NMR data</p>
                         </entry>
                         <entry colname="c2">
                            <p>25.9,68.9,77.5,94.7,95.4,98.3,105.7,109.1,120.3,129.5,132.5,138.4,144.9,145.3,155.8,156.4,156.4,166.4</p>
                         </entry>
                      </row>
                      <row valign="top">
                         <entry colname="c1">
                            <p>
                               <sup>13</sup>C NMR spectrum</p>
                         </entry>
                         <entry colname="c2"/>
                      </row>
                      <row valign="top">
                         <entry colname="c1">
                            <p>MS data</p>
                         </entry>
                         <entry colname="c2"/>
                      </row>
                      <row valign="top">
                         <entry colname="c1">
                            <p>MS/MS data</p>
                         </entry>
                         <entry colname="c2"/>
                      </row>
                      <row valign="top">
                         <entry colname="c1">
                            <p>Pathways</p>
                         </entry>
                         <entry colname="c2">
                            <p>Flavonoid</p>
                         </entry>
                      </row>
                      <row valign="top">
                         <entry colname="c1">
                            <p>KEGG map</p>
                         </entry>
                         <entry colname="c2">
                            <p>map00941</p>
                         </entry>
                      </row>
                      <row valign="top">
                         <entry colname="c1">
                            <p>HMDB ID</p>
                         </entry>
                         <entry colname="c2">
                            <p>HMDB03153</p>
                         </entry>
                      </row>
                      <row valign="top">
                         <entry colname="c1">
                            <p>Pubmed ID</p>
                         </entry>
                         <entry colname="c2">
                            <p>CID 65064</p>
                         </entry>
                      </row>
                   </tbody>
                </tgroup>
             </table>
          
          <p>It offers &#8220;Search&#8221; buttons too (Figure&#160;<figr fid="F2">2</figr>). When you put the mouse at &#8220;search&#8221; button, three search means are provided: name search, other search, and 1D NMR data search (Figure&#160;<figr fid="F2">2</figr>). Clicking on the name search, you can search the entry name, synonym, or system name of any compound you want to retrieve. For example, if you put &#8220;EGCG&#8221; in the synonym name search, several related items will appear (Figure&#160;<figr fid="F3">3</figr>). Clicking the first item, you can find metabolites detail information of the compound &#8220;EGCG&#8221;. The other search button provides CAS Registry Number, formula, references, publication year, and/or pathway type search for the compound you are interested in.</p>
          
             <fig id="F3">
                <title>
                   <p>Figure 3</p>
                </title>
                <caption>
                   <p>Retrieve a compound in three search methods (name, other, and 1D NMR data), search results, and metabolites detailed information.</p>
                </caption>
                <text>
                   <p>
                      <b>Retrieve a compound in three search methods (name, other, and 1D NMR data), search results, and metabolites detailed information.</b>
                   </p>
                </text>
                <graphic file="s12870-014-0243-1-3"/>
             </fig>
          
          <p>A key feature of TMDB is that it also provides searchable NMR data with the similarity identification which is highly valuable for the identification of metabolites from the crude extract and the tea metabolomics research.</p>
          <sec>
             <st>
                <p>3.1 User submit to TMDB</p>
             </st>
             <p>TMDB provides a submit page that allows nonaffiliated researchers to independently contribute novel tea metabolites as they become available (Figure&#160;<figr fid="F4">4</figr>).</p>
             
                <fig id="F4">
                   <title>
                      <p>Figure 4</p>
                   </title>
                   <caption>
                      <p>TMDB: screenshot of the webpage from which new data can be added by an authorized compiler.</p>
                   </caption>
                   <text>
                      <p>
                         <b>TMDB: screenshot of the webpage from which new data can be added by an authorized compiler.</b>
                      </p>
                   </text>
                   <graphic file="s12870-014-0243-1-4"/>
                </fig>
             
             <p>For user submissions, primary required fields are: 1) plant species, 2) compound name, 3) compound formula, 4) compound molecular weight, 5) compound structure, 6) NMR data, 7) MS data, 8) tea taxonomy, 9) reference. The curator(s) at our site conducts manual verification of the original publication(s) for data validation purposes to maintain the quality and integrity of the database. Submissions that pass this review process are then approved for entry into the TMDB database. Notably, all new submission will be made available in coming TMDB versions on a monthly release schedule.</p>
          </sec>
          <sec>
             <st>
                <p>3.2 Database implementation</p>
             </st>
             <p>The TMDB is essentially a web-friendly front-end to a sophisticated MSSQL server relational database (2008 R2). Both are maintained on a Windows server 2003 equipped with a 2&#160;GHz CPU processor and 2&#160;GB of RAM. JSP scripts are run every night to read selected portions of the MSSQL database and to write out the data into raw text and XML formats. The raw text is dynamically rendered into HTML (with images and hyperlinks) using a series of custom JSP scripts. It is a Java application that uses Apache Tomcat server 7.0 technologies such as Java server Pages (JSP) and Java servlets to manage web-based data input and data queries.</p>
          </sec>
       </sec>
       <sec>
          <st>
             <p>4 Discussion</p>
          </st>
          <p>In China, tea related drinking has been lasted for more than three thousand of years. Along with the historical development and social progress, different kinds of tea and tea culture were developed. Up to now, tea can be classified into four major types according to the degree of fermentation: non-fermented tea (green tea including premium teas from different places of China such as Xi-Hu Longjin in Zhejiang province, Lu-An Guapian, Huang-Shang Maofeng, Tai-Ping Houkui in Anhui province, Biluochun in Jiangsu province), partially fermented tea (white tea such as An-Xi white tea from Fujian province, yellow tea such as Huo-Shang-Huang-Ya from Anhui province, and Oolong tea such as Tianguanying from Fujian province), fully fermented tea (Black tea such as the famous Qi-Men also Keemun black tea from Anhui province), and post-fermented tea (dark tea such as the famous Pu-erh tea from Yunnan province, brick tea such as Yi-Yang Fu Brick tea from Hunan province and Jing-Wei Fu Brick tea from Shanxi province, Bowl tea, and Tuo tea) <abbrgrp>
                <abbr bid="B25">25</abbr>
             </abbrgrp>-<abbrgrp>
                <abbr bid="B28">28</abbr>
             </abbrgrp> (Figure&#160;<figr fid="F5">5</figr>).</p>
          
             <fig id="F5">
                <title>
                   <p>Figure 5</p>
                </title>
                <caption>
                   <p>Ten famous Chinese teas belong to the four categories of tea according to the increment of fermentation, up five: Xi-Hu Longjin, Lu-An Guapian, Huang-Shang Maofeng, Tai-Ping Houkui, Biluochun (all green tea, non-fermented); down five: Tianguanying (Oolong tea, semifermented), An-Xi white tea (partially fermented), Qi-Men also Keemun black tea (fully fermented), Pu-erh Tea (dark tea, post fermented), Jing-Wei Fu Brick tea (dark tea, post fermented).</p>
                </caption>
                <text>
                   <p>
                      <b>Ten famous Chinese teas belong to the four categories of tea according to the increment of fermentation, up five: Xi-Hu Longjin, Lu-An Guapian, Huang-Shang Maofeng, Tai-Ping Houkui, Biluochun (all green tea, non-fermented); down five: Tianguanying (Oolong tea, semifermented), An-Xi white tea (partially fermented), Qi-Men also Keemun black tea (fully fermented), Pu-erh Tea (dark tea, post fermented), Jing-Wei Fu Brick tea (dark tea, post fermented).</b>
                   </p>
                </text>
                <graphic file="s12870-014-0243-1-5"/>
             </fig>
          
          <p>The tea metabolome database is defined as the first comprehensive collection of small molecular compounds found from tea. Constitution of the tea metabolome database depends on that a compound is found from tea or tea products including the original tea plant, the processed or manufactured tea. The molecular weight of a compound is below 2000&#160;Da which excludes big molecules such as protein and polysaccharides. Currently, TMDB does not collect metals either. Tea compounds are first identified by literature surveys such as text books, Dictionary of Natural Products (DNP), HMDB, and most from original journal articles. Some of the data especially the NMR data and spectra are collected from experimental sources in our team (NMR experiments were carried out using a Bruker Avance 400&#160;MHz NMR spectrometer, DMSO-<it>d6</it>, <it>&#948;</it> as ppm). If a compound is found to originate from tea and to be within the molecular weight limit, information about it is prepared by one member of our curation team and separately checked by other member of the team. Additional consistency checks of the information (molecular weight matches chemical formula, CAS number is correct, etc.) will be performed by senior natural products chemists. Every effort is being made to ensure the database is as complete, correct, and current as possible.</p>
          <p>The current database collects 1473 compounds, which is almost 6&#8211;10 times the amount of other databases. Since the research history of green tea and black tea were longer, more compounds had been found in these two types of teas than others. Additionally, one compound can exist in different types of teas. 713 compounds were found in green tea and 497 were found in black tea. Oolong tea is chemically studied from 1991 and 140 compounds were reported. Although few studies have been carried out on the compounds produced from microbial fermentation process and the changing chemical components during microbial fermentation of the dark tea until the upsurge about &#8220;Pu-erh Hot&#8221;, which includes all the post-fermented teas such as Pu-erh tea, Brick tea, Bowl tea, and Tuo tea, 455 compounds are collected from these types of teas (Table&#160;<tblr tid="T3">3</tblr>). Interestingly, about ten B-ring fission catechins have been found specifically existing in dark tea (the post-fermented tea) <abbrgrp>
                <abbr bid="B28">28</abbr>
             </abbrgrp>-<abbrgrp>
                <abbr bid="B34">34</abbr>
             </abbrgrp>, which may be produced by the microbial decomposition of tea catechins <abbrgrp>
                <abbr bid="B28">28</abbr>
             </abbrgrp>-<abbrgrp>
                <abbr bid="B35">35</abbr>
             </abbrgrp>.</p>
          
             <table id="T3">
                <title>
                   <p>Table 3</p>
                </title>
                <caption>
                   <p>
                      <b>Compounds reported in different tea infusion and materials</b>
                   </p>
                </caption>
                <tgroup align="left" cols="2">
                   <colspec align="char" char="," colname="c1" colnum="1" colwidth="*"/>
                   <colspec align="char" char="," colname="c2" colnum="2" colwidth="*"/>
                   <thead>
                      <row rowsep="1" valign="top">
                         <entry colname="c1">
                            <p>
                               <b>Tea taxonomy</b>
                            </p>
                         </entry>
                         <entry colname="c2">
                            <p>
                               <b>Number of compounds reported</b>
                            </p>
                         </entry>
                      </row>
                   </thead>
                   <tbody>
                      <row valign="top">
                         <entry colname="c1" valign="middle">
                            <p>Green tea</p>
                         </entry>
                         <entry colname="c2" valign="middle">
                            <p>713</p>
                         </entry>
                      </row>
                      <row valign="top">
                         <entry colname="c1" valign="middle">
                            <p>Oolong tea</p>
                         </entry>
                         <entry colname="c2" valign="middle">
                            <p>140</p>
                         </entry>
                      </row>
                      <row valign="top">
                         <entry colname="c1">
                            <p>Black tea</p>
                         </entry>
                         <entry colname="c2" valign="middle">
                            <p>497</p>
                         </entry>
                      </row>
                      <row valign="top">
                         <entry colname="c1" valign="middle">
                            <p>Dark tea</p>
                         </entry>
                         <entry colname="c2" valign="middle">
                            <p>455</p>
                         </entry>
                      </row>
                   </tbody>
                </tgroup>
             </table>
          
          <p>Chemically, about 74% of molecular weight of the collection of compounds in TMDB is below 500&#160;Da. More than 28% of the exact masses of the compounds correspond to a single compound which can be identified by high definition mass. However, as it can be seen from the distribution of number of compounds per exact mass in Figure&#160;<figr fid="F6">6</figr>, the amount of isomers can be up to 19, in which case the compounds of the unique chemical formulas were distributed over three or more chemical classes. This illustrates the strong need of reliable strategies for identification of these isomers which can be done to a certain extent using NMR spectra. In this case, one dimension NMR library was constructed. For NMR data queries of the 1D NMR data, EGCG as the example, the <sup>1</sup>H NMR data were arranged and put in the query bar like this: 2.71,2.92,4.86,5.42,5.87,6.42,6.86 (two decimals) and the <sup>13</sup>C NMR data like this: 25.9,68.9,77.5,94.7,95.4,98.3,105.7,109.1,120.3,129.5,132.5,138.4,144.9,145.3,155.8,156.4,156.4,166.4 (one decimal). Search the two series of data separately, a series of compounds will be found with the degree of similarity. Normally, the <sup>13</sup>C NMR data will give better matches because of less effect of the experimental conditions on the data. Therefore, better matches can be found through <sup>13</sup>C NMR data search.</p>
          
             <fig id="F6">
                <title>
                   <p>Figure 6</p>
                </title>
                <caption>
                   <p>Distribution of number of compounds per exact mass.</p>
                </caption>
                <text>
                   <p>
                      <b>Distribution of number of compounds per exact mass.</b>
                   </p>
                </text>
                <graphic file="s12870-014-0243-1-6"/>
             </fig>
          
          <p>The Tea metabolome database project, reported herein, provides the initial groundwork for an ongoing program for cataloging and utilizing compounds information in tea. Notably, the current version is not as comprehensive as we envision future versions to be. Ongoing collection and curation of new publications related to the concentration and MS in formation of metabolites from tea and tea products is essential to this program&#8217;s success. New versions of the databases are currently scheduled to be released on a yearly basis, incorporating all new submissions to the database over the last month of the preceding year. This practice is expected to increase comprehensiveness and accessibility of the database, promoting broader interest from researchers worldwide.</p>
       </sec>
       <sec>
          <st>
             <p>5 Conclusion</p>
          </st>
          <p>We constructed the first comprehensive database for small molecular compounds from tea. The web-based program was created by manually reviewing widely scattered scientific literatures. This database, however, also provides a convenient submission interface for contribution of novel candidates by independent researchers. TMDB provides comprehensive, keyword-searchable tea compounds. Thus, TMDB will aid in rapid and complete exploration of the discovery of new compounds in tea and tea products, qualitative and quantitative analysis of tea products, standardization of the processing and manufacturing of tea and even chemical taxonomy of tea, serving as a valuable resource for future investigators in experimental chemistry and biochemistry concerned with commercial tea processing and characteristics.</p>
       </sec>
       <sec>
          <st>
             <p>6 Availability and requirements</p>
          </st>
          <p>
             <b>Project name</b>: TMDB: A literature-curated database for small molecular compounds found from tea.</p>
          <p>
             <b>Project home pages</b>: <url>http://pcsb.ahau.edu.cn:8080/TCDB/index.jsp</url>.</p>
          <p>
             <b>Operating system(s)</b>: Platform independent.</p>
          <p>
             <b>Programming languages</b>: JSP, WSSQL, HTML and JavaScript.</p>
          <p>
             <b>License</b>: Not required.</p>
          <p>
             <b>Any restrictions to use by non-academics</b>: None.</p>
       </sec>
       <sec>
          <st>
             <p>Competing interests</p>
          </st>
          <p>The authors declare that they have no competing interests.</p>
       </sec>
       <sec>
          <st>
             <p>Authors&#8217; contributions</p>
          </st>
          <p>YY and GC designed the software and website. ZZ, TX, XW initiated these studies. XL, TL, WW, and GL collected the materials, TY, XT, and GB designed the structure and filled in all data. GB designed and analyzed data and, with contributions from all authors, wrote the paper. All authors read and approved the final manuscript.</p>
       </sec>
    </bdy>
    <bm>
       <ack>
          <sec>
             <st>
                <p>Acknowledgements</p>
             </st>
             <p>The research was supported by grants from the National &#8220;Twelfth Five-Year&#8221; basic research program of China (973, 2012CB722903), the National Natural Science Foundation of China (Grant Nos. 81170654/H0507), the National &#8220;Twelfth Five-Year&#8221; Technology Support Program of China (2011BAD01B01), and Anhui Agricultural University Talents Foundation (YJ2011-06), Major program of Acquisition of Academy Lead talent and team in Anhui Province Special Projects on Science and Technology of Anhui province (13Z03012) and Program for Changjiang Scholars and Innovative Research Team in University IRT110. Funding to pay the Open Access publication charges for this article was provided by the above grants.</p>
          </sec>
       </ack>
       <refgrp>
          
          <bibl id="B1">
             <aug>
                <au>
                   <snm>Ulrich</snm>
                   <fnm>HE</fnm>
                </au>
             </aug>
             <source>3.23 Chemistry of Tea, Comprehensive Natural Products II Chemistry and Biology</source>
             <publisher>Elsevier Ltd, Oxford, United Kingdom</publisher>
             <pubdate>2010</pubdate>
          </bibl>
          <bibl id="B2">
             <title>
                <p>EGCG inhibit chemical reactivity of iron through forming an Ngal-EGCG-iron complex</p>
             </title>
             <aug>
                <au>
                   <snm>Bao</snm>
                   <fnm>GH</fnm>
                </au>
                <au>
                   <snm>Xu</snm>
                   <fnm>J</fnm>
                </au>
                <au>
                   <snm>Hu</snm>
                   <fnm>FL</fnm>
                </au>
                <au>
                   <snm>Wan</snm>
                   <fnm>XC</fnm>
                </au>
                <au>
                   <snm>Deng</snm>
                   <fnm>SX</fnm>
                </au>
                <au>
                   <snm>Barasch</snm>
                   <fnm>J</fnm>
                </au>
             </aug>
             <source>Biometals</source>
             <pubdate>2013</pubdate>
             <volume>26</volume>
             <issue>6</issue>
             <fpage>1041</fpage>
             <lpage>1050</lpage>
             <xrefbib>
                <pubidlist>
                   <pubid idtype="doi">10.1007/s10534-013-9681-8</pubid>
                   <pubid idtype="pmpid" link="fulltext">24158698</pubid>
                </pubidlist>
             </xrefbib>
          </bibl>
          <bibl id="B3">
             <title>
                <p>Cancer prevention by tea: Animal studies, molecular mechanisms and human relevance</p>
             </title>
             <aug>
                <au>
                   <snm>Yang</snm>
                   <fnm>CS</fnm>
                </au>
                <au>
                   <snm>Wang</snm>
                   <fnm>X</fnm>
                </au>
                <au>
                   <snm>Lu</snm>
                   <fnm>G</fnm>
                </au>
                <au>
                   <snm>Picinich</snm>
                   <fnm>SC</fnm>
                </au>
             </aug>
             <source>Nat Rev Cancer</source>
             <pubdate>2009</pubdate>
             <volume>9</volume>
             <issue>6</issue>
             <fpage>429</fpage>
             <lpage>439</lpage>
             <xrefbib>
                <pubidlist>
                   <pubid idtype="doi">10.1038/nrc2641</pubid>
                   <pubid idtype="pmpid" link="fulltext">19472429</pubid>
                </pubidlist>
             </xrefbib>
          </bibl>
          <bibl id="B4">
             <title>
                <p>Recent patents on Camellia sinensis: source of healthpromoting compounds</p>
             </title>
             <aug>
                <au>
                   <snm>Moderno</snm>
                   <fnm>PM</fnm>
                </au>
                <au>
                   <snm>Carvalho</snm>
                   <fnm>M</fnm>
                </au>
                <au>
                   <snm>Silva</snm>
                   <fnm>BM</fnm>
                </au>
             </aug>
             <source>Recent Pat Food Nutr Agric</source>
             <pubdate>2009</pubdate>
             <volume>1</volume>
             <fpage>182</fpage>
             <lpage>192</lpage>
             <xrefbib>
                <pubidlist>
                   <pubid idtype="doi">10.2174/2212798410901030182</pubid>
                   <pubid idtype="pmpid" link="fulltext">20653539</pubid>
                </pubidlist>
             </xrefbib>
          </bibl>
          <bibl id="B5">
             <title>
                <p>The medicinal chemistry of tea</p>
             </title>
             <aug>
                <au>
                   <snm>Wheeler</snm>
                   <fnm>DS</fnm>
                </au>
                <au>
                   <snm>Wheeler</snm>
                   <fnm>WJ</fnm>
                </au>
             </aug>
             <source>Drug Dev Res</source>
             <pubdate>2004</pubdate>
             <volume>61</volume>
             <issue>2</issue>
             <fpage>45</fpage>
             <lpage>65</lpage>
             <xrefbib>
                <pubidlist>
                   <pubid idtype="doi">10.1002/ddr.10341</pubid>
                </pubidlist>
             </xrefbib>
          </bibl>
          <bibl id="B6">
             <title>
                <p>Tea: A new perspective on health benefits</p>
             </title>
             <aug>
                <au>
                   <snm>Pinto</snm>
                   <fnm>MS</fnm>
                </au>
             </aug>
             <source>Food Res Int</source>
             <pubdate>2013</pubdate>
             <volume>53</volume>
             <issue>2</issue>
             <fpage>558</fpage>
             <lpage>567</lpage>
             <xrefbib>
                <pubidlist>
                   <pubid idtype="doi">10.1016/j.foodres.2013.01.038</pubid>
                </pubidlist>
             </xrefbib>
          </bibl>
          <bibl id="B7">
             <title>
                <p>A review of recent studies in China on the possible beneficial health effects of tea</p>
             </title>
             <aug>
                <au>
                   <snm>Zhu</snm>
                   <fnm>YX</fnm>
                </au>
                <au>
                   <snm>Huang</snm>
                   <fnm>H</fnm>
                </au>
                <au>
                   <snm>Tu</snm>
                   <fnm>YY</fnm>
                </au>
             </aug>
             <source>Int J Food Sci Technol</source>
             <pubdate>2006</pubdate>
             <volume>41</volume>
             <fpage>333</fpage>
             <lpage>340</lpage>
             <xrefbib>
                <pubidlist>
                   <pubid idtype="doi">10.1111/j.1365-2621.2005.01076.x</pubid>
                </pubidlist>
             </xrefbib>
          </bibl>
          <bibl id="B8">
             <title>
                <p>New therapies from old medicines</p>
             </title>
             <aug>
                <au>
                   <snm>Chen</snm>
                   <fnm>ST</fnm>
                </au>
                <au>
                   <snm>Dou</snm>
                   <fnm>J</fnm>
                </au>
                <au>
                   <snm>Temple</snm>
                   <fnm>R</fnm>
                </au>
                <au>
                   <snm>Agarwal</snm>
                   <fnm>R</fnm>
                </au>
                <au>
                   <snm>Wu</snm>
                   <fnm>KM</fnm>
                </au>
                <au>
                   <snm>Walker</snm>
                   <fnm>S</fnm>
                </au>
             </aug>
             <source>Nat Biotechnol</source>
             <pubdate>2008</pubdate>
             <volume>26</volume>
             <issue>10</issue>
             <fpage>1077</fpage>
             <lpage>1083</lpage>
             <xrefbib>
                <pubidlist>
                   <pubid idtype="doi">10.1038/nbt1008-1077</pubid>
                   <pubid idtype="pmpid" link="fulltext">18846070</pubid>
                </pubidlist>
             </xrefbib>
          </bibl>
          <bibl id="B9">
             <title>
                <p>Prevention of carcinogenesis by tea polyphenols</p>
             </title>
             <aug>
                <au>
                   <snm>Yang</snm>
                   <fnm>CS</fnm>
                </au>
                <au>
                   <snm>Prabhu</snm>
                   <fnm>S</fnm>
                </au>
                <au>
                   <snm>Landau</snm>
                   <fnm>J</fnm>
                </au>
             </aug>
             <source>Drug Metab Rev</source>
             <pubdate>2001</pubdate>
             <volume>33</volume>
             <issue>3&#8211;4</issue>
             <fpage>237</fpage>
             <xrefbib>
                <pubidlist>
                   <pubid idtype="doi">10.1081/DMR-120000651</pubid>
                   <pubid idtype="pmpid" link="fulltext">11768768</pubid>
                </pubidlist>
             </xrefbib>
          </bibl>
          <bibl id="B10">
             <title>
                <p>Possible mechanisms of the cancer-preventive activities of green tea</p>
             </title>
             <aug>
                <au>
                   <snm>Yang</snm>
                   <fnm>CS</fnm>
                </au>
                <au>
                   <snm>Sang</snm>
                   <fnm>S</fnm>
                </au>
                <au>
                   <snm>Lambert</snm>
                   <fnm>JD</fnm>
                </au>
                <au>
                   <snm>Hou</snm>
                   <fnm>Z</fnm>
                </au>
                <au>
                   <snm>Ju</snm>
                   <fnm>J</fnm>
                </au>
                <au>
                   <snm>Lu</snm>
                   <fnm>G</fnm>
                </au>
             </aug>
             <source>Mol Nutr Food Res</source>
             <pubdate>2006</pubdate>
             <volume>50</volume>
             <fpage>170</fpage>
             <lpage>175</lpage>
             <xrefbib>
                <pubidlist>
                   <pubid idtype="doi">10.1002/mnfr.200500105</pubid>
                   <pubid idtype="pmpid" link="fulltext">16425280</pubid>
                </pubidlist>
             </xrefbib>
          </bibl>
          <bibl id="B11">
             <title>
                <p>Green tea and cardiovascular disease: from molecular targets towards human health</p>
             </title>
             <aug>
                <au>
                   <snm>Jochmann</snm>
                   <fnm>N</fnm>
                </au>
                <au>
                   <snm>Baumann</snm>
                   <fnm>G</fnm>
                </au>
                <au>
                   <snm>Stangl</snm>
                   <fnm>V</fnm>
                </au>
             </aug>
             <source>Curr Opin Clin Nutr</source>
             <pubdate>2008</pubdate>
             <volume>11</volume>
             <fpage>758</fpage>
             <lpage>765</lpage>
             <xrefbib>
                <pubidlist>
                   <pubid idtype="doi">10.1097/MCO.0b013e328314b68b</pubid>
                </pubidlist>
             </xrefbib>
          </bibl>
          <bibl id="B12">
             <url>http://www.genome.jp/kegg/</url>
<note>KEGG: Kyoto Encyclopedia of Genes and Genomes: .</note>
          </bibl>
          <bibl id="B13">
             <title>
                <p>Deep sequencing of the Camellia sinensis transcriptome revealed candidate genes for major metabolic pathways of tea-specific compounds</p>
             </title>
             <aug>
                <au>
                   <snm>Shi</snm>
                   <fnm>CY</fnm>
                </au>
                <au>
                   <snm>Yang</snm>
                   <fnm>H</fnm>
                </au>
                <au>
                   <snm>Wei</snm>
                   <fnm>CL</fnm>
                </au>
                <au>
                   <snm>Yu</snm>
                   <fnm>O</fnm>
                </au>
                <au>
                   <snm>Zhang</snm>
                   <fnm>ZZ</fnm>
                </au>
                <au>
                   <snm>Jiang</snm>
                   <fnm>CJ</fnm>
                </au>
                <au>
                   <snm>Sun</snm>
                   <fnm>J</fnm>
                </au>
                <au>
                   <snm>Li</snm>
                   <fnm>YY</fnm>
                </au>
                <au>
                   <snm>Chen</snm>
                   <fnm>Q</fnm>
                </au>
                <au>
                   <snm>Xia</snm>
                   <fnm>T</fnm>
                </au>
                <au>
                   <snm>Wan</snm>
                   <fnm>XC</fnm>
                </au>
             </aug>
             <source>BMC Genomics</source>
             <pubdate>2011</pubdate>
             <volume>12</volume>
             <fpage>131</fpage>
             <xrefbib>
                <pubidlist>
                   <pubid idtype="doi">10.1186/1471-2164-12-131</pubid>
                   <pubid idtype="pmpid" link="fulltext">21356090</pubid>
                </pubidlist>
             </xrefbib>
          </bibl>
          <bibl id="B14">
             <title>
                <p>HMDB: the Human Metabolome Database</p>
             </title>
             <aug>
                <au>
                   <snm>Wishart</snm>
                   <fnm>DS</fnm>
                </au>
                <au>
                   <snm>Tzur</snm>
                   <fnm>D</fnm>
                </au>
                <au>
                   <snm>Knox</snm>
                   <fnm>C</fnm>
                </au>
                <au>
                   <snm>Eisner</snm>
                   <fnm>R</fnm>
                </au>
                <au>
                   <snm>Guo</snm>
                   <fnm>AC</fnm>
                </au>
                <au>
                   <snm>Young</snm>
                   <fnm>N</fnm>
                </au>
                <au>
                   <snm>Cheng</snm>
                   <fnm>D</fnm>
                </au>
                <au>
                   <snm>Jewell</snm>
                   <fnm>K</fnm>
                </au>
                <au>
                   <snm>Arndt</snm>
                   <fnm>D</fnm>
                </au>
                <au>
                   <snm>Sawhney</snm>
                   <fnm>S</fnm>
                </au>
                <au>
                   <snm>Fung</snm>
                   <fnm>C</fnm>
                </au>
                <au>
                   <snm>Nikolai</snm>
                   <fnm>L</fnm>
                </au>
                <au>
                   <snm>Lewis</snm>
                   <fnm>M</fnm>
                </au>
                <au>
                   <snm>Coutouly</snm>
                   <fnm>MA</fnm>
                </au>
                <au>
                   <snm>Forsythe</snm>
                   <fnm>I</fnm>
                </au>
                <au>
                   <snm>Tang</snm>
                   <fnm>P</fnm>
                </au>
                <au>
                   <snm>Shrivastava</snm>
                   <fnm>S</fnm>
                </au>
                <au>
                   <snm>Jeroncic</snm>
                   <fnm>K</fnm>
                </au>
                <au>
                   <snm>Stothard</snm>
                   <fnm>P</fnm>
                </au>
                <au>
                   <snm>Amegbey</snm>
                   <fnm>G</fnm>
                </au>
                <au>
                   <snm>Block</snm>
                   <fnm>D</fnm>
                </au>
                <au>
                   <snm>Hau</snm>
                   <fnm>DD</fnm>
                </au>
                <au>
                   <snm>Wagner</snm>
                   <fnm>J</fnm>
                </au>
                <au>
                   <snm>Miniaci</snm>
                   <fnm>J</fnm>
                </au>
                <au>
                   <snm>Clements</snm>
                   <fnm>M</fnm>
                </au>
                <au>
                   <snm>Gebremedhin</snm>
                   <fnm>M</fnm>
                </au>
                <au>
                   <snm>Guo</snm>
                   <fnm>N</fnm>
                </au>
                <au>
                   <snm>Zhang</snm>
                   <fnm>Y</fnm>
                </au>
                <au>
                   <snm>Duggan</snm>
                   <fnm>GE</fnm>
                </au>
                <au>
                   <snm>MacInnis</snm>
                   <fnm>GD</fnm>
                </au>
                <au>
                   <snm>Weljie</snm>
                   <fnm>AM</fnm>
                </au>
                <au>
                   <snm>Dowlatabadi</snm>
                   <fnm>R</fnm>
                </au>
                <au>
                   <snm>Bamforth</snm>
                   <fnm>F</fnm>
                </au>
                <au>
                   <snm>Clive</snm>
                   <fnm>D</fnm>
                </au>
                <au>
                   <snm>Greiner</snm>
                   <fnm>R</fnm>
                </au>
                <au>
                   <snm>Li</snm>
                   <fnm>L</fnm>
                </au>
                <au>
                   <snm>Marrie</snm>
                   <fnm>T</fnm>
                </au>
                <au>
                   <snm>Sykes</snm>
                   <fnm>BD</fnm>
                </au>
                <au>
                   <snm>Vogel</snm>
                   <fnm>HJ</fnm>
                </au>
                <au>
                   <snm>Querengesser</snm>
                   <fnm>L</fnm>
                </au>
             </aug>
             <source>Nucleic Acids Res</source>
             <pubdate>2007</pubdate>
             <volume>35</volume>
             <issue>Database issue</issue>
             <fpage>D521</fpage>
             <lpage>D526</lpage>
             <xrefbib>
                <pubidlist>
                   <pubid idtype="doi">10.1093/nar/gkl923</pubid>
                   <pubid idtype="pmpid" link="fulltext">17202168</pubid>
                </pubidlist>
             </xrefbib>
          </bibl>
          <bibl id="B15">
             <title>
                <p>HMDB: a knowledgebase for the human metabolome</p>
             </title>
             <aug>
                <au>
                   <snm>Wishart</snm>
                   <fnm>DS</fnm>
                </au>
                <au>
                   <snm>Knox</snm>
                   <fnm>C</fnm>
                </au>
                <au>
                   <snm>Guo</snm>
                   <fnm>AC</fnm>
                </au>
                <au>
                   <snm>Eisner</snm>
                   <fnm>R</fnm>
                </au>
                <au>
                   <snm>Young</snm>
                   <fnm>N</fnm>
                </au>
                <au>
                   <snm>Gautam</snm>
                   <fnm>B</fnm>
                </au>
                <au>
                   <snm>Hau</snm>
                   <fnm>DD</fnm>
                </au>
                <au>
                   <snm>Psychogios</snm>
                   <fnm>N</fnm>
                </au>
                <au>
                   <snm>Dong</snm>
                   <fnm>E</fnm>
                </au>
                <au>
                   <snm>Bouatra</snm>
                   <fnm>S</fnm>
                </au>
                <au>
                   <snm>Mandal</snm>
                   <fnm>R</fnm>
                </au>
                <au>
                   <snm>Sinelnikov</snm>
                   <fnm>I</fnm>
                </au>
                <au>
                   <snm>Xia</snm>
                   <fnm>J</fnm>
                </au>
                <au>
                   <snm>Jia</snm>
                   <fnm>L</fnm>
                </au>
                <au>
                   <snm>Cruz</snm>
                   <fnm>JA</fnm>
                </au>
                <au>
                   <snm>Lim</snm>
                   <fnm>E</fnm>
                </au>
                <au>
                   <snm>Sobsey</snm>
                   <fnm>CA</fnm>
                </au>
                <au>
                   <snm>Shrivastava</snm>
                   <fnm>S</fnm>
                </au>
                <au>
                   <snm>Huang</snm>
                   <fnm>P</fnm>
                </au>
                <au>
                   <snm>Liu</snm>
                   <fnm>P</fnm>
                </au>
                <au>
                   <snm>Fang</snm>
                   <fnm>L</fnm>
                </au>
                <au>
                   <snm>Peng</snm>
                   <fnm>J</fnm>
                </au>
                <au>
                   <snm>Fradette</snm>
                   <fnm>R</fnm>
                </au>
                <au>
                   <snm>Cheng</snm>
                   <fnm>D</fnm>
                </au>
                <au>
                   <snm>Tzur</snm>
                   <fnm>D</fnm>
                </au>
                <au>
                   <snm>Clements</snm>
                   <fnm>M</fnm>
                </au>
                <au>
                   <snm>Lewis</snm>
                   <fnm>A</fnm>
                </au>
                <au>
                   <snm>Souza</snm>
                   <fnm>AD</fnm>
                </au>
                <au>
                   <snm>Zuniga</snm>
                   <fnm>A</fnm>
                </au>
                <au>
                   <snm>Dawe</snm>
                   <fnm>M</fnm>
                </au>
                <au>
                   <snm>Xiong</snm>
                   <fnm>Y</fnm>
                </au>
                <au>
                   <snm>Clive</snm>
                   <fnm>D</fnm>
                </au>
                <au>
                   <snm>Greiner</snm>
                   <fnm>R</fnm>
                </au>
                <au>
                   <snm>Nazyrova</snm>
                   <fnm>A</fnm>
                </au>
                <au>
                   <snm>Shaykhutdinov</snm>
                   <fnm>R</fnm>
                </au>
                <au>
                   <snm>Li</snm>
                   <fnm>L</fnm>
                </au>
                <au>
                   <snm>Vogel</snm>
                   <fnm>HJ</fnm>
                </au>
                <au>
                   <snm>Forsythe</snm>
                   <fnm>I</fnm>
                </au>
             </aug>
             <source>Nucleic Acids Res</source>
             <pubdate>2009</pubdate>
             <volume>37</volume>
             <issue>Database issue</issue>
             <fpage>D603</fpage>
             <lpage>D610</lpage>
             <xrefbib>
                <pubidlist>
                   <pubid idtype="doi">10.1093/nar/gkn810</pubid>
                   <pubid idtype="pmpid" link="fulltext">18953024</pubid>
                </pubidlist>
             </xrefbib>
          </bibl>
          <bibl id="B16">
             <title>
                <p>HMDB 3.0&#8212;The Human Metabolome Database in 2013</p>
             </title>
             <aug>
                <au>
                   <snm>Wishart</snm>
                   <fnm>DS</fnm>
                </au>
                <au>
                   <snm>Jewison</snm>
                   <fnm>T</fnm>
                </au>
                <au>
                   <snm>Guo</snm>
                   <fnm>AC</fnm>
                </au>
                <au>
                   <snm>Wilson</snm>
                   <fnm>M</fnm>
                </au>
                <au>
                   <snm>Knox</snm>
                   <fnm>C</fnm>
                </au>
                <au>
                   <snm>Liu</snm>
                   <fnm>Y</fnm>
                </au>
                <au>
                   <snm>Djoumbou</snm>
                   <fnm>Y</fnm>
                </au>
                <au>
                   <snm>Mandal</snm>
                   <fnm>R</fnm>
                </au>
                <au>
                   <snm>Aziat</snm>
                   <fnm>F</fnm>
                </au>
                <au>
                   <snm>Dong</snm>
                   <fnm>E</fnm>
                </au>
                <au>
                   <snm>Bouatra</snm>
                   <fnm>S</fnm>
                </au>
                <au>
                   <snm>Sinelnikov</snm>
                   <fnm>I</fnm>
                </au>
                <au>
                   <snm>Arndt</snm>
                   <fnm>D</fnm>
                </au>
                <au>
                   <snm>Xia</snm>
                   <fnm>J</fnm>
                </au>
                <au>
                   <snm>Liu</snm>
                   <fnm>P</fnm>
                </au>
                <au>
                   <snm>Yallou</snm>
                   <fnm>F</fnm>
                </au>
                <au>
                   <snm>Bjorndahl</snm>
                   <fnm>T</fnm>
                </au>
                <au>
                   <snm>Perez-Pineiro</snm>
                   <fnm>R</fnm>
                </au>
                <au>
                   <snm>Eisner</snm>
                   <fnm>R</fnm>
                </au>
                <au>
                   <snm>Allen</snm>
                   <fnm>F</fnm>
                </au>
                <au>
                   <snm>Neveu</snm>
                   <fnm>V</fnm>
                </au>
                <au>
                   <snm>Greiner</snm>
                   <fnm>R</fnm>
                </au>
                <au>
                   <snm>Scalbert</snm>
                   <fnm>A</fnm>
                </au>
             </aug>
             <source>Nucleic Acids Res</source>
             <pubdate>2013</pubdate>
             <volume>41</volume>
             <issue>D1</issue>
             <fpage>D801</fpage>
             <lpage>D807</lpage>
             <xrefbib>
                <pubidlist>
                   <pubid idtype="doi">10.1093/nar/gks1065</pubid>
                   <pubid idtype="pmpid" link="fulltext">23161693</pubid>
                </pubidlist>
             </xrefbib>
          </bibl>
          <bibl id="B17">
             <url>http://dnp.chemnetbase.com/</url>
<note>DNP: Dictionary of Natural Products: .</note>
          </bibl>
          <bibl id="B18">
             <url>http://ccd.chemnetbase.com/</url>
<note>CCD: Combined chemical dictionary: .</note>
          </bibl>
          <bibl id="B19">
             <url>http://kanaya.naist.jp/KNApSAcK/</url>
<note>
                <it>KNApSAcK, comprehensive species-metabolite relationship database for flavonoids.</it>.</note>
          </bibl>
          <bibl id="B20">
             <title>
                <p>Phenol-Explorer: an online comprehensive database on polyphenol contents in foods</p>
             </title>
             <aug>
                <au>
                   <snm>Neveu</snm>
                   <fnm>V</fnm>
                </au>
                <au>
                   <snm>Perez-Jim&#233;nez</snm>
                   <fnm>J</fnm>
                </au>
                <au>
                   <snm>Vos</snm>
                   <fnm>F</fnm>
                </au>
                <au>
                   <snm>Crespy</snm>
                   <fnm>V</fnm>
                </au>
                <au>
                   <snm>Chaffaut</snm>
                   <fnm>L</fnm>
                </au>
                <au>
                   <snm>Mennen</snm>
                   <fnm>L</fnm>
                </au>
                <au>
                   <snm>Knox</snm>
                   <fnm>C</fnm>
                </au>
                <au>
                   <snm>Eisner</snm>
                   <fnm>R</fnm>
                </au>
                <au>
                   <snm>Cruz</snm>
                   <fnm>J</fnm>
                </au>
                <au>
                   <snm>Wishart</snm>
                   <fnm>D</fnm>
                </au>
                <au>
                   <snm>Scalbert</snm>
                   <fnm>A</fnm>
                </au>
             </aug>
             <source>Database</source>
             <pubdate>2010</pubdate>
             <volume>2010</volume>
             <fpage>bap024</fpage>
             <note>doi:10.1093/database/bap024</note>
             <xrefbib>
                <pubidlist>
                   <pubid idtype="doi">10.1093/database/bap024</pubid>
                   <pubid idtype="pmpid" link="fulltext">20428313</pubid>
                </pubidlist>
             </xrefbib>
          </bibl>
          <bibl id="B21">
             <title>
                <p>Phenol-Explorer 2.0: a major update of the Phenol-Explorer database integrating data on polyphenol metabolism and pharmacokinetics in humans and experimental animals</p>
             </title>
             <aug>
                <au>
                   <snm>Rothwell</snm>
                   <fnm>JA</fnm>
                </au>
                <au>
                   <snm>Urpi-Sarda</snm>
                   <fnm>M</fnm>
                </au>
                <au>
                   <snm>Boto-Ordo&#241;ez</snm>
                   <fnm>M</fnm>
                </au>
                <au>
                   <snm>Knox</snm>
                   <fnm>C</fnm>
                </au>
                <au>
                   <snm>Llorach</snm>
                   <fnm>R</fnm>
                </au>
                <au>
                   <snm>Eisner</snm>
                   <fnm>R</fnm>
                </au>
                <au>
                   <snm>Cruz</snm>
                   <fnm>J</fnm>
                </au>
                <au>
                   <snm>Neveu</snm>
                   <fnm>V</fnm>
                </au>
                <au>
                   <snm>Wishart</snm>
                   <fnm>D</fnm>
                </au>
                <au>
                   <snm>Manach</snm>
                   <fnm>C</fnm>
                </au>
                <au>
                   <snm>Andres-Lacueva</snm>
                   <fnm>C</fnm>
                </au>
                <au>
                   <snm>Scalbert</snm>
                   <fnm>A</fnm>
                </au>
             </aug>
             <source>Database</source>
             <pubdate>2012</pubdate>
             <volume>2012</volume>
             <fpage>bas031</fpage>
             <note>doi:10.1093/database/bas031</note>
             <xrefbib>
                <pubidlist>
                   <pubid idtype="doi">10.1093/database/bas031</pubid>
                   <pubid idtype="pmpid" link="fulltext">22879444</pubid>
                </pubidlist>
             </xrefbib>
          </bibl>
          <bibl id="B22">
             <title>
                <p>Phenol-Explorer 3.0: a major update of the Phenol-Explorer database to incorporate data on the effects of food processing on polyphenol content</p>
             </title>
             <aug>
                <au>
                   <snm>Rothwell</snm>
                   <fnm>JA</fnm>
                </au>
                <au>
                   <snm>P&#233;rez-Jim&#233;nez</snm>
                   <fnm>J</fnm>
                </au>
                <au>
                   <snm>Neveu</snm>
                   <fnm>V</fnm>
                </au>
                <au>
                   <snm>Medina-Rem&#243;n</snm>
                   <fnm>A</fnm>
                </au>
                <au>
                   <snm>M'hiri</snm>
                   <fnm>N</fnm>
                </au>
                <au>
                   <snm>Garc&#237;a-Lobato</snm>
                   <fnm>P</fnm>
                </au>
                <au>
                   <snm>Manach</snm>
                   <fnm>C</fnm>
                </au>
                <au>
                   <snm>Knox</snm>
                   <fnm>C</fnm>
                </au>
                <au>
                   <snm>Eisner</snm>
                   <fnm>R</fnm>
                </au>
                <au>
                   <snm>Wishart</snm>
                   <fnm>DS</fnm>
                </au>
                <au>
                   <snm>Scalbert</snm>
                   <fnm>A</fnm>
                </au>
             </aug>
             <source>Database</source>
             <pubdate>2013</pubdate>
             <volume>2013</volume>
             <fpage>bat070</fpage>
             <note>doi:10.1093/database/bat070</note>
             <xrefbib>
                <pubidlist>
                   <pubid idtype="doi">10.1093/database/bat070</pubid>
                   <pubid idtype="pmpid" link="fulltext">24103452</pubid>
                </pubidlist>
             </xrefbib>
          </bibl>
          <bibl id="B23">
             <aug>
                <au>
                   <snm>Wan</snm>
                   <fnm>XC</fnm>
                </au>
             </aug>
             <source>Tea Biochemistry (in Chinese)</source>
             <publisher>China Agriculture Press, Beijing, China</publisher>
             <pubdate>2013</pubdate>
          </bibl>
          <bibl id="B24">
             <aug>
                <au>
                   <snm>Chen</snm>
                   <fnm>ZM</fnm>
                </au>
             </aug>
             <source>Grand Dictionary of Chinese Tea (in Chinese)</source>
             <publisher>China Light Industry Press, Beijing, China</publisher>
             <pubdate>2008</pubdate>
          </bibl>
          <bibl id="B25">
             <aug>
                <au>
                   <snm>Ho</snm>
                   <fnm>CT</fnm>
                </au>
                <au>
                   <snm>Lin</snm>
                   <fnm>JK</fnm>
                </au>
                <au>
                   <snm>Shahidi</snm>
                   <fnm>F</fnm>
                </au>
             </aug>
             <source>Tea and tea products. Chemistry and health promoting properties</source>
             <publisher>CRC Press, Boca Raton</publisher>
             <pubdate>2008</pubdate>
          </bibl>
          <bibl id="B26">
             <title>
                <p>A new catechin oxidation product and polymeric polyphenols of post-fermented tea</p>
             </title>
             <aug>
                <au>
                   <snm>Jiang</snm>
                   <fnm>HY</fnm>
                </au>
                <au>
                   <snm>Shii</snm>
                   <fnm>T</fnm>
                </au>
                <au>
                   <snm>Matsuo</snm>
                   <fnm>Y</fnm>
                </au>
                <au>
                   <snm>Tanaka</snm>
                   <fnm>T</fnm>
                </au>
                <au>
                   <snm>Jiang</snm>
                   <fnm>ZH</fnm>
                </au>
                <au>
                   <snm>Kouno</snm>
                   <fnm>I</fnm>
                </au>
             </aug>
             <source>Food Chem</source>
             <pubdate>2011</pubdate>
             <volume>129</volume>
             <issue>3</issue>
             <fpage>830</fpage>
             <lpage>836</lpage>
             <xrefbib>
                <pubidlist>
                   <pubid idtype="doi">10.1016/j.foodchem.2011.05.031</pubid>
                   <pubid idtype="pmpid" link="fulltext">25212306</pubid>
                </pubidlist>
             </xrefbib>
          </bibl>
          <bibl id="B27">
             <title>
                <p>Changes in antioxidant phytochemicals and volatile composition of Camellia sinensis by oxidation during tea fermentation</p>
             </title>
             <aug>
                <au>
                   <snm>Kim</snm>
                   <fnm>Y</fnm>
                </au>
                <au>
                   <snm>Goodner</snm>
                   <fnm>KL</fnm>
                </au>
                <au>
                   <snm>Park</snm>
                   <fnm>JD</fnm>
                </au>
                <au>
                   <snm>Choi</snm>
                   <fnm>J</fnm>
                </au>
                <au>
                   <snm>Talcott</snm>
                   <fnm>ST</fnm>
                </au>
             </aug>
             <source>Food Chem</source>
             <pubdate>2011</pubdate>
             <volume>129</volume>
             <fpage>1331</fpage>
             <lpage>1342</lpage>
             <xrefbib>
                <pubidlist>
                   <pubid idtype="doi">10.1016/j.foodchem.2011.05.012</pubid>
                </pubidlist>
             </xrefbib>
          </bibl>
          <bibl id="B28">
             <title>
                <p>Changes of major tea polyphenols and production of four new B-ring fission metabolites of catechins from post-fermented Jing-Wei Fu brick tea</p>
             </title>
             <aug>
                <au>
                   <snm>Zhu</snm>
                   <fnm>YF</fnm>
                </au>
                <au>
                   <snm>Cheng</snm>
                   <fnm>JJ</fnm>
                </au>
                <au>
                   <snm>Ji</snm>
                   <fnm>XM</fnm>
                </au>
                <au>
                   <snm>Hu</snm>
                   <fnm>X</fnm>
                </au>
                <au>
                   <snm>Ling</snm>
                   <fnm>TJ</fnm>
                </au>
                <au>
                   <snm>Zhang</snm>
                   <fnm>ZZ</fnm>
                </au>
                <au>
                   <snm>Bao</snm>
                   <fnm>GH</fnm>
                </au>
                <au>
                   <snm>Wan</snm>
                   <fnm>XC</fnm>
                </au>
             </aug>
             <source>Food Chem</source>
             <pubdate>2015</pubdate>
             <volume>170</volume>
             <fpage>110</fpage>
             <lpage>117</lpage>
             <xrefbib>
                <pubidlist>
                   <pubid idtype="doi">10.1016/j.foodchem.2014.08.075</pubid>
                </pubidlist>
             </xrefbib>
          </bibl>
          <bibl id="B29">
             <title>
                <p>New phenolic compounds from Camellia sinensis L. leaves fermented with <it>Aspergillus sp</it>
                </p>
             </title>
             <aug>
                <au>
                   <snm>Wulandari</snm>
                   <fnm>RA</fnm>
                </au>
                <au>
                   <snm>Amano</snm>
                   <fnm>M</fnm>
                </au>
                <au>
                   <snm>Yanagita</snm>
                   <fnm>T</fnm>
                </au>
                <au>
                   <snm>Tanaka</snm>
                   <fnm>T</fnm>
                </au>
                <au>
                   <snm>Kouno</snm>
                   <fnm>I</fnm>
                </au>
                <au>
                   <snm>Kawamura</snm>
                   <fnm>D</fnm>
                </au>
                <au>
                   <snm>Ishimaru</snm>
                   <fnm>K</fnm>
                </au>
             </aug>
             <source>J Nat Med</source>
             <pubdate>2011</pubdate>
             <volume>65</volume>
             <issue>3&#8211;4</issue>
             <fpage>594</fpage>
             <lpage>597</lpage>
             <xrefbib>
                <pubidlist>
                   <pubid idtype="doi">10.1007/s11418-011-0515-0</pubid>
                   <pubid idtype="pmpid" link="fulltext">21327519</pubid>
                </pubidlist>
             </xrefbib>
          </bibl>
          <bibl id="B30">
             <title>
                <p>New phenolic compounds from <it>Camellia sinensis L.</it> fermented leaves</p>
             </title>
             <aug>
                <au>
                   <snm>Kanegae</snm>
                   <fnm>A</fnm>
                </au>
                <au>
                   <snm>Sakamoto</snm>
                   <fnm>A</fnm>
                </au>
                <au>
                   <snm>Nakayama</snm>
                   <fnm>H</fnm>
                </au>
                <au>
                   <snm>Nakazono</snm>
                   <fnm>Y</fnm>
                </au>
                <au>
                   <snm>Yakashiro</snm>
                   <fnm>I</fnm>
                </au>
                <au>
                   <snm>Matsuo</snm>
                   <fnm>Y</fnm>
                </au>
                <au>
                   <snm>Tanaka</snm>
                   <fnm>T</fnm>
                </au>
                <au>
                   <snm>Ishimaru</snm>
                   <fnm>K</fnm>
                </au>
             </aug>
             <source>J Nat Med</source>
             <pubdate>2013</pubdate>
             <volume>67</volume>
             <issue>3</issue>
             <fpage>594</fpage>
             <lpage>597</lpage>
             <xrefbib>
                <pubidlist>
                   <pubid idtype="doi">10.1007/s11418-012-0704-5</pubid>
                </pubidlist>
             </xrefbib>
          </bibl>
          <bibl id="B31">
             <title>
                <p>New Triterpenoids and other constituents from a special microbial-fermented tea&#8212;Fuzhuan Brick Tea</p>
             </title>
             <aug>
                <au>
                   <snm>Ling</snm>
                   <fnm>TJ</fnm>
                </au>
                <au>
                   <snm>Wan</snm>
                   <fnm>XC</fnm>
                </au>
                <au>
                   <snm>Ling</snm>
                   <fnm>WW</fnm>
                </au>
                <au>
                   <snm>Zhang</snm>
                   <fnm>ZZ</fnm>
                </au>
                <au>
                   <snm>Li</snm>
                   <fnm>DX</fnm>
                </au>
                <au>
                   <snm>Hou</snm>
                   <fnm>RY</fnm>
                </au>
             </aug>
             <source>J Agric Food Chem</source>
             <pubdate>2010</pubdate>
             <volume>58</volume>
             <issue>8</issue>
             <fpage>4945</fpage>
             <lpage>4950</lpage>
             <xrefbib>
                <pubidlist>
                   <pubid idtype="doi">10.1021/jf9043524</pubid>
                   <pubid idtype="pmpid" link="fulltext">20307093</pubid>
                </pubidlist>
             </xrefbib>
          </bibl>
          <bibl id="B32">
             <title>
                <p>A new norisoprenoid and other compounds from Fuzhuan Brick Tea</p>
             </title>
             <aug>
                <au>
                   <snm>Luo</snm>
                   <fnm>ZM</fnm>
                </au>
                <au>
                   <snm>Ling</snm>
                   <fnm>TJ</fnm>
                </au>
                <au>
                   <snm>Li</snm>
                   <fnm>LX</fnm>
                </au>
                <au>
                   <snm>Zhang</snm>
                   <fnm>ZZ</fnm>
                </au>
                <au>
                   <snm>Zhu</snm>
                   <fnm>HT</fnm>
                </au>
                <au>
                   <snm>Zhang</snm>
                   <fnm>YJ</fnm>
                </au>
                <au>
                   <snm>Wan</snm>
                   <fnm>XC</fnm>
                </au>
             </aug>
             <source>Molecules</source>
             <pubdate>2012</pubdate>
             <volume>17</volume>
             <issue>3</issue>
             <fpage>3539</fpage>
             <lpage>3546</lpage>
             <xrefbib>
                <pubidlist>
                   <pubid idtype="doi">10.3390/molecules17033539</pubid>
                   <pubid idtype="pmpid" link="fulltext">22430120</pubid>
                </pubidlist>
             </xrefbib>
          </bibl>
          <bibl id="B33">
             <title>
                <p>Two new oleanane-type triterpenes isolated from Japanese post-fermented tea produced by anaerobic microbial fermentation</p>
             </title>
             <aug>
                <au>
                   <snm>Huang</snm>
                   <fnm>YL</fnm>
                </au>
                <au>
                   <snm>Nagai</snm>
                   <fnm>S</fnm>
                </au>
                <au>
                   <snm>Tanaka</snm>
                   <fnm>T</fnm>
                </au>
                <au>
                   <snm>Matsuo</snm>
                   <fnm>Y</fnm>
                </au>
                <au>
                   <snm>Saito</snm>
                   <fnm>Y</fnm>
                </au>
                <au>
                   <snm>Kouno</snm>
                   <fnm>I</fnm>
                </au>
             </aug>
             <source>Molecules</source>
             <pubdate>2013</pubdate>
             <volume>18</volume>
             <issue>5</issue>
             <fpage>4868</fpage>
             <lpage>4875</lpage>
             <xrefbib>
                <pubidlist>
                   <pubid idtype="doi">10.3390/molecules18054868</pubid>
                   <pubid idtype="pmpid" link="fulltext">23615533</pubid>
                </pubidlist>
             </xrefbib>
          </bibl>
          <bibl id="B34">
             <title>
                <p>Fuzhuanins A and B: The B-ring fission lactones of flavan-3-ols from Fuzhuan Brick-Tea</p>
             </title>
             <aug>
                <au>
                   <snm>Luo</snm>
                   <fnm>ZM</fnm>
                </au>
                <au>
                   <snm>Du</snm>
                   <fnm>HX</fnm>
                </au>
                <au>
                   <snm>Li</snm>
                   <fnm>LX</fnm>
                </au>
                <au>
                   <snm>An</snm>
                   <fnm>MQ</fnm>
                </au>
                <au>
                   <snm>Zhang</snm>
                   <fnm>ZZ</fnm>
                </au>
                <au>
                   <snm>Wan</snm>
                   <fnm>XC</fnm>
                </au>
                <au>
                   <snm>Bao</snm>
                   <fnm>GH</fnm>
                </au>
                <au>
                   <snm>Zhang</snm>
                   <fnm>L</fnm>
                </au>
                <au>
                   <snm>Ling</snm>
                   <fnm>TJ</fnm>
                </au>
             </aug>
             <source>J Agric Food Chem</source>
             <pubdate>2013</pubdate>
             <volume>61</volume>
             <issue>28</issue>
             <fpage>6982</fpage>
             <lpage>6990</lpage>
             <xrefbib>
                <pubidlist>
                   <pubid idtype="doi">10.1021/jf401724w</pubid>
                   <pubid idtype="pmpid" link="fulltext">23837839</pubid>
                </pubidlist>
             </xrefbib>
          </bibl>
          <bibl id="B35">
             <title>
                <p>Biotransformation of (+)-catechin to novel B-ring fission lactones</p>
             </title>
             <aug>
                <au>
                   <snm>Das</snm>
                   <fnm>S</fnm>
                </au>
                <au>
                   <snm>Lamm</snm>
                   <fnm>AS</fnm>
                </au>
                <au>
                   <snm>Rosazza</snm>
                   <fnm>JPN</fnm>
                </au>
             </aug>
             <source>Org Process Res Dev</source>
             <pubdate>2011</pubdate>
             <volume>15</volume>
             <issue>1</issue>
             <fpage>231</fpage>
             <lpage>235</lpage>
             <xrefbib>
                <pubidlist>
                   <pubid idtype="doi">10.1021/op100108j</pubid>
                </pubidlist>
             </xrefbib>
          </bibl>
       </refgrp>
    </bm>
 </art>
