<art>
    <ui>s12879-014-0579-z</ui>
    <ji>1471-2334</ji>
    <fm>
       <dochead>Research article</dochead>
       <bibl>
          <title>
             <p>The role of Sequence Type (ST) 131 in adult community-onset non-ESBL-producing <it>Escherichia coli</it> bacteraemia</p>
          </title>
          <aug>
             <au id="A1">
                <snm>Wu</snm>
                <fnm>Yi-Hui</fnm>
                <insr iid="I1"/>
                <email>wuyihui@gmail.com</email>
             </au>
             <au id="A2">
                <snm>Cheng</snm>
                <fnm>Ming-Fang</fnm>
                <insr iid="I2"/>
                <insr iid="I3"/>
                <email>mfcheng@vghks.gov.tw</email>
             </au>
             <au id="A3">
                <snm>Lai</snm>
                <fnm>Chung-Hsu</fnm>
                <insr iid="I1"/>
                <email>ed101746@edah.org.tw</email>
             </au>
             <au id="A4">
                <snm>Lin</snm>
                <fnm>Hsi-Hsun</fnm>
                <insr iid="I1"/>
                <email>ed100233@edah.org.tw</email>
             </au>
             <au id="A5" ca="yes">
                <snm>Hung</snm>
                <fnm>Chih-Hsin</fnm>
                <insr iid="I4"/>
                <email>chhung@isu.edu.tw</email>
             </au>
             <au id="A6" ca="yes">
                <snm>Wang</snm>
                <fnm>Jiun-Ling</fnm>
                <insr iid="I1"/>
                <email>jiunlingwang@gmail.com</email>
             </au>
          </aug>
          <insg>
             <ins id="I1">
                <p>Department of Internal Medicine, E-Da Hospital, College of Medicine, I-Shou University, Kaohsiung, Taiwan</p>
             </ins>
             <ins id="I2">
                <p>Department of Pediatrics, Kaohsiung Veterans General Hospital, Kaohsiung, Taiwan</p>
             </ins>
             <ins id="I3">
                <p>School of Medicine, National Yang-Ming University, Taipei, Taiwan</p>
             </ins>
             <ins id="I4">
                <p>Department of Chemical Engineering, Institute of Biotechnology and Chemical Engineering, I-Shou University, Kaohsiung, Taiwan</p>
             </ins>
          </insg>
          <source>BMC Infectious Diseases</source>
          <section>
             <title>
                <p>Bacterial and fungal diseases</p>
             </title>
          </section>
          <issn>1471-2334</issn>
          <pubdate>2014</pubdate>
          <volume>14</volume>
          <issue>1</issue>
          <fpage>579</fpage>
          <url>http://www.biomedcentral.com/1471-2334/14/579</url>
          <xrefbib>
             <pubidlist>
                <pubid idtype="doi">10.1186/s12879-014-0579-z</pubid>
             </pubidlist>
          </xrefbib>
       </bibl>
       <history>
          <rec>
             <date>
                <day>31</day>
                <month>5</month>
                <year>2014</year>
             </date>
          </rec>
          <acc>
             <date>
                <day>22</day>
                <month>10</month>
                <year>2014</year>
             </date>
          </acc>
          <pub>
             <date>
                <day>7</day>
                <month>11</month>
                <year>2014</year>
             </date>
          </pub>
       </history>
       <cpyrt>
          <year>2014</year>
          <collab>Wu et al.; licensee BioMed Central Ltd.</collab>
          <note>This is an Open Access article distributed under the terms of the Creative Commons Attribution License (<url>http://creativecommons.org/licenses/by/4.0</url>), which permits unrestricted use, distribution, and reproduction in any medium, provided the original work is properly credited. The Creative Commons Public Domain Dedication waiver (<url>http://creativecommons.org/publicdomain/zero/1.0/</url>) applies to the data made available in this article, unless otherwise stated.</note>
       </cpyrt>
       <kwdg>
          <kwd>E. coli</kwd>
          <kwd>Bacteraemia</kwd>
          <kwd>Community onset</kwd>
          <kwd>Fluoroquinolone resistant</kwd>
          <kwd>ST (sequence type) 131</kwd>
          <kwd>Mortality</kwd>
       </kwdg>
       <abs>
          <sec>
             <st>
                <p>Abstract</p>
             </st>
             <sec>
                <st>
                   <p>Background</p>
                </st>
                <p>To compare the epidemiological and clinical features and outcome in clonal group O25b/ST131 and non-clonal group O25b/ST131 in adult patients with non-extended-spectrum B-lactamase (ESBL)-producing <it>Escherichia coli</it> (<it>E. coli</it>) bacteraemia.</p>
             </sec>
             <sec>
                <st>
                   <p>Methods</p>
                </st>
                <p>We collected 371 consecutive isolates with community-onset non-ESBL producing <it>E. coli</it> bloodstream infection in 2010 in a 1200-bed hospital in Taiwan. Twenty adult patients with clonal group O25b/ST131 and 40 patients with non-clonal group O25b/ST131 were compared.</p>
             </sec>
             <sec>
                <st>
                   <p>Result</p>
                </st>
                <p>Clonal group O25b/ST131 accounted for 5.9% of total isolates. The underlying disease and healthcare-associated risk factors were similar in the case and control groups. Patients with the clonal group O25b/ST131 were less likely to have intra-abdominal infection (0% vs. 22.5%; <it>p</it>&#8201;&lt;&#8201;0.05) than patients from the control group. The Day 30 mortality rate was similar in the case and control groups (15% vs. 12.5%).</p>
             </sec>
             <sec>
                <st>
                   <p>Conclusions</p>
                </st>
                <p>Clonal group O25b/ST131 was found in both multidrug-resistant and susceptible <it>E. coli</it> strains, causing community-onset bloodstream infection. Although O25b/ST131 does not lead to a higher mortality than other isolates, choosing an appropriate antimicrobials in the empirical therapy of community-onset <it>E. coli</it> bacteraemia has become more challenging.</p>
             </sec>
          </sec>
       </abs>
    </fm>
    <bdy>
       <sec>
          <st>
             <p>Background</p>
          </st>
          <p>From 2000 to 2006, the <it>Escherichia coli</it> clone O25:H4-ST131, which produces CTX-M-15 extended-spectrum B-lactamase (ESBL), was identified in three continents <abbrgrp>
                <abbr bid="B1">1</abbr>
             </abbrgrp>-<abbrgrp>
                <abbr bid="B3">3</abbr>
             </abbrgrp>. ST131's distinctive combination of resistance and virulence, as well as its widespread dissemination among the locals, may underlie its epidemiologic success. Later studies have showed that clone ST131 exists in non-ESBL producing fluoroquinolone-resistant <it>E. coli</it> isolates <abbrgrp>
                <abbr bid="B4">4</abbr>
             </abbrgrp>-<abbrgrp>
                <abbr bid="B8">8</abbr>
             </abbrgrp>. ST131 accounted for 25% to 78% of fluoroquinolone resistant <it>E. coli</it> infection in the surveillance form in Asia and the US <abbrgrp>
                <abbr bid="B3">3</abbr>
             </abbrgrp>-<abbrgrp>
                <abbr bid="B8">8</abbr>
             </abbrgrp>. In our previous studies, fluoroquinolone (29%) and cefazolin (25%) resistant uropathogens were common in adults with community-onset urinary tract infections (UTI) in a teaching hospital in southern Taiwan. <abbrgrp>
                <abbr bid="B9">9</abbr>
             </abbrgrp> There were several risk factor to be independently associated with community onset UTI fluoroquinolone resistant pathogens (i.e. recent hospitalization, underlying old stroke, and diabetes mellitus) <abbrgrp>
                <abbr bid="B9">9</abbr>
             </abbrgrp>. Although cephalosporin and fluoroquinolone are the recommended antimicrobials to use in community-onset complicated UTI or bloodstream infection, the emergence of clone ST131 with fluoroquinolone resistance in acute pyelonephritis poses a challenge in choosing the adequate antimicrobials. In our institution, we often used 3<sup>rd</sup> generation cephalosporin such as ceftriaxone or fluoroquinolone such as levofloxacin or ciprofloxacin as empirical antibiotics for community-onset complicated UTI or gram negative bacillary bacteremia.</p>
          <p>Our previous studies compared the clinical features and outcome in ST131 vs. non-ST131 in ESBL-producing <it>E. coli</it> bacteremia <abbrgrp>
                <abbr bid="B10">10</abbr>
             </abbrgrp>. We found that ST131 was associated with non-catheter related UTI (urinary tract infection) and that it is not associated with higher mortality <abbrgrp>
                <abbr bid="B10">10</abbr>
             </abbrgrp>. According to our review of the literature, we did not find clinical data for clone ST131 in community-onset ESBL-negative <it>E. coli</it> bacteremia. To further understand the role of ST131 in community-onset non-ESBL-producing <it>E. coli</it> bacteremia, we collected non-duplicated consecutive <it>E. coli</it> bloodstream infection isolates in 2010 in a medical center in southern Taiwan. Our goals were to determine the percentage of ST131 in community-onset non-ESBL-producing <it>E. coli</it> bloodstream infection and to find out if patients with ST131 clone have clinical features or outcome different from patients with a non-ST131 clone.</p>
       </sec>
       <sec>
          <st>
             <p>Method</p>
          </st>
          <sec>
             <st>
                <p>Study design, setting and participants</p>
             </st>
             <p>The study was done retrospectively and included patients older than 16&#160;years old with at least one positive blood culture of ESBL-negative <it>E. coli</it> who were admitted to the E-Da Hospital during a one-year period as Figure&#160;<figr fid="F1">1</figr> (from Jan 1, 2010 to Dec 31, 2010). E-Da Hospital is a 1200-bed major teaching hospital in southern Taiwan that provides both primary and tertiary medical care. Only strains from the first bacteremic episode were included in the analysis. Blood cultures were processed using the automated blood culture system. (BD Phoenix&#8482; Automated Microbiology System)</p>
             
                <fig id="F1">
                   <title>
                      <p>Figure 1</p>
                   </title>
                   <caption>
                      <p>Algorism of methods and cases analyses.</p>
                   </caption>
                   <text>
                      <p>
                         <b>Algorism of methods and cases analyses.</b>
                      </p>
                   </text>
                   <graphic file="s12879-014-0579-z-1"/>
                </fig>
             
             <p>In the present study, non-susceptibility arbitrarily refers to the category of intermediate and resistant results, obtained using the MIC (minimal inhibitory concentration) value in accordance with the criteria from the Clinical and Laboratory Standards Institute, M100-S21.</p>
          </sec>
          <sec>
             <st>
                <p>Variables, collection of data and definitions</p>
             </st>
             <p>All patients were evaluated using a standard case recording form. Each clinical course of infection was evaluated and recorded according to the information supplied by primary care physicians and medical records reviewing retrospectively. The diagnosis of infection focus of bacteremia was based on clinical, bacteriological, and radiological investigations.</p>
             <p>The following items were recorded for each patient: age; sex; underlying illness; infection syndrome type; history of hospitalization within the previous three months; antimicrobials exposure within the previous three months, existence of a urinary catheter; initial empirical antimicrobial agents; and outcome. If an in vitro active antimicrobial agent was not administered before the final result of blood culture, the procedure was considered a discordant empirical therapy.</p>
             <p>This study was supported by the E-Da Hospital Research Committee and approved by the institutional review board of E-Da Hospital. (EDAH IRB No./Protocol No: EMRP-102-048). Because the study was done via medical chart reviewing retrospectively and the pathogens were collected from the stock of the infectious isolates from the laboratory. The IRB waived informed consent requirements due to the research involves no more than minimal risk to the subjects and the waiver will not affect adversely the rights and welfare of the patients.</p>
          </sec>
          <sec>
             <st>
                <p>Microbiological studies</p>
             </st>
             <p>O25 positve E. coli isolates were determined by the PCR method described by Clermont et al <abbrgrp>
                   <abbr bid="B2">2</abbr>
                </abbrgrp>. All O25b positive <it>E. coli</it> isolates were characterized by multilocus sequence typing (MLST) using the standard seven housekeeping genes (adk, fumC, gyrB, icd, mdh, purA, and recA), according to the protocol and primers specified by the <it>E. coli</it> MLST web site (<url>http://mlst.warwick.ac.uk/mlst/dbs/Ecoli</url>) <abbrgrp>
                   <abbr bid="B2">2</abbr>
                </abbrgrp>,<abbrgrp>
                   <abbr bid="B11">11</abbr>
                </abbrgrp> MLST was also performed on a randomly selected subset of 40 O25b negative E-coli isolates. Clonal relationships were established by pulsed-field gel electrophoresis (PFGE) of XbaI-digested genomic DNA. To compare the band patterns of aggregated data, the GelCompar software package (version 6.0; Applied Maths, Bionumerics) was used. Strains showing 80% or greater banding pattern similarity were considered to have similar or identical electrokaryotypes.</p>
          </sec>
          <sec>
             <st>
                <p>Statistical analysis</p>
             </st>
             <p>Descriptive statistics, including means, standard deviations, and ranges, were used to analyze continuous variables, whereas percentages and confidence intervals were used to analyze categorical variables. Independent-t test was used for continuous variables. A Chi-square test or Fisher&#8217;s exact test was used for categorical variables. The variables in bivariate analyses with a <it>p</it> value &lt;0.1 were included in a multivariate analysis, which was performed using a logistic regression model to identify factors that independently and significantly affected the outcome. A <it>p</it> value &lt;0.05 was considered to be statistically significant. All statistical analyses were done using SPSS 15 for Windows, Chicago, IL, USA.</p>
          </sec>
       </sec>
       <sec>
          <st>
             <p>Result</p>
          </st>
          <p>Of the 371 non-duplicated consecutive <it>E. coli</it> bloodstream infection isolates, 43.9%, 30.7%, 15.4%, 15.4%, 13.2%, and 4.6% were resistant to trimethoprim/sulfamethoxazole (TMP/SMZ), amoxicillin/clavunate, cefazolin, gentamicin, ciprofloxacin, and cefotaxime, respectively (data not shown). The antibiotic resistance of all 371 isolates of clonal group O25b/ST131 and non clonal group O25b/ST131 were shown in the Additional file <supplr sid="S1">1</supplr>: Table S1. Clonal group 131 were more likely to have TMP/SMZ, ciprofloxacin, cefmetazole, and gentimicin resistance (P&#8201;&lt;&#8201;0.05). Clonal group O25b/ST131 (n&#8201;=&#8201;22) accounted for 5.9% of the total isolates. Two cases of O25-ST131 did not have a complete history in our hospital and were excluded from further clinical analysis.</p><p>We collected clinical data from the remaining 20 cases of clonal group O25b/ST131 and 40 randomly selected cases of non-O25b/ST131 genotypes, which were used as controls. The most predominant ST types in the 40 non-O25b/ST131 isolates included ST95 (n&#8201;=&#8201;12) and ST 69 (n&#8201;=&#8201;6). The underlying co-morbidity and healthcare-associated risk factors (such as hospitalization and antimicrobials use) were similar in the case and control groups, as shown in Table&#160;<tblr tid="T1">1</tblr>. Patients with clonal group O25b/ST131 were less likely to have intra-abdominal infection (0% vs. 22.5%; <it>p</it>&#8201;&lt;&#8201;0.05) than patients with non-O25b/ST131 clones. Nine cases (15%) received discordant antimicrobials before susceptibility data were available included levofloxacin (n&#8201;=&#8201;4), cephazolin (n&#8201;=&#8201;2), ceftriaxone (n&#8201;=&#8201;1), cefuroxime (n&#8201;=&#8201;1) and amoxicillin/clavunate (n&#8201;=&#8201;1). There were 20% patients in clonal group O25b/ST131 and 12.5% in non-clonal group O25b/ST131 that received discordant antimicrobials before susceptibility data were available (<it>p</it>&#8201;=&#8201;0.464).</p>
          
             <table id="T1">
                <title>
                   <p>Table 1</p>
                </title>
                <caption>
                   <p>
                      <b>Clinical features and epidemiology data in cases with clonal group O25b/ST131 and control group</b>
                   </p>
                </caption>
                <tgroup align="left" cols="4">
                   <colspec align="left" colname="c1" colnum="1" colwidth="*"/>
                   <colspec align="left" colname="c2" colnum="2" colwidth="*"/>
                   <colspec align="left" colname="c3" colnum="3" colwidth="*"/>
                   <colspec align="left" colname="c4" colnum="4" colwidth="*"/>
                   <thead>
                      <row valign="top">
                         <entry colname="c1" morerows="1">
                            <p>
                               <b>Parameter</b>
                            </p>
                         </entry>
                         <entry colname="c2">
                            <p>
                               <b>Non clonal group O25b/ST131</b>
                            </p>
                         </entry>
                         <entry colname="c3">
                            <p>
                               <b>Clonal group O25b/ST131</b>
                            </p>
                         </entry>
                         <entry colname="c4" morerows="1">
                            <p>
                               <b>P Value</b>
                            </p>
                         </entry>
                      </row>
                      <row valign="top">
                         <entry colname="c2">
                            <p>
                               <b>N&#8201;=&#8201;40</b>
                            </p>
                         </entry>
                         <entry colname="c3">
                            <p>
                               <b>N&#8201;=&#8201;20</b>
                            </p>
                         </entry>
                      </row>
                   </thead>
                   <tbody>
                      <row valign="top">
                         <entry colname="c1">
                            <p>Male sex</p>
                         </entry>
                         <entry colname="c2">
                            <p>10(25)</p>
                         </entry>
                         <entry colname="c3">
                            <p>8(40)</p>
                         </entry>
                         <entry colname="c4">
                            <p>0.232</p>
                         </entry>
                      </row>
                      <row valign="top">
                         <entry colname="c1">
                            <p>Age</p>
                         </entry>
                         <entry colname="c2">
                            <p>67.0&#8201;+&#8201;-13.9</p>
                         </entry>
                         <entry colname="c3">
                            <p>66.0+/-17.7</p>
                         </entry>
                         <entry colname="c4">
                            <p>0.807</p>
                         </entry>
                      </row>
                      <row valign="top">
                         <entry colname="c1">
                            <p>Underlying disease</p>
                         </entry>
                         <entry colname="c2"/>
                         <entry colname="c3"/>
                         <entry colname="c4"/>
                      </row>
                      <row valign="top">
                         <entry colname="c1">
                            <p>Diabetes mellitus</p>
                         </entry>
                         <entry colname="c2">
                            <p>16(40.0)</p>
                         </entry>
                         <entry colname="c3">
                            <p>6(30)</p>
                         </entry>
                         <entry colname="c4">
                            <p>0.449</p>
                         </entry>
                      </row>
                      <row valign="top">
                         <entry colname="c1">
                            <p>Hepatobiliary disease</p>
                         </entry>
                         <entry colname="c2">
                            <p>16(40.0)</p>
                         </entry>
                         <entry colname="c3">
                            <p>8(40)</p>
                         </entry>
                         <entry colname="c4">
                            <p>1.000</p>
                         </entry>
                      </row>
                      <row valign="top">
                         <entry colname="c1">
                            <p>Renal structure abnormality</p>
                         </entry>
                         <entry colname="c2">
                            <p>3 (7.5)</p>
                         </entry>
                         <entry colname="c3">
                            <p>4(20)</p>
                         </entry>
                         <entry colname="c4">
                            <p>0.208</p>
                         </entry>
                      </row>
                      <row valign="top">
                         <entry colname="c1">
                            <p>Chronic renal disease</p>
                         </entry>
                         <entry colname="c2">
                            <p>4(10)</p>
                         </entry>
                         <entry colname="c3">
                            <p>4(20)</p>
                         </entry>
                         <entry colname="c4">
                            <p>0.422</p>
                         </entry>
                      </row>
                      <row valign="top">
                         <entry colname="c1">
                            <p>Liver cirrhosis</p>
                         </entry>
                         <entry colname="c2">
                            <p>8(20)</p>
                         </entry>
                         <entry colname="c3">
                            <p>2(10)</p>
                         </entry>
                         <entry colname="c4">
                            <p>0.471</p>
                         </entry>
                      </row>
                      <row valign="top">
                         <entry colname="c1">
                            <p>Malignancy</p>
                         </entry>
                         <entry colname="c2">
                            <p>8(20)</p>
                         </entry>
                         <entry colname="c3">
                            <p>7(35)</p>
                         </entry>
                         <entry colname="c4">
                            <p>0.206</p>
                         </entry>
                      </row>
                      <row valign="top">
                         <entry colname="c1">
                            <p>Bedridden</p>
                         </entry>
                         <entry colname="c2">
                            <p>4(10)</p>
                         </entry>
                         <entry colname="c3">
                            <p>2(10)</p>
                         </entry>
                         <entry colname="c4">
                            <p>1.000</p>
                         </entry>
                      </row>
                      <row valign="top">
                         <entry colname="c1">
                            <p>Healthcare-associated risk factor</p>
                         </entry>
                         <entry colname="c2"/>
                         <entry colname="c3"/>
                         <entry colname="c4"/>
                      </row>
                      <row valign="top">
                         <entry colname="c1">
                            <p>Hospitalization in previous 6&#160;months</p>
                         </entry>
                         <entry colname="c2">
                            <p>20(50)</p>
                         </entry>
                         <entry colname="c3">
                            <p>6(30)</p>
                         </entry>
                         <entry colname="c4">
                            <p>0.141</p>
                         </entry>
                      </row>
                      <row valign="top">
                         <entry colname="c1">
                            <p>Antimicrobials exposure in 3&#160;months</p>
                         </entry>
                         <entry colname="c2"/>
                         <entry colname="c3"/>
                         <entry colname="c4"/>
                      </row>
                      <row valign="top">
                         <entry colname="c1">
                            <p>B-lactam antimicrobials</p>
                         </entry>
                         <entry colname="c2">
                            <p>17(42.5)</p>
                         </entry>
                         <entry colname="c3">
                            <p>6(30)</p>
                         </entry>
                         <entry colname="c4">
                            <p>0.102</p>
                         </entry>
                      </row>
                      <row valign="top">
                         <entry colname="c1">
                            <p>Fluoroquinolone</p>
                         </entry>
                         <entry colname="c2">
                            <p>0(0)</p>
                         </entry>
                         <entry colname="c3">
                            <p>2(10)</p>
                         </entry>
                         <entry colname="c4"/>
                      </row>
                      <row valign="top">
                         <entry colname="c1">
                            <p>Recent operation</p>
                         </entry>
                         <entry colname="c2">
                            <p>5(12.5)</p>
                         </entry>
                         <entry colname="c3">
                            <p>1(5)</p>
                         </entry>
                         <entry colname="c4">
                            <p>0.653</p>
                         </entry>
                      </row>
                      <row valign="top">
                         <entry colname="c1">
                            <p>With Foley catheter</p>
                         </entry>
                         <entry colname="c2">
                            <p>5(12.5)</p>
                         </entry>
                         <entry colname="c3">
                            <p>0(0)</p>
                         </entry>
                         <entry colname="c4">
                            <p>0.159</p>
                         </entry>
                      </row>
                      <row valign="top">
                         <entry colname="c1">
                            <p>Infection syndrome</p>
                         </entry>
                         <entry colname="c2"/>
                         <entry colname="c3"/>
                         <entry colname="c4"/>
                      </row>
                      <row valign="top">
                         <entry colname="c1">
                            <p>Urinary tract infection</p>
                         </entry>
                         <entry colname="c2">
                            <p>22(55.0)</p>
                         </entry>
                         <entry colname="c3">
                            <p>12(60)</p>
                         </entry>
                         <entry colname="c4">
                            <p>0.713</p>
                         </entry>
                      </row>
                      <row valign="top">
                         <entry colname="c1">
                            <p>Intra-abdominal infection</p>
                         </entry>
                         <entry colname="c2">
                            <p>9(22.5)</p>
                         </entry>
                         <entry colname="c3">
                            <p>0(0)</p>
                         </entry>
                         <entry colname="c4">
                            <p>0.023</p>
                         </entry>
                      </row>
                      <row valign="top">
                         <entry colname="c1">
                            <p>Outcome</p>
                         </entry>
                         <entry colname="c2"/>
                         <entry colname="c3"/>
                         <entry colname="c4"/>
                      </row>
                      <row valign="top">
                         <entry colname="c1">
                            <p>Discordant antimicrobials</p>
                         </entry>
                         <entry colname="c2">
                            <p>5(12.5)</p>
                         </entry>
                         <entry colname="c3">
                            <p>4(20)</p>
                         </entry>
                         <entry colname="c4">
                            <p>0.464</p>
                         </entry>
                      </row>
                      <row valign="top">
                         <entry colname="c1">
                            <p>Shock</p>
                         </entry>
                         <entry colname="c2">
                            <p>6(15)</p>
                         </entry>
                         <entry colname="c3">
                            <p>4(20)</p>
                         </entry>
                         <entry colname="c4">
                            <p>0.718</p>
                         </entry>
                      </row>
                      <row valign="top">
                         <entry colname="c1">
                            <p>Length of stay &gt;2&#160;weeks</p>
                         </entry>
                         <entry colname="c2">
                            <p>11(27.5)</p>
                         </entry>
                         <entry colname="c3">
                            <p>6(30)</p>
                         </entry>
                         <entry colname="c4">
                            <p>0.839</p>
                         </entry>
                      </row>
                      <row valign="top">
                         <entry colname="c1">
                            <p>Day 30 mortality</p>
                         </entry>
                         <entry colname="c2">
                            <p>5(12.5)</p>
                         </entry>
                         <entry colname="c3">
                            <p>3(15)</p>
                         </entry>
                         <entry colname="c4">
                            <p>1.000</p>
                         </entry>
                      </row>
                   </tbody>
                </tgroup>
             </table>
          
          <p>The Day 30 mortality rate was similar in the clonal group O25b/ST131 and non-clonal group O25b/ST131 (12.5% vs. 15%, <it>p</it>&#8201;=&#8201;1.00), but patients infected with the clonal group O25b/ST131 were more likely to have ESBL <it>E. coli</it> infection in the following two years than patients infected with the non-ST131 group (20% vs. 2.5% <it>p</it>&#8201;&lt;&#8201;0.05) (data not shown). However, we don&#8217;t have the following ESBL <it>E. coli</it> isolates for further pulsotype study. The univariate risk factors for Day 30 mortality included underlying chronic renal failure (OR: 5.6; 95% CI: 3.0-31.0; <it>p</it>&#8201;=&#8201;0.046) and solid organ cancer (OR: 7.0; 95% CI: 1.4 -34.2; <it>p</it> = 0.016). The only independent risk factor of Day 30 mortality in multivariate analysis (logistic regression, backward Wald) was chronic renal failure (OR: 16.4; 95% CI: 1.3-212.5; <it>p</it>&#8201;=&#8201;0.032) and a primary urinary tract source of infection was associated with lower day 30 mortality (OR:&#8201;0.042; 95% CI:&#8201;0.002-0.76; <it>p</it> = 0.032) (Table&#160;<tblr tid="T2">2</tblr>). Clonal group O25b/ST131 was not related to Day 30 mortality in neither univariate nor multivariate analysis. The resistance percentage of these 60 isolates was shown on Table&#160;<tblr tid="T3">3</tblr>. The PFGE result is shown in Figure&#160;<figr fid="F2">2</figr>. There were several pulsotypes in clonal group O25b/ST131, and one major pulsotype included five isolates.</p>
          
             <table id="T2">
                <title>
                   <p>Table 2</p>
                </title>
                <caption>
                   <p>
                      <b>Univariate and multivariate analysis in risk factor of Day 30 mortality</b>
                   </p>
                </caption>
                <tgroup align="left" cols="3">
                   <colspec align="left" colname="c1" colnum="1" colwidth="*"/>
                   <colspec align="left" colname="c2" colnum="2" colwidth="*"/>
                   <colspec align="left" colname="c3" colnum="3" colwidth="*"/>
                   <thead>
                      <row valign="top">
                         <entry colname="c1" morerows="1">
                            <p>
                               <b>Parameter</b>
                            </p>
                         </entry>
                         <entry colname="c2">
                            <p>
                               <b>Univariate</b>
                            </p>
                         </entry>
                         <entry colname="c3">
                            <p>
                               <b>Multivariate</b>
                            </p>
                         </entry>
                      </row>
                      <row valign="top">
                         <entry colname="c2">
                            <p>
                               <b>Crude OR (95% CI)</b>
                            </p>
                         </entry>
                         <entry colname="c3">
                            <p>
                               <b>Adjusted OR (95% CI)</b>
                            </p>
                         </entry>
                      </row>
                   </thead>
                   <tbody>
                      <row valign="top">
                         <entry colname="c1">
                            <p>Chronic renal disease</p>
                         </entry>
                         <entry colname="c2">
                            <p>5.6 (3.0-31.0)</p>
                         </entry>
                         <entry colname="c3">
                            <p>16.4 (1.3-212.5)</p>
                         </entry>
                      </row>
                      <row valign="top">
                         <entry colname="c1">
                            <p>Urinary tract infection</p>
                         </entry>
                         <entry colname="c2">
                            <p>0.08 (0.09-0.72)</p>
                         </entry>
                         <entry colname="c3">
                            <p>0.042 (.002-0.76)</p>
                         </entry>
                      </row>
                      <row valign="top">
                         <entry colname="c1">
                            <p>Malignancy</p>
                         </entry>
                         <entry colname="c2">
                            <p>7.0 (1.4 -34.2)</p>
                         </entry>
                         <entry colname="c3">
                            <p>Not significant</p>
                         </entry>
                      </row>
                      <row valign="top">
                         <entry colname="c1">
                            <p>Clonal group O25b/ST131</p>
                         </entry>
                         <entry colname="c2">
                            <p>1.002 (0.99-1.013)</p>
                         </entry>
                         <entry colname="c3">
                            <p>Not significant</p>
                         </entry>
                      </row>
                   </tbody>
                </tgroup>
             </table>
          
          
             <table id="T3">
                <title>
                   <p>Table 3</p>
                </title>
                <caption>
                   <p>
                      <b>Percentage of antibiotic resistance in ST 131 clones and nonST131 clones (N = 60)</b>
                   </p>
                </caption>
                <tgroup align="left" cols="4">
                   <colspec align="left" colname="c1" colnum="1" colwidth="*"/>
                   <colspec align="left" colname="c2" colnum="2" colwidth="*"/>
                   <colspec align="left" colname="c3" colnum="3" colwidth="*"/>
                   <colspec align="left" colname="c4" colnum="4" colwidth="*"/>
                   <thead>
                      <row valign="top">
                         <entry colname="c1">
                            <p>
                               <b>Resistance percentage</b>
                            </p>
                         </entry>
                         <entry colname="c2">
                            <p>
                               <b>O25b-ST131</b>
                            </p>
                         </entry>
                         <entry colname="c3">
                            <p>
                               <b>Non O25b-ST131</b>
                            </p>
                         </entry>
                         <entry colname="c4" morerows="1">
                            <p>
                               <b>P value</b>
                            </p>
                         </entry>
                      </row>
                      <row valign="top">
                         <entry colname="c1">
                            <p>
                               <b>(%)</b>
                            </p>
                         </entry>
                         <entry colname="c2">
                            <p>
                               <b>N&#8201;=&#8201;20</b>
                            </p>
                         </entry>
                         <entry colname="c3">
                            <p>
                               <b>N&#8201;=&#8201;40</b>
                            </p>
                         </entry>
                      </row>
                   </thead>
                   <tfoot>
                      <p>Note: Amox/Clavu denotes as Amoxicillin/Clavunic acid, TMP/SMZ denotes as Trimethoprim/sulfamethoxazole.</p>
                      <p>No resistance of cefepime, imipenem, amikacin found in these two groups.</p>
                   </tfoot>
                   <tbody>
                      <row valign="top">
                         <entry colname="c1">
                            <p>Amox/Clavu</p>
                         </entry>
                         <entry colname="c2">
                            <p>6(30)</p>
                         </entry>
                         <entry colname="c3">
                            <p>12(30)</p>
                         </entry>
                         <entry colname="c4">
                            <p>0.788</p>
                         </entry>
                      </row>
                      <row valign="top">
                         <entry colname="c1">
                            <p>TMP/SMZ</p>
                         </entry>
                         <entry colname="c2">
                            <p>14(70)</p>
                         </entry>
                         <entry colname="c3">
                            <p>20(50)</p>
                         </entry>
                         <entry colname="c4">
                            <p>0.141</p>
                         </entry>
                      </row>
                      <row valign="top">
                         <entry colname="c1">
                            <p>Ciprofloxacin</p>
                         </entry>
                         <entry colname="c2">
                            <p>7(35)</p>
                         </entry>
                         <entry colname="c3">
                            <p>4(10)</p>
                         </entry>
                         <entry colname="c4">
                            <p>0.018</p>
                         </entry>
                      </row>
                      <row valign="top">
                         <entry colname="c1">
                            <p>Cefazolin</p>
                         </entry>
                         <entry colname="c2">
                            <p>6(30)</p>
                         </entry>
                         <entry colname="c3">
                            <p>5(12.5)</p>
                         </entry>
                         <entry colname="c4">
                            <p>0.099</p>
                         </entry>
                      </row>
                      <row valign="top">
                         <entry colname="c1">
                            <p>Cefmetazole</p>
                         </entry>
                         <entry colname="c2">
                            <p>4(20)</p>
                         </entry>
                         <entry colname="c3">
                            <p>1(2.5)</p>
                         </entry>
                         <entry colname="c4">
                            <p>0.038</p>
                         </entry>
                      </row>
                      <row valign="top">
                         <entry colname="c1">
                            <p>Cefotaxime</p>
                         </entry>
                         <entry colname="c2">
                            <p>2(10)</p>
                         </entry>
                         <entry colname="c3">
                            <p>0(0)</p>
                         </entry>
                         <entry colname="c4">
                            <p>0.107</p>
                         </entry>
                      </row>
                      <row valign="top">
                         <entry colname="c1">
                            <p>Piperacillin</p>
                         </entry>
                         <entry colname="c2">
                            <p>16(80)</p>
                         </entry>
                         <entry colname="c3">
                            <p>26(65)</p>
                         </entry>
                         <entry colname="c4">
                            <p>0.232</p>
                         </entry>
                      </row>
                      <row valign="top">
                         <entry colname="c1">
                            <p>Gentamicin</p>
                         </entry>
                         <entry colname="c2">
                            <p>11(55)</p>
                         </entry>
                         <entry colname="c3">
                            <p>6(15)</p>
                         </entry>
                         <entry colname="c4">
                            <p>0.001</p>
                         </entry>
                      </row>
                   </tbody>
                </tgroup>
             </table>
          
          
             <fig id="F2">
                <title>
                   <p>Figure 2</p>
                </title>
                <caption>
                   <p>Pulsed-field gel electrophoresis (PFGE) of XbaI-digested genomic DNA of 23 clonal group O25b/ST131 isolates and five isolates with ST95 and one isolate with ST59.</p>
                </caption>
                <text>
                   <p>
                      <b>Pulsed-field gel electrophoresis (PFGE) of XbaI-digested genomic DNA of 23 clonal group O25b/ST131 isolates and five isolates with ST95 and one isolate with ST59.</b> The major pulsotype was marked. Note: 1. One case with repeated bacteremia (two isolates #) in the same year. 2. Two isolates* were excluded from the clinical analysis due to incomplete clinical data in the medical chart.</p>
                </text>
                <graphic file="s12879-014-0579-z-2"/>
             </fig>
          
       </sec>
       <sec>
          <st>
             <p>Discussion</p>
          </st>
          <p>We have shown that O25-ST131 is also the important clone in non-ESBL-producing <it>E. coli</it> bacteremia. Clonal group O25b/ST131 accounted for 5.9% in total isolates and had a higher proportion in gentamicin, TMP/SMZ and fluoroquinolone resistant isolates. Clonal group O25b/ST131 existed in both multidrug-resistant and susceptible <it>E. coli</it> strains causing community-onset bloodstream infection. Most cases with clonal group O25b/ST131 did not have apparent healthcare associated risk factors. This finding answers a previous suggestion that the emerging of clonal group O25b/ST131 may be explained by the enhanced ability to cause extraintestinal infection rather than selection by antimicrobial agents used in hospitals. Current study excluding ESBL positive isolates showed approximately one fourth of fluoroquinolone resistant <it>E. coli</it> bacteremia was O25-ST131. Similar to a previous study, although more present in multidrug-resistant isolates, ST131 was found in both antimicrobials susceptible and resistant blood isolates <abbrgrp>
                <abbr bid="B11">11</abbr>
             </abbrgrp>,<abbrgrp>
                <abbr bid="B12">12</abbr>
             </abbrgrp>. In a bacteremia study in San Francisco, ST131 accounted for approximately 20% of all drug-resistant and susceptible isolates <abbrgrp>
                <abbr bid="B11">11</abbr>
             </abbrgrp>. Uchida et al. investigated 219 fluoroquinolone-resistant <it>E. coli</it> strains in Asian and found that 32% strains were from the serogroup O25 <abbrgrp>
                <abbr bid="B7">7</abbr>
             </abbrgrp>. In Korea, 25% of community-onset urine <it>E. coli</it> isolates were ST131 from November 2006 to August 2007 <abbrgrp>
                <abbr bid="B8">8</abbr>
             </abbrgrp>.</p>
          <p>Similar to a previous study, O25-ST131 was less likely to be associated with intra-abdominal infection and more likely to be related to UTI <abbrgrp>
                <abbr bid="B5">5</abbr>
             </abbrgrp>. In a study from Spain, some healthcare associated risk factors such as diabetes, bedridden status, and antimicrobials exposure were independent risk factors for clone ST131 <abbrgrp>
                <abbr bid="B13">13</abbr>
             </abbrgrp>. A trend for fluoroquinolone exposure in clonal group ST131/O25b was observed in our study but did not reach statistical significance. However, the other correlations were not found in our series, which is possibly explained by the fact that we included only community-onset bacteremia, and patients with some healthcare-associated risk factors may have been excluded. Similar to the study in Spain, mortality was similar between the ST131 and non-ST131 groups <abbrgrp>
                <abbr bid="B13">13</abbr>
             </abbrgrp>. Our study is also in agreement with a previous murine sepsis model in which neither ST131 status nor fluoroquinolone resistance correlated with mortality <abbrgrp>
                <abbr bid="B14">14</abbr>
             </abbrgrp>. More cases of clone ST131 had a higher chance of ESBL <it>E. coli</it> infection in the following two years than cases of non-ST131. It remains to be clarified if this phenomenon is related to the colonization and transmission features of ST 131. Nevertheless, a study from France showed that ST131 had high intestine colonization and urinary tract infection abilities, and according to a recent report, ST131 clone was associated with recurrent or persistent urinary tract infection <abbrgrp>
                <abbr bid="B15">15</abbr>
             </abbrgrp>,<abbrgrp>
                <abbr bid="B16">16</abbr>
             </abbrgrp>.</p>
          <p>In our study, despite the high percentage use of discordant antimicrobials in both the ST131 and non-ST131 groups, the mortality was not changed much. Taking into account the predominance of ST131 in <it>E. coli</it> bacteremia infection, the selection of adequate empirical antimicrobials becomes difficult. In Asia, the susceptibility rate to fluoroquinolones in <it>E. coli</it> was approximately 70% in the urinary isolates from the SMART study <abbrgrp>
                <abbr bid="B17">17</abbr>
             </abbrgrp>. In community-acquired bacteremic acute pyelonephritis, discordant empirical therapy was associated with a worse early clinical response and longer hospital stay than in concordant therapy <abbrgrp>
                <abbr bid="B18">18</abbr>
             </abbrgrp>-<abbrgrp>
                <abbr bid="B20">20</abbr>
             </abbrgrp>. However, choosing broad-spectrum antimicrobials such as carbapenem in this type of community-onset infection raises the concern of antimicrobials selection pressure.</p>
          <p>This study is limited by the following factors. First, this is a single center study in Taiwan that included a moderate number of case numbers, and we do not know if the result can be generalized to other parts of the world. Second, we did not collect isolates from colonization or infection after the bacteremia episode. We ignore if the ESBL isolates cultured after infection have the same genotype as the isolates collected during the non-ESBL producing <it>E. coli</it> bacteremia. Third, we used the O25b PCR as a screen and confirm by MLST to identify the clonal group O25b/ST131, some of isolates of ST131 but O25b negative may be missed in this screening method. The clinical significance of clone O25b negative ST131 was not known.</p>
       </sec>
       <sec>
          <st>
             <p>Conclusion</p>
          </st>
          <p>Our preliminary study shows that clone O25b-ST131 isolates emerged as an important cause of non-ESBL-producing <it>E. coli</it> bacteremia in Taiwan. Clonal group O25b/ST131 existed in both multidrug-resistant and susceptible <it>E. coli</it> strains causing community-onset bloodstream infection. Although O25b/ST131 does not lead to a higher mortality than other isolates, choosing an appropriate antimicrobials in the empirical therapy of community-onset <it>E. coli</it> bacteremia has become more challenging due to the appearance of the ST131 clone.</p>
       </sec>
       <sec>
          <st>
             <p>Competing interests</p>
          </st>
          <p>The authors declare that they have no competing interests.</p>
       </sec>
       <sec>
          <st>
             <p>Authors&#8217; contributions</p>
          </st>
          <p>YHW, JLW, CHH carried out the molecular genetic studies and drafted the manuscript. CHL and HHL participated in the design of the study and collected the bacteria isolates. MFC participated in its design and coordination and helped to draft the manuscript. All authors read and approved the final manuscript.</p>
       </sec>
       <sec>
          <st>
             <p>Additional file</p>
          </st>
          <suppl id="S1">
             <title>
                <p>Additional file 1: Table S1.</p>
             </title>
             <text>
                <p>Percentage of antibiotic resistance in ST 131 clones and non ST131 clones in all isolates (N=371).</p>
             </text>
             <file name="s12879-014-0579-z-S1.doc">
                <p>Click here for file</p>
             </file>
          </suppl>
          
       </sec>
    </bdy>
    <bm>
       <ack>
          <sec>
             <st>
                <p>Acknowledgements</p>
             </st>
             <p>This work was supported by research grants (EDAHP103057) from E-DA hospital. The funders had no role in study design, data collection and analysis, decision to publish, or preparation of the manuscript.</p>
          </sec>
       </ack>
       <refgrp>
          
          <bibl id="B1">
             <title>
                <p>Intercontinental emergence of Escherichia coli clone O25:H4&#8211;ST131 producing CTX-M-15</p>
             </title>
             <aug>
                <au>
                   <snm>Nicolas-Chanoine</snm>
                   <fnm>MH</fnm>
                </au>
                <au>
                   <snm>Blanco</snm>
                   <fnm>J</fnm>
                </au>
                <au>
                   <snm>Leflon-Guibout</snm>
                   <fnm>V</fnm>
                </au>
                <au>
                   <snm>Demarty</snm>
                   <fnm>R</fnm>
                </au>
                <au>
                   <snm>Alonso</snm>
                   <fnm>MP</fnm>
                </au>
                <au>
                   <snm>Cani&#231;a</snm>
                   <fnm>MM</fnm>
                </au>
                <au>
                   <snm>Park</snm>
                   <fnm>YJ</fnm>
                </au>
                <au>
                   <snm>Lavigne</snm>
                   <fnm>JP</fnm>
                </au>
                <au>
                   <snm>Pitout</snm>
                   <fnm>J</fnm>
                </au>
                <au>
                   <snm>Johnson</snm>
                   <fnm>JR</fnm>
                </au>
             </aug>
             <source>J Antimicrob Chemother</source>
             <pubdate>2008</pubdate>
             <volume>61</volume>
             <fpage>273</fpage>
             <lpage>281</lpage>
             <xrefbib>
                <pubidlist>
                   <pubid idtype="doi">10.1093/jac/dkm464</pubid>
                   <pubid idtype="pmpid" link="fulltext">18077311</pubid>
                </pubidlist>
             </xrefbib>
          </bibl>
          <bibl id="B2">
             <title>
                <p>Rapid detection of the O25b-ST131 clone of Escherichia coli encompassing the CTX-M-15-producing strains</p>
             </title>
             <aug>
                <au>
                   <snm>Clermont</snm>
                   <fnm>O</fnm>
                </au>
                <au>
                   <snm>Dhanji</snm>
                   <fnm>H</fnm>
                </au>
                <au>
                   <snm>Upton</snm>
                   <fnm>M</fnm>
                </au>
                <au>
                   <snm>Gibreel</snm>
                   <fnm>T</fnm>
                </au>
                <au>
                   <snm>Fox</snm>
                   <fnm>A</fnm>
                </au>
                <au>
                   <snm>Boyd</snm>
                   <fnm>D</fnm>
                </au>
                <au>
                   <snm>Mulvey</snm>
                   <fnm>MR</fnm>
                </au>
                <au>
                   <snm>Nordmann</snm>
                   <fnm>P</fnm>
                </au>
                <au>
                   <snm>Rupp&#233;</snm>
                   <fnm>E</fnm>
                </au>
                <au>
                   <snm>Sarthou</snm>
                   <fnm>JL</fnm>
                </au>
                <au>
                   <snm>Frank</snm>
                   <fnm>T</fnm>
                </au>
                <au>
                   <snm>Vimont</snm>
                   <fnm>S</fnm>
                </au>
                <au>
                   <snm>Arlet</snm>
                   <fnm>G</fnm>
                </au>
                <au>
                   <snm>Branger</snm>
                   <fnm>C</fnm>
                </au>
                <au>
                   <snm>Woodford</snm>
                   <fnm>N</fnm>
                </au>
                <au>
                   <snm>Denamur</snm>
                   <fnm>E</fnm>
                </au>
             </aug>
             <source>J Antimicrob Chemother</source>
             <pubdate>2009</pubdate>
             <volume>64</volume>
             <fpage>274</fpage>
             <lpage>277</lpage>
             <xrefbib>
                <pubidlist>
                   <pubid idtype="doi">10.1093/jac/dkp194</pubid>
                   <pubid idtype="pmpid" link="fulltext">19474064</pubid>
                </pubidlist>
             </xrefbib>
          </bibl>
          <bibl id="B3">
             <title>
                <p>Molecular epidemiology of Escherichia coli producing CTX-M beta-lactamases: the worldwide emergence of clone ST131 O25:H4</p>
             </title>
             <aug>
                <au>
                   <snm>Peirano</snm>
                   <fnm>G</fnm>
                </au>
                <au>
                   <snm>Pitout</snm>
                   <fnm>JD</fnm>
                </au>
             </aug>
             <source>Int J Antimicrob Agents</source>
             <pubdate>2010</pubdate>
             <volume>35</volume>
             <fpage>316</fpage>
             <lpage>321</lpage>
             <xrefbib>
                <pubidlist>
                   <pubid idtype="doi">10.1016/j.ijantimicag.2009.11.003</pubid>
                   <pubid idtype="pmpid" link="fulltext">20060273</pubid>
                </pubidlist>
             </xrefbib>
          </bibl>
          <bibl id="B4">
             <title>
                <p>Comparison of Escherichia coli ST131 pulsotypes, by epidemiologic traits, 1967-2009</p>
             </title>
             <aug>
                <au>
                   <snm>Johnson</snm>
                   <fnm>JR</fnm>
                </au>
                <au>
                   <snm>Nicolas-Chanoine</snm>
                   <fnm>MH</fnm>
                </au>
                <au>
                   <snm>DebRoy</snm>
                   <fnm>C</fnm>
                </au>
                <au>
                   <snm>Castanheira</snm>
                   <fnm>M</fnm>
                </au>
                <au>
                   <snm>Robicsek</snm>
                   <fnm>A</fnm>
                </au>
                <au>
                   <snm>Hansen</snm>
                   <fnm>G</fnm>
                </au>
                <au>
                   <snm>Weissman</snm>
                   <fnm>S</fnm>
                </au>
                <au>
                   <snm>Urban</snm>
                   <fnm>C</fnm>
                </au>
                <au>
                   <snm>Platell</snm>
                   <fnm>J</fnm>
                </au>
                <au>
                   <snm>Trott</snm>
                   <fnm>D</fnm>
                </au>
                <au>
                   <snm>Zhanel</snm>
                   <fnm>G</fnm>
                </au>
                <au>
                   <snm>Clabots</snm>
                   <fnm>C</fnm>
                </au>
                <au>
                   <snm>Johnston</snm>
                   <fnm>BD</fnm>
                </au>
                <au>
                   <snm>Kuskowski</snm>
                   <fnm>MA</fnm>
                </au>
             </aug>
             <source>Emerg Infect Dis</source>
             <pubdate>2012</pubdate>
             <volume>18</volume>
             <fpage>598</fpage>
             <lpage>607</lpage>
             <xrefbib>
                <pubidlist>
                   <pubid idtype="doi">10.3201/eid1804.111627</pubid>
                   <pubid idtype="pmpid" link="fulltext">22469129</pubid>
                </pubidlist>
             </xrefbib>
          </bibl>
          <bibl id="B5">
             <title>
                <p>Escherichia coli sequence type ST131 as the major cause of serious multidrug-resistant E. coli infections in the United States</p>
             </title>
             <aug>
                <au>
                   <snm>Johnson</snm>
                   <fnm>JR</fnm>
                </au>
                <au>
                   <snm>Johnston</snm>
                   <fnm>B</fnm>
                </au>
                <au>
                   <snm>Clabots</snm>
                   <fnm>C</fnm>
                </au>
                <au>
                   <snm>Kuskowski</snm>
                   <fnm>MA</fnm>
                </au>
                <au>
                   <snm>Castanheira</snm>
                   <fnm>M</fnm>
                </au>
             </aug>
             <source>Clin Infect Dis</source>
             <pubdate>2010</pubdate>
             <volume>51</volume>
             <fpage>286</fpage>
             <lpage>294</lpage>
             <xrefbib>
                <pubidlist>
                   <pubid idtype="doi">10.1086/653932</pubid>
                   <pubid idtype="pmpid" link="fulltext">20572763</pubid>
                </pubidlist>
             </xrefbib>
          </bibl>
          <bibl id="B6">
             <title>
                <p>Prevalence of fluoroquinolone-resistant Escherichia coli O25:H4-ST131 (CTX-M-15-nonproducing) strains isolated in Japan</p>
             </title>
             <aug>
                <au>
                   <snm>Yokota</snm>
                   <fnm>S</fnm>
                </au>
                <au>
                   <snm>Sato</snm>
                   <fnm>T</fnm>
                </au>
                <au>
                   <snm>Okubo</snm>
                   <fnm>T</fnm>
                </au>
                <au>
                   <snm>Ohkoshi</snm>
                   <fnm>Y</fnm>
                </au>
                <au>
                   <snm>Okabayashi</snm>
                   <fnm>T</fnm>
                </au>
                <au>
                   <snm>Kuwahara</snm>
                   <fnm>O</fnm>
                </au>
                <au>
                   <snm>Tamura</snm>
                   <fnm>Y</fnm>
                </au>
                <au>
                   <snm>Fujii</snm>
                   <fnm>N</fnm>
                </au>
             </aug>
             <source>Chemotherapy</source>
             <pubdate>2012</pubdate>
             <volume>58</volume>
             <fpage>52</fpage>
             <lpage>59</lpage>
             <xrefbib>
                <pubidlist>
                   <pubid idtype="doi">10.1159/000336129</pubid>
                   <pubid idtype="pmpid" link="fulltext">22343392</pubid>
                </pubidlist>
             </xrefbib>
          </bibl>
          <bibl id="B7">
             <title>
                <p>Clonal spread in Eastern Asia of ciprofloxacin-resistant Escherichia coli serogroup O25 strains, and associated virulence factors</p>
             </title>
             <aug>
                <au>
                   <snm>Uchida</snm>
                   <fnm>Y</fnm>
                </au>
                <au>
                   <snm>Mochimaru</snm>
                   <fnm>T</fnm>
                </au>
                <au>
                   <snm>Morokuma</snm>
                   <fnm>Y</fnm>
                </au>
                <au>
                   <snm>Kiyosuke</snm>
                   <fnm>M</fnm>
                </au>
                <au>
                   <snm>Fujise</snm>
                   <fnm>M</fnm>
                </au>
                <au>
                   <snm>Eto</snm>
                   <fnm>F</fnm>
                </au>
                <au>
                   <snm>Eriguchi</snm>
                   <fnm>Y</fnm>
                </au>
                <au>
                   <snm>Nagasaki</snm>
                   <fnm>Y</fnm>
                </au>
                <au>
                   <snm>Shimono</snm>
                   <fnm>N</fnm>
                </au>
                <au>
                   <snm>Kang</snm>
                   <fnm>D</fnm>
                </au>
             </aug>
             <source>Int J Antimicrob Agents</source>
             <pubdate>2010</pubdate>
             <volume>35</volume>
             <fpage>444</fpage>
             <lpage>450</lpage>
             <xrefbib>
                <pubidlist>
                   <pubid idtype="doi">10.1016/j.ijantimicag.2009.12.012</pubid>
                   <pubid idtype="pmpid" link="fulltext">20188525</pubid>
                </pubidlist>
             </xrefbib>
          </bibl>
          <bibl id="B8">
             <title>
                <p>Dissemination of ST131 and ST393 community-onset, ciprofloxacin-resistant Escherichia coli clones causing urinary tract infections in Korea</p>
             </title>
             <aug>
                <au>
                   <snm>Lee</snm>
                   <fnm>MY</fnm>
                </au>
                <au>
                   <snm>Choi</snm>
                   <fnm>HJ</fnm>
                </au>
                <au>
                   <snm>Choi</snm>
                   <fnm>JY</fnm>
                </au>
                <au>
                   <snm>Song</snm>
                   <fnm>M</fnm>
                </au>
                <au>
                   <snm>Song</snm>
                   <fnm>Y</fnm>
                </au>
                <au>
                   <snm>Kim</snm>
                   <fnm>SW</fnm>
                </au>
                <au>
                   <snm>Chang</snm>
                   <fnm>HH</fnm>
                </au>
                <au>
                   <snm>Jung</snm>
                   <fnm>SI</fnm>
                </au>
                <au>
                   <snm>Kim</snm>
                   <fnm>YS</fnm>
                </au>
                <au>
                   <snm>Ki</snm>
                   <fnm>HK</fnm>
                </au>
                <au>
                   <snm>Son</snm>
                   <fnm>JS</fnm>
                </au>
                <au>
                   <snm>Kwon</snm>
                   <fnm>KT</fnm>
                </au>
                <au>
                   <snm>Heo</snm>
                   <fnm>ST</fnm>
                </au>
                <au>
                   <snm>Yeom</snm>
                   <fnm>JS</fnm>
                </au>
                <au>
                   <snm>Shin</snm>
                   <fnm>SY</fnm>
                </au>
                <au>
                   <snm>Chung</snm>
                   <fnm>DR</fnm>
                </au>
                <au>
                   <snm>Peck</snm>
                   <fnm>KR</fnm>
                </au>
                <au>
                   <snm>Song</snm>
                   <fnm>JH</fnm>
                </au>
                <au>
                   <snm>Ko</snm>
                   <fnm>KS</fnm>
                </au>
             </aug>
             <source>J Infect</source>
             <pubdate>2010</pubdate>
             <volume>60</volume>
             <fpage>146</fpage>
             <lpage>153</lpage>
             <xrefbib>
                <pubidlist>
                   <pubid idtype="doi">10.1016/j.jinf.2009.11.004</pubid>
                   <pubid idtype="pmpid" link="fulltext">19932131</pubid>
                </pubidlist>
             </xrefbib>
          </bibl>
          <bibl id="B9">
             <note>Wu YH, Chen PL, Hung YP, Ko WC: <b>Risk factors and clinical impact of levofloxacin or cefazolin nonsusceptibility or ESBL production among uropathogens in adults with community-onset urinary tract infections.</b>
                <it>J Microbiol Immunol Infect</it> 2012, Oct 11(E-Pub).</note>
          </bibl>
          <bibl id="B10">
             <title>
                <p>Bacteremia caused by extended-spectrum-&#946;-lactamase-producing Escherichia coli sequence type ST131 and non-ST131 clones: comparison of demographic data, clinical features, and mortality</p>
             </title>
             <aug>
                <au>
                   <snm>Chung</snm>
                   <fnm>HC</fnm>
                </au>
                <au>
                   <snm>Lai</snm>
                   <fnm>CH</fnm>
                </au>
                <au>
                   <snm>Lin</snm>
                   <fnm>JN</fnm>
                </au>
                <au>
                   <snm>Huang</snm>
                   <fnm>CK</fnm>
                </au>
                <au>
                   <snm>Liang</snm>
                   <fnm>SH</fnm>
                </au>
                <au>
                   <snm>Chen</snm>
                   <fnm>WF</fnm>
                </au>
                <au>
                   <snm>Shih</snm>
                   <fnm>YC</fnm>
                </au>
                <au>
                   <snm>Lin</snm>
                   <fnm>HH</fnm>
                </au>
                <au>
                   <snm>Wang</snm>
                   <fnm>JL</fnm>
                </au>
             </aug>
             <source>Antimicrob Agents Chemother</source>
             <pubdate>2012</pubdate>
             <volume>56</volume>
             <fpage>618</fpage>
             <lpage>622</lpage>
             <xrefbib>
                <pubidlist>
                   <pubid idtype="doi">10.1128/AAC.05753-11</pubid>
                   <pubid idtype="pmpid" link="fulltext">22123694</pubid>
                </pubidlist>
             </xrefbib>
          </bibl>
          <bibl id="B11">
             <title>
                <p>Clonal composition and community clustering of drug-susceptible and -resistant Escherichia coli isolates from bloodstream infections</p>
             </title>
             <aug>
                <au>
                   <snm>Adams-Sapper</snm>
                   <fnm>S</fnm>
                </au>
                <au>
                   <snm>Diep</snm>
                   <fnm>BA</fnm>
                </au>
                <au>
                   <snm>Perdreau-Remington</snm>
                   <fnm>F</fnm>
                </au>
                <au>
                   <snm>Riley</snm>
                   <fnm>LW</fnm>
                </au>
             </aug>
             <source>Antimicrob Agents Chemother</source>
             <pubdate>2013</pubdate>
             <volume>57</volume>
             <fpage>490</fpage>
             <lpage>497</lpage>
             <xrefbib>
                <pubidlist>
                   <pubid idtype="doi">10.1128/AAC.01025-12</pubid>
                   <pubid idtype="pmpid" link="fulltext">23147723</pubid>
                </pubidlist>
             </xrefbib>
          </bibl>
          <bibl id="B12">
             <title>
                <p>Escherichia coli bacteraemia: 2&#160;years of prospective regional surveillance (2010-12)</p>
             </title>
             <aug>
                <au>
                   <snm>Horner</snm>
                   <fnm>C</fnm>
                </au>
                <au>
                   <snm>Fawley</snm>
                   <fnm>W</fnm>
                </au>
                <au>
                   <snm>Morris</snm>
                   <fnm>K</fnm>
                </au>
                <au>
                   <snm>Parnell</snm>
                   <fnm>P</fnm>
                </au>
                <au>
                   <snm>Denton</snm>
                   <fnm>M</fnm>
                </au>
                <au>
                   <snm>Wilcox</snm>
                   <fnm>M</fnm>
                </au>
             </aug>
             <source>J Antimicrob Chemother</source>
             <pubdate>2014</pubdate>
             <volume>69</volume>
             <fpage>91</fpage>
             <lpage>100</lpage>
             <xrefbib>
                <pubidlist>
                   <pubid idtype="doi">10.1093/jac/dkt333</pubid>
                   <pubid idtype="pmpid" link="fulltext">24003184</pubid>
                </pubidlist>
             </xrefbib>
          </bibl>
          <bibl id="B13">
             <title>
                <p>Escherichia coli belonging to the worldwide emerging epidemic clonal group O25b/ST131: risk factors and clinical implications</p>
             </title>
             <aug>
                <au>
                   <snm>L&#243;pez-Cerero</snm>
                   <fnm>L</fnm>
                </au>
                <au>
                   <snm>Navarro</snm>
                   <fnm>MD</fnm>
                </au>
                <au>
                   <snm>Bellido</snm>
                   <fnm>M</fnm>
                </au>
                <au>
                   <snm>Mart&#237;n-Pe&#241;a</snm>
                   <fnm>A</fnm>
                </au>
                <au>
                   <snm>Vi&#241;as</snm>
                   <fnm>L</fnm>
                </au>
                <au>
                   <snm>Cisneros</snm>
                   <fnm>JM</fnm>
                </au>
                <au>
                   <snm>G&#243;mez-Langley</snm>
                   <fnm>SL</fnm>
                </au>
                <au>
                   <snm>S&#225;nchez-Monteseir&#237;n</snm>
                   <fnm>H</fnm>
                </au>
                <au>
                   <snm>Morales</snm>
                   <fnm>I</fnm>
                </au>
                <au>
                   <snm>Pascual</snm>
                   <fnm>A</fnm>
                </au>
                <au>
                   <snm>Rodr&#237;guez-Ba&#241;o</snm>
                   <fnm>J</fnm>
                </au>
             </aug>
             <source>J Antimicrob Chemother</source>
             <pubdate>2014</pubdate>
             <volume>69</volume>
             <fpage>809</fpage>
             <lpage>814</lpage>
             <xrefbib>
                <pubidlist>
                   <pubid idtype="doi">10.1093/jac/dkt405</pubid>
                   <pubid idtype="pmpid" link="fulltext">24123431</pubid>
                </pubidlist>
             </xrefbib>
          </bibl>
          <bibl id="B14">
             <title>
                <p>Virulence of Escherichia coli clinical isolates in a murine sepsis model in relation to sequence type ST131 status, fluoroquinolone resistance, and virulence genotype</p>
             </title>
             <aug>
                <au>
                   <snm>Johnson</snm>
                   <fnm>JR</fnm>
                </au>
                <au>
                   <snm>Porter</snm>
                   <fnm>SB</fnm>
                </au>
                <au>
                   <snm>Zhanel</snm>
                   <fnm>G</fnm>
                </au>
                <au>
                   <snm>Kuskowski</snm>
                   <fnm>MA</fnm>
                </au>
                <au>
                   <snm>Denamur</snm>
                   <fnm>E</fnm>
                </au>
             </aug>
             <source>Infect Immun</source>
             <pubdate>2012</pubdate>
             <volume>80</volume>
             <fpage>1554</fpage>
             <lpage>1562</lpage>
             <xrefbib>
                <pubidlist>
                   <pubid idtype="doi">10.1128/IAI.06388-11</pubid>
                   <pubid idtype="pmpid" link="fulltext">22311928</pubid>
                </pubidlist>
             </xrefbib>
          </bibl>
          <bibl id="B15">
             <title>
                <p>The CTX-M-15-producing Escherichia coli clone O25b: H4&#8211;ST131 has high intestine colonization and urinary tract infection abilities</p>
             </title>
             <aug>
                <au>
                   <snm>Vimont</snm>
                   <fnm>S</fnm>
                </au>
                <au>
                   <snm>Boyd</snm>
                   <fnm>A</fnm>
                </au>
                <au>
                   <snm>Bleibtreu</snm>
                   <fnm>A</fnm>
                </au>
                <au>
                   <snm>Bens</snm>
                   <fnm>M</fnm>
                </au>
                <au>
                   <snm>Goujon</snm>
                   <fnm>JM</fnm>
                </au>
                <au>
                   <snm>Garry</snm>
                   <fnm>L</fnm>
                </au>
                <au>
                   <snm>Clermont</snm>
                   <fnm>O</fnm>
                </au>
                <au>
                   <snm>Denamur</snm>
                   <fnm>E</fnm>
                </au>
                <au>
                   <snm>Arlet</snm>
                   <fnm>G</fnm>
                </au>
                <au>
                   <snm>Vandewalle</snm>
                   <fnm>A</fnm>
                </au>
             </aug>
             <source>PLoS One</source>
             <pubdate>2012</pubdate>
             <volume>7</volume>
             <fpage>e46547</fpage>
             <xrefbib>
                <pubidlist>
                   <pubid idtype="doi">10.1371/journal.pone.0046547</pubid>
                   <pubid idtype="pmpid" link="fulltext">23029548</pubid>
                </pubidlist>
             </xrefbib>
          </bibl>
          <bibl id="B16">
             <title>
                <p>Predictive diagnostics for Escherichia coli infections based on the clonal association of antimicrobial resistance and clinical outcome</p>
             </title>
             <aug>
                <au>
                   <snm>Tchesnokova</snm>
                   <fnm>V</fnm>
                </au>
                <au>
                   <snm>Billig</snm>
                   <fnm>M</fnm>
                </au>
                <au>
                   <snm>Chattopadhyay</snm>
                   <fnm>S</fnm>
                </au>
                <au>
                   <snm>Linardopoulou</snm>
                   <fnm>E</fnm>
                </au>
                <au>
                   <snm>Aprikian</snm>
                   <fnm>P</fnm>
                </au>
                <au>
                   <snm>Roberts</snm>
                   <fnm>PL</fnm>
                </au>
                <au>
                   <snm>Skrivankova</snm>
                   <fnm>V</fnm>
                </au>
                <au>
                   <snm>Johnston</snm>
                   <fnm>B</fnm>
                </au>
                <au>
                   <snm>Gileva</snm>
                   <fnm>A</fnm>
                </au>
                <au>
                   <snm>Igusheva</snm>
                   <fnm>I</fnm>
                </au>
                <au>
                   <snm>Toland</snm>
                   <fnm>A</fnm>
                </au>
                <au>
                   <snm>Riddell</snm>
                   <fnm>K</fnm>
                </au>
                <au>
                   <snm>Rogers</snm>
                   <fnm>P</fnm>
                </au>
                <au>
                   <snm>Qin</snm>
                   <fnm>X</fnm>
                </au>
                <au>
                   <snm>Butler-Wu</snm>
                   <fnm>S</fnm>
                </au>
                <au>
                   <snm>Cookson</snm>
                   <fnm>BT</fnm>
                </au>
                <au>
                   <snm>Fang</snm>
                   <fnm>FC</fnm>
                </au>
                <au>
                   <snm>Kahl</snm>
                   <fnm>B</fnm>
                </au>
                <au>
                   <snm>Price</snm>
                   <fnm>LB</fnm>
                </au>
                <au>
                   <snm>Weissman</snm>
                   <fnm>SJ</fnm>
                </au>
                <au>
                   <snm>Limaye</snm>
                   <fnm>A</fnm>
                </au>
                <au>
                   <snm>Scholes</snm>
                   <fnm>D</fnm>
                </au>
                <au>
                   <snm>Johnson</snm>
                   <fnm>JR</fnm>
                </au>
                <au>
                   <snm>Sokurenko</snm>
                   <fnm>EV</fnm>
                </au>
             </aug>
             <source>J Clin Microbiol</source>
             <pubdate>2013</pubdate>
             <volume>51</volume>
             <fpage>2991</fpage>
             <lpage>2999</lpage>
             <xrefbib>
                <pubidlist>
                   <pubid idtype="doi">10.1128/JCM.00984-13</pubid>
                   <pubid idtype="pmpid" link="fulltext">23843485</pubid>
                </pubidlist>
             </xrefbib>
          </bibl>
          <bibl id="B17">
             <title>
                <p>Epidemiology and antimicrobial susceptibility profiles of Gram-negative bacteria causing urinary tract infections in the Asia-Pacific region: 2009-2010 resultsfrom the Study for Monitoring Antimicrobial Resistance Trends (SMART)</p>
             </title>
             <aug>
                <au>
                   <snm>Lu</snm>
                   <fnm>PL</fnm>
                </au>
                <au>
                   <snm>Liu</snm>
                   <fnm>YC</fnm>
                </au>
                <au>
                   <snm>Toh</snm>
                   <fnm>HS</fnm>
                </au>
                <au>
                   <snm>Lee</snm>
                   <fnm>YL</fnm>
                </au>
                <au>
                   <snm>Liu</snm>
                   <fnm>YM</fnm>
                </au>
                <au>
                   <snm>Ho</snm>
                   <fnm>CM</fnm>
                </au>
                <au>
                   <snm>Huang</snm>
                   <fnm>CC</fnm>
                </au>
                <au>
                   <snm>Liu</snm>
                   <fnm>CE</fnm>
                </au>
                <au>
                   <snm>Ko</snm>
                   <fnm>WC</fnm>
                </au>
                <au>
                   <snm>Wang</snm>
                   <fnm>JH</fnm>
                </au>
                <au>
                   <snm>Tang</snm>
                   <fnm>HJ</fnm>
                </au>
                <au>
                   <snm>Yu</snm>
                   <fnm>KW</fnm>
                </au>
                <au>
                   <snm>Chen</snm>
                   <fnm>YS</fnm>
                </au>
                <au>
                   <snm>Chuang</snm>
                   <fnm>YC</fnm>
                </au>
                <au>
                   <snm>Xu</snm>
                   <fnm>Y</fnm>
                </au>
                <au>
                   <snm>Ni</snm>
                   <fnm>Y</fnm>
                </au>
                <au>
                   <snm>Chen</snm>
                   <fnm>YH</fnm>
                </au>
                <au>
                   <snm>Hsueh</snm>
                   <fnm>PR</fnm>
                </au>
             </aug>
             <source>Int JAntimicrob Agents</source>
             <pubdate>2012</pubdate>
             <volume>40</volume>
             <issue>Suppl</issue>
             <fpage>S37</fpage>
             <lpage>S43</lpage>
             <xrefbib>
                <pubidlist>
                   <pubid idtype="doi">10.1016/S0924-8579(12)70008-0</pubid>
                </pubidlist>
             </xrefbib>
          </bibl>
          <bibl id="B18">
             <title>
                <p>Impact of discordant empirical therapy on outcome of community-acquired bacteremic acute pyelonephritis</p>
             </title>
             <aug>
                <au>
                   <snm>Lee</snm>
                   <fnm>SS</fnm>
                </au>
                <au>
                   <snm>Kim</snm>
                   <fnm>Y</fnm>
                </au>
                <au>
                   <snm>Chung</snm>
                   <fnm>DR</fnm>
                </au>
             </aug>
             <source>J Infect</source>
             <pubdate>2011</pubdate>
             <volume>62</volume>
             <fpage>159</fpage>
             <lpage>164</lpage>
             <xrefbib>
                <pubidlist>
                   <pubid idtype="doi">10.1016/j.jinf.2010.10.009</pubid>
                   <pubid idtype="pmpid" link="fulltext">21055417</pubid>
                </pubidlist>
             </xrefbib>
          </bibl>
          <bibl id="B19">
             <title>
                <p>Emergence of fluoroquinolone resistance in outpatient urinary Escherichia coli isolates</p>
             </title>
             <aug>
                <au>
                   <snm>Johnson</snm>
                   <fnm>L</fnm>
                </au>
                <au>
                   <snm>Sabel</snm>
                   <fnm>A</fnm>
                </au>
                <au>
                   <snm>Burman</snm>
                   <fnm>WJ</fnm>
                </au>
                <au>
                   <snm>Everhart</snm>
                   <fnm>RM</fnm>
                </au>
                <au>
                   <snm>Rome</snm>
                   <fnm>M</fnm>
                </au>
                <au>
                   <snm>MacKenzie</snm>
                   <fnm>TD</fnm>
                </au>
                <au>
                   <snm>Rozwadowski</snm>
                   <fnm>J</fnm>
                </au>
                <au>
                   <snm>Mehler</snm>
                   <fnm>PS</fnm>
                </au>
                <au>
                   <snm>Price</snm>
                   <fnm>CS</fnm>
                </au>
             </aug>
             <source>Am J Med</source>
             <pubdate>2008</pubdate>
             <volume>121</volume>
             <fpage>876</fpage>
             <lpage>884</lpage>
             <xrefbib>
                <pubidlist>
                   <pubid idtype="doi">10.1016/j.amjmed.2008.04.039</pubid>
                   <pubid idtype="pmpid" link="fulltext">18823859</pubid>
                </pubidlist>
             </xrefbib>
          </bibl>
          <bibl id="B20">
             <title>
                <p>Risk factors for fluoroquinolone-resistant Escherichia coli in adults with community-onset febrile urinary tract infection</p>
             </title>
             <aug>
                <au>
                   <snm>van der Starre</snm>
                   <fnm>WE</fnm>
                </au>
                <au>
                   <snm>van Nieuwkoop</snm>
                   <fnm>C</fnm>
                </au>
                <au>
                   <snm>Paltansing</snm>
                   <fnm>S</fnm>
                </au>
                <au>
                   <snm>van't Wout</snm>
                   <fnm>JW</fnm>
                </au>
                <au>
                   <snm>Groeneveld</snm>
                   <fnm>GH</fnm>
                </au>
                <au>
                   <snm>Becker</snm>
                   <fnm>MJ</fnm>
                </au>
                <au>
                   <snm>Koster</snm>
                   <fnm>T</fnm>
                </au>
                <au>
                   <snm>Wattel-Louis</snm>
                   <fnm>GH</fnm>
                </au>
                <au>
                   <snm>Delfos</snm>
                   <fnm>NM</fnm>
                </au>
                <au>
                   <snm>Ablij</snm>
                   <fnm>HC</fnm>
                </au>
                <au>
                   <snm>Leyten</snm>
                   <fnm>EM</fnm>
                </au>
                <au>
                   <snm>Blom</snm>
                   <fnm>JW</fnm>
                </au>
                <au>
                   <snm>van Dissel</snm>
                   <fnm>JT</fnm>
                </au>
             </aug>
             <source>J Antimicrob Chemother</source>
             <pubdate>2011</pubdate>
             <volume>6</volume>
             <fpage>6650</fpage>
             <lpage>6656</lpage>
          </bibl>
       </refgrp>
    </bm>
 </art>
