<art>
    <ui>s12941-014-0038-0</ui>
    <ji>1476-0711</ji>
    <fm>
       <dochead>Research</dochead>
       <bibl>
          <title>
             <p>Distribution of bla <sup>OXA-23</sup>, IS<sub>
                   <it>Aba</it>
                </sub>
                <it>, Aminoglycosides</it> resistant genes among burned &amp; ICU patients in Tehran and Sari, Iran</p>
          </title>
          <aug>
             <au id="A1">
                <snm>Nasrolahei</snm>
                <fnm>Mohtaram</fnm>
                <insr iid="I1"/>
                <email>mnasrolahei@yahoo.com</email>
             </au>
             <au id="A2">
                <snm>Zahedi</snm>
                <fnm>Bahador</fnm>
                <insr iid="I1"/>
                <email>zahedi.bahador@gmail.com</email>
             </au>
             <au id="A3">
                <snm>Bahador</snm>
                <fnm>Abbas</fnm>
                <insr iid="I2"/>
                <email>ab.bahador@gmail.com</email>
             </au>
             <au id="A4">
                <snm>Saghi</snm>
                <fnm>Hossein</fnm>
                <insr iid="I3"/>
                <email>saghi1443@gmail.com</email>
             </au>
             <au id="A5">
                <snm>Kholdi</snm>
                <fnm>Soudeh</fnm>
                <insr iid="I1"/>
                <email>soudehkholdi@yahoo.com</email>
             </au>
             <au id="A6">
                <snm>Jalalvand</snm>
                <fnm>Neda</fnm>
                <insr iid="I4"/>
                <email>nedajalalvand@gmail.com</email>
             </au>
             <au id="A7" ca="yes">
                <snm>Esmaeili</snm>
                <fnm>Davoud</fnm>
                <insr iid="I3"/>
                <email>esm114@gmail.com</email>
             </au>
          </aug>
          <insg>
             <ins id="I1">
                <p>Department of Microbiology, Faculty of Medicine, Mazandaran University of Medical Sciences, Sari, Iran</p>
             </ins>
             <ins id="I2">
                <p>Departments of Microbiology, Faculty of Medicine, Tehran University of Medical Sciences, Tehran, Iran</p>
             </ins>
             <ins id="I3">
                <p>Applied Microbiology Research center and Microbiology Department, Baqiyatallah University Medical of Sciences, Tehran, Iran</p>
             </ins>
             <ins id="I4">
                <p>Department of Genetic&#8218; Science and Research Branch, Islamic Azad University, Tabriz, East Azerbaijan, Iran</p>
             </ins>
          </insg>
          <source>Annals of Clinical Microbiology and Antimicrobials</source>
          <issn>1476-0711</issn>
          <pubdate>2014</pubdate>
          <volume>13</volume>
          <issue>1</issue>
          <fpage>38</fpage>
          <url>http://www.ann-clinmicrob.com/content/13/1/38</url>
          <xrefbib>
             <pubidlist>
                <pubid idtype="doi">10.1186/s12941-014-0038-0</pubid>
                <pubid idtype="pmpid"><!-- Need to check source for data--></pubid>
             </pubidlist>
          </xrefbib>
       </bibl>
       <history>
          <rec>
             <date>
                <day>21</day>
                <month>1</month>
                <year>2014</year>
             </date>
          </rec>
          <acc>
             <date>
                <day>16</day>
                <month>7</month>
                <year>2014</year>
             </date>
          </acc>
          <pub>
             <date>
                <day>25</day>
                <month>9</month>
                <year>2014</year>
             </date>
          </pub>
       </history>
       <cpyrt>
          <year>2014</year>
          <collab>Nasrolahei et al.; licensee BioMed Central Ltd.</collab>
          <note>This is an Open Access article distributed under the terms of the Creative Commons Attribution License (<url>http://creativecommons.org/licenses/by/2.0</url>), which permits unrestricted use, distribution, and reproduction in any medium, provided the original work is properly credited. The Creative Commons Public Domain Dedication waiver (<url>http://creativecommons.org/publicdomain/zero/1.0/</url>) applies to the data made available in this article, unless otherwise stated.</note>
       </cpyrt>
       <kwdg>
          <kwd>Acinetobacter baumannii&#8218; bla OXA-23 &#8218; ISAba</kwd>
          <kwd>Carbapenemase</kwd>
          <kwd>Aminoglycoside</kwd>
       </kwdg>
       <abs>
          <sec>
             <st>
                <p>Abstract</p>
             </st>
             <sec>
                <st>
                   <p>Background</p>
                </st>
                <p>Multidrug resistant strains of <it>Acinetobacter baumannii</it> (MDR-AB) have emerged as alarming nosocomial pathogens among patients admitted to Intensive Care Unit and burned patients. The aim of this study was to determine the susceptibility of <it>A. baumannii</it> isolates, the carbapenems resistance patterns bla <sup>OXA-23</sup> and also IS<sub>
                      <it>Aba</it>
                   </sub> elements of <it>A. baumannii</it> isolates among burned and ICU patients in Tehran and Sari, Iran.</p>
             </sec>
             <sec>
                <st>
                   <p>Methods</p>
                </st>
                <p>In this study, 100 <it>A. baumannii</it> isolates from burned and ICU patients in Tehran and Sari (Iran) during 2013 were tested for determination of antimicrobials susceptibility by the disc-diffusion method on Mueller Hinton agar recommended by the guidelines of Clinical and Laboratory Standards Institute (CLSI), and frequency bla<sup>OXA-23</sup> carbapenemase genes, and insertion elements IS<sub>
                      <it>Aba</it>
                   </sub> genes were studied by PCR method.</p>
             </sec>
             <sec>
                <st>
                   <p>Results</p>
                </st>
                <p>The highest rates of susceptibility were observed with Colistin (88.7%), Tigecycline (82.2%), Imipenem (67%) and IS<sub>Aba</sub> (32.2%). The extensively drug-resistance and pan drug-resistance were observed in 37.1% and 8.1% isolates, respectively.</p>
                <p>Results indicated among isolates resistant to Aminoglycoside and Carbapenem, the highest resistance was observed to Streptomycin (90%) &#8218; and the most sensitivity was to Imipenem (67%).</p>
             </sec>
             <sec>
                <st>
                   <p>Conclusions</p>
                </st>
                <p>This is the most study that attempted to detect <it>Acinetobacter baumanii</it> the insertion elements IS<sub>
                      <it>Aba</it>
                   </sub>, bla <sup>OXA-23</sup> and aminoglycosides resistance in MDR-AB isolates from burned and ICU patients in Iran. In a timely manner, antimicrobial resistance surveillance and strict infection control strategies are still lacking in burn ward and ICU in Iran, despite the alarming emergence of MDR-AB strains, particularly among those isolates that are not susceptible to Colistin. The results of this study are consistent with a recent report in which a number of combinations exhibited potent activity against Multidrug resistant strains of <it>A. baumannii</it> (MDR-AB).</p>
             </sec>
          </sec>
       </abs>
    </fm>
    <bdy>
       <sec>
          <st>
             <p>1
 						Background</p>
          </st>
          <p>Multidrug drug-resistant (MDR) and extensively drug-resistance (XDR) strains of <it>Acinetobacter baumannii</it> have emerged as formidable nosocomial pathogens among burned patient <abbrgrp>
                <abbr bid="B1">1</abbr>
             </abbrgrp>,<abbrgrp>
                <abbr bid="B2">2</abbr>
             </abbrgrp>.</p>
          <p>In developing countries, such as Iran, clinicians face serious challenges in management of burned patients with MDR- <it>A. baumannii</it> (MDR-AB) infections, which present significant health care challenges by prolonging hospitalization, treatment failures, and increased mortality <abbrgrp>
                <abbr bid="B3">3</abbr>
             </abbrgrp>.</p>
          <p>Members of the genus <it>Acinetobacter</it> have been implicated in a wide spectrum of infectious diseases such as Respiratory Infection, Bacteremia, Meningitis and Urinary Tract Infection <abbrgrp>
                <abbr bid="B4">4</abbr>
             </abbrgrp>. <it>Acinetobacter spp</it> infections in admitted intensive care unit (ICU) patients hospitals very dangerous and acquired resistance of <it>A. baumannii</it> to carbapenems has increasingly been reported all over the world during the last decade <abbrgrp>
                <abbr bid="B5">5</abbr>
             </abbrgrp>.</p>
          <p>The clinical strains of <it>A. baumannii</it> are usually multidrug resistant to aminoglycosides, fluoroquinolones, ureidopenicillins and third generation cephalosporins. Carbapenems were considered to be the mostactive antimicrobials against <it>A. baumannii</it>. However, Carbapenem resistance is rising and is often associated with a multidrug resistance phenotype <abbrgrp>
                <abbr bid="B6">6</abbr>
             </abbrgrp>,<abbrgrp>
                <abbr bid="B7">7</abbr>
             </abbrgrp>.</p>
          <p>Carbapenems are currently the drug of choice; however, clonal outbreaks of carbapenems resistant <it>A. baumannii</it> (CR-AB) have led to an inadequacy of therapeutic choices in treating MDR-AB infections among patients in developing countries <abbrgrp>
                <abbr bid="B8">8</abbr>
             </abbrgrp>. While expression of <it>bla</it>
             <sup>OXA</sup> genes play a major role in carbapenem resistance among CR-AB <abbrgrp>
                <abbr bid="B9">9</abbr>
             </abbrgrp>), <it>bla</it>
             <sup>OXA</sup> mediated carbapenem resistance requires enhancement of gene expression either by insertion element IS<sub>
                <it>Aba</it>
             </sub>
             <abbrgrp>
                <abbr bid="B10">10</abbr>
             </abbrgrp>-<abbrgrp>
                <abbr bid="B12">12</abbr>
             </abbrgrp>.</p>
          <p>Despite a few reports on the distribution and/or frequency of resistance genes among CR-AB isolate from burned patients in Iran <abbrgrp>
                <abbr bid="B13">13</abbr>
             </abbrgrp>,<abbrgrp>
                <abbr bid="B14">14</abbr>
             </abbrgrp>, the scarcity of molecular epidemiologic data has rendered national efforts to control the spread of CR-AB infections unsuccessful. To date, no extensive studies have addressed the distribution of bla <sup>oxa-23</sup>, IS<sub>
                <it>Aba</it>
             </sub> and distribution in MDR-AB strains that cause infection in burned and ICU patients in Iran.</p>
          <p>We in this research surveyed susceptibility of <it>A. baumannii</it> isolates, the carbapenems and Aminoglycosides resistance patterns, and its association with IS<sub>
                <it>Aba</it>
             </sub> elements of <it>A. baumannii</it> isolates among burned and ICU patients in Tehran and Sari, Iran. We obtain consent from the patient for the publication of this report.</p>
       </sec>
       <sec>
          <st>
             <p>2
 						Methods</p>
          </st>
          <sec>
             <st>
                <p>2.1 Bacterial isolates</p>
             </st>
             <p>During 2013, a total of 100 non-repetitive clinical isolates of <it>A. baumannii</it> were collected from the burned patients of a tertiary burn and ICU center in Tehran and Sari, Iran as described previously <abbrgrp>
                   <abbr bid="B1">1</abbr>
                </abbrgrp>. All of the patients have given his/her consent for the report to be published. All study-related materials before and during the trial were operated in accordance with national and/or local regulations, as well as with ICH good clinical practices (GCPs) guidelines.</p>
          </sec>
          <sec>
             <st>
                <p>2.2 Identification of <it>Acinetobacter</it> species</p>
             </st>
             <p>Initially, isolates were identified as <it>A. baumannii</it> using API-20NE system <abbrgrp>
                   <abbr bid="B15">15</abbr>
                </abbrgrp>,<abbrgrp>
                   <abbr bid="B16">16</abbr>
                </abbrgrp>. All the clinical Isolates were kept at -20&#176;C in CRYOBANK&#8482; (Copan Diagnostics Inc., Canada) until further testing.</p>
          </sec>
          <sec>
             <st>
                <p>2.3 Bacterial identification</p>
             </st>
             <p>During a One year period, 100 specimens <it>A. baumannii</it> (MDR) were isolated from patients that were admitted to Intensive Care Unit and burned patients with proved nosocomial infections in Tehran and Sari&#8218; (Iran). The strains were isolated from the trachea and burned skin. We considered a strain as MDR if it was resistant to two or more antibiotic classes. Patients had no bacterial infections at the time of admitted to hospital. All the samples were confirmed as <it>A. baumanni</it> by biochemical Tests.</p>
          </sec>
          <sec>
             <st>
                <p>2.4 Antimicrobial susceptibility tests</p>
             </st>
             <p>Susceptibility to various antimicrobial agents was determined by the disc-diffusion method on Mueller Hinton agar recommended by the guidelines of Clinical and Laboratory Standards Institute (CLSI). Briefly, 0.1&#160;ml of a suspension of the test microorganism (1.5&#8201;&#215;&#8201;10 <sup>8</sup>&#8201;cfu /ml) was spread on Mueller-Hinton Agar (diameter, 90&#160;mm) (Merck), by the disc diffusion method for the following antimicrobial agents (Mast/Rosco) with concentrations: Streptomycin (10&#160;&#956;g), Tobramycin (10&#160;&#956;g), Gentamicin (10&#160;&#956;g) Kanamycin (10&#160;&#956;g), Imipenem (10&#160;&#956;g) and Meropenem (10&#160;&#956;g) were then placed on the agar plate and incubated at 37&#176;C for 24&#160;h. The diameters of the zones of inhibition were measured and reported in mm.</p>
             <p>Isolates of <it>A. baumannii</it> were defined as multidrug-resistant (MDR) when the organism was resistant to at least one agent in three or more antimicrobial categories that would otherwise serve as treatments for <it>Acinetobacter</it> infection.</p>
             <p>An isolate was considered extensively drug-resistance (XDR) when it was non-susceptible to one or more of agent in all but 2 or less the categories. Pan drug resistant (PDR) was defined as non-susceptibility to all antimicrobial agents <abbrgrp>
                   <abbr bid="B17">17</abbr>
                </abbrgrp>.</p>
          </sec>
          <sec>
             <st>
                <p>2.5 DNA extraction, synthetic primers and PCR Assay</p>
             </st>
             <p>DNA extraction was carried out by commercial DNA extraction kit (CinnaGen, Iran).The presence of bla <sup>OXA-23</sup>Carbapenemases gene was detected by PCR. PCR was performed in a standard enzyme Taq DNA polymerase. Single primer pair was used to amplify <it>bla</it>
                <sup>
                   <it>OXA-23</it>
                </sup> gene target fragment based on GenBank. The primers sequences as follows: Primer F: CCGTCGTTTACGACATTCA and bla<sup>OXA-23</sup> R: AAAGAGCGCATTGCTTTGAT. For PCR reaction we used CinnaGen Master Mix and reactions were performed in a final volume of 25 &#956;According to Primer (10&#160;&#956;mol, DNA template (50&#160;ng). PCR was performed in a standard enzyme PCR system (Cinnagen) concentration reaction, Master Mix (1x) each, primer, template DNA 50&#160;ng. The mixtures were incubated for 4&#160;min at 94<sup>oc</sup> for primary denaturation, 60&#160;sec at 94<sup>oc</sup> for secondary denaturation of the target DNA and then, annealing at 50<sup>oc</sup> for 1&#160;min, and extension at 72<sup>oc</sup> for 1&#160;min that 35&#160;cycle was performed. The amplified products were analyzed by electrophoresis on 1% agarose gel (cinnagen) containing 0.1&#160;g of ethidium bromide per ml in TAE buffer. The PCR product was visualized under UV light and photographed.</p>
             <p>To determine the frequency of IS<sub>
                   <it>Aba</it>
                </sub> elements sets of primers (IS<sub>
                   <it>Aba</it>
                </sub>1F/OXA-23R and IS<sub>
                   <it>Aba</it>4</sub>F/OXA-23R) was used, respectively. PCR primers were designed using Primer 3 plus software (version 4.0; <url>http://primer3.wi.mit.edu/</url>; accessed 05.06.11) with sequences IS<sub>
                   <it>Aba</it>
                </sub> 1&#160;F: TGAGATGTGTCATAGTATTC, IS<sub>
                   <it>Aba</it>
                </sub> /OXA<sup>23</sup> R: AGAGCATTACCATATAGATT. PCR assays were performed under standard conditions.</p>
          </sec>
       </sec>
       <sec>
          <st>
             <p>3
 						Results</p>
          </st>
          <p>In total, 100 <it>Acinetobacter baumannii</it> isolates were isolated from patients that were admitted to Intensive Care Unit and burned patients in Tehran and Sari&#8218; (Iran). During 2013, we observed that, 62% isolates showed resistance to aminoglycosides and carbapenems. Based on the susceptibility of the isolated <it>Acinetobacter baumannii</it> to number of antibiotics, was observed minimum resistance against Imipenem (67%) and Meropenem (74%) and maximum resistance against Streptomycin (90%), Gentamicin (83%), Tobramycin (83%) and kanamycin (80%).The results of PCR screening from 61 <it>Acinetobacter baumannii</it> resistant to aminoglycosides and carbapenems, 41(67%) isolates have bla <sup>OXA-23</sup> carbapenemase gene and IS<sub>
                <it>Aba</it>
             </sub> (32.2%).</p>
       </sec>
       <sec>
          <st>
             <p>4
 						Discussion</p>
          </st>
          <p>Nosocomial infections caused by multidrug resistant strains of <it>Acinetobacter baumannii</it> (MDR-AB) are currently among the most difficult to treat, and they continue to present serious challenges to clinicians&#8217; empirical and therapeutic decisions in burned patient <abbrgrp>
                <abbr bid="B1">1</abbr>
             </abbrgrp>. Outbreaks of extensively, and pan drug-resistant <it>A. baumannii</it> (XDR, and PDR, respectively) currently has been reported from worldwide. In this study, the high prevalence of XDR and PDR <it>A. baumannii</it> isolates (37.1% and 8.1%, respectively) from burned patient is consistent with previous reports.</p>
          <p>The present study revealed that 17.8% vs 41.8% and 11.3% vs 0%of <it>A. baumannii</it> isolates from burned patients are resistant to Tigecycline and Colistin, respectively, by comparison with the other studies in Iran <abbrgrp>
                <abbr bid="B1">1</abbr>
             </abbrgrp>,<abbrgrp>
                <abbr bid="B18">18</abbr>
             </abbrgrp>.</p>
          <p>
             <it>Acinetobacter baumannii</it> is one of the most important nosocomial pathogens, able to cause severe infections, occurring principally in immunosuppressed patients, in patients with serious underlying diseases, or subjected to invasive procedures and treatment with broad-spectrum antibiotics. <it>A. baumannii</it> isolates resistant to various classes of antibiotics are emerging worldwide, and the recent resistance or reduced susceptibility to carbapenems, is considered aserious clinical problem due to the role of first choice therapy that these drugs have had until now <abbrgrp>
                <abbr bid="B19">19</abbr>
             </abbrgrp>. <it>A. baumannii</it> isolates resistant to various classes of antibiotics are emerging worldwide, and the recent resistance or reduced susceptibility to carbapenems, is considered as serious clinical problem due to the role of first choice therapy that these drugs have had until now.Demonstrated that <it>A. baumannii</it> was the third pathogen for severity in high-risk wards, frequently derived from nosocomial pneumonia or bacteremia <abbrgrp>
                <abbr bid="B10">10</abbr>
             </abbrgrp>.</p>
          <p>In a timely manner, antimicrobial resistance surveillance and strict infection control strategies are still lacking in burn ward in Iran, despite the alarming emergence of MDR-AB strains, particularly among those isolates that are not susceptible to Colistin. The emergence of Colistin-resistant <it>A. baumannii</it> in this study might be due to differences in <it>A. baumannii</it> strains available for study or increasing empirical use of Colistin. However, it is still unknown whether this obvious resistance to Colistin in <it>A. baumannii</it> isolates from burned patients in Iran was due to increase of <it>A. baumannii</it> virulence or other intervening factor. Interestingly, all Colistin resistant isolates were susceptible to Tigecycline and/or Tobramycin. This is very important for treating serious infections caused by Colistin resistance isolates. However, this combination still needs to be validated in animal model and clinical trials. The results of this study are consistent with a recent report in which a number of combinations exhibited potent activity against multidrug resistant strains of <it>A. baumannii</it> (MDR-AB) <abbrgrp>
                <abbr bid="B20">20</abbr>
             </abbrgrp>.</p>
          <p>Although the presence of IS<sub>
                <it>Aba</it>
             </sub> to play a substantial role in antimicrobial resistance in MDR-AB isolates, according to the best of our knowledge there is no data on the presence of IS<sub>
                <it>Aba</it>
             </sub> in MDR-AB strains isolated from burn patients in Iran. However, further investigation is required to recover various IS<sub>
                <it>Aba</it>
             </sub> in MDR-AB strains isolated from Iran.</p>
          <p>This research showed that, it was notified that, the <it>Acinetobacter baumannii</it> resistant to aminoglycoside and Carbapenem in Tehran and Sari are rising dangerously. We have documented those almost more than half strains are resistant to carbapenems and aminoglycosides. Also we observed that resistance to aminoglycosides was higher than carbapenems.Carbapenem-resistance in these strains is due to the presence of bla <sup>OXA-23</sup> gene and we show that this gene, carried in 67%.</p>
          <p>In conclusion, our data support that Tigecycline alone or plus Tobramycin exhibited a potent activity against Colistin-resistant <it>A. baumannii</it> isolates from burned patients. <it>Acinetobacter baumannii</it> strains isolated from Iranian burned patients are so heterogeneous and this is the first report of spreading of IS<sub>
                <it>Aba</it>
             </sub> in the upstream of <it>bla</it>
             <sup>OXA</sup> genes in MDR-AB isolates among burned patients in Iran. We also show that MDR-AB integrons were present among burned patients in Iran at almost the same time as they were described worldwide.</p>
          <p>
             <it>Acinetobacter baumannii</it> strains isolated from Iranian burned patients are so heterogeneous and this is the first report of spreading of IS<sub>
                <it>Aba</it>
             </sub> in the upstream of <it>bla</it>
             <sup>OXA</sup> genes in MDR-AB isolates belonging to burned patients in Iran. Antimicrobial resistance surveillance and strict infection control strategies are still lacking in burn ward and ICU in Iran, despite the alarming emergence of MDR-AB strains, particularly among those isolates that are not susceptible to Colistin. The results of this study are consistent with a recent report in which a number of combinations exhibited potent activity against multidrug resistant strains of <it>A. baumannii</it> (MDR-AB).</p>
       </sec>
       <sec>
          <st>
             <p>Competing interests</p>
          </st>
          <p>The authors declare that they have no competing interests.</p>
       </sec>
       <sec>
          <st>
             <p>Authors&#8217; contributions</p>
          </st>
          <p>This work was carried out in collaboration between all authors. DE designed the Performed studies and wrote the first draft of the manuscript. AB managed and assisted in the data analyses. Other author s designed, advised, evaluated the data, and finalized the manuscript for publication. All authors read and approved the final manuscript.</p>
       </sec>
    </bdy>
    <bm>
       <refgrp>
          
          <bibl id="B1">
             <title>
                <p>Comparison of pathogens and antibiotic resistance of burn patients in the burn ICU or in the common burn ward</p>
             </title>
             <aug>
                <au>
                   <snm>Yali</snm>
                   <fnm>G</fnm>
                </au>
                <au>
                   <snm>Jing</snm>
                   <fnm>C</fnm>
                </au>
                <au>
                   <snm>Chunjiang</snm>
                   <fnm>L</fnm>
                </au>
                <au>
                   <snm>Cheng</snm>
                   <fnm>Z</fnm>
                </au>
                <au>
                   <snm>Xiaoqiang</snm>
                   <fnm>L</fnm>
                </au>
                <au>
                   <snm>Yizhi</snm>
                   <fnm>P</fnm>
                </au>
             </aug>
             <source>Burns</source>
             <pubdate>2013</pubdate>
             <volume>&#4447;</volume>
             <fpage>&#4447;</fpage>
          </bibl>
          <bibl id="B2">
             <title>
                <p>Common pathogens in burn wound and changes in their drug sensitivity</p>
             </title>
             <aug>
                <au>
                   <snm>Rezaei</snm>
                   <fnm>E</fnm>
                </au>
                <au>
                   <snm>Safari</snm>
                   <fnm>H</fnm>
                </au>
                <au>
                   <snm>Naderinasab</snm>
                   <fnm>M</fnm>
                </au>
                <au>
                   <snm>Aliakbarian</snm>
                   <fnm>H</fnm>
                </au>
             </aug>
             <source>Burns</source>
             <pubdate>2011</pubdate>
             <volume>37</volume>
             <fpage>805</fpage>
             <lpage>807</lpage>
             <xrefbib>
                <pubidlist>
                   <pubid idtype="doi">10.1016/j.burns.2011.01.019</pubid>
                   <pubid idtype="pmpid" link="fulltext">21388742</pubid>
                </pubidlist>
             </xrefbib>
          </bibl>
          <bibl id="B3">
             <title>
                <p>Global spread of carbapenem-resistant <it>Acinetobacter baumannii</it>
                </p>
             </title>
             <aug>
                <au>
                   <snm>Higgins</snm>
                   <fnm>PG</fnm>
                </au>
                <au>
                   <snm>Dammhayn</snm>
                   <fnm>C</fnm>
                </au>
                <au>
                   <snm>Hackel</snm>
                   <fnm>M</fnm>
                </au>
                <au>
                   <snm>Seifert</snm>
                   <fnm>H</fnm>
                </au>
             </aug>
             <source>J Antimicrob Chemother</source>
             <pubdate>2010</pubdate>
             <volume>65</volume>
             <fpage>233</fpage>
             <lpage>238</lpage>
             <xrefbib>
                <pubidlist>
                   <pubid idtype="doi">10.1093/jac/dkp428</pubid>
                   <pubid idtype="pmpid" link="fulltext">19996144</pubid>
                </pubidlist>
             </xrefbib>
          </bibl>
          <bibl id="B4">
             <title>
                <p>
                   <it>Acinetobacter baumannii</it> invades epithelial cells and outermembrane protein A mediates interactions with epithelial cells</p>
             </title>
             <aug>
                <au>
                   <snm>Chul Hee</snm>
                   <fnm>Choi1</fnm>
                </au>
                <au>
                   <snm>Jun Sik</snm>
                   <fnm>Lee1</fnm>
                </au>
                <au>
                   <snm>Yoo Chul</snm>
                   <fnm>L</fnm>
                </au>
                <au>
                   <snm>in Park</snm>
                   <fnm>T</fnm>
                </au>
                <au>
                   <snm>Je Chul</snm>
                   <fnm>L</fnm>
                </au>
             </aug>
             <source>BMC Microbiol</source>
             <pubdate>2008</pubdate>
             <volume>8</volume>
             <fpage>216</fpage>
             <xrefbib>
                <pubidlist>
                   <pubid idtype="doi">10.1186/1471-2180-8-216</pubid>
                </pubidlist>
             </xrefbib>
          </bibl>
          <bibl id="B5">
             <title>
                <p>Clinical impact and pathogenicity of Acinetobacter</p>
             </title>
             <aug>
                <au>
                   <snm>Joly-Guillou</snm>
                   <fnm>M-L</fnm>
                </au>
             </aug>
             <source>Clin Microbial Infect</source>
             <pubdate>2005</pubdate>
             <volume>11</volume>
             <fpage>868</fpage>
             <lpage>873</lpage>
             <xrefbib>
                <pubidlist>
                   <pubid idtype="doi">10.1111/j.1469-0691.2005.01227.x</pubid>
                </pubidlist>
             </xrefbib>
          </bibl>
          <bibl id="B6">
             <title>
                <p>
                   <it>Acinetobacter baumannii:</it> epidemiology, antimicrobial resistance, and treatment options</p>
             </title>
             <aug>
                <au>
                   <snm>Maragakis</snm>
                   <fnm>LL</fnm>
                </au>
                <au>
                   <snm>Perl</snm>
                   <fnm>TM</fnm>
                </au>
             </aug>
             <source>Clin Infect Dis</source>
             <pubdate>2007</pubdate>
             <volume>46</volume>
             <fpage>1254</fpage>
             <lpage>1263</lpage>
             <xrefbib>
                <pubidlist>
                   <pubid idtype="doi">10.1086/529198</pubid>
                </pubidlist>
             </xrefbib>
          </bibl>
          <bibl id="B7">
             <aug>
                <au>
                   <snm>Barbara</snm>
                   <fnm>Z</fnm>
                </au>
                <au>
                   <snm>Ilaria</snm>
                   <fnm>V</fnm>
                </au>
             </aug>
             <source>Inhibitors of multidrug resistant efflux systems in bacteria</source>
             <publisher>Bentham Science Publishers Ltd, &#4447;</publisher>
             <pubdate>2009</pubdate>
          </bibl>
          <bibl id="B8">
             <title>
                <p>New treatment options for infections caused by multiresistant strains of <it>Pseudomonas aeruginosa</it> and other non fermenting gram-negative bacilli</p>
             </title>
             <aug>
                <au>
                   <snm>S&#225;nchez</snm>
                   <fnm>A</fnm>
                </au>
                <au>
                   <snm>Gattarello</snm>
                   <fnm>S</fnm>
                </au>
                <au>
                   <snm>Rello</snm>
                   <fnm>J</fnm>
                </au>
             </aug>
             <source>Semin Respir Crit Care Med</source>
             <pubdate>2011</pubdate>
             <volume>32</volume>
             <fpage>151</fpage>
             <lpage>158</lpage>
             <xrefbib>
                <pubidlist>
                   <pubid idtype="doi">10.1055/s-0031-1275527</pubid>
                   <pubid idtype="pmpid" link="fulltext">21506051</pubid>
                </pubidlist>
             </xrefbib>
          </bibl>
          <bibl id="B9">
             <title>
                <p>High prevalence of carbapenem&#8208;hydrolysing oxacillinases in epidemiologically related and unrelated <it>Acinetobacter baumannii</it> clinical isolates in Spain</p>
             </title>
             <aug>
                <au>
                   <snm>Ruiz</snm>
                   <fnm>M</fnm>
                </au>
                <au>
                   <snm>Marti</snm>
                   <fnm>S</fnm>
                </au>
                <au>
                   <snm>Fernandez&#8208;Cuenca</snm>
                   <fnm>F</fnm>
                </au>
                <au>
                   <snm>Pascual</snm>
                   <fnm>A</fnm>
                </au>
                <au>
                   <snm>Vila</snm>
                   <fnm>J</fnm>
                </au>
             </aug>
             <source>Clin Microbiol Infect</source>
             <pubdate>2007</pubdate>
             <volume>13</volume>
             <fpage>1192</fpage>
             <lpage>1198</lpage>
             <xrefbib>
                <pubidlist>
                   <pubid idtype="doi">10.1111/j.1469-0691.2007.01825.x</pubid>
                   <pubid idtype="pmpid" link="fulltext">17850347</pubid>
                </pubidlist>
             </xrefbib>
          </bibl>
          <bibl id="B10">
             <title>
                <p>Carbapenem-resistant <it>Acinetobacter baumannii</it> isolates expressing the bla<sup>OXA-23</sup> gene associated with IS<sub>Aba4</sub> in Belgium</p>
             </title>
             <aug>
                <au>
                   <snm>Bogaerts</snm>
                   <fnm>P</fnm>
                </au>
                <au>
                   <snm>Cuzon</snm>
                   <fnm>G</fnm>
                </au>
                <au>
                   <snm>Naas</snm>
                   <fnm>T</fnm>
                </au>
                <au>
                   <snm>Bauraing</snm>
                   <fnm>C</fnm>
                </au>
                <au>
                   <snm>Deplano</snm>
                   <fnm>A</fnm>
                </au>
                <au>
                   <snm>Lissoir</snm>
                   <fnm>B</fnm>
                </au>
                <au>
                   <snm>Nordmann</snm>
                   <fnm>P</fnm>
                </au>
                <au>
                   <snm>Glupczynski</snm>
                   <fnm>Y</fnm>
                </au>
             </aug>
             <source>Antimicrob Agents Chemother</source>
             <pubdate>2008</pubdate>
             <volume>52</volume>
             <fpage>4205</fpage>
             <lpage>4206</lpage>
             <xrefbib>
                <pubidlist>
                   <pubid idtype="doi">10.1128/AAC.01121-08</pubid>
                   <pubid idtype="pmpid" link="fulltext">18765689</pubid>
                </pubidlist>
             </xrefbib>
          </bibl>
          <bibl id="B11">
             <title>
                <p>Wide spread of Tn2006 in an AbaR4-type resistance island among carbapenem-resistant <it>Acinetobacter baumannii</it> clinical isolates in Taiwan</p>
             </title>
             <aug>
                <au>
                   <snm>Lee</snm>
                   <fnm>H-Y</fnm>
                </au>
                <au>
                   <snm>Chang</snm>
                   <fnm>R-C</fnm>
                </au>
                <au>
                   <snm>Su</snm>
                   <fnm>L-H</fnm>
                </au>
                <au>
                   <snm>Liu</snm>
                   <fnm>S-Y</fnm>
                </au>
                <au>
                   <snm>Wu</snm>
                   <fnm>S-R</fnm>
                </au>
                <au>
                   <snm>Chuang</snm>
                   <fnm>C-H</fnm>
                </au>
                <au>
                   <snm>Chen</snm>
                   <fnm>CL</fnm>
                </au>
                <au>
                   <snm>Chiu</snm>
                   <fnm>CH</fnm>
                </au>
             </aug>
             <source>Int J Antimicrob Agents</source>
             <pubdate>2012</pubdate>
             <volume>40</volume>
             <fpage>163</fpage>
             <lpage>167</lpage>
             <xrefbib>
                <pubidlist>
                   <pubid idtype="doi">10.1016/j.ijantimicag.2012.04.018</pubid>
                   <pubid idtype="pmpid" link="fulltext">22743015</pubid>
                </pubidlist>
             </xrefbib>
          </bibl>
          <bibl id="B12">
             <title>
                <p>The role of ISAba1 in expression of OXA carbapenemase genes in <it>Acinetobacter baumannii</it>
                </p>
             </title>
             <aug>
                <au>
                   <snm>Turton</snm>
                   <fnm>JF</fnm>
                </au>
                <au>
                   <snm>Ward</snm>
                   <fnm>ME</fnm>
                </au>
                <au>
                   <snm>Woodford</snm>
                   <fnm>N</fnm>
                </au>
                <au>
                   <snm>Kaufmann</snm>
                   <fnm>ME</fnm>
                </au>
                <au>
                   <snm>Pike</snm>
                   <fnm>R</fnm>
                </au>
                <au>
                   <snm>Livermore</snm>
                   <fnm>DM</fnm>
                </au>
                <au>
                   <snm>Pitt</snm>
                   <fnm>TL</fnm>
                </au>
             </aug>
             <source>FEMS Microbiol Lett</source>
             <pubdate>2006</pubdate>
             <volume>258</volume>
             <fpage>72</fpage>
             <lpage>77</lpage>
             <xrefbib>
                <pubidlist>
                   <pubid idtype="doi">10.1111/j.1574-6968.2006.00195.x</pubid>
                   <pubid idtype="pmpid" link="fulltext">16630258</pubid>
                </pubidlist>
             </xrefbib>
          </bibl>
          <bibl id="B13">
             <title>
                <p>Study of the carbapenem resistance mechanisms in clinical isolates of <it>Acinetobacter baumannii</it>: Comparison of burn and non-burn strains</p>
             </title>
             <aug>
                <au>
                   <snm>Pajand</snm>
                   <fnm>O</fnm>
                </au>
                <au>
                   <snm>Rezaee</snm>
                   <fnm>MA</fnm>
                </au>
                <au>
                   <snm>Nahaei</snm>
                   <fnm>MR</fnm>
                </au>
                <au>
                   <snm>Mahdian</snm>
                   <fnm>R</fnm>
                </au>
                <au>
                   <snm>Aghazadeh</snm>
                   <fnm>M</fnm>
                </au>
                <au>
                   <snm>Soroush</snm>
                   <fnm>MH</fnm>
                </au>
             </aug>
             <source>Burns</source>
             <pubdate>2013</pubdate>
             <volume>39</volume>
             <fpage>1414</fpage>
             <lpage>1419</lpage>
             <xrefbib>
                <pubidlist>
                   <pubid idtype="doi">10.1016/j.burns.2013.03.024</pubid>
                   <pubid idtype="pmpid" link="fulltext">23726475</pubid>
                </pubidlist>
             </xrefbib>
          </bibl>
          <bibl id="B14">
             <title>
                <p>Antimicrobial resistance patterns and their encoding genes among <it>Acinetobacter baumannii</it> strains isolated from burned patients</p>
             </title>
             <aug>
                <au>
                   <snm>Asadollahi</snm>
                   <fnm>P</fnm>
                </au>
                <au>
                   <snm>Akbari</snm>
                   <fnm>M</fnm>
                </au>
                <au>
                   <snm>Soroush</snm>
                   <fnm>S</fnm>
                </au>
                <au>
                   <snm>Taherikalani</snm>
                   <fnm>M</fnm>
                </au>
                <au>
                   <snm>Asadollahi</snm>
                   <fnm>K</fnm>
                </au>
                <au>
                   <snm>Sayehmiri</snm>
                   <fnm>K</fnm>
                </au>
             </aug>
             <source>Burns</source>
             <pubdate>2012</pubdate>
             <volume>38</volume>
             <fpage>1198</fpage>
             <lpage>1203</lpage>
             <xrefbib>
                <pubidlist>
                   <pubid idtype="doi">10.1016/j.burns.2012.04.008</pubid>
                   <pubid idtype="pmpid" link="fulltext">22579564</pubid>
                </pubidlist>
             </xrefbib>
          </bibl>
          <bibl id="B15">
             <title>
                <p>gyrB multiplex PCR to differentiate between <it>Acinetobacter calcoaceticus</it> and <it>Acinetobacter</it> genomic species 3</p>
             </title>
             <aug>
                <au>
                   <snm>Higgins</snm>
                   <fnm>PG</fnm>
                </au>
                <au>
                   <snm>Lehmann</snm>
                   <fnm>M</fnm>
                </au>
                <au>
                   <snm>Wisplinghoff</snm>
                   <fnm>H</fnm>
                </au>
                <au>
                   <snm>Seifert</snm>
                   <fnm>H</fnm>
                </au>
             </aug>
             <source>J Clin Microbiol</source>
             <pubdate>2010</pubdate>
             <volume>48</volume>
             <fpage>4592</fpage>
             <lpage>4594</lpage>
             <xrefbib>
                <pubidlist>
                   <pubid idtype="doi">10.1128/JCM.01765-10</pubid>
                   <pubid idtype="pmpid" link="fulltext">20881170</pubid>
                </pubidlist>
             </xrefbib>
          </bibl>
          <bibl id="B16">
             <title>
                <p>
                   <it>Acinetobacter pittii</it> and <it>Acinetobacter nosocomialis</it> among clinical isolates of the <it>Acinetobacter calcoaceticus-baumannii</it> complex in Sichuan, China</p>
             </title>
             <aug>
                <au>
                   <snm>Wang</snm>
                   <fnm>X</fnm>
                </au>
                <au>
                   <snm>Chen</snm>
                   <fnm>T</fnm>
                </au>
                <au>
                   <snm>Yu</snm>
                   <fnm>R</fnm>
                </au>
                <au>
                   <snm>L&#252;</snm>
                   <fnm>X</fnm>
                </au>
                <au>
                   <snm>Zong</snm>
                   <fnm>Z</fnm>
                </au>
             </aug>
             <source>Diagn Microbiol Infect Dis</source>
             <pubdate>2013</pubdate>
             <volume>76</volume>
             <fpage>392</fpage>
             <lpage>395</lpage>
             <xrefbib>
                <pubidlist>
                   <pubid idtype="doi">10.1016/j.diagmicrobio.2013.03.020</pubid>
                   <pubid idtype="pmpid" link="fulltext">23639796</pubid>
                </pubidlist>
             </xrefbib>
          </bibl>
          <bibl id="B17">
             <title>
                <p>Multidrug-resistant, extensively drug-resistant and pandrug-resistant bacteria: an international expert proposal for interim standard definitions for acquired resistance</p>
             </title>
             <aug>
                <au>
                   <snm>Magiorakos</snm>
                   <fnm>AP</fnm>
                </au>
                <au>
                   <snm>Srinivasan</snm>
                   <fnm>A</fnm>
                </au>
                <au>
                   <snm>Carey</snm>
                   <fnm>RB</fnm>
                </au>
                <au>
                   <snm>Carmeli</snm>
                   <fnm>Y</fnm>
                </au>
                <au>
                   <snm>Falagas</snm>
                   <fnm>ME</fnm>
                </au>
                <au>
                   <snm>Giske</snm>
                   <fnm>CG</fnm>
                </au>
                <au>
                   <snm>Harbarth</snm>
                   <fnm>S</fnm>
                </au>
                <au>
                   <snm>Hindler</snm>
                   <fnm>JF</fnm>
                </au>
                <au>
                   <snm>Kahlmeter</snm>
                   <fnm>G</fnm>
                </au>
                <au>
                   <snm>Olsson-Liljequist</snm>
                   <fnm>B</fnm>
                </au>
                <au>
                   <snm>Paterson</snm>
                   <fnm>DL</fnm>
                </au>
                <au>
                   <snm>Rice</snm>
                   <fnm>LB</fnm>
                </au>
                <au>
                   <snm>Stelling</snm>
                   <fnm>J</fnm>
                </au>
                <au>
                   <snm>Struelens</snm>
                   <fnm>MJ</fnm>
                </au>
                <au>
                   <snm>Vatopoulos</snm>
                   <fnm>A</fnm>
                </au>
             </aug>
             <source>Clin Microbiol Infec</source>
             <pubdate>2012</pubdate>
             <volume>18</volume>
             <fpage>268</fpage>
             <lpage>281</lpage>
             <xrefbib>
                <pubidlist>
                   <pubid idtype="doi">10.1111/j.1469-0691.2011.03570.x</pubid>
                </pubidlist>
             </xrefbib>
          </bibl>
          <bibl id="B18">
             <title>
                <p>Antimicrobial susceptibility patterns and distribution of <it>bla</it>
                   <sup>OXA</sup> genes among <it>Acinetobacter</it> spp. Isolated from patients at Tehran hospitals</p>
             </title>
             <aug>
                <au>
                   <snm>Feizabadi</snm>
                   <fnm>MM</fnm>
                </au>
                <au>
                   <snm>Fathollahzadeh</snm>
                   <fnm>B</fnm>
                </au>
                <au>
                   <snm>Taherikalani</snm>
                   <fnm>M</fnm>
                </au>
                <au>
                   <snm>Rasoolinejad</snm>
                   <fnm>M</fnm>
                </au>
                <au>
                   <snm>Sadeghifard</snm>
                   <fnm>N</fnm>
                </au>
                <au>
                   <snm>Aligholi</snm>
                   <fnm>M</fnm>
                </au>
             </aug>
             <source>Jpn J Infect Dis</source>
             <pubdate>2008</pubdate>
             <volume>61</volume>
             <fpage>274</fpage>
             <lpage>278</lpage>
             <xrefbib>
                <pubidlist>
                   <pubid idtype="pmpid" link="fulltext">18653968</pubid>
                </pubidlist>
             </xrefbib>
          </bibl>
          <bibl id="B19">
             <title>
                <p>Treatment of <it>Acinetobacter</it> infections</p>
             </title>
             <aug>
                <au>
                   <snm>Joel</snm>
                   <fnm>F</fnm>
                </au>
                <au>
                   <snm>Peleg</snm>
                   <fnm>AY</fnm>
                </au>
             </aug>
             <source>Clin Infect Dis</source>
             <pubdate>2010</pubdate>
             <volume>51</volume>
             <issue>1</issue>
             <fpage>79</fpage>
             <lpage>84</lpage>
             <xrefbib>
                <pubidlist>
                   <pubid idtype="doi">10.1086/653120</pubid>
                </pubidlist>
             </xrefbib>
          </bibl>
          <bibl id="B20">
             <title>
                <p>Colistin resistance in <it>Acinetobacter baumannii</it> is mediated by complete loss of lipopolysaccharide production</p>
             </title>
             <aug>
                <au>
                   <snm>Moffatt</snm>
                   <fnm>JH</fnm>
                </au>
                <au>
                   <snm>Harper</snm>
                   <fnm>M</fnm>
                </au>
                <au>
                   <snm>Harrison</snm>
                   <fnm>P</fnm>
                </au>
                <au>
                   <snm>Hale</snm>
                   <fnm>JD</fnm>
                </au>
                <au>
                   <snm>Vinogradov</snm>
                   <fnm>E</fnm>
                </au>
                <au>
                   <snm>Seemann</snm>
                   <fnm>T</fnm>
                </au>
                <au>
                   <snm>Henry</snm>
                   <fnm>R</fnm>
                </au>
                <au>
                   <snm>Crane</snm>
                   <fnm>B</fnm>
                </au>
                <au>
                   <snm>St Michael</snm>
                   <fnm>F</fnm>
                </au>
                <au>
                   <snm>Cox</snm>
                   <fnm>AD</fnm>
                </au>
                <au>
                   <snm>Adler</snm>
                   <fnm>B</fnm>
                </au>
                <au>
                   <snm>Nation</snm>
                   <fnm>RL</fnm>
                </au>
                <au>
                   <snm>Li</snm>
                   <fnm>J</fnm>
                </au>
                <au>
                   <snm>Boyce</snm>
                   <fnm>JD</fnm>
                </au>
             </aug>
             <source>Antimicrob Agents Chemother</source>
             <pubdate>2010</pubdate>
             <volume>54</volume>
             <fpage>4971</fpage>
             <lpage>4977</lpage>
             <xrefbib>
                <pubidlist>
                   <pubid idtype="doi">10.1128/AAC.00834-10</pubid>
                   <pubid idtype="pmpid" link="fulltext">20855724</pubid>
                </pubidlist>
             </xrefbib>
          </bibl>
       </refgrp>
    </bm>
 </art>
