<art>
    <ui>s12974-014-0165-8</ui>
    <ji>1742-2094</ji>
    <fm>
       <dochead>Research</dochead>
       <bibl>
          <title>
             <p>&#945;<sub>1</sub>-antitrypsin modulates microglial-mediated neuroinflammation and protects microglial cells from amyloid-&#946;-induced toxicity</p>
          </title>
          <aug>
             <au id="A1">
                <snm>Gold</snm>
                <fnm>Maike</fnm>
                <insr iid="I1"/>
                <email>goldm@staff.uni-marburg.de</email>
             </au>
             <au id="A2">
                <snm>Dolga</snm>
                <mi>M</mi>
                <fnm>Amalia</fnm>
                <insr iid="I2"/>
                <email>dolga@staff.uni-marburg.de</email>
             </au>
             <au id="A3">
                <snm>Koepke</snm>
                <fnm>Janine</fnm>
                <insr iid="I3"/>
                <email>koepke@staff.uni-marburg.de</email>
             </au>
             <au id="A4">
                <snm>Mengel</snm>
                <fnm>David</fnm>
                <insr iid="I1"/>
                <email>dmengel@med.uni-marburg.de</email>
             </au>
             <au id="A5">
                <snm>Culmsee</snm>
                <fnm>Carsten</fnm>
                <insr iid="I2"/>
                <email>culmsee@uni-marburg.de</email>
             </au>
             <au id="A6">
                <snm>Dodel</snm>
                <fnm>Richard</fnm>
                <insr iid="I1"/>
                <email>dodel@med.uni-marburg.de</email>
             </au>
             <au id="A7">
                <snm>Koczulla</snm>
                <mnm>Rembert</mnm>
                <fnm>Andreas</fnm>
                <insr iid="I3"/>
                <email>koczulla@med.uni-marburg.de</email>
             </au>
             <au id="A8" ca="yes">
                <snm>Bach</snm>
                <fnm>Jan-Philipp</fnm>
                <insr iid="I1"/>
                <email>bachjan@staff.uni-marburg.de</email>
             </au>
          </aug>
          <insg>
             <ins id="I1">
                <p>Department of Neurology, University of Marburg, Baldingerstr, Marburg, 35043, Germany</p>
             </ins>
             <ins id="I2">
                <p>Department of Pharmacology und Clinical Pharmacy, University of Marburg, Karl-v.-Frisch-Str. 1, Marburg, 35043, Germany</p>
             </ins>
             <ins id="I3">
                <p>Department of Medicine, Pulmonary and Critical Care Medicine, University of Marburg, Baldingerstr, Marburg, 35043, Germany</p>
             </ins>
          </insg>
          <source>Journal of Neuroinflammation</source>
          <issn>1742-2094</issn>
          <pubdate>2014</pubdate>
          <volume>11</volume>
          <issue>1</issue>
          <fpage>165</fpage>
          <url>http://www.jneuroinflammation.com/content/11/1/165</url>
          <xrefbib>
             <pubidlist>
                <pubid idtype="doi">10.1186/s12974-014-0165-8</pubid>
                <pubid idtype="pmpid"><!-- Need to check source for data--></pubid>
             </pubidlist>
          </xrefbib>
       </bibl>
       <history>
          <rec>
             <date>
                <day>12</day>
                <month>6</month>
                <year>2014</year>
             </date>
          </rec>
          <acc>
             <date>
                <day>4</day>
                <month>9</month>
                <year>2014</year>
             </date>
          </acc>
          <pub>
             <date>
                <day>23</day>
                <month>9</month>
                <year>2014</year>
             </date>
          </pub>
       </history>
       <cpyrt>
          <year>2014</year>
          <collab>Gold et al.; licensee BioMed Central Ltd.</collab>
          <note>This is an Open Access article distributed under the terms of the Creative Commons Attribution License (<url>http://creativecommons.org/licenses/by/4.0</url>), which permits unrestricted use, distribution, and reproduction in any medium, provided the original work is properly credited. The Creative Commons Public Domain Dedication waiver (<url>http://creativecommons.org/publicdomain/zero/1.0/</url>) applies to the data made available in this article, unless otherwise stated.</note>
       </cpyrt>
       <kwdg>
          <kwd>Calpain</kwd>
          <kwd>Alpha-1 antitrypsin</kwd>
          <kwd>Cytokine</kwd>
          <kwd>Amyloid-&#946;</kwd>
          <kwd>Lipopolysaccharide (LPS)</kwd>
          <kwd>Alzheimer disease</kwd>
       </kwdg>
       <abs>
          <sec>
             <st>
                <p>Abstract</p>
             </st>
             <sec>
                <st>
                   <p>Background</p>
                </st>
                <p>One hallmark of Alzheimer disease is microglial activation. Therapeutic approaches for this neurodegenerative disease include the modulation of microglial cells. &#945;<sub>1</sub>-antitrypsin (A1AT) has been shown to exert anti-inflammatory effects on macrophages and lung epithelial cells and an inhibition of calpain activity in neutrophil granulocytes. Nothing is known about the effect of A1AT on microglial-mediated neuroinflammation. Our aim was to investigate the effect of A1AT on amyloid-&#946; (A&#946;)- and LPS-treated microglial cells <it>in vitro</it> with respect to cytokine production, stress pathways, cell viability, phagocytotic abilities and the underlying mechanisms.</p>
             </sec>
             <sec>
                <st>
                   <p>Methods</p>
                </st>
                <p>Primary microglial cells were isolated from Swiss Webster mouse embryos on embryonic day 13.5. Cytokines in the supernatants of treated primary microglial cells were analyzed with ELISAs, and accumulated nitrite was detected with Griess reagents. Intracellular stress pathways were investigated in cell lysates using western blotting. Intracellular calcium levels were detected in BV-2 microglial cells loaded with the Ca<sup>2+</sup>-sensitive (fluorescent) dye Fluo-4. Calpain activity in primary microglial cells was assessed by using a calpain activity assay. Cell viability of A&#946;-treated microglial cells was analyzed using MTT assay. Phagocytosis of A&#946; was evaluated with western blot analysis.</p>
             </sec>
             <sec>
                <st>
                   <p>Results</p>
                </st>
                <p>Upon co-administration, A1AT reduced pro-inflammatory mediators induced by LPS or A&#946;. Interestingly, we detected a reduction in calpain activity and in the concentration of intracellular calcium that might mediate the anti-inflammatory effects of A1AT. Inhibition of the classic activation pathways, such as phosphorylation of mitogen-activated protein kinases or activation of protein kinase A were excluded as a mechanism of A1AT-mediated effects. In addition, A1AT increased the viability of A&#946;-treated microglial cells and reduced A&#946; phagocytosis.</p>
             </sec>
             <sec>
                <st>
                   <p>Conclusions</p>
                </st>
                <p>We provide evidence on the mechanism of action of A1AT on microglial-mediated neuroinflammation <it>in vitro</it>. Our <it>in vitro</it> data indicate that A1AT treatment modulates microglial cells in inflammatory conditions and that this modulation is due to an inhibition of calpain activity and intracellular calcium levels. The underlying mechanisms of the effects observed here are promising for future therapeutic strategies and should thus be further pursued in transgenic mouse models of Alzheimer disease.</p>
             </sec>
          </sec>
       </abs>
    </fm>
    <bdy>
       <sec>
          <st>
             <p>1
 						Background</p>
          </st>
          <p>Alzheimer disease (AD) is the most common neurodegenerative disease leading to the loss of cholinergic neurons and their associated neuronal connections in the human brain. Pathological hallmarks are the extracellular formation of amyloid-&#946; (A&#946;) plaques and the intracellular formation of neurofibrillary tangles, composed of hyperphosphorylated tau-protein <abbrgrp>
                <abbr bid="B1">1</abbr>
             </abbrgrp>. Besides its toxicity to neurons, A&#946; activates microglial cells via different receptors expressed on the cell surface, such as toll-like receptors (TLR) <abbrgrp>
                <abbr bid="B2">2</abbr>
             </abbrgrp>. Intracellular receptor signalling involves the classical mitogen-activated protein kinase (MAPK) pathways resulting in the nuclear translocation of nuclear factor &#954;B (NF&#954;B) <abbrgrp>
                <abbr bid="B3">3</abbr>
             </abbrgrp> but also activation of cAMP/protein kinase A (PKA)/phosphorylated cAMP response element binding protein (CREB) <abbrgrp>
                <abbr bid="B4">4</abbr>
             </abbrgrp>. Upon activation, microglial cells express and secrete pro-inflammatory factors, thereby generating an even more neurotoxic milieu <abbrgrp>
                <abbr bid="B5">5</abbr>
             </abbrgrp>. The concentration of intracellular calcium also seems to play a role in the control of pro-inflammatory mediator release <abbrgrp>
                <abbr bid="B6">6</abbr>
             </abbrgrp>, and modulation of intracellular calcium levels can reduce the secretion of pro-inflammatory factors <abbrgrp>
                <abbr bid="B7">7</abbr>
             </abbrgrp>. On the other hand, microglial cells also show neuroprotective effects through the uptake and degradation of toxic A&#946; oligomers <abbrgrp>
                <abbr bid="B8">8</abbr>
             </abbrgrp>.</p>
          <p>One therapeutic approach for AD is to modify neuroinflammation towards an activation state that is characterized by reduced production of pro-inflammatory mediators and increased A&#946; clearance <abbrgrp>
                <abbr bid="B9">9</abbr>
             </abbrgrp>,<abbrgrp>
                <abbr bid="B10">10</abbr>
             </abbrgrp>. Recently, a new anti-inflammatory role for &#945;<sub>1</sub>-antitrypsin (A1AT) has been described for activated monocytes as well as for lung endothelial cells <abbrgrp>
                <abbr bid="B11">11</abbr>
             </abbrgrp>,<abbrgrp>
                <abbr bid="B12">12</abbr>
             </abbrgrp>. The serine protease inhibitory activity mediated by A1AT protein is well acknowledged for its essential role in the degradation of neutrophil elastase in the lung <abbrgrp>
                <abbr bid="B13">13</abbr>
             </abbrgrp>. A1AT proteins are also known for their inflammatory properties as acute phase proteins being produced in large amounts under inflammatory conditions <abbrgrp>
                <abbr bid="B14">14</abbr>
             </abbrgrp>. Patients suffering from inborn A1AT deficiency are predisposed to lung diseases and to liver cirrhosis, mainly attributed to an accumulation of misfolded A1AT proteins <abbrgrp>
                <abbr bid="B15">15</abbr>
             </abbrgrp>. As a therapy for inborn A1AT deficiency, substitution with pooled human A1AT is available. A1AT has also been shown to reduce calpain activity in neutrophil granulocytes <abbrgrp>
                <abbr bid="B16">16</abbr>
             </abbrgrp>. Calpain, a key enzyme in the progress of neurodegenerative pathology, is activated by elevated intracellular calcium levels and it is strongly associated with endoplasmic reticulum stress and apoptosis <abbrgrp>
                <abbr bid="B17">17</abbr>
             </abbrgrp>. In postmortem brains of AD patients, overactivation of calpain can be detected <abbrgrp>
                <abbr bid="B18">18</abbr>
             </abbrgrp>. Recently, it was demonstrated that calpain activity is also involved in the activation of immune cells in a colitis mouse model <abbrgrp>
                <abbr bid="B19">19</abbr>
             </abbrgrp>.</p>
          <p>In the present study, therefore, the effect of A1AT on microglial-mediated neuroinflammation and A&#946; toxicity was investigated in murine primary microglial cells and the rodent microglial cell line BV-2.</p>
       </sec>
       <sec>
          <st>
             <p>2
 						Methods</p>
          </st>
          <p>All chemicals were obtained from Sigma-Aldrich, St. Louis, MO, USA, unless otherwise indicated.</p>
          <sec>
             <st>
                <p>2.1 Reagents and antibodies</p>
             </st>
             <p>
                <it>Prolastin</it> (Grifols, Barcelona, Spain, for more information see <url>http://www.grifols-pi.info/inserts/Prolastin-C.pdf</url>) was used as a source for A1AT. <it>Prolastin</it> (1&#160;g) was solubilized with 40&#160;ml ultrapure water, aliquoted and stored at -80&#176;C until use.</p>
             <p>To obtain A&#946; oligomer-enriched preparations, 1&#160;mg A&#946;<sub>1-42</sub> (Bachem, Bubendorf, Switzerland) was dissolved in 10% ammonia, aliquoted, freeze dried and stored at -80&#176;C. Before use, A&#946;<sub>1-42</sub> aliquots were dissolved in sterile water (1&#160;mg/ml), and then 100&#160;mM Tris and 50&#160;mM NaCl were added to obtain a 58&#160;&#956;M solution. A magnetic stirrer was added and the A&#946; solution was stirred for 48&#160;hours at 1,400&#160;rpm at room temperature.</p>
             <p>Antibodies against the following proteins were used: phosphorylated (phospho)-p38, phospho-p44/42, phospho-JNK (c-Jun N-terminal kinase)/SAPK (stress-activated protein kinase), phospho-CREB (all Cell Signaling, Danvers, MA, USA), A&#946; (clone 6E10, Covance, Princeton, NJ, USA), A1AT, Vinculin, glyceraldehyde 3-phosphate dehydrogenase (GAPDH) (Novus Biologicals, Littleton, CO, USA) and horseradish peroxidase-conjugated secondary antibody goat anti-mouse, goat anti-rabbit (both Cell Signaling, Danvers, MA, USA) and donkey anti-goat (Santa Cruz Biotechnology, Dallas, TX, USA).</p>
          </sec>
          <sec>
             <st>
                <p>2.2 Cells</p>
             </st>
             <p>Primary microglia cells were derived from Swiss Webster mouse embryos on embryonic day 13.5. All experimental protocols were approved by the office of the district president and the Institutional Animal Care and Use Committee of the University of Marburg. The study received institutional review board and experiments were carried out in accordance with EU Directive 1020/63/EU on the protection of animals used for scientific purposes. The procedure has been described in detail by Roettger <it>et al</it>. <abbrgrp>
                   <abbr bid="B20">20</abbr>
                </abbrgrp>. Briefly, mice were sacrificed, embryos were removed and mesencephalons were dissected and collected in Leibovitz L-15 media (PAA Laboratories GmbH, Pasching, Austria). Mesencephalons were homogenized by pipetting 30 times. Then, 5&#160;ml Leibovitz L-15 medium was added and the solution was left for 10&#160;minutes to remove cell debris. Next, 5&#160;ml was removed into a new tube, centrifuged for 5&#160;min at 300&#160;g and the supernatant was then resuspended in Dulbecco&#8217;s modified Eagle&#8217;s medium (DMEM) supplemented with 10% fetal bovine serum (FBS), 1% streptomycin/penicillin and 1%&#160;L-glutamine (all PAA Laboratories GmbH, Pasching, Austria). Cells were seeded on polyethyleneimine-coated plates, cultivated at 37&#176;C in a humidified atmosphere of 5% CO<sub>2</sub>, and after 7&#160;days, 5&#160;ng/ml granulocyte-macrophage colony-stimulating factor (Roche, Basel, Switzerland) was added to increase the yield of microglia. After 15 to 19&#160;days in culture, cells were subplated and used for further experiments. For experiments, cell treatments were performed 24&#160;hours after seeding. More than 95% of cells obtained were microglia as quantified by CD11b FACS analysis.</p>
             <p>BV-2 cells (a kind gift of Jens Neumann, Magdeburg, Germany) were cultivated in DMEM supplemented with 10% FBS, 1% penicillin/streptomycin and 1%&#160;L-glutamine.</p>
          </sec>
          <sec>
             <st>
                <p>2.3 Measurement of TNF-&#945;, IL-6 and IL-1&#946;</p>
             </st>
             <p>Before cell treatment, media was changed to serum-free media. Primary microglial cells were treated with 0.1&#160;&#956;g/ml LPS or 10&#160;&#956;M A&#946;<sub>1-42</sub> and 2 or 4&#160;mg/ml A1AT. After 24&#160;hours, the concentration of the pro-inflammatory cytokines TNF-&#945; and IL-6 was measured in cell culture supernatants using the Duoset Enzyme-linked immunosorbent assay (ELISA) system (R&amp;D, Minneapolis, MN, USA) according to the manufacturer&#8217;s protocol. Supernatants of cells treated with LPS and/or A1AT were also subjected to an IL-1&#946; ELISA (R&amp;D, Minneapolis, MN, USA). The absorbance was measured at 450&#160;nm using a plate reader (ELISA-Reader Infinite&#8482; 200series, Tecan, Crailsheim, Germany).</p>
          </sec>
          <sec>
             <st>
                <p>2.4 Measurement of nitric oxide</p>
             </st>
             <p>Accumulated nitrite, a stable oxidation product of nitric oxide (NO), was measured using Griess reagents <abbrgrp>
                   <abbr bid="B21">21</abbr>
                </abbrgrp>. For this measurement, 50&#160;&#956;l of primary microglial cell supernatants was transferred to a 96-well microtiter plate, and 50&#160;&#956;l of solution 1 (1% sulfanilamide in 5% phosphoric acid) was added. After 10&#160;minutes incubation in the dark, 50&#160;&#956;l of solution 2 (0.1% naphthylethylenediamine dihydrochloride) was added and incubated for 10 more minutes in the dark. The absorbance was measured at 550&#160;nm using a plate reader (ELISA-Reader Infinite&#8482; 200series, Tecan, Crailsheim, Germany).</p>
          </sec>
          <sec>
             <st>
                <p>2.5 Cell lysis and western blot</p>
             </st>
             <p>Media was changed to serum-free media, and primary microglial cells were treated for the indicated times, washed twice with ice-cold phosphate-buffered saline and lysed for 5&#160;minutes with M-Per lysis buffer (Thermo Scientific, Rockford, IL, USA) containing protease inhibitors and phosphatase inhibitors (Roche, Basel, Switzerland). Cells were harvested with a cell scraper and pelleted for 10&#160;minutes at 14,000&#160;rpm. Supernatants were transferred to a new tube, and protein concentration was determined using NanoDrop (Peqlab, Erlangen, Germany). Next, 10&#160;&#956;g of total protein was separated by 4 to 12% sodium dodecyl sulphate-polyacrylamide gel electrophoresis (SDS-PAGE) and transferred onto nitrocellulose membranes. Membranes were blocked for one hour at room temperature and incubated with the appropriate primary antibody solution for phospho-p38 (1:4,000), phospho p44/42 (1:4,000), phospho JNK (1:4,000), phospho CREB (1:500), A1AT (1:2,000), A&#946; (1:2,000), GAPDH (1:5,000) or Vinculin (1:5,000) at 4&#176;C over night. Primary antibody was detected using a species-specific secondary antibody. Membranes were incubated with SuperSignal<sup>TM</sup> West Dura Extended Duration Substrate (Thermo Scientific, Rockford, IL, USA) and exposed to an autoradiographic film (Thermo Scientific, Rockford, IL, USA). Band intensity levels were measured by GS-800&#8482; calibrated densitometer (Bio-Rad, Hercules, CA, USA).</p>
          </sec>
          <sec>
             <st>
                <p>2.6 Intracellular calcium measurements with Fluo-4</p>
             </st>
             <p>To assess intracellular calcium levels 1.5&#8201;&#215;&#8201;10<sup>4</sup> BV-2 cells were seeded in a 96-well black plate, washed with Hank&#8217;s buffered salt solution (HBSS) and loaded with the calcium indicator Fluo-4 (5&#160;&#956;M) for 30&#160;minutes at 37&#176;C. The dye was removed, cells were kept in HBSS and baseline calcium levels for each well were assigned. The fluorescence of each well was determined with an automated FLUOstar Optima reader (BMG Labtechnologies GmbH, Offenburg, Germany) using an excitation wavelength of 485&#160;nm and an emission wavelength of 520&#160;nm.</p>
             <p>To measure the effect of A1AT on intracellular calcium levels, we treated cells with 0.1&#160;&#956;g/ml LPS and/or 2 and 4&#160;mg/ml A1AT and fluorescence was measured every 60&#160;seconds for a time course of 200&#160;minutes.</p>
          </sec>
          <sec>
             <st>
                <p>2.7 Calpain activity assay</p>
             </st>
             <p>To measure the calpain activity of primary microglial cells, cells were seeded in a 24-well plate and media was changed to serum-free media. Cells were treated with 0.5, 2 and 4&#160;mg/ml A1AT for 24&#160;hours and subjected to a calpain activity assay (Abcam, Cambridge, UK). The assay was performed according to the manufacturer&#8217;s protocol.</p>
          </sec>
          <sec>
             <st>
                <p>2.8 Cell viability assessment with MTT reduction assay</p>
             </st>
             <p>Cell viability of A&#946;<sub>1-42</sub> oligomer-treated primary microglial cells and A1AT co-treated cells was measured using a 3-(4,5-dimethylthiazol-2-yl)-2,5-diphenyltetrazolium bromide (MTT) reduction assay. Media was changed to serum-free media, and cells were treated with A&#946;<sub>1-42</sub> oligomers (2&#160;&#956;M) and A1AT (0.5, 2 and 4&#160;mg/ml) for 24&#160;hours. Culture medium was changed to fresh medium containing 0.5&#160;mg/ml MTT and incubated for one hour at 37&#176;C in a humidified atmosphere of 5% CO<sub>2</sub>. Medium was removed and cells were lysed with dimethyl sulfoxide (AppliChem, Darmstadt, Germany). The absorption was measured at 570&#160;nm on a plate reader (ELISA-Reader Infinite&#8482; 200series, Tecan, Crailsheim, Germany). Absorption values were normalized to untreated cells.</p>
          </sec>
          <sec>
             <st>
                <p>2.9 Statistical analysis</p>
             </st>
             <p>All results are presented as the mean&#8201;&#177;&#8201;standard deviation of the mean. Differences between groups were evaluated for statistical significance using one-way analysis of variance (ANOVA) with Bonferroni <it>post-hoc</it> test. Data analysis was aided by XL Toolbox add-in for Excel, version 6.52 (xltoolbox.sourceforge.net).</p>
             <p>For all statistical comparisons, the following definitions were used: (*&#8201;=&#8201;<it>P</it> value&#8201;&#8804;&#8201;0.05, **&#8201;=&#8201;<it>P</it> value&#8201;&#8804;&#8201;0.01, ***&#8201;=&#8201;<it>P</it> value&#8201;&#8804;&#8201;0.001).</p>
          </sec>
       </sec>
       <sec>
          <st>
             <p>3
 						Results</p>
          </st>
          <sec>
             <st>
                <p>3.1 &#945;<sub>1</sub>-antitrypsin has an anti-inflammatory effect on lipopolysaccharide-treated primary microglial cells</p>
             </st>
             <p>Primary microglial cells were treated for 24&#160;hours with 0.1&#160;&#956;g/ml LPS and/or 2 and 4&#160;mg/ml A1AT. Co-treatment with 4&#160;mg/ml A1AT led to a two- to threefold reduction of TNF-&#945; (<it>P</it>&#8201;=&#8201;0.003), IL-6 (<it>P</it>&#8201;=&#8201;0.002), IL-1&#946; (<it>P&#8201;=</it>&#8201;0.04) and NO levels (<it>P&#8201;=</it>&#8201;0.006) in primary microglial cells. The lower dose of 2&#160;mg/ml reduced TNF-&#945; (<it>P&#8201;=</it>&#8201;0.04), IL-6 (<it>P&#8201;=</it>&#8201;0.02) and NO (<it>P&#8201;=</it>&#8201;0.04) levels significantly (Figure&#160;<figr fid="F1">1</figr>A, B&#8201;+&#8201;D), whereas there was no effect on IL-1&#946; (<it>P&#8201;=</it>&#8201;0.16; Figure&#160;<figr fid="F1">1</figr>C). A1AT alone did not show any immunogenicity.</p>
             
                <fig id="F1">
                   <title>
                      <p>Figure 1</p>
                   </title>
                   <caption>
                      <p>&#945;</p>
                   </caption>
                   <text>
                      <p>
                         <b>&#945;</b>
                         <sub>
                            <b>1</b>
                         </sub>
                         <b>-antitrypsin (A1AT) reduces lipopolysaccharide (LPS)-induced release of pro-inflammatory mediators. A</b>-<b>C</b>. Cell culture supernatants of LPS and/or A1AT co-treated cells were subjected to ELISA to detect the levels of pro-inflammatory cytokines. Therefore, primary microglial cells were treated with 0.1&#160;&#956;g/ml LPS and/or 2 and 4&#160;mg/ml A1AT for 24&#160;hours, followed by quantification of TNF-&#945;, IL-6, and IL-1&#946; levels. Values are given in ng/ml. Means and standard deviations of the mean of three independent experiments are shown (*<it>P</it> value&#8201;&#8804;&#8201;0.05, **<it>P</it> value&#8201;&#8804;&#8201;0.01, n.s., not significant). <b>D</b>. Nitric oxide (NO) was measured in the same cell culture supernatants using Griess reagents. Values are given in &#956;M. Means and standard deviations of the mean of three independent experiments are shown (*<it>P</it> value&#8201;&#8804;&#8201;0.05, **<it>P</it> value&#8201;&#8804;&#8201;0.01).</p>
                   </text>
                   <graphic file="s12974-014-0165-8-1"/>
                </fig>
             
          </sec>
          <sec>
             <st>
                <p>3.2 Anti-inflammatory effect is not mediated via MAPK or PKA</p>
             </st>
             <p>It is well established that pro-inflammatory effects in immune cells are mediated via the phosphorylation of MAPK and transactivation of the transcription factor NF-&#954;B. To investigate the correlation of A1AT with these classic inflammatory stress pathways, we analyzed the phosphorylation state of p38, p44/42 and SAPK/JNK upon treatment with 0.1&#160;&#956;g/ml LPS and A1AT after 20&#160;minutes (Figure&#160;<figr fid="F2">2</figr>A). We saw a very slight negative correlation of 4&#160;mg/ml A1AT on LPS-induced phosphorylation of p44/42 (<it>P&#8201;=</it>&#8201;0.04/0.002) and a slight positive correlation in the phosphorylation state of JNK p46 with 2&#160;mg/ml A1AT (<it>P&#8201;=</it>&#8201;0.04); Figure&#160;<figr fid="F2">2</figr>B). However there was no change in the phosphorylation state of p38 with any A1AT co-treatment and no correlation with phospho p44/42 with 2&#160;mg/ml A1AT co-treatment, a concentration that showed reductive effects on pro-inflammatory cytokines.</p>
             
                <fig id="F2">
                   <title>
                      <p>Figure 2</p>
                   </title>
                   <caption>
                      <p>&#945;</p>
                   </caption>
                   <text>
                      <p>
                         <b>&#945;</b>
                         <sub>
                            <b>1</b>
                         </sub>
                         <b>-antitrypsin (A1AT)&#8217;s reduction of pro-inflammatory mediators is independent of MAPK and PKA activation. A</b>. To detect the phosphorylation state of the MAPKs p38, p44/42 and JNK upon co-treatment with A1AT, primary microglial cells were incubated with 0.1&#160;&#956;g/ml lipopolysaccharide (LPS) and 2 and 4&#160;mg/ml A1AT for 20&#160;minutes, and cell lysates of the treated cells were subjected to western blotting. Antibodies against phospho-p38, phospho-p44/42 and phospho-JNK were used. GAPDH served as a loading control. One representative western blot out of three is shown. <b>B</b>. Band intensities of phosphorylated MAPK were measured by a densitometer and normalized with that of GAPDH. LPS-treated cells were set to 1. Means and standard deviations of the mean of three western blots are shown (*<it>P</it> value&#8201;&#8804;&#8201;0.05, **<it>P</it> value&#8201;&#8804;&#8201;0.01) <b>C</b>. To detect the effect of A1AT on the phosphorylation state of CREB, cells were pretreated with the PKA inhibitor H89 for 30&#160;minutes and then treated with 4&#160;mg/ml A1AT for 15&#160;minutes or co-treated with 0.1&#160;&#956;g/ml LPS and 4&#160;mg/ml A1AT for 15&#160;minutes. Cell lysates were subjected to western blotting, and phospho-CREB was detected with a monoclonal antibody. Vinculin was used as a loading control. One representative western blot out of three is shown. <b>D</b>. To measure the impact on the release of the pro-inflammatory cytokine TNF-&#945;, cells were pretreated with different concentrations of H89 and then treated with 0.1&#160;&#956;g/ml LPS and/or 2&#160;mg/ml A1AT for 24&#160;hours. TNF-&#945; levels in cell culture supernatants of primary microglial cells were quantified with ELISA. Results were normalized to LPS-treated cells. Means and standard deviations of the mean of three independent experiments are shown.</p>
                   </text>
                   <graphic file="s12974-014-0165-8-2"/>
                </fig>
             
             <p>It has previously been reported that A1AT exerts its anti-inflammatory effect via activation of PKA <abbrgrp>
                   <abbr bid="B11">11</abbr>
                </abbrgrp>, indicating an effect through the PKA/CREB pathway. Here, we detected increased phospho-CREB levels upon microglia treatment with 4&#160;mg/ml A1AT and investigated whether this effect can be antagonized by different concentrations of the PKA-inhibitor H89 (1 to 30&#160;&#956;M). Indeed, we detected an antagonistic effect of H89 on the phosphorylation state of CREB (Figure&#160;<figr fid="F2">2</figr>C). However, the phosphorylation state of CREB was also increased in LPS and/or A1AT treated cells (Figure&#160;<figr fid="F2">2</figr>C). We further tested the effect of H89 on the anti-inflammatory effect of 2&#160;mg/ml A1AT on LPS-treated cells. As shown in Figure&#160;<figr fid="F2">2</figr>D, the release of the pro-inflammatory cytokine TNF-&#945; after LPS treatment could not be restored by different concentrations of H89 (1 to 10&#160;&#956;M). H89 treatment in the aforementioned concentrations had no effect on cytokine levels (data not shown).</p>
          </sec>
          <sec>
             <st>
                <p>3.3 &#945;<sub>1</sub>-antitrypsin reduces intracellular calcium-levels in BV-2 microglial cells</p>
             </st>
             <p>Calcium plays an important role in the activation of microglial cells, is required for calpain activation and is known to be enhanced in human AD brains <abbrgrp>
                   <abbr bid="B17">17</abbr>
                </abbrgrp>,<abbrgrp>
                   <abbr bid="B18">18</abbr>
                </abbrgrp>. Since we did not observe a strong regulative effect of A1AT on MAPK and the regulation of PKA does not seem to be responsible for the anti-inflammatory effect of A1AT, we investigated the change of intracellular calcium levels upon treatment with 0.1&#160;&#956;g/ml LPS and/or different concentrations of A1AT with the calcium fluorescent marker Fluo-4. For these experiments, we used BV-2 microglial cells because primary microglial cells change their shape dramatically after LPS treatment, which might lead to a misinterpretation of the results as Fluo-4 is a nonratiometric dye. Both concentrations applied here, 4&#160;mg/ml A1AT as well as 2&#160;mg/ml A1AT, reduced the rise of intracellular calcium over time by approximately 25% (LPS&#8201;+&#8201;4&#160;mg/ml: <it>P</it>&#8201;=&#8201;0.0001, LPS&#8201;+&#8201;2&#160;mg/ml: <it>P</it>&#8201;=&#8201;0.0002; Figure&#160;<figr fid="F3">3</figr>A, B). A1AT treatment alone also reduces intracellular calcium levels (4&#160;mg/ml: <it>P</it>&#8201;=&#8201;0.00004, 2&#160;mg/ml: <it>P</it>&#8201;=&#8201;0.02; Figure&#160;<figr fid="F3">3</figr>B).</p>
             
                <fig id="F3">
                   <title>
                      <p>Figure 3</p>
                   </title>
                   <caption>
                      <p>&#945;</p>
                   </caption>
                   <text>
                      <p>
                         <b>&#945;</b>
                         <sub>
                            <b>1</b>
                         </sub>
                         <b>-antitrypsin (A1AT) reduces intracellular calcium levels and calpain activity in microglial cells.</b> To detect intracellular calcium levels, BV-2 microglial cells were loaded with Fluo-4 and baseline calcium levels for each well were measured and subtracted from the values. Cells were treated with 0.1&#160;&#956;g/ml lipopolysaccharide (LPS) and/or 2 and 4&#160;mg/ml A1AT, and the course of intracellular calcium was measured over 200&#160;minutes. RFU (relative fluorescence units) were normalized to time point zero. <b>A</b> shows the course of the values for LPS and LPS&#8201;+&#8201;4&#160;mg/ml A1AT co-treated cells. One representative experiment out of three is shown. <b>B</b> shows the mean values and standard deviations of the mean of the RFU of six wells after 100&#160;minutes for LPS and/or A1AT-treated cells (***<it>P</it> value&#8201;&#8804;&#8201;0.001). <b>C</b>. Calpain activity was detected 24&#160;hours after A1AT treatment with different concentrations of A1AT by using a calpain activity assay. Calpain activity of untreated cells was referred to as 100% activity. Means and standard deviations of the mean of three independent experiments are shown (*<it>P</it> value&#8201;&#8804;&#8201;0.05, **<it>P</it> value&#8201;&#8804;&#8201;0.01).</p>
                   </text>
                   <graphic file="s12974-014-0165-8-3"/>
                </fig>
             
          </sec>
          <sec>
             <st>
                <p>3.4 &#945;<sub>1</sub>-antitrypsin reduces calpain activity in primary microglial cells</p>
             </st>
             <p>Al-Omari and colleagues showed an inhibitory role for A1AT on calpain activity in neutrophil granulocytes <abbrgrp>
                   <abbr bid="B16">16</abbr>
                </abbrgrp>. To investigate the effect of A1AT on calpain activity in primary microglial cells, we treated cells for 24&#160;hours with 0.5, 2 and 4&#160;mg/ml A1AT and subjected them to a calpain activity assay. A1AT reduced calpain activity in a dose-dependent manner (Figure&#160;<figr fid="F3">3</figr>C). By applying the highest concentration A1AT of 4&#160;mg/ml, calpain activity could be reduced by 59% (<it>P</it>&#8201;=&#8201;0.002). Also, 2&#160;mg/ml A1AT reduced calpain activity by 47% (<it>P</it>&#8201;=&#8201;0.002) and 0.5&#160;mg/ml A1AT reduced calpain activity by 34% (<it>P</it>&#8201;=&#8201;0.03). Treatment with bovine serum albumin using the same concentrations had no effect on calpain activity (data not shown).</p>
          </sec>
          <sec>
             <st>
                <p>3.5 &#945;<sub>1</sub>-antitrypsin has an anti-inflammatory effect on A&#946; oligomer-treated primary microglial cells</p>
             </st>
             <p>We were able to show an inhibitory effect of A1AT on cytokines in microglial cells upon LPS treatment. In AD it is assumed that A&#946; oligomers induce the release of pro-inflammatory cytokines in microglial cells <abbrgrp>
                   <abbr bid="B2">2</abbr>
                </abbrgrp>. Here, we addressed the effect of A1AT on A&#946;-induced inflammation in primary microglial cells. Therefore, cells were treated with 10&#160;&#956;M A&#946;<sub>1-42</sub> oligomers and co-treated with 4&#160;mg/ml A1AT. The co-treatment with A1AT led to a significant reduction of TNF-&#945; (<it>P</it>&#8201;=&#8201;0.0008) and IL-6 (<it>P</it>&#8201;=&#8201;0.03) levels (Figure&#160;<figr fid="F4">4</figr>A, B). The baseline concentration of untreated cells was 17&#160;pg/ml for TNF-&#945; and 12&#160;pg/ml for IL-6.</p>
             
                <fig id="F4">
                   <title>
                      <p>Figure 4</p>
                   </title>
                   <caption>
                      <p>&#945;</p>
                   </caption>
                   <text>
                      <p>
                         <b>&#945;</b>
                         <sub>
                            <b>1</b>
                         </sub>
                         <b>-antitrypsin (A1AT) reduces A&#946;-induced release of TNF-&#945;.</b> ELISA measurements were performed to detect the amount of the pro-inflammatory cytokines TNF-&#945; <b>(A)</b> and IL-6 <b>(B)</b> in supernatants of A&#946;<sub>1-42</sub> oligomer and/or A1AT co-treated primary microglial cells 24&#160;hours after treatment. Results were normalized to basal cytokine levels of untreated cells. Experiments were performed at least three times independently. Means and standard deviations of the mean of three independent experiments are shown (*<it>P</it> value &#8804;0.05, ***<it>P</it> value &#8804;0.001, n.s., not significant).</p>
                   </text>
                   <graphic file="s12974-014-0165-8-4"/>
                </fig>
             
          </sec>
          <sec>
             <st>
                <p>3.6 &#945;<sub>1</sub>-antitrypsin treatment reduces A&#946; oligomer-induced cytotoxicity in primary microglial cells</p>
             </st>
             <p>To detect the effect of A1AT on cell viability of A&#946;<sub>1-42</sub> oligomer-treated primary microglial cells, we treated cells with 2&#160;&#956;M A&#946;<sub>1-42</sub> oligomers and different concentrations of A1AT for 24&#160;hours and subjected them to an MTT assay. A&#946;<sub>1-42</sub> oligomers reduced the viability to 48%. Co-treatment with different concentrations of A1AT exerted a positive effect on the cell viability in a dose-dependent manner (Figure&#160;<figr fid="F5">5</figr>A). With the highest concentration of A1AT, 4&#160;mg/ml, cell viability was only reduced to 65% (<it>P&#8201;=</it>&#8201;0.002), and with 2&#160;mg/ml, cell viability was reduced to 60% (<it>P</it>&#8201;=&#8201;0.0008). At 0.5&#160;mg/ml A1AT, the lowest dose, the viability of the A&#946; oligomer-treated cells did not improve (<it>P&#8201;=</it>&#8201;0.28). To exclude unspecific protein effects, we used the same concentrations of bovine serum albumin, which had no effect on the cell viability of A&#946;<sub>1-42</sub>-treated cells (data not shown).</p>
             
                <fig id="F5">
                   <title>
                      <p>Figure 5</p>
                   </title>
                   <caption>
                      <p>&#945;</p>
                   </caption>
                   <text>
                      <p>
                         <b>&#945;</b>
                         <sub>
                            <b>1</b>
                         </sub>
                         <b>-antitrypsin (A1AT) treatment reduces A&#946; oligomer-induced cytotoxicity on primary microglial cells. A</b>. Primary microglial cells were treated with 2&#160;&#956;M A&#946;<sub>1-42</sub> oligomers and/or different concentrations of A1AT for 24&#160;hours. An MTT-assay was performed to detect the cell viability. Viability of untreated cells was referred to as 100% viability. Means and standard deviations of the mean of three independent experiments are shown (**<it>P</it> value&#8201;&#8804;&#8201;0.01, ***<it>P</it> value&#8201;&#8804;&#8201;0.001, n.s., not significant). <b>B</b>. 58&#160;&#956;M A&#946; preparations were oligomerized and the effect of A1AT on the oligomerization process was assessed by western blotting with the monoclonal A&#946; antibody 6E10. One representative western blot out of three is shown. <b>C</b>. Uptake of A&#946;<sub>1-42</sub> oligomers under the influence of different concentrations of A1AT was investigated by western blotting. Cells were treated with 2&#160;&#956;M A&#946; and different concentrations of A1AT (4&#160;mg/ml to 0.1&#160;mg/ml) for three hours. We used the monoclonal antibody 6E10 to detect A&#946; and a polyclonal antibody to detect A1AT in cell lysates. GAPDH was used as loading control. One representative western blot out of three is shown.</p>
                   </text>
                   <graphic file="s12974-014-0165-8-5"/>
                </fig>
             
          </sec>
          <sec>
             <st>
                <p>3.7 &#945;<sub>1</sub>-antitrypsin has no impact on the oligomerization process of A&#946;</p>
             </st>
             <p>It has been previously reported that &#945;1-antichymotrypsin, a multifunctional glycoprotein of the serpin family <abbrgrp>
                   <abbr bid="B22">22</abbr>
                </abbrgrp>, and A1AT show inhibitory effects on the formation of fibrils and associated toxicity using A&#946;<sub>25-35</sub> and physiological concentrations of &#945;1-antichymotrypsin and A1AT <abbrgrp>
                   <abbr bid="B23">23</abbr>
                </abbrgrp>. To investigate the effect of A1AT on the oligomerization process of A&#946;<sub>1-42</sub>, we performed western blot analysis using partly non-reducing conditions and detected A&#946; with the monoclonal antibody 6E10. We further tested two different experimental setups. In the first experimental design we oligomerized A&#946;<sub>1-42</sub> in the presence of 0.2 and 2&#160;mg/ml A1AT. In the second experimental design, we added 0.2 and 2&#160;mg/ml A1AT after the oligomerization process and incubated the solution at 37&#176;C for 24&#160;hours with continuous agitation. Then, 2&#160;&#956;l of each solution was subjected to western blot analysis. No differences in the oligomerization process could be detected in any of the two conditions (Figure&#160;<figr fid="F5">5</figr>B). Thus, the benefit of A1AT proteins on A&#946;<sub>1-42</sub> toxicity is not attributed to an effect of A1AT on the aggregation process of A&#946;<sub>1-42</sub>.</p>
          </sec>
          <sec>
             <st>
                <p>3.8 &#945;<sub>1</sub>-antitrypsin has an inhibitory effect on A&#946; phagocytosis</p>
             </st>
             <p>The influence of A1AT on microglial phagocytosis of A&#946;<sub>1-42</sub> oligomers was assessed by western blot analysis. Therefore, primary microglial cells were treated with 2&#160;&#956;M A&#946;<sub>1-42</sub> oligomers and different concentrations of A1AT (0.1 to 4&#160;mg/ml) for three hours. Cell lysates were subjected to western blot analysis and phagocytosed A&#946; was detected with the monoclonal anti-A&#946; antibody 6E10 (Figure&#160;<figr fid="F5">5</figr>C). Co-treatment with A1AT led to a strong inhibition of A&#946;<sub>1-42</sub> uptake, whereas different concentrations of A&#946;<sub>1-42</sub> had no effect on the uptake of A1AT (data not shown); thus we can exclude a competitive effect.</p>
          </sec>
       </sec>
       <sec>
          <st>
             <p>4
 						Discussion</p>
          </st>
          <p>Compelling evidence suggests that activation of glia and overexpression of glial cytokines are early events in the pathogenesis of AD <abbrgrp>
                <abbr bid="B24">24</abbr>
             </abbrgrp>-<abbrgrp>
                <abbr bid="B26">26</abbr>
             </abbrgrp>. Toxic A&#946; oligomers induce neuroinflammation <abbrgrp>
                <abbr bid="B27">27</abbr>
             </abbrgrp> and also reduce the viability of microglial cells <abbrgrp>
                <abbr bid="B28">28</abbr>
             </abbrgrp>. A1AT has been assigned an anti-inflammatory role in the activation of human monocytes as well as of lung epithelial cells <abbrgrp>
                <abbr bid="B11">11</abbr>
             </abbrgrp>,<abbrgrp>
                <abbr bid="B12">12</abbr>
             </abbrgrp>. We therefore were interested in the effect of A1AT in microglial-mediated neuroinflammation and investigated the effect of A1AT on A&#946; and LPS-induced cytokines, intracellular calcium levels, calpain activity, A&#946; toxicity, A&#946; aggregation and A&#946; phagocytosis in primary microglial or BV-2 microglial cells.</p>
          <p>Indeed, we were able to show a reduction in inflammatory markers upon co-treatment with A1AT in LPS- and A&#946;-treated primary microglial cells. The strong immune reaction obtained with LPS in primary microglial cells could be reduced dramatically with A1AT. In our study, this suppression of immune reaction was shown by the analysis of the secreted amount of TNF-&#945;, IL-6, IL-1&#946; and NO.</p>
          <p>The established, classic signaling pathways via the phosphorylation of the MAPKs p38, p44/42 or JNK were not involved here because A1AT co-treatment had no effect on the phosphorylation state of the aforementioned MAPKs. As A1AT has been shown to raise intracellular cAMP levels via PKA in monocytes <abbrgrp>
                <abbr bid="B11">11</abbr>
             </abbrgrp>, and PKA in turn plays also a role in inflammatory signaling <abbrgrp>
                <abbr bid="B4">4</abbr>
             </abbrgrp>,<abbrgrp>
                <abbr bid="B29">29</abbr>
             </abbrgrp>, we investigated the effect of A1AT on cAMP/PKA/phospho-CREB signaling. Interestingly A1AT enhances the phosphorylation of CREB, which can be antagonized by the PKA inhibitor H89. However, this antagonism is not reflected in the cytokine levels. TNF-&#945;-levels could not be restored with the PKA inhibitor H89. An involvement of the non-canonical cAMP signaling pathway via EPAC has also been excluded with specific inhibitors (data not shown).</p>
          <p>The inhibition of intracellular calcium levels may well be the reason for the reduction in the pro-inflammatory mediators that we observed in our study <abbrgrp>
                <abbr bid="B6">6</abbr>
             </abbrgrp>,<abbrgrp>
                <abbr bid="B7">7</abbr>
             </abbrgrp>. Indeed, by using a fluorescent calcium indicator (Fluo-4), we were able to observe a reduction in intracellular calcium levels of BV-2 microglial cells upon administration of A1AT over time. Reduced levels of intracellular calcium might contribute to the reduction of pro-inflammatory mediators in our study, but further experiments are needed to prove this theory. However, as mentioned before, calpain is activated by calcium <abbrgrp>
                <abbr bid="B17">17</abbr>
             </abbrgrp>, and we also observed an inhibition of calpain activity upon treatment with A1AT. Thus, A1AT could inhibit calpain via a reduction of intracellular calcium levels.</p>
          <p>Additional studies on calpain activity and inflammation demonstrated that I&#954;B, the inhibitor of the transcription factor NF-&#954;B, might be a substrate of calpain <abbrgrp>
                <abbr bid="B19">19</abbr>
             </abbrgrp>. Therefore, high levels of activated calpain disinhibit NF-&#954;B from its translocation to the nucleus and induce gene expression of several pro-inflammatory cytokines, including TNF-&#945; and IL-6. However, further studies are necessary to elucidate whether this molecular mechanism also occurs in microglial cells.</p>
          <p>After having seen impressive anti-inflammatory effects and elucidated the mechanisms of A1AT on microglial-mediated neuroinflammation, we further analyzed the effect of A1AT on the toxicity, oligomerization and phagocytosis of A&#946;. We found a protective, concentration-dependent effect of A1AT on the viability of A&#946;<sub>1-42</sub> oligomer-treated primary microglial cells. Interestingly, the lowest concentration of 0.5&#160;mg/ml A1AT, which is consistent with the serum A1AT concentration of A1AT deficiency patients <abbrgrp>
                <abbr bid="B30">30</abbr>
             </abbrgrp>, had no protective effect. To distinguish between an extracellular or intracellular effect, we checked the oligomerization state upon co-incubation with A1AT and a possible influence of A1AT on the oligomerization state after the oligomerization process, respectively. No change in the oligomerization state could be observed in any of these experimental conditions. This finding is in contrast to the study of Giunta <it>et al</it>., who could show a small effect of A1AT on the fibrillation of A&#946;<sub>25-35</sub> and a protective effect on the toxicity of A&#946;<sub>25-35</sub> in a human red blood cell lysis model <abbrgrp>
                <abbr bid="B23">23</abbr>
             </abbrgrp>. The observed reduction in calpain activity upon A1AT treatment might account for the increased cell survival: enhanced calpain activity is known to induce cell death <abbrgrp>
                <abbr bid="B31">31</abbr>
             </abbrgrp>.</p>
          <p>A key feature of microglial cells is their capability of phagocytosis, which supports brain homoeostasis by degrading cellular debris and also potentially neurotoxic substances. Impaired clearance of toxic A&#946; by microglial cells can be observed in AD and is interpreted as one pathological hallmark of the disease <abbrgrp>
                <abbr bid="B32">32</abbr>
             </abbrgrp>. Here, we could observe a decreased uptake of A&#946; by microglial cells following incubation with A1AT. This result is in line with previous findings, that calpain activation is an important step to induce phagocytosis by monocytes <abbrgrp>
                <abbr bid="B33">33</abbr>
             </abbrgrp>. Blocking calpain activation by A1AT, as shown in this study, should therefore result in a decreased capability of phagocytosis. Of course, this is an undesired effect and further experiments are needed to consider the positive effects of A1AT regarding cytokines and toxicity versus the negative effect on A&#946; phagocytosis. An effect of A1AT on the expression of A&#946; degrading enzymes in this experimental setting is not very likely due to the short incubation time of only three hours.</p>
       </sec>
       <sec>
          <st>
             <p>5
 						Conclusions</p>
          </st>
          <p>This <it>in vitro</it> study of the effect of A1AT on microglial cells shows a protective and anti-inflammatory effect on microglial cells. Besides the positive effect on the viability of A&#946;-treated cells, A1AT also reduces the release of pro-inflammatory mediators. We assume that both effects are mediated via inhibitory effects on intracellular calcium levels and calpain activation, yet the particular effectors upstream of this inhibition still have to be identified and are subject of further studies. The inhibition of A&#946;-induced microglial cytotoxicity as well as the release of pro-inflammatory cytokines by A1AT can be rated as beneficial to slow down neurodegenerative processes in AD. However, we could also observe a decreased ability to take up neurotoxic A&#946; by microglial cells following incubation with A1AT, which may be seen as an unsolicited effect regarding immune-modulatory effects of the substance. Further studies are needed to elucidate the effects of A1AT in neurodegenerative processes - especially in context with neuronal cells. These findings support the importance of the role of A1AT in Alzheimer-associated neuroinflammation and the potential of A1AT to transfer this knowledge for further investigation in transgenic AD animals.</p>
       </sec>
       <sec>
          <st>
             <p>Abbreviations</p>
          </st>
          <p>A1AT: &#945;<sub>1</sub>-antitrypsin</p>
          <p>A&#946;: Amyloid-&#946;</p>
          <p>AD: Alzheimer disease</p>
          <p>CREB: cAMP response element binding protein</p>
          <p>DMEM: Dulbecco&#8217;s modified Eagle&#8217;s medium</p>
          <p>ELISA: Enzyme-linked immunosorbent assay</p>
          <p>FBS: Fetal bovine serum</p>
          <p>GAPDH: Glyceraldehyde 3-phosphate dehydrogenase</p>
          <p>HBSS: Hank&#8217;s buffered salt solution</p>
          <p>IL: Interleukin</p>
          <p>JNK: c-Jun N-terminal kinase</p>
          <p>LPS: Lipopolysaccharide</p>
          <p>MAPK: Mitogen-activated protein kinase</p>
          <p>MTT: 3-(4,5-dimethylthiazol-2-yl)-2,5-diphenyltetrazolium bromide</p>
          <p>NF&#954;B: Nuclear factor &#954;B</p>
          <p>NO: Nitric oxide</p>
          <p>PKA: Protein kinase A</p>
          <p>RFU: Relative fluorescence units</p>
          <p>SAPK: Stress-activated protein kinase</p>
          <p>TLR: Toll-like receptor</p>
          <p>TNF-&#945;: Tumor necrosis factor-&#945;</p>
       </sec>
       <sec>
          <st>
             <p>Competing interests</p>
          </st>
          <p>The authors declare that they have no competing interests.</p>
       </sec>
       <sec>
          <st>
             <p>Authors&#8217; contributions</p>
          </st>
          <p>MG and AMD carried out the laboratory experiments. MG, AMD, JK, DM and JPB analyzed the data, interpreted the results and wrote the manuscript. ARK, CC and RD discussed analyses, interpretation and presentation. The idea of using A1AT in Alzheimer disease was contributed by ARK. All authors have contributed to, seen and approved the final manuscript.</p>
       </sec>
    </bdy>
    <bm>
       <ack>
          <sec>
             <st>
                <p>Acknowledgements</p>
             </st>
             <p>We would like to thank Christine Forbach (Klinik f&#252;r Neurologie, University of Marburg, Germany) for excellent technical assistance.</p>
          </sec>
       </ack>
       <refgrp>
          
          <bibl id="B1">
             <title>
                <p>Alzheimer&#8217;s disease: striatal amyloid deposits and neurofibrillary changes</p>
             </title>
             <aug>
                <au>
                   <snm>Braak</snm>
                   <fnm>H</fnm>
                </au>
                <au>
                   <snm>Braak</snm>
                   <fnm>E</fnm>
                </au>
             </aug>
             <source>J Neuropathol Exp Neurol</source>
             <pubdate>1990</pubdate>
             <volume>49</volume>
             <fpage>215</fpage>
             <lpage>224</lpage>
             <xrefbib>
                <pubidlist>
                   <pubid idtype="doi">10.1097/00005072-199005000-00003</pubid>
                   <pubid idtype="pmpid" link="fulltext">1692337</pubid>
                </pubidlist>
             </xrefbib>
          </bibl>
          <bibl id="B2">
             <title>
                <p>Role of the toll-like receptor 4 in neuroinflammation in Alzheimer's disease</p>
             </title>
             <aug>
                <au>
                   <snm>Walter</snm>
                   <fnm>S</fnm>
                </au>
                <au>
                   <snm>Letiembre</snm>
                   <fnm>M</fnm>
                </au>
                <au>
                   <snm>Liu</snm>
                   <fnm>Y</fnm>
                </au>
                <au>
                   <snm>Heine</snm>
                   <fnm>H</fnm>
                </au>
                <au>
                   <snm>Penke</snm>
                   <fnm>B</fnm>
                </au>
                <au>
                   <snm>Hao</snm>
                   <fnm>W</fnm>
                </au>
                <au>
                   <snm>Bode</snm>
                   <fnm>B</fnm>
                </au>
                <au>
                   <snm>Manietta</snm>
                   <fnm>N</fnm>
                </au>
                <au>
                   <snm>Walter</snm>
                   <fnm>J</fnm>
                </au>
                <au>
                   <snm>Schulz-Schuffer</snm>
                   <fnm>W</fnm>
                </au>
                <au>
                   <snm>Fassbender</snm>
                   <fnm>K</fnm>
                </au>
             </aug>
             <source>Cell Physiol Biochem</source>
             <pubdate>2007</pubdate>
             <volume>20</volume>
             <fpage>947</fpage>
             <lpage>956</lpage>
             <xrefbib>
                <pubidlist>
                   <pubid idtype="doi">10.1159/000110455</pubid>
                   <pubid idtype="pmpid" link="fulltext">17982277</pubid>
                </pubidlist>
             </xrefbib>
          </bibl>
          <bibl id="B3">
             <title>
                <p>Microglia and neurodegeneration: the role of systemic inflammation</p>
             </title>
             <aug>
                <au>
                   <snm>Cunningham</snm>
                   <fnm>C</fnm>
                </au>
             </aug>
             <source>Glia</source>
             <pubdate>2013</pubdate>
             <volume>61</volume>
             <fpage>71</fpage>
             <lpage>90</lpage>
             <xrefbib>
                <pubidlist>
                   <pubid idtype="doi">10.1002/glia.22350</pubid>
                   <pubid idtype="pmpid" link="fulltext">22674585</pubid>
                </pubidlist>
             </xrefbib>
          </bibl>
          <bibl id="B4">
             <title>
                <p>Repression of proinflammatory cytokine and inducible nitric oxide synthase (NOS2) gene expression in activated microglia by N-acetyl-O-methyldopamine: protein kinase A-dependent mechanism</p>
             </title>
             <aug>
                <au>
                   <snm>Cho</snm>
                   <fnm>S</fnm>
                </au>
                <au>
                   <snm>Kim</snm>
                   <fnm>Y</fnm>
                </au>
                <au>
                   <snm>Cruz</snm>
                   <fnm>MO</fnm>
                </au>
                <au>
                   <snm>Park</snm>
                   <fnm>EM</fnm>
                </au>
                <au>
                   <snm>Chu</snm>
                   <fnm>CK</fnm>
                </au>
                <au>
                   <snm>Song</snm>
                   <fnm>GY</fnm>
                </au>
                <au>
                   <snm>Joh</snm>
                   <fnm>TH</fnm>
                </au>
             </aug>
             <source>Glia</source>
             <pubdate>2001</pubdate>
             <volume>33</volume>
             <fpage>324</fpage>
             <lpage>333</lpage>
             <xrefbib>
                <pubidlist>
                   <pubid idtype="doi">10.1002/1098-1136(20010315)33:4&lt;324::AID-GLIA1031&gt;3.0.CO;2-M</pubid>
                   <pubid idtype="pmpid" link="fulltext">11246231</pubid>
                </pubidlist>
             </xrefbib>
          </bibl>
          <bibl id="B5">
             <title>
                <p>Inflammation and Alzheimer's disease</p>
             </title>
             <aug>
                <au>
                   <snm>Akiyama</snm>
                   <fnm>H</fnm>
                </au>
                <au>
                   <snm>Barger</snm>
                   <fnm>S</fnm>
                </au>
                <au>
                   <snm>Barnum</snm>
                   <fnm>S</fnm>
                </au>
                <au>
                   <snm>Bradt</snm>
                   <fnm>B</fnm>
                </au>
                <au>
                   <snm>Bauer</snm>
                   <fnm>J</fnm>
                </au>
                <au>
                   <snm>Cole</snm>
                   <fnm>GM</fnm>
                </au>
                <au>
                   <snm>Cooper</snm>
                   <fnm>NR</fnm>
                </au>
                <au>
                   <snm>Eikelenboom</snm>
                   <fnm>P</fnm>
                </au>
                <au>
                   <snm>Emmerling</snm>
                   <fnm>M</fnm>
                </au>
                <au>
                   <snm>Fiebich</snm>
                   <fnm>BL</fnm>
                </au>
                <au>
                   <snm>Finch</snm>
                   <fnm>CE</fnm>
                </au>
                <au>
                   <snm>Frautschy</snm>
                   <fnm>S</fnm>
                </au>
                <au>
                   <snm>Griffin</snm>
                   <fnm>WS</fnm>
                </au>
                <au>
                   <snm>Hampel</snm>
                   <fnm>H</fnm>
                </au>
                <au>
                   <snm>Hull</snm>
                   <fnm>M</fnm>
                </au>
                <au>
                   <snm>Landreth</snm>
                   <fnm>G</fnm>
                </au>
                <au>
                   <snm>Lue</snm>
                   <fnm>L</fnm>
                </au>
                <au>
                   <snm>Mrak</snm>
                   <fnm>R</fnm>
                </au>
                <au>
                   <snm>Mackenzie</snm>
                   <fnm>IR</fnm>
                </au>
                <au>
                   <snm>McGeer</snm>
                   <fnm>PL</fnm>
                </au>
                <au>
                   <snm>O'Banion</snm>
                   <fnm>MK</fnm>
                </au>
                <au>
                   <snm>Pachter</snm>
                   <fnm>J</fnm>
                </au>
                <au>
                   <snm>Pasinetti</snm>
                   <fnm>G</fnm>
                </au>
                <au>
                   <snm>Plata-Salaman</snm>
                   <fnm>C</fnm>
                </au>
                <au>
                   <snm>Rogers</snm>
                   <fnm>J</fnm>
                </au>
                <au>
                   <snm>Rydel</snm>
                   <fnm>R</fnm>
                </au>
                <au>
                   <snm>Shen</snm>
                   <fnm>Y</fnm>
                </au>
                <au>
                   <snm>Streit</snm>
                   <fnm>W</fnm>
                </au>
                <au>
                   <snm>Strohmeyer</snm>
                   <fnm>R</fnm>
                </au>
                <au>
                   <snm>Tooyoma</snm>
                   <fnm>I</fnm>
                </au>
                <etal/>
             </aug>
             <source>Neurobiol Aging</source>
             <pubdate>2000</pubdate>
             <volume>21</volume>
             <fpage>383</fpage>
             <lpage>421</lpage>
             <xrefbib>
                <pubidlist>
                   <pubid idtype="doi">10.1016/S0197-4580(00)00124-X</pubid>
                   <pubid idtype="pmpid" link="fulltext">10858586</pubid>
                </pubidlist>
             </xrefbib>
          </bibl>
          <bibl id="B6">
             <title>
                <p>Elevation of basal intracellular calcium as a central element in the activation of brain macrophages (microglia): suppression of receptor-evoked calcium signaling and control of release function</p>
             </title>
             <aug>
                <au>
                   <snm>Hoffmann</snm>
                   <fnm>A</fnm>
                </au>
                <au>
                   <snm>Kann</snm>
                   <fnm>O</fnm>
                </au>
                <au>
                   <snm>Ohlemeyer</snm>
                   <fnm>C</fnm>
                </au>
                <au>
                   <snm>Hanisch</snm>
                   <fnm>UK</fnm>
                </au>
                <au>
                   <snm>Kettenmann</snm>
                   <fnm>H</fnm>
                </au>
             </aug>
             <source>J Neurosci</source>
             <pubdate>2003</pubdate>
             <volume>23</volume>
             <fpage>4410</fpage>
             <lpage>4419</lpage>
             <xrefbib>
                <pubidlist>
                   <pubid idtype="pmpid" link="fulltext">12805281</pubid>
                </pubidlist>
             </xrefbib>
          </bibl>
          <bibl id="B7">
             <title>
                <p>Activation of KCNN3/SK3/K(Ca)2.3 channels attenuates enhanced calcium influx and inflammatory cytokine production in activated microglia</p>
             </title>
             <aug>
                <au>
                   <snm>Dolga</snm>
                   <fnm>AM</fnm>
                </au>
                <au>
                   <snm>Letsche</snm>
                   <fnm>T</fnm>
                </au>
                <au>
                   <snm>Gold</snm>
                   <fnm>M</fnm>
                </au>
                <au>
                   <snm>Doti</snm>
                   <fnm>N</fnm>
                </au>
                <au>
                   <snm>Bacher</snm>
                   <fnm>M</fnm>
                </au>
                <au>
                   <snm>Chiamvimonvat</snm>
                   <fnm>N</fnm>
                </au>
                <au>
                   <snm>Dodel</snm>
                   <fnm>R</fnm>
                </au>
                <au>
                   <snm>Culmsee</snm>
                   <fnm>C</fnm>
                </au>
             </aug>
             <source>Glia</source>
             <pubdate>2012</pubdate>
             <volume>60</volume>
             <fpage>2050</fpage>
             <lpage>2064</lpage>
             <xrefbib>
                <pubidlist>
                   <pubid idtype="doi">10.1002/glia.22419</pubid>
                   <pubid idtype="pmpid" link="fulltext">23002008</pubid>
                </pubidlist>
             </xrefbib>
          </bibl>
          <bibl id="B8">
             <title>
                <p>Abeta internalization by neurons and glia</p>
             </title>
             <aug>
                <au>
                   <snm>Mohamed</snm>
                   <fnm>A</fnm>
                </au>
                <au>
                   <snm>Posse de Chaves</snm>
                   <fnm>E</fnm>
                </au>
             </aug>
             <source>Int J Alzheimers Dis</source>
             <pubdate>2010</pubdate>
             <volume>2011</volume>
             <fpage>127984</fpage>
          </bibl>
          <bibl id="B9">
             <title>
                <p>NLRP3 is activated in Alzheimer's disease and contributes to pathology in APP/PS1 mice</p>
             </title>
             <aug>
                <au>
                   <snm>Heneka</snm>
                   <fnm>MT</fnm>
                </au>
                <au>
                   <snm>Kummer</snm>
                   <fnm>MP</fnm>
                </au>
                <au>
                   <snm>Stutz</snm>
                   <fnm>A</fnm>
                </au>
                <au>
                   <snm>Delekate</snm>
                   <fnm>A</fnm>
                </au>
                <au>
                   <snm>Schwartz</snm>
                   <fnm>S</fnm>
                </au>
                <au>
                   <snm>Vieira-Saecker</snm>
                   <fnm>A</fnm>
                </au>
                <au>
                   <snm>Griep</snm>
                   <fnm>A</fnm>
                </au>
                <au>
                   <snm>Axt</snm>
                   <fnm>D</fnm>
                </au>
                <au>
                   <snm>Remus</snm>
                   <fnm>A</fnm>
                </au>
                <au>
                   <snm>Tzeng</snm>
                   <fnm>TC</fnm>
                </au>
                <au>
                   <snm>Gelpi</snm>
                   <fnm>E</fnm>
                </au>
                <au>
                   <snm>Halle</snm>
                   <fnm>A</fnm>
                </au>
                <au>
                   <snm>Korte</snm>
                   <fnm>M</fnm>
                </au>
                <au>
                   <snm>Latz</snm>
                   <fnm>E</fnm>
                </au>
                <au>
                   <snm>Golenbock</snm>
                   <fnm>DT</fnm>
                </au>
             </aug>
             <source>Nature</source>
             <pubdate>2013</pubdate>
             <volume>493</volume>
             <fpage>674</fpage>
             <lpage>678</lpage>
             <xrefbib>
                <pubidlist>
                   <pubid idtype="doi">10.1038/nature11729</pubid>
                   <pubid idtype="pmpid" link="fulltext">23254930</pubid>
                </pubidlist>
             </xrefbib>
          </bibl>
          <bibl id="B10">
             <title>
                <p>Inflammation in Alzheimer disease-a brief review of the basic science and clinical literature</p>
             </title>
             <aug>
                <au>
                   <snm>Wyss-Coray</snm>
                   <fnm>T</fnm>
                </au>
                <au>
                   <snm>Rogers</snm>
                   <fnm>J</fnm>
                </au>
             </aug>
             <source>Cold Spring Harb Perspect Med</source>
             <pubdate>2012</pubdate>
             <volume>2</volume>
             <fpage>a006346</fpage>
             <xrefbib>
                <pubidlist>
                   <pubid idtype="doi">10.1101/cshperspect.a006346</pubid>
                   <pubid idtype="pmpid" link="fulltext">22315714</pubid>
                </pubidlist>
             </xrefbib>
          </bibl>
          <bibl id="B11">
             <title>
                <p>Alpha1-antitrypsin, old dog, new tricks. Alpha1-antitrypsin exerts in vitro anti-inflammatory activity in human monocytes by elevating cAMP</p>
             </title>
             <aug>
                <au>
                   <snm>Janciauskiene</snm>
                   <fnm>SM</fnm>
                </au>
                <au>
                   <snm>Nita</snm>
                   <fnm>IM</fnm>
                </au>
                <au>
                   <snm>Stevens</snm>
                   <fnm>T</fnm>
                </au>
             </aug>
             <source>J Biol Chem</source>
             <pubdate>2007</pubdate>
             <volume>282</volume>
             <fpage>8573</fpage>
             <lpage>8582</lpage>
             <xrefbib>
                <pubidlist>
                   <pubid idtype="doi">10.1074/jbc.M607976200</pubid>
                   <pubid idtype="pmpid" link="fulltext">17261591</pubid>
                </pubidlist>
             </xrefbib>
          </bibl>
          <bibl id="B12">
             <title>
                <p>alpha(1)-Antitrypsin modulates lung endothelial cell inflammatory responses to TNF-alpha</p>
             </title>
             <aug>
                <au>
                   <snm>Lockett</snm>
                   <fnm>AD</fnm>
                </au>
                <au>
                   <snm>Kimani</snm>
                   <fnm>S</fnm>
                </au>
                <au>
                   <snm>Ddungu</snm>
                   <fnm>G</fnm>
                </au>
                <au>
                   <snm>Wrenger</snm>
                   <fnm>S</fnm>
                </au>
                <au>
                   <snm>Tuder</snm>
                   <fnm>RM</fnm>
                </au>
                <au>
                   <snm>Janciauskiene</snm>
                   <fnm>SM</fnm>
                </au>
                <au>
                   <snm>Petrache</snm>
                   <fnm>I</fnm>
                </au>
             </aug>
             <source>Am J Respir Cell Mol Biol</source>
             <pubdate>2013</pubdate>
             <volume>49</volume>
             <fpage>143</fpage>
             <lpage>150</lpage>
             <xrefbib>
                <pubidlist>
                   <pubid idtype="doi">10.1165/rcmb.2012-0515OC</pubid>
                   <pubid idtype="pmpid" link="fulltext">23526215</pubid>
                </pubidlist>
             </xrefbib>
          </bibl>
          <bibl id="B13">
             <title>
                <p>Molecular basis of alpha-1-antitrypsin deficiency</p>
             </title>
             <aug>
                <au>
                   <snm>Brantly</snm>
                   <fnm>M</fnm>
                </au>
                <au>
                   <snm>Nukiwa</snm>
                   <fnm>T</fnm>
                </au>
                <au>
                   <snm>Crystal</snm>
                   <fnm>RG</fnm>
                </au>
             </aug>
             <source>Am J Med</source>
             <pubdate>1988</pubdate>
             <volume>84</volume>
             <fpage>13</fpage>
             <lpage>31</lpage>
             <xrefbib>
                <pubidlist>
                   <pubid idtype="doi">10.1016/0002-9343(88)90154-4</pubid>
                   <pubid idtype="pmpid" link="fulltext">3289385</pubid>
                </pubidlist>
             </xrefbib>
          </bibl>
          <bibl id="B14">
             <title>
                <p>Alpha-1-antitrypsin deficiency: diagnosis and treatment</p>
             </title>
             <aug>
                <au>
                   <snm>Perlmutter</snm>
                   <fnm>DH</fnm>
                </au>
             </aug>
             <source>Clin Liver Dis</source>
             <pubdate>2004</pubdate>
             <volume>8</volume>
             <fpage>839</fpage>
             <lpage>859</lpage>
             <note>viii-ix</note>
             <xrefbib>
                <pubidlist>
                   <pubid idtype="doi">10.1016/j.cld.2004.06.001</pubid>
                   <pubid idtype="pmpid" link="fulltext">15464658</pubid>
                </pubidlist>
             </xrefbib>
          </bibl>
          <bibl id="B15">
             <title>
                <p>Alpha-1 antitrypsin deficiency: a conformational disease associated with lung and liver manifestations</p>
             </title>
             <aug>
                <au>
                   <snm>Greene</snm>
                   <fnm>CM</fnm>
                </au>
                <au>
                   <snm>Miller</snm>
                   <fnm>SD</fnm>
                </au>
                <au>
                   <snm>Carroll</snm>
                   <fnm>T</fnm>
                </au>
                <au>
                   <snm>McLean</snm>
                   <fnm>C</fnm>
                </au>
                <au>
                   <snm>O'Mahony</snm>
                   <fnm>M</fnm>
                </au>
                <au>
                   <snm>Lawless</snm>
                   <fnm>MW</fnm>
                </au>
                <au>
                   <snm>O'Neill</snm>
                   <fnm>SJ</fnm>
                </au>
                <au>
                   <snm>Taggart</snm>
                   <fnm>CC</fnm>
                </au>
                <au>
                   <snm>McElvaney</snm>
                   <fnm>NG</fnm>
                </au>
             </aug>
             <source>J Inherit Metab Dis</source>
             <pubdate>2008</pubdate>
             <volume>31</volume>
             <fpage>21</fpage>
             <lpage>34</lpage>
             <xrefbib>
                <pubidlist>
                   <pubid idtype="doi">10.1007/s10545-007-0748-y</pubid>
                   <pubid idtype="pmpid" link="fulltext">18193338</pubid>
                </pubidlist>
             </xrefbib>
          </bibl>
          <bibl id="B16">
             <title>
                <p>Acute-phase protein alpha1-antitrypsin inhibits neutrophil calpain I and induces random migration</p>
             </title>
             <aug>
                <au>
                   <snm>Al-Omari</snm>
                   <fnm>M</fnm>
                </au>
                <au>
                   <snm>Korenbaum</snm>
                   <fnm>E</fnm>
                </au>
                <au>
                   <snm>Ballmaier</snm>
                   <fnm>M</fnm>
                </au>
                <au>
                   <snm>Lehmann</snm>
                   <fnm>U</fnm>
                </au>
                <au>
                   <snm>Jonigk</snm>
                   <fnm>D</fnm>
                </au>
                <au>
                   <snm>Manstein</snm>
                   <fnm>DJ</fnm>
                </au>
                <au>
                   <snm>Welte</snm>
                   <fnm>T</fnm>
                </au>
                <au>
                   <snm>Mahadeva</snm>
                   <fnm>R</fnm>
                </au>
                <au>
                   <snm>Janciauskiene</snm>
                   <fnm>S</fnm>
                </au>
             </aug>
             <source>Mol Med</source>
             <pubdate>2011</pubdate>
             <volume>17</volume>
             <fpage>865</fpage>
             <lpage>874</lpage>
             <xrefbib>
                <pubidlist>
                   <pubid idtype="doi">10.2119/molmed.2011.00089</pubid>
                   <pubid idtype="pmpid" link="fulltext">21494752</pubid>
                </pubidlist>
             </xrefbib>
          </bibl>
          <bibl id="B17">
             <title>
                <p>Calcium dyshomeostasis and intracellular signalling in Alzheimer's disease</p>
             </title>
             <aug>
                <au>
                   <snm>LaFerla</snm>
                   <fnm>FM</fnm>
                </au>
             </aug>
             <source>Nat Rev Neurosci</source>
             <pubdate>2002</pubdate>
             <volume>3</volume>
             <fpage>862</fpage>
             <lpage>872</lpage>
             <xrefbib>
                <pubidlist>
                   <pubid idtype="doi">10.1038/nrn960</pubid>
                   <pubid idtype="pmpid" link="fulltext">12415294</pubid>
                </pubidlist>
             </xrefbib>
          </bibl>
          <bibl id="B18">
             <title>
                <p>Widespread activation of calcium-activated neutral proteinase (calpain) in the brain in Alzheimer disease: a potential molecular basis for neuronal degeneration</p>
             </title>
             <aug>
                <au>
                   <snm>Saito</snm>
                   <fnm>K</fnm>
                </au>
                <au>
                   <snm>Elce</snm>
                   <fnm>JS</fnm>
                </au>
                <au>
                   <snm>Hamos</snm>
                   <fnm>JE</fnm>
                </au>
                <au>
                   <snm>Nixon</snm>
                   <fnm>RA</fnm>
                </au>
             </aug>
             <source>Proc Natl Acad Sci U S A</source>
             <pubdate>1993</pubdate>
             <volume>90</volume>
             <fpage>2628</fpage>
             <lpage>2632</lpage>
             <xrefbib>
                <pubidlist>
                   <pubid idtype="doi">10.1073/pnas.90.7.2628</pubid>
                   <pubid idtype="pmpid" link="fulltext">8464868</pubid>
                </pubidlist>
             </xrefbib>
          </bibl>
          <bibl id="B19">
             <title>
                <p>Calpastatin prevents NF-kappaB-mediated hyperactivation of macrophages and attenuates colitis</p>
             </title>
             <aug>
                <au>
                   <snm>Huang</snm>
                   <fnm>Z</fnm>
                </au>
                <au>
                   <snm>Rose</snm>
                   <fnm>AH</fnm>
                </au>
                <au>
                   <snm>Hoffmann</snm>
                   <fnm>FW</fnm>
                </au>
                <au>
                   <snm>Hashimoto</snm>
                   <fnm>AS</fnm>
                </au>
                <au>
                   <snm>Bertino</snm>
                   <fnm>P</fnm>
                </au>
                <au>
                   <snm>Denk</snm>
                   <fnm>T</fnm>
                </au>
                <au>
                   <snm>Takano</snm>
                   <fnm>J</fnm>
                </au>
                <au>
                   <snm>Iwata</snm>
                   <fnm>N</fnm>
                </au>
                <au>
                   <snm>Saido</snm>
                   <fnm>TC</fnm>
                </au>
                <au>
                   <snm>Hoffmann</snm>
                   <fnm>PR</fnm>
                </au>
             </aug>
             <source>J Immunol</source>
             <pubdate>2013</pubdate>
             <volume>191</volume>
             <fpage>3778</fpage>
             <lpage>3788</lpage>
             <xrefbib>
                <pubidlist>
                   <pubid idtype="doi">10.4049/jimmunol.1300972</pubid>
                   <pubid idtype="pmpid" link="fulltext">23986533</pubid>
                </pubidlist>
             </xrefbib>
          </bibl>
          <bibl id="B20">
             <title>
                <p>Prion peptide uptake in microglial cells - the effect of naturally occurring autoantibodies against prion protein</p>
             </title>
             <aug>
                <au>
                   <snm>Roettger</snm>
                   <fnm>Y</fnm>
                </au>
                <au>
                   <snm>Zerr</snm>
                   <fnm>I</fnm>
                </au>
                <au>
                   <snm>Dodel</snm>
                   <fnm>R</fnm>
                </au>
                <au>
                   <snm>Bach</snm>
                   <fnm>JP</fnm>
                </au>
             </aug>
             <source>PLoS One</source>
             <pubdate>2013</pubdate>
             <volume>8</volume>
             <fpage>e67743</fpage>
             <xrefbib>
                <pubidlist>
                   <pubid idtype="doi">10.1371/journal.pone.0067743</pubid>
                   <pubid idtype="pmpid" link="fulltext">23840767</pubid>
                </pubidlist>
             </xrefbib>
          </bibl>
          <bibl id="B21">
             <title>
                <p>Improved detection of nitric oxide radical (NO.) production in an activated macrophage culture with a radical scavenger, carboxy PTIO and Griess reagent</p>
             </title>
             <aug>
                <au>
                   <snm>Amano</snm>
                   <fnm>F</fnm>
                </au>
                <au>
                   <snm>Noda</snm>
                   <fnm>T</fnm>
                </au>
             </aug>
             <source>FEBS Lett</source>
             <pubdate>1995</pubdate>
             <volume>368</volume>
             <fpage>425</fpage>
             <lpage>428</lpage>
             <xrefbib>
                <pubidlist>
                   <pubid idtype="doi">10.1016/0014-5793(95)00700-J</pubid>
                   <pubid idtype="pmpid" link="fulltext">7543422</pubid>
                </pubidlist>
             </xrefbib>
          </bibl>
          <bibl id="B22">
             <title>
                <p>The serpin superfamily of proteinase inhibitors: structure, function, and regulation</p>
             </title>
             <aug>
                <au>
                   <snm>Potempa</snm>
                   <fnm>J</fnm>
                </au>
                <au>
                   <snm>Korzus</snm>
                   <fnm>E</fnm>
                </au>
                <au>
                   <snm>Travis</snm>
                   <fnm>J</fnm>
                </au>
             </aug>
             <source>J Biol Chem</source>
             <pubdate>1994</pubdate>
             <volume>269</volume>
             <fpage>15957</fpage>
             <lpage>15960</lpage>
             <xrefbib>
                <pubidlist>
                   <pubid idtype="pmpid" link="fulltext">8206889</pubid>
                </pubidlist>
             </xrefbib>
          </bibl>
          <bibl id="B23">
             <title>
                <p>The inflammation-sensitive protein alpha 1-anti-chymotrypsin neutralizes fibrillar aggregation and cytotoxicity of the beta-amyloid peptide more effectively than alpha 1-antitrypsin</p>
             </title>
             <aug>
                <au>
                   <snm>Giunta</snm>
                   <fnm>S</fnm>
                </au>
                <au>
                   <snm>Galeazzi</snm>
                   <fnm>R</fnm>
                </au>
                <au>
                   <snm>Marcellini</snm>
                   <fnm>M</fnm>
                </au>
                <au>
                   <snm>Corder</snm>
                   <fnm>EH</fnm>
                </au>
                <au>
                   <snm>Galeazzi</snm>
                   <fnm>L</fnm>
                </au>
             </aug>
             <source>Clin Biochem</source>
             <pubdate>2007</pubdate>
             <volume>40</volume>
             <fpage>887</fpage>
             <lpage>892</lpage>
             <xrefbib>
                <pubidlist>
                   <pubid idtype="doi">10.1016/j.clinbiochem.2007.03.026</pubid>
                   <pubid idtype="pmpid" link="fulltext">17512513</pubid>
                </pubidlist>
             </xrefbib>
          </bibl>
          <bibl id="B24">
             <title>
                <p>beta-Amyloid protein-dependent nitric oxide production from microglial cells and neurotoxicity</p>
             </title>
             <aug>
                <au>
                   <snm>Ii</snm>
                   <fnm>M</fnm>
                </au>
                <au>
                   <snm>Sunamoto</snm>
                   <fnm>M</fnm>
                </au>
                <au>
                   <snm>Ohnishi</snm>
                   <fnm>K</fnm>
                </au>
                <au>
                   <snm>Ichimori</snm>
                   <fnm>Y</fnm>
                </au>
             </aug>
             <source>Brain Res</source>
             <pubdate>1996</pubdate>
             <volume>720</volume>
             <fpage>93</fpage>
             <lpage>100</lpage>
             <xrefbib>
                <pubidlist>
                   <pubid idtype="doi">10.1016/0006-8993(96)00156-4</pubid>
                   <pubid idtype="pmpid" link="fulltext">8782901</pubid>
                </pubidlist>
             </xrefbib>
          </bibl>
          <bibl id="B25">
             <title>
                <p>Expression profiles of cytokines in the brains of Alzheimer's disease (AD) patients compared to the brains of non-demented patients with and without increasing AD pathology</p>
             </title>
             <aug>
                <au>
                   <snm>Morimoto</snm>
                   <fnm>K</fnm>
                </au>
                <au>
                   <snm>Horio</snm>
                   <fnm>J</fnm>
                </au>
                <au>
                   <snm>Satoh</snm>
                   <fnm>H</fnm>
                </au>
                <au>
                   <snm>Sue</snm>
                   <fnm>L</fnm>
                </au>
                <au>
                   <snm>Beach</snm>
                   <fnm>T</fnm>
                </au>
                <au>
                   <snm>Arita</snm>
                   <fnm>S</fnm>
                </au>
                <au>
                   <snm>Tooyama</snm>
                   <fnm>I</fnm>
                </au>
                <au>
                   <snm>Konishi</snm>
                   <fnm>Y</fnm>
                </au>
             </aug>
             <source>J Alzheimers Dis</source>
             <pubdate>2011</pubdate>
             <volume>25</volume>
             <fpage>59</fpage>
             <lpage>76</lpage>
             <xrefbib>
                <pubidlist>
                   <pubid idtype="pmpid" link="fulltext">21368376</pubid>
                </pubidlist>
             </xrefbib>
          </bibl>
          <bibl id="B26">
             <title>
                <p>Mitogen-activated protein kinases activated by lipopolysaccharide and beta-amyloid in cultured rat microglia</p>
             </title>
             <aug>
                <au>
                   <snm>Pyo</snm>
                   <fnm>H</fnm>
                </au>
                <au>
                   <snm>Jou</snm>
                   <fnm>I</fnm>
                </au>
                <au>
                   <snm>Jung</snm>
                   <fnm>S</fnm>
                </au>
                <au>
                   <snm>Hong</snm>
                   <fnm>S</fnm>
                </au>
                <au>
                   <snm>Joe</snm>
                   <fnm>EH</fnm>
                </au>
             </aug>
             <source>Neuroreport</source>
             <pubdate>1998</pubdate>
             <volume>9</volume>
             <fpage>871</fpage>
             <lpage>874</lpage>
             <xrefbib>
                <pubidlist>
                   <pubid idtype="doi">10.1097/00001756-199803300-00020</pubid>
                   <pubid idtype="pmpid" link="fulltext">9579682</pubid>
                </pubidlist>
             </xrefbib>
          </bibl>
          <bibl id="B27">
             <title>
                <p>Neuroinflammatory processes in Alzheimer's disease</p>
             </title>
             <aug>
                <au>
                   <snm>Heneka</snm>
                   <fnm>MT</fnm>
                </au>
                <au>
                   <snm>O'Banion</snm>
                   <fnm>MK</fnm>
                </au>
                <au>
                   <snm>Terwel</snm>
                   <fnm>D</fnm>
                </au>
                <au>
                   <snm>Kummer</snm>
                   <fnm>MP</fnm>
                </au>
             </aug>
             <source>J Neural Transm</source>
             <pubdate>2010</pubdate>
             <volume>117</volume>
             <fpage>919</fpage>
             <lpage>947</lpage>
             <xrefbib>
                <pubidlist>
                   <pubid idtype="doi">10.1007/s00702-010-0438-z</pubid>
                   <pubid idtype="pmpid" link="fulltext">20632195</pubid>
                </pubidlist>
             </xrefbib>
          </bibl>
          <bibl id="B28">
             <title>
                <p>The role of CNI-1493 in the function of primary microglia with respect to amyloid-beta</p>
             </title>
             <aug>
                <au>
                   <snm>Bach</snm>
                   <fnm>JP</fnm>
                </au>
                <au>
                   <snm>Mengel</snm>
                   <fnm>D</fnm>
                </au>
                <au>
                   <snm>Wahle</snm>
                   <fnm>T</fnm>
                </au>
                <au>
                   <snm>Kautz</snm>
                   <fnm>A</fnm>
                </au>
                <au>
                   <snm>Balzer-Geldsetzer</snm>
                   <fnm>M</fnm>
                </au>
                <au>
                   <snm>Al-Abed</snm>
                   <fnm>Y</fnm>
                </au>
                <au>
                   <snm>Dodel</snm>
                   <fnm>R</fnm>
                </au>
                <au>
                   <snm>Bacher</snm>
                   <fnm>M</fnm>
                </au>
             </aug>
             <source>J Alzheimers Dis</source>
             <pubdate>2011</pubdate>
             <volume>26</volume>
             <fpage>69</fpage>
             <lpage>80</lpage>
             <xrefbib>
                <pubidlist>
                   <pubid idtype="pmpid" link="fulltext">21593565</pubid>
                </pubidlist>
             </xrefbib>
          </bibl>
          <bibl id="B29">
             <title>
                <p>Involvement of PKA and HO-1 signaling in anti-inflammatory effects of surfactin in BV-2 microglial cells</p>
             </title>
             <aug>
                <au>
                   <snm>Park</snm>
                   <fnm>SY</fnm>
                </au>
                <au>
                   <snm>Kim</snm>
                   <fnm>JH</fnm>
                </au>
                <au>
                   <snm>Lee</snm>
                   <fnm>SJ</fnm>
                </au>
                <au>
                   <snm>Kim</snm>
                   <fnm>Y</fnm>
                </au>
             </aug>
             <source>Toxicol Appl Pharmacol</source>
             <pubdate>2013</pubdate>
             <volume>268</volume>
             <fpage>68</fpage>
             <lpage>78</lpage>
             <xrefbib>
                <pubidlist>
                   <pubid idtype="doi">10.1016/j.taap.2013.01.017</pubid>
                   <pubid idtype="pmpid" link="fulltext">23360889</pubid>
                </pubidlist>
             </xrefbib>
          </bibl>
          <bibl id="B30">
             <title>
                <p>Alpha1-antitrypsin deficiency</p>
             </title>
             <aug>
                <au>
                   <snm>Stoller</snm>
                   <fnm>JK</fnm>
                </au>
                <au>
                   <snm>Aboussouan</snm>
                   <fnm>LS</fnm>
                </au>
             </aug>
             <source>Lancet</source>
             <pubdate>2005</pubdate>
             <volume>365</volume>
             <fpage>2225</fpage>
             <lpage>2236</lpage>
             <xrefbib>
                <pubidlist>
                   <pubid idtype="doi">10.1016/S0140-6736(05)66781-5</pubid>
                   <pubid idtype="pmpid" link="fulltext">15978931</pubid>
                </pubidlist>
             </xrefbib>
          </bibl>
          <bibl id="B31">
             <title>
                <p>Calpain-mediated signaling mechanisms in neuronal injury and neurodegeneration</p>
             </title>
             <aug>
                <au>
                   <snm>Vosler</snm>
                   <fnm>PS</fnm>
                </au>
                <au>
                   <snm>Brennan</snm>
                   <fnm>CS</fnm>
                </au>
                <au>
                   <snm>Chen</snm>
                   <fnm>J</fnm>
                </au>
             </aug>
             <source>Mol Neurobiol</source>
             <pubdate>2008</pubdate>
             <volume>38</volume>
             <fpage>78</fpage>
             <lpage>100</lpage>
             <xrefbib>
                <pubidlist>
                   <pubid idtype="doi">10.1007/s12035-008-8036-x</pubid>
                   <pubid idtype="pmpid" link="fulltext">18686046</pubid>
                </pubidlist>
             </xrefbib>
          </bibl>
          <bibl id="B32">
             <title>
                <p>Microglial beclin 1 regulates retromer trafficking and phagocytosis and is impaired in Alzheimer's disease</p>
             </title>
             <aug>
                <au>
                   <snm>Lucin</snm>
                   <fnm>KM</fnm>
                </au>
                <au>
                   <snm>O'Brien</snm>
                   <fnm>CE</fnm>
                </au>
                <au>
                   <snm>Bieri</snm>
                   <fnm>G</fnm>
                </au>
                <au>
                   <snm>Czirr</snm>
                   <fnm>E</fnm>
                </au>
                <au>
                   <snm>Mosher</snm>
                   <fnm>KI</fnm>
                </au>
                <au>
                   <snm>Abbey</snm>
                   <fnm>RJ</fnm>
                </au>
                <au>
                   <snm>Mastroeni</snm>
                   <fnm>DF</fnm>
                </au>
                <au>
                   <snm>Rogers</snm>
                   <fnm>J</fnm>
                </au>
                <au>
                   <snm>Spencer</snm>
                   <fnm>B</fnm>
                </au>
                <au>
                   <snm>Masliah</snm>
                   <fnm>E</fnm>
                </au>
                <au>
                   <snm>Wyss-Coray</snm>
                   <fnm>T</fnm>
                </au>
             </aug>
             <source>Neuron</source>
             <pubdate>2013</pubdate>
             <volume>79</volume>
             <fpage>873</fpage>
             <lpage>886</lpage>
             <xrefbib>
                <pubidlist>
                   <pubid idtype="doi">10.1016/j.neuron.2013.06.046</pubid>
                   <pubid idtype="pmpid" link="fulltext">24012002</pubid>
                </pubidlist>
             </xrefbib>
          </bibl>
          <bibl id="B33">
             <title>
                <p>Group B Streptococcus induces macrophage apoptosis by calpain activation</p>
             </title>
             <aug>
                <au>
                   <snm>Fettucciari</snm>
                   <fnm>K</fnm>
                </au>
                <au>
                   <snm>Fetriconi</snm>
                   <fnm>I</fnm>
                </au>
                <au>
                   <snm>Mannucci</snm>
                   <fnm>R</fnm>
                </au>
                <au>
                   <snm>Nicoletti</snm>
                   <fnm>I</fnm>
                </au>
                <au>
                   <snm>Bartoli</snm>
                   <fnm>A</fnm>
                </au>
                <au>
                   <snm>Coaccioli</snm>
                   <fnm>S</fnm>
                </au>
                <au>
                   <snm>Marconi</snm>
                   <fnm>P</fnm>
                </au>
             </aug>
             <source>J Immunol</source>
             <pubdate>2006</pubdate>
             <volume>176</volume>
             <fpage>7542</fpage>
             <lpage>7556</lpage>
             <xrefbib>
                <pubidlist>
                   <pubid idtype="doi">10.4049/jimmunol.176.12.7542</pubid>
                   <pubid idtype="pmpid" link="fulltext">16751401</pubid>
                </pubidlist>
             </xrefbib>
          </bibl>
       </refgrp>
    </bm>
 </art>
