<art>
    <ui>s12966-014-0143-7</ui>
    <ji>1479-5868</ji>
    <fm>
       <dochead>Debate</dochead>
       <bibl>
          <title>
             <p>Towards the integration and development of a cross-European research network and infrastructure: the DEterminants of DIet and Physical ACtivity (DEDIPAC) Knowledge Hub</p>
          </title>
          <aug>
             <au ca="yes" id="A1">
                <snm>Lakerveld</snm>
                <fnm>Jeroen</fnm>
                <insr iid="I1"/>
                <insr iid="I24"/>
                <email>j.lakerveld@vumc.nl</email>
             </au>
             <au id="A2">
                <snm>van der Ploeg</snm>
                <mi>P</mi>
                <fnm>Hidde</fnm>
                <insr iid="I1"/>
                <email>hp.vanderploeg@vumc.nl</email>
             </au>
             <au id="A3">
                <snm>Kroeze</snm>
                <fnm>Willemieke</fnm>
                <insr iid="I1"/>
                <email>w.kroeze@vu.nl</email>
             </au>
             <au id="A4">
                <snm>Ahrens</snm>
                <fnm>Wolfgang</fnm>
                <insr iid="I2"/>
                <email>ahrens@bips.uni-bremen.de</email>
             </au>
             <au id="A5">
                <snm>Allais</snm>
                <fnm>Oliver</fnm>
                <insr iid="I3"/>
                <email>allais@ivry.inra.fr</email>
             </au>
             <au id="A6">
                <snm>Andersen</snm>
                <mnm>Frost</mnm>
                <fnm>Lene</fnm>
                <insr iid="I4"/>
                <email>l.f.andersen@medisin.uio.no</email>
             </au>
             <au id="A7">
                <snm>Cardon</snm>
                <fnm>Greet</fnm>
                <insr iid="I5"/>
                <email>Greet.cardon@ugent.be</email>
             </au>
             <au id="A8">
                <snm>Capranica</snm>
                <fnm>Laura</fnm>
                <insr iid="I6"/>
                <email>laura.capranica@uniroma4.it</email>
             </au>
             <au id="A9">
                <snm>Chastin</snm>
                <fnm>Sebastien</fnm>
                <insr iid="I7"/>
                <email>sebastien.chastin@gcal.ac.uk</email>
             </au>
             <au id="A10">
                <snm>Donnelly</snm>
                <fnm>Alan</fnm>
                <insr iid="I8"/>
                <email>alan.donnelly@ul.ie</email>
             </au>
             <au id="A11">
                <snm>Ekelund</snm>
                <fnm>Ulf</fnm>
                <insr iid="I9"/>
                <email>ulf.ekelund@nih.no</email>
             </au>
             <au id="A12">
                <snm>Finglas</snm>
                <fnm>Paul</fnm>
                <insr iid="I10"/>
                <email>paul.finglas@ifr.ac.uk</email>
             </au>
             <au id="A13">
                <snm>Flechtner-Mors</snm>
                <fnm>Marion</fnm>
                <insr iid="I11"/>
                <email>marion.flechtner-mors@uni-ulm.de</email>
             </au>
             <au id="A14">
                <snm>Hebestreit</snm>
                <fnm>Antje</fnm>
                <insr iid="I2"/>
                <email>hebestr@bips.uni-bremen.de</email>
             </au>
             <au id="A15">
                <snm>Hendriksen</snm>
                <fnm>Ingrid</fnm>
                <insr iid="I12"/>
                <insr iid="I1"/>
                <email>ingrid.hendriksen@tno.nl</email>
             </au>
             <au id="A16">
                <snm>Kubiak</snm>
                <fnm>Thomas</fnm>
                <insr iid="I13"/>
                <email>kubiak@uni-mainz.de</email>
             </au>
             <au id="A17">
                <snm>Lanza</snm>
                <fnm>Massimo</fnm>
                <insr iid="I14"/>
                <email>massimo.lanza@univr.it</email>
             </au>
             <au id="A18">
                <snm>Loyen</snm>
                <fnm>Anne</fnm>
                <insr iid="I1"/>
                <email>a.loyen@vumc.nl</email>
             </au>
             <au id="A19">
                <snm>MacDonncha</snm>
                <fnm>Ciaran</fnm>
                <insr iid="I8"/>
                <email>ciaran.macdonncha@ul.ie</email>
             </au>
             <au id="A20">
                <snm>Mazzocchi</snm>
                <fnm>Mario</fnm>
                <insr iid="I15"/>
                <email>m.mazzocchi@unibo.it</email>
             </au>
             <au id="A21">
                <snm>Monsivais</snm>
                <fnm>Pablo</fnm>
                <insr iid="I16"/>
                <email>pm491@medschl.cam.ac.uk</email>
             </au>
             <au id="A22">
                <snm>Murphy</snm>
                <fnm>Marie</fnm>
                <insr iid="I17"/>
                <email>mh.murphy@ulster.ac.uk</email>
             </au>
             <au id="A23">
                <snm>N&#246;thlings</snm>
                <fnm>Ute</fnm>
                <insr iid="I18"/>
                <email>noethlings@uni-bonn.de</email>
             </au>
             <au id="A24">
                <snm>O&#8217;Gorman</snm>
                <mi>J</mi>
                <fnm>Donal</fnm>
                <insr iid="I19"/>
                <email>donal.ogorman@dcu.ie</email>
             </au>
             <au id="A25">
                <snm>Renner</snm>
                <fnm>Britta</fnm>
                <insr iid="I20"/>
                <email>britta.renner@uni-konstanz.de</email>
             </au>
             <au id="A26">
                <snm>Roos</snm>
                <fnm>Gun</fnm>
                <insr iid="I21"/>
                <email>gun.roos@sifo.no</email>
             </au>
             <au id="A27">
                <snm>Schuit</snm>
                <mi>J</mi>
                <fnm>Abertine</fnm>
                <insr iid="I22"/>
                <email>Jantine.Schuit@rivm.nl</email>
             </au>
             <au id="A28">
                <snm>Schulze</snm>
                <fnm>Matthias</fnm>
                <insr iid="I23"/>
                <email>mschulze@dife.de</email>
             </au>
             <au id="A29">
                <snm>Steinacker</snm>
                <fnm>J&#252;rgen</fnm>
                <insr iid="I11"/>
                <email>Juergen.Steinacker@uniklinik-ulm.de</email>
             </au>
             <au id="A30">
                <snm>Stronks</snm>
                <fnm>Karien</fnm>
                <insr iid="I24"/>
                <email>k.stronks@amc.uva.nl</email>
             </au>
             <au id="A31">
                <snm>Volkert</snm>
                <fnm>Dorothee</fnm>
                <insr iid="I25"/>
                <email>dorothee.volkert@iba.fau.de</email>
             </au>
             <au id="A32">
                <snm>van&#8217;t Veer</snm>
                <fnm>Pieter</fnm>
                <insr iid="I26"/>
                <email>pieter.vantveer@wur.nl</email>
             </au>
             <au id="A33">
                <snm>Lien</snm>
                <fnm>Nanna</fnm>
                <insr iid="I27"/>
                <email>nanna.lien@medisin.uio.no</email>
             </au>
             <au id="A34">
                <snm>De Bourdeaudhuij</snm>
                <fnm>Ilse</fnm>
                <insr iid="I5"/>
                <email>Ilse.Debourdeaudhuij@UGent.be</email>
             </au>
             <au id="A35">
                <snm>Brug</snm>
                <fnm>Johannes</fnm>
                <insr iid="I1"/>
                <email>j.brug@vumc.nl</email>
             </au>
             <au id="A36" type="on_behalf">
                <cnm>on behalf of the DEDIPAC consortium</cnm>
                <email>dedipac@vumc.nl</email>
             </au>
          </aug>
          <insg>
             <ins id="I1">
                <p>EMGO Institute for Health and Care Research, VU University Medical Center, van der Boechorststraat 7, Amsterdam, 1081 BT, The Netherlands</p>
             </ins>
             <ins id="I2">
                <p>Leibniz Institute for Prevention Research and Epidemiology -BIPS, Bremen, Germany</p>
             </ins>
             <ins id="I3">
                <p>INRA, UR1303 ALISS, Ivry-sur-Seine, F-94205, France</p>
             </ins>
             <ins id="I4">
                <p>University of Oslo, Oslo, Norway</p>
             </ins>
             <ins id="I5">
                <p>Faculty of Medicine and Health Sciences, Ghent University, Ghent, Belgium</p>
             </ins>
             <ins id="I6">
                <p>University of Rome Foro Italico, Rome, Italy</p>
             </ins>
             <ins id="I7">
                <p>Glasgow Caledonian University, School of Health and Life Science, Scotland, UK</p>
             </ins>
             <ins id="I8">
                <p>Centre for Physical Activity and Health Research, University of Limerick, Limerick, Ireland</p>
             </ins>
             <ins id="I9">
                <p>Department of Sport Medicine, Norwegian School of Sport Sciences, Oslo, Norway</p>
             </ins>
             <ins id="I10">
                <p>Institute of Food Research, Norwich, UK</p>
             </ins>
             <ins id="I11">
                <p>Division of Sports and Rehabilitation Medicine, University of Ulm, Ulm, Germany</p>
             </ins>
             <ins id="I12">
                <p>Netherlands Organisation for Applied Scientific Research (TNO), Leiden, The Netherlands</p>
             </ins>
             <ins id="I13">
                <p>Johannes Gutenberg University, Mainz, Germany</p>
             </ins>
             <ins id="I14">
                <p>Department of Neurological and Movement Sciences, University of Verona, Verona, Italy</p>
             </ins>
             <ins id="I15">
                <p>Department of Statistical Sciences of the University of Bologna, Bologna, Italy</p>
             </ins>
             <ins id="I16">
                <p>Department of Public Health and Primary Care, Institute of Public Health, University of Cambridge, Cambridge, UK</p>
             </ins>
             <ins id="I17">
                <p>Sport &amp; Exercise Sciences Research Institute, University of Ulster, Newtownabbey, UK</p>
             </ins>
             <ins id="I18">
                <p>Department of Nutrition and Food Science, Rheinische Friedrich-Wilhelms-Universit&#228;t Bonn, Bonn, Germany</p>
             </ins>
             <ins id="I19">
                <p>Centre for Preventive Medicine, School of Health and Human Performance, Dublin City University, Dublin, Ireland</p>
             </ins>
             <ins id="I20">
                <p>Department of Psychology, University of Konstanz, Constance, Germany</p>
             </ins>
             <ins id="I21">
                <p>National Institute for Consumer Research, Oslo, Norway</p>
             </ins>
             <ins id="I22">
                <p>Centre for Nutrition, Prevention and Health Services, National Institute for Public Health and the Environment, Bilthoven, The Netherlands</p>
             </ins>
             <ins id="I23">
                <p>German Institute of Human Nutrition Potsdam-Rehbruecke, Potsdam, Germany</p>
             </ins>
             <ins id="I24">
                <p>Department of Public Health, Academic Medical Centre, University of Amsterdam, Amsterdam, The Netherlands</p>
             </ins>
             <ins id="I25">
                <p>Institute for Biomedicine of Aging, Friedrich-Alexander-Universit&#228;t Erlangen-N&#252;rnberg, Erlangen, Germany</p>
             </ins>
             <ins id="I26">
                <p>Division of Human Nutrition, Wageningen University, Wageningen, The Netherlands</p>
             </ins>
             <ins id="I27">
                <p>Department of Nutrition, University of Oslo, Oslo, Norway</p>
             </ins>
          </insg>
          <source>International Journal of Behavioral Nutrition and Physical Activity</source>
          <issn>1479-5868</issn>
          <pubdate>2014</pubdate>
          <volume>11</volume>
          <issue>1</issue>
          <fpage>143</fpage>
          <url>http://www.ijbnpa.org/content/11/1/143</url>
          <xrefbib>
             <pubidlist>
                <pubid idtype="doi">10.1186/s12966-014-0143-7</pubid>
             <pubid idtype="pmpid">25731079</pubid></pubidlist>
          </xrefbib>
       </bibl>
       <history>
          <rec>
             <date>
                <day>24</day>
                <month>5</month>
                <year>2014</year>
             </date>
          </rec>
          <acc>
             <date>
                <day>6</day>
                <month>11</month>
                <year>2014</year>
             </date>
          </acc>
          <pub>
             <date>
                <day>22</day>
                <month>11</month>
                <year>2014</year>
             </date>
          </pub>
       </history>
       <cpyrt>
          <year>2014</year>
          <collab>Lakerveld et al.; licensee BioMed Central Ltd.</collab>
          <note>This is an Open Access article distributed under the terms of the Creative Commons Attribution License (<url>http://creativecommons.org/licenses/by/4.0</url>), which permits unrestricted use, distribution, and reproduction in any medium, provided the original work is properly credited. The Creative Commons Public Domain Dedication waiver (<url>http://creativecommons.org/publicdomain/zero/1.0/</url>) applies to the data made available in this article, unless otherwise stated.</note>
       </cpyrt>
       <kwdg>
          <kwd>Diet</kwd>
          <kwd>Physical activity</kwd>
          <kwd>Sedentary behaviour</kwd>
          <kwd>Joint programming</kwd>
          <kwd>Lifestyle</kwd>
          <kwd>Prevention</kwd>
          <kwd>Measurement</kwd>
          <kwd>Determinants</kwd>
          <kwd>Interventions</kwd>
          <kwd>Policy</kwd>
       </kwdg>
       <abs>
          <sec>
             <st>
                <p>Abstract</p>
             </st>
             <p>To address major societal challenges and enhance cooperation in research across Europe, the European Commission has initiated and facilitated &#8216;joint programming&#8217;. Joint programming is a process by which Member States engage in defining, developing and implementing a common strategic research agenda, based on a shared vision of how to address major societal challenges that no Member State is capable of resolving independently. Setting up a Joint Programming Initiative (JPI) should also contribute to avoiding unnecessary overlap and repetition of research, and enable and enhance the development and use of standardised research methods, procedures and data management. The Determinants of Diet and Physical Activity (DEDIPAC) Knowledge Hub (KH) is the first act of the European JPI &#8216;A Healthy Diet for a Healthy Life&#8217;. The objective of DEDIPAC is to contribute to improving understanding of the determinants of dietary, physical activity and sedentary behaviours. DEDIPAC KH is a multi-disciplinary consortium of 46 consortia and organisations supported by joint programming grants from 12 countries across Europe. The work is divided into three thematic areas: (I) assessment and harmonisation of methods for future research, surveillance and monitoring, and for evaluation of interventions and policies; (II) determinants of dietary, physical activity and sedentary behaviours across the life course and in vulnerable groups; and (III) evaluation and benchmarking of public health and policy interventions aimed at improving dietary, physical activity and sedentary behaviours. In the first three years, DEDIPAC KH will organise, develop, share and harmonise expertise, methods, measures, data and other infrastructure. This should further European research and improve the broad multi-disciplinary approach needed to study the interactions between multilevel determinants in influencing dietary, physical activity and sedentary behaviours. Insights will be translated into more effective interventions and policies for the promotion of healthier behaviours and more effective monitoring and evaluation of the impacts of such interventions.</p>
          </sec>
       </abs>
    </fm>
    <bdy>
       <sec>
          <st>
             <p>Background</p>
          </st>
          <p>Health is a key driver of Europe&#8217;s growth and prosperity and European governments are struggling with the growing social and economic consequences of an alarming increase in lifestyle related diseases, including obesity, cardiovascular disease, diabetes and cancer <abbrgrp>
                <abbr bid="B1">1</abbr>
             </abbrgrp>. A healthy diet, sufficient physical activity and the avoidance of an overly sedentary lifestyle are key determinants of health across the life course &#8211;from preconception and in utero growth <abbrgrp>
                <abbr bid="B2">2</abbr>
             </abbrgrp> to healthy ageing <abbrgrp>
                <abbr bid="B3">3</abbr>
             </abbrgrp>. Improving health by providing citizens with the motivation, ability and opportunities to maintain a healthy lifestyle is a priority for most EU Member States in an effort to reduce the risk of lifestyle-related diseases. In order to facilitate this, a more focused and integrated approach using a common methodology is needed. This approach is required to investigate what the main risk- and health-promoting behaviours are, how these behaviours change over time and what the main determinants of exposure to and engagement in these health behaviours are. In addition, the approach is necessary to understand how policy and multilevel interventions affect these determinants and behaviours in an effort to promote health across Europe and how these policy interventions can be monitored and evaluated most effectively.</p>
          <p>To address major societal challenges and enhance cooperation in research across Europe, the European Commission has initiated and facilitated &#8216;joint programming&#8217;. Joint programming is a process by which Member States engage in defining, developing and implementing a common strategic research agenda, based on a shared vision of how to address societal challenges that no Member State is capable of resolving independently.</p>
          <p>Such joint programming across European countries can help to pool resources to enable more comprehensive and larger-scale research with more variation in exposures and outcomes, avoid unnecessary overlap and repetition and enable and enhance the development and use of standardised research methods, procedures, tools, infrastructure and data management necessary for high-quality research. It should thus contribute to improving and aligning the research infrastructure, including human capital, so that this can be used more effectively and efficiently. In addition, joint programming not only involves aligning or defining joint research agendas, but also combining and/or pooling research funding from the participating countries.</p>
          <p>Within the EU Committee for Scientific and Technical Research, the High-Level Group on Joint Programming has identified and substantiated various themes for Joint Programming Initiatives (JPIs), one of which is &#8216;A Healthy Diet for a Healthy Life (HDHL)&#8217;. The JPI HDHL was then adopted by twelve Member States that set up a management and development structure and produced a strategic research agenda <abbrgrp>
                <abbr bid="B4">4</abbr>
             </abbrgrp>. In this agenda, the JPI vision is formulated as such: &#8216;by 2030 all Europeans will have the motivation, ability and opportunity to consume a healthy diet from a variety of foods and have healthy levels of physical activity, and that the incidence of lifestyle-related diseases will have decreased significantly.&#8217;</p>
          <p>The first act of this JPI is to realise joint programming, collaboration and harmonisation to further research on the determinants of diet and physical activity. Therefore the Determinants of Diet and Physical Activity (DEDIPAC) Knowledge Hub (KH) was started to establish a European transdisciplinary research network programme on determinants of diet and physical activity and their relationship to best-practice implementation strategies for long-term behaviour changes.</p>
          <p>In this paper, we share this new European initiative in the field of behavioural nutrition and physical activity by describing the focus, organisation, aims, management and dissemination of the DEDIPAC KH and discussing the expected pros and cons and the challenges of European Joint Programming in this field.</p>
          <sec>
             <st>
                <p>The focus of DEDIPAC</p>
             </st>
             <p>The overarching goal for DEDIPAC is to understand and be able to enact the most effective ways of improving public health through interventions targeting motivation, ability and opportunity to adopt and maintain healthy dietary, physical activity and sedentary behaviours <abbrgrp>
                   <abbr bid="B4">4</abbr>
                </abbrgrp>. In order to realise more effective promotion of healthy diets and physical activity across Europe, it is necessary to enhance and harmonise the measurement and monitoring of dietary, physical activity and sedentary behaviours. In addition, their individual, socio-cultural and environmental determinants must be integrated in order to contribute to planned population health promotion <abbrgrp>
                   <abbr bid="B5">5</abbr>
                </abbrgrp>.</p>
             <p>The DEDIPAC KH aims to contribute to building the research network and infrastructure and perform preparatory work to be able to better face this challenge. More specifically, the DEDIPAC KH aims to contribute to:</p><p>1. Enabling a better standardised and more continuous pan-European &#8216;needs analysis&#8217;&#8201;, i.e. to monitor dietary, physical activity and sedentary behaviours and changes in these behaviours across the life course and within populations to identify targets and target populations for (policy) interventions;</p>
                <p>2. Exploring the main correlates and determinants of these behaviours in and across populations to help to tailor policies and interventions to target these determinants;</p>
                <p>3. Learning from successes and failures of previous and on-going interventions and policies in order to improve evaluation and increase effectiveness of future interventions and policies and to identify and benchmark best practices across Europe and compare these internationally.</p><p>
                  </p>
          </sec>
          <sec>
             <st>
                <p>Structure</p>
             </st>
             <p>The DEDIPAC KH comprises three Thematic Areas (TAs) that will be strongly interlinked and will work in parallel to cover the logical path from assessment and surveillance to public health interventions and policies via the exploration and modelling of determinants of dietary, physical activity and sedentary behaviours. The three TAs are characterised as follows:</p><p> TA 1: Assessment and harmonisation of methods for future research, surveillance and monitoring and evaluation of interventions and policies;</p>
                <p> TA 2: Determinants of dietary, physical activity and sedentary behaviours across the life course and in vulnerable groups;</p>
                <p> TA 3: Evaluation and benchmarking of public health interventions and policies aimed at improving dietary, physical activity and sedentary behaviours across the life course.</p><p>
                  </p>
             <p>Each of the TAs consist of different Work Packages (WPs) that constitute specific tasks that will be conducted by collaborating experts from different research groups within the DEDIPAC KH. Each of the TAs will deliver harmonised or aligned infrastructures, methodologies and/or evidence that will be compiled in a &#8216;toolbox&#8217; available to scientists, health promotion professionals and policy makers. This toolbox will be made accessible via the DEDIPAC website (<url>www.dedipac.eu</url>). The three TAs and their backgrounds are described in more detail below.</p>
          </sec>
          <sec>
             <st>
                <p>Thematic area 1: &#8216;Assessment and harmonisation&#8217;</p>
             </st>
             <p>To effectively develop and evaluate behavioural nutrition and physical activity interventions and policies that can be compared, translated, benchmarked and/or applied across different countries in Europe, the variability in methods to assess and monitor dietary, physical activity and sedentary behaviours and their determinants needs to be addressed first. At present, these are often study- and/or country specific and are not harmonised. Harmonised and more standardised measurement and monitoring are important prerequisites to compare evidence from different countries and to enable valid cross-country determinant research and policy evaluation. Moreover, existing national and emerging European infrastructures for surveillance, determinant research and interventions must be evaluated to assess the potential for further development of pan-European research infrastructures that can harbour these harmonised instruments.</p>
             <p>The overall objective of this TA is to provide the pan-European research community with a harmonised set of reliable and valid measurement methods to be used for future research on dietary, physical activity and sedentary behaviours and their individual, socio-cultural and environmental determinants.</p>
             <p>A harmonised and coherent set of reliable and valid state-of-the-art methods and assessment tools such as this will be identified by means of an evidence-based and expert-led overview of current and emerging assessment methodologies. As shown in Figure&#160;<figr fid="F1">1</figr>, this inventory of &#8216;state-of-the-art&#8217; methods and tools will include:
                    </p><p>1. Evaluation of their suitability for research on determinants, monitoring and surveillance of dietary, physical activity and sedentary behaviours and for evaluation of public health interventions and policies. The evaluated methods and tools will make up the contents of the DEDIPAC toolbox, which will be made freely available to the whole research community.</p>
                <p>2. Identification of gaps in current methods/tools as well as the needs and requirements for future pan-European applications of such methods. This will strengthen the foundation for developing new integrated assessment tools, by combining the previously separate assessment methods of dietary, physical activity and sedentary behaviours. The identification of research and knowledge gaps will be based on the &#8216;prioritised topics&#8216;described earlier, as well as on the inventory of topics covered in previous research.</p>
                <p>3. The feasibility and potential integration of these newly developed tools in on-going European surveillance and research infrastructures will be evaluated and aligned with emerging pan-European research and surveillance infrastructures.</p><p>
                  </p>
             
                <fig id="F1">
                   <title>
                      <p>Figure 1</p>
                   </title>
                   <caption>
                      <p>Logic framework for the tasks in Thematic Area 1 &#8216;Assessment and harmonisation of methods for future research, surveillance and monitoring and evaluation of interventions and policies&#8217;. </p>
                   </caption>
                   <text>
                      <p>
                            <b>Logic framework for the tasks in Thematic Area 1 &#8216;Assessment and harmonisation of methods for future research, surveillance and monitoring and evaluation of interventions and policies&#8217;.</b>                          
                      </p>
                   </text>
                   <graphic file="s12966-014-0143-7-1"/>
                </fig>
             
             <p>Dietary assessment methods and their limitations have been described in detail in several publications (e.g., <abbrgrp>
                   <abbr bid="B6">6</abbr>
                </abbrgrp>,<abbrgrp>
                   <abbr bid="B7">7</abbr>
                </abbrgrp>). The most widely-used, traditional methods of assessing total dietary intake are food frequency questionnaires (FFQ), 24-hour recalls and food records/diaries. These are all self-report methods and are subject to considerable measurement error and bias. Biomarkers providing objective information on diet could be an alternative, but these are only available for some selected nutrients and foods. Most evaluation studies of dietary assessment methods have assessed validity and reliability of food and nutrient intake. Much less is known about methods for assessing meal patterns and new and innovative methods under development such as web-based tools, mobile phone-based tools and camera tools. There have also been limited attempts to collect systematic information about methods that could be used across countries and cultures in Europe. Simpler, shorter and more cost-effective methods for measuring specific foods or dietary behaviours of interest in future pan-European monitoring, determinant and intervention research are needed. Moreover, the integration of novel technology needs to be considered since it has the potential to make these methods more time- and cost-effective <abbrgrp>
                   <abbr bid="B8">8</abbr>
                </abbrgrp>.</p>
             <p>Physical activity and sedentary behaviours have traditionally been assessed by self-reporting in large-scale cohort studies and surveillance systems. However, objective assessment methods, such as accelerometry, heart rate monitoring and combined accelerometry and heart rate monitoring have emerged as potential methods to assess physical activity and sedentary behaviours in large scale studies as well <abbrgrp>
                   <abbr bid="B9">9</abbr>
                </abbrgrp>,<abbrgrp>
                   <abbr bid="B10">10</abbr>
                </abbrgrp>. While much research has been conducted on the feasibility, validity and reliability of these methods to assess physical activity, less is known about these measurement techniques when used to assess sedentary behaviour. Therefore, the best available method of assessing both physical activity and sedentary behaviours in large-scale surveillance systems need to be identified.</p>
             <p>Systematic literature reviews will help to identify relevant reliability and validation studies on assessment of dietary, physical activity and sedentary behaviours and their determinants. First, reference instruments will be identified (preferably (alloyed) gold standards) for dietary behaviour, physical activity and sedentary behaviours. Then the performance of existing proxy measurements will be assessed in terms of validity and reliability and both consistency and sources of heterogeneity of the assessment methods will also be identified. Prototyping and piloting innovative assessment methods will be initiated by mapping databases of on-going research. In addition, existing pan-European datasets on reference methods (e.g. independent replications of 24-hour recalls for diet or objective activity monitors for physical activity and sedentary behaviours) will be exploited to identify the main contributors to relevant variation (between countries, risk groups, age, sex, meals) in dietary, physical activity and sedentary behaviours. This will result in the description of the European diversity and at the same time stimulate and elicit potential innovative short-cut measurement methods to be explored in a feasibility pilot study. The range of relevant dietary, physical activity and sedentary behaviours and their determinants is very broad and priorities must be set. To efficiently select the most relevant contents, we will make an inventory of topics covered in earlier research and prioritise specific areas for further research in the DEDIPAC consortium. Prioritisation of topics will assist in maintaining focus and relevance in terms of public health challenges in specific stages of the life course. For example, but without anticipating any decisions, diet related topics could include sugar-sweetened beverage or fruit and vegetable intake in schoolchildren, or vitamin D and cobalamin supplementation in community-dwelling and institutionalised older people. Similar considerations will shape the selection of topics for physical activity and sedentary behaviour.</p>
          </sec>
          <sec>
             <st>
                <p>Thematic area 2: &#8216;Determinants of dietary, physical activity and sedentary behaviour&#8217;</p>
             </st>
             <p>Dietary, physical activity and sedentary behaviours are determined by interactions between biological, psychological, sociological, economic, ecological, socio-economic and cultural factors, which are at least partly modifiable <abbrgrp>
                   <abbr bid="B11">11</abbr>
                </abbrgrp>-<abbrgrp>
                   <abbr bid="B13">13</abbr>
                </abbrgrp>. Although there is a wealth of knowledge on the individual impact of most of these factors, there is limited knowledge about the impact of their interplay and interactions on behavioural nutrition, physical activity and sedentariness, how they change over the life course, and how the determinants and their interactions differ between socio-cultural, and environmental contexts.</p>
             <p>Several frameworks and models describe the theoretical relationship between the different levels and categories of determinants of behavioural nutrition and physical activity. For example, Glass and McAtee <abbrgrp>
                   <abbr bid="B14">14</abbr>
                </abbrgrp>, have merged perspectives from the natural and social sciences by adding the biological system to a social-ecological model in which the different levels of influence (micro, meso, macro, global) indicate the proximity of the determinants to the individual engaging in the behaviour. This model incorporates the life course perspective by acknowledging potentially different determinants at different life stages, as well as the accumulative impact of behaviour on health and quality of life <abbrgrp>
                   <abbr bid="B14">14</abbr>
                </abbrgrp> (Figure&#160;<figr fid="F2">2</figr>). This model can be further enriched by the ANGELO-framework <abbrgrp>
                   <abbr bid="B15">15</abbr>
                </abbrgrp> to differentiate between the types of environmental influences and contexts that could be at play at each level (socio-cultural, physical, economic and political). Another potential addition to such models in DEDIPAC&#8217;s transdisciplinary approach could be the consideration of feedback loops and endogeneity effects explored in the economics literature (e.g. <abbrgrp>
                   <abbr bid="B16">16</abbr>
                </abbrgrp>), in which behaviours also affect the potential determinants. The Glass &amp; McAtee &#8216;starting model&#8217; provides a number of entry points for a linkage between biological (e.g. genetic) determinants/factors and more upstream/distal determinants. Specific actions related to this are being taken within the scope of DEDIPAC, including the GIS mapping of neighbourhood environments of twin pairs, which, when examining behaviour-environment associations, would allow a form of &#8216;control&#8217; for genetic predisposition, age, sex, cohort effects, most maternal influences and other known (and unknown) factors. In short, Glass and McAtee take into consideration the different determinants and levels in a systems approach, extending beyond a linear line of influence. Their model &#8211;combined with insights from other models&#8211; will provide the basis for the further exploration of determinants within DEDIPAC.
                  </p>
             
                <fig id="F2">
                   <title>
                      <p>Figure 2</p>
                   </title>
                   <caption>
                      <p>Example of a determinant framework incorporating biological and social-ecological perspectives across the life course </p>
                   </caption>
                   <text>
                      <p>
                            <b>Example of a determinant framework incorporating biological and social-ecological perspectives across the life course</b> 
                         <abbrgrp>
                            <abbr bid="B14">14</abbr>
                         </abbrgrp>
                         <b>.</b>                          
                      </p>
                   </text>
                   <graphic file="s12966-014-0143-7-2"/>
                </fig>
             
             <p>Initially, we will explore, apply and enrich this framework for the three separate behaviours or behavioural categories and will progressively try to integrate insights across the three behaviours to generate knowledge on the interplay between common determinants of these behaviours. Cross-country comparisons and exploration of these multilevel determinants in pooled (secondary) data analyses will contribute to gaining further insight in this regard. This focus on combining and integrating behavioural nutrition and physical activity research closely matches with the focus of the International Society of Behavioural Nutrition and Physical Activity.</p>
             <p>This TA will develop a European multi-disciplinary network and framework for determinant research in Europe by means of a two-stage process conducted in each of the work packages, each focusing on one of the behaviours, i.e. diet, physical activity and sedentary behaviour:</p><p>1. With the Glass &amp; McAtee model and ANGELO framework as points of departure, review and integrate the current state-of-the art determinant frameworks (uni- or multi-disciplinary).</p>
                <p>2. Proof-of-concept explorative secondary data analysis using state-of-the-art statistical methods (conducted within European transdisciplinary research networks) and explorative case studies of social inequalities and ethnic minorities.</p><p>
                  </p>
             <p>A mix of established methods will be used, including systematic literature reviews and scoping reviews, a multi-disciplinary Delphi consensual process and expert workshops (to which individuals from a variety of disciplines will be invited, which will do justice to the multi-facetted conceptual framework depicted in Figure&#160;<figr fid="F2">2</figr>), as well as secondary analyses of cross-European data. For the latter, we will be using analytical techniques such as multilevel mediation and moderation analysis, structural equation modelling of pooled data, meta-analyses of different studies, and others. In this first phase of DEDIPAC, we will not be collecting primary data.</p>
             <p>This second TA in DEDIPAC thus aims to understand the determinants of dietary, physical activity and sedentary behaviours, at both the individual and group levels, using a broad multi-disciplinary approach. In service of this multi-disciplinary and inter-behavioural scope, the use of a variety of data sources from different disciplines, focusing on different behaviours, determinants and aggregation levels is essential. There are already many disciplines involved in the Knowledge Hub &#8211; although not all relevant disciplines are fully covered yet. The disciplines that are represented currently include, among others: food and nutritional science (from molecular, epidemiological, anthropologic, dietic and public health perspectives), sport and physical activity sciences, (from epidemiological, exercise, sports medicine and biomedical perspectives), psychology (from general to health-specific, social and cognitive), biology, geography, public health, (health) economy, general/clinical medicine, informatics, engineering for mobile devices, statistics, medical biometry, sociology, policy, natural sciences, biomedicine, metabolic physiology, genomics, human ecology, environmental science, mathematics, Agro-Food Marketing etc.</p>
             <p>However, this multidisciplinary approach will generate a major challenge in achieving harmonisation and matching across data sources as well as data sharing across research groups. Novel ways to perform pooled analysis of individual-level data without actually sharing the data will be explored. For instance, EU BioSHaRE established a password-protected web portal that facilitated remote and federated analyses of the harmonised datasets conducted at each participating institution using DataSHIELD software <abbrgrp>
                   <abbr bid="B17">17</abbr>
                </abbrgrp>. Another example of data sharing and harmonisation is the International Children&#8217;s Accelerometer Database (ICAD) that pools youth accelerometer data and reanalyses raw data files in order to harmonize data between different studies <abbrgrp>
                   <abbr bid="B18">18</abbr>
                </abbrgrp>. ICAD is closely linked to DEDIPAC and will serve as an example for other harmonisation exercises within DEDIPAC. Further examination of these and other approaches to data harmonisation and sharing is one of the research infrastructure issue areas in which DEDIPAC aims to make a difference, paving the way for European collaboration and JPI&#8217;s in the years to come.</p>
          </sec>
          <sec>
             <st>
                <p>Thematic area 3: &#8216;Multilevel intervention, policy evaluation and benchmarking&#8217;</p>
             </st>
             <p>As stated in the JPI-HDHL strategic research agenda, DEDIPAC&#8217;s ultimate goal is to contribute to improving public health through interventions, actions and policies targeting dietary and physical activity behaviours <abbrgrp>
                   <abbr bid="B4">4</abbr>
                </abbrgrp>. TA 3 will use the information derived from the first two TAs to translate it into recommendations for health-promotion interventions and policies and to draft a DEDIPAC- toolbox for use in future policy and intervention monitoring, evaluation and benchmarking. TA 3 will focus on health promotion activities that are linked to the systems-oriented and social-ecological model of determinants (as described under TA 2) i.e. multilevel or multi-component interventions and actions that have the potential to reach large segments of the population, such as regional or national public health policies.</p>
             <p>
                    <it>Multilevel or multi-component interventions</it> are defined as theory-based interventions that use knowledge of the behavioural determinants at different levels (i.e. individual, socio-cultural and environmental) to improve dietary, physical activity and sedentary behaviours in individuals. We will focus in particular on multi-component interventions that take a social-ecological approach because literature reviews suggest these multi-component interventions are potentially the most effective <abbrgrp>
                   <abbr bid="B19">19</abbr>
                </abbrgrp>-<abbrgrp>
                   <abbr bid="B21">21</abbr>
                </abbrgrp>. These multi-component interventions are often not yet translated into policies to improve the target behaviours, but they could be translated into policies if adopted by governmental agencies in the future. They can therefore be regarded as feasibility/pilot interventions to inform future policy making.</p>
             <p>Several frameworks for evaluating both multi-component interventions and public policies aimed at enhancing physical activity <abbrgrp>
                   <abbr bid="B22">22</abbr>
                </abbrgrp> or diet <abbrgrp>
                   <abbr bid="B23">23</abbr>
                </abbrgrp> already exist in several countries. DEDIPAC will make use of the methods and experience of the International Network for Food and Obesity/NCDs Research, Monitoring and Action Support (INFORMAS <abbrgrp>
                   <abbr bid="B24">24</abbr>
                </abbrgrp>) when developing the toolbox for TA 3. INFORMAS was recently founded to monitor and benchmark food environments and policies globally. Standardised protocols and indicators are being developed to measure and benchmark the extent of government policy implementation and private sector actions and practices <abbrgrp>
                   <abbr bid="B24">24</abbr>
                </abbrgrp>. In addition, for four key modules (food prices, provision, promotion and retail), &#8216;environmental equity&#8217; indicators are being developed to assess progress towards reducing diet-related health inequalities. The impacts of national policies are very difficult to measure (they are rarely amenable to randomised controlled trials) and an analysis of a rich data series measuring levels of policy implementation, impacts on food environments and health outcomes is one of the few robust ways of evaluating national policies. It is foreseen that the integration of these methodologies, measures and tools into a dynamic and evolving toolbox will contribute to better understanding of the complexity of multiple interactions by developing new approaches and combining data on dietary behaviours and also on physical activity and sedentary behaviours with individual, social and environmental factors. The scientific concept underpinning this TA draws heavily on implementation science, which focuses on closing the gap between evidence on interventions and their translation into effective policies and programmes <abbrgrp>
                   <abbr bid="B25">25</abbr>
                </abbrgrp>.</p>
             <p>TA 3 will utilise the DEDIPAC- toolbox developed in TA 1 and the individual, socio-cultural- and environmental-level determinants of dietary, physical activity and sedentary behaviours described by TA 2 to develop an evaluation framework and open-access database in which policy and multi-component interventions will be described. This will include their evaluation in terms of reach, effectiveness, adoption, implementation and maintenance. This pan-European framework will then be pilot tested in ongoing interventions or policies in a number of DEDIPAC Member States and will be adapted accordingly. Eventually, the framework will outline evidence- and practice-based policy and multi-component intervention options.</p>
             <p>In order to fulfil the aforementioned aims, the draft evaluation framework will first be pilot-tested by 19 partners across nine countries using &#8216;natural experiments&#8217; or policies that are currently being implemented or have recently been implemented. An expert consensus meeting with a variety of stakeholders will be organised to agree upon a final framework. Getting their input is an essential step in shaping the end-product. A final symposium will also be organised and held to inform and consult stakeholders &#8211;with separate and joint sessions for scientists, policy makers, health promotion professionals- about the results, conclusions, recommendations and continuation of the DEDIPAC Knowledge Hub.</p>
          </sec>
          <sec>
             <st>
                <p>Management and dissemination</p>
             </st>
             <p>A consortium of 46 consortia, research institutes and groups from 12 EU Member States has been established (please refer to Additional file <supplr sid="S1">1</supplr> for a full list of scientists and Member States involved). As is the custom in these large, multi-site, international programmes, the work in the three TAs has been translated into specific tasks and deliverables in eleven WPs. The work is to be completed in three years and coordinated by a management team led by the KH coordinator. The progress and further development of this JPI is monitored and advised upon by a scientific advisory board as well as a stakeholder advisory board.</p><p>The progress and deliverables will be communicated and disseminated via the DEDIPAC website (<url>www.dedipac.eu</url>), scientific publications and non-scientific publications in English and other languages, consortium meetings, as well as in a series of workshops specifically aimed at early-career researchers. The workshops will address the conduct of systematic literature reviews, secondary data analysis and/or advanced statistical methods, for instance.</p>
          </sec>
       </sec>
       <sec>
          <st>
             <p>Discussion</p>
          </st>
          <p>The DEDIPAC KH, as described in the current paper, is the first act of the European JPI HDHL. It is a serious attempt to join forces across countries in Europe to align research focus, infrastructure and funding. It will also enable the better use of the rich European research community and infrastructure and avoid redundancy in the field of behavioural nutrition and physical activity. It is a first experiment to test whether or not joint programming such as this is indeed possible and meaningful and adds value in addition to &#8211;or instead of&#8212; national research and European Commission research programming and funding. The results generated will be of importance to policy-makers, researchers, professionals in the area of public health, the food industry and citizens. DEDIPAC KH&#8217;s focus is on developing the most effective ways of improving public health through interventions for motivating and enabling consumers to adopt and maintain healthy diets and initiate and maintain physical activity. As such, this JPI has adopted a focus very close to the mission of the International Society for Behavioural Nutrition and Physical Activity.</p>
          <p>The large variability in diet, physical activity and sedentary behaviour patterns observed across Europe, together with a great deal of diversity in political, economic, socio-cultural, physical environmental and policy contexts as well as differences in the prevalence of health conditions, provides a unique scientific opportunity to learn more about the determinants of dietary, physical activity and sedentary behaviours <abbrgrp>
                <abbr bid="B26">26</abbr>
             </abbrgrp>-<abbrgrp>
                <abbr bid="B29">29</abbr>
             </abbrgrp>. Europe is &#8211; in principle &#8211; a great living research laboratory: there is much variety in terms of determinants and behaviour, policies and interventions. However, the research arena in this field is somewhat scattered across Europe because each country sets its own research priorities, has its own funding schemes, uses different methods and measures to assess and monitor the same or very similar behaviours and determinants and sometimes even publishes in a different language. Joint programming and the establishment of a network of researchers and research infrastructure with a common purpose &#8211;directly endorsed and (financially) supported by the ministries of the participating countries&#8212; has great potential. It can contribute significantly to the necessary harmonisation, enabling valid cross-European comparisons and thus learning from progress, pitfalls and mistakes made in other countries or regions and avoiding redundancy in terms of research.</p>
          <p>One could argue that joint programming and building a network such as DEDIPAC is not needed or necessary because there are European Commission research programmes that already exist, i.e. the framework programmes and now Horizon2020. These research programmes are, by definition, coordinated and programmed at a cross-European level and adding JPI actions such as DEDIPAC may only further complicate the pan-European research infrastructure, organisation and funding arenas. However, European Commission funding constitutes only a minor part of total investment in behavioural nutrition and physical activity research across Europe <abbrgrp>
                <abbr bid="B4">4</abbr>
             </abbrgrp>. The recent negotiations on and the adoption of the multi-annual financial framework for the European Union for 2014&#8211;2020 shows that, at present, European Member States are not willing or able to substantially increase spending on European Commission-funded research. In addition to the European Commission-funded research programmes, European Union (EU) Member States have their own research programmes and funding schemes. This approach includes research on healthy eating and physical activity and, to date, these funding schemes lack true coordination, despite the fact that research priorities in the European countries in this field are very similar or in fact overlap. Additionally, Europe lags behind the United States and Japan in the percentage of gross domestic product invested in research and development. This combination of lower, less coordinated and more scattered research spending will set Europe back in the field of behavioural nutrition and physical activity research. Better alignment and coordination of research funds between Member States can thus make a significant difference. DEDIPAC is a first experiment to see if this can indeed work in practice.</p>
          <p>Another question is whether joint programming is suitable for behavioural nutrition and physical activity research. Quite a large number of European Commission-funded studies have been or are being conducted to gain more insight into determinants of diet and physical activity in different age groups across Europe. Previous and currently-running European projects such as HOPE, EURO-PREVOB, ENERGY, HELENA, IDEFICS, I-FAMILY, SPOTLIGHT, ALPHA and others have focused on determinants of dietary, physical activity and sedentary behaviours, made inventories of and recommended policies. However, even in these projects, different measurement instruments are often used and no larger-scale attempt has yet been made to harmonise and integrate the data and/or results of these projects. The institutional base of DEDIPAC is much larger than the aforementioned EU-funded projects. In addition, its multidisciplinarity and its scope is also broader. It addresses three big themes simultaneously (aligned in three thematic areas), covering three different lifestyle behaviours. DEDIPAC will make use of, but will also go beyond what has been done is separate EU funded projects, aiming to work towards agreed upon measurement standards for cross European research.</p>
          <p>A major strength of the DEDIPAC KH is its ability to facilitate the simultaneous study of dietary, physical activity and sedentary behaviours, their determinants and the policies and multi-component interventions that target these determinants and behaviours. Although these behaviours comprise sets of different specific behaviours influenced by a range of personal, socio-cultural and environmental determinants, they form the two sides of the energy-balance equation and thus need to be targeted simultaneously or at least in relation to each other in order to promote synergy and avoid negative compensation. The DEDIPAC KH will help to identify common ground between dietary, physical activity and sedentary behaviours with regard to assessment, surveillance, determinants and intervention strategies. Ultimately, this will facilitate better synchronisation in diet and physical activity research, policy and practice.</p>
          <p>As a potential downside, it should be acknowledged that working in multi-disciplinary teams from a multitude of research institutes across 12 countries (at present, but other countries have expressed interest in joining DEDIPAC), with 8 different main languages, with financial support from as well as reporting to 12 different funding agencies, is already a major organisational endeavour, to say the least. In the context of a complex organizational structure such as this, it is even more challenging to reach consensus about harmonisation of measures, benchmarking of policies, data sharing and other big issues. Nevertheless, the DEDIPAC consortium was able to write, submit and receive approval for the DEDIPAC proposal from the 12 countries, all in a matter of about four months&#8217; time. Furthermore, all WPs have started and are working according to schedule in the first several months after the official start of DEDIPAC, i.e. 1 December 2013.</p>
          <p>The current DEDIPAC consortium has good coverage of the different relevant disciplines. Because DEDIPAC originates in the JPI HDHL, experts in human nutrition are very well represented. The focus of DEDIPAC was extended to also include physical activity and sedentary behaviour at an early stage and these areas of expertise are therefore also very much involved. However, DEDIPAC&#8217;s focus on multilevel determinants towards a more systems-level approach to behavioural determinants and including policy evaluation and benchmarking, requires involvement of a range of social and behavioural expertise that needs further strengthening within the consortium. From the very start and made explicit in the approved proposal, DEDIPAC will be open to other groups and will, wherever necessary, actively try to include new groups with expertise to further enrich the KH. This first DEDIPAC act will help to expand on existing collaborations and assist in building new ones while identifying expertise gaps within the KH. This may help the KH to stay relevant in the longer term. Another way to improve the long-term sustainability of the DEDIPAC approach and community are the dissemination and capacity building activities. These activities aim to expand the DEDIPAC community and to train early-career scientist in this multi-disciplinary approach.</p>
       </sec>
       <sec>
          <st>
             <p>Conclusion</p>
          </st>
          <p>The DEDIPAC KH uses joint research programming and funding across different countries in Europe to work towards better research harmonisation and collaboration in the field of behavioural nutrition and physical activity research. As a first joint action in this joint programming initiative, DEDIPAC has already made an excellent start in setting up a complex, cross-country organisational structure.</p>
       </sec>
       <sec>
          <st>
             <p>Abbreviations</p>
          </st>
          <p>DEDIPAC: Determinants of diet and physical activity</p>
          <p>HDHL: A healthy diet for a healthy life</p>
          <p>JPI: Joint programming initiative</p>
          <p>KH: Knowledge hub</p>
          <p>TA: Thematic area</p>
          <p>WP: Work package</p>
       </sec>
       <sec>
          <st>
             <p>Competing interests</p>
          </st>
          <p>The authors declare that they have no competing interests.</p>
       </sec>
       <sec>
          <st>
             <p>Authors&#8217; contributions</p>
          </st>
          <p>JL, together with HvdP and JB drafted the first version of the article. They were, in collaboration with all other co-authors involved in designing the Knowledge Hub. All (co)authors provided comments on the draft manuscript, and read and approved the final version.</p>
       </sec>
       <sec>
          <st>
             <p>Additional file</p>
          </st>
          <suppl id="S1">
             <title>
                <p>Additional file 1:</p>
             </title>
             <text>
                <p>
                              <b>Full consortium of the DEDIPAC Knowledge Hub.</b>                            
                </p>
             </text>
             <file name="s12966-014-0143-7-S1.docx">
                <p>Click here for file</p>
             </file>
          </suppl>
          <p>
                    
                  </p>
       </sec>
    </bdy>
    <bm>
       <ack>
          <sec>
             <st>
                <p>Acknowledgements</p>
             </st>
             <p>This work is supported by the Joint Programming Initiative &#8216;Healthy Diet for a Healthy Life&#8217;. The funding agencies supporting this work are (in alphabetical order of participating Member States): Austria: Austrian Federal Ministry of Science and Research; Belgium: Research Foundation &#8211; Flanders; Finland: Finnish Funding Agency for Technology and Innovation (Tekes); France: Institut National de la Recherche Agronomique (INRA); Germany: Federal Ministry of Education and Research; Italy: Ministry of Education, University and Research/ Ministry of Agriculture Food and Forestry Policies; Ireland: The Health Research Board (HRB); The Netherlands: The Netherlands Organisation for Health Research and Development (ZonMw); Norway: The Research Council of Norway, Division for Society and Health; Poland: The National Centre for Research and Development; Spain: Carlos III Institute of Health (ISCIII); The United Kingdom: The Medical Research Council (MRC).</p>
          </sec>
       </ack>
       <refgrp>
          
          <bibl id="B1">
             <source>Noncommunicable Diseases Country Profiles</source>
             <pubdate>2011</pubdate>
          </bibl>
          <bibl id="B2">
             <title>
                <p>Trends in eating patterns, physical activity and socio-demographic factors in relation to postpartum body weight development</p>
             </title>
             <aug>
                <au>
                   <snm>Ohlin</snm>
                   <fnm>A</fnm>
                </au>
                <au>
                   <snm>Rossner</snm>
                   <fnm>S</fnm>
                </au>
             </aug>
             <source>Br J Nutr</source>
             <pubdate>1994</pubdate>
             <volume>71</volume>
             <fpage>457</fpage>
             <lpage>470</lpage>
             <xrefbib>
                <pubidlist>
                   <pubid idtype="doi">10.1079/BJN19940155</pubid>
                </pubidlist>
             </xrefbib>
          </bibl>
          <bibl id="B3">
             <aug>
                <au>
                   <snm>Spirduso</snm>
                   <fnm>W</fnm>
                </au>
                <au>
                   <snm>Francis</snm>
                   <fnm>K</fnm>
                </au>
                <au>
                   <snm>MacRae</snm>
                   <fnm>P</fnm>
                </au>
             </aug>
             <source>Physical Dimensions of Aging</source>
             <edition>2</edition>
             <pubdate>2005</pubdate>
          </bibl>
          <bibl id="B4">
             
                <url>http://www.healthydietforhealthylife.eu/images/documents/jpi_sra.pdf</url>
             
<note>
                <b>Strategic Research Agenda.</b>  2013.</note>
          </bibl>
          <bibl id="B5">
             <title>
                <p>Theory, evidence and Intervention Mapping to improve behavior nutrition and physical activity interventions</p>
             </title>
             <aug>
                <au>
                   <snm>Brug</snm>
                   <fnm>J</fnm>
                </au>
                <au>
                   <snm>Oenema</snm>
                   <fnm>A</fnm>
                </au>
                <au>
                   <snm>Ferreira</snm>
                   <fnm>I</fnm>
                </au>
             </aug>
             <source>Int J Behav Nutr Phys Act</source>
             <pubdate>2005</pubdate>
             <volume>2</volume>
             <fpage>2</fpage>
             <xrefbib>
                <pubidlist>
                   <pubid idtype="doi">10.1186/1479-5868-2-2</pubid>
                </pubidlist>
             </xrefbib>
          </bibl>
          <bibl id="B6">
             
                <url>http://nugo.dife.de/twiki41/pub/IDAMES/IdamesResults/2009_WP4_Report.pdf/</url>
             
<note>IDAMES. 2009 . </note>
          </bibl>
          <bibl id="B7">
             <title>
                <p>Dietary assessment methodology</p>
             </title>
             <aug>
                <au>
                   <snm>Thompson</snm>
                   <fnm>F</fnm>
                </au>
                <au>
                   <snm>Subar</snm>
                   <fnm>A</fnm>
                </au>
             </aug>
             <source>Nutr Prev Treat Dis</source>
             <pubdate>2013</pubdate>
             <fpage>12</fpage>
             <lpage>15</lpage>
          </bibl>
          <bibl id="B8">
             <title>
                <p>Feasibility of innovative dietary assessment in epidemiological studies using the approach of combining different assessment instruments</p>
             </title>
             <aug>
                <au>
                   <snm>Illner</snm>
                   <fnm>A-K</fnm>
                </au>
                <au>
                   <snm>Harttig</snm>
                   <fnm>U</fnm>
                </au>
                <au>
                   <snm>Tognon</snm>
                   <fnm>G</fnm>
                </au>
                <au>
                   <snm>Palli</snm>
                   <fnm>D</fnm>
                </au>
                <au>
                   <snm>Salvini</snm>
                   <fnm>S</fnm>
                </au>
                <au>
                   <snm>Bower</snm>
                   <fnm>E</fnm>
                </au>
                <au>
                   <snm>Amiano</snm>
                   <fnm>P</fnm>
                </au>
                <au>
                   <snm>Kassik</snm>
                   <fnm>T</fnm>
                </au>
                <au>
                   <snm>Metspalu</snm>
                   <fnm>A</fnm>
                </au>
                <au>
                   <snm>Engeset</snm>
                   <fnm>D</fnm>
                </au>
                <au>
                   <snm>Lund</snm>
                   <fnm>E</fnm>
                </au>
                <au>
                   <snm>Ward</snm>
                   <fnm>H</fnm>
                </au>
                <au>
                   <snm>Slimani</snm>
                   <fnm>N</fnm>
                </au>
                <au>
                   <snm>Bergmann</snm>
                   <fnm>M</fnm>
                </au>
                <au>
                   <snm>Wagner</snm>
                   <fnm>K</fnm>
                </au>
                <au>
                   <snm>Boeing</snm>
                   <fnm>H</fnm>
                </au>
             </aug>
             <source>Public Health Nutr</source>
             <pubdate>2011</pubdate>
             <volume>14</volume>
             <fpage>1055</fpage>
             <lpage>1063</lpage>
             <xrefbib>
                <pubidlist>
                   <pubid idtype="doi">10.1017/S1368980010003587</pubid>
                </pubidlist>
             </xrefbib>
          </bibl>
          <bibl id="B9">
             <title>
                <p>Global physical activity levels: Surveillance progress, pitfalls, and prospects</p>
             </title>
             <aug>
                <au>
                   <snm>Hallal</snm>
                   <fnm>PC</fnm>
                </au>
                <au>
                   <snm>Andersen</snm>
                   <fnm>LB</fnm>
                </au>
                <au>
                   <snm>Bull</snm>
                   <fnm>FC</fnm>
                </au>
                <au>
                   <snm>Guthold</snm>
                   <fnm>R</fnm>
                </au>
                <au>
                   <snm>Haskell</snm>
                   <fnm>W</fnm>
                </au>
                <au>
                   <snm>Ekelund</snm>
                   <fnm>U</fnm>
                </au>
                <au>
                   <snm>Alkandari</snm>
                   <fnm>JR</fnm>
                </au>
                <au>
                   <snm>Bauman</snm>
                   <fnm>AE</fnm>
                </au>
                <au>
                   <snm>Blair</snm>
                   <fnm>SN</fnm>
                </au>
                <au>
                   <snm>Brownson</snm>
                   <fnm>RC</fnm>
                </au>
                <au>
                   <snm>Craig</snm>
                   <fnm>CL</fnm>
                </au>
                <au>
                   <snm>Goenka</snm>
                   <fnm>S</fnm>
                </au>
                <au>
                   <snm>Heath</snm>
                   <fnm>GW</fnm>
                </au>
                <au>
                   <snm>Inoue</snm>
                   <fnm>S</fnm>
                </au>
                <au>
                   <snm>Kahlmeier</snm>
                   <fnm>S</fnm>
                </au>
                <au>
                   <snm>Katzmarzyk</snm>
                   <fnm>PT</fnm>
                </au>
                <au>
                   <snm>Kohl</snm>
                   <fnm>HW</fnm>
                </au>
                <au>
                   <snm>Lambert</snm>
                   <fnm>EV</fnm>
                </au>
                <au>
                   <snm>Lee</snm>
                   <fnm>IM</fnm>
                </au>
                <au>
                   <snm>Leetongin</snm>
                   <fnm>G</fnm>
                </au>
                <au>
                   <snm>Lobelo</snm>
                   <fnm>F</fnm>
                </au>
                <au>
                   <snm>Loos</snm>
                   <fnm>RJF</fnm>
                </au>
                <au>
                   <snm>Marcus</snm>
                   <fnm>B</fnm>
                </au>
                <au>
                   <snm>Martin</snm>
                   <fnm>BW</fnm>
                </au>
                <au>
                   <snm>Owen</snm>
                   <fnm>N</fnm>
                </au>
                <au>
                   <snm>Parra</snm>
                   <fnm>DC</fnm>
                </au>
                <au>
                   <snm>Pratt</snm>
                   <fnm>M</fnm>
                </au>
                <au>
                   <snm>Puska</snm>
                   <fnm>P</fnm>
                </au>
                <au>
                   <snm>Ogilvie</snm>
                   <fnm>D</fnm>
                </au>
                <au>
                   <snm>Reis</snm>
                   <fnm>RS</fnm>
                </au>
                <etal/>
             </aug>
             <source>Lancet</source>
             <pubdate>2012</pubdate>
             <volume>380</volume>
             <fpage>247</fpage>
             <lpage>257</lpage>
             <xrefbib>
                <pubidlist>
                   <pubid idtype="doi">10.1016/S0140-6736(12)60646-1</pubid>
                </pubidlist>
             </xrefbib>
          </bibl>
          <bibl id="B10">
             <title>
                <p>Methods of measurement in epidemiology: sedentary behaviour</p>
             </title>
             <aug>
                <au>
                   <snm>Atkin</snm>
                   <fnm>AJ</fnm>
                </au>
                <au>
                   <snm>Gorely</snm>
                   <fnm>T</fnm>
                </au>
                <au>
                   <snm>Clemes</snm>
                   <fnm>SA</fnm>
                </au>
                <au>
                   <snm>Yates</snm>
                   <fnm>T</fnm>
                </au>
                <au>
                   <snm>Edwardson</snm>
                   <fnm>C</fnm>
                </au>
                <au>
                   <snm>Brage</snm>
                   <fnm>S</fnm>
                </au>
                <au>
                   <snm>Salmon</snm>
                   <fnm>J</fnm>
                </au>
                <au>
                   <snm>Marshall</snm>
                   <fnm>SJ</fnm>
                </au>
                <au>
                   <snm>Biddle</snm>
                   <fnm>SJH</fnm>
                </au>
             </aug>
             <source>Int J Epidemiol</source>
             <pubdate>2012</pubdate>
             <volume>41</volume>
             <fpage>1460</fpage>
             <lpage>1471</lpage>
             <xrefbib>
                <pubidlist>
                   <pubid idtype="doi">10.1093/ije/dys118</pubid>
                </pubidlist>
             </xrefbib>
          </bibl>
          <bibl id="B11">
             <title>
                <p>Environmental and societal factors affect food choice and physical activity: rationale, influences, and leverage points</p>
             </title>
             <aug>
                <au>
                   <snm>Booth</snm>
                   <fnm>SL</fnm>
                </au>
                <au>
                   <snm>Sallis</snm>
                   <fnm>JF</fnm>
                </au>
                <au>
                   <snm>Ritenbaugh</snm>
                   <fnm>C</fnm>
                </au>
                <au>
                   <snm>Hill</snm>
                   <fnm>JO</fnm>
                </au>
                <au>
                   <snm>Birch</snm>
                   <fnm>LL</fnm>
                </au>
                <au>
                   <snm>Frank</snm>
                   <fnm>LD</fnm>
                </au>
                <au>
                   <snm>Glanz</snm>
                   <fnm>K</fnm>
                </au>
                <au>
                   <snm>Himmelgreen</snm>
                   <fnm>DA</fnm>
                </au>
                <au>
                   <snm>Mudd</snm>
                   <fnm>M</fnm>
                </au>
                <au>
                   <snm>Popkin</snm>
                   <fnm>BM</fnm>
                </au>
                <au>
                   <snm>Rickard</snm>
                   <fnm>KA</fnm>
                </au>
                <au>
                   <snm>St</snm>
                   <fnm>JS</fnm>
                </au>
                <au>
                   <snm>Hays</snm>
                   <fnm>NP</fnm>
                </au>
             </aug>
             <source>Nutr Rev</source>
             <pubdate>2001</pubdate>
             <volume>59</volume>
             <fpage>S21</fpage>
             <lpage>S39</lpage>
             <xrefbib>
                <pubidlist>
                   <pubid idtype="doi">10.1111/j.1753-4887.2001.tb06983.x</pubid>
                </pubidlist>
             </xrefbib>
          </bibl>
          <bibl id="B12">
             <title>
                <p>Nutrition education: linking research, theory, and practice</p>
             </title>
             <aug>
                <au>
                   <snm>Contento</snm>
                   <fnm>IR</fnm>
                </au>
             </aug>
             <source>Asia Pac J Clin Nutr</source>
             <pubdate>2008</pubdate>
             <volume>17</volume>
             <issue>Suppl 1</issue>
             <fpage>176</fpage>
             <lpage>179</lpage>
          </bibl>
          <bibl id="B13">
             <source>Dietary Behaviours and Practices. Determinants, Action, Outcomes</source>
             <publisher>INRA publisher, Paris</publisher>
             <pubdate>2010</pubdate>
          </bibl>
          <bibl id="B14">
             <title>
                <p>Behavioral science at the crossroads in public health: extending horizons, envisioning the future</p>
             </title>
             <aug>
                <au>
                   <snm>Glass</snm>
                   <fnm>TA</fnm>
                </au>
                <au>
                   <snm>McAtee</snm>
                   <fnm>MJ</fnm>
                </au>
             </aug>
             <source>Soc Sci Med</source>
             <pubdate>2006</pubdate>
             <volume>62</volume>
             <fpage>1650</fpage>
             <lpage>1671</lpage>
             <xrefbib>
                <pubidlist>
                   <pubid idtype="doi">10.1016/j.socscimed.2005.08.044</pubid>
                </pubidlist>
             </xrefbib>
          </bibl>
          <bibl id="B15">
             <title>
                <p>Dissecting obesogenic environments: the development and application of a framework for identifying and prioritizing environmental interventions for obesity</p>
             </title>
             <aug>
                <au>
                   <snm>Swinburn</snm>
                   <fnm>B</fnm>
                </au>
                <au>
                   <snm>Egger</snm>
                   <fnm>G</fnm>
                </au>
                <au>
                   <snm>Raza</snm>
                   <fnm>F</fnm>
                </au>
             </aug>
             <source>Prev Med</source>
             <pubdate>1999</pubdate>
             <volume>29</volume>
             <fpage>563</fpage>
             <lpage>570</lpage>
             <xrefbib>
                <pubidlist>
                   <pubid idtype="doi">10.1006/pmed.1999.0585</pubid>
                </pubidlist>
             </xrefbib>
          </bibl>
          <bibl id="B16">
             <title>
                <p>Economics of diet and health: research challenges</p>
             </title>
             <aug>
                <au>
                   <snm>Shogren</snm>
                   <fnm>JF</fnm>
                </au>
             </aug>
             <source>Food Econ Acta Agric Scand Sect C</source>
             <pubdate>2005</pubdate>
             <volume>2</volume>
             <fpage>117</fpage>
             <lpage>127</lpage>
          </bibl>
          <bibl id="B17">
             <title>
                <p>DataSHIELD: resolving a conflict in contemporary bioscience&#8212;performing a pooled analysis of individual-level data without sharing the data</p>
             </title>
             <aug>
                <au>
                   <snm>Wolfson</snm>
                   <fnm>M</fnm>
                </au>
                <au>
                   <snm>Wallace</snm>
                   <fnm>SE</fnm>
                </au>
                <au>
                   <snm>Masca</snm>
                   <fnm>N</fnm>
                </au>
                <au>
                   <snm>Rowe</snm>
                   <fnm>G</fnm>
                </au>
                <au>
                   <snm>Sheehan</snm>
                   <fnm>NA</fnm>
                </au>
                <au>
                   <snm>Ferretti</snm>
                   <fnm>V</fnm>
                </au>
                <au>
                   <snm>LaFlamme</snm>
                   <fnm>P</fnm>
                </au>
                <au>
                   <snm>Tobin</snm>
                   <fnm>MD</fnm>
                </au>
                <au>
                   <snm>Macleod</snm>
                   <fnm>J</fnm>
                </au>
                <au>
                   <snm>Little</snm>
                   <fnm>J</fnm>
                </au>
                <au>
                   <snm>Fortier</snm>
                   <fnm>I</fnm>
                </au>
                <au>
                   <snm>Knoppers</snm>
                   <fnm>BM</fnm>
                </au>
                <au>
                   <snm>Burton</snm>
                   <fnm>PR</fnm>
                </au>
             </aug>
             <source>Int J Epidemiol</source>
             <pubdate>2010</pubdate>
             <volume>39</volume>
             <issue>5</issue>
             <fpage>1372</fpage>
             <lpage>1382</lpage>
             <xrefbib>
                <pubidlist>
                   <pubid idtype="doi">10.1093/ije/dyq111</pubid>
                </pubidlist>
             </xrefbib>
          </bibl>
          <bibl id="B18">
             <title>
                <p>International children&#8217;s accelerometry database (ICAD): design and methods</p>
             </title>
             <aug>
                <au>
                   <snm>Sherar</snm>
                   <fnm>LB</fnm>
                </au>
                <au>
                   <snm>Griew</snm>
                   <fnm>P</fnm>
                </au>
                <au>
                   <snm>Esliger</snm>
                   <fnm>DW</fnm>
                </au>
                <au>
                   <snm>Cooper</snm>
                   <fnm>AR</fnm>
                </au>
                <au>
                   <snm>Ekelund</snm>
                   <fnm>U</fnm>
                </au>
                <au>
                   <snm>Judge</snm>
                   <fnm>K</fnm>
                </au>
                <au>
                   <snm>Riddoch</snm>
                   <fnm>C</fnm>
                </au>
             </aug>
             <source>BMC Public Health</source>
             <pubdate>2011</pubdate>
             <volume>11</volume>
             <fpage>485</fpage>
             <xrefbib>
                <pubidlist>
                   <pubid idtype="doi">10.1186/1471-2458-11-485</pubid>
                </pubidlist>
             </xrefbib>
          </bibl>
          <bibl id="B19">
             <title>
                <p>School-based interventions promoting both physical activity and healthy eating in Europe: a systematic review within the HOPE project</p>
             </title>
             <aug>
                <au>
                   <snm>De Bourdeaudhuij</snm>
                   <fnm>I</fnm>
                </au>
                <au>
                   <snm>Van Cauwenberghe</snm>
                   <fnm>E</fnm>
                </au>
                <au>
                   <snm>Spittaels</snm>
                   <fnm>H</fnm>
                </au>
                <au>
                   <snm>Oppert</snm>
                   <fnm>JM</fnm>
                </au>
                <au>
                   <snm>Rostami</snm>
                   <fnm>C</fnm>
                </au>
                <au>
                   <snm>Brug</snm>
                   <fnm>J</fnm>
                </au>
                <au>
                   <snm>Van</snm>
                   <fnm>LF</fnm>
                </au>
                <au>
                   <snm>Lobstein</snm>
                   <fnm>T</fnm>
                </au>
                <au>
                   <snm>Maes</snm>
                   <fnm>L</fnm>
                </au>
             </aug>
             <source>Obes Rev</source>
             <pubdate>2011</pubdate>
             <volume>12</volume>
             <fpage>205</fpage>
             <lpage>216</lpage>
             <xrefbib>
                <pubidlist>
                   <pubid idtype="doi">10.1111/j.1467-789X.2009.00711.x</pubid>
                </pubidlist>
             </xrefbib>
          </bibl>
          <bibl id="B20">
             <title>
                <p>Evidence-based intervention in physical activity: lessons from around the world</p>
             </title>
             <aug>
                <au>
                   <snm>Heath</snm>
                   <fnm>GW</fnm>
                </au>
                <au>
                   <snm>Parra</snm>
                   <fnm>DC</fnm>
                </au>
                <au>
                   <snm>Sarmiento</snm>
                   <fnm>OL</fnm>
                </au>
                <au>
                   <snm>Andersen</snm>
                   <fnm>LB</fnm>
                </au>
                <au>
                   <snm>Owen</snm>
                   <fnm>N</fnm>
                </au>
                <au>
                   <snm>Goenka</snm>
                   <fnm>S</fnm>
                </au>
                <au>
                   <snm>Montes</snm>
                   <fnm>F</fnm>
                </au>
                <au>
                   <snm>Brownson</snm>
                   <fnm>RC</fnm>
                </au>
             </aug>
             <source>Lancet</source>
             <pubdate>2012</pubdate>
             <volume>380</volume>
             <fpage>272</fpage>
             <lpage>281</lpage>
             <xrefbib>
                <pubidlist>
                   <pubid idtype="doi">10.1016/S0140-6736(12)60816-2</pubid>
                </pubidlist>
             </xrefbib>
          </bibl>
          <bibl id="B21">
             <title>
                <p>Sustainable prevention of obesity through integrated strategies: The SPOTLIGHT project&#8217;s conceptual framework and design</p>
             </title>
             <aug>
                <au>
                   <snm>Lakerveld</snm>
                   <fnm>J</fnm>
                </au>
                <au>
                   <snm>Brug</snm>
                   <fnm>J</fnm>
                </au>
                <au>
                   <snm>Bot</snm>
                   <fnm>S</fnm>
                </au>
                <au>
                   <snm>Teixeira</snm>
                   <fnm>P</fnm>
                </au>
                <au>
                   <snm>Rutter</snm>
                   <fnm>H</fnm>
                </au>
                <au>
                   <snm>Woodward</snm>
                   <fnm>E</fnm>
                </au>
                <au>
                   <snm>Samdal</snm>
                   <fnm>O</fnm>
                </au>
                <au>
                   <snm>Stockley</snm>
                   <fnm>L</fnm>
                </au>
                <au>
                   <snm>De Bourdeaudhuij</snm>
                   <fnm>I</fnm>
                </au>
                <au>
                   <snm>van Assema</snm>
                   <fnm>P</fnm>
                </au>
                <au>
                   <snm>Robertson</snm>
                   <fnm>A</fnm>
                </au>
                <au>
                   <snm>Lobstein</snm>
                   <fnm>T</fnm>
                </au>
                <au>
                   <snm>Oppert</snm>
                   <fnm>JM</fnm>
                </au>
                <au>
                   <snm>Adany</snm>
                   <fnm>R</fnm>
                </au>
                <au>
                   <snm>Nijpels</snm>
                   <fnm>G</fnm>
                </au>
             </aug>
             <source>BMC Public Health</source>
             <pubdate>2012</pubdate>
             <volume>12</volume>
             <fpage>793</fpage>
             <xrefbib>
                <pubidlist>
                   <pubid idtype="doi">10.1186/1471-2458-12-793</pubid>
                </pubidlist>
             </xrefbib>
          </bibl>
          <bibl id="B22">
             <aug>
                <au>
                   <snm>Cavill</snm>
                   <fnm>N</fnm>
                </au>
                <au>
                   <snm>Rutter</snm>
                   <fnm>H</fnm>
                </au>
             </aug>
             <source>Standard Evaluation Framework for Physical Activity Interventions</source>
             <publisher>NHS, UK</publisher>
             <pubdate>2012</pubdate>
          </bibl>
          <bibl id="B23">
             <aug>
                <au>
                   <snm>Roberts</snm>
                   <fnm>K</fnm>
                </au>
                <au>
                   <snm>Cavill</snm>
                   <fnm>N</fnm>
                </au>
                <au>
                   <snm>Rutter</snm>
                   <fnm>H</fnm>
                </au>
             </aug>
             <source>Standard Evaluation Framework for Dietary Interventions</source>
             <publisher>NHS, UK</publisher>
             <pubdate>2012</pubdate>
          </bibl>
          <bibl id="B24">
             <title>
                <p>INFORMAS (International Network for Food and Obesity/non-communicable diseases Research, Monitoring and Action Support): overview and key principles</p>
             </title>
             <aug>
                <au>
                   <snm>Swinburn</snm>
                   <fnm>B</fnm>
                </au>
                <au>
                   <snm>Sacks</snm>
                   <fnm>G</fnm>
                </au>
                <au>
                   <snm>Vandevijvere</snm>
                   <fnm>S</fnm>
                </au>
                <au>
                   <snm>Kumanyika</snm>
                   <fnm>S</fnm>
                </au>
                <au>
                   <snm>Lobstein</snm>
                   <fnm>T</fnm>
                </au>
                <au>
                   <snm>Neal</snm>
                   <fnm>B</fnm>
                </au>
                <au>
                   <snm>Barquera</snm>
                   <fnm>S</fnm>
                </au>
                <au>
                   <snm>Friel</snm>
                   <fnm>S</fnm>
                </au>
                <au>
                   <snm>Hawkes</snm>
                   <fnm>C</fnm>
                </au>
                <au>
                   <snm>Kelly</snm>
                   <fnm>B</fnm>
                </au>
                <au>
                   <snm>L&#8217;abb&#233;</snm>
                   <fnm>M</fnm>
                </au>
                <au>
                   <snm>Lee</snm>
                   <fnm>A</fnm>
                </au>
                <au>
                   <snm>Ma</snm>
                   <fnm>J</fnm>
                </au>
                <au>
                   <snm>Macmullan</snm>
                   <fnm>J</fnm>
                </au>
                <au>
                   <snm>Mohan</snm>
                   <fnm>S</fnm>
                </au>
                <au>
                   <snm>Monteiro</snm>
                   <fnm>C</fnm>
                </au>
                <au>
                   <snm>Rayner</snm>
                   <fnm>M</fnm>
                </au>
                <au>
                   <snm>Sanders</snm>
                   <fnm>D</fnm>
                </au>
                <au>
                   <snm>Snowdon</snm>
                   <fnm>W</fnm>
                </au>
                <au>
                   <snm>Walker</snm>
                   <fnm>C</fnm>
                </au>
             </aug>
             <source>Obes Rev</source>
             <pubdate>2013</pubdate>
             <volume>14</volume>
             <issue>Suppl 1</issue>
             <fpage>1</fpage>
             <lpage>12</lpage>
             <xrefbib>
                <pubidlist>
                   <pubid idtype="doi">10.1111/obr.12087</pubid>
                </pubidlist>
             </xrefbib>
          </bibl>
          <bibl id="B25">
             <title>
                <p>Public health. Implementation science</p>
             </title>
             <aug>
                <au>
                   <snm>Madon</snm>
                   <fnm>T</fnm>
                </au>
                <au>
                   <snm>Hofman</snm>
                   <fnm>KJ</fnm>
                </au>
                <au>
                   <snm>Kupfer</snm>
                   <fnm>L</fnm>
                </au>
                <au>
                   <snm>Glass</snm>
                   <fnm>RI</fnm>
                </au>
             </aug>
             <source>Science (80)</source>
             <pubdate>2007</pubdate>
             <volume>318</volume>
             <fpage>1728</fpage>
             <lpage>1729</lpage>
             <xrefbib>
                <pubidlist>
                   <pubid idtype="doi">10.1126/science.1150009</pubid>
                </pubidlist>
             </xrefbib>
          </bibl>
          <bibl id="B26">
             <title>
                <p>The prevalence and correlates of sitting in European adults - a comparison of 32 Eurobarometer-participating countries</p>
             </title>
             <aug>
                <au>
                   <snm>Bennie</snm>
                   <fnm>JA</fnm>
                </au>
                <au>
                   <snm>Chau</snm>
                   <fnm>JY</fnm>
                </au>
                <au>
                   <snm>van der Ploeg</snm>
                   <fnm>HP</fnm>
                </au>
                <au>
                   <snm>Stamatakis</snm>
                   <fnm>E</fnm>
                </au>
                <au>
                   <snm>Do</snm>
                   <fnm>A</fnm>
                </au>
                <au>
                   <snm>Bauman</snm>
                   <fnm>A</fnm>
                </au>
             </aug>
             <source>Int J Behav Nutr Phys Act</source>
             <pubdate>2013</pubdate>
             <volume>10</volume>
             <fpage>107</fpage>
             <xrefbib>
                <pubidlist>
                   <pubid idtype="doi">10.1186/1479-5868-10-107</pubid>
                </pubidlist>
             </xrefbib>
          </bibl>
          <bibl id="B27">
             <source>Special Eurobarometer 246 - Health and Food</source>
             <pubdate>2006</pubdate>
          </bibl>
          <bibl id="B28">
             <source>Special Eurobarometer 334 - Sport and Physical Activity</source>
             <pubdate>2010</pubdate>
          </bibl>
          <bibl id="B29">
             <source>Special Eurobarometer 329 - Health Determinants</source>
             <pubdate>2010</pubdate>
          </bibl>
       </refgrp>
    </bm>
 </art>