<art>
    <ui>s12935-014-0092-x</ui>
    <ji>1475-2867</ji>
    <fm>
       <dochead>Primary research</dochead>
       <bibl>
          <title>
             <p>Aged garlic extract protects against oxidative stress and renal changes in cisplatin-treated adult male rats</p>
          </title>
          <aug>
             <au ca="yes" id="A1">
                <snm>Nasr</snm>
                <mi>Y</mi>
                <fnm>Ashraf</fnm>
                <insr iid="I1"/>
                <insr iid="I2"/>
                <email>ashrafnaeem2013@gmail.com</email>
             </au>
             <au id="A2">
                <snm>Saleh</snm>
                <mnm>AM</mnm>
                <fnm>Hamid</fnm>
                <insr iid="I1"/>
                <email>hamidphd@hotmail.com</email>
             </au>
          </aug>
          <insg>
             <ins id="I1">
                <p>Anatomy Department, Faculty of Medicine, King Abdulaziz University, Jeddah 21589, Kingdom of Saudi Arabia</p>
             </ins>
             <ins id="I2">
                <p>Anatomy Department, Faculty of Medicine, Zagazig University, Zagazig, Egypt</p>
             </ins>
          </insg>
          <source>Cancer Cell International</source>
          <issn>1475-2867</issn>
          <pubdate>2014</pubdate>
          <volume>14</volume>
          <issue>1</issue>
          <fpage>92</fpage>
          <url>http://www.cancerci.com/content/14/1/92</url>
          <xrefbib>
             <pubidlist>
                <pubid idtype="doi">10.1186/s12935-014-0092-x</pubid>
                <pubid idtype="pmpid">25298749</pubid>
             </pubidlist>
          </xrefbib>
       </bibl>
       <history>
          <rec>
             <date>
                <day>4</day>
                <month>8</month>
                <year>2014</year>
             </date>
          </rec>
          <acc>
             <date>
                <day>5</day>
                <month>9</month>
                <year>2014</year>
             </date>
          </acc>
          <pub>
             <date>
                <day>28</day>
                <month>9</month>
                <year>2014</year>
             </date>
          </pub>
       </history>
       <cpyrt>
          <year>2014</year>
          <collab>Nasr and Saleh; licensee BioMed Central Ltd.</collab>
          <note>This is an Open Access article distributed under the terms of the Creative Commons Attribution License (<url>http://creativecommons.org/licenses/by/4.0</url>), which permits unrestricted use, distribution, and reproduction in any medium, provided the original work is properly credited. The Creative Commons Public Domain Dedication waiver (<url>http://creativecommons.org/publicdomain/zero/1.0/</url>) applies to the data made available in this article, unless otherwise stated.</note>
       </cpyrt>
       <kwdg>
          <kwd>Cisplatin</kwd>
          <kwd>Aged garlic extract</kwd>
          <kwd>Nephrotoxicity</kwd>
          <kwd>Biochemical</kwd>
          <kwd>Ultrastructure</kwd>
          <kwd>Rats</kwd>
       </kwdg>
       <abs>
          <sec>
             <st>
                <p>Abstract</p>
             </st>
             <sec>
                <st>
                   <p>Background</p>
                </st>
                <p>Cisplatin (CP) is one of the effective anticancer drugs, but it causes many side effects. Aged garlic extract (AGE) is a natural herbal product used in management of many diseases.</p>
             </sec>
             <sec>
                <st>
                   <p>Objective</p>
                </st>
                <p>This study aimed to investigate effect of AGE on CP-induced nephrotoxicity in rats.</p>
             </sec>
             <sec>
                <st>
                   <p>Material and methods</p>
                </st>
                <p>Four equal groups of adult male rats: control, AGE -treated (250&#160;mg/kg, once oral dose/ 21days), CP-treated (7.5&#160;mg/kg once i.p. on day 16th.), combined AGE and CP-treated were used. Body and kidneys weights of each rat were calculated. Serum levels of kidney biomarkers were assessed. Malondialdehyde (MDA) and reduce glutathione (GSH) levels, superoxide dismutase (SOD) and catalase (CAT) activities of renal tissues were measured as well. Renal samples from each rat were prepared for light and electron microscopic examinations.</p>
             </sec>
             <sec>
                <st>
                   <p>Results</p>
                </st>
                <p>Hemorrhage, glomerular atrophy, inflammatory cell infiltration, tubular necrosis and degeneration were observed in CP-treated rats. Also, a significant (P&lt;0.001) reduction in SOD &amp; CAT activities, GSH levels accompanied with a significant increase in serum levels of kidney biomarkers and MDA were determined in CP-treated rats compared to control group. However, most of CP-induced histomorphological, ultrastructural and biochemical changes were improved in animals pretreated with AGE.</p>
             </sec>
             <sec>
                <st>
                   <p>Conclusion</p>
                </st>
                <p>Such renoprotective effect of AGE may be attributed to its antioxidant activity.</p>
             </sec>
          </sec>
       </abs>
    </fm>
    <bdy>
       <sec>
          <st>
             <p>1
 						Introduction</p>
          </st>
          <p>Cisplatin (CP) is an inorganic, divalent, water soluble, platinum-containing compound. CP is a highly efficient anti-neoplastic drug commonly used as a first-line therapy for treatment of various solid tumors such as: stomach cancer, ovarian cancer, lung cancer, bladder cancer and germ cell tumors <abbrgrp>
                <abbr bid="B1">1</abbr>
             </abbrgrp>. The anticancer effect of CP is mediated by apoptosis and DNA-crosslinks with subsequent cytotoxic lesions in malignant cells <abbrgrp>
                <abbr bid="B2">2</abbr>
             </abbrgrp>. However, its clinical use is associated with dose and duration-dependent nephrotoxic side effect <abbrgrp>
                <abbr bid="B3">3</abbr>
             </abbrgrp>. The exact mechanism of CP-induced nephrotoxicity is not well understood. Thus, several hypotheses have been supposed to explain such effect. Generation of reactive oxygen species (ROS), impaired glutathione metabolism, alterations in the mitochondrial antioxidant enzymes such as superoxide dismutase (SOD), catalase (CAT), reduce glutathione (GSH) and increase lipid peroxidation are the most plausible mechanisms of CP-induced toxicity <abbrgrp>
                <abbr bid="B4">4</abbr>
             </abbrgrp>-<abbrgrp>
                <abbr bid="B7">7</abbr>
             </abbrgrp>. CAT and SOD are enzymes of the intrinsic antioxidant defense system, which are responsible for the dissemination of superoxide free radicals <abbrgrp>
                <abbr bid="B4">4</abbr>
             </abbrgrp>. In addition, stress on endoplasmic reticulum and activation of tumor necrosis factor-&#945; (TNF-&#945;)-mediated apoptotic pathway have been reported as pathophysiological mechanisms in CP-induced nephrotoxicity <abbrgrp>
                <abbr bid="B2">2</abbr>
             </abbrgrp>.</p>
          <p>Medicinal plants and natural herbal products have potential antioxidant activity and are therefore often administered along with chemotherapeutic agents to provide better protection against their toxic side effects <abbrgrp>
                <abbr bid="B4">4</abbr>
             </abbrgrp>,<abbrgrp>
                <abbr bid="B8">8</abbr>
             </abbrgrp>,<abbrgrp>
                <abbr bid="B9">9</abbr>
             </abbrgrp>. Therefore, to increase the clinical usefulness of CP, various free radical scavengers have been used to ameliorate CP-induced nephrotoxicity <abbrgrp>
                <abbr bid="B3">3</abbr>
             </abbrgrp>,<abbrgrp>
                <abbr bid="B8">8</abbr>
             </abbrgrp>. Recently, much attention has been given to possible role of natural dietary antioxidants in protecting the kidney against CP-induced nephrotoxicity <abbrgrp>
                <abbr bid="B8">8</abbr>
             </abbrgrp>-<abbrgrp>
                <abbr bid="B11">11</abbr>
             </abbrgrp>.</p>
          <p>Garlic is a commonly worldwide used food and its medical properties have been well recognized for centuries <abbrgrp>
                <abbr bid="B12">12</abbr>
             </abbrgrp>. Garlic and its compounds which have been reported to have diverse biological activities such as anticarcinogenic, anti-artherosclerotic, antidiabetic, renoprotective, antioxidant and immune modulation, antibacterial, antihypertensive and various other biological actions <abbrgrp>
                <abbr bid="B5">5</abbr>
             </abbrgrp>,<abbrgrp>
                <abbr bid="B12">12</abbr>
             </abbrgrp>-<abbrgrp>
                <abbr bid="B14">14</abbr>
             </abbrgrp>.</p>
          <p>Aged garlic extract (AGE) is an odorless product resulting from prolonged extraction of fresh garlic at room temperature. AGE is sold in both dry form and as a liquid containing 10% ethanol. The process of aging gently modifies harsh and irritating compounds from the raw garlic and naturally generates unique and beneficial compounds through both enzymatic and natural chemical reactions. AGE contains various antioxidant organosulfur compounds, mainly S-Allylcysteine and allicin. These compounds play an important role as antioxidants <abbrgrp>
                <abbr bid="B13">13</abbr>
             </abbrgrp>. These organosulfur compounds exert their antioxidant actions by scavenging ROS, enhancing cellular antioxidant enzymes and increasing glutathione in the cells <abbrgrp>
                <abbr bid="B12">12</abbr>
             </abbrgrp>,<abbrgrp>
                <abbr bid="B14">14</abbr>
             </abbrgrp>.</p>
          <p>AGE has been previously used to ameliorate the toxic effect of different therapeutic and toxic agents include CP <abbrgrp>
                <abbr bid="B15">15</abbr>
             </abbrgrp>, doxorubicin <abbrgrp>
                <abbr bid="B16">16</abbr>
             </abbrgrp>, acrylamide <abbrgrp>
                <abbr bid="B17">17</abbr>
             </abbrgrp> and cadmium <abbrgrp>
                <abbr bid="B18">18</abbr>
             </abbrgrp>. The present study has been designed to investigate the effect of AGE on the oxidative stress, biochemical and histomorphological changes of kidney in adult male Wistar albino rats treated with CP.</p>
       </sec>
       <sec>
          <st>
             <p>2
 						Materials and methods</p>
          </st>
          <sec>
             <st>
                <p>2.1 Animals, chemicals and experimental design</p>
             </st>
             <p>Twenty-four adult male Wister albino rats (12&#8211;14 weeks of age) were obtained from the animal house, Faculty of Medicine, Zagazig University, Zagazig, Egypt. The rats were kept under appropriate conditions of temperature (25&#8201;&#177;&#8201;2&#176;C), humidity (60&#8211;70%), light (12h dark/light cycles), free access of a commercial balanced diet and tap water ad libitum.</p>
             <p>CP was obtained in the form of commercial Egyptian Unistin Vial (Egyptian International medical Company (EIMC) United Pharmaceuticals, Cairo, Egypt).</p>
             <p>AGE (kyolic) was obtained from Wakunaga of America (Mission Viejo, CA). It was prepared by soaking sliced raw garlic (Allium sativum) in 15- 20% aqueous ethanol for at least 10&#160;months at room temperature. The extract was then filtered and concentrated under reduced pressure at low temperature. The content of water-soluble compounds was relatively high while that of oil-soluble compounds was low. AGE used in this study contained 28.6% extracted solids (286&#160;mg/ml), and S-allyl cysteine, the most abundant water-soluble compound in AGE, was present at 1.47&#160;mg/ml.</p>
             <p>After one week of acclimatization, the rats were randomly divided into four equal groups in separate plastic cages, six rats each. Group 1 (control) received single intraperitoneal (i.p.) dose of normal saline (0.5 ml) on day 16 and oral distilled water for 21 days; group II (AGE-treated) received single oral dose of AGE, 250 mg/kg body weight for 21 days. Groups III (CP-treated) received single i.p. dose of CP (7.5 mg/kg body weight) on day 16<sup>th</sup> for inducing nephrotoxicity in rats based on pilot studies, after successive administration of oral distilled water (0.5 ml) for 21 days; group IV (combined AGE+CP-treated) received single dose of AGE (250 mg/kg body weight orally for 21 days) and single i.p. dose of CP (7.5mg/kg body weight) on day 16. The rats were weighed once every three days. LD50 of CP in rats is 12 mg/kg body weight <abbrgrp>
                   <abbr bid="B19">19</abbr>
                </abbrgrp>. The dose of CP was selected on the basis of its effectiveness in inducing nephrotoxicity <abbrgrp>
                   <abbr bid="B20">20</abbr>
                </abbrgrp>.</p>
          </sec>
          <sec>
             <st>
                <p>2.2 Samples collection</p>
             </st>
             <p>On day 22<sup>th</sup>, (6&#160;days after CP injection), the rats were anesthetized by ether inhalation and a midline thoraco-abdominal incision was done to explore their viscera.</p>
             <p>
                <b>Blood samples</b> were collected through a direct intracardiac puncture from each rat. The samples were poured in sterile labeled heparinized test tubes and the sere were separated and stored in a freezer at a &#8722;20&#176;C for subsequent assessment of kidney functions.</p>
             <p>
                <b>Tissue samples:</b> kidneys of each animal were excised, cleaned from their surrounding fat and connective tissue, washed with normal saline, blotted with filter paper and weighed.</p>
             <p>
                <b>Kidney weight/body weight ratio</b> was calculated according to the following formula, organ weight ratio (%)&#8201;=&#8201;organ weight X 100/body weight <abbrgrp>
                   <abbr bid="B8">8</abbr>
                </abbrgrp>,<abbrgrp>
                   <abbr bid="B21">21</abbr>
                </abbrgrp>.</p>
          </sec>
          <sec>
             <st>
                <p>2.3 Assessment of kidney biomarkers</p>
             </st>
             <p>Serum creatinine, uric acid, urea and blood urea nitrogen (BUN) were measured using standard laboratory techniques and employing the commercially available diagnostic kits by an auto analyzer (BT 300, Japan) <abbrgrp>
                   <abbr bid="B22">22</abbr>
                </abbrgrp>.</p>
          </sec>
          <sec>
             <st>
                <p>2.4 Determination of lipid peroxidation and antioxidant enzymes</p>
             </st>
             <p>Portions from each rat&#8217;s kidneys were minced and homogenized in ice-cold phosphate buffer saline (0.05&#160;M, pH&#160;7.4). A part of the homogenate was mixed with an equal volume of 10% trichloroacetic acid (TCA) and centrifuged at 3000&#160;rpm for 15&#160;min at 4&#176;C. Its supernatant was used to determine the content of reduced glutathione (GSH) and malondialdehyde (MDA) (indicator of lipid peroxidation) enzymes. The remaining part of the homogenate was centrifuged at 17000 &#215; g for 60&#160;min at 4&#176;C and the supernatant was used for estimation the activity of superoxide dismutase (SOD) and catalase (CAT) enzymes.</p>
             <p>Lipid peroxidation was determined by estimating the level of thiobarbituric acid reactive substances (TBARS) that was used to measure the extent of MDA formed as a result of membrane lipid peroxidation. The assay was based on the formation of a pink coloured complex in a reaction between MDA and TBARS, according to the method of Ohkawa et al., <abbrgrp>
                   <abbr bid="B23">23</abbr>
                </abbrgrp>; using commercial kits (Biodiagnostic, Cairo, Egypt). The colorimetric absorbance was determined at 532&#160;nm. Specific activity was presented as nmol/mg protein. Antioxidant markers GSH, SOD, and CAT were measured by a colorimetric method using commercial kits (Biodiagnostic, Cairo, Egypt) according to the manufacturer procedures. GSH contents in kidney tissue were determined by the method of Carlberg and Mannervik <abbrgrp>
                   <abbr bid="B24">24</abbr>
                </abbrgrp>. Total SOD activity was determined by assaying the autoxidation and illumination of pyrogallol at 440&#160;nm. SOD activity in kidney tissues was determined based on the ability of the enzyme to inhibit nitroblue tetrazolium (NBT) reduction by superoxide. Data were expressed as U/mg hemoglobin <abbrgrp>
                   <abbr bid="B25">25</abbr>
                </abbrgrp>. CAT enzyme activity was measured according to the method described by Aebi <abbrgrp>
                   <abbr bid="B26">26</abbr>
                </abbrgrp>. The enzymatic activity was expressed in units (1 U decomposes 1&#160;mmol of H2O2 per minute at pH&#160;7.0.</p>
          </sec>
          <sec>
             <st>
                <p>2.5 Tissue processing</p>
             </st>
             <p>A. <b>Light Microscopy:</b> Specimen from each kidney was fixed in 10% neutral-buffered formalin solution for 48&#160;hours, dehydrated in ascending grades of ethyl alcohol, cleared in xylol and embedded in paraffin blocks. Serial sections (3-5&#160;&#956;m) were cut using microtome (Leica RM 2125, Leica Biosystems Nussloch GmbH, Germany). The kidney sections were washed in a water bath and left in the oven for dewaxing. Thereafter, the sections were stained with hematoxylin and eosin for general histological features determination, Periodic acid Schiff (PAS) stain to demonstrate mucopolysaccharides as PAS positive <abbrgrp>
                      <abbr bid="B27">27</abbr>
                   </abbrgrp>. The stained tissue-slides were mounted with DPX (Di-N-Butyl Phthalate Xylene) and covered with cover slips. All slides were examined by a light microscope (Olympus BH-2, Olympus, Tokyo, Japan).</p>
                <p>B. <b>Electron microscopy:</b> Specimens of 1&#160;mm<sup>3</sup>-size from the kidneys of each rat were immediately immersed in 2.5% glutaraldehyde buffered with 0.1&#160;M phosphate buffer for 24&#8211;48 hours. Then, the specimens were washed in phosphate buffer (pH&#160;7.2&#8211;7.4) 3&#8211;4 times for 20&#160;min every time and post-fixed in a buffered solution of 1% osmium tetroxide for 2&#160;h, after that washed in the same buffer 4 times for 20&#160;min each. After fixation, the specimens were dehydrated in ascending grades of ethyl alcohol. Then, they were cleared in propylene oxide, embedded in a mixture of 1:1 of Epon resin - Araldite for 1&#160;h. Polymerization was performed in the oven at 65&#176;C for 24&#160;hrs <abbrgrp>
                      <abbr bid="B28">28</abbr>
                   </abbrgrp>. Semi-thin sections (One &#956;m-thick) were cut with a glass knife on LKB-2000S ultramicrotome, mounted on glass slides and stained with buffered toluidine blue. The appropriate areas were selected with the light microscope. The resin blocks were trimmed to get rid of the undesired tissue. Ultrathin sections (60&#8211;90&#160;nm thick) were cut with a glass knife on a LKB ultramicrotome, and then mounted on copper grids, double stained with uranyl acetate and lead citrate. The grids were examined and photographed using a transmission electron microscope (JEOL TEM- 1200 EX, Tokyo, Japan) operated at 60&#8211;70&#160;kV, Faculty of Science, Ain Shams University.</p>
          </sec>
          <sec>
             <st>
                <p>2.6 Statistical analyses</p>
             </st>
             <p>Results were expressed as mean&#8201;&#177;&#8201;SEM. Comparison of means was done by the student&#8217;s <it>t</it>-test (One way ANOVA) and the Mann&#8211;Whitney <it>U</it> test. Values of <it>P</it>&#8201;&lt;&#8201;0.05 were considered statistically significant. Statistical evaluation was conducted with SPSS version 16.0 (SPSS Inc., Chicago, IL, USA).</p>
             <p>The study was performed after the approval of the Medical Ethical Committee of the Faculty of Medicine, Zagazig University, Zagazig City, Egypt and followed the recommendations of the National Institutes of Health Guide for Care and Use of Laboratory Animals.</p>
          </sec>
       </sec>
       <sec>
          <st>
             <p>3
 						Results</p>
          </st>
          <p>No deaths were recorded in the rats of the different groups throughout the period of the study. However, a reduction in the activity and appetite with diarrhea, loss luster and hair fall were observed in the CP-treated rats.</p>
          <sec>
             <st>
                <p>3.1 Body weight</p>
             </st>
             <p>The effects of CP treatment with or without AGE on the body and kidney weights of rats were reported (Figure&#160;<figr fid="F1">1</figr>). The final body weight of the rats showed a significant (<it>P</it> &lt; <it>0.05</it>) reduction in CP-treated rats compared to both control and AGE-treated animals. Meanwhile, insignificant (<it>P</it> &gt; <it>0.05</it>) change of the final body weight was recorded in the combined AGE and CP-treated rats compared with CP-treated rats.</p>
             
                <fig id="F1">
                   <title>
                      <p>Figure 1</p>
                   </title>
                   <caption>
                      <p>Effect of cisplatin (CP) and / or aged garlic extract (AGE) treatment on body and kidney weights of rats.</p>
                   </caption>
                   <text>
                      <p>
                         <b>Effect of cisplatin (CP) and / or aged garlic extract (AGE) treatment on body and kidney weights of rats.</b> Data are expressed as Mean &#177; SEM (n = 6). <b>A</b>: Significant difference of final body weight (BW) of the group Vs. those of control group at P. value &lt; 0. 01. <b>B</b>: Significant difference between final BW of the group Vs. Final BW of cisplatin-treated group at P. value &lt; 0.005. <b>C</b>: Significant difference between initial and final BW of same group at p. value &lt; 0.001. *: No significant difference between initial &amp; final BW (P = 0.197). BW: body weight; AGE: aged garlic extract; CP: cisplatin.</p>
                   </text>
                   <graphic file="s12935-014-0092-x-1"/>
                </fig>
             
          </sec>
          <sec>
             <st>
                <p>3.2 Kidney weights</p>
             </st>
             <p>Both absolute and relative weights of the kidneys of CP-treated rats revealed a significant (<it>P &lt; 0.001</it>) difference compared to those of the control rats. However, comparing absolute and relative kidney weights of CP-treated rats, a significant (<it>P &lt; 0.001</it>) difference was recorded compared with those of the other groups (Figure&#160;<figr fid="F1">1</figr>).</p>
          </sec>
          <sec>
             <st>
                <p>3.3 Biochemical results</p>
             </st>
             <p>A significant (<it>P &lt; 0.001</it>) increase in the serum levels of all kidney biomarkers in CP-treated rats compared to those of control rats. However, the animals pretreated with AGE showed significant (<it>P &lt; 0.001</it>) decrease in the serum levels of these biomarkers compared to those of CP-treated rats (Figure&#160;<figr fid="F2">2</figr>).</p>
             
                <fig id="F2">
                   <title>
                      <p>Figure 2</p>
                   </title>
                   <caption>
                      <p>Effects of cisplatin (CP) and/ or aged garlic extract (AGE) treatment on kidney biomarkers of rats. (A)</p>
                   </caption>
                   <text>
                      <p>
                         <b>Effects of cisplatin (CP) and/ or aged garlic extract (AGE) treatment on kidney biomarkers of rats. (A)</b> shows serum creatinine level. Parameters of serum uric acid are listed in <b>(B)</b>. Values of serum BUN are listed in <b>(C)</b>. Serum urea levels are shown in <b>(D)</b>. Data are expressed as Mean &#177; SEM (n = 6). a: Significant difference Vs. control group at P.&lt; 0.001. b: Significant difference Vs. cisplatin-treated group at P. &lt; 0.001. BUN: blood urea nitrogen. AGE: aged garlic extract. b*: P. &lt; 0.005; b**: P. &lt; 0.05.</p>
                   </text>
                   <graphic file="s12935-014-0092-x-2"/>
                </fig>
             
          </sec>
          <sec>
             <st>
                <p>3.4 Lipid peroxidation and antioxidant enzymes</p>
             </st>
             <p>Effects of AGE administration on MDA &amp; GSH levels, SOD &amp; CAT activities in renal tissues of CP-treated rats were listed in (Figure&#160;<figr fid="F3">3</figr>). The MDA level in renal tissues of CP-treated rats displayed significant (<it>P &lt; 0.001</it>) increase compared with control rats. These changes were attenuated by pre-treatment with AGE. Also, SOD &amp; CAT activities and GSH content revealed significant (<it>P &lt; 0.001</it>) reduction in renal tissues of CP-treated rats compared with the control group. Pre-treatment of rats with AGE ameliorated these CP-induced changes in the antioxidant enzymes. A significant (<it>P &lt; 0.001</it>) increase in GSH level and SOD activity accompanied with significant (<it>P &lt; 0.001</it>) reduction in MDA level were observed in AGE- pretreated renal tissues compared to those of CP-treated group. However, the renal tissue of AGE-treated rats revealed no significant (<it>P&#8201;=&#8201;0.61-0.99</it>) differences in levels of MDA &amp; GSH and activity of SOD &amp; CAT compared to control.</p>
             
                <fig id="F3">
                   <title>
                      <p>Figure 3</p>
                   </title>
                   <caption>
                      <p>Effects of aged garlic extract (AGE) administration on malondialdehyde (MDA) level, superoxide dismutase (SOD) activity, catalase (CAT) activity and reduce glutathione (GSH) level in kidneys of Wistar rats treated with cisplatin (CP). (A)</p>
                   </caption>
                   <text>
                      <p>
                         <b>Effects of aged garlic extract (AGE) administration on malondialdehyde (MDA) level, superoxide dismutase (SOD) activity, catalase (CAT) activity and reduce glutathione (GSH) level in kidneys of Wistar rats treated with cisplatin (CP). (A)</b> shows tissue level of MDA in different groups. Activities of both SOD <b>(B)</b> and CAT <b>(C)</b> in renal tissues are listed as well. Tissue level of GSH is listed in <b>(D)</b>. Data are expressed as Mean&#8201;&#177;&#8201;SEM (n&#8201;=&#8201;6). a: Significance at <it>P&#8201;&lt;&#8201;0.001</it> Vs. control group; b: Significance at <it>P&#8201;&lt;&#8201;0.001</it> Vs. cisplatin-treated group. a*: <it>P&#8201;=&#8201;0.036;</it> b*: <it>P&#8201;=&#8201;0.0038</it>; a+: <it>P&#8201;=&#8201;0.049</it>; P+: <it>P&#8201;=&#8201;0.003</it>. No significant difference (<it>P&#8201;=&#8201;0.61 - 0.99</it>) was recorded between control and AGE (Aged garlic extract)- treated groups in all parameters.</p>
                   </text>
                   <graphic file="s12935-014-0092-x-3"/>
                </fig>
             
          </sec>
          <sec>
             <st>
                <p>3.5 Histopathological results</p>
             </st>
             <p>Light microscopic examination of renal cortex revealed normal histological structure in control and AGE-treated rats (Figure&#160;<figr fid="F4">4</figr>A, B) rats. However, the renal structure of CP-treated rats revealed marked morphological disturbances at the cortico-medullary zone, where wide capsular space, shrinkage hypercellular congested glomeruli, severe tubular degeneration, tubular necrosis, apoptotic nuclear changes, exfoliation of the  proximal tubular epithelial cell lining, shedding of the apical microvilli of the proximal tubular cells, luminal dilation with excessive accumulation of homogenous exudate in the proximal tubules, intertubular hemorrhage and inflammatory cell infiltration were observed in the renal cortex. Also, degeneration and luminal dilatation with excessive accumulation of homogenous exudate in distal tubules were seen in most of the distal convoluted tubules as well (Figure&#160;<figr fid="F4">4</figr>C). Meanwhile, in AGE pre-treated rats, mild inflammatory cell infiltration and proximal tubular cell necrosis were observed in the renal parenchymal structure (Figure&#160;<figr fid="F4">4</figr>D).</p>
             
                <fig id="F4">
                   <title>
                      <p>Figure 4</p>
                   </title>
                   <caption>
                      <p>Light micrographs of the rat&#8217;s renal cortex.</p>
                   </caption>
                   <text>
                      <p>
                         <b>Light micrographs of the rat&#8217;s renal cortex.</b> Normal cortical structure is observed in the renal sections of both control <b>(A)</b> and aged garlic extract-treated <b>(B)</b> rats. Glomerular atrophy (G), wide capsular space (C), degenerated (*) proximal tubules (P) with exfoliating cells (arrow head), accumulation of hyaline cast (arrow) within its wide lumina (L), wide lumen of distal convoluted tubules (D) and interstitium inflammatory cell infiltration (I) are noticed in cisplatin-treated rats <b>(C)</b>. Wide capsular lumina (C), minimal degenerated (*) proximal tubules (P) and wide distal tubules (D) are seen in the combined aged garlic extract and cisplatin-treated rats <b>(D)</b>.&#160;H &amp; E stain x600.</p>
                   </text>
                   <graphic file="s12935-014-0092-x-4"/>
                </fig>
             
             <p>In PAS-stained sections, strong positive PAS reaction was observed in the brush border of proximal convoluted tubules (PCT), basement membrane of both PCT and distal convoluted tubules (DCT), and parietal layer of Bowman&#8217;s capsule in control (Figure&#160;<figr fid="F5">5</figr>A) and AGE-treated (Figure&#160;<figr fid="F5">5</figr>B) rats. While, weak positive PAS reaction was observed in the brush border and basement membranes of the healthy PCT &amp; DCT in CP-treated rats (Figure&#160;<figr fid="F5">5</figr>C). A positive PAS reaction was noticed in the brush border and basement membrane of PCT, basement membrane of DCT and outer layer of Bowman&#8217;s capsule in renal sections of AGE-pretreated rats (Figure&#160;<figr fid="F5">5</figr>D).</p>
             
                <fig id="F5">
                   <title>
                      <p>Figure 5</p>
                   </title>
                   <caption>
                      <p>Light micrographs of the PAS-stained sections of rat's renal cortex.</p>
                   </caption>
                   <text>
                      <p>
                         <b>Light micrographs of the PAS-stained sections of rat's renal cortex.</b> Strong positive PAS reaction is seen within the brush border (arrow) of proximal tubular epithelial cells (P), basement membrane (arrow head) of both proximal (P) and distal (D) convoluted tubules and in the outer (*) capsular membrane (C) of control <b>(A)</b> and aged garlic extract-treated <b>(B)</b> rats. Weak reaction is seen in the remaining brush border (arrow), basement tubular membranes (arrow head) and outer capsular membrane (*) in cisplatin-treated rats <b>(C)</b>. Strong positive PAS reaction is seen in the brush border (arrow), tubular membrane (arrow head), outer capsular membrane (*) in combined aged garlic extract and cisplatin-treated rats <b>(D)</b>. G: glomerulus; C Bowman&#8217;s capsule; P: proximal convoluted tubules; D: distal convoluted tubules.&#160;PAS stain x 600.</p>
                   </text>
                   <graphic file="s12935-014-0092-x-5"/>
                </fig>
             
          </sec>
          <sec>
             <st>
                <p>3.6 Ultrastructure results</p>
             </st>
             <p>Electron microscopic examination revealed normal ultrastructure of renal corpuscles in control (Figure&#160;<figr fid="F6">6</figr>A) and AGE-treated (Figure&#160;<figr fid="F6">6</figr>B) rats, where normal double-layered Bowman&#8217;s capsules with narrow capsular space were observed in renal cortex. The outer parietal layer of the Bowman&#8217;s capsule exhibited flat cells resting on basement membrane, while its inner visceral layer consisted of large podocytes having eccentric nuclei and many cytoplasmic foot processes resting on the glomerular capillary basement membrane. The glomeruli consisted of many capillary loops and electron-dense mesangial cells in-between. The glomerular capillaries were lined by fenestrated flat endothelial cells and continuous basal lamina of uniform thickness. On the other hand, the renal corpuscles of CP-treated rats showed wide capsular space, fused foot processes, dilated congested capillary loops, irregular capillary basement membrane and mesangial cell hyperplasia with excessive deposited mesangial matrix (Figure&#160;<figr fid="F6">6</figr>C). Whereas, in the AGE pre-treated rats, normal podocytes, uniform thickness of the capillary basal lamina and a few dilated congested capillary loops were observed (Figure&#160;<figr fid="F6">6</figr>D).</p>
             
                <fig id="F6">
                   <title>
                      <p>Figure 6</p>
                   </title>
                   <caption>
                      <p>Electron micrographs of the renal corpuscle of rats.</p>
                   </caption>
                   <text>
                      <p>
                         <b>Electron micrographs of the renal corpuscle of rats.</b> Normal podocytes (Pc) with primary (P1) and secondary (P2) foot processes, glomerular capillaries (C) with regular continuous basement membrane (m), fenestrated (F) endothelial cell lining (E) and mesangial cells (MC) in-between are seen in renal corpuscle of control <b>(A)</b> and aged garlic extract-treated <b>(B)</b> rats. Fused foot processes (P2), mesangial hyperplasia (MC) and irregular capillary (C) basement membrane (m) are seen in cisplatin-treated rats <b>(C)</b>. Dilated congested glomerular capillaries (C) are seen in combined aged garlic extract and cisplatin-treated rats <b>(D)</b>. B: blood cells. BM: tubular basement membrane. S: capsular space.&#160;Uranyl acetate-lead citrate Stain.</p>
                   </text>
                   <graphic file="s12935-014-0092-x-6"/>
                </fig>
             
             <p>The epithelial cells lining the PCT of control rat&#8217;s kidney revealed normal basal or mid-positioned oval nuclei with regular nuclear envelop and peripheral electron-dense heterochromatin. Their cytoplasm contained numerous rounded mitochondria, many apical pinocytotic vesicles and lysosomes. The PCT cells showed regular basal membrane with many basal infoldings. Their apical surface revealed numerous long apical microvilli projecting within the narrow tubular lumen (Figure&#160;<figr fid="F7">7</figr>A). The epithelial lining the PCT of AGE-treated rats revealed an ultrastructure with great similarity to those of the control ones (Figure&#160;<figr fid="F7">7</figr>B). However, irregular thick basement membrane with loss of its basal infoldings, rarified cytoplasm containing few pleomorphic mitochondria with electron-dense matrix, many cytoplasmic vacuoles, secondary lysosomes, irregular outlined nuclei with peripherally condensed heterochromatin and destructed apical microvilli were observed in the PCT of CP-treated rats (Figure&#160;<figr fid="F7">7</figr>C). On the other side, in the AGE-pretreated rats, normal nuclei, long apical condensed brush border, few lysosomes and a few cytoplasmic vacuoles were seen in the epithelial lining the PCT (Figure&#160;<figr fid="F7">7</figr>D).</p>
             
                <fig id="F7">
                   <title>
                      <p>Figure 7</p>
                   </title>
                   <caption>
                      <p>Electron micrographs of proximal tubular epithelial cells of rats.</p>
                   </caption>
                   <text>
                      <p>
                         <b>Electron micrographs of proximal tubular epithelial cells of rats.</b> Normal cellular ultrastructure is observed in control <b>(A)</b> and aged garlic extract-treated <b>(B)</b> rats. Marked destruction (*) of apical microvilli (mv), excessive number of lysosomes (Ly), cytoplasmic vesicles (V), irregular basement membrane (BM), degenerated mitochondria (M), marginal nuclear chromatin and apoptotic nuclei (N2) are seen in cisplatin-treated rats <b>(C)</b>. Few cytoplasmic vacuoles (V), lysosomes (Ly) are seen in combined aged garlic extract and cisplatin-treated rats <b>(D)</b>. N: oval nucleus; n: nucleolus; h: heterochromatin; ne: nuclear envelop.&#160;Uranyl acetate-lead citrate Stain.</p>
                   </text>
                   <graphic file="s12935-014-0092-x-7"/>
                </fig>
             
             <p>The DCT showed normal basic ultrastructure in the renal sections of control rats, where their epithelial cells lining exhibited apical rounded nuclei, thin regular basal lamina with many basal infoldings and many basal elongated mitochondria in-between, few lysosomes and apical tight junctions (Figure&#160;<figr fid="F8">8</figr>A). In AGE-treated rats, the epithelial cells lining the DCT revealed apical rounded nuclei, many elongated basal mitochondria, few apical lysosomes, pinocytotic vesicles and apical tight junctions (Figure&#160;<figr fid="F8">8</figr>B). However, the DCT of CP-treated rats showed apoptotic nuclear changes with fragmented nuclear envelop, thick basement membrane with few basal infoldings, small-sized degenerated mitochondria, many lysosomes and cytoplasmic vacuoles (Figure&#160;<figr fid="F8">8</figr>C). Meanwhile, the DCT of the combined AGE and CP-treated rats revealed regular basement membrane with many basal infoldings, basal oblong mitochondria and apical large euchromatic nuclei with regular nuclear envelop (Figure&#160;<figr fid="F8">8</figr>D).</p>
             
                <fig id="F8">
                   <title>
                      <p>Figure 8</p>
                   </title>
                   <caption>
                      <p>Normal regular basement membrane (BM), many basal infoldings (f), round regular nuclei (N), numerous elongated basal mitochondria (M), few lysosomes (Ly), apical junctions (J) are seen in control</p>
                   </caption>
                   <text>
                      <p>
                         <b>Normal regular basement membrane (BM), many basal infoldings (f), round regular nuclei (N), numerous elongated basal mitochondria (M), few lysosomes (Ly), apical junctions (J) are seen in control</b>
                         <b>(A)</b>
                         <b>and aged garlic extract-treated</b>
                         <b>(B) rats.</b> Regular outlined nucleus (N), few small-sized round mitochondria (M), many lysosomes (Ly) and numerous heterogenous cytoplasmic vacuoles (V) are seen in cisplatin-treated rats <b>(C)</b>. Regular round nucleus (N), regular basement membrane (BM), numerous basal infoldings (f) and apical tight junctions (J) are seen in combined aged garlic extract and cisplatin-treated rats <b>(D)</b>.&#160;Uranyl acetate-lead citrate Stain.</p>
                   </text>
                   <graphic file="s12935-014-0092-x-8"/>
                </fig>
             
          </sec>
       </sec>
       <sec>
          <st>
             <p>4
 						Discussion</p>
          </st>
          <p>CP exhibits a potent antineoplastic effect against wide variety of solid tumors. However, its uses in the clinical field was markedly limited due to the occurrence of many side effects mainly the nephrotoxicity <abbrgrp>
                <abbr bid="B1">1</abbr>
             </abbrgrp>-<abbrgrp>
                <abbr bid="B3">3</abbr>
             </abbrgrp>. As the exact mechanisms responsible for CP- induced nephrotoxicity were not fully understood; several studies have been performed to explain how CP could induce toxicity <abbrgrp>
                <abbr bid="B2">2</abbr>
             </abbrgrp>,<abbrgrp>
                <abbr bid="B3">3</abbr>
             </abbrgrp>,<abbrgrp>
                <abbr bid="B11">11</abbr>
             </abbrgrp>. To ameliorate the toxic effects of CP, many strategies have been proposed using various natural and synthetic free radical scavengers and antioxidants <abbrgrp>
                <abbr bid="B3">3</abbr>
             </abbrgrp>,<abbrgrp>
                <abbr bid="B4">4</abbr>
             </abbrgrp>,<abbrgrp>
                <abbr bid="B6">6</abbr>
             </abbrgrp>,<abbrgrp>
                <abbr bid="B7">7</abbr>
             </abbrgrp>,<abbrgrp>
                <abbr bid="B10">10</abbr>
             </abbrgrp>,<abbrgrp>
                <abbr bid="B11">11</abbr>
             </abbrgrp>,<abbrgrp>
                <abbr bid="B21">21</abbr>
             </abbrgrp>. Such substances might provide nephroprotection against CP toxicity <abbrgrp>
                <abbr bid="B11">11</abbr>
             </abbrgrp>,<abbrgrp>
                <abbr bid="B29">29</abbr>
             </abbrgrp>.</p>
          <p>AGE, a natural and dietary substance, was known to have different active antioxidant organosulfur compounds mainly S-Allylcysteine and allicin <abbrgrp>
                <abbr bid="B12">12</abbr>
             </abbrgrp>,<abbrgrp>
                <abbr bid="B13">13</abbr>
             </abbrgrp>. These compounds enhanced cellular antioxidant enzymes, increased GSH content in the cells and scavenged the free radicals <abbrgrp>
                <abbr bid="B12">12</abbr>
             </abbrgrp>-<abbrgrp>
                <abbr bid="B14">14</abbr>
             </abbrgrp>. The protective effect of AGE against doxorubicin-induced cardiotoxicity <abbrgrp>
                <abbr bid="B16">16</abbr>
             </abbrgrp>, cadmium-induced toxicity <abbrgrp>
                <abbr bid="B18">18</abbr>
             </abbrgrp> and acrylamide - induced oxidative damage in multiple organs <abbrgrp>
                <abbr bid="B17">17</abbr>
             </abbrgrp> have been previously investigated in literatures. Thus, the present study aimed to evaluate the possible protective effect of AGE against CP-induced oxidative stress and renal damage in adult male rats.</p>
          <p>In the present study, single injection of CP (7.5&#160;mg/kg&#160;i.p.) revealed a significant reduction in the final body weight of the rats compared to that of control group. In agreement with the results of this study, a significant reduction in the body weight of CP-treated rats was observed 3&#8211;5 days after single i.p injection (5&#8211;7.5&#160;mg/kg) of CP <abbrgrp>
                <abbr bid="B10">10</abbr>
             </abbrgrp>,<abbrgrp>
                <abbr bid="B21">21</abbr>
             </abbrgrp>,<abbrgrp>
                <abbr bid="B30">30</abbr>
             </abbrgrp>. The reduction of the body weight in CP-treated rats might be in part due to the direct toxic effect of CP on renal tubules that caused reduction in water reabsorbtion and excessive sodium excretion with subsequent polyuria, dehydration and reduction of body weight <abbrgrp>
                <abbr bid="B7">7</abbr>
             </abbrgrp>,<abbrgrp>
                <abbr bid="B20">20</abbr>
             </abbrgrp>,<abbrgrp>
                <abbr bid="B29">29</abbr>
             </abbrgrp>; or might be due to gastrointestinal toxicity with subsequent decrease in appetite, ingestion and assimilation of food <abbrgrp>
                <abbr bid="B7">7</abbr>
             </abbrgrp>,<abbrgrp>
                <abbr bid="B8">8</abbr>
             </abbrgrp>. On the other hand, an obvious gain in the body weight was observed in AGE pre-treated rats. Such effect gave an approval on the possible protective effect of AGE against the toxicity of CP on renal and intestinal tissues.</p>
          <p>In this study, a remarkable decrease in the absolute weight and a significant increase in the relative weight of the kidneys were observed in CP-treated rats. These results were in accordance with that of Mansour et al. <abbrgrp>
                <abbr bid="B6">6</abbr>
             </abbrgrp>; Arhoghro et al. <abbrgrp>
                <abbr bid="B8">8</abbr>
             </abbrgrp>; Anusuya et al. <abbrgrp>
                <abbr bid="B15">15</abbr>
             </abbrgrp>; Nasr <abbrgrp>
                <abbr bid="B21">21</abbr>
             </abbrgrp>; Ali and Al-Moundhri <abbrgrp>
                <abbr bid="B29">29</abbr>
             </abbrgrp> who stated that a single CP injection (7.5&#160;mg/kg&#160;i.p.) resulted in loss in the absolute and increase in relative weights of the kidneys in rats. The reduction in absolute kidney weight in CP-treated rats could be due to the damage in renal tissues and reduction in their functions <abbrgrp>
                <abbr bid="B31">31</abbr>
             </abbrgrp>. However, the increase in reno-somatic index (kidney weight/body weight ratio) might be due to the edema of renal parenchyma since CP was known to cause renal inflammation <abbrgrp>
                <abbr bid="B6">6</abbr>
             </abbrgrp>,<abbrgrp>
                <abbr bid="B9">9</abbr>
             </abbrgrp>,<abbrgrp>
                <abbr bid="B15">15</abbr>
             </abbrgrp>. The oral intake of AGE returned the relative kidney weight of CP-treated close to those of control rats. This protective effect of AGE on the kidney weights could be attributed to its anti-inflammatory effect that decreased the renal edema induced by CP <abbrgrp>
                <abbr bid="B15">15</abbr>
             </abbrgrp>. However, the AGE showed no effect on the kidney weight of normal rats. This indicated that, the AGE had no influence on the morphology and functions of the normal kidney.</p>
          <p>Serum creatinine, urea, uric acid and BUN levels were considered the main parameters that determine the glomerular filtration rate <abbrgrp>
                <abbr bid="B20">20</abbr>
             </abbrgrp>. In the present study, nephrotoxicity of CP was evident from the elevated levels of serum urea, uric acid, creatinine and BUN levels. The elevation in the serum levels of these renal biomarkers might be due to the impaired renal functions <abbrgrp>
                <abbr bid="B15">15</abbr>
             </abbrgrp>, tubular obstruction, and/or the back-leakage of the renal tubules <abbrgrp>
                <abbr bid="B20">20</abbr>
             </abbrgrp>. Such functional disturbance in CP exposed rats could indicate the ability of CP to inhibit protein synthesis in the tubular cells <abbrgrp>
                <abbr bid="B9">9</abbr>
             </abbrgrp> or to initiate lipid peroxidation and generate free radicals in renal tubules <abbrgrp>
                <abbr bid="B3">3</abbr>
             </abbrgrp>,<abbrgrp>
                <abbr bid="B4">4</abbr>
             </abbrgrp>,<abbrgrp>
                <abbr bid="B6">6</abbr>
             </abbrgrp>,<abbrgrp>
                <abbr bid="B7">7</abbr>
             </abbrgrp>. Similar findings were previously reported in different studies <abbrgrp>
                <abbr bid="B5">5</abbr>
             </abbrgrp>,<abbrgrp>
                <abbr bid="B6">6</abbr>
             </abbrgrp>,<abbrgrp>
                <abbr bid="B8">8</abbr>
             </abbrgrp>,<abbrgrp>
                <abbr bid="B20">20</abbr>
             </abbrgrp>. The elevation in the kidney biomarkers was due to the direct toxic effect of CP on the glomerular and tubular structures through the generation of ROS. Contraction of the mesangial cells with subsequent alteration in the filtration surface area resulted from the generation of ROS <abbrgrp>
                <abbr bid="B32">32</abbr>
             </abbrgrp>.</p>
          <p>However, the serum BUN, urea, uric acid and creatinine levels revealed marked improvement in the combined AGE&#8201;+&#8201;CP- treated rats. These results confirmed the ability of AGE to improve or normalize the renal function through its organosulfur compounds that could increase the antioxidant effect and decrease lipid peroxide levels by scavenging the free radicals and increasing intracellular concentration of glutathione <abbrgrp>
                <abbr bid="B15">15</abbr>
             </abbrgrp>. In agree with the results of this study, feeding of AGE provided a protective effect in other experimental studies <abbrgrp>
                <abbr bid="B5">5</abbr>
             </abbrgrp>,<abbrgrp>
                <abbr bid="B15">15</abbr>
             </abbrgrp>-<abbrgrp>
                <abbr bid="B18">18</abbr>
             </abbrgrp>.</p>
          <p>In our study, pre-treatment with AGE produced significant reduction in MDA level and significant elevation of SOD, CAT activities and GSH levels of the renal tissues in CP-treated rats. These findings provide an evidence about the antioxidant effect of AGE against CP-induced oxidative stress and lipid peroxidation. In agree with the results of this study, reduction in the activity of antioxidant enzymes (CAT &amp; SOD), increased lipid peroxidation (MDA) and depletion of GSH in renal tissues were implicated in the pathogenesis of CP nephrotoxicity <abbrgrp>
                <abbr bid="B4">4</abbr>
             </abbrgrp>-<abbrgrp>
                <abbr bid="B6">6</abbr>
             </abbrgrp>.</p>
          <p>ROS produced by xanthine-xanthine oxidase system, mitochondria and NADPH oxidase in cells directly act on lipid, proteins and DNA of the cell and destroy them <abbrgrp>
                <abbr bid="B7">7</abbr>
             </abbrgrp>. However, animals pre-treated with AGE showed significant improvement in biochemical. histological and ultrastructural changes in renal tissues induced by CP. Many studies have demonstrated that AGE prevents the oxidative stress and exerts a protective effect against different toxic agents through its powerful antioxidant and free radical scavengers <abbrgrp>
                <abbr bid="B14">14</abbr>
             </abbrgrp>-<abbrgrp>
                <abbr bid="B17">17</abbr>
             </abbrgrp>.</p>
          <p>In our study, the histopathological changes confirmed the biochemical findings, where reduction in the size of the glomerular capillary tufts, dilatation of Bowman&#8217;s capsule, degeneration, necrosis and detachment of the proximal tubular epithelial cell lining, shedding of the apical microvilli and accumulation of homogenous exudates within the dilated tubular lumina of both proximal and distal convoluted tubules were observed in renal sections at the corticomedullary zone of CP-treated rats. Some of the tubules were totally degenerated and cellular details were completely lost. Distal tubular cells were also affected. Consistent with the results of the present study, Mansour et al. <abbrgrp>
                <abbr bid="B6">6</abbr>
             </abbrgrp>; Abdelmaguid et al. <abbrgrp>
                <abbr bid="B27">27</abbr>
             </abbrgrp>, Nasr <abbrgrp>
                <abbr bid="B18">18</abbr>
             </abbrgrp>; Ali and Al-Moundhri, <abbrgrp>
                <abbr bid="B28">28</abbr>
             </abbrgrp>; Chirino et al. <abbrgrp>
                <abbr bid="B29">29</abbr>
             </abbrgrp> reported similar findings in rats exposed to different doses of CP.</p>
          <p>Glomerular atrophy, degeneration of the tubular epithelium and interstitial inflammatory cell infiltration were the main histopathological findings of CP-treated renal tissues. Although glomerular pathology was not identified in the majority of CP-treated animals <abbrgrp>
                <abbr bid="B7">7</abbr>
             </abbrgrp>; other studies have reported glomerular damage in CP-induced renal injury <abbrgrp>
                <abbr bid="B10">10</abbr>
             </abbrgrp>,<abbrgrp>
                <abbr bid="B33">33</abbr>
             </abbrgrp>,<abbrgrp>
                <abbr bid="B34">34</abbr>
             </abbrgrp>. In our study, administration of CP caused not only an extensive degeneration of the tubular epithelium but also glomerular damage as well. The histopathological observations of the present study agreed with those of the previous investigations <abbrgrp>
                <abbr bid="B18">18</abbr>
             </abbrgrp>,<abbrgrp>
                <abbr bid="B26">26</abbr>
             </abbrgrp>,<abbrgrp>
                <abbr bid="B27">27</abbr>
             </abbrgrp>,<abbrgrp>
                <abbr bid="B33">33</abbr>
             </abbrgrp>,<abbrgrp>
                <abbr bid="B34">34</abbr>
             </abbrgrp>.</p>
          <p>In addition to the histopathological findings, prominent ultrastructural changes were observed in the proximal tubular epithelial cells, where marked tubular degeneration with distinct apoptotic changes, loss of apical microvilli, irregularity of basement membrane, rarification of cytoplasm, marginal condensation of nuclear chromatin, vesiculation in the mitochondria and presence of many lysosomes were observed in CP-treated renal tissues. Irregular glomerular basement membrane, fusion of foot processes, increase mesangial matrix with proliferation of mesangial cells were observed in the electron microscopic examination of CP-treated rats as well. The ultrastructure changes in our work were in accordance with the observations of the prior investigations <abbrgrp>
                <abbr bid="B10">10</abbr>
             </abbrgrp>,<abbrgrp>
                <abbr bid="B11">11</abbr>
             </abbrgrp>,<abbrgrp>
                <abbr bid="B35">35</abbr>
             </abbrgrp>
             <b>,</b> where cytoplasmic vacuolization, dissociation of mitochondria from basal infoldings, loss of basal infoldings, many pinocytotic vesicles and lysosomes in apical region of the proximal tubular epithelial cells were reported in renal sections of CP-treated rats.</p>
          <p>Both histopathological and ultrastructural findings of the present study revealed the direct toxic effect of CP on the renal tissues. The histopathological changes obtained in the present study run parallel with the reports documented by Abdelmaguid et al. <abbrgrp>
                <abbr bid="B10">10</abbr>
             </abbrgrp>, Nasr <abbrgrp>
                <abbr bid="B21">21</abbr>
             </abbrgrp>; Chirino et al. <abbrgrp>
                <abbr bid="B30">30</abbr>
             </abbrgrp>; Ali and AL-Moundhri <abbrgrp>
                <abbr bid="B29">29</abbr>
             </abbrgrp> who found tubular necrosis and glomerular atrophy in CP-treated animals. Reduction or complete absence of the apical microvilli induced an impairment in amino acids and glucose absorption. In addition, presence of many mitochondria of variable length with dense matrix along basolateral folding was indicative of respiratory impairment. Such mitochondrial changes might be due to the response of mitochondria to overcome the direct stress of CP on renal tissues. The author added that, condensation of nuclear chromatin, presence of necrotic debris in the tubular lumen with tubular damage and appearance of lysosomal bodies in any cell might be indicating the degenerative activity and the onset of necrosis <abbrgrp>
                <abbr bid="B35">35</abbr>
             </abbrgrp>.</p>
          <p>However, in combined AGE&#8201;+&#8201;CP-treated animals, normal foot processes, glomerular mesangium, preserved apical microvilli, restored nuclear structure with no evidence of inflammatory cell infiltration were noticed in the present study.</p>
          <p>Inflammation was considered as an important mechanism in CP- induced nephrotoxicity in which TNF-&#945; showed a central role <abbrgrp>
                <abbr bid="B2">2</abbr>
             </abbrgrp>. Thus, absence of infiltration of the inflammatory cells in combined AGE&#8201;+&#8201;CP-treated renal tissues, in contrast to CP-treated tissues, could be considered as a prove to the anti-inflammatory effect of AGE <abbrgrp>
                <abbr bid="B34">34</abbr>
             </abbrgrp>. To our knowledge, this study was the first one demonstrating the protective effect of AGE on CP-induced nephrotoxicity at biochemical, histomorphological and ultrastructural levels.</p>
          <p>Apoptosis is an important way of cell death in normal and pathological processes. In the present study, different apoptotic changes, in the form of membrane budding, cell shrinkage and chromatin condensation, were observed in CP-treated renal tissue. The process of apoptosis was explained by three different pathways: extrinsic pathway, mitochondrial/intrinsic pathway <abbrgrp>
                <abbr bid="B2">2</abbr>
             </abbrgrp>. The authors added that, the mitochondrial/intrinsic pathway revealed an important role in CP-induced nephrotoxicity. Thus, the protective role of AGE on CP-induced nephrotoxicity might be primarily due to its anti-apoptotic property.</p>
          <p>The findings of present study demonstrated that most of biochemical, histological and ultrastructural alterations induced by CP treatment could be ameliorated by the pre-treatment with AGE, where the morphological and biochemical changes in AGE&#8201;+&#8201;CP-treated rats were markedly less than those observed in rats treated with CP alone.</p>
       </sec>
       <sec>
          <st>
             <p>5
 						Conclusion</p>
          </st>
          <p>From the findings of the present study, we can conclude that, AGE has an ameliorative effect against CP-induced oxidative stress and renal damage through its antioxidant, anti-inflammatory and antiapoptotic properties. However, the protective Effect of AGE against both antineoplastic activity of CP and the effect of CP on the mitochondrial intrinsic pathway did not investigate in this work. Thus, these points need further studies to be fulfilled.</p>
       </sec>
       <sec>
          <st>
             <p>Competing interests</p>
          </st>
          <p>The authors declare that they have no competing interests.</p>
       </sec>
       <sec>
          <st>
             <p>Authors&#8217; contributions</p>
          </st>
          <p>AYN carried out the idea, collection of the papers of previous literatures, design the research, practical section, examination of the microscopic slides, in addition to writing the manuscript. HAMS did the statistics of the research and revised the manuscript. Both authors read and approved the final manuscript.</p>
       </sec>
    </bdy>
    <bm>
       <ack>
          <sec>
             <st>
                <p>Acknowledgement</p>
             </st>
             <p>The authors would like to thanks the staff members of Electron Microscopic Unit, Faculty of Science, Ain Shams University, Egypt for preparation the specimens for electron microscopic examination. Many thanks to Prof. Sherif M Hassan and Prof. Abdel Moneim M Osman for their revision of this manuscript.</p>
          </sec>
       </ack>
       <refgrp>
          
          <bibl id="B1">
             <title>
                <p>Hyperthermia, cisplatin and radiation trimodality treatment: a promising cancer treatment? A review from preclinical studies to clinical application</p>
             </title>
             <aug>
                <au>
                   <snm>Bergs</snm>
                   <fnm>JW</fnm>
                </au>
                <au>
                   <snm>Franken</snm>
                   <fnm>NA</fnm>
                </au>
                <au>
                   <snm>Haveman</snm>
                   <fnm>J</fnm>
                </au>
                <au>
                   <snm>Geijsen</snm>
                   <fnm>ED</fnm>
                </au>
                <au>
                   <snm>Crezee</snm>
                   <fnm>J</fnm>
                </au>
                <au>
                   <snm>Van Bree</snm>
                   <fnm>C</fnm>
                </au>
             </aug>
             <source>Int J Hyperthermia</source>
             <pubdate>2007</pubdate>
             <volume>23</volume>
             <issue>4</issue>
             <fpage>329</fpage>
             <lpage>341</lpage>
             <xrefbib>
                <pubidlist>
                   <pubid idtype="doi">10.1080/02656730701378684</pubid>
                   <pubid idtype="pmpid" link="fulltext">17558732</pubid>
                </pubidlist>
             </xrefbib>
          </bibl>
          <bibl id="B2">
             <title>
                <p>TNF-&#945;-mediated NF-&#954;B survival signaling impairment by cisplatin enhances JNK activation allowing synergistic apoptosis of renal proximal tubular cells</p>
             </title>
             <aug>
                <au>
                   <snm>Benedetti</snm>
                   <fnm>G</fnm>
                </au>
                <au>
                   <snm>Fredriksson</snm>
                   <fnm>L</fnm>
                </au>
                <au>
                   <snm>Herpers</snm>
                   <fnm>B</fnm>
                </au>
                <au>
                   <snm>Meerman</snm>
                   <fnm>J</fnm>
                </au>
                <au>
                   <snm>van de Water</snm>
                   <fnm>B</fnm>
                </au>
                <au>
                   <snm>de Graauw</snm>
                   <fnm>M</fnm>
                </au>
             </aug>
             <source>Biochem Pharmacol</source>
             <pubdate>2013</pubdate>
             <volume>85</volume>
             <issue>2</issue>
             <fpage>274</fpage>
             <lpage>286</lpage>
             <xrefbib>
                <pubidlist>
                   <pubid idtype="doi">10.1016/j.bcp.2012.10.012</pubid>
                   <pubid idtype="pmpid" link="fulltext">23103562</pubid>
                </pubidlist>
             </xrefbib>
          </bibl>
          <bibl id="B3">
             <title>
                <p>Cisplatin induced damage in kidney genomic DNA and nephrotoxicity in male rats: the protective effect of grape seed proanthocyanidin extract</p>
             </title>
             <aug>
                <au>
                   <snm>Saad</snm>
                   <fnm>AA</fnm>
                </au>
                <au>
                   <snm>Youssef</snm>
                   <fnm>MI</fnm>
                </au>
                <au>
                   <snm>El-Shennawy</snm>
                   <fnm>LK</fnm>
                </au>
             </aug>
             <source>Food Chem Toxicol</source>
             <pubdate>2009</pubdate>
             <volume>47</volume>
             <issue>7</issue>
             <fpage>1499</fpage>
             <lpage>1506</lpage>
             <xrefbib>
                <pubidlist>
                   <pubid idtype="doi">10.1016/j.fct.2009.03.043</pubid>
                   <pubid idtype="pmpid" link="fulltext">19351554</pubid>
                </pubidlist>
             </xrefbib>
          </bibl>
          <bibl id="B4">
             <title>
                <p>Ascorbic acid and alpha tocopherol protect anticancer drug cisplatin induced nephrotoxicity in mice: a comparative study</p>
             </title>
             <aug>
                <au>
                   <snm>Ajith</snm>
                   <fnm>TA</fnm>
                </au>
                <au>
                   <snm>Usha</snm>
                   <fnm>S</fnm>
                </au>
                <au>
                   <snm>Nivitha</snm>
                   <fnm>V</fnm>
                </au>
             </aug>
             <source>Clin Chim Acta</source>
             <pubdate>2007</pubdate>
             <volume>375</volume>
             <fpage>82</fpage>
             <lpage>86</lpage>
             <xrefbib>
                <pubidlist>
                   <pubid idtype="doi">10.1016/j.cca.2006.06.011</pubid>
                   <pubid idtype="pmpid" link="fulltext">16889761</pubid>
                </pubidlist>
             </xrefbib>
          </bibl>
          <bibl id="B5">
             <title>
                <p>Garlic powder ameliorates cisplatin-induced nephrotoxicity and oxidativ<b>e</b> stress</p>
             </title>
             <aug>
                <au>
                   <snm>Razo-Rodr&#237;guez</snm>
                   <fnm>AC</fnm>
                </au>
                <au>
                   <snm>Chirino</snm>
                   <fnm>YI</fnm>
                </au>
                <au>
                   <snm>S&#225;nchez-Gonz&#225;lez</snm>
                   <fnm>DJ</fnm>
                </au>
                <au>
                   <snm>Mart&#237;nez-Mart&#237;nez</snm>
                   <fnm>CM</fnm>
                </au>
                <au>
                   <snm>Cruz</snm>
                   <fnm>C</fnm>
                </au>
                <au>
                   <snm>Pedraza-Chaverri</snm>
                   <fnm>J</fnm>
                </au>
             </aug>
             <source>J Med Food</source>
             <pubdate>2008</pubdate>
             <volume>11</volume>
             <issue>3</issue>
             <fpage>583</fpage>
             <lpage>586</lpage>
             <xrefbib>
                <pubidlist>
                   <pubid idtype="doi">10.1089/jmf.2008.0033</pubid>
                </pubidlist>
             </xrefbib>
          </bibl>
          <bibl id="B6">
             <title>
                <p>Silymarin modulates Cisplatin 10&#160;mg&#160;kg-1 induced oxidative stress and hepatotoxicity in rats</p>
             </title>
             <aug>
                <au>
                   <snm>Mansour</snm>
                   <fnm>HH</fnm>
                </au>
                <au>
                   <snm>Hafez</snm>
                   <fnm>HF</fnm>
                </au>
                <au>
                   <snm>Fahmy</snm>
                   <fnm>NM</fnm>
                </au>
             </aug>
             <source>J Biochem Mol Biol</source>
             <pubdate>2006</pubdate>
             <volume>39</volume>
             <fpage>656</fpage>
             <lpage>661</lpage>
             <xrefbib>
                <pubidlist>
                   <pubid idtype="doi">10.5483/BMBRep.2006.39.6.656</pubid>
                   <pubid idtype="pmpid" link="fulltext">17129399</pubid>
                </pubidlist>
             </xrefbib>
          </bibl>
          <bibl id="B7">
             <title>
                <p>Cisplatin nephrotoxicity: a review</p>
             </title>
             <aug>
                <au>
                   <snm>Yao</snm>
                   <fnm>X</fnm>
                </au>
                <au>
                   <snm>Panichpisal</snm>
                   <fnm>K</fnm>
                </au>
                <au>
                   <snm>Kurtzman</snm>
                   <fnm>N</fnm>
                </au>
                <au>
                   <snm>Nugent</snm>
                   <fnm>K</fnm>
                </au>
             </aug>
             <source>Am J Med Sci</source>
             <pubdate>2007</pubdate>
             <volume>334</volume>
             <fpage>115</fpage>
             <lpage>124</lpage>
             <xrefbib>
                <pubidlist>
                   <pubid idtype="doi">10.1097/MAJ.0b013e31812dfe1e</pubid>
                   <pubid idtype="pmpid" link="fulltext">17700201</pubid>
                </pubidlist>
             </xrefbib>
          </bibl>
          <bibl id="B8">
             <title>
                <p>
                   <it>Ocimum gratissimum</it> aqueous extract enhances recovery in cisplatin - induced nephrotoxicity in albino wistar rats</p>
             </title>
             <aug>
                <au>
                   <snm>Arhoghro</snm>
                   <fnm>EM</fnm>
                </au>
                <au>
                   <snm>Kpomah</snm>
                   <fnm>DE</fnm>
                </au>
                <au>
                   <snm>Uwakwe</snm>
                   <fnm>AA</fnm>
                </au>
             </aug>
             <source>Indian J Drugs &amp; Diseases</source>
             <pubdate>2012</pubdate>
             <volume>1</volume>
             <issue>5</issue>
             <fpage>129</fpage>
             <lpage>142</lpage>
          </bibl>
          <bibl id="B9">
             <title>
                <p>Launaea taraxacifolia ameliorates cisplatin- induced hepato-renal injury</p>
             </title>
             <aug>
                <au>
                   <snm>Adejuwon</snm>
                   <fnm>AS</fnm>
                </au>
                <au>
                   <snm>Femi-Akinlosotu</snm>
                   <fnm>O</fnm>
                </au>
                <au>
                   <snm>Omirinde</snm>
                   <fnm>JO</fnm>
                </au>
                <au>
                   <snm>Owolabi</snm>
                   <fnm>OR</fnm>
                </au>
                <au>
                   <snm>Afodun</snm>
                   <fnm>AM</fnm>
                </au>
             </aug>
             <source>Eur J Medicinal Plants</source>
             <pubdate>2014</pubdate>
             <volume>4</volume>
             <issue>5</issue>
             <fpage>528</fpage>
             <lpage>541</lpage>
             <xrefbib>
                <pubidlist>
                   <pubid idtype="doi">10.9734/EJMP/2014/7314</pubid>
                </pubidlist>
             </xrefbib>
          </bibl>
          <bibl id="B10">
             <title>
                <p>Protective effect of silymarin on cisplatin-induced nephrotoxicity in rats</p>
             </title>
             <aug>
                <au>
                   <snm>Abdelmaguid</snm>
                   <fnm>EN</fnm>
                </au>
                <au>
                   <snm>Hania</snm>
                   <fnm>NC</fnm>
                </au>
                <au>
                   <snm>Noura</snm>
                   <fnm>SA</fnm>
                </au>
             </aug>
             <source>Pak J Nutr</source>
             <pubdate>2010</pubdate>
             <volume>9</volume>
             <fpage>624</fpage>
             <lpage>636</lpage>
             <xrefbib>
                <pubidlist>
                   <pubid idtype="doi">10.3923/pjn.2010.624.636</pubid>
                </pubidlist>
             </xrefbib>
          </bibl>
          <bibl id="B11">
             <note>Ali DA, Abdeen AM, Ismail MF, Mostafa MA: <b>Histological, ultrastructural and immunohistochemical studies on the protective effect of ginger extract against cisplatin-induced nephrotoxicity in male rats.</b>
                <it>Toxicol Ind Health</it> 2013, published online 3 April. 2013. doi:10.1177/0748233713483198.</note>
          </bibl>
          <bibl id="B12">
             <title>
                <p>Potential health benefits of garlic (<it>allium sativum</it>): a narrative review</p>
             </title>
             <aug>
                <au>
                   <snm>Bongiorno</snm>
                   <fnm>PB</fnm>
                </au>
                <au>
                   <snm>Fratellone</snm>
                   <fnm>PM</fnm>
                </au>
                <au>
                   <snm>LoGiudice</snm>
                   <fnm>P</fnm>
                </au>
             </aug>
             <source>J Complement Integr Med</source>
             <pubdate>2008</pubdate>
             <volume>5</volume>
             <issue>1</issue>
             <fpage>1</fpage>
             <lpage>26</lpage>
             <note>Art. 1</note>
          </bibl>
          <bibl id="B13">
             <note>Colin-Gonzalez AL, Santana RA, Silva-Islas CA, Chanez-Cardenas ME, Santamar&#305;a A, Maldonado PD: <b>The antioxidant mechanisms underlying the aged garlic extract- and S- allylcysteine-induced protection.</b>
                <it>Oxid Med Cell Longev</it> 2012, 16. Article ID 907162, doi:10.1155/2012/907162.</note>
          </bibl>
          <bibl id="B14">
             <title>
                <p>Antioxidant action and therapeutic efficacy of allium sativum L</p>
             </title>
             <aug>
                <au>
                   <snm>Capasso</snm>
                   <fnm>A</fnm>
                </au>
             </aug>
             <source>Molecules</source>
             <pubdate>2013</pubdate>
             <volume>18</volume>
             <issue>1</issue>
             <fpage>690</fpage>
             <lpage>700</lpage>
             <note>doi:10.3390/molecules18010690</note>
             <xrefbib>
                <pubidlist>
                   <pubid idtype="doi">10.3390/molecules18010690</pubid>
                   <pubid idtype="pmpid" link="fulltext">23292331</pubid>
                </pubidlist>
             </xrefbib>
          </bibl>
          <bibl id="B15">
             <title>
                <p>Nephroprotective effect of ethanolic extract of garlic (Allium Sativum) on cisplatin induced nephrotoxicity in male Wistar Rats</p>
             </title>
             <aug>
                <au>
                   <snm>Anusuya</snm>
                   <fnm>N</fnm>
                </au>
                <au>
                   <snm>Durgadevi</snm>
                   <fnm>P</fnm>
                </au>
                <au>
                   <snm>Dhinek</snm>
                   <fnm>A</fnm>
                </au>
                <au>
                   <snm>Mythily</snm>
                   <fnm>S</fnm>
                </au>
             </aug>
             <source>Asian J Pharm Clin Res</source>
             <pubdate>2013</pubdate>
             <volume>6</volume>
             <issue>Suppl 4</issue>
             <fpage>97</fpage>
             <lpage>100</lpage>
          </bibl>
          <bibl id="B16">
             <title>
                <p>Aged garlic extract protects against doxorubicin-induced cardiotoxicity in rats</p>
             </title>
             <aug>
                <au>
                   <snm>Alkreathy</snm>
                   <fnm>H</fnm>
                </au>
                <au>
                   <snm>Zoheir</snm>
                   <fnm>AD</fnm>
                </au>
                <au>
                   <snm>Nessar</snm>
                   <fnm>A</fnm>
                </au>
                <au>
                   <snm>Mark</snm>
                   <fnm>S</fnm>
                </au>
                <au>
                   <snm>Soad</snm>
                   <fnm>SA</fnm>
                </au>
                <au>
                   <snm>Osman</snm>
                   <fnm>AM</fnm>
                </au>
             </aug>
             <source>Food and Chem Toxicol</source>
             <pubdate>2010</pubdate>
             <volume>48</volume>
             <fpage>951</fpage>
             <lpage>956</lpage>
             <note>doi:10.1016/jfct2010.01.005</note>
             <xrefbib>
                <pubidlist>
                   <pubid idtype="doi">10.1016/j.fct.2010.01.005</pubid>
                </pubidlist>
             </xrefbib>
          </bibl>
          <bibl id="B17">
             <title>
                <p>Garlic powder attenuates acrylamide-induced oxidative damage in multiple organs in Rat</p>
             </title>
             <aug>
                <au>
                   <snm>Abd El-Halim</snm>
                   <fnm>SS</fnm>
                </au>
                <au>
                   <snm>Mohamed</snm>
                   <fnm>MM</fnm>
                </au>
             </aug>
             <source>J Appl Sci Res</source>
             <pubdate>2012</pubdate>
             <volume>8</volume>
             <issue>1</issue>
             <fpage>168</fpage>
             <lpage>173</lpage>
             <note>ISSN 1819-544X</note>
          </bibl>
          <bibl id="B18">
             <title>
                <p>The chemopreventive effect of aged garlic extract against cadmium-induced toxicity</p>
             </title>
             <aug>
                <au>
                   <snm>Lawal</snm>
                   <fnm>AO</fnm>
                </au>
                <au>
                   <snm>Ellis</snm>
                   <fnm>EM</fnm>
                </au>
             </aug>
             <source>Environ Toxicol Pharmacol</source>
             <pubdate>2011</pubdate>
             <volume>32</volume>
             <fpage>266</fpage>
             <lpage>274</lpage>
             <xrefbib>
                <pubidlist>
                   <pubid idtype="doi">10.1016/j.etap.2011.05.012</pubid>
                   <pubid idtype="pmpid" link="fulltext">21843808</pubid>
                </pubidlist>
             </xrefbib>
          </bibl>
          <bibl id="B19">
             <aug>
                <au>
                   <snm>Platinum</snm>
                   <fnm>IPoCS(IPCS)</fnm>
                </au>
             </aug>
             <source>Environmental Health Criteria 125</source>
             <publisher>World Health Organisation, Geneva</publisher>
             <pubdate>1991</pubdate>
          </bibl>
          <bibl id="B20">
             <title>
                <p>Protective Agent, Kigelia Africana Fruit Extract, Against Cisplatin-Induced Kidney Oxidant Injury in Sprague&#8211;Dawley Rats</p>
             </title>
             <aug>
                <au>
                   <snm>Azu</snm>
                   <fnm>OO</fnm>
                </au>
                <au>
                   <snm>Francis</snm>
                   <fnm>IOD</fnm>
                </au>
                <au>
                   <snm>Abraham</snm>
                   <fnm>AO</fnm>
                </au>
                <au>
                   <snm>Crescie</snm>
                   <fnm>CN</fnm>
                </au>
                <au>
                   <snm>Stephen</snm>
                   <fnm>OE</fnm>
                </au>
                <au>
                   <snm>Abayomi</snm>
                   <fnm>OO</fnm>
                </au>
             </aug>
             <source>Asian J Pharma Clin Res</source>
             <pubdate>2010</pubdate>
             <volume>3</volume>
             <fpage>84</fpage>
             <lpage>88</lpage>
          </bibl>
          <bibl id="B21">
             <note>Nasr AY: <b>Effect of Misoprostol on Ultrastructural Changes of Renal Tissues in Cisplatin-Treated Adult Rats.</b>
                <it>J Cytol Histol</it> 2013, <b>4:</b>3.</note>
          </bibl>
          <bibl id="B22">
             <title>
                <p>Protection against cisplatin-induced toxicities by N-acetylcysteine and sodium thiosulfate as assessed at the molecular, cellular, and in vivo levels</p>
             </title>
             <aug>
                <au>
                   <snm>Dickey</snm>
                   <fnm>DT</fnm>
                </au>
                <au>
                   <snm>Wu</snm>
                   <fnm>YJ</fnm>
                </au>
                <au>
                   <snm>Muldoon</snm>
                   <fnm>LL</fnm>
                </au>
                <au>
                   <snm>Neuwelt</snm>
                   <fnm>EA</fnm>
                </au>
             </aug>
             <source>J Pharmacol Exp Ther</source>
             <pubdate>2005</pubdate>
             <volume>314</volume>
             <issue>3</issue>
             <fpage>1052</fpage>
             <lpage>1058</lpage>
             <xrefbib>
                <pubidlist>
                   <pubid idtype="doi">10.1124/jpet.105.087601</pubid>
                   <pubid idtype="pmpid" link="fulltext">15951398</pubid>
                </pubidlist>
             </xrefbib>
          </bibl>
          <bibl id="B23">
             <title>
                <p>Assay for lipid peroxides in animal tissues by thiobarbituric acid reaction</p>
             </title>
             <aug>
                <au>
                   <snm>Ohkawa</snm>
                   <fnm>H</fnm>
                </au>
                <au>
                   <snm>Ohishi</snm>
                   <fnm>N</fnm>
                </au>
                <au>
                   <snm>Yagi</snm>
                   <fnm>K</fnm>
                </au>
             </aug>
             <source>Anal Biochem</source>
             <pubdate>1979</pubdate>
             <volume>95</volume>
             <fpage>351</fpage>
             <lpage>358</lpage>
             <xrefbib>
                <pubidlist>
                   <pubid idtype="doi">10.1016/0003-2697(79)90738-3</pubid>
                   <pubid idtype="pmpid" link="fulltext">36810</pubid>
                </pubidlist>
             </xrefbib>
          </bibl>
          <bibl id="B24">
             <title>
                <p>Glutathione reductase</p>
             </title>
             <aug>
                <au>
                   <snm>Carlberg</snm>
                   <fnm>I</fnm>
                </au>
                <au>
                   <snm>Mannervik</snm>
                   <fnm>B</fnm>
                </au>
             </aug>
             <source>Methods Enzymol</source>
             <pubdate>1985</pubdate>
             <volume>113</volume>
             <fpage>484</fpage>
             <lpage>490</lpage>
             <xrefbib>
                <pubidlist>
                   <pubid idtype="doi">10.1016/S0076-6879(85)13062-4</pubid>
                   <pubid idtype="pmpid" link="fulltext">3003504</pubid>
                </pubidlist>
             </xrefbib>
          </bibl>
          <bibl id="B25">
             <title>
                <p>Modified spectrophotometric assay of superoxide dismutase</p>
             </title>
             <aug>
                <au>
                   <snm>Kakkar</snm>
                   <fnm>PS</fnm>
                </au>
                <au>
                   <snm>Das</snm>
                   <fnm>B</fnm>
                </au>
                <au>
                   <snm>Viswanathan</snm>
                   <fnm>PNA</fnm>
                </au>
             </aug>
             <source>Indian J Biochem Biophys</source>
             <pubdate>1984</pubdate>
             <volume>21</volume>
             <fpage>130</fpage>
             <lpage>132</lpage>
             <xrefbib>
                <pubidlist>
                   <pubid idtype="pmpid" link="fulltext">6490072</pubid>
                </pubidlist>
             </xrefbib>
          </bibl>
          <bibl id="B26">
             <title>
                <p>Catalase in vitro</p>
             </title>
             <aug>
                <au>
                   <snm>Aebi</snm>
                   <fnm>H</fnm>
                </au>
             </aug>
             <source>Methods Enzymol</source>
             <pubdate>1984</pubdate>
             <volume>105</volume>
             <fpage>121</fpage>
             <lpage>126</lpage>
             <xrefbib>
                <pubidlist>
                   <pubid idtype="doi">10.1016/S0076-6879(84)05016-3</pubid>
                   <pubid idtype="pmpid" link="fulltext">6727660</pubid>
                </pubidlist>
             </xrefbib>
          </bibl>
          <bibl id="B27">
             <aug>
                <au>
                   <snm>Bancroft</snm>
                   <fnm>JD</fnm>
                </au>
                <au>
                   <snm>Gamble</snm>
                   <fnm>M</fnm>
                </au>
             </aug>
             <source>Theory and Practice of Histological Techniques</source>
             <publisher>Philadelphia Churchill Livingstone pub, Edinburgh. New York, London</publisher>
             <pubdate>2002</pubdate>
          </bibl>
          <bibl id="B28">
             <title>
                <p>Chemical Fixation</p>
             </title>
             <aug>
                <au>
                   <snm>Hayat</snm>
                   <fnm>MA</fnm>
                </au>
             </aug>
             <source>Principles and Techniques of Electron Microscopy: Biological Applications</source>
             <publisher>Cambridge University Press, Cambridge</publisher>
             <editor>Hayat MA</editor>
             <edition>4</edition>
             <pubdate>2000</pubdate>
             <fpage>4</fpage>
             <lpage>85</lpage>
          </bibl>
          <bibl id="B29">
             <title>
                <p>Agents ameliorating or augmenting the nephrotoxicity of cisplatin and other platinum compounds: a review of some recent research</p>
             </title>
             <aug>
                <au>
                   <snm>Ali</snm>
                   <fnm>BH</fnm>
                </au>
                <au>
                   <snm>Al Moundhri</snm>
                   <fnm>MS</fnm>
                </au>
             </aug>
             <source>Food Chem Toxicol</source>
             <pubdate>2006</pubdate>
             <volume>44</volume>
             <fpage>1173</fpage>
             <lpage>1183</lpage>
             <xrefbib>
                <pubidlist>
                   <pubid idtype="doi">10.1016/j.fct.2006.01.013</pubid>
                   <pubid idtype="pmpid" link="fulltext">16530908</pubid>
                </pubidlist>
             </xrefbib>
          </bibl>
          <bibl id="B30">
             <note>Chirino YI, Hernandez-Pando R, Pedraza-Chaverri J: <b>Peroxynitrite decomposition catalyst ameliorates renal damage and protein nitration in cisplatin-induced nephrotoxicity in rats.</b>
                <it>BMC Pharmacol</it> 2004, <b>4:</b>20. doi:10.1186/1471-2210-4-20.</note>
          </bibl>
          <bibl id="B31">
             <note>Park HR, Ju EJ, Jo SK, Jung U, Kim SH, Yee S: <b>Enhanced antitumor efficacy of cisplatin in combination with HemoHIM in tumor-bearing mice.</b>
                <it>BMC Cancer</it> 2009, <b>9:</b>85.</note>
          </bibl>
          <bibl id="B32">
             <title>
                <p>Impaired erythrocytes deformability in H2O2- induced oxidative stress: Protective effect of L carnosine</p>
             </title>
             <aug>
                <au>
                   <snm>Aydogan</snm>
                   <fnm>S</fnm>
                </au>
                <au>
                   <snm>Yapislar</snm>
                   <fnm>H</fnm>
                </au>
                <au>
                   <snm>Artis</snm>
                   <fnm>S</fnm>
                </au>
                <au>
                   <snm>Aydogan</snm>
                   <fnm>B</fnm>
                </au>
             </aug>
             <source>Clin Hemorheol Microcirc</source>
             <pubdate>2008</pubdate>
             <volume>39</volume>
             <fpage>93</fpage>
             <lpage>98</lpage>
             <xrefbib>
                <pubidlist>
                   <pubid idtype="pmpid" link="fulltext">18503115</pubid>
                </pubidlist>
             </xrefbib>
          </bibl>
          <bibl id="B33">
             <title>
                <p>Reversal of cisplatin-induced Carnitine deficiency and energy starvation by Propionyl-L- Carnitine in rat kidney tissues</p>
             </title>
             <aug>
                <au>
                   <snm>Aleisa</snm>
                   <fnm>AM</fnm>
                </au>
                <au>
                   <snm>Al-Majed</snm>
                   <fnm>AA</fnm>
                </au>
                <au>
                   <snm>Al-Yahya</snm>
                   <fnm>AA</fnm>
                </au>
                <au>
                   <snm>Al-Rejaie</snm>
                   <fnm>SS</fnm>
                </au>
                <au>
                   <snm>Bakheet</snm>
                   <fnm>SA</fnm>
                </au>
                <au>
                   <snm>Al-Shabanah</snm>
                   <fnm>OA</fnm>
                </au>
                <au>
                   <snm>Sayed-Ahmed</snm>
                   <fnm>MM</fnm>
                </au>
             </aug>
             <source>Clin Exp Pharmacol Physiol</source>
             <pubdate>2007</pubdate>
             <volume>34</volume>
             <fpage>1252</fpage>
             <lpage>1259</lpage>
             <note>doi:10.1111/j.1440- 1681. 2007. 04714.x</note>
             <xrefbib>
                <pubidlist>
                   <pubid idtype="doi">10.1111/j.1440-1681.2007.04714.x</pubid>
                   <pubid idtype="pmpid" link="fulltext">17973863</pubid>
                </pubidlist>
             </xrefbib>
          </bibl>
          <bibl id="B34">
             <title>
                <p>Evaluation of the effect of acetyl L-carnitine on experimental cisplatin nephrotoxicity</p>
             </title>
             <aug>
                <au>
                   <snm>Tufekci</snm>
                   <fnm>O</fnm>
                </au>
                <au>
                   <snm>Gunes</snm>
                   <fnm>D</fnm>
                </au>
                <au>
                   <snm>Ozo&#287;ul</snm>
                   <fnm>C</fnm>
                </au>
                <au>
                   <snm>Kolatan</snm>
                   <fnm>E</fnm>
                </au>
                <au>
                   <snm>Altun</snm>
                   <fnm>Z</fnm>
                </au>
                <au>
                   <snm>Yilmaz</snm>
                   <fnm>O</fnm>
                </au>
                <au>
                   <snm>Akta&#351;</snm>
                   <fnm>S</fnm>
                </au>
                <au>
                   <snm>Erbayraktar</snm>
                   <fnm>Z</fnm>
                </au>
                <au>
                   <snm>Kirkim</snm>
                   <fnm>G</fnm>
                </au>
                <au>
                   <snm>Mutafo&#287;lu</snm>
                   <fnm>K</fnm>
                </au>
                <au>
                   <snm>Soylu</snm>
                   <fnm>A</fnm>
                </au>
                <au>
                   <snm>Serbet&#231;io&#287;lu</snm>
                   <fnm>B</fnm>
                </au>
                <au>
                   <snm>G&#252;neri</snm>
                   <fnm>EA</fnm>
                </au>
                <au>
                   <snm>Olgun</snm>
                   <fnm>N</fnm>
                </au>
             </aug>
             <source>Chemotherapy</source>
             <pubdate>2009</pubdate>
             <volume>55</volume>
             <issue>6</issue>
             <fpage>451</fpage>
             <lpage>459</lpage>
             <note>doi:10.1159/000240020</note>
             <xrefbib>
                <pubidlist>
                   <pubid idtype="doi">10.1159/000240020</pubid>
                   <pubid idtype="pmpid" link="fulltext">19996591</pubid>
                </pubidlist>
             </xrefbib>
          </bibl>
          <bibl id="B35">
             <title>
                <p>Dhume Cisplatin induced histological changes in renal tissue of rat</p>
             </title>
             <aug>
                <au>
                   <snm>Pratibha</snm>
                   <fnm>R</fnm>
                </au>
                <au>
                   <snm>Bhiwgade</snm>
                   <fnm>DA</fnm>
                </au>
                <au>
                   <snm>Kulkarni</snm>
                   <fnm>S</fnm>
                </au>
                <au>
                   <snm>Rataboli</snm>
                   <fnm>PV</fnm>
                </au>
                <au>
                   <snm>Chitra</snm>
                   <fnm>Y</fnm>
                </au>
             </aug>
             <source>J Cell Animal Biol</source>
             <pubdate>2010</pubdate>
             <volume>4</volume>
             <issue>7</issue>
             <fpage>108</fpage>
             <lpage>111</lpage>
          </bibl>
       </refgrp>
    </bm>
 </art>