<art>
    <ui>s12995-014-0035-4</ui>
    <ji>1745-6673</ji>
    <fm>
       <dochead>Research</dochead>
       <bibl>
          <title>
             <p>Occupational accidents in the Danish merchant fleet and the nationality of seafarers</p>
          </title>
          <aug>
             <au ca="yes" id="A1">
                <snm>&#193;d&#225;m</snm>
                <fnm>Bal&#225;zs</fnm>
                <insr iid="I1"/>
                <insr iid="I2"/>
                <email>badam@uaeu.ac.ae</email>
             </au>
             <au id="A2">
                <snm>Rasmussen</snm>
                <mnm>Barbara</mnm>
                <fnm>Hanna</fnm>
                <insr iid="I1"/>
                <email>hbrasmussen@cmss.sdu.dk</email>
             </au>
             <au id="A3">
                <snm>Pedersen</snm>
                <mnm>N&#248;rgaard Fl&#248;e</mnm>
                <fnm>Randi</fnm>
                <insr iid="I1"/>
                <email>randi.noergaard.floee@gmail.com</email>
             </au>
             <au id="A4">
                <snm>Jepsen</snm>
                <mnm>Riis</mnm>
                <fnm>J&#248;rgen</fnm>
                <insr iid="I1"/>
                <email>jriis@cmss.sdu.dk</email>
             </au>
          </aug>
          <insg>
             <ins id="I1">
                <p>Centre of Maritime Health and Society, Institute of Public Health, Faculty of Health Sciences, University of Southern Denmark, Niels Bohrs Vej 9-10, Esbjerg DK-6700, Denmark</p>
             </ins>
             <ins id="I2">
                <p>Institute of Public Health, College of Medicine and Health Sciences, United Arab Emirates University, Al Ain, United Arab Emirates</p>
             </ins>
          </insg>
          <source>Journal of Occupational Medicine and Toxicology</source>
          <issn>1745-6673</issn>
          <pubdate>2014</pubdate>
          <volume>9</volume>
          <issue>1</issue>
          <fpage>35</fpage>
          <url>http://www.occup-med.com/content/9/1/35</url>
          <xrefbib>
             <pubidlist>
                <pubid idtype="doi">10.1186/s12995-014-0035-4</pubid>
                <pubid idtype="pmpid">25349623</pubid>
             </pubidlist>
          </xrefbib>
       </bibl>
       <history>
          <rec>
             <date>
                <day>16</day>
                <month>7</month>
                <year>2014</year>
             </date>
          </rec>
          <acc>
             <date>
                <day>7</day>
                <month>10</month>
                <year>2014</year>
             </date>
          </acc>
          <pub>
             <date>
                <day>23</day>
                <month>10</month>
                <year>2014</year>
             </date>
          </pub>
       </history>
       <cpyrt>
          <year>2014</year>
          <collab>&#193;d&#225;m et al.; licensee BioMed Central Ltd.</collab>
          <note>This is an Open Access article distributed under the terms of the Creative Commons Attribution License (<url>http://creativecommons.org/licenses/by/4.0</url>), which permits unrestricted use, distribution, and reproduction in any medium, provided the original work is properly credited. The Creative Commons Public Domain Dedication waiver (<url>http://creativecommons.org/publicdomain/zero/1.0/</url>) applies to the data made available in this article, unless otherwise stated.</note>
       </cpyrt>
       <kwdg>
          <kwd>Maritime health</kwd>
          <kwd>Occupational safety</kwd>
          <kwd>Injury rate</kwd>
          <kwd>Nationality differences</kwd>
          <kwd>Safety culture</kwd>
       </kwdg>
       <abs>
          <sec>
             <st>
                <p>Abstract</p>
             </st>
             <sec>
                <st>
                   <p>Background</p>
                </st>
                <p>The aim of the study was to examine occupational accidents reported from non-passenger merchant ships registered in the Danish International Ship Register in 2010-2012, with a focus on analysing nationality differences in the risk of getting injured in an accident.</p>
             </sec>
             <sec>
                <st>
                   <p>Methods</p>
                </st>
                <p>Data about notified occupational accidents were collected from notifications sent to the Danish Maritime Authority and from records of contact with Danish Radio Medical. Events were matched by personal identification and accident data to create a unified database. Stratified cumulative time spent on board by seafarers was used to calculate accident rates. Incidence rates of different nationalities were compared by Poisson regression.</p>
             </sec>
             <sec>
                <st>
                   <p>Results</p>
                </st>
                <p>Western European seafarers had an overall accident rate of 17.5 per 100000 person-days, which proved to be significantly higher than that of Eastern European, South East Asian and Indian seaman (adjusted incidence rate ratio 0.53, 0.51 and 0.74, respectively), although differences decreased over the investigated period. Smaller but in most cases still significant discrepancies were observed for serious injuries. The back injury rate of Western European employees was found especially high, while eye injuries seem to be more frequent among South East Asian workers.</p>
             </sec>
             <sec>
                <st>
                   <p>Conclusions</p>
                </st>
                <p>The study identified substantial differences between nationalities in the rate of various accidents reported from merchant ships sailing under the Danish flag. The differences may be attributed to various factors such as safety behaviour. Investigation of special injury types and characterisation of effective elements of safety culture can contribute to the improvement of workplace safety in the maritime sector.</p>
             </sec>
          </sec>
       </abs>
    </fm>
    <bdy>
       <sec>
          <st>
             <p>1
 						Background</p>
          </st>
          <p>Denmark has one of the largest merchant fleets in the world. In 2012 there were over 600 Danish-flagged ships sailing internationally, out of which 400 were cargo vessels <abbrgrp>
                <abbr bid="B1">1</abbr>
             </abbrgrp>. These ships are registered in the Danish International Ship Register. Crews of registered non-passenger merchant ships are typically of international composition, including workers from all over the world, but mainly from Denmark, the Philippines, India and Poland. Although workplace health and safety requirements are the same, employees&#8217; attitude toward workplace safety and the risk of getting injured on board can vary by nationality.</p>
          <p>The challenges relating to the special work environments and activities at sea imply an increased level of risk for being involved in an occupational accident in general. Although maritime workplace safety is improving, seafaring is still associated with high rates of occupational accidents, compared with other occupational settings. According to the findings of Roberts and Hansen, the rate of fatal occupational accidents among seafarers serving on British merchant ships was more than twenty times higher than that for all workers in Great Britain in the period 1986-1995 <abbrgrp>
                <abbr bid="B2">2</abbr>
             </abbrgrp>. Increased risks were also recorded in Denmark at the same time. Hansen et al. observed that a seafarer on board a Danish merchant ship had an 11.5 times higher risk of a fatal workplace accident than Danish male workers on shore <abbrgrp>
                <abbr bid="B3">3</abbr>
             </abbrgrp>. As a similar analysis pointed out later that although the situation had improved the difference remained high, at more than six-fold, between 2002 and 2009 <abbrgrp>
                <abbr bid="B4">4</abbr>
             </abbrgrp>. In addition to the higher rate of fatal accidents, a high frequency of non-fatal occupational accidents can also be observed. In a multinational study involving seafarers from 11 countries, the seafarers were asked about occupational injuries that had happened during their last tour of duty. More than 9% reported an injury during their last voyage and almost half of them had sustained an injury leading to at least one day of incapacity <abbrgrp>
                <abbr bid="B5">5</abbr>
             </abbrgrp>.</p>
          <p>Multiple factors can contribute to the occurrence of a workplace accident, such as the safety behaviour of employees, job activities, workplace conditions, safety measures and management systems in place. Human factors play an especially important role in the causation of occupational accidents <abbrgrp>
                <abbr bid="B6">6</abbr>
             </abbrgrp>. The safety behaviour of an employee is determined by several factors, such as individual physical and mental conditions, as well as by various aspects of the social and cultural context in which these people grew up and manage their lives.</p>
          <p>The current study investigates occupational accidents and the resulting injuries as reported from ships registered in the Danish international merchant fleet in the period 2010-2012. The main focus of the study is to analyse whether the seafarers&#8217; nationality influences their risk of getting involved in an accident. The study discusses special types of occupational injuries and attempts to explain the observed differences between nationalities. This question is highly relevant when taking into consideration the wide-scale representation of different nationalities in the international seafaring workforce.</p>
       </sec>
       <sec>
          <st>
             <p>2
 						Methods</p>
          </st>
          <sec>
             <st>
                <p>2.1 Data sources</p>
             </st>
             <p>This correlational study used two sources to acquire data about accidents that happened on non-passenger merchant ships registered in the Danish International Ship Register (DIS) in 2010-2012. The paper-based notifications of occupational accidents reported to the Danish Maritime Authority (DMA) provided one source. In accord with the requirements specified in the Prevention of Accidents (Seafarers) Convention of 1970 (No. 134) and the Prevention of Accidents (Seafarers) Recommendation of 1970 (No. 142), adequate reporting of maritime occupational accidents must be ensured. Accidents occurring on board of ships registered in the DIS that cause at least one day away from work beyond the day of accident (lost time accident, LTA) or inability of the injured person to carry out the usual work activity for one day or more in addition to the day of the injury (restricted work accident, RWA) must be reported to the DMA. Besides the mandatorily notified cases, milder injuries are often reported to the authority as well. The following identification data, exposure and outcome information were extracted from the reports: the personal identification number, name, gender, position and nationality of the injured person; the ship&#8217;s name, call sign and company; the date of accident, the description of the event and the injury; the number of work-days lost, the need to seek medical help and the treatment administered.</p>
             <p>Documents about contacts with Radio Medical Denmark (RMD) for medical advice in relation to an injury that happened on board DIS-registered ships during the period 2010-2012 were the other information source. The information media varied from official forms to emails exchanged between the communicating parties. The RMD records were manually matched with the records from the DMA using personal identification numbers and names of injured seafarers, as well as dates and descriptions of accidents that were typically documented in both data sources. In the Danish registration system citizens possess a 10-digit unique identifier and foreign employees signed up for work on a ship under the Danish flag are also provided with a personal identification number that, together with names, could be used effectively for finding identical cases. Ethical approval for data handling was obtained from the Danish Data Protection Agency.</p>
             <p>Person-time at risk was used to characterise the source population of cases and to calculate the accident risk. All dates for signing on and off a ship are notified to the DMA. Consequently, the Authority&#8217;s database could provide us with information about time spent on board DIS-registered non-passenger ships in the investigated period. The analysis used the cumulative number of days spent on board, stratified by year of sign-on, nationality, ship&#8217;s size, employee&#8217;s work status and age.</p>
          </sec>
          <sec>
             <st>
                <p>2.2 Variables</p>
             </st>
             <p>All occupational accidents occurring on a DIS-registered non-passenger merchant ship in the period 2010-2012 were included in the study. An accident was considered occupational if it happened to a seafarer while on board. Events that happened onshore were excluded. Only notified cases of ill-health that were caused by a sudden health-damaging event were considered occupational injuries, so occupational diseases were excluded. Injuries caused by any forms of inter-personal violence including pirate attacks were likewise excluded from the analysis.</p>
             <p>Ships were categorised by size and type. They were divided into two size categories, those &#8805;3000 gross tonnage and those below. Various ship types were recorded in the database, but the analysis covered only accidents reported from non-passenger merchant ships. The reasons for the restriction were the high heterogeneity of nationalities and the availability of reliable data on the time spent on board, which were only assured for the crews of non-passenger ships.</p>
             <p>Employees were grouped by occupation, as officer or non-officer. An official list detailing position categories in the maritime sector was used to transcribe positions on board in a systematic manner. Navigation officers, including masters, and engineer officers were categorised as officers. All other positions including any catering and service positions were regarded non-officers.</p>
             <p>The age of the employees was calculated based on the first 6 digits of their personal identification number and the date of the accident. The analysis handled age in 10-year age groups (16-25, 26-35, 36-45, 46-55, 56-65, &gt;65).</p>
             <p>Nationalities were allocated into four categories. Western European seafarers included citizens of Western European countries bordered to the east by Norway, Finland, Germany, Austria and Italy, plus Greece and Cyprus. The majority of this group were Danish seafarers. Eastern European employees were those from Central and Eastern European countries, mainly from Poland. South East Asian seafarers formed the second largest group after Western Europeans. This category was deemed to cover the Philippines, Vietnam, Laos, Cambodia, Thailand, Myanmar, Singapore, Malaysia, Brunei and Indonesia. In practice this group comprised Filipino employees. Indian seafarers formed a separate group in the study due to their high number and distinct cultural background from South East Asian people. The remaining seafarers represented six further countries from all over the world. Due to their diverse backgrounds and relatively low number they were not included in the nationality comparison.</p>
             <p>Analyses were carried out on all injuries that fulfilled the inclusion criteria and additionally on three special categories: serious injuries, back injuries and eye injuries. A serious injury had to be notified as a LTA and/or indicated as involving incapacitation of at least one day beyond the day of accident. A case was also considered serious if it required medical treatment or involved contact with Danish Radio Medical. Back and eye injuries were recognised if there was a clear indication of damage to these specific body parts.</p>
          </sec>
          <sec>
             <st>
                <p>2.3 Statistical analysis</p>
             </st>
             <p>Incidence rates of occupational accidents per 100000 person-days spent on board were determined. Cumulative data for the examination period were used to calculate incidence rate ratios for each nationality group, using the rate of Western European seafarers as reference value. Poisson regression analysis was carried out to test for significant differences in between strata. The statistical significance was defined on 5% significance level. Apart from the crude comparison, analyses were also performed following adjustment for potential confounding factors that were identified in the study as having influence on the accident rate, that is ship size, position and age of employee. Analyses were also conducted on a year-by-year basis in the same way as completed with cumulative data. The statistical analysis was performed using Stata/IC version 12.1 statistical software.</p>
          </sec>
       </sec>
       <sec>
          <st>
             <p>3
 						Results</p>
          </st>
          <p>Altogether 1336 cases occurring on DIS-registered non-passenger merchant ships were reported to the Danish Maritime Authority or led to contact with Danish Radio Medical during the three year study period. 28 injuries acquired on shore, 11 occupational diseases and 23 injuries caused by pirate attacks and other forms of violence were excluded from the analysis.</p>
          <p>The majority of cases were derived from notifications sent to the DMA. Out of 1274 included injuries, 881 (69%) were only reported to DMA, while 267 cases sought medical advice from Radio Medical. The remaining 126 cases were notified to the DMA and involved calls to RMD, thus providing information about the accidents from both sources.</p>
          <p>The absolute number of reported accidents showed slight increase over the three-year study period. The number grew from 383 in 2010 to 435 in 2011 and 456 in 2012. The majority of injured workers were from Western Europe and South East Asia, with 582 (46%) and 389 (31%) cases in the entire period, respectively.</p>
          <sec>
             <st>
                <p>3.1 Accident rates</p>
             </st>
             <p>The incidence rate of occupational accidents among the different nationality groups over the three years investigated shows diverse pattern. The rate was high among Western European seafarers but followed a remarkable decreasing trend in the examined period (Figure&#160;<figr fid="F1">1</figr>A). Accidents were considerably less frequent among Eastern European and South East Asian employees. Eastern European seafarers experience a reduction similar to Western Europeans, while the trend among South East Asians was inconclusive. Indian workers occupied an intermediate position among the nationality groups and their accident rate increased slightly over the period. The results show unequivocally low injury rates among South East Asian and Eastern European seafarers compared with their Western European colleagues (Table&#160;<tblr tid="T1">1</tblr>). The difference was significant both in the crude and adjusted analysis and was also observed in each year separately (detailed statistics on annual data are not shown). Indian workers showed a reduced risk compared with Western Europeans. Crude comparison determined a difference just not significant, but it gained significance after adjustment for confounding factors. When the analysis was performed by years, Indian seafarers had a significantly lower injury rate in 2010 and 2011 but not in 2012.</p>
             
                <fig id="F1">
                   <title>
                      <p>Figure 1</p>
                   </title>
                   <caption>
                      <p>Accident rate of all (A) and serious (B) occupational injuries reported to the Danish Maritime Authority and to Radio Medical Denmark by nationality of seafarers working on non-passenger merchant ships registered in the Danish International Ship Register.</p>
                   </caption>
                   <text>
                      <p>
                         <b>Accident rate of all (A) and serious (B) occupational injuries reported to the Danish Maritime Authority and to Radio Medical Denmark by nationality of seafarers working on non-passenger merchant ships registered in the Danish International Ship Register.</b>
                      </p>
                   </text>
                   <graphic file="s12995-014-0035-4-1"/>
                </fig>
             
             
                <table id="T1">
                   <title>
                      <p>Table 1</p>
                   </title>
                   <caption>
                      <p>
                         <b>Relationship between the nationality of seafarer and the rate of occupational accidents that occurred on board non-passenger merchant ships registered in the Danish International Ship Register in 2010-2012</b>
                      </p>
                   </caption>
                   <tgroup align="left" cols="8">
                      <colspec align="left" colname="c1" colnum="1" colwidth="*"/>
                      <colspec align="right" colname="c2" colnum="2" colwidth="*"/>
                      <colspec align="right" colname="c3" colnum="3" colwidth="*"/>
                      <colspec align="right" colname="c4" colnum="4" colwidth="*"/>
                      <colspec align="right" colname="c5" colnum="5" colwidth="*"/>
                      <colspec align="right" colname="c6" colnum="6" colwidth="*"/>
                      <colspec align="right" colname="c7" colnum="7" colwidth="*"/>
                      <colspec align="right" colname="c8" colnum="8" colwidth="*"/>
                      <thead>
                         <row valign="top">
                            <entry colname="c1">
                               <p>
                                  <b>Nationality</b>
                               </p>
                            </entry>
                            <entry colname="c2">
                               <p>
                                  <b>Accidents</b>
                               </p>
                            </entry>
                            <entry colname="c3">
                               <p>
                                  <b>Person-days</b>
                               </p>
                            </entry>
                            <entry colname="c4">
                               <p>
                                  <b>Incidence/100000&#160;days</b>
                               </p>
                            </entry>
                            <entry colname="c5">
                               <p>
                                  <b>Incidence rate ratio</b>
                               </p>
                            </entry>
                            <entry colname="c6">
                               <p>
                                  <b>95% CI</b>
                               </p>
                            </entry>
                            <entry colname="c7">
                               <p>
                                  <b>Incidence rate ratio</b>
                               </p>
                            </entry>
                            <entry colname="c8">
                               <p>
                                  <b>95% CI</b>
                               </p>
                            </entry>
                         </row>
                         <row valign="top">
                            <entry colname="c1"/>
                            <entry colname="c2"/>
                            <entry colname="c3"/>
                            <entry colname="c4"/>
                            <entry nameend="c6" namest="c5">
                               <p>
                                  <b>Crude</b>
                               </p>
                            </entry>
                            <entry nameend="c8" namest="c7">
                               <p>
                                  <b>Adjusted</b>
                                  <sup>
                                     <b>a</b>
                                  </sup>
                               </p>
                            </entry>
                         </row>
                      </thead>
                      <tfoot>
                         <p>
                            <sup>a</sup>Adjusted for ship size (&gt;&#8201;=&#8201;3000 vs. &lt;3000 gross tonnage), position (officer vs. non-officer) and age of employee.</p>
                      </tfoot>
                      <tbody>
                         <row valign="top">
                            <entry nameend="c2" namest="c1">
                               <p>
                                  <it>All injuries</it>
                               </p>
                            </entry>
                            <entry align="right" colname="c3"/>
                            <entry align="right" colname="c4"/>
                            <entry align="right" colname="c5"/>
                            <entry align="right" colname="c6"/>
                            <entry align="right" colname="c7"/>
                            <entry align="right" colname="c8"/>
                         </row>
                         <row valign="top">
                            <entry colname="c1">
                               <p>Western European</p>
                            </entry>
                            <entry colname="c2">
                               <p>582</p>
                            </entry>
                            <entry colname="c3">
                               <p>3325410</p>
                            </entry>
                            <entry colname="c4">
                               <p>17.50</p>
                            </entry>
                            <entry colname="c5">
                               <p>1</p>
                            </entry>
                            <entry colname="c6"/>
                            <entry colname="c7">
                               <p>1</p>
                            </entry>
                            <entry colname="c8"/>
                         </row>
                         <row valign="top">
                            <entry colname="c1">
                               <p>Eastern European</p>
                            </entry>
                            <entry colname="c2">
                               <p>101</p>
                            </entry>
                            <entry colname="c3">
                               <p>1026072</p>
                            </entry>
                            <entry colname="c4">
                               <p>9.84</p>
                            </entry>
                            <entry colname="c5">
                               <p>0.56</p>
                            </entry>
                            <entry colname="c6">
                               <p>0.45 to 0.69</p>
                            </entry>
                            <entry colname="c7">
                               <p>0.53</p>
                            </entry>
                            <entry colname="c8">
                               <p>0.43 to 0.67</p>
                            </entry>
                         </row>
                         <row valign="top">
                            <entry colname="c1">
                               <p>South East Asian</p>
                            </entry>
                            <entry colname="c2">
                               <p>389</p>
                            </entry>
                            <entry colname="c3">
                               <p>3547534</p>
                            </entry>
                            <entry colname="c4">
                               <p>10.97</p>
                            </entry>
                            <entry colname="c5">
                               <p>0.63</p>
                            </entry>
                            <entry colname="c6">
                               <p>0.55 to 0.71</p>
                            </entry>
                            <entry colname="c7">
                               <p>0.51</p>
                            </entry>
                            <entry colname="c8">
                               <p>0.44 to 0.59</p>
                            </entry>
                         </row>
                         <row valign="top">
                            <entry colname="c1">
                               <p>Indian</p>
                            </entry>
                            <entry colname="c2">
                               <p>146</p>
                            </entry>
                            <entry colname="c3">
                               <p>982581</p>
                            </entry>
                            <entry colname="c4">
                               <p>14.86</p>
                            </entry>
                            <entry colname="c5">
                               <p>0.85</p>
                            </entry>
                            <entry colname="c6">
                               <p>0.71 to 1.02</p>
                            </entry>
                            <entry colname="c7">
                               <p>0.74</p>
                            </entry>
                            <entry colname="c8">
                               <p>0.60 to 0.91</p>
                            </entry>
                         </row>
                         <row valign="top">
                            <entry nameend="c2" namest="c1">
                               <p>
                                  <it>Serious injuries</it>
                               </p>
                            </entry>
                            <entry colname="c3"/>
                            <entry colname="c4"/>
                            <entry colname="c5"/>
                            <entry colname="c6"/>
                            <entry colname="c7"/>
                            <entry colname="c8"/>
                         </row>
                         <row valign="top">
                            <entry colname="c1">
                               <p>Western European</p>
                            </entry>
                            <entry colname="c2">
                               <p>3621</p>
                            </entry>
                            <entry colname="c3">
                               <p>3325410</p>
                            </entry>
                            <entry colname="c4">
                               <p>10.86</p>
                            </entry>
                            <entry colname="c5">
                               <p>1</p>
                            </entry>
                            <entry colname="c6"/>
                            <entry colname="c7">
                               <p>1</p>
                            </entry>
                            <entry colname="c8"/>
                         </row>
                         <row valign="top">
                            <entry colname="c1">
                               <p>Eastern European</p>
                            </entry>
                            <entry colname="c2">
                               <p>77</p>
                            </entry>
                            <entry colname="c3">
                               <p>1026072</p>
                            </entry>
                            <entry colname="c4">
                               <p>7.50</p>
                            </entry>
                            <entry colname="c5">
                               <p>0.69</p>
                            </entry>
                            <entry colname="c6">
                               <p>0.54 to 0.88</p>
                            </entry>
                            <entry colname="c7">
                               <p>0.64</p>
                            </entry>
                            <entry colname="c8">
                               <p>0.50 to 0.84</p>
                            </entry>
                         </row>
                         <row valign="top">
                            <entry colname="c1">
                               <p>South East Asian</p>
                            </entry>
                            <entry colname="c2">
                               <p>272</p>
                            </entry>
                            <entry colname="c3">
                               <p>3547534</p>
                            </entry>
                            <entry colname="c4">
                               <p>7.67</p>
                            </entry>
                            <entry colname="c5">
                               <p>0.71</p>
                            </entry>
                            <entry colname="c6">
                               <p>0.60 to 0.83</p>
                            </entry>
                            <entry colname="c7">
                               <p>0.56</p>
                            </entry>
                            <entry colname="c8">
                               <p>0.46 to 0.67</p>
                            </entry>
                         </row>
                         <row valign="top">
                            <entry colname="c1">
                               <p>Indian</p>
                            </entry>
                            <entry colname="c2">
                               <p>115</p>
                            </entry>
                            <entry colname="c3">
                               <p>982581</p>
                            </entry>
                            <entry colname="c4">
                               <p>11.70</p>
                            </entry>
                            <entry colname="c5">
                               <p>1.08</p>
                            </entry>
                            <entry colname="c6">
                               <p>0.87 to 1.33</p>
                            </entry>
                            <entry colname="c7">
                               <p>0.90</p>
                            </entry>
                            <entry colname="c8">
                               <p>0.70 to 1.16</p>
                            </entry>
                         </row>
                         <row valign="top">
                            <entry colname="c1">
                               <p>
                                  <it>Back injuries</it>
                               </p>
                            </entry>
                            <entry colname="c2"/>
                            <entry colname="c3"/>
                            <entry colname="c4"/>
                            <entry colname="c5"/>
                            <entry colname="c6"/>
                            <entry colname="c7"/>
                            <entry colname="c8"/>
                         </row>
                         <row valign="top">
                            <entry colname="c1">
                               <p>Western European</p>
                            </entry>
                            <entry colname="c2">
                               <p>82</p>
                            </entry>
                            <entry colname="c3">
                               <p>3325410</p>
                            </entry>
                            <entry colname="c4">
                               <p>2.47</p>
                            </entry>
                            <entry colname="c5">
                               <p>1</p>
                            </entry>
                            <entry colname="c6"/>
                            <entry colname="c7">
                               <p>1</p>
                            </entry>
                            <entry colname="c8"/>
                         </row>
                         <row valign="top">
                            <entry colname="c1">
                               <p>Eastern European</p>
                            </entry>
                            <entry colname="c2">
                               <p>8</p>
                            </entry>
                            <entry colname="c3">
                               <p>1026072</p>
                            </entry>
                            <entry colname="c4">
                               <p>0.78</p>
                            </entry>
                            <entry colname="c5">
                               <p>0.32</p>
                            </entry>
                            <entry colname="c6">
                               <p>0.15 to 0.65</p>
                            </entry>
                            <entry colname="c7">
                               <p>0.32</p>
                            </entry>
                            <entry colname="c8">
                               <p>0.16 to 0.67</p>
                            </entry>
                         </row>
                         <row valign="top">
                            <entry colname="c1">
                               <p>South East Asian</p>
                            </entry>
                            <entry colname="c2">
                               <p>19</p>
                            </entry>
                            <entry colname="c3">
                               <p>3547534</p>
                            </entry>
                            <entry colname="c4">
                               <p>0.54</p>
                            </entry>
                            <entry colname="c5">
                               <p>0.22</p>
                            </entry>
                            <entry colname="c6">
                               <p>0.13 to 0.36</p>
                            </entry>
                            <entry colname="c7">
                               <p>0.16</p>
                            </entry>
                            <entry colname="c8">
                               <p>0.09 to 0.29</p>
                            </entry>
                         </row>
                         <row valign="top">
                            <entry colname="c1">
                               <p>Indian</p>
                            </entry>
                            <entry colname="c2">
                               <p>10</p>
                            </entry>
                            <entry colname="c3">
                               <p>982581</p>
                            </entry>
                            <entry colname="c4">
                               <p>1.02</p>
                            </entry>
                            <entry colname="c5">
                               <p>0.41</p>
                            </entry>
                            <entry colname="c6">
                               <p>0.21 to 0.80</p>
                            </entry>
                            <entry colname="c7">
                               <p>0.50</p>
                            </entry>
                            <entry colname="c8">
                               <p>0.25 to 1.01</p>
                            </entry>
                         </row>
                         <row valign="top">
                            <entry colname="c1">
                               <p>
                                  <it>Eye injuries</it>
                               </p>
                            </entry>
                            <entry colname="c2"/>
                            <entry colname="c3"/>
                            <entry colname="c4"/>
                            <entry colname="c5"/>
                            <entry colname="c6"/>
                            <entry colname="c7"/>
                            <entry colname="c8"/>
                         </row>
                         <row valign="top">
                            <entry colname="c1">
                               <p>Western European</p>
                            </entry>
                            <entry colname="c2">
                               <p>43</p>
                            </entry>
                            <entry colname="c3">
                               <p>3325410</p>
                            </entry>
                            <entry colname="c4">
                               <p>1.29</p>
                            </entry>
                            <entry colname="c5">
                               <p>1</p>
                            </entry>
                            <entry colname="c6"/>
                            <entry colname="c7">
                               <p>1</p>
                            </entry>
                            <entry colname="c8"/>
                         </row>
                         <row valign="top">
                            <entry colname="c1">
                               <p>Eastern European</p>
                            </entry>
                            <entry colname="c2">
                               <p>6</p>
                            </entry>
                            <entry colname="c3">
                               <p>1026072</p>
                            </entry>
                            <entry colname="c4">
                               <p>0.58</p>
                            </entry>
                            <entry colname="c5">
                               <p>0.45</p>
                            </entry>
                            <entry colname="c6">
                               <p>0.19 to 1.06</p>
                            </entry>
                            <entry colname="c7">
                               <p>0.42</p>
                            </entry>
                            <entry colname="c8">
                               <p>0.16 to 1.06</p>
                            </entry>
                         </row>
                         <row valign="top">
                            <entry colname="c1">
                               <p>South East Asian</p>
                            </entry>
                            <entry colname="c2">
                               <p>66</p>
                            </entry>
                            <entry colname="c3">
                               <p>3547534</p>
                            </entry>
                            <entry colname="c4">
                               <p>1.86</p>
                            </entry>
                            <entry colname="c5">
                               <p>1.44</p>
                            </entry>
                            <entry colname="c6">
                               <p>0.98 to 2.11</p>
                            </entry>
                            <entry colname="c7">
                               <p>1.25</p>
                            </entry>
                            <entry colname="c8">
                               <p>0.77 to 2.02</p>
                            </entry>
                         </row>
                         <row valign="top">
                            <entry colname="c1">
                               <p>Indian</p>
                            </entry>
                            <entry colname="c2">
                               <p>9</p>
                            </entry>
                            <entry colname="c3">
                               <p>982581</p>
                            </entry>
                            <entry colname="c4">
                               <p>0.92</p>
                            </entry>
                            <entry colname="c5">
                               <p>0.71</p>
                            </entry>
                            <entry colname="c6">
                               <p>0.35 to 1.45</p>
                            </entry>
                            <entry colname="c7">
                               <p>0.62</p>
                            </entry>
                            <entry colname="c8">
                               <p>0.26 to 1.46</p>
                            </entry>
                         </row>
                      </tbody>
                   </tgroup>
                </table>
             
             <p>The incidence rates for serious injuries showed a similar nationality pattern as that observed for all cases, although the differences are smaller (Figure&#160;<figr fid="F1">1</figr>B). Indian seafarers were as frequently seriously injured as Western Europeans, while South East Asian and Eastern European employees have lower rates of serious injuries. A decreasing trend could be noted among Eastern European seafarers and there was also a drop from 2010 to 2011 among Western Europeans. The South East Asian and Indian figures varied over time without any specific trend. The rates of serious occupational injuries for South East Asian and Eastern European seafarers were significantly lower than those of Western European seamen both in crude and adjusted analyses when using combined data (Table&#160;<tblr tid="T1">1</tblr>). The difference between Western European and Indian employees disappeared, even after adjustment for confounding factors, and this finding stood for each year examined, too.</p>
             <p>An interesting issue was the characterisation of two special types of injuries, to the back and the eyes, respectively. Regarding back injuries, even more pronounced nationality differences were discovered than with all injury types (Figure&#160;<figr fid="F2">2</figr>A). With 2.5 injuries per 100000 person-days, Western European seafarers reported back injury by far the most frequently, even after a drop in the rate from 2010 to 2011. The frequency of back injuries for all other nationalities remained much lower, except for Indian employees in 2011. The statistical analysis clearly describes the above findings (Table&#160;<tblr tid="T1">1</tblr>). All nationality groups had significantly lower injury rates than Western European seafarers, except for Indian seamen in the adjusted comparison. The significant differences largely disappeared in the year-by-year analysis, with only South East Asian seafarers reporting significantly lower rate of back injury than Western European workers in each year of the investigated period.</p>
             
                <fig id="F2">
                   <title>
                      <p>Figure 2</p>
                   </title>
                   <caption>
                      <p>Accident rate of occupational back (A) and eye (B) injuries reported to the Danish Maritime Authority and to Radio Medical Denmark by nationality of seafarers working on non-passenger merchant ships registered in the Danish International Ship Register.</p>
                   </caption>
                   <text>
                      <p>
                         <b>Accident rate of occupational back (A) and eye (B) injuries reported to the Danish Maritime Authority and to Radio Medical Denmark by nationality of seafarers working on non-passenger merchant ships registered in the Danish International Ship Register.</b>
                      </p>
                   </text>
                   <graphic file="s12995-014-0035-4-2"/>
                </fig>
             
             <p>The nationality distribution of occupational eye injury rates shows a different picture than that observed for all injuries, serious injuries, or back injuries (Figure&#160;<figr fid="F2">2</figr>B). South East Asian seafarers had the highest rate over the studied time period, while other nationalities had lower values. The injury rate of South East Asian employees was not only the highest among the nationality groups but also stagnated over time, while Western and Eastern European workers experienced a considerable decrease in eye injury rates. South East Asian seafarers had an increased risk of suffering eye damage compared to their Western European colleagues, which was almost statistically significant in the crude comparison (Table&#160;<tblr tid="T1">1</tblr>). When the rates of eye injuries were compared by year, a significantly higher rate among South East Asian seafarers was observed in 2012, which reflects the inverse time trend of the two groups. The injury rates of all other nationality categories were lower but not significantly different form that of Western European workers.</p>
          </sec>
       </sec>
       <sec>
          <st>
             <p>4
 						Discussion</p>
          </st>
          <p>Western European and South East Asian seafarers form the largest groups among seafarers on Danish non-passenger merchant ships and they contribute to the highest number of occupational accidents. The accident rate calculated for the time at risk, that is, the risk of getting injured on board a ship, however, significantly varies among nationality groups. Western European seafarers have a significantly higher incidence rate of reported accidents than colleagues of other nationality backgrounds. This observation highlights that the phenomenon that has been previously reported from Denmark still existed in the 2010-2012 period <abbrgrp>
                <abbr bid="B7">7</abbr>
             </abbrgrp>,<abbrgrp>
                <abbr bid="B8">8</abbr>
             </abbrgrp>, though the accident rate of Western European seafarers shows a characteristic decreasing trend, leading to a reduction in differences over time.</p>
          <p>The occupational injury rates reported from different countries vary considerably. This phenomenon is not surprising considering the wide differences in workplace conditions, safety measures, competencies and legislative requirements <abbrgrp>
                <abbr bid="B9">9</abbr>
             </abbrgrp>. Nevertheless, substantial differences relating to employees&#8217; nationality can also be observed within the same country&#8217;s workforce where similar standards apply, therefore the divergence cannot be explained by largely differing regulatory backgrounds and workplace conditions. Although seafarers of different nationalities hold different positions and jobs on board, human factors are also likely to play a major role. Previous reports identified typically higher occupational accident rates among foreign workers and some minority groups, although these findings are not consistent <abbrgrp>
                <abbr bid="B10">10</abbr>
             </abbrgrp>-<abbrgrp>
                <abbr bid="B14">14</abbr>
             </abbrgrp>. Contrary results were reported by a US survey that observed significantly lower risk of occupational injuries among Afro-American and Hispanic than among non-Hispanic white nurses <abbrgrp>
                <abbr bid="B15">15</abbr>
             </abbrgrp>. Zhang et al. also found significantly lower rate of reported work-related injuries among foreign-born workers versus US-born workers <abbrgrp>
                <abbr bid="B16">16</abbr>
             </abbrgrp>.</p>
          <p>Only few studies exist that investigated the accident rate of seafarers of different nationalities. However, they tend to report consistent findings that seem to contradict some observations reported from other specific workplace settings. Hansen and his colleagues observed that foreign seafarers working aboard merchant ships registered in the Danish International Ship Register had only half the risk of being injured than had a Danish seafarer <abbrgrp>
                <abbr bid="B7">7</abbr>
             </abbrgrp>. A later study by the same author reported an accident rate of 106 per 1000&#160;years at sea among Western European seafarers in 2003, corresponding to 29 injuries per 100000 person-days <abbrgrp>
                <abbr bid="B8">8</abbr>
             </abbrgrp>. Although our investigation was limited to a three-year period, which restricts firm conclusions about trend, the accident rate of 17.5 injuries per 100000 person-days observed for the same nationality group indicates a decreasing trend over the past decade, one that seems to continue in this study period. The study also confirmed the nationality differences, identifying high rates of reported accidents among Western European compared with Eastern European and South East Asian employees <abbrgrp>
                <abbr bid="B8">8</abbr>
             </abbrgrp>. The differences were smaller when only serious injuries were considered, but remained significant. This finding may suggest a certain level of underreporting, but it cannot be the sole explanation. Similar differences between Danish, EU and non-EU nationalities in their reported accident rates were identified recently, based on preliminary analysis of cumulative incidence rates of accidents notified to the Danish Maritime Authority in 2010-2012 <abbrgrp>
                <abbr bid="B17">17</abbr>
             </abbrgrp>. A significantly lower risk of serious occupational injuries among Filipino workers compared to non-Filipinos was also identified in the international crew of a cruise ship registered in the Bahamas <abbrgrp>
                <abbr bid="B18">18</abbr>
             </abbrgrp>.</p>
          <p>The observed nationality differences in the rate of reported occupational accidents may indicate a difference in the level of risk, or may be an artificial finding due to divergence in reporting. Foreign, especially Asian, seafarers may be reluctant to report injuries, and this could be the reason for their lower rate of notified accidents. A secondary analysis of injury data reported to 16 maritime administrations highlighted the phenomenon of systematic differences between national groups in their propensity to self-report injuries and demonstrated that this can at least partly explain the variations in their injury rates <abbrgrp>
                <abbr bid="B19">19</abbr>
             </abbrgrp>. The typical reasons for under-reporting, as observed in the construction industry, are the perception of the injury as part of the job and the fear of negative consequences of reporting <abbrgrp>
                <abbr bid="B20">20</abbr>
             </abbrgrp>. Workers are more likely to report serious injuries, since these cases frequently require medical treatment and therefore leave less room to conceal the event. The differences found in the rate of serious injuries between nationality groups were found smaller in this study than the differences in overall injury rates. Still, the rate of serious injuries of South East Asian and Eastern European seafarers remained significantly lower than that of Western European seamen. Nevertheless, the significant difference disappeared for Indian employees. The reduced discrepancy indicates the influence of reporting on accident rates but the remaining significance suggests that it is not the only contributing factor.</p>
          <p>The study considered an injury serious if medical treatment was sought or recommended for a case or if it was reported as a lost time accident. Although widely used, some ambiguity of categorising an accident as LTA in the special working environment of ships must be noted. The common understanding of being away from work is challenged when the place and activities on duty and off duty easily overlap with each other as frequently experienced in the confined community of a ship. The current manning of merchant ships is limited and everybody is needed for the required tasks and shifts on board, so it is very rare for somebody to stay away from work entirely even if injured. This phenomenon could be the explanation for the large proportion of Radio Medical contact that was not notified to the DMA.</p>
          <p>The risk of occupational accident is determined by the specific work environment and the work performed. Therefore the type of the ship as well as the position of the seafarer essentially influences the chance of getting injured <abbrgrp>
                <abbr bid="B7">7</abbr>
             </abbrgrp>. Accidents are typically more frequent among manual than among white-collar workers, that is, in the maritime context, among non-officers compared to officers <abbrgrp>
                <abbr bid="B5">5</abbr>
             </abbrgrp>,<abbrgrp>
                <abbr bid="B19">19</abbr>
             </abbrgrp>. On Danish ships, the majority of officers are Danish and other Western European seafarers, while Eastern European, and especially Asian, workers typically take lower ranking positions. The potential confounding effect of the uneven distribution of these characteristics among the nationality groups was adjusted for in the regression analysis.</p>
          <p>The study defined Indian seafarers as a separate nationality group. Previous studies typically categorised Indian employees as Asians together with Filipinos, or placed them in the &#8220;other&#8221; nationality group. Therefore until now there has been a lack of data on their maritime safety status. Our findings show remarkable differences in the occupational accident rates of Indian and South East Asian (Filipino) seafarers, with Indians being injured more frequently. Their rate of sustaining a serious injury even proved to be on the level of Western European employees. It indicates that after mitigating the effect of differences in reporting, the risk level of Indian workers does not seem to be different from that of Western European seamen.</p>
          <p>Especially large differences were identified among nationality groups in terms of back injuries. For this injury type the rate of Western European seafarers proved to be far higher than that of all other nationalities. Lower rates of acute low back pain were similarly observed among Asians when compared to other ethnic groups in the American population <abbrgrp>
                <abbr bid="B21">21</abbr>
             </abbrgrp>,<abbrgrp>
                <abbr bid="B22">22</abbr>
             </abbrgrp>. The phenomenon is difficult to explain. Apart from differences in fitness to work, awareness of the seriousness of the problem and the consequent willingness to report it, differences in habits of positioning the trunk and techniques of lifting loads can be hypothesised. The cultural background may determine the individual perception of low back pain, too <abbrgrp>
                <abbr bid="B23">23</abbr>
             </abbrgrp>.</p>
          <p>Surprisingly the nationality pattern of eye injury rates conflicted with the pattern of other injury types. The rate of eye injuries among South East Asian seafarers proved to be the highest, almost significantly higher than the rate of Western European employees in crude comparison. Further studies are needed to explore the causes behind this observation, which may be due to the special tasks undertaken by Asian crew.</p>
          <p>Even though South East Asian seamen proved to have a lower accident rate than Western Europeans, one notable observation is that their rate remained at the same level during the study period, while the Western European seafarers&#8217; rate decreased. This finding indicates an improvement in their safety of Western European seamen, while the safety of South East Asian employees stagnated. So on the one hand Filipino seaman are &#8220;better&#8221; as regards safety performance while on the other hand their safety is not improving further. Does this mean that they reached their limit of safety? It may be worth exploring this speculative question in further research.</p>
       </sec>
       <sec>
          <st>
             <p>5
 						Conclusions</p>
          </st>
          <p>The study demonstrated substantial differences between nationalities in occupational injury rates reported from merchant ships sailing under the Danish flag. The results confirm previous findings but also highlight decreasing differences over time. The significantly higher rate among Western European seafarers can only partially be related to reporting practice, and the reasons behind it are likely to include differences in safety behaviour and fitness to work. The varying safety culture of nationality groups in the crews of Danish merchant ships has already been suggested and discussed <abbrgrp>
                <abbr bid="B24">24</abbr>
             </abbrgrp>. The effect of national culture on safety behaviour has also been demonstrated among seafarers of different Asian nationalities <abbrgrp>
                <abbr bid="B25">25</abbr>
             </abbrgrp>. Nevertheless, further research is needed to explore the underlying causes of nationality differences in occupational safety culture so as to gain information that can be utilised favourably to eliminate the factors determining potential unsafe behaviour in the hazardous working environments on board merchant ships.</p>
       </sec>
       <sec>
          <st>
             <p>Competing interests</p>
          </st>
          <p>The authors declare no competing interests.</p>
       </sec>
       <sec>
          <st>
             <p>Authors&#8217; contributions</p>
          </st>
          <p>B&#193; supervised the study, coordinated data collection and did the statistical analysis, HBR and RNFP contributed to data processing and manuscript preparation, JRJ gave professional advice for data processing and contributed to manuscript preparation. All authors read and approved the final manuscript.</p>
       </sec>
    </bdy>
    <bm>
       <ack>
          <sec>
             <st>
                <p>Acknowledgements</p>
             </st>
             <p>The authors would like to acknowledge the substantial contributions from Henrik Lyndbeck Hansen, Medical Office of Health, Southern Denmark, who helped with data management and manuscript preparation, from the Danish Maritime Authority that provided accident notifications and stratified data on person-days on ship, and from Radio Medical Denmark that provided records of contact for the study. The research was supported by the Danish Working Environment Authority (Agreement number: 33-2009-09).</p>
          </sec>
       </ack>
       <refgrp>
          
          <bibl id="B1">
             <aug>
                <au>
                   <snm>Denmark</snm>
                   <fnm>S</fnm>
                </au>
             </aug>
             <source>SKIB11: Danish ships 1st January by type of vessel, ship&#8217;s register and unit</source>
             <publisher>Coppenhagen, Statistics Denmark</publisher>
             <pubdate>2012</pubdate>
          </bibl>
          <bibl id="B2">
             <title>
                <p>An analysis of the causes of mortality among seafarers in the British merchant fleet (1986-1995) and recommendations for their reduction</p>
             </title>
             <aug>
                <au>
                   <snm>Roberts</snm>
                   <fnm>SE</fnm>
                </au>
                <au>
                   <snm>Hansen</snm>
                   <fnm>HL</fnm>
                </au>
             </aug>
             <source>Occup Med (Lond)</source>
             <pubdate>2002</pubdate>
             <volume>52</volume>
             <fpage>195</fpage>
             <lpage>202</lpage>
             <xrefbib>
                <pubidlist>
                   <pubid idtype="doi">10.1093/occmed/52.4.195</pubid>
                </pubidlist>
             </xrefbib>
          </bibl>
          <bibl id="B3">
             <title>
                <p>Surveillance of deaths on board Danish merchant ships, 1986-93: implications for prevention</p>
             </title>
             <aug>
                <au>
                   <snm>Hansen</snm>
                   <fnm>HL</fnm>
                </au>
             </aug>
             <source>Occup Environ Med</source>
             <pubdate>1996</pubdate>
             <volume>53</volume>
             <fpage>269</fpage>
             <lpage>275</lpage>
             <xrefbib>
                <pubidlist>
                   <pubid idtype="doi">10.1136/oem.53.4.269</pubid>
                   <pubid idtype="pmpid" link="fulltext">8664966</pubid>
                </pubidlist>
             </xrefbib>
          </bibl>
          <bibl id="B4">
             <title>
                <p>Surveillance of maritime deaths on board Danish merchant ships, 1986-2009</p>
             </title>
             <aug>
                <au>
                   <snm>Borch</snm>
                   <fnm>DF</fnm>
                </au>
                <au>
                   <snm>Hansen</snm>
                   <fnm>HL</fnm>
                </au>
                <au>
                   <snm>Burr</snm>
                   <fnm>H</fnm>
                </au>
                <au>
                   <snm>Jepsen</snm>
                   <fnm>JR</fnm>
                </au>
             </aug>
             <source>Int Marit Health</source>
             <pubdate>2012</pubdate>
             <volume>63</volume>
             <fpage>7</fpage>
             <lpage>16</lpage>
             <xrefbib>
                <pubidlist>
                   <pubid idtype="pmpid" link="fulltext">22669807</pubid>
                </pubidlist>
             </xrefbib>
          </bibl>
          <bibl id="B5">
             <title>
                <p>Incidence of self-reported occupational injuries in seafaring&#8211;an international study</p>
             </title>
             <aug>
                <au>
                   <snm>Jensen</snm>
                   <fnm>OC</fnm>
                </au>
                <au>
                   <snm>Sorensen</snm>
                   <fnm>JF</fnm>
                </au>
                <au>
                   <snm>Canals</snm>
                   <fnm>ML</fnm>
                </au>
                <au>
                   <snm>Hu</snm>
                   <fnm>YP</fnm>
                </au>
                <au>
                   <snm>Nikolic</snm>
                   <fnm>N</fnm>
                </au>
                <au>
                   <snm>Thomas</snm>
                   <fnm>M</fnm>
                </au>
             </aug>
             <source>Occup Med (Lond)</source>
             <pubdate>2004</pubdate>
             <volume>54</volume>
             <fpage>548</fpage>
             <lpage>555</lpage>
             <xrefbib>
                <pubidlist>
                   <pubid idtype="doi">10.1093/occmed/kqh090</pubid>
                </pubidlist>
             </xrefbib>
          </bibl>
          <bibl id="B6">
             <title>
                <p>Safety in shipping: the human element</p>
             </title>
             <aug>
                <au>
                   <snm>Hetherington</snm>
                   <fnm>C</fnm>
                </au>
                <au>
                   <snm>Flin</snm>
                   <fnm>R</fnm>
                </au>
                <au>
                   <snm>Mearns</snm>
                   <fnm>K</fnm>
                </au>
             </aug>
             <source>J Safety Res</source>
             <pubdate>2006</pubdate>
             <volume>37</volume>
             <fpage>401</fpage>
             <lpage>411</lpage>
             <xrefbib>
                <pubidlist>
                   <pubid idtype="doi">10.1016/j.jsr.2006.04.007</pubid>
                   <pubid idtype="pmpid" link="fulltext">17046789</pubid>
                </pubidlist>
             </xrefbib>
          </bibl>
          <bibl id="B7">
             <title>
                <p>Occupational accidents aboard merchant ships</p>
             </title>
             <aug>
                <au>
                   <snm>Hansen</snm>
                   <fnm>HL</fnm>
                </au>
                <au>
                   <snm>Nielsen</snm>
                   <fnm>D</fnm>
                </au>
                <au>
                   <snm>Frydenberg</snm>
                   <fnm>M</fnm>
                </au>
             </aug>
             <source>Occup Environ Med</source>
             <pubdate>2002</pubdate>
             <volume>59</volume>
             <fpage>85</fpage>
             <lpage>91</lpage>
             <xrefbib>
                <pubidlist>
                   <pubid idtype="doi">10.1136/oem.59.2.85</pubid>
                   <pubid idtype="pmpid" link="fulltext">11850550</pubid>
                </pubidlist>
             </xrefbib>
          </bibl>
          <bibl id="B8">
             <title>
                <p>Major differences in rates of occupational accidents between different nationalities of seafarers</p>
             </title>
             <aug>
                <au>
                   <snm>Hansen</snm>
                   <fnm>HL</fnm>
                </au>
                <au>
                   <snm>Laursen</snm>
                   <fnm>LH</fnm>
                </au>
                <au>
                   <snm>Frydberg</snm>
                   <fnm>M</fnm>
                </au>
                <au>
                   <snm>Kristensen</snm>
                   <fnm>S</fnm>
                </au>
             </aug>
             <source>Int Marit Health</source>
             <pubdate>2008</pubdate>
             <volume>59</volume>
             <fpage>7</fpage>
             <lpage>18</lpage>
             <xrefbib>
                <pubidlist>
                   <pubid idtype="pmpid" link="fulltext">19227734</pubid>
                </pubidlist>
             </xrefbib>
          </bibl>
          <bibl id="B9">
             <title>
                <p>Global estimates of occupational accidents</p>
             </title>
             <aug>
                <au>
                   <snm>H&#228;m&#228;l&#228;inen</snm>
                   <fnm>P</fnm>
                </au>
                <au>
                   <snm>Takala</snm>
                   <fnm>J</fnm>
                </au>
                <au>
                   <snm>Saarela</snm>
                   <fnm>KL</fnm>
                </au>
             </aug>
             <source>Safety Science</source>
             <pubdate>2006</pubdate>
             <volume>44</volume>
             <fpage>137</fpage>
             <lpage>156</lpage>
             <xrefbib>
                <pubidlist>
                   <pubid idtype="doi">10.1016/j.ssci.2005.08.017</pubid>
                </pubidlist>
             </xrefbib>
          </bibl>
          <bibl id="B10">
             <title>
                <p>Immigrant populations, work and health&#8212;a systematic literature review</p>
             </title>
             <aug>
                <au>
                   <snm>Ahonen</snm>
                   <fnm>EQ</fnm>
                </au>
                <au>
                   <snm>Benavides</snm>
                   <fnm>FG</fnm>
                </au>
                <au>
                   <snm>Benach</snm>
                   <fnm>J</fnm>
                </au>
             </aug>
             <source>Scand J Work Environ Health</source>
             <pubdate>2007</pubdate>
             <volume>33</volume>
             <fpage>96</fpage>
             <lpage>104</lpage>
             <xrefbib>
                <pubidlist>
                   <pubid idtype="doi">10.5271/sjweh.1112</pubid>
                   <pubid idtype="pmpid" link="fulltext">17460797</pubid>
                </pubidlist>
             </xrefbib>
          </bibl>
          <bibl id="B11">
             <title>
                <p>Occupational injury in America: An analysis of risk factors using data from the General Social Survey (GSS)</p>
             </title>
             <aug>
                <au>
                   <snm>Smith</snm>
                   <fnm>TD</fnm>
                </au>
                <au>
                   <snm>DeJoy</snm>
                   <fnm>DM</fnm>
                </au>
             </aug>
             <source>J Safety Res</source>
             <pubdate>2012</pubdate>
             <volume>43</volume>
             <fpage>67</fpage>
             <lpage>74</lpage>
             <xrefbib>
                <pubidlist>
                   <pubid idtype="doi">10.1016/j.jsr.2011.12.002</pubid>
                   <pubid idtype="pmpid" link="fulltext">22385742</pubid>
                </pubidlist>
             </xrefbib>
          </bibl>
          <bibl id="B12">
             <title>
                <p>Work-related injuries among immigrants: a growing global health disparity</p>
             </title>
             <aug>
                <au>
                   <snm>Schenker</snm>
                   <fnm>M</fnm>
                </au>
             </aug>
             <source>Occup Environ Med</source>
             <pubdate>2008</pubdate>
             <volume>65</volume>
             <fpage>717</fpage>
             <lpage>718</lpage>
             <xrefbib>
                <pubidlist>
                   <pubid idtype="doi">10.1136/oem.2008.040907</pubid>
                   <pubid idtype="pmpid" link="fulltext">18940954</pubid>
                </pubidlist>
             </xrefbib>
          </bibl>
          <bibl id="B13">
             <title>
                <p>Comparing the risk of work-related injuries between immigrants to Canada and Canadian-born labour market participants</p>
             </title>
             <aug>
                <au>
                   <snm>Smith</snm>
                   <fnm>PM</fnm>
                </au>
                <au>
                   <snm>Mustard</snm>
                   <fnm>CA</fnm>
                </au>
             </aug>
             <source>Occup Environ Med</source>
             <pubdate>2009</pubdate>
             <volume>66</volume>
             <fpage>361</fpage>
             <lpage>367</lpage>
             <xrefbib>
                <pubidlist>
                   <pubid idtype="doi">10.1136/oem.2007.038646</pubid>
                   <pubid idtype="pmpid" link="fulltext">18614627</pubid>
                </pubidlist>
             </xrefbib>
          </bibl>
          <bibl id="B14">
             <title>
                <p>Occupational fatalities of Hispanic construction workers from 1992 to 2000</p>
             </title>
             <aug>
                <au>
                   <snm>Dong</snm>
                   <fnm>X</fnm>
                </au>
                <au>
                   <snm>Platner</snm>
                   <fnm>JW</fnm>
                </au>
             </aug>
             <source>Am J Ind Med</source>
             <pubdate>2004</pubdate>
             <volume>45</volume>
             <fpage>45</fpage>
             <lpage>54</lpage>
             <xrefbib>
                <pubidlist>
                   <pubid idtype="doi">10.1002/ajim.10322</pubid>
                   <pubid idtype="pmpid" link="fulltext">14691968</pubid>
                </pubidlist>
             </xrefbib>
          </bibl>
          <bibl id="B15">
             <title>
                <p>Racial and Ethnic Disparities in Work-Related Injuries and Socio-Economic Resources Among Nursing Assistants Employed in US Nursing Homes</p>
             </title>
             <aug>
                <au>
                   <snm>Tak</snm>
                   <fnm>S</fnm>
                </au>
                <au>
                   <snm>Alterman</snm>
                   <fnm>T</fnm>
                </au>
                <au>
                   <snm>Baron</snm>
                   <fnm>S</fnm>
                </au>
                <au>
                   <snm>Calvert</snm>
                   <fnm>GM</fnm>
                </au>
             </aug>
             <source>Am J Ind Med</source>
             <pubdate>2010</pubdate>
             <volume>53</volume>
             <fpage>951</fpage>
             <lpage>959</lpage>
             <xrefbib>
                <pubidlist>
                   <pubid idtype="doi">10.1002/ajim.20852</pubid>
                   <pubid idtype="pmpid" link="fulltext">20860052</pubid>
                </pubidlist>
             </xrefbib>
          </bibl>
          <bibl id="B16">
             <title>
                <p>Work-Related Non-Fatal Injuries Among Foreign-Born and US-Born Workers: Findings From the US National Health Interview Survey, 1997-2005</p>
             </title>
             <aug>
                <au>
                   <snm>Zhang</snm>
                   <fnm>XF</fnm>
                </au>
                <au>
                   <snm>Yu</snm>
                   <fnm>SL</fnm>
                </au>
                <au>
                   <snm>Wheeler</snm>
                   <fnm>K</fnm>
                </au>
                <au>
                   <snm>Kelleher</snm>
                   <fnm>K</fnm>
                </au>
                <au>
                   <snm>Stallones</snm>
                   <fnm>L</fnm>
                </au>
                <au>
                   <snm>Xiang</snm>
                   <fnm>HY</fnm>
                </au>
             </aug>
             <source>Am J Ind Med</source>
             <pubdate>2009</pubdate>
             <volume>52</volume>
             <fpage>25</fpage>
             <lpage>36</lpage>
             <xrefbib>
                <pubidlist>
                   <pubid idtype="doi">10.1002/ajim.20642</pubid>
                   <pubid idtype="pmpid" link="fulltext">18942664</pubid>
                </pubidlist>
             </xrefbib>
          </bibl>
          <bibl id="B17">
             <title>
                <p>Association between nationality and occupational injury risk on Danish non-passenger merchant ships</p>
             </title>
             <aug>
                <au>
                   <snm>&#193;d&#225;m</snm>
                   <fnm>B</fnm>
                </au>
             </aug>
             <source>Int Marit Health</source>
             <pubdate>2013</pubdate>
             <volume>64</volume>
             <fpage>1</fpage>
             <lpage>5</lpage>
          </bibl>
          <bibl id="B18">
             <title>
                <p>Crew accidents reported during 3&#160;years on a cruise ship</p>
             </title>
             <aug>
                <au>
                   <snm>Dahl</snm>
                   <fnm>E</fnm>
                </au>
                <au>
                   <snm>Ulven</snm>
                   <fnm>A</fnm>
                </au>
                <au>
                   <snm>Horneland</snm>
                   <fnm>AM</fnm>
                </au>
             </aug>
             <source>Int Marit Health</source>
             <pubdate>2008</pubdate>
             <volume>59</volume>
             <fpage>19</fpage>
             <lpage>33</lpage>
             <xrefbib>
                <pubidlist>
                   <pubid idtype="pmpid" link="fulltext">19227735</pubid>
                </pubidlist>
             </xrefbib>
          </bibl>
          <bibl id="B19">
             <title>
                <p>Patterns of seafarer injuries</p>
             </title>
             <aug>
                <au>
                   <snm>Ellis</snm>
                   <fnm>N</fnm>
                </au>
                <au>
                   <snm>Bloor</snm>
                   <fnm>M</fnm>
                </au>
                <au>
                   <snm>Sampson</snm>
                   <fnm>H</fnm>
                </au>
             </aug>
             <source>Marit Policy Manage</source>
             <pubdate>2010</pubdate>
             <volume>37</volume>
             <fpage>121</fpage>
             <lpage>128</lpage>
             <xrefbib>
                <pubidlist>
                   <pubid idtype="doi">10.1080/03088830903533742</pubid>
                </pubidlist>
             </xrefbib>
          </bibl>
          <bibl id="B20">
             <title>
                <p>Construction workers&#8217; reasons for not reporting work-related injuries: an exploratory study</p>
             </title>
             <aug>
                <au>
                   <snm>Moore</snm>
                   <fnm>JT</fnm>
                </au>
                <au>
                   <snm>Cigularov</snm>
                   <fnm>KP</fnm>
                </au>
                <au>
                   <snm>Sampson</snm>
                   <fnm>JM</fnm>
                </au>
                <au>
                   <snm>Rosecrance</snm>
                   <fnm>JC</fnm>
                </au>
                <au>
                   <snm>Chen</snm>
                   <fnm>P</fnm>
                </au>
             </aug>
             <source>Int J Occup Saf Ergon</source>
             <pubdate>2013</pubdate>
             <volume>19</volume>
             <fpage>97</fpage>
             <lpage>105</lpage>
             <xrefbib>
                <pubidlist>
                   <pubid idtype="pmpid" link="fulltext">23498712</pubid>
                </pubidlist>
             </xrefbib>
          </bibl>
          <bibl id="B21">
             <title>
                <p>Racial Differences in the Incidence of Acute Low Back Pain in United States Military Service Members</p>
             </title>
             <aug>
                <au>
                   <snm>Knox</snm>
                   <fnm>JB</fnm>
                </au>
                <au>
                   <snm>Orchowski</snm>
                   <fnm>JR</fnm>
                </au>
                <au>
                   <snm>Owens</snm>
                   <fnm>B</fnm>
                </au>
             </aug>
             <source>Spine</source>
             <pubdate>2012</pubdate>
             <volume>37</volume>
             <fpage>1688</fpage>
             <lpage>1692</lpage>
             <xrefbib>
                <pubidlist>
                   <pubid idtype="doi">10.1097/BRS.0b013e318255a07b</pubid>
                   <pubid idtype="pmpid" link="fulltext">22460922</pubid>
                </pubidlist>
             </xrefbib>
          </bibl>
          <bibl id="B22">
             <title>
                <p>Low back pain in the United States: incidence and risk factors for presentation in the emergency setting</p>
             </title>
             <aug>
                <au>
                   <snm>Waterman</snm>
                   <fnm>BR</fnm>
                </au>
                <au>
                   <snm>Belmont</snm>
                   <fnm>PJ</fnm>
                </au>
                <au>
                   <snm>Schoenfeld</snm>
                   <fnm>AJ</fnm>
                </au>
             </aug>
             <source>Spine J</source>
             <pubdate>2012</pubdate>
             <volume>12</volume>
             <fpage>63</fpage>
             <lpage>70</lpage>
             <xrefbib>
                <pubidlist>
                   <pubid idtype="doi">10.1016/j.spinee.2011.09.002</pubid>
                   <pubid idtype="pmpid" link="fulltext">21978519</pubid>
                </pubidlist>
             </xrefbib>
          </bibl>
          <bibl id="B23">
             <title>
                <p>Disabling musculoskeletal pain in working populations: Is it the job, the person, or the culture?</p>
             </title>
             <aug>
                <au>
                   <snm>Coggon</snm>
                   <fnm>D</fnm>
                </au>
                <au>
                   <snm>Ntani</snm>
                   <fnm>G</fnm>
                </au>
                <au>
                   <snm>Palmer</snm>
                   <fnm>KT</fnm>
                </au>
                <au>
                   <snm>Felli</snm>
                   <fnm>VE</fnm>
                </au>
                <au>
                   <snm>Harari</snm>
                   <fnm>R</fnm>
                </au>
                <au>
                   <snm>Barrero</snm>
                   <fnm>LH</fnm>
                </au>
                <au>
                   <snm>Felknor</snm>
                   <fnm>SA</fnm>
                </au>
                <au>
                   <snm>Gimeno</snm>
                   <fnm>D</fnm>
                </au>
                <au>
                   <snm>Cattrell</snm>
                   <fnm>A</fnm>
                </au>
                <au>
                   <snm>Serra</snm>
                   <fnm>C</fnm>
                </au>
                <au>
                   <snm>Bonzini</snm>
                   <fnm>M</fnm>
                </au>
                <au>
                   <snm>Solidaki</snm>
                   <fnm>E</fnm>
                </au>
                <au>
                   <snm>Merisalu</snm>
                   <fnm>E</fnm>
                </au>
                <au>
                   <snm>Habib</snm>
                   <fnm>RR</fnm>
                </au>
                <au>
                   <snm>Sadeghian</snm>
                   <fnm>F</fnm>
                </au>
                <au>
                   <snm>Masood Kadir</snm>
                   <fnm>M</fnm>
                </au>
                <au>
                   <snm>Warnakulasuriya</snm>
                   <fnm>SS</fnm>
                </au>
                <au>
                   <snm>Matsudaira</snm>
                   <fnm>K</fnm>
                </au>
                <au>
                   <snm>Nyantumbu</snm>
                   <fnm>B</fnm>
                </au>
                <au>
                   <snm>Sim</snm>
                   <fnm>MR</fnm>
                </au>
                <au>
                   <snm>Harcombe</snm>
                   <fnm>H</fnm>
                </au>
                <au>
                   <snm>Cox</snm>
                   <fnm>K</fnm>
                </au>
                <au>
                   <snm>Marziale</snm>
                   <fnm>MH</fnm>
                </au>
                <au>
                   <snm>Sarquis</snm>
                   <fnm>LM</fnm>
                </au>
                <au>
                   <snm>Harari</snm>
                   <fnm>F</fnm>
                </au>
                <au>
                   <snm>Freire</snm>
                   <fnm>R</fnm>
                </au>
                <au>
                   <snm>Harari</snm>
                   <fnm>N</fnm>
                </au>
                <au>
                   <snm>Monroy</snm>
                   <fnm>MV</fnm>
                </au>
                <au>
                   <snm>Quintana</snm>
                   <fnm>LA</fnm>
                </au>
                <au>
                   <snm>Rojas</snm>
                   <fnm>M</fnm>
                </au>
                <etal/>
             </aug>
             <source>Pain</source>
             <pubdate>2013</pubdate>
             <volume>154</volume>
             <fpage>856</fpage>
             <lpage>863</lpage>
             <xrefbib>
                <pubidlist>
                   <pubid idtype="doi">10.1016/j.pain.2013.02.008</pubid>
                   <pubid idtype="pmpid" link="fulltext">23688828</pubid>
                </pubidlist>
             </xrefbib>
          </bibl>
          <bibl id="B24">
             <title>
                <p>Why do Filipinos have fewer reported work accidents than other nationals? Findings from literature</p>
             </title>
             <aug>
                <au>
                   <snm>Gr&#248;n</snm>
                   <fnm>S</fnm>
                </au>
                <au>
                   <snm>Knudsen</snm>
                   <fnm>F</fnm>
                </au>
             </aug>
             <source>Int Marit Health</source>
             <pubdate>2012</pubdate>
             <volume>63</volume>
             <fpage>96</fpage>
             <lpage>101</lpage>
             <xrefbib>
                <pubidlist>
                   <pubid idtype="pmpid" link="fulltext">22972549</pubid>
                </pubidlist>
             </xrefbib>
          </bibl>
          <bibl id="B25">
             <title>
                <p>Effects of national culture on human failures in container shipping: the moderating role of Confucian dynamism</p>
             </title>
             <aug>
                <au>
                   <snm>Lu</snm>
                   <fnm>CS</fnm>
                </au>
                <au>
                   <snm>Lai</snm>
                   <fnm>KH</fnm>
                </au>
                <au>
                   <snm>Lun</snm>
                   <fnm>YH</fnm>
                </au>
                <au>
                   <snm>Cheng</snm>
                   <fnm>TC</fnm>
                </au>
             </aug>
             <source>Accid Anal Prev</source>
             <pubdate>2012</pubdate>
             <volume>49</volume>
             <fpage>457</fpage>
             <lpage>469</lpage>
             <xrefbib>
                <pubidlist>
                   <pubid idtype="doi">10.1016/j.aap.2012.03.018</pubid>
                   <pubid idtype="pmpid" link="fulltext">22578904</pubid>
                </pubidlist>
             </xrefbib>
          </bibl>
       </refgrp>
    </bm>
 </art>