<art>
    <ui>s13048-014-0099-x</ui>
    <ji>1757-2215</ji>
    <fm>
       <dochead>Research</dochead>
       <bibl>
          <title>
             <p>Aquaporin 5 expression is altered in ovarian tumors and ascites-derived ovarian tumor cells in the chicken model of ovarian tumor</p>
          </title>
          <aug>
             <au id="A1">
                <snm>Tiwari</snm>
                <fnm>Anupama</fnm>
                <insr iid="I1"/>
                <email>axt247@psu.edu</email>
             </au>
             <au id="A2">
                <snm>Hadley</snm>
                <mi>A</mi>
                <fnm>Jill</fnm>
                <insr iid="I1"/>
                <email>jah18@psu.edu</email>
             </au>
             <au id="A3" ca="yes">
                <snm>Ramachandran</snm>
                <fnm>Ramesh</fnm>
                <insr iid="I1"/>
                <email>RameshR@psu.edu</email>
             </au>
          </aug>
          <insg>
             <ins id="I1">
                <p>Department of Animal Science, Center for Reproductive Biology and Health, The Pennsylvania State University, University Park 16801, PA, USA</p>
             </ins>
          </insg>
          <source>Journal of Ovarian Research</source>
          <issn>1757-2215</issn>
          <pubdate>2014</pubdate>
          <volume>7</volume>
          <issue>1</issue>
          <fpage>99</fpage>
          <url>http://www.ovarianresearch.com/content/7/1/99</url>
          <xrefbib>
             <pubidlist>
                <pubid idtype="doi">10.1186/s13048-014-0099-x</pubid>
                <pubid idtype="pmpid"><!-- Need to check source for data--></pubid>
             </pubidlist>
          </xrefbib>
       </bibl>
       <history>
          <rec>
             <date>
                <day>29</day>
                <month>7</month>
                <year>2014</year>
             </date>
          </rec>
          <acc>
             <date>
                <day>11</day>
                <month>10</month>
                <year>2014</year>
             </date>
          </acc>
          <pub>
             <date>
                <day>25</day>
                <month>10</month>
                <year>2014</year>
             </date>
          </pub>
       </history>
       <cpyrt>
          <year>2014</year>
          <collab>Tiwari et al.; licensee BioMed Central Ltd.</collab>
          <note>This is an Open Access article distributed under the terms of the Creative Commons Attribution License (<url>http://creativecommons.org/licenses/by/4.0</url>), which permits unrestricted use, distribution, and reproduction in any medium, provided the original work is properly credited. The Creative Commons Public Domain Dedication waiver (<url>http://creativecommons.org/publicdomain/zero/1.0/</url>) applies to the data made available in this article, unless otherwise stated.</note>
       </cpyrt>
       <kwdg>
          <kwd>Water channel transmembrane protein</kwd>
          <kwd>Malignancy</kwd>
          <kwd>Metastasis</kwd>
          <kwd>Invasiveness</kwd>
          <kwd>Epithelial ovarian tumor</kwd>
       </kwdg>
       <abs>
          <sec>
             <st>
                <p>Abstract</p>
             </st>
             <sec>
                <st>
                   <p>Background</p>
                </st>
                <p>Aquaporin 5 (AQP5), a member of the aquaporin family of transmembrane channel proteins, is involved in water transport and cellular proliferation in various tumors. The objective of this study was to determine cellular localization of aquaporin 5 (AQP5) in the ovarian tumors of chicken, a preclinical model for human ovarian tumor and to determine if AQP5 mRNA and protein expression levels in cancerous chicken ovaries and in ascites-derived chicken ovarian cancer (COVCAR) cell lines are different from normal ovaries and normal ovarian surface epithelial (NOSE) cells, respectively.</p>
             </sec>
             <sec>
                <st>
                   <p>Methods</p>
                </st>
                <p>Immunohistochemical staining was performed to determine the localization of AQP5-immunoreactive (ir) cells in normal and cancerous ovaries. To determine AQP5 mRNA and protein concentrations in cancerous ovaries and COVCAR cell lines, quantitative real time PCR and Western blotting analysis were performed, respectively. Student&#8217;s t-test was performed to compare the levels of AQP5 mRNA or protein in cancerous ovaries and COVCAR cell lines with that of normal ovaries and NOSE cells, respectively.</p>
             </sec>
             <sec>
                <st>
                   <p>Results</p>
                </st>
                <p>AQP5-ir cells were localized in granulosa and theca layers of normal ovarian follicles whereas cancerous ovaries showed AQP5 immunostaining in the surface epithelium, fibroblast cells of the stroma, and in the cells lining tumor cysts and acini. AQP5 mRNA concentration were significantly lesser while AQP5 protein concentrations were significantly greater in cancerous ovaries compared to that in normal ovaries (P&#8201;&lt;&#8201;0.05). Whereas AQP5 mRNA concentrations were significantly greater while AQP5 protein concentrations were lesser (P&#8201;&lt;&#8201;0.05) in COVCAR cell lines compared with that in NOSE cells.</p>
             </sec>
             <sec>
                <st>
                   <p>Conclusion</p>
                </st>
                <p>AQP5 is differentially expressed in ovarian tumor and in COVCAR cell lines suggesting a potential involvement of AQP5 in ovarian tumorigenesis, metastasis, and survival of ovarian tumor cells in ascites.</p>
             </sec>
          </sec>
       </abs>
    </fm>
    <bdy>
       <sec>
          <st>
             <p>1
 						Introduction</p>
          </st>
          <p>Ovarian cancer is a very complex and heterogeneous disease that ranks fifth in cancer-related deaths among women <abbrgrp>
                <abbr bid="B1">1</abbr>
             </abbrgrp>,<abbrgrp>
                <abbr bid="B2">2</abbr>
             </abbrgrp>. High mortality due to ovarian cancer is attributed to diagnosis of the disease at advanced stages and high recurrence following first line of treatment. Advanced stages of ovarian cancers are usually associated with ascites formation <abbrgrp>
                <abbr bid="B3">3</abbr>
             </abbrgrp>. Ascites is accumulation of fluid in the peritoneal cavity as a result of a combination of several factors including peritoneal lymphatic obstruction by tumor cells causing impaired lymphatic drainage <abbrgrp>
                <abbr bid="B4">4</abbr>
             </abbrgrp>, rupture of organ/tissue architecture leading to plasma leak into the peritoneal cavity <abbrgrp>
                <abbr bid="B5">5</abbr>
             </abbrgrp>, and secretion of vascular permeability factors by tumor cells <abbrgrp>
                <abbr bid="B6">6</abbr>
             </abbrgrp>. Furthermore, imbalances in water transport could result from alterations in expression of water channel proteins such as aquaporin (AQP).</p>
          <p>The aquaporins are a family of integral membrane proteins that facilitate water transport across the cell membrane <abbrgrp>
                <abbr bid="B7">7</abbr>
             </abbrgrp>. In addition to water transport, aquaporins are reported to play a major role in angiogenesis, cell migration <abbrgrp>
                <abbr bid="B8">8</abbr>
             </abbrgrp>, cell proliferation <abbrgrp>
                <abbr bid="B9">9</abbr>
             </abbrgrp>, cell volume regulation, mitochondrial metabolism, and apoptosis <abbrgrp>
                <abbr bid="B10">10</abbr>
             </abbrgrp>. Expression of aquaporins was found to be altered in tumors of various organs such as brain <abbrgrp>
                <abbr bid="B11">11</abbr>
             </abbrgrp>, colon <abbrgrp>
                <abbr bid="B12">12</abbr>
             </abbrgrp>, breast, prostate, lung, and ovary. AQP1, AQP5 and AQP9 expression was found to be higher in malignant and borderline ovarian tumors compared to benign ovarian tumor and normal ovaries <abbrgrp>
                <abbr bid="B13">13</abbr>
             </abbrgrp>. AQP1 was predominantly expressed in microvascular endothelium of the ovary tissue but found rarely in ovarian tumor cells <abbrgrp>
                <abbr bid="B13">13</abbr>
             </abbrgrp>,<abbrgrp>
                <abbr bid="B14">14</abbr>
             </abbrgrp>. AQP9, an aquaglyceroporin responsible for glycerol and water transport expressed in normal ovarian surface epithelium, was found to be overexpressed in borderline and malignant tumors <abbrgrp>
                <abbr bid="B13">13</abbr>
             </abbrgrp>. Similar to AQP9, AQP5 expression was reported to be higher in ovarian tumors associated with lymph node metastasis <abbrgrp>
                <abbr bid="B13">13</abbr>
             </abbrgrp>.</p>
          <p>Laying hens are emerging to be the most appropriate animal model for human ovarian cancer as they develop ovarian tumor spontaneously similar to women with a very high rate of incidence as high as 50% during 2&#8211;4 years of age <abbrgrp>
                <abbr bid="B15">15</abbr>
             </abbrgrp>-<abbrgrp>
                <abbr bid="B17">17</abbr>
             </abbrgrp>. Laying hens mimic human ovarian tumor, exhibiting similar disease progression and histological features <abbrgrp>
                <abbr bid="B18">18</abbr>
             </abbrgrp>. Advanced stages of ovarian tumors in chickens as in human are typically associated with the presence of ascites. Recently, we have characterized various ovarian tumor cell lines obtained from ascites of laying hens that had advanced stages of ovarian tumors <abbrgrp>
                <abbr bid="B19">19</abbr>
             </abbrgrp>. Large volumes of ascites, as high as 800&#160;ml or approximately 70% of body weight, accumulate in the viscera of chickens at advanced stages of ovarian tumor <abbrgrp>
                <abbr bid="B19">19</abbr>
             </abbrgrp>. Since greater AQP5 expression has been positively correlated with ascites volume and lymph node metastasis in human subjects with ovarian tumor <abbrgrp>
                <abbr bid="B13">13</abbr>
             </abbrgrp>, we sought to elucidate the expression of AQP5 in the chicken model of ovarian tumor and in ascites-derived chicken ovarian cancer (COVCAR) cell lines. We hypothesized that AQP5 expression is altered in COVCAR cells and in cancerous ovaries obtained from highly metastatic ovarian tumors compared to normal ovarian surface epithelial (NOSE) cells and normal ovaries, respectively. The objective of this study was to determine cellular localization of AQP5 in normal and cancerous chicken ovaries and to determine if AQP5 mRNA and protein quantities are different in chicken ovarian tumors and in COVCAR cells compared to that in normal ovaries and NOSE cells, respectively.</p>
       </sec>
       <sec>
          <st>
             <p>2
 						Materials and methods</p>
          </st>
          <sec>
             <st>
                <p>2.1 Animals</p>
             </st>
             <p>Single-comb White Leghorn chickens were provided unrestricted access to feed and water at all times and maintained at 16&#160;h light and 8&#160;h dark cycle. All animal procedures were carried out in accordance with the Institutional Animal Care and Use Committee approved protocol.</p>
          </sec>
          <sec>
             <st>
                <p>2.2 Tissue collection and cell culture</p>
             </st>
             <p>Normal and cancerous ovaries were collected from chickens (3&#8211;4 years-old; n&#8201;=&#8201;5) as described previously <abbrgrp>
                   <abbr bid="B19">19</abbr>
                </abbrgrp>. After collection, normal and tumorous ovaries were either frozen in liquid nitrogen and stored at &#8722;80&#176;C for extraction of protein and RNA or fixed in Bouin&#8217;s fixative solution for histopathology. Ovary tissue fixed in Bouin&#8217;s fixative solution was dehydrated and embedded in paraffin to prepare 4&#8211;6&#160;&#956;m thick tissue sections for histology and immunohistochemistry. Ascites was collected aseptically for isolation and culture of ovarian cancer (COVCAR) cells, as described previously <abbrgrp>
                   <abbr bid="B19">19</abbr>
                </abbrgrp>. COVCAR cells lines (C5, C6, C7, C11, and C19) were cultured in MCDB105-M199 cell culture medium at 37&#176;C and 5% CO<sub>2</sub>. Upon reaching 80-90% confluence, the cells were passaged and replated at 1:1 or 1:2 ratio. Total RNA and protein were extracted from COVCAR cells (passages 3&#8211;4) as described previously <abbrgrp>
                   <abbr bid="B19">19</abbr>
                </abbrgrp>. To serve as control for COVCAR cells, normal ovarian surface epithelial (NOSE) cells were obtained by gentle scraping of the surface of pre-ovulatory follicles collected from regularly ovulating healthy chickens<it>.</it> The NOSE cells were cultured under identical conditions as used for COVCAR cell culture until they reached 80-90% confluence before preparation of cellular lysates for protein and RNA extraction. We have previously characterized the COVCAR cells lines (C5, C6, C7, C11, and C19) as to their invasiveness in extracellular matrix, ability to grow in soft agar and elevated expression of several ovarian tumor associated genes or proteins including E-cadherin <abbrgrp>
                   <abbr bid="B19">19</abbr>
                </abbrgrp>.</p>
          </sec>
          <sec>
             <st>
                <p>2.3 Histopathology and immunohistochemistry</p>
             </st>
             <p>Normal and cancerous ovary tissue sections (n&#8201;=&#8201;5 animals) were deparaffinized in Histoclear (Electron Microscopy Sciences, Hatfield, PA) and hydrated using descending concentrations of ethyl alcohol in water. Tissue sections were stained with hematoxylin and eosin for histopathological examination by a board-certified veterinary pathologist (Dr. Timothy Cooper, Hershey Medical Center, Pennsylvania State University). For immunohistochemical staining, an antigen retrieval procedure was performed by boiling tissue sections in 10&#160;mM sodium citrate solution (pH&#160;6.0) in a pressure cooker. Endogenous peroxidase activity was quenched using 3% H<sub>2</sub>O<sub>2</sub> in methanol. After several washes in Tris-buffered saline (TBS) containing 0.5% Triton X-100 (TBSX; Sigma-Aldrich), tissue sections were incubated in 1% normal horse serum in TBSX at ambient room temperature followed by overnight incubation in goat anti-human AQP5 antibody (2&#160;&#956;g/ml; cat # SC-9891, Santa Cruz Biotechnology, Santa Cruz, CA). The immunogen used for producing anti-human AQP5 antibody is 89% homologous to the respective chicken AQP5 protein sequence. After several washes, tissue sections were incubated in biotinylated anti-goat secondary antibody (6&#160;&#956;g/ml, Vector Laboratories, Burlingame, CA) in TBSX. Tissue sections were then incubated in avidin-peroxidase supplied in Vectastain ABC elite kit (Vector Laboratories) followed by treatment with 3,3&#8217;-diaminobenzidine substrate solution (Vector Laboratories). After dehydration of tissue sections, the slides were visualized and photographed in an Axioskop microscope (Zeiss, New York, NY). For negative control, ovary tissue sections were incubated in 1% normal horse serum (Vector Laboratories) in TBSX for 1&#160;h at ambient room temperature followed by overnight incubation in 1% normal horse serum (Vector Laboratories) in TBSX in place of goat anti-human AQP5 antibody.</p>
          </sec>
          <sec>
             <st>
                <p>2.4 Real-time quantitative PCR</p>
             </st>
             <p>Total RNA was extracted from ovary tissue (cancerous and normal, n&#8201;=&#8201;5) and cell lines (COVCAR and NOSE cells, n&#8201;=&#8201;5) and reverse transcribed as described previously <abbrgrp>
                   <abbr bid="B19">19</abbr>
                </abbrgrp>. Briefly, 50&#160;ng of cDNA prepared from total RNA extracted from each ovary tissue and cell line was mixed with 1X PerfeCTa SYBR Green Fastmix (Quanta Biosciences, Gaithersburg, MD), and 300 nM forward and reverse primers to amplify chicken AQP5 cDNA (Fwd: GCTCTGCTGTACTTCTACATCCTTGT, Rev: ATTTCTTCCTCTCCTCTCTCTGTTCT) or chicken &#946;-actin (Fwd: CTGGCACCTAGCACAATGAA; Rev: CTGCTTGCTGATCCACATCT). Reactions were carried out in 7500 Fast-Real Time PCR System (Life Technologies) with the following thermal cycle: 95&#176;C for 20&#160;sec followed by 35&#160;cycles of 95&#176;C for 3&#160;sec, 55&#176;C for 10&#160;sec and 63&#176;C for 30&#160;sec. At the end of amplification, a melting curve analysis was performed to confirm the presence of a single amplification product. Samples from each ovary tissue and cell line were run in triplicate to obtain average C<sub>T</sub> values for AQP5 mRNA and &#946;-actin mRNA. The log-linear threshold values (C<sub>T</sub>) during the exponential phase of the PCR for target mRNA were normalized to &#946;-actin mRNA. AQP5 mRNA quantity was expressed as a proportion to &#946;-actin quantity following 2 <sup>&#8211;&#916;&#916;C</sup>
                <sub>T</sub> method for converting log-linear C<sub>T</sub> values to linear term <abbrgrp>
                   <abbr bid="B20">20</abbr>
                </abbrgrp> and analyzed.</p>
          </sec>
          <sec>
             <st>
                <p>2.5 Western blotting analysis</p>
             </st>
             <p>Protein lysates of ovary tissue (cancerous and normal, n&#8201;=&#8201;5) and cell lines (COVCAR and NOSE cells, n&#8201;=&#8201;5) were prepared as described previously <abbrgrp>
                   <abbr bid="B19">19</abbr>
                </abbrgrp>. The lysates were denatured, heated for 10&#160;min at 95&#176;C, and separated on a 10% Bis-Tris polyacrylamide gel (Invitrogen) in 3-(N-morpholino)propanesulfonic acid (MOPS) running buffer. Proteins were transferred to Immun-Blot polyvinylidene difluoride (PVDF) membrane and first incubated in 5% non-fat dry milk and then with affinity-purified goat anti-human AQP5 antibody (0.4&#160;&#956;g/ml; Santa Cruz Biotechnology). After several washes, membranes were incubated in horseradish peroxidase labeled donkey anti-goat IgG (0.08&#160;&#956;g/ml; Santa Cruz Biotechnology) and treated with WesternSure PREMIUM Chemiluminescent Substrate (LI-COR Biosciences, Lincoln, NE). Chemiluminescent signals were detected using the C-Digit blot scanner (LI-COR Biosciences) and analyzed using Image Studio Lite software version 3.1 (LI-COR Biosciences). Membranes were reprobed with mouse anti-chicken &#945;-tubulin antibody (0.25&#160;&#956;g/ml; Sigma-Aldrich) followed by incubation in horseradish peroxidase labeled goat anti-mouse IgG (0.08&#160;&#956;g/ml; Pierce) and scanned as described above. AQP5 protein quantity was expressed as a proportion of &#945;-tubulin levels and compared between cancerous and normal ovaries or between COVCAR cell lines and NOSE cells. To determine the specificity of AQP5 immunostaining, the primary antibody was preadsorbed with 2&#160;&#956;g/ml of AQP5 blocking peptide (cat # SC-9891, Santa Cruz Biotechnology) and used in Western blot analysis.</p>
          </sec>
          <sec>
             <st>
                <p>2.6 Statistical analyses</p>
             </st>
             <p>All data were analyzed using SigmaPlot version 12 (Systat Software Inc, San Jose, CA, USA). Levels of AQP5 mRNA or protein in cancerous ovaries and COVCAR cell lines were compared with that of normal ovaries and NOSE cell lines, respectively, using student&#8217;s <it>t</it>-test. A probability level of P&#8201;&lt;&#8201;0.05 was considered as statistically significant.</p>
          </sec>
       </sec>
       <sec>
          <st>
             <p>3
 						Results</p>
          </st>
          <sec>
             <st>
                <p>3.1 Ovarian tumor gross morphology and histopathology</p>
             </st>
             <p>Representative photographs of normal ovary (Figure&#160;<figr fid="F1">1</figr>A) reveal a typical hierarchy of five preovulatory follicles and post-ovulatory follicular membrane whereas the cancerous ovary (Figure&#160;<figr fid="F1">1</figr>B) contained numerous prehierarchical follicles and cauliflower-like tumor mass. Photomicrographs of the normal ovarian stroma (Figure&#160;<figr fid="F1">1</figr>C and E) contained cross-sections of several ovarian follicles that have typical arrangement of theca and/or granulosa cell layers surrounding oocyte. In cancerous ovaries, the tissue was found to be expanded and nearly completely effaced by a large, invasive, unencapsulated, multinodular mass consisting of poorly differentiated epithelial cells arranged in tubules and acini separated by abundant stroma (Figure&#160;<figr fid="F1">1</figr>D). Epithelial cells appeared cuboidal with scant to moderate vacuolated eosinophilic to faintly basophilic cytoplasm and large round central nuclei (Figure&#160;<figr fid="F1">1</figr>F).</p>
             
                <fig id="F1">
                   <title>
                      <p>Figure 1</p>
                   </title>
                   <caption>
                      <p>Gross morphology and histology of normal and cancerous ovaries of chicken. A</p>
                   </caption>
                   <text>
                      <p>
                         <b>Gross morphology and histology of normal and cancerous ovaries of chicken. A</b>. Normal ovary containing a hierarchy of preovulatory follicles (F1-F5), pre- hierarchical follicles (SYF), and post-ovulatory follicles (POF); <b>B</b>. Cancerous ovary containing tumor mass (arrow) in addition to a few atretic preovulatory follicles; <b>C-F</b>. Photomicrographs of normal <b>(C, E)</b> and cancerous <b>(D, F)</b> ovarian tissue sections stained with hematoxylin and eosin. SYF-small yellow follicle, POF-post-ovulatory follicle.</p>
                   </text>
                   <graphic file="s13048-014-0099-x-1"/>
                </fig>
             
             
                <fig id="F2">
                   <title>
                      <p>Figure 2</p>
                   </title>
                   <caption>
                      <p>Representative photomicrographs of normal and cancerous ovarian tissue sections showing AQP5-immunostained cells.</p>
                   </caption>
                   <text>
                      <p>
                         <b>Representative photomicrographs of normal and cancerous ovarian tissue sections showing AQP5-immunostained cells.</b> Bouin&#8217;s solution-fixed ovary tissue sections were immunostained using anti-human AQP5 antibody. AQP5 immunostaining (brown color) was visualized using a peroxidase-based detection system. <b>A-C</b>. Normal ovarian tissue sections exhibiting localization of AQP5 in granulosa and theca cell layers (arrows in <b>A</b> and <b>B</b>) and in ovarian surface epithelium <b>(C)</b>; <b>D-L</b>. Cancerous ovarian tissue sections exhibiting localization of AQP5 in ovarian surface epithelium (arrow in <b>D</b>), borders around cysts <b>(E, F)</b>, acini (arrow in <b>G</b> and <b>H</b>), theca cell layer (arrow in <b>I</b>), and in lobules of poorly differentiated neoplastic cells (arrows in <b>J</b> and <b>K</b>). Omitting anti-AQP5 antibody during the staining procedure abolished immunostaining completely <b>(L)</b>. GCL- granulosa cell layer, TCL-theca cell layer, OSE-ovarian surface epithelium, CS-cystic space, Ac-acinus.</p>
                   </text>
                   <graphic file="s13048-014-0099-x-2"/>
                </fig>
             
          </sec>
          <sec>
             <st>
                <p>3.2 Localization of AQP5 immunoreactive cells in normal and cancerous ovaries</p>
             </st>
             <p>AQP5 immunoreactive (ir) cells were found predominantly in the granulosa and theca externa layers in normal ovarian prehierarchical follicles (Figure&#160;<figr fid="F2">2</figr>A and B). The pattern of AQP5 immunostaining appeared different in cancerous ovaries (Figure&#160;<figr fid="F2">2</figr>D-L). Several layers of AQP5-ir cells were found stacked under the OSE (Figure&#160;<figr fid="F2">2</figr>D) in contrast to a thin layer of AQP5-ir cells in the normal OSE (Figure&#160;<figr fid="F2">2</figr>C). Flattened cells lining the cystic spaces in ovarian tumor were found to be strongly immunoreactive to AQP5 (Figure&#160;<figr fid="F2">2</figr>E, <figr fid="F2">2</figr>&#8201;F). Several acini-like structures uniformly contained AQP5-ir cells (Figure&#160;<figr fid="F2">2</figr>G and H). Some of the prehierarchial follicles in cancerous ovaries displayed strong AQP5 immunoreactivity in the theca cell layer (Figure&#160;<figr fid="F2">2</figr>I) while others showed distended theca cell layer containing several AQP5-ir cells (Figure&#160;<figr fid="F2">2</figr>J). AQP5-ir cells were also found in flattened cells surrounding tumor nodules (Figure&#160;<figr fid="F2">2</figr>K). Omission of anti-AQP5 antibody completely abolished immunostaining (Figure&#160;<figr fid="F2">2</figr>L) confirming the specificity of anti-human AQP5 antibody in detecting chicken AQP5.</p>
          </sec>
          <sec>
             <st>
                <p>3.3 AQP5 mRNA and protein expressions in cancerous ovaries</p>
             </st>
             <p>AQP5 protein in cancerous and normal ovaries appeared as 39&#160;kDa band (Figure&#160;<figr fid="F3">3</figr>). Pre-adsorption of anti-human AQP5 antibody with human AQP5 peptide completely abolished the AQP5 immunostaining in ovarian lysate (Figure&#160;<figr fid="F3">3</figr>). AQP5 mRNA levels were significantly lesser in cancerous ovaries compared to that in normal ovaries (n = 5; Figure&#160;<figr fid="F4">4</figr>A). Interestingly, AQP5 protein levels were approximately 2-fold greater in cancerous ovaries compared to that in normal ovaries (Figure&#160;<figr fid="F4">4</figr>B).</p>
             
                <fig id="F3">
                   <title>
                      <p>Figure 3</p>
                   </title>
                   <caption>
                      <p>Western blot analyses to detect AQP5 in cancerous ovaries and ascites-derived chicken ovarian cancer (COVCAR) cells.</p>
                   </caption>
                   <text>
                      <p>
                         <b>Western blot analyses to detect AQP5 in cancerous ovaries and ascites-derived chicken ovarian cancer (COVCAR) cells.</b> Protein extracts from ovary tissue and COVCAR cells were subjected to Western blot analysis under reducing conditions. AQP5 protein was detected by immunostaining using anti-human AQP5 antibody (&#8722;Blocking Peptide) and chemiluminescence. Specificity of AQP5 antibody was determined by preadsorption of anti-human AQP5 antibody with human AQP5 peptide (+Blocking peptide). CC-COVCAR cell lysate, CO-cancerous ovary lysate, M- molecular weight.</p>
                   </text>
                   <graphic file="s13048-014-0099-x-3"/>
                </fig>
             
             
                <fig id="F4">
                   <title>
                      <p>Figure 4</p>
                   </title>
                   <caption>
                      <p>Quantification of AQP5 mRNA and AQP5 protein in cancerous ovaries. A</p>
                   </caption>
                   <text>
                      <p>
                         <b>Quantification of AQP5 mRNA and AQP5 protein in cancerous ovaries. A</b>. Quantification of AQP5 mRNA in cancerous ovaries. Total RNA extracted from cancerous and normal ovaries (n&#8201;=&#8201;5 animals), was DNAse-I digested and reverse transcribed. Following reverse transcription, approximately 50&#160;ng of cDNA was used in quantitative real-time PCR using SYBR&#174; green as the dye to quantify AQP5 mRNA and &#946;-actin mRNA in separate reactions. Each reaction was run in triplicate per tissue sample; and the critical threshold (<it>C</it>
                         <sub>T</sub>) values, averaged, normalized to that of &#946;-actin mRNA and converted from log-linear to linear term; <b>B</b>. Quantification of AQP5 protein in cancerous and normal ovaries. Protein extracts from cancerous ovaries (n&#8201;=&#8201;5 animals) were subjected to Western blot analysis under reducing conditions. Chicken AQP5 protein was detected by immunostaining using anti-human AQP5 antibody and chemiluminescence. Alpha-tubulin was used as loading control. Data are represented as mean&#8201;&#177;&#8201;standard error of the mean from 5 replicates. *<it>P</it>&#8201;&lt;&#8201;0.05; cancerous versus normal ovary.</p>
                   </text>
                   <graphic file="s13048-014-0099-x-4"/>
                </fig>
             
          </sec>
          <sec>
             <st>
                <p>3.4 AQP5 mRNA and protein expressions in COVCAR cell lines</p>
             </st>
             <p>AQP5 mRNA concentration was found to be approximately 2.5-fold greater in COVCAR cell lines compared to that in NOSE cells (Figure&#160;<figr fid="F5">5</figr>A). AQP5 protein in COVCAR cell lysates appeared as 39&#160;kDa band, similar to one observed in cancerous or normal ovaries (Figure&#160;<figr fid="F4">4</figr>). In addition, unlike ovary tissue lysate, COVCAR cell lysates exhibited three other bands of masses approximately 48, 51, and 60&#160;kDa (Figure&#160;<figr fid="F3">3</figr>) that are possibly variants of AQP5 or non-specific immunostaining as pre-adsorption of anti-AQP5 antibody with AQP5 peptide completely abolished the 39 and 60&#160;kDa AQP5 bands but not the 48 or 51&#160;kDa bands (Figure&#160;<figr fid="F4">4</figr>). Upon quantification, the 39&#160;kDa AQP5 protein levels in COVCAR cells were significantly lesser than that in NOSE cells (Figure&#160;<figr fid="F5">5</figr>B).</p>
             
                <fig id="F5">
                   <title>
                      <p>Figure 5</p>
                   </title>
                   <caption>
                      <p>Quantification of AQP5 mRNA and AQP5 protein in ascites-derived chicken ovarian cancer (COVCAR) cells. A</p>
                   </caption>
                   <text>
                      <p>
                         <b>Quantification of AQP5 mRNA and AQP5 protein in ascites-derived chicken ovarian cancer (COVCAR) cells. A</b>. Quantification of AQP5 mRNA in COVCAR cells. Total RNA extracted from COVCAR cells (n&#8201;=&#8201;5 cell lines; C5, C6, C7, C11, and C19) and normal ovarian surface epithelial cell lines (NOSE; n&#8201;=&#8201;5 cell lines), was DNAse-I digested and reverse transcribed. Following reverse transcription, approximately 50&#160;ng of cDNA was used in quantitative real-time PCR using SYBR&#174; green as the dye to quantify AQP5 mRNA and &#946;-actin mRNA in separate reactions. Each reaction was run in triplicate per cell line; and the critical threshold (<it>C</it>
                         <sub>T</sub>) values, averaged, normalized to that of &#946;-actin mRNA and converted from log-linear to linear term; <b>B</b>. Quantification of AQP5 protein in COVCAR cells. Protein extracts from COVCAR cells (n&#8201;=&#8201;5 cell lines; C5, C6, C7, C11 and C19), and NOSE cells (n&#8201;=&#8201;5 cell lines) were subjected to Western blot analysis under reducing conditions. Chicken AQP5 protein was detected by immunostaining using anti-human AQP5 antibody and chemiluminescence. Alpha-tubulin was used as loading control. Data are represented as mean&#8201;&#177;&#8201;standard error of the mean from 5 replicates. *<it>P</it>&#8201;&lt;&#8201;0.05; **<it>P</it>&#8201;&lt;&#8201;0.001 COVCAR versus NOSE cells.</p>
                   </text>
                   <graphic file="s13048-014-0099-x-5"/>
                </fig>
             
          </sec>
       </sec>
       <sec>
          <st>
             <p>4
 						Discussion</p>
          </st>
          <p>This is the first report to describe AQP5 expression in the chicken ovarian tumor model. In the normal ovary of chicken, AQP5 expression was found to be localized in the OSE, granulosa and theca cells. Similar to chickens, normal pig ovaries express AQP5 in granulosa and flattened follicular cells of primordial follicles <abbrgrp>
                <abbr bid="B21">21</abbr>
             </abbrgrp>. The role of AQP5 in granulosa or thecal cell function and the factors affecting AQP5 expression remain to be elucidated. Based on the cell types where AQP5 is expressed in the ovary, it is plausible that AQP5 is involved in water transport in the developing follicle, yolk deposition, and in steroidogenesis. Coincidentally, progesterone treatment alone or in combination with estrogen was found to increase in AQP5 expression in rat uterine tissues demonstrated by situ hybridization histochemistry <abbrgrp>
                <abbr bid="B22">22</abbr>
             </abbrgrp>. Using a similar approach, an increase in expression of AQP5 was reported in the glandular epithelium of progesterone-primed uteri following estrogen exposure in ovariectomized mice <abbrgrp>
                <abbr bid="B23">23</abbr>
             </abbrgrp>. Collectively, AQP5 expression appears to be regulated by gonadal steroids in female reproductive tract.</p>
          <p>We found that cancerous ovaries of the chicken exhibited several layers of AQP5-ir cells extending from the ovarian surface inwards. A board-certified histopathologist has determined the histotype of the cancerous ovaries used in this study as endometrioid type of ovarian adenocarcinoma <abbrgrp>
                <abbr bid="B19">19</abbr>
             </abbrgrp>. In addition to the surface epithelium, AQP5 was expressed in the ovarian stroma, acini and in the cell lining the cysts. Presence of AQP5 in cells lining the cysts may suggest a potential role of AQP5 in formation of cystic fluid and secretions possibly required for the survival and growth of cancer cells. Similar to the chicken ovarian tumor, AQP5 localization has also been demonstrated in human ovarian tumor with localization of AQP5 protein in basolateral membrane of epithelial layer in benign tumor and plasma membranes of borderline and malignant tumors <abbrgrp>
                <abbr bid="B13">13</abbr>
             </abbrgrp>. However, factors affecting AQP5 expression in cancerous ovaries are yet to be understood.</p>
          <p>Our data suggest that AQP5 mRNA concentrations were 3-fold lesser in cancerous ovaries compared to that in normal ovaries. In contrast to our findings, AQP5 mRNA expression levels were found to be elevated in malignant ovarian tumors in women and such an increase was positively correlated to the ascites volume <abbrgrp>
                <abbr bid="B24">24</abbr>
             </abbrgrp>. Such discordance may be due to species variation and may possibly indicate that regulation of AQP5 gene transcription and AQP5 mRNA turnover is different in chickens compared to humans. Although AQP5 mRNA concentrations were significantly lesser in cancerous ovaries in the chicken model, AQP5 protein concentrations were found to be significantly greater in the cancerous ovaries compared to that in normal ovaries. The negative correlation between AQP5 mRNA and protein exhibited in the ovary tissue examined in our studies can be attributed to several factors such as post-transcriptional modification, mRNA stability and processing. Consistent with our findings, higher AQP5 protein expression has been reported in borderline and malignant cancerous ovaries in women <abbrgrp>
                <abbr bid="B13">13</abbr>
             </abbrgrp>. Data originating from several <it>in vitro</it> studies suggests that AQP5 is associated with increased proliferation, migration and decreased apoptosis in various tumor cell lines. For instance, lentivirus-mediated AQP5-shRNA transduction or hyperosmotic stress induced by sorbitol in MCF7 breast cancer cell line lead to attenuation of cell proliferation and migration <abbrgrp>
                <abbr bid="B25">25</abbr>
             </abbrgrp>,<abbrgrp>
                <abbr bid="B26">26</abbr>
             </abbrgrp>. Overexpression of AQP5 enhanced whereas, inhibition of AQP5 by acetazolamide significantly attenuated the proliferation and migration of gastric carcinoma cells <abbrgrp>
                <abbr bid="B26">26</abbr>
             </abbrgrp>. Similarly, overexpression of AQP5 resulted in increased cell proliferation whereas small interfering RNA (siRNA) against AQP5 reduced cell proliferation rate in K562 and LAMA84 chronic myeloid leukemia cells <abbrgrp>
                <abbr bid="B27">27</abbr>
             </abbrgrp>. Tumor necrosis factor-&#945;, a pro-inflammatory cytokine that is elevated in tumors of various organs including ovaries <abbrgrp>
                <abbr bid="B28">28</abbr>
             </abbrgrp> and breast <abbrgrp>
                <abbr bid="B29">29</abbr>
             </abbrgrp>, has been found to decrease AQP5 expression in acinar cells of human salivary gland via histone H4 acetylation <abbrgrp>
                <abbr bid="B30">30</abbr>
             </abbrgrp>. However, treatment of CAOV3 ovarian cancer cell line with cisplatin decreases AQP5 protein expression and growth rate <abbrgrp>
                <abbr bid="B31">31</abbr>
             </abbrgrp>. Similarly, epigallocatechin gallate treatment decreases AQP5 mRNA concentrations causing a decrease in proliferation of SKOV3 ovarian cancer cells <abbrgrp>
                <abbr bid="B32">32</abbr>
             </abbrgrp>. Based on the foregoing, it is imperative to understand the direct role of AQP5 in ovarian tumor cell physiology.</p>
          <p>We have previously reported that the ascites-derived COVCAR cell lines used in the present study are highly proliferative and possess greater invasiveness in Matrigel extracellular matrix compared to that of NOSE cells <abbrgrp>
                <abbr bid="B19">19</abbr>
             </abbrgrp>. Considering the potential role of AQP5 in tumor cell proliferation and migration, we examined the AQP5 mRNA and protein expression levels in the COVCAR cell lines. Our data suggest that AQP5 mRNA in COVCAR cell lines were 2.5-fold greater than that in NOSE cells. Epigenetic changes such as CpG methylation in the promoter region of the AQP5 gene affects AQP5 mRNA expression in such a way that hypermethylation leads to repression of the gene expression and hypomethylation leads to increased gene expression <abbrgrp>
                <abbr bid="B33">33</abbr>
             </abbrgrp>. Greater AQP5 mRNA in COVCAR cells in our studies may be due to hypomethylation of AQP5 gene. AQP5 protein levels, however, were found to be significantly lower in COVCAR cells compared to that in NOSE cells. Discordant mRNA and protein levels are not uncommon and could be attributed to several factors such as increased turnover of AQP5 protein leading to feedback upregulation of AQP5 gene expression. It is intriguing that AQP5 protein concentrations are downregulated in the COVCAR cell lines but upregulated in the cancerous ovaries. COVCAR cells are derived from ascites and as such these floating metastatic cells may have adapted to thrive in ascites by downregulating AQP5 protein levels and restricting water transport across the cell membrane. However, the tumor cells within the ovary would still require a higher level of AQP5 for proliferation and migration. It is not clear what factors are responsible to decrease AQP5 protein levels in the COVCAR cell lines.</p>
          <p>In summary, our data have revealed a differential distribution of AQP5-ir cells in the ovarian tumor tissue compared with normal ovary suggestive of a potential role of AQP5 in proliferation and invasiveness of ovarian tumor cells. Similarly, AQP5 mRNA or protein concentrations in cancerous ovaries and COVCAR cells were found to be different from normal ovaries and NOSE cells, respectively. Collectively, our data suggest that altered expression of AQP5 may influence ovarian tumor cell proliferation, migration, and survival in ascites. Future studies should focus on exploring the pathways involved in altered AQP5 expression and its potential role in tumorigenesis in the chicken model of ovarian tumor.</p>
       </sec>
       <sec>
          <st>
             <p>Competing interests</p>
          </st>
          <p>The authors declare that they have no competing interests.</p>
       </sec>
       <sec>
          <st>
             <p>Authors&#8217; contributions</p>
          </st>
          <p>Conceived and designed the experiments: AT JAH RR. Performed the experiments: AT JAH RR. Analyzed the data: AT RR. Wrote the paper: AT RR. All authors read and approved the final manuscript.</p>
       </sec>
    </bdy>
    <bm>
       <ack>
          <sec>
             <st>
                <p>Acknowledgments</p>
             </st>
             <p>The authors would like to thank Dr. Timothy Cooper, College of Medicine, Hershey Medical Center, Pennsylvania State University for histopathological evaluation of ovary tissue sections.</p>
          </sec>
       </ack>
       <refgrp>
          
          <bibl id="B1">
             <title>
                <p>Cancer statistics, 2010</p>
             </title>
             <aug>
                <au>
                   <snm>Jemal</snm>
                   <fnm>A</fnm>
                </au>
                <au>
                   <snm>Siegel</snm>
                   <fnm>R</fnm>
                </au>
                <au>
                   <snm>Xu</snm>
                   <fnm>J</fnm>
                </au>
                <au>
                   <snm>Ward</snm>
                   <fnm>E</fnm>
                </au>
             </aug>
             <source>CA Cancer J Clin</source>
             <pubdate>2010</pubdate>
             <volume>60</volume>
             <fpage>277</fpage>
             <lpage>300</lpage>
             <xrefbib>
                <pubidlist>
                   <pubid idtype="doi">10.3322/caac.20073</pubid>
                   <pubid idtype="pmpid" link="fulltext">20610543</pubid>
                </pubidlist>
             </xrefbib>
          </bibl>
          <bibl id="B2">
             <source>Ovarrian Cancer Incidence</source>
             <pubdate>2014</pubdate>
          </bibl>
          <bibl id="B3">
             <title>
                <p>Ascites and hydrothorax in association with struma ovarii</p>
             </title>
             <aug>
                <au>
                   <snm>Hurlow</snm>
                   <fnm>RA</fnm>
                </au>
                <au>
                   <snm>Greening</snm>
                   <fnm>WP</fnm>
                </au>
                <au>
                   <snm>Krantz</snm>
                   <fnm>E</fnm>
                </au>
             </aug>
             <source>Br J Surg</source>
             <pubdate>1976</pubdate>
             <volume>63</volume>
             <fpage>110</fpage>
             <lpage>112</lpage>
             <xrefbib>
                <pubidlist>
                   <pubid idtype="doi">10.1002/bjs.1800630205</pubid>
                   <pubid idtype="pmpid" link="fulltext">943201</pubid>
                </pubidlist>
             </xrefbib>
          </bibl>
          <bibl id="B4">
             <title>
                <p>Pathogenesis of ascites in peritoneal carcinomatosis</p>
             </title>
             <aug>
                <au>
                   <snm>Holm-Nielsen</snm>
                   <fnm>P</fnm>
                </au>
             </aug>
             <source>Acta Pathol Microbiol Scand</source>
             <pubdate>1953</pubdate>
             <volume>33</volume>
             <fpage>10</fpage>
             <lpage>21</lpage>
             <xrefbib>
                <pubidlist>
                   <pubid idtype="doi">10.1111/j.1699-0463.1953.tb04805.x</pubid>
                   <pubid idtype="pmpid" link="fulltext">13113944</pubid>
                </pubidlist>
             </xrefbib>
          </bibl>
          <bibl id="B5">
             <title>
                <p>Mechanism of an ascites tumor formation</p>
             </title>
             <aug>
                <au>
                   <snm>Siegler</snm>
                   <fnm>R</fnm>
                </au>
                <au>
                   <snm>Koprowska</snm>
                   <fnm>I</fnm>
                </au>
             </aug>
             <source>Cancer Res</source>
             <pubdate>1962</pubdate>
             <volume>22</volume>
             <fpage>12733</fpage>
             <xrefbib>
                <pubidlist>
                   <pubid idtype="pmpid" link="fulltext">13988976</pubid>
                </pubidlist>
             </xrefbib>
          </bibl>
          <bibl id="B6">
             <title>
                <p>Tumor cells secrete a vascular permeability factor that promotes accumulation of ascites fluid</p>
             </title>
             <aug>
                <au>
                   <snm>Senger</snm>
                   <fnm>DR</fnm>
                </au>
                <au>
                   <snm>Galli</snm>
                   <fnm>SJ</fnm>
                </au>
                <au>
                   <snm>Dvorak</snm>
                   <fnm>AM</fnm>
                </au>
                <au>
                   <snm>Perruzzi</snm>
                   <fnm>CA</fnm>
                </au>
                <au>
                   <snm>Harvey</snm>
                   <fnm>VS</fnm>
                </au>
                <au>
                   <snm>Dvorak</snm>
                   <fnm>HF</fnm>
                </au>
             </aug>
             <source>Science</source>
             <pubdate>1983</pubdate>
             <volume>219</volume>
             <fpage>983</fpage>
             <lpage>985</lpage>
             <xrefbib>
                <pubidlist>
                   <pubid idtype="doi">10.1126/science.6823562</pubid>
                   <pubid idtype="pmpid" link="fulltext">6823562</pubid>
                </pubidlist>
             </xrefbib>
          </bibl>
          <bibl id="B7">
             <title>
                <p>The three-dimensional structure of human erythrocyte aquaporin CHIP</p>
             </title>
             <aug>
                <au>
                   <snm>Walz</snm>
                   <fnm>T</fnm>
                </au>
                <au>
                   <snm>Smith</snm>
                   <fnm>BL</fnm>
                </au>
                <au>
                   <snm>Agre</snm>
                   <fnm>P</fnm>
                </au>
                <au>
                   <snm>Engel</snm>
                   <fnm>A</fnm>
                </au>
             </aug>
             <source>EMBO J</source>
             <pubdate>1994</pubdate>
             <volume>13</volume>
             <fpage>2985</fpage>
             <lpage>2993</lpage>
             <xrefbib>
                <pubidlist>
                   <pubid idtype="pmpid" link="fulltext">7518771</pubid>
                </pubidlist>
             </xrefbib>
          </bibl>
          <bibl id="B8">
             <title>
                <p>Impairment of angiogenesis and cell migration by targeted aquaporin-1 gene disruption</p>
             </title>
             <aug>
                <au>
                   <snm>Saadoun</snm>
                   <fnm>S</fnm>
                </au>
                <au>
                   <snm>Papadopoulos</snm>
                   <fnm>MC</fnm>
                </au>
                <au>
                   <snm>Hara-Chikuma</snm>
                   <fnm>M</fnm>
                </au>
                <au>
                   <snm>Verkman</snm>
                   <fnm>AS</fnm>
                </au>
             </aug>
             <source>Nature</source>
             <pubdate>2005</pubdate>
             <volume>434</volume>
             <fpage>786</fpage>
             <lpage>792</lpage>
             <xrefbib>
                <pubidlist>
                   <pubid idtype="doi">10.1038/nature03460</pubid>
                   <pubid idtype="pmpid" link="fulltext">15815633</pubid>
                </pubidlist>
             </xrefbib>
          </bibl>
          <bibl id="B9">
             <title>
                <p>Aquaporin-3-dependent cell migration and proliferation during corneal re-epithelialization</p>
             </title>
             <aug>
                <au>
                   <snm>Levin</snm>
                   <fnm>MH</fnm>
                </au>
                <au>
                   <snm>Verkman</snm>
                   <fnm>AS</fnm>
                </au>
             </aug>
             <source>Invest Ophthalmol Vis Sci</source>
             <pubdate>2006</pubdate>
             <volume>47</volume>
             <fpage>4365</fpage>
             <lpage>4372</lpage>
             <xrefbib>
                <pubidlist>
                   <pubid idtype="doi">10.1167/iovs.06-0335</pubid>
                   <pubid idtype="pmpid" link="fulltext">17003427</pubid>
                </pubidlist>
             </xrefbib>
          </bibl>
          <bibl id="B10">
             <title>
                <p>Plasma membrane aquaporin activity can affect the rate of apoptosis but is inhibited after apoptotic volume decrease</p>
             </title>
             <aug>
                <au>
                   <snm>Jablonski</snm>
                   <fnm>EM</fnm>
                </au>
                <au>
                   <snm>Webb</snm>
                   <fnm>AN</fnm>
                </au>
                <au>
                   <snm>McConnell</snm>
                   <fnm>NA</fnm>
                </au>
                <au>
                   <snm>Riley</snm>
                   <fnm>MC</fnm>
                </au>
                <au>
                   <snm>Hughes</snm>
                   <fnm>FM</fnm>
                   <suf>Jr</suf>
                </au>
             </aug>
             <source>Am J Physiol Cell Physiol</source>
             <pubdate>2004</pubdate>
             <volume>286</volume>
             <fpage>C975</fpage>
             <lpage>C985</lpage>
             <xrefbib>
                <pubidlist>
                   <pubid idtype="doi">10.1152/ajpcell.00180.2003</pubid>
                   <pubid idtype="pmpid" link="fulltext">14644770</pubid>
                </pubidlist>
             </xrefbib>
          </bibl>
          <bibl id="B11">
             <title>
                <p>Expression of AQP1 and AQP4 in paediatric brain tumours</p>
             </title>
             <aug>
                <au>
                   <snm>Wang</snm>
                   <fnm>D</fnm>
                </au>
                <au>
                   <snm>Owler</snm>
                   <fnm>BK</fnm>
                </au>
             </aug>
             <source>J Clin Neurosci</source>
             <pubdate>2011</pubdate>
             <volume>18</volume>
             <fpage>122</fpage>
             <lpage>127</lpage>
             <xrefbib>
                <pubidlist>
                   <pubid idtype="doi">10.1016/j.jocn.2010.07.115</pubid>
                   <pubid idtype="pmpid" link="fulltext">20965731</pubid>
                </pubidlist>
             </xrefbib>
          </bibl>
          <bibl id="B12">
             <title>
                <p>Defective glycerol metabolism in aquaporin 9 (AQP9) knockout mice</p>
             </title>
             <aug>
                <au>
                   <snm>Rojek</snm>
                   <fnm>AM</fnm>
                </au>
                <au>
                   <snm>Skowronski</snm>
                   <fnm>MT</fnm>
                </au>
                <au>
                   <snm>Fuchtbauer</snm>
                   <fnm>EM</fnm>
                </au>
                <au>
                   <snm>Fuchtbauer</snm>
                   <fnm>AC</fnm>
                </au>
                <au>
                   <snm>Fenton</snm>
                   <fnm>RA</fnm>
                </au>
                <au>
                   <snm>Agre</snm>
                   <fnm>P</fnm>
                </au>
                <au>
                   <snm>Frokiaer</snm>
                   <fnm>J</fnm>
                </au>
                <au>
                   <snm>Nielsen</snm>
                   <fnm>S</fnm>
                </au>
             </aug>
             <source>Proc Natl Acad Sci U S A</source>
             <pubdate>2007</pubdate>
             <volume>104</volume>
             <fpage>3609</fpage>
             <lpage>3614</lpage>
             <xrefbib>
                <pubidlist>
                   <pubid idtype="doi">10.1073/pnas.0610894104</pubid>
                   <pubid idtype="pmpid" link="fulltext">17360690</pubid>
                </pubidlist>
             </xrefbib>
          </bibl>
          <bibl id="B13">
             <title>
                <p>Localisation and expression of aquaporin subtypes in epithelial ovarian tumours</p>
             </title>
             <aug>
                <au>
                   <snm>Yang</snm>
                   <fnm>JH</fnm>
                </au>
                <au>
                   <snm>Yu</snm>
                   <fnm>YQ</fnm>
                </au>
                <au>
                   <snm>Yan</snm>
                   <fnm>CX</fnm>
                </au>
             </aug>
             <source>Histol Histopathol</source>
             <pubdate>2011</pubdate>
             <volume>26</volume>
             <fpage>1197</fpage>
             <lpage>1205</lpage>
             <xrefbib>
                <pubidlist>
                   <pubid idtype="pmpid" link="fulltext">21751151</pubid>
                </pubidlist>
             </xrefbib>
          </bibl>
          <bibl id="B14">
             <title>
                <p>The influence of aquaporin-1 and microvessel density on ovarian carcinogenesis and ascites formation</p>
             </title>
             <aug>
                <au>
                   <snm>Yang</snm>
                   <fnm>JH</fnm>
                </au>
                <au>
                   <snm>Shi</snm>
                   <fnm>YF</fnm>
                </au>
                <au>
                   <snm>Chen</snm>
                   <fnm>XD</fnm>
                </au>
                <au>
                   <snm>Qi</snm>
                   <fnm>WJ</fnm>
                </au>
             </aug>
             <source>Int J Gynecol Cancer</source>
             <pubdate>2006</pubdate>
             <volume>16</volume>
             <issue>Suppl 1</issue>
             <fpage>400</fpage>
             <lpage>405</lpage>
             <xrefbib>
                <pubidlist>
                   <pubid idtype="doi">10.1111/j.1525-1438.2006.00476.x</pubid>
                   <pubid idtype="pmpid" link="fulltext">16515633</pubid>
                </pubidlist>
             </xrefbib>
          </bibl>
          <bibl id="B15">
             <title>
                <p>Ovarian tumors of the hen</p>
             </title>
             <aug>
                <au>
                   <snm>Fredrickson</snm>
                   <fnm>TN</fnm>
                </au>
             </aug>
             <source>Environ Health Perspect</source>
             <pubdate>1987</pubdate>
             <volume>73</volume>
             <fpage>35</fpage>
             <lpage>51</lpage>
             <xrefbib>
                <pubidlist>
                   <pubid idtype="doi">10.1289/ehp.877335</pubid>
                   <pubid idtype="pmpid" link="fulltext">3665870</pubid>
                </pubidlist>
             </xrefbib>
          </bibl>
          <bibl id="B16">
             <title>
                <p>The hen as a model of ovarian cancer</p>
             </title>
             <aug>
                <au>
                   <snm>Johnson</snm>
                   <fnm>PA</fnm>
                </au>
                <au>
                   <snm>Giles</snm>
                   <fnm>JR</fnm>
                </au>
             </aug>
             <source>Nat Rev Cancer</source>
             <pubdate>2013</pubdate>
             <volume>13</volume>
             <fpage>432</fpage>
             <lpage>436</lpage>
             <xrefbib>
                <pubidlist>
                   <pubid idtype="doi">10.1038/nrc3535</pubid>
                   <pubid idtype="pmpid" link="fulltext">23676850</pubid>
                </pubidlist>
             </xrefbib>
          </bibl>
          <bibl id="B17">
             <title>
                <p>Epithelial ovarian cancer experimental models</p>
             </title>
             <aug>
                <au>
                   <snm>Lengyel</snm>
                   <fnm>E</fnm>
                </au>
                <au>
                   <snm>Burdette</snm>
                   <fnm>JE</fnm>
                </au>
                <au>
                   <snm>Kenny</snm>
                   <fnm>HA</fnm>
                </au>
                <au>
                   <snm>Matei</snm>
                   <fnm>D</fnm>
                </au>
                <au>
                   <snm>Pilrose</snm>
                   <fnm>J</fnm>
                </au>
                <au>
                   <snm>Haluska</snm>
                   <fnm>P</fnm>
                </au>
                <au>
                   <snm>Nephew</snm>
                   <fnm>KP</fnm>
                </au>
                <au>
                   <snm>Hales</snm>
                   <fnm>DB</fnm>
                </au>
                <au>
                   <snm>Stack</snm>
                   <fnm>MS</fnm>
                </au>
             </aug>
             <source>Oncogene</source>
             <pubdate>2014</pubdate>
             <volume>33</volume>
             <fpage>3619</fpage>
             <lpage>3633</lpage>
             <xrefbib>
                <pubidlist>
                   <pubid idtype="doi">10.1038/onc.2013.321</pubid>
                   <pubid idtype="pmpid" link="fulltext">23934194</pubid>
                </pubidlist>
             </xrefbib>
          </bibl>
          <bibl id="B18">
             <title>
                <p>Histopathology of ovarian tumors in laying hens: a preclinical model of human ovarian cancer</p>
             </title>
             <aug>
                <au>
                   <snm>Barua</snm>
                   <fnm>A</fnm>
                </au>
                <au>
                   <snm>Bitterman</snm>
                   <fnm>P</fnm>
                </au>
                <au>
                   <snm>Abramowicz</snm>
                   <fnm>JS</fnm>
                </au>
                <au>
                   <snm>Dirks</snm>
                   <fnm>AL</fnm>
                </au>
                <au>
                   <snm>Bahr</snm>
                   <fnm>JM</fnm>
                </au>
                <au>
                   <snm>Hales</snm>
                   <fnm>DB</fnm>
                </au>
                <au>
                   <snm>Bradaric</snm>
                   <fnm>MJ</fnm>
                </au>
                <au>
                   <snm>Edassery</snm>
                   <fnm>SL</fnm>
                </au>
                <au>
                   <snm>Rotmensch</snm>
                   <fnm>J</fnm>
                </au>
                <au>
                   <snm>Luborsky</snm>
                   <fnm>JL</fnm>
                </au>
             </aug>
             <source>Int J Gynecol Cancer</source>
             <pubdate>2009</pubdate>
             <volume>19</volume>
             <fpage>531</fpage>
             <lpage>539</lpage>
             <xrefbib>
                <pubidlist>
                   <pubid idtype="doi">10.1111/IGC.0b013e3181a41613</pubid>
                   <pubid idtype="pmpid" link="fulltext">19509547</pubid>
                </pubidlist>
             </xrefbib>
          </bibl>
          <bibl id="B19">
             <title>
                <p>Characterization of ascites-derived ovarian tumor cells from spontaneously occurring ovarian tumors of the chicken: evidence for E-cadherin upregulation</p>
             </title>
             <aug>
                <au>
                   <snm>Tiwari</snm>
                   <fnm>A</fnm>
                </au>
                <au>
                   <snm>Hadley</snm>
                   <fnm>JA</fnm>
                </au>
                <au>
                   <snm>Hendricks</snm>
                   <fnm>GL</fnm>
                   <suf>3rd</suf>
                </au>
                <au>
                   <snm>Elkin</snm>
                   <fnm>RG</fnm>
                </au>
                <au>
                   <snm>Cooper</snm>
                   <fnm>T</fnm>
                </au>
                <au>
                   <snm>Ramachandran</snm>
                   <fnm>R</fnm>
                </au>
             </aug>
             <source>PloS One</source>
             <pubdate>2013</pubdate>
             <volume>8</volume>
             <fpage>e57582</fpage>
             <xrefbib>
                <pubidlist>
                   <pubid idtype="doi">10.1371/journal.pone.0057582</pubid>
                   <pubid idtype="pmpid" link="fulltext">23460878</pubid>
                </pubidlist>
             </xrefbib>
          </bibl>
          <bibl id="B20">
             <title>
                <p>Analysis of relative gene expression data using real-time quantitative PCR and the 2(&#8722;Delta Delta C(T)) Method</p>
             </title>
             <aug>
                <au>
                   <snm>Livak</snm>
                   <fnm>KJ</fnm>
                </au>
                <au>
                   <snm>Schmittgen</snm>
                   <fnm>TD</fnm>
                </au>
             </aug>
             <source>Methods</source>
             <pubdate>2001</pubdate>
             <volume>25</volume>
             <fpage>402</fpage>
             <lpage>408</lpage>
             <xrefbib>
                <pubidlist>
                   <pubid idtype="doi">10.1006/meth.2001.1262</pubid>
                   <pubid idtype="pmpid" link="fulltext">11846609</pubid>
                </pubidlist>
             </xrefbib>
          </bibl>
          <bibl id="B21">
             <title>
                <p>Immunolocalization of aquaporin 1, 5, and 9 in the female pig reproductive system</p>
             </title>
             <aug>
                <au>
                   <snm>Skowronski</snm>
                   <fnm>MT</fnm>
                </au>
                <au>
                   <snm>Kwon</snm>
                   <fnm>TH</fnm>
                </au>
                <au>
                   <snm>Nielsen</snm>
                   <fnm>S</fnm>
                </au>
             </aug>
             <source>J Histochem Cytochem</source>
             <pubdate>2009</pubdate>
             <volume>57</volume>
             <fpage>61</fpage>
             <lpage>67</lpage>
             <xrefbib>
                <pubidlist>
                   <pubid idtype="doi">10.1369/jhc.2008.952499</pubid>
                   <pubid idtype="pmpid" link="fulltext">18824632</pubid>
                </pubidlist>
             </xrefbib>
          </bibl>
          <bibl id="B22">
             <title>
                <p>Redistribution of aquaporins 1 and 5 in the rat uterus is dependent on progesterone: a study with light and electron microscopy</p>
             </title>
             <aug>
                <au>
                   <snm>Lindsay</snm>
                   <fnm>LA</fnm>
                </au>
                <au>
                   <snm>Murphy</snm>
                   <fnm>CR</fnm>
                </au>
             </aug>
             <source>Reproduction</source>
             <pubdate>2006</pubdate>
             <volume>131</volume>
             <fpage>369</fpage>
             <lpage>378</lpage>
             <xrefbib>
                <pubidlist>
                   <pubid idtype="doi">10.1530/rep.1.00914</pubid>
                   <pubid idtype="pmpid" link="fulltext">16452730</pubid>
                </pubidlist>
             </xrefbib>
          </bibl>
          <bibl id="B23">
             <title>
                <p>Aquaporin water channel genes are differentially expressed and regulated by ovarian steroids during the periimplantation period in the mouse</p>
             </title>
             <aug>
                <au>
                   <snm>Richard</snm>
                   <fnm>C</fnm>
                </au>
                <au>
                   <snm>Gao</snm>
                   <fnm>J</fnm>
                </au>
                <au>
                   <snm>Brown</snm>
                   <fnm>N</fnm>
                </au>
                <au>
                   <snm>Reese</snm>
                   <fnm>J</fnm>
                </au>
             </aug>
             <source>Endocrinology</source>
             <pubdate>2003</pubdate>
             <volume>144</volume>
             <fpage>1533</fpage>
             <lpage>1541</lpage>
             <xrefbib>
                <pubidlist>
                   <pubid idtype="doi">10.1210/en.2002-0033</pubid>
                   <pubid idtype="pmpid" link="fulltext">12639938</pubid>
                </pubidlist>
             </xrefbib>
          </bibl>
          <bibl id="B24">
             <title>
                <p>Expression and localization of aquaporin-5 in the epithelial ovarian tumors</p>
             </title>
             <aug>
                <au>
                   <snm>Yang</snm>
                   <fnm>JH</fnm>
                </au>
                <au>
                   <snm>Shi</snm>
                   <fnm>YF</fnm>
                </au>
                <au>
                   <snm>Cheng</snm>
                   <fnm>Q</fnm>
                </au>
                <au>
                   <snm>Deng</snm>
                   <fnm>L</fnm>
                </au>
             </aug>
             <source>Gynecol Oncol</source>
             <pubdate>2006</pubdate>
             <volume>100</volume>
             <fpage>294</fpage>
             <lpage>299</lpage>
             <xrefbib>
                <pubidlist>
                   <pubid idtype="doi">10.1016/j.ygyno.2005.08.054</pubid>
                   <pubid idtype="pmpid" link="fulltext">16242760</pubid>
                </pubidlist>
             </xrefbib>
          </bibl>
          <bibl id="B25">
             <title>
                <p>Aquaporin-5: a marker protein for proliferation and migration of human breast cancer cells</p>
             </title>
             <aug>
                <au>
                   <snm>Jung</snm>
                   <fnm>HJ</fnm>
                </au>
                <au>
                   <snm>Park</snm>
                   <fnm>JY</fnm>
                </au>
                <au>
                   <snm>Jeon</snm>
                   <fnm>HS</fnm>
                </au>
                <au>
                   <snm>Kwon</snm>
                   <fnm>TH</fnm>
                </au>
             </aug>
             <source>PloS One</source>
             <pubdate>2011</pubdate>
             <volume>6</volume>
             <fpage>e28492</fpage>
             <xrefbib>
                <pubidlist>
                   <pubid idtype="doi">10.1371/journal.pone.0028492</pubid>
                   <pubid idtype="pmpid" link="fulltext">22145049</pubid>
                </pubidlist>
             </xrefbib>
          </bibl>
          <bibl id="B26">
             <title>
                <p>Aquaporin 5 promotes the proliferation and migration of human gastric carcinoma cells</p>
             </title>
             <aug>
                <au>
                   <snm>Huang</snm>
                   <fnm>YH</fnm>
                </au>
                <au>
                   <snm>Zhou</snm>
                   <fnm>XY</fnm>
                </au>
                <au>
                   <snm>Wang</snm>
                   <fnm>HM</fnm>
                </au>
                <au>
                   <snm>Xu</snm>
                   <fnm>H</fnm>
                </au>
                <au>
                   <snm>Chen</snm>
                   <fnm>J</fnm>
                </au>
                <au>
                   <snm>Lv</snm>
                   <fnm>NH</fnm>
                </au>
             </aug>
             <source>Tumour Biol</source>
             <pubdate>2013</pubdate>
             <volume>34</volume>
             <fpage>1743</fpage>
             <lpage>1751</lpage>
             <xrefbib>
                <pubidlist>
                   <pubid idtype="doi">10.1007/s13277-013-0712-4</pubid>
                   <pubid idtype="pmpid" link="fulltext">23436048</pubid>
                </pubidlist>
             </xrefbib>
          </bibl>
          <bibl id="B27">
             <title>
                <p>Human AQP5 plays a role in the progression of chronic myelogenous leukemia (CML)</p>
             </title>
             <aug>
                <au>
                   <snm>Chae</snm>
                   <fnm>YK</fnm>
                </au>
                <au>
                   <snm>Kang</snm>
                   <fnm>SK</fnm>
                </au>
                <au>
                   <snm>Kim</snm>
                   <fnm>MS</fnm>
                </au>
                <au>
                   <snm>Woo</snm>
                   <fnm>J</fnm>
                </au>
                <au>
                   <snm>Lee</snm>
                   <fnm>J</fnm>
                </au>
                <au>
                   <snm>Chang</snm>
                   <fnm>S</fnm>
                </au>
                <au>
                   <snm>Kim</snm>
                   <fnm>DW</fnm>
                </au>
                <au>
                   <snm>Kim</snm>
                   <fnm>M</fnm>
                </au>
                <au>
                   <snm>Park</snm>
                   <fnm>S</fnm>
                </au>
                <au>
                   <snm>Kim</snm>
                   <fnm>I</fnm>
                </au>
                <au>
                   <snm>Keam</snm>
                   <fnm>B</fnm>
                </au>
                <au>
                   <snm>Rhee</snm>
                   <fnm>J</fnm>
                </au>
                <au>
                   <snm>Koo</snm>
                   <fnm>NH</fnm>
                </au>
                <au>
                   <snm>Park</snm>
                   <fnm>G</fnm>
                </au>
                <au>
                   <snm>Kim</snm>
                   <fnm>SH</fnm>
                </au>
                <au>
                   <snm>Jang</snm>
                   <fnm>SE</fnm>
                </au>
                <au>
                   <snm>Kweon</snm>
                   <fnm>IY</fnm>
                </au>
                <au>
                   <snm>Sidransky</snm>
                   <fnm>D</fnm>
                </au>
                <au>
                   <snm>Moon</snm>
                   <fnm>C</fnm>
                </au>
             </aug>
             <source>PloS One</source>
             <pubdate>2008</pubdate>
             <volume>3</volume>
             <fpage>e2594</fpage>
             <xrefbib>
                <pubidlist>
                   <pubid idtype="doi">10.1371/journal.pone.0002594</pubid>
                   <pubid idtype="pmpid" link="fulltext">18612408</pubid>
                </pubidlist>
             </xrefbib>
          </bibl>
          <bibl id="B28">
             <title>
                <p>Distinct expression and localization of TNF system in ovarian carcinoma tissues: possible involvement of TNF-alpha in morphological changes of ovarian cancerous cells</p>
             </title>
             <aug>
                <au>
                   <snm>Piura</snm>
                   <fnm>B</fnm>
                </au>
                <au>
                   <snm>Medina</snm>
                   <fnm>L</fnm>
                </au>
                <au>
                   <snm>Rabinovich</snm>
                   <fnm>A</fnm>
                </au>
                <au>
                   <snm>Dyomin</snm>
                   <fnm>V</fnm>
                </au>
                <au>
                   <snm>Levy</snm>
                   <fnm>RS</fnm>
                </au>
                <au>
                   <snm>Huleihel</snm>
                   <fnm>M</fnm>
                </au>
             </aug>
             <source>Anticancer Res</source>
             <pubdate>2014</pubdate>
             <volume>34</volume>
             <fpage>745</fpage>
             <lpage>752</lpage>
             <xrefbib>
                <pubidlist>
                   <pubid idtype="pmpid" link="fulltext">24511008</pubid>
                </pubidlist>
             </xrefbib>
          </bibl>
          <bibl id="B29">
             <title>
                <p>Expression of tumour necrosis factor (TNF alpha) and its receptors in benign and malignant breast tissue</p>
             </title>
             <aug>
                <au>
                   <snm>Miles</snm>
                   <fnm>DW</fnm>
                </au>
                <au>
                   <snm>Happerfield</snm>
                   <fnm>LC</fnm>
                </au>
                <au>
                   <snm>Naylor</snm>
                   <fnm>MS</fnm>
                </au>
                <au>
                   <snm>Bobrow</snm>
                   <fnm>LG</fnm>
                </au>
                <au>
                   <snm>Rubens</snm>
                   <fnm>RD</fnm>
                </au>
                <au>
                   <snm>Balkwill</snm>
                   <fnm>FR</fnm>
                </au>
             </aug>
             <source>Int J Cancer</source>
             <pubdate>1994</pubdate>
             <volume>56</volume>
             <fpage>777</fpage>
             <lpage>782</lpage>
             <xrefbib>
                <pubidlist>
                   <pubid idtype="doi">10.1002/ijc.2910560603</pubid>
                   <pubid idtype="pmpid" link="fulltext">8119765</pubid>
                </pubidlist>
             </xrefbib>
          </bibl>
          <bibl id="B30">
             <title>
                <p>TNF-alpha inhibits aquaporin 5 expression in human salivary gland acinar cells via suppression of histone H4 acetylation</p>
             </title>
             <aug>
                <au>
                   <snm>Yamamura</snm>
                   <fnm>Y</fnm>
                </au>
                <au>
                   <snm>Motegi</snm>
                   <fnm>K</fnm>
                </au>
                <au>
                   <snm>Kani</snm>
                   <fnm>K</fnm>
                </au>
                <au>
                   <snm>Takano</snm>
                   <fnm>H</fnm>
                </au>
                <au>
                   <snm>Momota</snm>
                   <fnm>Y</fnm>
                </au>
                <au>
                   <snm>Aota</snm>
                   <fnm>K</fnm>
                </au>
                <au>
                   <snm>Yamanoi</snm>
                   <fnm>T</fnm>
                </au>
                <au>
                   <snm>Azuma</snm>
                   <fnm>M</fnm>
                </au>
             </aug>
             <source>J Cell Mol Med</source>
             <pubdate>2012</pubdate>
             <volume>16</volume>
             <fpage>1766</fpage>
             <lpage>1775</lpage>
             <xrefbib>
                <pubidlist>
                   <pubid idtype="doi">10.1111/j.1582-4934.2011.01456.x</pubid>
                   <pubid idtype="pmpid" link="fulltext">21973049</pubid>
                </pubidlist>
             </xrefbib>
          </bibl>
          <bibl id="B31">
             <title>
                <p>Proliferation inhibition of cisplatin and aquaporin 5 expression in human ovarian cancer cell CAOV3</p>
             </title>
             <aug>
                <au>
                   <snm>Yang</snm>
                   <fnm>J</fnm>
                </au>
                <au>
                   <snm>Yan</snm>
                   <fnm>C</fnm>
                </au>
                <au>
                   <snm>Zheng</snm>
                   <fnm>W</fnm>
                </au>
                <au>
                   <snm>Chen</snm>
                   <fnm>X</fnm>
                </au>
             </aug>
             <source>Arch Gynecol Obstet</source>
             <pubdate>2012</pubdate>
             <volume>285</volume>
             <fpage>239</fpage>
             <lpage>245</lpage>
             <xrefbib>
                <pubidlist>
                   <pubid idtype="doi">10.1007/s00404-011-1908-8</pubid>
                   <pubid idtype="pmpid" link="fulltext">21614498</pubid>
                </pubidlist>
             </xrefbib>
          </bibl>
          <bibl id="B32">
             <title>
                <p>Inhibitory effect of Epigallocatechin gallate on ovarian cancer cell proliferation associated with aquaporin 5 expression</p>
             </title>
             <aug>
                <au>
                   <snm>Yan</snm>
                   <fnm>C</fnm>
                </au>
                <au>
                   <snm>Yang</snm>
                   <fnm>J</fnm>
                </au>
                <au>
                   <snm>Shen</snm>
                   <fnm>L</fnm>
                </au>
                <au>
                   <snm>Chen</snm>
                   <fnm>X</fnm>
                </au>
             </aug>
             <source>Arch Gynecol Obstet</source>
             <pubdate>2012</pubdate>
             <volume>285</volume>
             <fpage>459</fpage>
             <lpage>467</lpage>
             <xrefbib>
                <pubidlist>
                   <pubid idtype="doi">10.1007/s00404-011-1942-6</pubid>
                   <pubid idtype="pmpid" link="fulltext">21698451</pubid>
                </pubidlist>
             </xrefbib>
          </bibl>
          <bibl id="B33">
             <title>
                <p>The role of CpG methylation in cell type-specific expression of the aquaporin-5 gene</p>
             </title>
             <aug>
                <au>
                   <snm>Nomura</snm>
                   <fnm>J</fnm>
                </au>
                <au>
                   <snm>Hisatsune</snm>
                   <fnm>A</fnm>
                </au>
                <au>
                   <snm>Miyata</snm>
                   <fnm>T</fnm>
                </au>
                <au>
                   <snm>Isohama</snm>
                   <fnm>Y</fnm>
                </au>
             </aug>
             <source>Biochem Biophys Res Commun</source>
             <pubdate>2007</pubdate>
             <volume>353</volume>
             <fpage>1017</fpage>
             <lpage>1022</lpage>
             <xrefbib>
                <pubidlist>
                   <pubid idtype="doi">10.1016/j.bbrc.2006.12.126</pubid>
                   <pubid idtype="pmpid" link="fulltext">17198683</pubid>
                </pubidlist>
             </xrefbib>
          </bibl>
       </refgrp>
    </bm>
 </art>
