<art>
    <ui>s13014-014-0224-4</ui>
    <ji>1748-717X</ji>
    <fm>
       <dochead>Research</dochead>
       <bibl>
          <title>
             <p>Current state of the art, multimodality research and future visions for the treatment of patients with prostate cancer: consensus results from &#8220;Challenges and Chances in Prostate Cancer Research Meeting 2013&#8221;</p>
          </title>
          <aug>
             <au id="A1" ca="yes">
                <snm>Combs</snm>
                <mi>E</mi>
                <fnm>Stephanie</fnm>
                <insr iid="I1"/>
                <email>Stephanie.Combs@tum.de</email>
             </au>
             <au id="A2">
                <snm>Debus</snm>
                <fnm>J&#252;rgen</fnm>
                <insr iid="I5"/>
                <email>juergen.debus@med.uni-heidelberg.de</email>
             </au>
             <au id="A3">
                <snm>Feick</snm>
                <fnm>G&#252;nter</fnm>
                <insr iid="I2"/>
                <email>g-feick@gmx.de</email>
             </au>
             <au id="A4">
                <snm>Hadaschik</snm>
                <fnm>Boris</fnm>
                <insr iid="I3"/>
                <email>boris.hadaschik@med.uni-heidelberg.de</email>
             </au>
             <au id="A5">
                <snm>Hohenfellner</snm>
                <fnm>Markus</fnm>
                <insr iid="I3"/>
                <email>markus.hohenfellner@med.uni-heidelberg.de</email>
             </au>
             <au id="A6">
                <snm>Sch&#252;le</snm>
                <fnm>Roland</fnm>
                <insr iid="I4"/>
                <email>'roland.schuele@uniklinik-freiburg.de</email>
             </au>
             <au id="A7">
                <snm>Zacharias</snm>
                <fnm>Jens-Peter</fnm>
                <insr iid="I2"/>
                <email>jpzach@gmx.de</email>
             </au>
             <au id="A8">
                <snm>Schwardt</snm>
                <fnm>Malte</fnm>
                <insr iid="I4"/>
                <email>malte.schwardt@uniklinik-freiburg.de</email>
             </au>
          </aug>
          <insg>
             <ins id="I1">
                <p>Technische Universit&#228;t M&#252;nchen (TUM), Klinikum rechts der Isar, Department of Radiation Oncology, Ismaninger Stra&#223;e 2, M&#252;nchen, 81675, Germany</p>
             </ins>
             <ins id="I2">
                <p>Bundesverband Prostatakrebs Selbsthilfe e.V., Alte Stra&#223;e 4, Gehrden 3, 30989, Germany</p>
             </ins>
             <ins id="I3">
                <p>Department of Urology, University Hospital Heidelberg, Im Neuenheimer Feld 110, Heidelberg, 69120, Germany</p>
             </ins>
             <ins id="I4">
                <p>Universit&#228;tsklinikum Freiburg, Urologie, Hugstetter Strasse 55, Freiburg, 79106, Germany</p>
             </ins>
             <ins id="I5">
                <p>Department of Radiation Oncology, University Hospital of Heidelberg, Im Neuenheimer Feld 400, Heidelberg, 69120, Germany</p>
             </ins>
          </insg>
          <source>Radiation Oncology</source>
          <section>
             <title>
                <p>Clinical Radiation Oncology</p>
             </title>
          </section>
          <issn>1748-717X</issn>
          <pubdate>2014</pubdate>
          <volume>9</volume>
          <issue>1</issue>
          <fpage>224</fpage>
          <url>http://www.ro-journal.com/content/9/1/224</url>
          <xrefbib>
             <pubidlist>
                <pubid idtype="doi">10.1186/s13014-014-0224-4</pubid>
             </pubidlist>
          </xrefbib>
       </bibl>
       <history>
          <rec>
             <date>
                <day>21</day>
                <month>1</month>
                <year>2014</year>
             </date>
          </rec>
          <acc>
             <date>
                <day>29</day>
                <month>9</month>
                <year>2014</year>
             </date>
          </acc>
          <pub>
             <date>
                <day>4</day>
                <month>11</month>
                <year>2014</year>
             </date>
          </pub>
       </history>
       <cpyrt>
          <year>2014</year>
          <collab>Combs et al.; licensee BioMed Central Ltd.</collab>
          <note>This is an Open Access article distributed under the terms of the Creative Commons Attribution License (<url>http://creativecommons.org/licenses/by/2.0</url>), which permits unrestricted use, distribution, and reproduction in any medium, provided the original work is properly credited. The Creative Commons Public Domain Dedication waiver (<url>http://creativecommons.org/publicdomain/zero/1.0/</url>) applies to the data made available in this article, unless otherwise stated.</note>
       </cpyrt>
       <abs>
          <sec>
             <st>
                <p>Abstract</p>
             </st>
             <p>A brainstorming and consensus meeting organized by the German Cancer Aid focused on modern treatment of prostate cancer and promising innovative techniques and research areas. Besides optimization of screening algorithms, molecular-based stratification and individually tailored treatment regimens will be the future of multimodal prostate cancer management. Effective interdisciplinary structures, including biobanking and data collection mechanisms are the basis for such developments.</p>
          </sec>
       </abs>
    </fm>
    <bdy>
       <sec>
          <st>
             <p>Introduction</p>
          </st>
          <p>Treatment of patients with prostate cancer has improved over the last decades, based on the understanding of tumor biology, molecular characteristics of tumors, improvement in surgical techniques as well as innovations in radiation oncology. Today, treatment of prostate cancer is an interdisciplinary task involving several treating disciplines and in some situations competing treatment options. Every modality is associated with distinct risk-benefit profiles, and intensive patient counseling as well as clinical and imaging findings are the basis for treatment decisions.</p>
          <p>Decades ago treatment usually was limited to radical surgical resection of the prostate or simple conformal radiation therapy being associated with side effects, such as incontinence, bowel dysfunction and impotence, among others. Nowadays, improved anatomic nerve-sparing surgical approaches, development of robot-assisted surgery and intensity modulated radiation therapy have improved the risk-benefit ratio. For certain indications, large randomized studies have shown that adjuvant radiotherapy can increase progression-free and overall survival. In general, radiotherapy has become a valid treatment alternative in patients with prostate cancer, and with definitive treatments applied with high-end radiotherapy long-term curation can be achieved.</p>
          <p>As individualized treatments are emerging, evaluation of molecular markers in tumor tissue, epigenetic factors or other risk constellations become more relevant and are focus of several research strategies. Biobanking structures are essential to expand knowledge in this regard. In the future, this novel information may help stratify patients for certain treatment modalities, treatment intensification or prevent subgroups of patients from over-treatment.</p>
          <p>To bundle all these relevant data and innovative concepts, a consensus meeting in 2013 funded by the German Cancer Aid was held bringing together experts in the relevant fields for prostate cancer treatment and to lay the basis for future structured research concepts. The aim of the present manuscript is to summarize state-of-the art treatment, recent research results as well as prospective strategies for the future discussed in this framework. The manuscript should serve as a reference basis for interdisciplinary prostate cancer researchers in the fields of medicine, biology, physics as well as health care management.</p>
       </sec>
       <sec>
          <st>
             <p>State of the Art Urology</p>
          </st>
          <p>Prostate cancer remains the most common malignancy and the second most common cause of cancer related death in men (Surveillance Epidemiology and End Results: SEER). Since the introduction of blood based PSA testing in the 1970&#8217;s the prostate cancer incidence significantly increased until the 1990&#8217;s but remained stable over the last ten years (SEER). State of the art therapies currently lead to 5- and 10-year survival rates of 100% and 98% respectively (SEER). The effect of PSA screening on the high survival rates is still discussed controversially between two leading studies in the United States (PLCO) and Europe (ERSPC). Both studies have enrolled large number of men (PLCO: 77.000/ERSPC:162.000) and have reported follow-up of 13 and 11&#160;years respectively until today. While the PLCO study does not show any significant reduction in prostate cancer related mortality in the screening arm, the ERSPC study does show reduction in mortality of up to 29% <abbrgrp>
                <abbr bid="B1">1</abbr>
             </abbrgrp>. Consensus on the data of ERSPC show clearly that beneficial effects from screening only become visible after a period of several years of follow up, as reported in the New England Journal of Medicine in 2012. Critics are especially on the PLCO study (high contamination of screened men outside the trial within the control arm), which limit the quality of the conclusions, which can be drawn from the study. But also the ERSPC study concludes despite the mortality reduction that more data especially on adverse effects of screening and cost effectiveness have to be acquired to make a final recommendation <abbrgrp>
                <abbr bid="B1">1</abbr>
             </abbrgrp>. Several publications following the report of the two studies came to the same conclusion that individual decisions for screening have to be made between the patient and his physician <abbrgrp>
                <abbr bid="B2">2</abbr>
             </abbrgrp>-<abbrgrp>
                <abbr bid="B4">4</abbr>
             </abbrgrp>. This consensus opinion was strongly supported especially by the coordinators of the ERSPC study. In general, &#8220;the patient has to come first&#8221; in an individualized decision process for screening and treatment.</p>
          <p>Despite the high 5- and 10&#160;year survival rates prostate cancer mortality is estimated to be 29.000 cases with 238.000 newly diagnosed cases for 2013 (SEER). To identify and treat those patients, who have a tumor, which will cause severe symptoms or will be lethal is the persisting challenge in the daily routine of urologists and oncologists. At the same time unnecessary invasive diagnostic procedures or treatments have to be minimized <abbrgrp>
                <abbr bid="B1">1</abbr>
             </abbrgrp>.</p>
          <p>Once a tumor has been diagnosed and validated in histological biopsies several treatment options especially for the organ-confined tumor are available. To prospectively compare the different regimens available, prospective multicenter trials such as the German PREFERE Study (NCT01717677) are required. In this four arm preference based study, surgery (radical prostatectomy), radiation (external beam or permanent seed implantation) and active surveillance will be compared in terms of effectiveness and side effects in a multicenter randomized trial including over 7000 men.</p>
          <p>The surgical technique has been refined to the extent of robot assisted minimally invasive systems (DaVinci), which deliver 3D vision to the surgeon and level out even minimal shaking of his hands <abbrgrp>
                <abbr bid="B5">5</abbr>
             </abbrgrp>. Open and minimally invasive nerve sparing operations are standard of care, if the tumor grade permits it <abbrgrp>
                <abbr bid="B6">6</abbr>
             </abbrgrp>. Simultaneously, active surveillance has gained more attention due to increasing rates of overtreatment in the face of the large numbers of low risk tumors detected through PSA-testing. The ERSPC study estimated the percentage of over-diagnosed men in the age group 55&#8211;74 to be as high as 50% <abbrgrp>
                <abbr bid="B1">1</abbr>
             </abbrgrp>. Active surveillance requires continuous follow-up to measure PSA kinetics and to re-evaluate tumor progression by invasive needle biopsies. Increasing Gleason scores, increase tumor volume and rapidly increasing PSA values are widely accepted trigger points for treatment. Controversy of PSA measurement and needle biopsy frequency is still ongoing, since follow-up time in active surveillance clinical trials is still too short. Moreover, the promising potential of multiparametric magnetic resonance imaging (MRI) of the prostate to non-invasively monitor tumors over time is gaining exponential attention.</p>
          <p>Focus in the future has to be on additional diagnostic parameters to clearly identify low risk tumors, which will not need treatment and separate them from high risk tumors, which do need aggressive treatment. It is believed that the heterogeneous outcome of prostate tumors is based on different tumor subtypes, which could be defined by certain molecular properties. Currently, several national and international institutions have set up large efforts to further delineate the molecular heterogeneity of prostate tumors.</p>
          <p>To &#8220;bridge the gap from mind to market&#8221; multidisciplinary efforts are needed that include clinicians as well as academia and industry. Molecular screening of human samples, target validation in in-vitro and in-vivo systems, protection of intellectual property and optimization of candidate compounds through biotech spin-offs for initiation of clinical trials within the same institution can lead to successful novel therapies. Among others, the clusterin inhibitor Custirsen (OGX-011) has been developed in such a way at the Vancouver Prostate Centre and is currently evaluated in phase III clinical trials.</p>
          <p>Data collection at clinical high volume centers can lead to multiparameter assessment of clinical and molecular data. This provides a basis to successfully implement risk assessment scores to sub classify prostate tumors. Tissue microarray platforms including thousands of patients can be screened using various &#8216;-omics&#8217; approaches to identify novel marker signatures for different tumor subtypes. Thereby surgical samples are being translated into clinically applicable diagnostic tools. An additional level of tumor alterations called &#8216;epigenetics&#8217; is currently being explored in one of Germany&#8217;s largest collaborative research centers MEDEP (medical epigenetics) at Freiburg University Hospital. The collaboration follows a multidisciplinary approach to define epigenetic diagnostic and therapeutic tools for prostate cancer.</p>
       </sec>
       <sec>
          <st>
             <p>State of the Art Radiation Oncology</p>
          </st>
          <p>Radiotherapy has been established as a clear treatment alternative in patients with prostate cancer. This is due to the significant developments over the last decades, continuously increasing precision of dose delivery to the tumor while sparing normal tissue and thus reducing treatment-related side effects.</p>
          <p>The biggest step was the development of 3D-CT-based treatment planning, which is considered the treatment standard today. With this, dose conformality to the prostate and radiation doses could be increased. An early study evaluated this possible dose escalation in patients with prostate cancer, and could show that higher doses increase biological progression-free survival independently from tumor stage and risk stratification, while side effects where rather reduced compared to older treatment techniques <abbrgrp>
                <abbr bid="B7">7</abbr>
             </abbrgrp>; this was confirmed also in long-term follow-up. The improved biochemical control of higher doses at 74&#8211;80&#160;Gy compared to &lt;70&#160;Gy have been confirmed by several groups <abbrgrp>
                <abbr bid="B8">8</abbr>
             </abbrgrp>-<abbrgrp>
                <abbr bid="B11">11</abbr>
             </abbrgrp>. Subsequent improvements included further modulation of photon beams, such as Intensity Modulated Radiotherapy (IMRT; <abbrgrp>
                <abbr bid="B12">12</abbr>
             </abbrgrp>,<abbrgrp>
                <abbr bid="B13">13</abbr>
             </abbrgrp>). Here, each individually formed radiation field is in itself inhomogeneous, adapting the dose within the field configuration to anatomical requirements. IMRT significantly helped decrease toxicity when applying high-dose radiotherapy to the prostate; even with doses above 80 Gy only moderate side effect, e.g. to the rectum, are observed <abbrgrp>
                <abbr bid="B11">11</abbr>
             </abbrgrp>,<abbrgrp>
                <abbr bid="B14">14</abbr>
             </abbrgrp>-<abbrgrp>
                <abbr bid="B16">16</abbr>
             </abbrgrp>. For intermediate-risk and high-risk patients, however, 5-year biochemical relapse free survival remains between 30-45%, thus further treatment optimization is required. Recently, further dose escalation trials beyond 80 Gy have been conducted, and even ultra-high doses of 86.4 Gy are being evaluated. Spratt et al., reported only recently long-term follow-up data after a median of 5.5&#160;years, with 7-year biochemical relapse free survival of 98.8%, 85.6% and 67.9% for low- intermediate and high-risk patients <abbrgrp>
                <abbr bid="B17">17</abbr>
             </abbrgrp>. However, for most approaches real long-term follow-up still remains to be awaited.</p>
          <p>For further improvement of the therapeutic window, modern radiation machines are coupled with imaging, such as in-room CT-scanners, or radiation and imaging in one machine. Daily imaging prior to treatment is possible, correcting potential positioning errors of the patient. Currently, adaption of dose distribution not only to interfractional movement, but also to intra-fractional changes is possible. This means, dose distribution can follow movement and deformation of organs at risk (OAR), of the target volumes or target organs (Adaptive Radiotherapy, ART). Research is currently establishing technical advancements such as gating (radiation is on when the target is within a certain range of the movement amplitude) or tracking (radiation follows movement of the target) <abbrgrp>
                <abbr bid="B13">13</abbr>
             </abbrgrp>. Combinations of radiation and imaging in terms of Image Guided Radiotherapy (IGRT) have lead to further increase of dose in prostate cancer treatment, thus further increasing outcome <abbrgrp>
                <abbr bid="B12">12</abbr>
             </abbrgrp>,<abbrgrp>
                <abbr bid="B18">18</abbr>
             </abbrgrp>,<abbrgrp>
                <abbr bid="B19">19</abbr>
             </abbrgrp>. With these technical developments, also local dose increase to e.g. positive lymph nodes in patients with pelvic nodal disease can be targeted precisely, e.g. based on PSMA-PET-Imaging.</p>
          <p>The dose-limiting OAR in the treatment of prostate cancer is the anterior rectal wall, lying directly posteriorly to the prostate. Thus steep dose gradients to the rectum are essential. One means to spare the rectum from dose is application of a sterile gel between the prostate and the rectum, providing several millimeters of space to produce a dose gradient <abbrgrp>
                <abbr bid="B20">20</abbr>
             </abbrgrp>. Such gel applications together with highly advanced treatment techniques contribute beneficially to the risk to benefit profile.</p>
          <p>Novel treatment modalities in radiotherapy may lead to further improvements. Particle therapy offers physical as well as biological benefits, the latter for high-LET (Linear Energy Transfer) particles. When entering the patient particles deposit very low energy, followed by steep dose deposition in the so called Bragg Peak. The depth of the Bragg Peak is energy-dependent. Thereafter a sharp-fall-off spares tissue behind the target volume additionally. Due to these physical properties the integral dose to the patient can be reduced, and the dose conformality can be enhanced. This is about comparable for protons and carbon ions, while carbon ions are high-LET particles associated with a higher relative biological effectiveness. Due to the biological properties of prostate cancer tissue with a high &#945;/&#946; value, there is substantial rationale for the use of the carbon beam. Additionally, increase of daily dose and reduction of overall treatment time (hypofractionation) is feasible, which from a radiobiological perspective seems to be favorable for prostate cancer tissue. To date, no randomized trial on the real value of particle therapy is available. One study in the USA has compared standard treatment to a dose-escalation using a proton boost in the experimental arm; this study has shown increase in outcome for the high-dose arm, however, such dose escalation is today potentially possible using IMRT/IGRT approaches not available at the time of initiation of that trial <abbrgrp>
                <abbr bid="B11">11</abbr>
             </abbrgrp>,<abbrgrp>
                <abbr bid="B14">14</abbr>
             </abbrgrp>,<abbrgrp>
                <abbr bid="B16">16</abbr>
             </abbrgrp>. Thus, critics argue this study has only compared high-dose versus low-dose. However, the data remain a randomized trial comparing proton dose escalation, and further studies must still show that outcome and toxicity are comparable with photon dose escalation <abbrgrp>
                <abbr bid="B16">16</abbr>
             </abbrgrp>. Future study designs must aim at comparison of these highly advanced techniques in patients with prostate cancer <abbrgrp>
                <abbr bid="B21">21</abbr>
             </abbrgrp>.</p>
       </sec>
       <sec>
          <st>
             <p>Imaging and staging</p>
          </st>
          <p>While over years CT-based diagnostics as well as ultrasonography were considered the imaging standard in prostate cancer, multiparametric MRI as well as novel molecular imaging based on PET or SPECT imaging contribute significantly to differential staging, and enable individualized treatment strategies.</p>
          <p>Currently, the basis for staging of high risk disease remains to be contrast-enhanced CT-imaging to describe the extent of nodal involvement in the pelvis, as well as to identify bony lesions. Staging should be completed by bone szintigraphy to rule out bone metastases. Emerging functional imaging, including diffusion-weighted MRI and dynamic contrast-enhanced MRI, MR-spectroscopy, lymph-node specific contract agents as well as PET-imaging using novel tracers can provide novel insights and potential for treatment improvement. Improved nodal characterization together with size and location of high-risk sub-regions or identification of prostate-cancer affected regions within the prostate provide great potential for the future.</p>
          <p>Over recent years, PET-Imaging with <sup>11</sup>C-choline has emerged as a promising diagnostic tool for patients with prostate cancer. It has been shown that <sup>11</sup>C-choline has a high sensitivity in prostate cancer patients, and clinical evaluations have shown a better diagnostic accuracy for choline PET in comparison with other conventional imaging modalities; early detection of recurrences may lead early treatment and thus improved overall outcome. Lately, PET/CT and hybrid PET/MRI with Gallium 68 prostate-specific membrane antigen (PSMA) ligands have shown promising results with further improved sensitivity as compared to choline tracers <abbrgrp>
                <abbr bid="B22">22</abbr>
             </abbrgrp>,<abbrgrp>
                <abbr bid="B23">23</abbr>
             </abbrgrp> Based on such molecular imaging, not only early and accurate diagnoses become possible, but also targeted treatment can be implemented: endoradiotherapy and radiation therapy with integrated boost concept to PET-positive lesions for primary definitive treatment, or localized small-volume radiotherapy to PET-positive lesions are worth investigating and are currently evaluated within prospective clinical trials.</p>
       </sec>
       <sec>
          <st>
             <p>Biobanking and epidemiology</p>
          </st>
          <p>In order to develop novel diagnostic or therapeutic targets their validation in large numbers of tissue samples is necessary. As already demonstrated in the previous topics, tissue derived data can be very rewarding but they require an enormous degree of planning, maintenance and funding resources in order to provide high quality biological material and data over a long period of time. Not only the sample collection, histologic validation, storage, inventarisation and the retrieving algorithm are important but also the connection to clinical data and its continuous updating <abbrgrp>
                <abbr bid="B24">24</abbr>
             </abbrgrp>. An example of the power of large-scale tissue microarray (TMA) analysis was presented: a collaborative group a researchers from Heidelberg and Hamburg compared genomic alterations in 11 early onset tumors from younger patients to 7 late onset tumors from elderly patients and discovered a preference of androgen driven structural genomic alterations (e.g. TMPRSS-ERG fusion) in the early onset tumors. These initial findings were validated using TMA technique representing over 10.000 patients&#8217; tissue samples and confirmed the original findings <abbrgrp>
                <abbr bid="B25">25</abbr>
             </abbrgrp>. There was strong consensus that high quality tissue biobanking is of high interest and importance and should be seen as an investment in the future of improving disease diagnostics and treatment in the framework of all cancer centers.</p>
          <p>Apart from novel targets on the molecular level classical family history also provides valuable information in risk assessment of prostate cancer: Fallah and colleagues incorporated the degree of relationship (first degree or second degree relative) and the co-occurrence of prostate cancer, breast cancer or esophageal cancer into a score (PCRAM: prostate cancer risk assessment model; <abbrgrp>
                <abbr bid="B26">26</abbr>
             </abbrgrp>) to optimize the starting point for prostate cancer screening.</p>
       </sec>
       <sec>
          <st>
             <p>Patient stratification and biomarkers</p>
          </st>
          <p>The introduction of large-scale next generation sequencing techniques into cancer research opened a whole new research field. The results however suggest that the heterogeneity among prostate tumors is far higher than anticipated before <abbrgrp>
                <abbr bid="B27">27</abbr>
             </abbrgrp>. Analysis of single structural alterations might not be sufficient to characterize a whole tumor. Multilayer analysis of structural genomic alterations, mutations, gene-fusion events, methylation status and the resulting gene expression will have to be analyzed in individual patients to determine optimal risk adapted treatment. Several groups have followed research in this field: Rubin et al. <abbrgrp>
                <abbr bid="B28">28</abbr>
             </abbrgrp> followed this approach recently and deep sequenced 57 prostate cancer genomes together with benign control tissue. They discovered that several structural genomic alterations were derived from a single event. This mechanism established a large number of structural alterations in a coordinated fashion in cancer tissue caused by only a few catastrophic events. They termed this mechanism chromoplexy. The model of chromoplexy will help to understand the complex genomic rearrangement found in prostate cancer. The use of next generation sequencing techniques can help in the future to stratify prostate cancer. Rubin stated, that despite the huge amount of sequencing data provided by international and national genome projects such as the International Cancer Genome Consortium (ICGC) or The Cancer Genome Atlas (TCGA) it is essential to filter out the meaningful alterations and put them into a context of cellular processes, which can be targeted <abbrgrp>
                <abbr bid="B25">25</abbr>
             </abbrgrp>.</p>
          <p>The question, if disrupted signaling pathways may influence or even cause genomic instability is in focus for several research groups: in Heidelberg Duensing and colleagues have discovered a number of factors, which disrupt the integrity of mitosis leading to aneuploidy such as the fibroblast growth factor 2 (FGF2), centrosomal protein 57 (CEP57) and polo-like kinase 4 (PLK4) <abbrgrp>
                <abbr bid="B29">29</abbr>
             </abbrgrp>,<abbrgrp>
                <abbr bid="B30">30</abbr>
             </abbrgrp>. Duensing and his team hope to use theses molecules as novel biomarkers in early stages of cancer diagnostics.</p>
          <p>Another approach follows the search for novel biomarkers however on the epigenetic level. The teams around B&#252;ttner and Sch&#252;le et al. found that the levels of lysine specific demethylase 1 (LSD1) predict the clinical behavior of prostate cancer <abbrgrp>
                <abbr bid="B31">31</abbr>
             </abbrgrp>. Further unraveling of the mechanism of action of this enzyme and its co-factors might open novel diagnostic and therapeutic options. Rather than sequencing the whole genome epigenomic analysis sequences only those DNA sections, which are occupied by DNA modifying enzymes such as e.g. LSD1. None of the above projects would have been possible without the analytical power of bioinformatics. Manke and colleagues co-developed a computational tool to predict the DNA binding affinity for DNA binding molecules such as transcription factors to better understand and predict the presence of combinations of transcription factors at any given gene regulatory sequence <abbrgrp>
                <abbr bid="B32">32</abbr>
             </abbrgrp>.</p>
          <p>Biostatistics is a key player in all tissue- and molecular-based analyses: novel programs and accessible tools to visualize multilayer data for scientific use, e.g. by circus plots, are currently under investigation. Large-scale computational analysis recently revealed that younger patients have smaller tumors but higher percentage of driver mutations compared to tumors in elderly patients <abbrgrp>
                <abbr bid="B25">25</abbr>
             </abbrgrp>. The implications of genetic counseling based on such data will have to be discussed with great care in the future.</p>
          <p>The vast technical possibilities opened up by next generation sequencing technologies, high volume tissue biobanking resources and computational analysis power offers promising novel pathways to pursue diagnostic and therapeutic strategies.</p>
       </sec>
       <sec>
          <st>
             <p>Systemic treatment</p>
          </st>
          <p>For advanced disease, several options in terms of systemic treatment are available. This includes androgen deprivation therapy, chemotherapy, and novel molecular targets <abbrgrp>
                <abbr bid="B33">33</abbr>
             </abbrgrp>,<abbrgrp>
                <abbr bid="B34">34</abbr>
             </abbrgrp>. The oldest player in this context is certainly adrogen deprivation therapy: Continuous androgen deprivation is often continued indefinitely regardless of additional therapies, however at some point may not lead to a continuous tumor control. In addition, some therapies to be offered additionally have demonstrated survival and quality-of-life benefits: This includes abiraterone acetate and prednisone, enzalutamide, or Radium-223 in patients with bone metastases. For chemotherapeutic agents, docetaxel and prednisone are often administered. In this field several prospective clinical trials are under evaluation, especially with focus on the question when to offer androgen deprivation therapy (early or later during the disease course), and when to switch to other systemic options.</p>
       </sec>
       <sec>
          <st>
             <p>Prospective trials</p>
          </st>
          <p>In the era of personalized medicine prospective clinical trials are required to identify the role of molecular markers, specific tumor and normal tissue characteristics or epigenetic factors on the course of prostate cancer. To achieve this, large multi-center collaborative structures including biospecimens should be planned and conducted. For these, intelligent trial design on smaller patient subgroups as well as large prospective clinical trials are required to compare existing treatment alternatives. The role of biologically stratified treatment decisions must be validated for individual patient cohorts.</p>
          <p>Initiatives such as the German PREFERE study for low- and early intermediate-risk prostate cancer patients, as well as cohort studies and prospective registers on active surveillance and wait-and-see strategies further characterizing the natural course of prostate cancer are currently ongoing, and will provide scientific results in the near future. Lacking to date are real comparisons of surgery and radiation therapy, for intermediate risk or high-risk tumors. For such trials, not only commitment of the surgical and radiation community are necessary, but also patient willingness to undergo randomization procedures. Often patients have a strong personal preference and therefore feel uncomfortable undergoing randomization. However, extensive information about the treatment characteristics as well as the specific side effects, benefits or advantages of the different treatment alternatives may help develop such trial concepts. Within single disciplines, direct comparison of alternative modalities or concepts are also warranted: To date, no study has shown superiority robot-assisted surgery compared to open surgery performed by a highly experienced surgical team. In radiation oncology, long-term data of very high-dose radiation therapy coupled with IGRT are being awaited, and the most recent controversy about the value of particle therapy for the treatment of prostate cancer requires a direct comparative prospective trial of particle therapy with high-end photon treatment.</p>
       </sec>
       <sec>
          <st>
             <p>Summary and conclusion</p>
          </st>
          <p>The two-day workshop funded and organized by the German Cancer Aid provided an informative platform for exchange of novel data and innovative treatment concepts. Current state-of-the-art treatment recommendations in the different disciplines were presented and discussed. A strong consensus was set on the future of individualized treatment, taking into account molecular signatures of tumor tissue for stratification. In the era of personalized medicine, each medical discipline should tailor their treatment to the individual needs and preferences of the single patient.</p>
       </sec>
       <sec>
          <st>
             <p>Competing interests</p>
          </st>
          <p>The authors declare no competing interests.</p>
       </sec>
       <sec>
          <st>
             <p>Authors&#8217; contributions</p>
          </st>
          <p>SEC and MS collected the data and wrote the manuscript. JD, GF, BH, MH, RS and JPZ critically read the manuscript and added information. All authors reviewed and agreed on the final version of the manuscript.</p>
       </sec>
    </bdy>
    <bm>
       <refgrp>
          
          <bibl id="B1">
             <title>
                <p>Prostate-cancer mortality at 11 years of follow-up</p>
             </title>
             <aug>
                <au>
                   <snm>Schr&#246;der</snm>
                   <fnm>FH</fnm>
                </au>
                <au>
                   <snm>Hugosson</snm>
                   <fnm>J</fnm>
                </au>
                <au>
                   <snm>Roobol</snm>
                   <fnm>MJ</fnm>
                </au>
                <au>
                   <snm>Tammela</snm>
                   <fnm>TL</fnm>
                </au>
                <au>
                   <snm>Ciatto</snm>
                   <fnm>S</fnm>
                </au>
                <au>
                   <snm>Nelen</snm>
                   <fnm>V</fnm>
                </au>
                <au>
                   <snm>Kwiatkowski</snm>
                   <fnm>M</fnm>
                </au>
                <au>
                   <snm>Lujan</snm>
                   <fnm>M</fnm>
                </au>
                <au>
                   <snm>Lilja</snm>
                   <fnm>H</fnm>
                </au>
                <au>
                   <snm>Zappa</snm>
                   <fnm>M</fnm>
                </au>
                <au>
                   <snm>Denis</snm>
                   <fnm>LJ</fnm>
                </au>
                <au>
                   <snm>Recker</snm>
                   <fnm>F</fnm>
                </au>
                <au>
                   <snm>P&#225;ez</snm>
                   <fnm>A</fnm>
                </au>
                <au>
                   <snm>M&#228;&#228;tt&#228;nen</snm>
                   <fnm>L</fnm>
                </au>
                <au>
                   <snm>Bangma</snm>
                   <fnm>CH</fnm>
                </au>
                <au>
                   <snm>Aus</snm>
                   <fnm>G</fnm>
                </au>
                <au>
                   <snm>Carlsson</snm>
                   <fnm>S</fnm>
                </au>
                <au>
                   <snm>Villers</snm>
                   <fnm>A</fnm>
                </au>
                <au>
                   <snm>Rebillard</snm>
                   <fnm>X</fnm>
                </au>
                <au>
                   <snm>van der Kwast</snm>
                   <fnm>T</fnm>
                </au>
                <au>
                   <snm>Kujala</snm>
                   <fnm>PM</fnm>
                </au>
                <au>
                   <snm>Blijenberg</snm>
                   <fnm>BG</fnm>
                </au>
                <au>
                   <snm>Stenman</snm>
                   <fnm>UH</fnm>
                </au>
                <au>
                   <snm>Huber</snm>
                   <fnm>A</fnm>
                </au>
                <au>
                   <snm>Taari</snm>
                   <fnm>K</fnm>
                </au>
                <au>
                   <snm>Hakama</snm>
                   <fnm>M</fnm>
                </au>
                <au>
                   <snm>Moss</snm>
                   <fnm>SM</fnm>
                </au>
                <au>
                   <snm>de Koning</snm>
                   <fnm>HJ</fnm>
                </au>
                <au>
                   <snm>Auvinen</snm>
                   <fnm>A</fnm>
                </au>
             </aug>
             <insg>
                <ins>
                   <p>ERSPC Investigators</p>
                </ins>
             </insg>
             <source>N Engl J Med</source>
             <pubdate>2012</pubdate>
             <volume>366</volume>
             <fpage>981</fpage>
             <lpage>990</lpage>
             <xrefbib>
                <pubidlist>
                   <pubid idtype="doi">10.1056/NEJMoa1113135</pubid>
                   <pubid idtype="pmpid" link="fulltext">22417251</pubid>
                </pubidlist>
             </xrefbib>
          </bibl>
          <bibl id="B2">
             <title>
                <p>One man at a time&#8211;resolving the PSA controversy</p>
             </title>
             <aug>
                <au>
                   <snm>McNaughton-Collins</snm>
                   <fnm>MF</fnm>
                </au>
                <au>
                   <snm>Barry</snm>
                   <fnm>MJ</fnm>
                </au>
             </aug>
             <source>N Engl J Med</source>
             <pubdate>2011</pubdate>
             <volume>365</volume>
             <fpage>1951</fpage>
             <lpage>1953</lpage>
             <xrefbib>
                <pubidlist>
                   <pubid idtype="doi">10.1056/NEJMp1111894</pubid>
                   <pubid idtype="pmpid" link="fulltext">22029758</pubid>
                </pubidlist>
             </xrefbib>
          </bibl>
          <bibl id="B3">
             <title>
                <p>Prostate-cancer screening&#8211;what the U.S. Preventive Services Task Force left out</p>
             </title>
             <aug>
                <au>
                   <snm>Brett</snm>
                   <fnm>AS</fnm>
                </au>
                <au>
                   <snm>Ablin</snm>
                   <fnm>RJ</fnm>
                </au>
             </aug>
             <source>N Engl J Med</source>
             <pubdate>2011</pubdate>
             <volume>365</volume>
             <fpage>1949</fpage>
             <lpage>1951</lpage>
             <xrefbib>
                <pubidlist>
                   <pubid idtype="doi">10.1056/NEJMp1112191</pubid>
                   <pubid idtype="pmpid" link="fulltext">22029759</pubid>
                </pubidlist>
             </xrefbib>
          </bibl>
          <bibl id="B4">
             <title>
                <p>Stratifying risk&#8211;the U.S. Preventive Services Task Force and prostate-cancer screening</p>
             </title>
             <aug>
                <au>
                   <snm>Schroder</snm>
                   <fnm>FH</fnm>
                </au>
             </aug>
             <source>N EnglJ Med</source>
             <pubdate>2011</pubdate>
             <volume>365</volume>
             <fpage>1953</fpage>
             <lpage>1955</lpage>
             <xrefbib>
                <pubidlist>
                   <pubid idtype="doi">10.1056/NEJMp1112140</pubid>
                </pubidlist>
             </xrefbib>
          </bibl>
          <bibl id="B5">
             <title>
                <p>Robot-assisted laparoscopic radical prostatectomy: technique and outcomes of 700 cases</p>
             </title>
             <aug>
                <au>
                   <snm>Carlucci</snm>
                   <fnm>JR</fnm>
                </au>
                <au>
                   <snm>Nabizada-Pace</snm>
                   <fnm>F</fnm>
                </au>
                <au>
                   <snm>Samadi</snm>
                   <fnm>DB</fnm>
                </au>
             </aug>
             <source>Int J Biomed Sci</source>
             <pubdate>2009</pubdate>
             <volume>5</volume>
             <fpage>201</fpage>
             <lpage>208</lpage>
             <xrefbib>
                <pubidlist>
                   <pubid idtype="pmpid" link="fulltext">23675138</pubid>
                </pubidlist>
             </xrefbib>
          </bibl>
          <bibl id="B6">
             <title>
                <p>Systematic review and meta-analysis of studies reporting potency rates after robot-assisted radical prostatectomy</p>
             </title>
             <aug>
                <au>
                   <snm>Ficarra</snm>
                   <fnm>V</fnm>
                </au>
                <au>
                   <snm>Novara</snm>
                   <fnm>G</fnm>
                </au>
                <au>
                   <snm>Ahlering</snm>
                   <fnm>TE</fnm>
                </au>
                <au>
                   <snm>Costello</snm>
                   <fnm>A</fnm>
                </au>
                <au>
                   <snm>Eastham</snm>
                   <fnm>JA</fnm>
                </au>
                <au>
                   <snm>Graefen</snm>
                   <fnm>M</fnm>
                </au>
                <au>
                   <snm>Guazzoni</snm>
                   <fnm>G</fnm>
                </au>
                <au>
                   <snm>Menon</snm>
                   <fnm>M</fnm>
                </au>
                <au>
                   <snm>Mottrie</snm>
                   <fnm>A</fnm>
                </au>
                <au>
                   <snm>Patel</snm>
                   <fnm>VR</fnm>
                </au>
                <au>
                   <snm>Van der Poel</snm>
                   <fnm>H</fnm>
                </au>
                <au>
                   <snm>Rosen</snm>
                   <fnm>RC</fnm>
                </au>
                <au>
                   <snm>Tewari</snm>
                   <fnm>AK</fnm>
                </au>
                <au>
                   <snm>Wilson</snm>
                   <fnm>TG</fnm>
                </au>
                <au>
                   <snm>Zattoni</snm>
                   <fnm>F</fnm>
                </au>
                <au>
                   <snm>Montorsi</snm>
                   <fnm>F</fnm>
                </au>
             </aug>
             <source>Eur Urol</source>
             <pubdate>2012</pubdate>
             <volume>62</volume>
             <fpage>418</fpage>
             <lpage>430</lpage>
             <xrefbib>
                <pubidlist>
                   <pubid idtype="doi">10.1016/j.eururo.2012.05.046</pubid>
                   <pubid idtype="pmpid" link="fulltext">22749850</pubid>
                </pubidlist>
             </xrefbib>
          </bibl>
          <bibl id="B7">
             <title>
                <p>Long-term results of the M. D. Anderson randomized dose-escalation trial for prostate cancer</p>
             </title>
             <aug>
                <au>
                   <snm>Kuban</snm>
                   <fnm>DA</fnm>
                </au>
                <au>
                   <snm>Tucker</snm>
                   <fnm>SL</fnm>
                </au>
                <au>
                   <snm>Dong</snm>
                   <fnm>L</fnm>
                </au>
                <au>
                   <snm>Starkschall</snm>
                   <fnm>G</fnm>
                </au>
                <au>
                   <snm>Huang</snm>
                   <fnm>EH</fnm>
                </au>
                <au>
                   <snm>Cheung</snm>
                   <fnm>MR</fnm>
                </au>
                <au>
                   <snm>Lee</snm>
                   <fnm>AK</fnm>
                </au>
                <au>
                   <snm>Pollack</snm>
                   <fnm>A</fnm>
                </au>
             </aug>
             <source>Int J Radiat Oncol Biol Phys</source>
             <pubdate>2008</pubdate>
             <volume>70</volume>
             <fpage>67</fpage>
             <lpage>74</lpage>
             <xrefbib>
                <pubidlist>
                   <pubid idtype="doi">10.1016/j.ijrobp.2007.06.054</pubid>
                   <pubid idtype="pmpid" link="fulltext">17765406</pubid>
                </pubidlist>
             </xrefbib>
          </bibl>
          <bibl id="B8">
             <title>
                <p>Escalated-dose versus standard-dose conformal radiotherapy in prostate cancer: first results from the MRC RT01 randomised controlled trial</p>
             </title>
             <aug>
                <au>
                   <snm>Dearnaley</snm>
                   <fnm>DP</fnm>
                </au>
                <au>
                   <snm>Sydes</snm>
                   <fnm>MR</fnm>
                </au>
                <au>
                   <snm>Graham</snm>
                   <fnm>JD</fnm>
                </au>
                <au>
                   <snm>Aird</snm>
                   <fnm>EG</fnm>
                </au>
                <au>
                   <snm>Bottomley</snm>
                   <fnm>D</fnm>
                </au>
                <au>
                   <snm>Cowan</snm>
                   <fnm>RA</fnm>
                </au>
                <au>
                   <snm>Huddart</snm>
                   <fnm>RA</fnm>
                </au>
                <au>
                   <snm>Jose</snm>
                   <fnm>CC</fnm>
                </au>
                <au>
                   <snm>Matthews</snm>
                   <fnm>JH</fnm>
                </au>
                <au>
                   <snm>Millar</snm>
                   <fnm>J</fnm>
                </au>
                <au>
                   <snm>Moore</snm>
                   <fnm>AR</fnm>
                </au>
                <au>
                   <snm>Morgan</snm>
                   <fnm>RC</fnm>
                </au>
                <au>
                   <snm>Russell</snm>
                   <fnm>JM</fnm>
                </au>
                <au>
                   <snm>Scrase</snm>
                   <fnm>CD</fnm>
                </au>
                <au>
                   <snm>Stephens</snm>
                   <fnm>RJ</fnm>
                </au>
                <au>
                   <snm>Syndikus</snm>
                   <fnm>I</fnm>
                </au>
                <au>
                   <snm>Parmar</snm>
                   <fnm>MK</fnm>
                </au>
             </aug>
             <insg>
                <ins>
                   <p>RT01 collaborators</p>
                </ins>
             </insg>
             <source>Lancet Oncol</source>
             <pubdate>2007</pubdate>
             <volume>8</volume>
             <fpage>475</fpage>
             <lpage>487</lpage>
             <xrefbib>
                <pubidlist>
                   <pubid idtype="doi">10.1016/S1470-2045(07)70143-2</pubid>
                   <pubid idtype="pmpid" link="fulltext">17482880</pubid>
                </pubidlist>
             </xrefbib>
          </bibl>
          <bibl id="B9">
             <title>
                <p>Dose&#8211;response in radiotherapy for localized prostate cancer: results of the Dutch multicenter randomized phase III trial comparing 68 Gy of radiotherapy with 78 Gy</p>
             </title>
             <aug>
                <au>
                   <snm>Peeters</snm>
                   <fnm>ST</fnm>
                </au>
                <au>
                   <snm>Heemsbergen</snm>
                   <fnm>WD</fnm>
                </au>
                <au>
                   <snm>Koper</snm>
                   <fnm>PC</fnm>
                </au>
                <au>
                   <snm>van Putten</snm>
                   <fnm>WL</fnm>
                </au>
                <au>
                   <snm>Slot</snm>
                   <fnm>A</fnm>
                </au>
                <au>
                   <snm>Dielwart</snm>
                   <fnm>MF</fnm>
                </au>
                <au>
                   <snm>Bonfrer</snm>
                   <fnm>JM</fnm>
                </au>
                <au>
                   <snm>Incrocci</snm>
                   <fnm>L</fnm>
                </au>
                <au>
                   <snm>Lebesque</snm>
                   <fnm>JV</fnm>
                </au>
             </aug>
             <source>J ClinOncol</source>
             <pubdate>2006</pubdate>
             <volume>24</volume>
             <fpage>1990</fpage>
             <lpage>1996</lpage>
             <xrefbib>
                <pubidlist>
                   <pubid idtype="doi">10.1200/JCO.2005.05.2530</pubid>
                </pubidlist>
             </xrefbib>
          </bibl>
          <bibl id="B10">
             <title>
                <p>Preliminary results of a randomized radiotherapy dose-escalation study comparing 70 Gy with 78 Gy for prostate cancer</p>
             </title>
             <aug>
                <au>
                   <snm>Pollack</snm>
                   <fnm>A</fnm>
                </au>
                <au>
                   <snm>Zagars</snm>
                   <fnm>GK</fnm>
                </au>
                <au>
                   <snm>Smith</snm>
                   <fnm>LG</fnm>
                </au>
                <au>
                   <snm>Lee</snm>
                   <fnm>JJ</fnm>
                </au>
                <au>
                   <snm>von Eschenbach</snm>
                   <fnm>AC</fnm>
                </au>
                <au>
                   <snm>Antolak</snm>
                   <fnm>JA</fnm>
                </au>
                <au>
                   <snm>Starkschall</snm>
                   <fnm>G</fnm>
                </au>
                <au>
                   <snm>Rosen</snm>
                   <fnm>I</fnm>
                </au>
             </aug>
             <source>J Clin Oncol</source>
             <pubdate>2000</pubdate>
             <volume>18</volume>
             <fpage>3904</fpage>
             <lpage>3911</lpage>
             <xrefbib>
                <pubidlist>
                   <pubid idtype="pmpid" link="fulltext">11099319</pubid>
                </pubidlist>
             </xrefbib>
          </bibl>
          <bibl id="B11">
             <title>
                <p>Comparison of conventional-dose vs high-dose conformal radiation therapy in clinically localized adenocarcinoma of the prostate: a randomized controlled trial</p>
             </title>
             <aug>
                <au>
                   <snm>Zietman</snm>
                   <fnm>AL</fnm>
                </au>
                <au>
                   <snm>DeSilvio</snm>
                   <fnm>ML</fnm>
                </au>
                <au>
                   <snm>Slater</snm>
                   <fnm>JD</fnm>
                </au>
                <au>
                   <snm>Rossi</snm>
                   <fnm>CJ</fnm>
                   <suf>Jr</suf>
                </au>
                <au>
                   <snm>Miller</snm>
                   <fnm>DW</fnm>
                </au>
                <au>
                   <snm>Adams</snm>
                   <fnm>JA</fnm>
                </au>
                <au>
                   <snm>Shipley</snm>
                   <fnm>WU</fnm>
                </au>
             </aug>
             <source>JAMA</source>
             <pubdate>2005</pubdate>
             <volume>294</volume>
             <fpage>1233</fpage>
             <lpage>1239</lpage>
             <xrefbib>
                <pubidlist>
                   <pubid idtype="doi">10.1001/jama.294.10.1233</pubid>
                   <pubid idtype="pmpid" link="fulltext">16160131</pubid>
                </pubidlist>
             </xrefbib>
          </bibl>
          <bibl id="B12">
             <title>
                <p>A comprehensive comparison of IMRT and VMAT plan quality for prostate cancer treatment</p>
             </title>
             <aug>
                <au>
                   <snm>Quan</snm>
                   <fnm>EM</fnm>
                </au>
                <au>
                   <snm>Li</snm>
                   <fnm>X</fnm>
                </au>
                <au>
                   <snm>Li</snm>
                   <fnm>Y</fnm>
                </au>
                <au>
                   <snm>Wang</snm>
                   <fnm>X</fnm>
                </au>
                <au>
                   <snm>Kudchadker</snm>
                   <fnm>RJ</fnm>
                </au>
                <au>
                   <snm>Johnson</snm>
                   <fnm>JL</fnm>
                </au>
                <au>
                   <snm>Kuban</snm>
                   <fnm>DA</fnm>
                </au>
                <au>
                   <snm>Lee</snm>
                   <fnm>AK</fnm>
                </au>
                <au>
                   <snm>Zhang</snm>
                   <fnm>X</fnm>
                </au>
             </aug>
             <source>Int J Radiat Oncol Biol Phys</source>
             <pubdate>2012</pubdate>
             <volume>83</volume>
             <fpage>1169</fpage>
             <lpage>1178</lpage>
             <xrefbib>
                <pubidlist>
                   <pubid idtype="doi">10.1016/j.ijrobp.2011.09.015</pubid>
                   <pubid idtype="pmpid" link="fulltext">22704703</pubid>
                </pubidlist>
             </xrefbib>
          </bibl>
          <bibl id="B13">
             <title>
                <p>[Advances in radio-oncology. From precision radiotherapy with photons to ion therapy with protons and carbon ions]</p>
             </title>
             <aug>
                <au>
                   <snm>Combs</snm>
                   <fnm>SE</fnm>
                </au>
                <au>
                   <snm>Schulz-Ertner</snm>
                   <fnm>D</fnm>
                </au>
                <au>
                   <snm>Herfarth</snm>
                   <fnm>KK</fnm>
                </au>
                <au>
                   <snm>Krempien</snm>
                   <fnm>R</fnm>
                </au>
                <au>
                   <snm>Debus</snm>
                   <fnm>J</fnm>
                </au>
             </aug>
             <source>Chirurg</source>
             <pubdate>2006</pubdate>
             <volume>77</volume>
             <fpage>1126</fpage>
             <lpage>1132</lpage>
             <xrefbib>
                <pubidlist>
                   <pubid idtype="doi">10.1007/s00104-006-1268-2</pubid>
                   <pubid idtype="pmpid" link="fulltext">17119885</pubid>
                </pubidlist>
             </xrefbib>
          </bibl>
          <bibl id="B14">
             <title>
                <p>Randomized trial comparing conventional-dose with high-dose conformal radiation therapy in early-stage adenocarcinoma of the prostate: long-term results from proton radiation oncology group/american college of radiology 95&#8211;09</p>
             </title>
             <aug>
                <au>
                   <snm>Zietman</snm>
                   <fnm>AL</fnm>
                </au>
                <au>
                   <snm>Bae</snm>
                   <fnm>K</fnm>
                </au>
                <au>
                   <snm>Slater</snm>
                   <fnm>JD</fnm>
                </au>
                <au>
                   <snm>Shipley</snm>
                   <fnm>WU</fnm>
                </au>
                <au>
                   <snm>Efstathiou</snm>
                   <fnm>JA</fnm>
                </au>
                <au>
                   <snm>Coen</snm>
                   <fnm>JJ</fnm>
                </au>
                <au>
                   <snm>Bush</snm>
                   <fnm>DA</fnm>
                </au>
                <au>
                   <snm>Lunt</snm>
                   <fnm>M</fnm>
                </au>
                <au>
                   <snm>Spiegel</snm>
                   <fnm>DY</fnm>
                </au>
                <au>
                   <snm>Skowronski</snm>
                   <fnm>R</fnm>
                </au>
                <au>
                   <snm>Jabola</snm>
                   <fnm>BR</fnm>
                </au>
                <au>
                   <snm>Rossi</snm>
                   <fnm>CJ</fnm>
                </au>
             </aug>
             <source>J Clin Oncol</source>
             <pubdate>2010</pubdate>
             <volume>28</volume>
             <fpage>1106</fpage>
             <lpage>1111</lpage>
             <xrefbib>
                <pubidlist>
                   <pubid idtype="doi">10.1200/JCO.2009.25.8475</pubid>
                   <pubid idtype="pmpid" link="fulltext">20124169</pubid>
                </pubidlist>
             </xrefbib>
          </bibl>
          <bibl id="B15">
             <title>
                <p>Long-term multi-institutional analysis of stage T1-T2 prostate cancer treated with radiotherapy in the PSA era</p>
             </title>
             <aug>
                <au>
                   <snm>Kuban</snm>
                   <fnm>DA</fnm>
                </au>
                <au>
                   <snm>Thames</snm>
                   <fnm>HD</fnm>
                </au>
                <au>
                   <snm>Levy</snm>
                   <fnm>LB</fnm>
                </au>
                <au>
                   <snm>Horwitz</snm>
                   <fnm>EM</fnm>
                </au>
                <au>
                   <snm>Kupelian</snm>
                   <fnm>PA</fnm>
                </au>
                <au>
                   <snm>Martinez</snm>
                   <fnm>AA</fnm>
                </au>
                <au>
                   <snm>Michalski</snm>
                   <fnm>JM</fnm>
                </au>
                <au>
                   <snm>Pisansky</snm>
                   <fnm>TM</fnm>
                </au>
                <au>
                   <snm>Sandler</snm>
                   <fnm>HM</fnm>
                </au>
                <au>
                   <snm>Shipley</snm>
                   <fnm>WU</fnm>
                </au>
                <au>
                   <snm>Zelefsky</snm>
                   <fnm>MJ</fnm>
                </au>
                <au>
                   <snm>Zietman</snm>
                   <fnm>AL</fnm>
                </au>
             </aug>
             <source>Int J Radiat Oncol Biol Phys</source>
             <pubdate>2003</pubdate>
             <volume>57</volume>
             <fpage>915</fpage>
             <lpage>928</lpage>
             <xrefbib>
                <pubidlist>
                   <pubid idtype="doi">10.1016/S0360-3016(03)00632-1</pubid>
                   <pubid idtype="pmpid" link="fulltext">14575822</pubid>
                </pubidlist>
             </xrefbib>
          </bibl>
          <bibl id="B16">
             <title>
                <p>Patient-reported long-term outcomes after conventional and high-dose combined proton and photon radiation for early prostate cancer</p>
             </title>
             <aug>
                <au>
                   <snm>Talcott</snm>
                   <fnm>JA</fnm>
                </au>
                <au>
                   <snm>Rossi</snm>
                   <fnm>C</fnm>
                </au>
                <au>
                   <snm>Shipley</snm>
                   <fnm>WU</fnm>
                </au>
                <au>
                   <snm>Clark</snm>
                   <fnm>JA</fnm>
                </au>
                <au>
                   <snm>Slater</snm>
                   <fnm>JD</fnm>
                </au>
                <au>
                   <snm>Niemierko</snm>
                   <fnm>A</fnm>
                </au>
                <au>
                   <snm>Zietman</snm>
                   <fnm>AL</fnm>
                </au>
             </aug>
             <source>JAMA</source>
             <pubdate>2010</pubdate>
             <volume>303</volume>
             <fpage>1046</fpage>
             <lpage>1053</lpage>
             <xrefbib>
                <pubidlist>
                   <pubid idtype="doi">10.1001/jama.2010.287</pubid>
                   <pubid idtype="pmpid" link="fulltext">20233822</pubid>
                </pubidlist>
             </xrefbib>
          </bibl>
          <bibl id="B17">
             <title>
                <p>Long-term survival and toxicity in patients treated with high-dose intensity modulated radiation therapy for localized prostate cancer</p>
             </title>
             <aug>
                <au>
                   <snm>Spratt</snm>
                   <fnm>DE</fnm>
                </au>
                <au>
                   <snm>Pei</snm>
                   <fnm>X</fnm>
                </au>
                <au>
                   <snm>Yamada</snm>
                   <fnm>J</fnm>
                </au>
                <au>
                   <snm>Kollmeier</snm>
                   <fnm>MA</fnm>
                </au>
                <au>
                   <snm>Cox</snm>
                   <fnm>B</fnm>
                </au>
                <au>
                   <snm>Zelefsky</snm>
                   <fnm>MJ</fnm>
                </au>
             </aug>
             <source>Int J Radiat Oncol Biol Phys</source>
             <pubdate>2013</pubdate>
             <volume>85</volume>
             <fpage>686</fpage>
             <lpage>692</lpage>
             <xrefbib>
                <pubidlist>
                   <pubid idtype="doi">10.1016/j.ijrobp.2012.05.023</pubid>
                   <pubid idtype="pmpid" link="fulltext">22795805</pubid>
                </pubidlist>
             </xrefbib>
          </bibl>
          <bibl id="B18">
             <title>
                <p>Cluster model analysis of late rectal bleeding after IMRT of prostate cancer: a case&#8211;control study</p>
             </title>
             <aug>
                <au>
                   <snm>Tucker</snm>
                   <fnm>SL</fnm>
                </au>
                <au>
                   <snm>Zhang</snm>
                   <fnm>M</fnm>
                </au>
                <au>
                   <snm>Dong</snm>
                   <fnm>L</fnm>
                </au>
                <au>
                   <snm>Mohan</snm>
                   <fnm>R</fnm>
                </au>
                <au>
                   <snm>Kuban</snm>
                   <fnm>D</fnm>
                </au>
                <au>
                   <snm>Thames</snm>
                   <fnm>HD</fnm>
                </au>
             </aug>
             <source>Int J Radiat Oncol Biol Phys</source>
             <pubdate>2006</pubdate>
             <volume>64</volume>
             <fpage>1255</fpage>
             <lpage>1264</lpage>
             <xrefbib>
                <pubidlist>
                   <pubid idtype="doi">10.1016/j.ijrobp.2005.10.029</pubid>
                   <pubid idtype="pmpid" link="fulltext">16504763</pubid>
                </pubidlist>
             </xrefbib>
          </bibl>
          <bibl id="B19">
             <title>
                <p>Clinical experience with intensity modulated radiation therapy (IMRT) in prostate cancer</p>
             </title>
             <aug>
                <au>
                   <snm>Zelefsky</snm>
                   <fnm>MJ</fnm>
                </au>
                <au>
                   <snm>Fuks</snm>
                   <fnm>Z</fnm>
                </au>
                <au>
                   <snm>Happersett</snm>
                   <fnm>L</fnm>
                </au>
                <au>
                   <snm>Lee</snm>
                   <fnm>HJ</fnm>
                </au>
                <au>
                   <snm>Ling</snm>
                   <fnm>CC</fnm>
                </au>
                <au>
                   <snm>Burman</snm>
                   <fnm>CM</fnm>
                </au>
                <au>
                   <snm>Hunt</snm>
                   <fnm>M</fnm>
                </au>
                <au>
                   <snm>Wolfe</snm>
                   <fnm>T</fnm>
                </au>
                <au>
                   <snm>Venkatraman</snm>
                   <fnm>ES</fnm>
                </au>
                <au>
                   <snm>Jackson</snm>
                   <fnm>A</fnm>
                </au>
                <au>
                   <snm>Skwarchuk</snm>
                   <fnm>M</fnm>
                </au>
                <au>
                   <snm>Leibel</snm>
                   <fnm>SA</fnm>
                </au>
             </aug>
             <source>Radiother Oncol</source>
             <pubdate>2000</pubdate>
             <volume>55</volume>
             <fpage>241</fpage>
             <lpage>249</lpage>
             <xrefbib>
                <pubidlist>
                   <pubid idtype="doi">10.1016/S0167-8140(99)00100-0</pubid>
                   <pubid idtype="pmpid" link="fulltext">10869739</pubid>
                </pubidlist>
             </xrefbib>
          </bibl>
          <bibl id="B20">
             <title>
                <p>A Multi-institutional Clinical Trial of Rectal Dose Reduction via Injected Polyethylene-Glycol Hydrogel During Intensity Modulated Radiation Therapy for Prostate Cancer: Analysis of Dosimetric Outcomes</p>
             </title>
             <aug>
                <au>
                   <snm>Song</snm>
                   <fnm>DY</fnm>
                </au>
                <au>
                   <snm>Herfarth</snm>
                   <fnm>KK</fnm>
                </au>
                <au>
                   <snm>Uhl</snm>
                   <fnm>M</fnm>
                </au>
                <au>
                   <snm>Eble</snm>
                   <fnm>MJ</fnm>
                </au>
                <au>
                   <snm>Pinkawa</snm>
                   <fnm>M</fnm>
                </au>
                <au>
                   <snm>van Triest</snm>
                   <fnm>B</fnm>
                </au>
                <au>
                   <snm>Kalisvaart</snm>
                   <fnm>R</fnm>
                </au>
                <au>
                   <snm>Weber</snm>
                   <fnm>DC</fnm>
                </au>
                <au>
                   <snm>Miralbell</snm>
                   <fnm>R</fnm>
                </au>
                <au>
                   <snm>Deweese</snm>
                   <fnm>TL</fnm>
                </au>
                <au>
                   <snm>Ford</snm>
                   <fnm>EC</fnm>
                </au>
             </aug>
             <source>Int J Radiat Oncol Biol Phys</source>
             <pubdate>2013</pubdate>
             <volume>87</volume>
             <issue>1</issue>
             <fpage>81</fpage>
             <lpage>87</lpage>
             <xrefbib>
                <pubidlist>
                   <pubid idtype="doi">10.1016/j.ijrobp.2012.12.019</pubid>
                   <pubid idtype="pmpid" link="fulltext">23414766</pubid>
                </pubidlist>
             </xrefbib>
          </bibl>
          <bibl id="B21">
             <title>
                <p>Towards clinical evidence in particle therapy: ENLIGHT, PARTNER</p>
             </title>
             <aug>
                <au>
                   <snm>Combs</snm>
                   <fnm>SE</fnm>
                </au>
                <au>
                   <snm>Djosanjh</snm>
                   <fnm>M</fnm>
                </au>
                <au>
                   <snm>P&#246;tter</snm>
                   <fnm>R</fnm>
                </au>
                <au>
                   <snm>Orrechia</snm>
                   <fnm>R</fnm>
                </au>
                <au>
                   <snm>Haberer</snm>
                   <fnm>T</fnm>
                </au>
                <au>
                   <snm>Durante</snm>
                   <fnm>M</fnm>
                </au>
                <au>
                   <snm>Fossati</snm>
                   <fnm>P</fnm>
                </au>
                <au>
                   <snm>Parodi</snm>
                   <fnm>K</fnm>
                </au>
                <au>
                   <snm>Balosso</snm>
                   <fnm>J</fnm>
                </au>
                <au>
                   <snm>Amaldi</snm>
                   <fnm>U</fnm>
                </au>
                <au>
                   <snm>Baumann</snm>
                   <fnm>M</fnm>
                </au>
                <au>
                   <snm>Debus</snm>
                   <fnm>J</fnm>
                </au>
             </aug>
             <source>ULICE and beyond. J Radiat Res</source>
             <pubdate>2013</pubdate>
             <volume>54</volume>
             <issue>Suppl 1</issue>
             <fpage>i6</fpage>
             <lpage>i12</lpage>
             <xrefbib>
                <pubidlist>
                   <pubid idtype="doi">10.1093/jrr/rrt039</pubid>
                </pubidlist>
             </xrefbib>
          </bibl>
          <bibl id="B22">
             <title>
                <p>Hybrid Positron Emission Tomography-Magnetic Resonance Imaging with Gallium 68 Prostate-specific Membrane Antigen Tracer: A Next Step for Imaging of Recurrent Prostate Cancer-Preliminary Results</p>
             </title>
             <aug>
                <au>
                   <snm>Roethke</snm>
                   <fnm>MC</fnm>
                </au>
                <au>
                   <snm>Kuru</snm>
                   <fnm>TH</fnm>
                </au>
                <au>
                   <snm>Afshar-Oromieh</snm>
                   <fnm>A</fnm>
                </au>
                <au>
                   <snm>Schlemmer</snm>
                   <fnm>HP</fnm>
                </au>
                <au>
                   <snm>Hadaschik</snm>
                   <fnm>BA</fnm>
                </au>
                <au>
                   <snm>Fenchel</snm>
                   <fnm>M</fnm>
                </au>
             </aug>
             <source>Eur Urol</source>
             <pubdate>2013</pubdate>
             <volume>64</volume>
             <fpage>862</fpage>
             <lpage>864</lpage>
             <xrefbib>
                <pubidlist>
                   <pubid idtype="doi">10.1016/j.eururo.2013.08.003</pubid>
                   <pubid idtype="pmpid" link="fulltext">23954084</pubid>
                </pubidlist>
             </xrefbib>
          </bibl>
          <bibl id="B23">
             <title>
                <p>Comparison of PET imaging with a Ga-labelled PSMA ligand and F-choline-based PET/CT for the diagnosis of recurrent prostate cancer</p>
             </title>
             <aug>
                <au>
                   <snm>Afshar-Oromieh</snm>
                   <fnm>A</fnm>
                </au>
                <au>
                   <snm>Zechmann</snm>
                   <fnm>CM</fnm>
                </au>
                <au>
                   <snm>Malcher</snm>
                   <fnm>A</fnm>
                </au>
                <au>
                   <snm>Eder</snm>
                   <fnm>M</fnm>
                </au>
                <au>
                   <snm>Eisenhut</snm>
                   <fnm>M</fnm>
                </au>
                <au>
                   <snm>Linhart</snm>
                   <fnm>HG</fnm>
                </au>
                <au>
                   <snm>Holland-Letz</snm>
                   <fnm>T</fnm>
                </au>
                <au>
                   <snm>Hadaschik</snm>
                   <fnm>BA</fnm>
                </au>
                <au>
                   <snm>Giesel</snm>
                   <fnm>FL</fnm>
                </au>
                <au>
                   <snm>Debus</snm>
                   <fnm>J</fnm>
                </au>
                <au>
                   <snm>Haberkorn</snm>
                   <fnm>U</fnm>
                </au>
             </aug>
             <source>Eur J Nucl Med Mol Imaging</source>
             <pubdate>2013</pubdate>
             <volume>41</volume>
             <issue>1</issue>
             <fpage>11</fpage>
             <lpage>20</lpage>
             <xrefbib>
                <pubidlist>
                   <pubid idtype="doi">10.1007/s00259-013-2525-5</pubid>
                   <pubid idtype="pmpid" link="fulltext">24072344</pubid>
                </pubidlist>
             </xrefbib>
          </bibl>
          <bibl id="B24">
             <title>
                <p>Two decades&#8217; experience with a prospective biobank for urologic oncology: research, clinical care, and the patients&#8217; view</p>
             </title>
             <aug>
                <au>
                   <snm>Huber</snm>
                   <fnm>J</fnm>
                </au>
                <au>
                   <snm>Herpel</snm>
                   <fnm>E</fnm>
                </au>
                <au>
                   <snm>Jakobi</snm>
                   <fnm>H</fnm>
                </au>
                <au>
                   <snm>Hadaschik</snm>
                   <fnm>BA</fnm>
                </au>
                <au>
                   <snm>Pahernik</snm>
                   <fnm>S</fnm>
                </au>
                <au>
                   <snm>Hohenfellner</snm>
                   <fnm>M</fnm>
                </au>
             </aug>
             <source>Urol Oncol</source>
             <pubdate>2013</pubdate>
             <volume>31</volume>
             <issue>7</issue>
             <fpage>990</fpage>
             <lpage>996</lpage>
             <xrefbib>
                <pubidlist>
                   <pubid idtype="doi">10.1016/j.urolonc.2012.01.016</pubid>
                   <pubid idtype="pmpid" link="fulltext">22386623</pubid>
                </pubidlist>
             </xrefbib>
          </bibl>
          <bibl id="B25">
             <title>
                <p>Integrative genomic analyses reveal an androgen-driven somatic alteration landscape in early-onset prostate cancer</p>
             </title>
             <aug>
                <au>
                   <snm>Weischenfeldt</snm>
                   <fnm>J</fnm>
                </au>
                <au>
                   <snm>Simon</snm>
                   <fnm>R</fnm>
                </au>
                <au>
                   <snm>Feuerbach</snm>
                   <fnm>L</fnm>
                </au>
                <au>
                   <snm>Schlangen</snm>
                   <fnm>K</fnm>
                </au>
                <au>
                   <snm>Weichenhan</snm>
                   <fnm>D</fnm>
                </au>
                <au>
                   <snm>Minner</snm>
                   <fnm>S</fnm>
                </au>
                <au>
                   <snm>Wuttig</snm>
                   <fnm>D</fnm>
                </au>
                <au>
                   <snm>Warnatz</snm>
                   <fnm>HJ</fnm>
                </au>
                <au>
                   <snm>Stehr</snm>
                   <fnm>H</fnm>
                </au>
                <au>
                   <snm>Rausch</snm>
                   <fnm>T</fnm>
                </au>
                <au>
                   <snm>J&#228;ger</snm>
                   <fnm>N</fnm>
                </au>
                <au>
                   <snm>Gu</snm>
                   <fnm>L</fnm>
                </au>
                <au>
                   <snm>Bogatyrova</snm>
                   <fnm>O</fnm>
                </au>
                <au>
                   <snm>St&#252;tz</snm>
                   <fnm>AM</fnm>
                </au>
                <au>
                   <snm>Claus</snm>
                   <fnm>R</fnm>
                </au>
                <au>
                   <snm>Eils</snm>
                   <fnm>J</fnm>
                </au>
                <au>
                   <snm>Eils</snm>
                   <fnm>R</fnm>
                </au>
                <au>
                   <snm>Gerh&#228;user</snm>
                   <fnm>C</fnm>
                </au>
                <au>
                   <snm>Huang</snm>
                   <fnm>PH</fnm>
                </au>
                <au>
                   <snm>Hutter</snm>
                   <fnm>B</fnm>
                </au>
                <au>
                   <snm>Kabbe</snm>
                   <fnm>R</fnm>
                </au>
                <au>
                   <snm>Lawerenz</snm>
                   <fnm>C</fnm>
                </au>
                <au>
                   <snm>Radomski</snm>
                   <fnm>S</fnm>
                </au>
                <au>
                   <snm>Bartholomae</snm>
                   <fnm>CC</fnm>
                </au>
                <au>
                   <snm>F&#228;lth</snm>
                   <fnm>M</fnm>
                </au>
                <au>
                   <snm>Gade</snm>
                   <fnm>S</fnm>
                </au>
                <au>
                   <snm>Schmidt</snm>
                   <fnm>M</fnm>
                </au>
                <au>
                   <snm>Amschler</snm>
                   <fnm>N</fnm>
                </au>
                <au>
                   <snm>Ha&#223;</snm>
                   <fnm>T</fnm>
                </au>
                <au>
                   <snm>Galal</snm>
                   <fnm>R</fnm>
                </au>
                <etal/>
             </aug>
             <source>Cancer Cell</source>
             <pubdate>2013</pubdate>
             <volume>23</volume>
             <fpage>159</fpage>
             <lpage>170</lpage>
             <xrefbib>
                <pubidlist>
                   <pubid idtype="doi">10.1016/j.ccr.2013.01.002</pubid>
                   <pubid idtype="pmpid" link="fulltext">23410972</pubid>
                </pubidlist>
             </xrefbib>
          </bibl>
          <bibl id="B26">
             <title>
                <p>Prostate cancer risk assessment model: a scoring model based on the Swedish Family-Cancer Database</p>
             </title>
             <aug>
                <au>
                   <snm>Roudgari</snm>
                   <fnm>H</fnm>
                </au>
                <au>
                   <snm>Hemminki</snm>
                   <fnm>K</fnm>
                </au>
                <au>
                   <snm>Brandt</snm>
                   <fnm>A</fnm>
                </au>
                <au>
                   <snm>Sundquist</snm>
                   <fnm>J</fnm>
                </au>
                <au>
                   <snm>Fallah</snm>
                   <fnm>M</fnm>
                </au>
             </aug>
             <source>J Med Genet</source>
             <pubdate>2012</pubdate>
             <volume>49</volume>
             <fpage>345</fpage>
             <lpage>352</lpage>
             <xrefbib>
                <pubidlist>
                   <pubid idtype="doi">10.1136/jmedgenet-2011-100290</pubid>
                   <pubid idtype="pmpid" link="fulltext">22581973</pubid>
                </pubidlist>
             </xrefbib>
          </bibl>
          <bibl id="B27">
             <title>
                <p>The complexity of prostate cancer: genomic alterations and heterogeneity</p>
             </title>
             <aug>
                <au>
                   <snm>Boyd</snm>
                   <fnm>LK</fnm>
                </au>
                <au>
                   <snm>Mao</snm>
                   <fnm>X</fnm>
                </au>
                <au>
                   <snm>Lu</snm>
                   <fnm>YJ</fnm>
                </au>
             </aug>
             <source>Nat Rev Urol</source>
             <pubdate>2012</pubdate>
             <volume>9</volume>
             <fpage>652</fpage>
             <lpage>664</lpage>
             <xrefbib>
                <pubidlist>
                   <pubid idtype="doi">10.1038/nrurol.2012.185</pubid>
                   <pubid idtype="pmpid" link="fulltext">23132303</pubid>
                </pubidlist>
             </xrefbib>
          </bibl>
          <bibl id="B28">
             <title>
                <p>Punctuated evolution of prostate cancer genomes</p>
             </title>
             <aug>
                <au>
                   <snm>Baca</snm>
                   <fnm>SC</fnm>
                </au>
                <au>
                   <snm>Prandi</snm>
                   <fnm>D</fnm>
                </au>
                <au>
                   <snm>Lawrence</snm>
                   <fnm>MS</fnm>
                </au>
                <au>
                   <snm>Mosquera</snm>
                   <fnm>JM</fnm>
                </au>
                <au>
                   <snm>Romanel</snm>
                   <fnm>A</fnm>
                </au>
                <au>
                   <snm>Drier</snm>
                   <fnm>Y</fnm>
                </au>
                <au>
                   <snm>Park</snm>
                   <fnm>K</fnm>
                </au>
                <au>
                   <snm>Kitabayashi</snm>
                   <fnm>N</fnm>
                </au>
                <au>
                   <snm>MacDonald</snm>
                   <fnm>TY</fnm>
                </au>
                <au>
                   <snm>Ghandi</snm>
                   <fnm>M</fnm>
                </au>
                <au>
                   <snm>Van Allen</snm>
                   <fnm>E</fnm>
                </au>
                <au>
                   <snm>Kryukov</snm>
                   <fnm>GV</fnm>
                </au>
                <au>
                   <snm>Sboner</snm>
                   <fnm>A</fnm>
                </au>
                <au>
                   <snm>Theurillat</snm>
                   <fnm>JP</fnm>
                </au>
                <au>
                   <snm>Soong</snm>
                   <fnm>TD</fnm>
                </au>
                <au>
                   <snm>Nickerson</snm>
                   <fnm>E</fnm>
                </au>
                <au>
                   <snm>Auclair</snm>
                   <fnm>D</fnm>
                </au>
                <au>
                   <snm>Tewari</snm>
                   <fnm>A</fnm>
                </au>
                <au>
                   <snm>Beltran</snm>
                   <fnm>H</fnm>
                </au>
                <au>
                   <snm>Onofrio</snm>
                   <fnm>RC</fnm>
                </au>
                <au>
                   <snm>Boysen</snm>
                   <fnm>G</fnm>
                </au>
                <au>
                   <snm>Guiducci</snm>
                   <fnm>C</fnm>
                </au>
                <au>
                   <snm>Barbieri</snm>
                   <fnm>CE</fnm>
                </au>
                <au>
                   <snm>Cibulskis</snm>
                   <fnm>K</fnm>
                </au>
                <au>
                   <snm>Sivachenko</snm>
                   <fnm>A</fnm>
                </au>
                <au>
                   <snm>Carter</snm>
                   <fnm>SL</fnm>
                </au>
                <au>
                   <snm>Saksena</snm>
                   <fnm>G</fnm>
                </au>
                <au>
                   <snm>Voet</snm>
                   <fnm>D</fnm>
                </au>
                <au>
                   <snm>Ramos</snm>
                   <fnm>AH</fnm>
                </au>
                <au>
                   <snm>Winckler</snm>
                   <fnm>W</fnm>
                </au>
                <etal/>
             </aug>
             <source>Cell</source>
             <pubdate>2013</pubdate>
             <volume>153</volume>
             <fpage>666</fpage>
             <lpage>677</lpage>
             <xrefbib>
                <pubidlist>
                   <pubid idtype="doi">10.1016/j.cell.2013.03.021</pubid>
                   <pubid idtype="pmpid" link="fulltext">23622249</pubid>
                </pubidlist>
             </xrefbib>
          </bibl>
          <bibl id="B29">
             <title>
                <p>FGF-2 disrupts mitotic stability in prostate cancer through the intracellular trafficking protein CEP57</p>
             </title>
             <aug>
                <au>
                   <snm>Cuevas</snm>
                   <fnm>R</fnm>
                </au>
                <au>
                   <snm>Korzeniewski</snm>
                   <fnm>N</fnm>
                </au>
                <au>
                   <snm>Tolstov</snm>
                   <fnm>Y</fnm>
                </au>
                <au>
                   <snm>Hohenfellner</snm>
                   <fnm>M</fnm>
                </au>
                <au>
                   <snm>Duensing</snm>
                   <fnm>S</fnm>
                </au>
             </aug>
             <source>Cancer Res</source>
             <pubdate>2013</pubdate>
             <volume>73</volume>
             <fpage>1400</fpage>
             <lpage>1410</lpage>
             <xrefbib>
                <pubidlist>
                   <pubid idtype="doi">10.1158/0008-5472.CAN-12-1857</pubid>
                   <pubid idtype="pmpid" link="fulltext">23243019</pubid>
                </pubidlist>
             </xrefbib>
          </bibl>
          <bibl id="B30">
             <title>
                <p>CAND1 promotes PLK4-mediated centriole overduplication and is frequently disrupted in prostate cancer</p>
             </title>
             <aug>
                <au>
                   <snm>Korzeniewski</snm>
                   <fnm>N</fnm>
                </au>
                <au>
                   <snm>Hohenfellner</snm>
                   <fnm>M</fnm>
                </au>
                <au>
                   <snm>Duensing</snm>
                   <fnm>S</fnm>
                </au>
             </aug>
             <source>Neoplasia</source>
             <pubdate>2012</pubdate>
             <volume>14</volume>
             <fpage>799</fpage>
             <lpage>806</lpage>
             <xrefbib>
                <pubidlist>
                   <pubid idtype="pmpid" link="fulltext">23019411</pubid>
                </pubidlist>
             </xrefbib>
          </bibl>
          <bibl id="B31">
             <title>
                <p>Androgen receptor coactivators lysine-specific histone demethylase 1 and four and a half LIM domain protein 2 predict risk of prostate cancer recurrence</p>
             </title>
             <aug>
                <au>
                   <snm>Kahl</snm>
                   <fnm>P</fnm>
                </au>
                <au>
                   <snm>Gullotti</snm>
                   <fnm>L</fnm>
                </au>
                <au>
                   <snm>Heukamp</snm>
                   <fnm>LC</fnm>
                </au>
                <au>
                   <snm>Wolf</snm>
                   <fnm>S</fnm>
                </au>
                <au>
                   <snm>Friedrichs</snm>
                   <fnm>N</fnm>
                </au>
                <au>
                   <snm>Vorreuther</snm>
                   <fnm>R</fnm>
                </au>
                <au>
                   <snm>Solleder</snm>
                   <fnm>G</fnm>
                </au>
                <au>
                   <snm>Bastian</snm>
                   <fnm>PJ</fnm>
                </au>
                <au>
                   <snm>Ellinger</snm>
                   <fnm>J</fnm>
                </au>
                <au>
                   <snm>Metzger</snm>
                   <fnm>E</fnm>
                </au>
                <au>
                   <snm>Sch&#252;le</snm>
                   <fnm>R</fnm>
                </au>
                <au>
                   <snm>Buettner</snm>
                   <fnm>R</fnm>
                </au>
             </aug>
             <source>Cancer Res</source>
             <pubdate>2006</pubdate>
             <volume>66</volume>
             <fpage>11341</fpage>
             <lpage>11347</lpage>
             <xrefbib>
                <pubidlist>
                   <pubid idtype="doi">10.1158/0008-5472.CAN-06-1570</pubid>
                   <pubid idtype="pmpid" link="fulltext">17145880</pubid>
                </pubidlist>
             </xrefbib>
          </bibl>
          <bibl id="B32">
             <title>
                <p>Transcription factor binding predictions using TRAP for the analysis of ChIP-seq data and regulatory SNPs</p>
             </title>
             <aug>
                <au>
                   <snm>Thomas-Chollier</snm>
                   <fnm>M</fnm>
                </au>
                <au>
                   <snm>Hufton</snm>
                   <fnm>A</fnm>
                </au>
                <au>
                   <snm>Heinig</snm>
                   <fnm>M</fnm>
                </au>
                <au>
                   <snm>O'Keeffe</snm>
                   <fnm>S</fnm>
                </au>
                <au>
                   <snm>Masri</snm>
                   <fnm>NE</fnm>
                </au>
                <au>
                   <snm>Roider</snm>
                   <fnm>HG</fnm>
                </au>
                <au>
                   <snm>Manke</snm>
                   <fnm>T</fnm>
                </au>
                <au>
                   <snm>Vingron</snm>
                   <fnm>M</fnm>
                </au>
             </aug>
             <source>Nat Protoc</source>
             <pubdate>2011</pubdate>
             <volume>6</volume>
             <fpage>1860</fpage>
             <lpage>1869</lpage>
             <xrefbib>
                <pubidlist>
                   <pubid idtype="doi">10.1038/nprot.2011.409</pubid>
                   <pubid idtype="pmpid" link="fulltext">22051799</pubid>
                </pubidlist>
             </xrefbib>
          </bibl>
          <bibl id="B33">
             <title>
                <p>Systemic Therapy in Men With Metastatic Castration-Resistant Prostate Cancer: American Society of Clinical Oncology and Cancer Care Ontario Clinical Practice Guideline</p>
             </title>
             <aug>
                <au>
                   <snm>Basch</snm>
                   <fnm>E</fnm>
                </au>
                <au>
                   <snm>Loblaw</snm>
                   <fnm>DA</fnm>
                </au>
                <au>
                   <snm>Oliver</snm>
                   <fnm>TK</fnm>
                </au>
                <au>
                   <snm>Carducci</snm>
                   <fnm>M</fnm>
                </au>
                <au>
                   <snm>Chen</snm>
                   <fnm>RC</fnm>
                </au>
                <au>
                   <snm>Frame</snm>
                   <fnm>JN</fnm>
                </au>
                <au>
                   <snm>Garrels</snm>
                   <fnm>K</fnm>
                </au>
                <au>
                   <snm>Hotte</snm>
                   <fnm>S</fnm>
                </au>
                <au>
                   <snm>Kattan</snm>
                   <fnm>MW</fnm>
                </au>
                <au>
                   <snm>Raghavan</snm>
                   <fnm>D</fnm>
                </au>
                <au>
                   <snm>Saad</snm>
                   <fnm>F</fnm>
                </au>
                <au>
                   <snm>Taplin</snm>
                   <fnm>ME</fnm>
                </au>
                <au>
                   <snm>Walker-Dilks</snm>
                   <fnm>C</fnm>
                </au>
                <au>
                   <snm>Williams</snm>
                   <fnm>J</fnm>
                </au>
                <au>
                   <snm>Winquist</snm>
                   <fnm>E</fnm>
                </au>
                <au>
                   <snm>Bennett</snm>
                   <fnm>CL</fnm>
                </au>
                <au>
                   <snm>Wootton</snm>
                   <fnm>T</fnm>
                </au>
                <au>
                   <snm>Rumble</snm>
                   <fnm>RB</fnm>
                </au>
                <au>
                   <snm>Dusetzina</snm>
                   <fnm>SB</fnm>
                </au>
                <au>
                   <snm>Virgo</snm>
                   <fnm>KS</fnm>
                </au>
             </aug>
             <source>J Clin Oncol</source>
             <pubdate>2014</pubdate>
             <volume>32</volume>
             <issue>30</issue>
             <fpage>3436</fpage>
             <lpage>48</lpage>
             <xrefbib>
                <pubidlist>
                   <pubid idtype="doi">10.1200/JCO.2013.54.8404</pubid>
                   <pubid idtype="pmpid" link="fulltext">25199761</pubid>
                </pubidlist>
             </xrefbib>
          </bibl>
          <bibl id="B34">
             <title>
                <p>American Society of Clinical Oncology Clinical Practice Guidelines: formal systematic review-based consensus methodology</p>
             </title>
             <aug>
                <au>
                   <snm>Loblaw</snm>
                   <fnm>DA</fnm>
                </au>
                <au>
                   <snm>Prestrud</snm>
                   <fnm>AA</fnm>
                </au>
                <au>
                   <snm>Somerfield</snm>
                   <fnm>MR</fnm>
                </au>
                <au>
                   <snm>Oliver</snm>
                   <fnm>TK</fnm>
                </au>
                <au>
                   <snm>Brouwers</snm>
                   <fnm>MC</fnm>
                </au>
                <au>
                   <snm>Nam</snm>
                   <fnm>RK</fnm>
                </au>
                <au>
                   <snm>Lyman</snm>
                   <fnm>GH</fnm>
                </au>
                <au>
                   <snm>Basch</snm>
                   <fnm>E</fnm>
                </au>
             </aug>
             <insg>
                <ins>
                   <p>Americal Society of Clinical Oncology Clinical Practice Guidelines</p>
                </ins>
             </insg>
             <source>J Clin Oncol</source>
             <pubdate>2012</pubdate>
             <volume>30</volume>
             <fpage>3136</fpage>
             <lpage>3140</lpage>
             <xrefbib>
                <pubidlist>
                   <pubid idtype="doi">10.1200/JCO.2012.42.0489</pubid>
                   <pubid idtype="pmpid" link="fulltext">22778311</pubid>
                </pubidlist>
             </xrefbib>
          </bibl>
       </refgrp>
    </bm>
 </art>
