<art>
    <ui>s13023-014-0166-9</ui>
    <ji>1750-1172</ji>
    <fm>
       <dochead>Research</dochead>
       <bibl>
          <title>
             <p>Differences in immunoreactive trypsin values between type of feeding and ethnicity in neonatal cystic fibrosis screening: a cross-sectional study</p>
          </title>
          <aug>
             <au id="A1">
                <snm>Cort&#233;s</snm>
                <fnm>Ernesto</fnm>
                <insr iid="I1"/>
                <email>ernestocort@gmail.com</email>
             </au>
             <au id="A2">
                <snm>Rold&#225;n</snm>
                <mnm>Mar&#237;a</mnm>
                <fnm>Ana</fnm>
                <insr iid="I2"/>
                <email>amroldanc@hotmail.com</email>
             </au>
             <au id="A3" ca="yes">
                <snm>Palaz&#243;n-Bru</snm>
                <fnm>Antonio</fnm>
                <insr iid="I3"/>
                <email>antonio.pb23@gmail.com</email>
             </au>
             <au id="A4">
                <snm>Rizo-Baeza</snm>
                <mnm>Mercedes</mnm>
                <fnm>Mar&#237;a</fnm>
                <insr iid="I4"/>
                <email>mercedes.rizo@ua.es</email>
             </au>
             <au id="A5">
                <snm>Manero</snm>
                <fnm>Herminia</fnm>
                <insr iid="I2"/>
                <email>manero_her@gva.es</email>
             </au>
             <au id="A6">
                <snm>Gil-Guill&#233;n</snm>
                <mnm>Francisco</mnm>
                <fnm>Vicente</fnm>
                <insr iid="I3"/>
                <email>vte.gil@gmail.com</email>
             </au>
          </aug>
          <insg>
             <ins id="I1">
                <p>Pharmacology, Paediatrics and Organic Chemistry Department, Miguel Hern&#225;ndez University, San Juan de Alicante, Spain</p>
             </ins>
             <ins id="I2">
                <p>Clinical Analysis Department, Alicante General University Hospital, Alicante, Spain</p>
             </ins>
             <ins id="I3">
                <p>Clinical Medicine Department, Miguel Hern&#225;ndez University, Carretera de Valencia-Alicante S/N, San Juan de Alicante, 03550, Spain</p>
             </ins>
             <ins id="I4">
                <p>Nursing Department, University of Alicante, San Vicente del Raspeig, Spain</p>
             </ins>
          </insg>
          <source>Orphanet Journal of Rare Diseases</source>
          <issn>1750-1172</issn>
          <pubdate>2014</pubdate>
          <volume>9</volume>
          <issue>1</issue>
          <fpage>166</fpage>
          <url>http://www.ojrd.com/content/9/1/166</url>
          <xrefbib>
             <pubidlist>
                <pubid idtype="doi">10.1186/s13023-014-0166-9</pubid>
             </pubidlist>
          </xrefbib>
       </bibl>
       <history>
          <rec>
             <date>
                <day>20</day>
                <month>6</month>
                <year>2014</year>
             </date>
          </rec>
          <acc>
             <date>
                <day>16</day>
                <month>10</month>
                <year>2014</year>
             </date>
          </acc>
          <pub>
             <date>
                <day>7</day>
                <month>11</month>
                <year>2014</year>
             </date>
          </pub>
       </history>
       <cpyrt>
          <year>2014</year>
          <collab>Cort&#233;s et al.; licensee BioMed Central Ltd.</collab>
          <note>This is an Open Access article distributed under the terms of the Creative Commons Attribution License (<url>http://creativecommons.org/licenses/by/4.0</url>), which permits unrestricted use, distribution, and reproduction in any medium, provided the original work is properly credited. The Creative Commons Public Domain Dedication waiver (<url>http://creativecommons.org/publicdomain/zero/1.0/</url>) applies to the data made available in this article, unless otherwise stated.</note>
       </cpyrt>
       <kwdg>
          <kwd>Cystic fibrosis</kwd>
          <kwd>Neonatal screening</kwd>
          <kwd>Nutrition</kwd>
          <kwd>Ethnic groups</kwd>
       </kwdg>
       <abs>
          <sec>
             <st>
                <p>Abstract</p>
             </st>
             <sec>
                <st>
                   <p>Background</p>
                </st>
                <p>We studied the differences in immunoreactive trypsin (IRT) in neonatal screening for cystic fibrosis (CF) associated individually with the age of the newborn, ethnicity and environmental temperature. In this study, we determine the overall influence of environmental temperature at birth, gender, feeding, gestational age, maternal age and ethnic origin on an abnormal IRT result.</p>
             </sec>
             <sec>
                <st>
                   <p>Methods</p>
                </st>
                <p>Cross-sectional observational study. A sample was selected of newborns from Alicante (Spain) who underwent neonatal CF screening in 2012&#8211;2013. Primary variable: abnormal IRT levels (&#8805;65&#160;ng/ml). Secondary variables: gender, maternal origin, maternal age (years) (&lt;20, 20&#8211;40, &gt;40), gestational age (weeks) (&lt;32, 32&#8211;37, &gt;37), type of feeding (natural, formula, mixed and special nutrition), &gt;20&#160;days from birth to blood collection, and average temperature during the month of birth (in&#176;C). Using a multivariate logistic regression model the adjusted odds ratios (ORs) were estimated to analyze the association between atypical IRT levels and the study variables. The &#945; error was 5% and confidence intervals (CI) were calculated for the most relevant parameters.</p>
             </sec>
             <sec>
                <st>
                   <p>Results</p>
                </st>
                <p>Of a total of 13,310 samples, 199 were abnormal (1.34%). Significant associated factors: feeding method (natural&#8201;&#8594;&#8201;OR&#8201;=&#8201;1; mixed&#8201;&#8594;&#8201;OR&#8201;=&#8201;0.53, 95% CI: 0.31-0.89; formula&#8201;&#8594;&#8201;OR&#8201;=&#8201;0.72, 95% CI: 0.48-1.07; special&#8201;&#8594;&#8201;OR&#8201;=&#8201;21.88, 95% CI: 6.92-69.14; p&#8201;&lt;&#8201;0.001).</p>
             </sec>
             <sec>
                <st>
                   <p>Conclusions</p>
                </st>
                <p>Newborns receiving special nutrition have a 20-fold higher risk for abnormal IRT levels, and screening is advisable once normalized feeding is initiated. It is advisable to consider ethnic variability. Seasonality was not important.</p>
             </sec>
          </sec>
       </abs>
       <trans-abs-grp>
          <abs lang="es">
             <sec>
                <st>
                   <p>Spanish abstract</p>
                </st>
                <sec>
                   <st>
                      <p>Antecedentes</p>
                   </st>
                   <p>Se ha estudiado la diferencia de tripsina inmunorreactiva (TIR) en el cribado neonatal de fibrosis qu&#237;stica (FQ) relacionados individualmente con edad del reci&#233;n nacido, etnia y temperatura ambiente. En este estudio nosotros determinamos la influencia global de temperatura ambiente al nacimiento, sexo, alimentaci&#243;n, edad gestacional, edad de la madre y origen &#233;tnico sobre la TIR alterada.</p>
                </sec>
                <sec>
                   <st>
                      <p>M&#233;todos</p>
                   </st>
                   <p>Estudio observacional transversal. Se seleccion&#243; una muestra de reci&#233;n nacidos de Alicante (Espa&#241;a) a los que se les realiz&#243; cribado neonatal de FQ en 2012&#8211;2013. Variable principal: niveles alterados de TIR (&#8805;65&#160;ng/ml). Variables secundarias: sexo, origen de la madre, edad materna (a&#241;os) (&lt;20; 20&#8211;40; &gt;40), semanas de gestaci&#243;n (&lt;32; 32&#8211;37; &gt;37), tipo de lactancia (natural, artificial, mixta y nutrici&#243;n especial), &gt;20 d&#237;as desde el nacimiento a la extracci&#243;n de sangre y temperatura media del mes de nacimiento (en&#176;C). Con un modelo multivariante de regresi&#243;n log&#237;stica se estimaron las odds ratio ajustadas (ORs) para analizar la relaci&#243;n entre la TIR at&#237;pica y las variables del estudio. El error &#945; fue del 5% y se calcularon intervalos de confianza (IC) para los par&#225;metros m&#225;s relevantes.</p>
                </sec>
                <sec>
                   <st>
                      <p>Resultados</p>
                   </st>
                   <p>De un total de 13,310 muestras, 199 estuvieron alteradas (1.34%). Factores asociados significativos: tipo alimentaci&#243;n (Materna&#8201;&#8594;&#8201;OR&#8201;=&#8201;1; Mixta&#8201;&#8594;&#8201;OR&#8201;=&#8201;0.53, IC 95%: 0.31-0.89; F&#243;rmula&#8201;&#8594;&#8201;OR&#8201;=&#8201;0.72, IC 95%: 0.48-1.07; Especial&#8201;&#8594;&#8201;OR&#8201;=&#8201;21.88, IC 95%: 6.92-69.14; p&#8201;&lt;&#8201;0.001).</p>
                </sec>
                <sec>
                   <st>
                      <p>Conclusiones</p>
                   </st>
                   <p>Los reci&#233;n nacidos con nutrici&#243;n especial tienen 20 veces m&#225;s riesgo de TIR alterada, siendo aconsejable cribarlos una vez inicien alimentaci&#243;n normalizada. Es aconsejable tener presente la variabilidad &#233;tnica. La estacionalidad no fue importante.</p>
                </sec>
             </sec>
          </abs>
       </trans-abs-grp>
    </fm>
    <bdy>
       <sec>
          <st>
             <p>Background</p>
          </st>
          <p>Cystic fibrosis (CF) is one of the rare diseases for which newborn screening is recommended <abbrgrp>
                <abbr bid="B1">1</abbr>
             </abbrgrp> based on the determination, in the first week of life, of immunoreactive trypsin (IRT) in dried blood spots collected on filter paper, because of its increased level in CF patients, likely related to obstruction of the pancreatic ducts <abbrgrp>
                <abbr bid="B2">2</abbr>
             </abbrgrp>.</p>
          <p>Studies have shown that children diagnosed through screening have better nutritional and respiratory parameters <abbrgrp>
                <abbr bid="B3">3</abbr>
             </abbrgrp>,<abbrgrp>
                <abbr bid="B4">4</abbr>
             </abbrgrp>, better intellectual development <abbrgrp>
                <abbr bid="B5">5</abbr>
             </abbrgrp>,<abbrgrp>
                <abbr bid="B6">6</abbr>
             </abbrgrp>, and increased survival <abbrgrp>
                <abbr bid="B7">7</abbr>
             </abbrgrp> than those diagnosed after presenting clinical manifestations <abbrgrp>
                <abbr bid="B8">8</abbr>
             </abbrgrp>-<abbrgrp>
                <abbr bid="B11">11</abbr>
             </abbrgrp>.</p>
          <p>These benefits, coupled with successful experiences in other countries and communities, have allowed implementation of newborn screening since that time. Newborn screening in the Valencian Community began in 2012 by quantification of IRT, which is elevated in the blood samples of newborns with cystic fibrosis due to pancreatic duct obstruction with trypsin reflux into the blood. The critical point is the establishment of the cutoff in the first sample. Each laboratory should establish its own cutoffs, considering that the IRT concentration is dependent on the age of the newborn and decreases notably from 20&#8211;21 days of age. A protocol that has proved effective is the three-stage strategy (IRT/DNA/IRT) being used by several screening programs <abbrgrp>
                <abbr bid="B12">12</abbr>
             </abbrgrp>. The main problem in the determination of IRT is a higher than expected percentage of false positive tests in some communities. The hypothesis is that the reference range for IRT may vary depending upon the ethnicity of the newborn.</p>
          <p>The newborns of families from the north of Africa have higher IRT values and most positive newborn screenings in this population could be considered &#8220;false positives&#8221; <abbrgrp>
                <abbr bid="B13">13</abbr>
             </abbrgrp>. Higher IRT values have also been found to be associated with sick infants <abbrgrp>
                <abbr bid="B14">14</abbr>
             </abbrgrp>. Despite these considerations, no special strategy for premature infants and sick newborns is recommended. However, it may be useful to record the ethnicity of the newborn to enable its association with possible deviations in the analytical results. Cutoff values at 48&#160;hours of life can be set in different ways: an absolute value, typically 60&#8211;65&#160;ng/ml, although values up to 90&#8211;105&#160;ng/ml are acceptable, or a changing value based on the results obtained over a period of time, which may be a day or a month, accepting values higher than the 90th, 95th or 98th percentiles for that period as pathological. All these findings have been summarized in an excellent review by Therrell Jr et al. <abbrgrp>
                <abbr bid="B15">15</abbr>
             </abbrgrp>.</p>
          <p>Moreover, these factors have been individually analyzed for their impact on IRT values. As a new feature of the findings of these authors, in this study we assessed the conditions (room temperature, gender, gestational age, age of the child at extraction, maternal age and ethnicity) that can alter the normal levels of IRT, after one year of experience using a three-stage strategy protocol (IRT/DNA/IRT) through multivariate analysis. Furthermore, we used an innovative approach to assess the influence of nutrition type on altered IRT values.</p>
       </sec>
       <sec>
          <st>
             <p>Methods</p>
          </st>
          <sec>
             <st>
                <p>Study population</p>
             </st>
             <p>Newborns in the province of Alicante.</p>
          </sec>
          <sec>
             <st>
                <p>Design and participants</p>
             </st>
             <p>Cross-sectional observational study. A sample of all newborns in the province of Alicante was selected to undergo neonatal screening (IRT/DNA/IRT) for metabolic diseases after informed consent was given by the parents or guardians (over 99% of the newborns) from March 2012 to February 2013. The dried blood sample on filter paper was required to meet the defined quality criteria <abbrgrp>
                   <abbr bid="B16">16</abbr>
                </abbrgrp>. Any child not meeting these requirements was excluded from the study. Additionally, all children with CF were excluded since IRT distribution data could be incorrect.</p>
          </sec>
          <sec>
             <st>
                <p>Variables and measures</p>
             </st>
             <p>The primary variable was defined as altered levels of IRT. This alteration was considered to be an IRT value at or above 65&#160;ng/ml. Quantification of IRT was performed using the AutoDELFIA Neonatal IRT kit from Perkin Elmer, initially establishing the cutoff value of IRT at 65&#160;ng/ml, as per the experiences of the majority of Spanish laboratories performing this test according to the Spanish Neonatal Screening Association (AECNE) <abbrgrp>
                   <abbr bid="B17">17</abbr>
                </abbrgrp>. Secondary variables were: child&#8217;s gender, country of origin of the mother, maternal age (in years), gestational age (in weeks), type of feeding (natural, formula, mixed and special (nasogastric or intravenous), time from birth to blood collection and average temperature of the month of birth (in &#176;C). The variables were grouped as follows: 1) Origin of the mother: Spain, Africa, America, Rest of Europe and Asia. This grouping was made based on the distribution of the origin of mothers in recent years carried out by the Department of Health of the Valencian Community <abbrgrp>
                   <abbr bid="B18">18</abbr>
                </abbrgrp>; 2) Maternal age: &lt;20, 20&#8211;40 and &gt;40&#160;years of age. 3) Gestational age (in weeks): very preterm newborn &lt;32, preterm from 32 to 37, and term &#8805;37. These intervals were chosen based on the recommendations of the Standards Committee of the Spanish Society of Neonatology <abbrgrp>
                   <abbr bid="B19">19</abbr>
                </abbrgrp>; and 4) day of extraction: &lt;20 and &#8805;20. The cutoff was chosen according to the screening protocol based on quantification of IRT in a second sample after 20&#160;days of life <abbrgrp>
                   <abbr bid="B17">17</abbr>
                </abbrgrp>.</p>
             <p>Quantification of IRT was performed using AutoDELFIA Neonatal IRT kit from Perkin Elmer and the average temperature of the month of birth was obtained from the Spanish Meteorological Agency (AEMET) <abbrgrp>
                   <abbr bid="B20">20</abbr>
                </abbrgrp>. The remaining variables were obtained from the neonatal screening report.</p>
          </sec>
          <sec>
             <st>
                <p>Sample size</p>
             </st>
             <p>The final sample consisted of 13,310 children. With a 95% confidence level and a maximum expected proportion (p&#8201;=&#8201;q =0.5), the estimated error of the proportion of abnormal IRT was 0.85%.</p>
          </sec>
          <sec>
             <st>
                <p>Statistical analysis</p>
             </st>
             <p>A descriptive analysis of the variables was performed. Absolute and relative frequencies were used for qualitative variables, while means, standard deviations and 95th and 99th percentiles were used for quantitative variables. Differences were analyzed using nonparametric tests between subgroups of gender, ethnicity, maternal age, gestational age, type of feeding and days from birth to extraction of the blood sample. A multivariate logistic regression model was implemented to estimate the adjusted odds ratios (ORs) with the aim of analyzing the relationship between atypical IRT and the study variables. The ORs were adjusted by gender, origin of the mother, maternal age, gestational age group, feeding group, day of extraction group and temperature. The goodness of fit of the model was performed using the likelihood ratio test. In addition, we worked with the predicted probabilities of atypical IRT from the multivariate model to create graphs to help interpret the results. All analyses were performed at the 5% significance level and for each relevant parameter its associated confidence interval (CI) was calculated. All analyses were performed using IBM SPSS Statistics 19.</p>
          </sec>
          <sec>
             <st>
                <p>Missing data</p>
             </st>
             <p>The initial sample consisted of 14,877 newborns. However, those who did not have data for all the variables were excluded from this sample, leaving the sample size stated above.</p>
          </sec>
          <sec>
             <st>
                <p>Ethical issues</p>
             </st>
             <p>Neonatal screening studies were approved by the Ethics Committee of the Valencian Community, requiring the informed consent of the newborn&#8217;s parent or guardian, in compliance with the current legislation in medical ethics. Moreover, the data, which are data from routine clinical practice in neonatal screening, were anonymized and encrypted, satisfying the data protection law.</p>
          </sec>
       </sec>
       <sec>
          <st>
             <p>Results</p>
          </st>
          <p>The gestational age of the total sample was 39.0 (SD 1.9) weeks, age at extraction was 5.4 (SD 3.3) days and maternal age was 31.6 (SD 6.7) years. Average monthly temperatures in Alicante during the period studied ranged from a low in February of 12.1&#176;C to a high of 27.7&#176;C in August. IRT values were not distributed normally according to the Kolmogorov-Smirnov normality test (p &lt;0.0001) with a mean of 22.2 (SD 13.7) ng/ml, 95th percentile of 45.8&#160;ng/ml and 99th percentile of 69.4&#160;ng/ml. Table&#160;<tblr tid="T1">1</tblr> summarizes the IRT data according to the groups established for the different covariates in the total sample.</p>
          
             <table id="T1">
                <title>
                   <p>Table 1</p>
                </title>
                <caption>
                   <p>
                      <b>Immunoreactive trypsin values (in ng/ml) in newborn screening</b>
                   </p>
                </caption>
                <tgroup align="left" cols="5">
                   <colspec align="left" colname="c1" colnum="1" colwidth="*"/>
                   <colspec align="left" colname="c2" colnum="2" colwidth="*"/>
                   <colspec align="left" colname="c3" colnum="3" colwidth="*"/>
                   <colspec align="left" colname="c4" colnum="4" colwidth="*"/>
                   <colspec align="left" colname="c5" colnum="5" colwidth="*"/>
                   <thead>
                      <row valign="top">
                         <entry colname="c1">
                            <p>
                               <b>Variable</b>
                            </p>
                         </entry>
                         <entry colname="c2">
                            <p>
                               <b>Mean (SD)</b>
                            </p>
                         </entry>
                         <entry colname="c3">
                            <p>
                               <b>95% CI</b>
                            </p>
                         </entry>
                         <entry colname="c4">
                            <p>
                               <b>Percentile 95</b>
                            </p>
                         </entry>
                         <entry colname="c5">
                            <p>
                               <b>Percentile 99</b>
                            </p>
                         </entry>
                      </row>
                   </thead>
                   <tfoot>
                      <p>*Kruskal-Wallis test (p&#8201;&lt;&#8201;0.001); **Kruskal-Wallis test (p&#8201;&lt;&#8201;0.01).</p>
                      <p>nd: not determined.</p>
                      <p>2012&#8211;2013 data for a Spanish region.</p>
                   </tfoot>
                   <tbody>
                      <row valign="top">
                         <entry colname="c1">
                            <p>*Gender:</p>
                         </entry>
                         <entry colname="c2"/>
                         <entry colname="c3"/>
                         <entry colname="c4"/>
                         <entry colname="c5"/>
                      </row>
                      <row valign="top">
                         <entry colname="c1">
                            <p>Male</p>
                         </entry>
                         <entry colname="c2">
                            <p>21.5(13.7)</p>
                         </entry>
                         <entry colname="c3">
                            <p>21.2-21.8</p>
                         </entry>
                         <entry colname="c4">
                            <p>44.2</p>
                         </entry>
                         <entry colname="c5">
                            <p>68.7</p>
                         </entry>
                      </row>
                      <row valign="top">
                         <entry colname="c1">
                            <p>Female</p>
                         </entry>
                         <entry colname="c2">
                            <p>22.8(13.5)</p>
                         </entry>
                         <entry colname="c3">
                            <p>22.5-23.1</p>
                         </entry>
                         <entry colname="c4">
                            <p>47.2</p>
                         </entry>
                         <entry colname="c5">
                            <p>71.2</p>
                         </entry>
                      </row>
                      <row valign="top">
                         <entry colname="c1">
                            <p>*Maternal origin:</p>
                         </entry>
                         <entry colname="c2"/>
                         <entry colname="c3"/>
                         <entry colname="c4"/>
                         <entry colname="c5"/>
                      </row>
                      <row valign="top">
                         <entry colname="c1">
                            <p>Spain</p>
                         </entry>
                         <entry colname="c2">
                            <p>22.2(13.7)</p>
                         </entry>
                         <entry colname="c3">
                            <p>21.9-22.4</p>
                         </entry>
                         <entry colname="c4">
                            <p>45.6</p>
                         </entry>
                         <entry colname="c5">
                            <p>69.3</p>
                         </entry>
                      </row>
                      <row valign="top">
                         <entry colname="c1">
                            <p>Africa</p>
                         </entry>
                         <entry colname="c2">
                            <p>24.0(17.2)</p>
                         </entry>
                         <entry colname="c3">
                            <p>23.0-25.1</p>
                         </entry>
                         <entry colname="c4">
                            <p>54.0</p>
                         </entry>
                         <entry colname="c5">
                            <p>94.8</p>
                         </entry>
                      </row>
                      <row valign="top">
                         <entry colname="c1">
                            <p>South America</p>
                         </entry>
                         <entry colname="c2">
                            <p>20.8(11.3)</p>
                         </entry>
                         <entry colname="c3">
                            <p>20.1-21.5</p>
                         </entry>
                         <entry colname="c4">
                            <p>41.7</p>
                         </entry>
                         <entry colname="c5">
                            <p>63.6</p>
                         </entry>
                      </row>
                      <row valign="top">
                         <entry colname="c1">
                            <p>Rest of Europe</p>
                         </entry>
                         <entry colname="c2">
                            <p>22.3(12.6)</p>
                         </entry>
                         <entry colname="c3">
                            <p>21.5-23.0</p>
                         </entry>
                         <entry colname="c4">
                            <p>45.6</p>
                         </entry>
                         <entry colname="c5">
                            <p>71.6</p>
                         </entry>
                      </row>
                      <row valign="top">
                         <entry colname="c1">
                            <p>Asia</p>
                         </entry>
                         <entry colname="c2">
                            <p>20.1(12.1)</p>
                         </entry>
                         <entry colname="c3">
                            <p>18.9-21.4</p>
                         </entry>
                         <entry colname="c4">
                            <p>46.2</p>
                         </entry>
                         <entry colname="c5">
                            <p>69.3</p>
                         </entry>
                      </row>
                      <row valign="top">
                         <entry colname="c1">
                            <p>**Maternal age (y):</p>
                         </entry>
                         <entry colname="c2"/>
                         <entry colname="c3"/>
                         <entry colname="c4"/>
                         <entry colname="c5"/>
                      </row>
                      <row valign="top">
                         <entry colname="c1">
                            <p>&lt;20</p>
                         </entry>
                         <entry colname="c2">
                            <p>23.8(13.2)</p>
                         </entry>
                         <entry colname="c3">
                            <p>22.5-25.1</p>
                         </entry>
                         <entry colname="c4">
                            <p>52.0</p>
                         </entry>
                         <entry colname="c5">
                            <p>73.3</p>
                         </entry>
                      </row>
                      <row valign="top">
                         <entry colname="c1">
                            <p>20-40</p>
                         </entry>
                         <entry colname="c2">
                            <p>22.1(13.7)</p>
                         </entry>
                         <entry colname="c3">
                            <p>21.9-22.3</p>
                         </entry>
                         <entry colname="c4">
                            <p>45.7</p>
                         </entry>
                         <entry colname="c5">
                            <p>69.6</p>
                         </entry>
                      </row>
                      <row valign="top">
                         <entry colname="c1">
                            <p>&gt;40</p>
                         </entry>
                         <entry colname="c2">
                            <p>22.9(14.2)</p>
                         </entry>
                         <entry colname="c3">
                            <p>21.7-24.2</p>
                         </entry>
                         <entry colname="c4">
                            <p>47.9</p>
                         </entry>
                         <entry colname="c5">
                            <p>70.6</p>
                         </entry>
                      </row>
                      <row valign="top">
                         <entry colname="c1">
                            <p>*Gestational age (w):</p>
                         </entry>
                         <entry colname="c2"/>
                         <entry colname="c3"/>
                         <entry colname="c4"/>
                         <entry colname="c5"/>
                      </row>
                      <row valign="top">
                         <entry colname="c1">
                            <p>&lt;32</p>
                         </entry>
                         <entry colname="c2">
                            <p>25.0(16.7)</p>
                         </entry>
                         <entry colname="c3">
                            <p>23.2-26.8</p>
                         </entry>
                         <entry colname="c4">
                            <p>53.9</p>
                         </entry>
                         <entry colname="c5">
                            <p>83.0</p>
                         </entry>
                      </row>
                      <row valign="top">
                         <entry colname="c1">
                            <p>32-37</p>
                         </entry>
                         <entry colname="c2">
                            <p>23.2(11.7)</p>
                         </entry>
                         <entry colname="c3">
                            <p>22.5-24.0</p>
                         </entry>
                         <entry colname="c4">
                            <p>46.6</p>
                         </entry>
                         <entry colname="c5">
                            <p>65.9</p>
                         </entry>
                      </row>
                      <row valign="top">
                         <entry colname="c1">
                            <p>&gt;37</p>
                         </entry>
                         <entry colname="c2">
                            <p>22.0(13.8)</p>
                         </entry>
                         <entry colname="c3">
                            <p>21.8-22.3</p>
                         </entry>
                         <entry colname="c4">
                            <p>45.4</p>
                         </entry>
                         <entry colname="c5">
                            <p>69.5</p>
                         </entry>
                      </row>
                      <row valign="top">
                         <entry colname="c1">
                            <p>*Feeding methods:</p>
                         </entry>
                         <entry colname="c2"/>
                         <entry colname="c3"/>
                         <entry colname="c4"/>
                         <entry colname="c5"/>
                      </row>
                      <row valign="top">
                         <entry colname="c1">
                            <p>Natural</p>
                         </entry>
                         <entry colname="c2">
                            <p>22.2(14.3)</p>
                         </entry>
                         <entry colname="c3">
                            <p>21.9-22.4</p>
                         </entry>
                         <entry colname="c4">
                            <p>46.1</p>
                         </entry>
                         <entry colname="c5">
                            <p>71.5</p>
                         </entry>
                      </row>
                      <row valign="top">
                         <entry colname="c1">
                            <p>Mixed</p>
                         </entry>
                         <entry colname="c2">
                            <p>21.9(12.0)</p>
                         </entry>
                         <entry colname="c3">
                            <p>21.4-22.4</p>
                         </entry>
                         <entry colname="c4">
                            <p>44.0</p>
                         </entry>
                         <entry colname="c5">
                            <p>62.8</p>
                         </entry>
                      </row>
                      <row valign="top">
                         <entry colname="c1">
                            <p>Formula</p>
                         </entry>
                         <entry colname="c2">
                            <p>22.2(12.4)</p>
                         </entry>
                         <entry colname="c3">
                            <p>21.8-22.7</p>
                         </entry>
                         <entry colname="c4">
                            <p>45.3</p>
                         </entry>
                         <entry colname="c5">
                            <p>65.1</p>
                         </entry>
                      </row>
                      <row valign="top">
                         <entry colname="c1">
                            <p>Special</p>
                         </entry>
                         <entry colname="c2">
                            <p>53.3(52.9)</p>
                         </entry>
                         <entry colname="c3">
                            <p>29.2-77.4</p>
                         </entry>
                         <entry colname="c4">
                            <p>234.6</p>
                         </entry>
                         <entry colname="c5">
                            <p>nd</p>
                         </entry>
                      </row>
                      <row valign="top">
                         <entry colname="c1">
                            <p>*Extraction (d):</p>
                         </entry>
                         <entry colname="c2"/>
                         <entry colname="c3"/>
                         <entry colname="c4"/>
                         <entry colname="c5"/>
                      </row>
                      <row valign="top">
                         <entry colname="c1">
                            <p>&lt;20</p>
                         </entry>
                         <entry colname="c2">
                            <p>22.2(13.9)</p>
                         </entry>
                         <entry colname="c3">
                            <p>22.0-22.5</p>
                         </entry>
                         <entry colname="c4">
                            <p>46.1</p>
                         </entry>
                         <entry colname="c5">
                            <p>70.3</p>
                         </entry>
                      </row>
                      <row valign="top">
                         <entry colname="c1">
                            <p>&#8805;20</p>
                         </entry>
                         <entry colname="c2">
                            <p>15.4(19.8)</p>
                         </entry>
                         <entry colname="c3">
                            <p>10.3-20.6</p>
                         </entry>
                         <entry colname="c4">
                            <p>48.0</p>
                         </entry>
                         <entry colname="c5">
                            <p>nd</p>
                         </entry>
                      </row>
                   </tbody>
                </tgroup>
             </table>
          
          <p>Table&#160;<tblr tid="T2">2</tblr> summarizes the descriptive and analytical information from the study sample (n&#8201;=&#8201;13,310) according to IRT cutoff values (65&#160;ng/ml). Most of the mothers were between 20 and 40&#160;years of age (94.1%) and Spanish (75.3%). Most newborns were at term (&gt;37&#160;weeks) (86.8%) and were breastfeeding (65.0%).</p>
          
             <table id="T2">
                <title>
                   <p>Table 2</p>
                </title>
                <caption>
                   <p>
                      <b>Analysis of atypical immunoreactive trypsin (&#8805;65&#160;ng/ml) in newborns in a Spanish region</b>
                   </p>
                </caption>
                <tgroup align="left" cols="7">
                   <colspec align="left" colname="c1" colnum="1" colwidth="*"/>
                   <colspec align="left" colname="c2" colnum="2" colwidth="*"/>
                   <colspec align="left" colname="c3" colnum="3" colwidth="*"/>
                   <colspec align="left" colname="c4" colnum="4" colwidth="*"/>
                   <colspec align="left" colname="c5" colnum="5" colwidth="*"/>
                   <colspec align="left" colname="c6" colnum="6" colwidth="*"/>
                   <colspec align="left" colname="c7" colnum="7" colwidth="*"/>
                   <thead>
                      <row valign="top">
                         <entry colname="c1">
                            <p>
                               <b>Variable</b>
                            </p>
                         </entry>
                         <entry colname="c2">
                            <p>
                               <b>Total 13310 n(%)/x&#8201;&#177;&#8201;s</b>
                            </p>
                         </entry>
                         <entry colname="c3">
                            <p>
                               <b>AIT 196 (1.5%) n(%)/x&#8201;&#177;&#8201;s</b>
                            </p>
                         </entry>
                         <entry colname="c4">
                            <p>
                               <b>Not AIT 13114 (98.5%) n(%)/x&#8201;&#177;&#8201;s</b>
                            </p>
                         </entry>
                         <entry colname="c5">
                            <p>
                               <b>Adj. OR</b>
                            </p>
                         </entry>
                         <entry colname="c6">
                            <p>
                               <b>95% CI (Adj. OR)</b>
                            </p>
                         </entry>
                         <entry colname="c7">
                            <p>
                               <b>p-value</b>
                            </p>
                         </entry>
                      </row>
                   </thead>
                   <tfoot>
                      <p>
                         <it>Abbreviations</it>: <it>AIT</it> atypical immunoreactive trypsin, <it>Adj. OR</it> adjusted odds ratio, <it>CI</it> confidence interval.</p>
                      <p>Goodness-of-fit of the model: <it>&#935;</it>
                         <sup>2</sup>&#8201;=&#8201;53.19, p&#8201;&lt;&#8201;0.001.</p>
                      <p>ORs were adjusted for: gender, maternal origin, maternal age, gestational age, feeding method, days from extraction and temperature.</p>
                      <p>2012&#8211;2013 data.</p>
                   </tfoot>
                   <tbody>
                      <row valign="top">
                         <entry colname="c1">
                            <p>Gender male</p>
                         </entry>
                         <entry colname="c2">
                            <p>6861(51.5)</p>
                         </entry>
                         <entry colname="c3">
                            <p>95(48.5)</p>
                         </entry>
                         <entry colname="c4">
                            <p>6766(51.6)</p>
                         </entry>
                         <entry colname="c5">
                            <p>0.88</p>
                         </entry>
                         <entry colname="c6">
                            <p>0.66-1.17</p>
                         </entry>
                         <entry colname="c7">
                            <p>0.385</p>
                         </entry>
                      </row>
                      <row valign="top">
                         <entry colname="c1">
                            <p>Maternal origin:</p>
                         </entry>
                         <entry colname="c2"/>
                         <entry colname="c3"/>
                         <entry colname="c4"/>
                         <entry colname="c5"/>
                         <entry colname="c6"/>
                         <entry colname="c7"/>
                      </row>
                      <row valign="top">
                         <entry colname="c1">
                            <p>Spain</p>
                         </entry>
                         <entry colname="c2">
                            <p>9994(75.1)</p>
                         </entry>
                         <entry colname="c3">
                            <p>144(73.5)</p>
                         </entry>
                         <entry colname="c4">
                            <p>9850(75.1)</p>
                         </entry>
                         <entry colname="c5">
                            <p>1</p>
                         </entry>
                         <entry colname="c6">
                            <p>1</p>
                         </entry>
                         <entry colname="c7">
                            <p>0.219</p>
                         </entry>
                      </row>
                      <row valign="top">
                         <entry colname="c1">
                            <p>Africa</p>
                         </entry>
                         <entry colname="c2">
                            <p>953(7.2)</p>
                         </entry>
                         <entry colname="c3">
                            <p>22(11.2)</p>
                         </entry>
                         <entry colname="c4">
                            <p>931(7.1)</p>
                         </entry>
                         <entry colname="c5">
                            <p>1.50</p>
                         </entry>
                         <entry colname="c6">
                            <p>0.95-2.37</p>
                         </entry>
                         <entry colname="c7"/>
                      </row>
                      <row valign="top">
                         <entry colname="c1">
                            <p>South America</p>
                         </entry>
                         <entry colname="c2">
                            <p>967(7.3)</p>
                         </entry>
                         <entry colname="c3">
                            <p>9(4.6)</p>
                         </entry>
                         <entry colname="c4">
                            <p>958(7.3)</p>
                         </entry>
                         <entry colname="c5">
                            <p>0.63</p>
                         </entry>
                         <entry colname="c6">
                            <p>0.32-1.25</p>
                         </entry>
                         <entry colname="c7"/>
                      </row>
                      <row valign="top">
                         <entry colname="c1">
                            <p>Rest of Europe</p>
                         </entry>
                         <entry colname="c2">
                            <p>1061(8.0)</p>
                         </entry>
                         <entry colname="c3">
                            <p>15(7.7)</p>
                         </entry>
                         <entry colname="c4">
                            <p>1046(8.0)</p>
                         </entry>
                         <entry colname="c5">
                            <p>0.88</p>
                         </entry>
                         <entry colname="c6">
                            <p>0.51-1.52</p>
                         </entry>
                         <entry colname="c7"/>
                      </row>
                      <row valign="top">
                         <entry colname="c1">
                            <p>Asia</p>
                         </entry>
                         <entry colname="c2">
                            <p>335(2.5)</p>
                         </entry>
                         <entry colname="c3">
                            <p>6(3.1)</p>
                         </entry>
                         <entry colname="c4">
                            <p>329(2.5)</p>
                         </entry>
                         <entry colname="c5">
                            <p>1.21</p>
                         </entry>
                         <entry colname="c6">
                            <p>0.52-2.82</p>
                         </entry>
                         <entry colname="c7"/>
                      </row>
                      <row valign="top">
                         <entry colname="c1">
                            <p>Maternal age (years):</p>
                         </entry>
                         <entry colname="c2"/>
                         <entry colname="c3"/>
                         <entry colname="c4"/>
                         <entry colname="c5"/>
                         <entry colname="c6"/>
                         <entry colname="c7"/>
                      </row>
                      <row valign="top">
                         <entry colname="c1">
                            <p>&lt;20</p>
                         </entry>
                         <entry colname="c2">
                            <p>358(2.7)</p>
                         </entry>
                         <entry colname="c3">
                            <p>8(4.1)</p>
                         </entry>
                         <entry colname="c4">
                            <p>350(2.7)</p>
                         </entry>
                         <entry colname="c5">
                            <p>1.70</p>
                         </entry>
                         <entry colname="c6">
                            <p>0.83-3.49</p>
                         </entry>
                         <entry colname="c7">
                            <p>0.353</p>
                         </entry>
                      </row>
                      <row valign="top">
                         <entry colname="c1">
                            <p>20-40</p>
                         </entry>
                         <entry colname="c2">
                            <p>12531(94.1)</p>
                         </entry>
                         <entry colname="c3">
                            <p>182(92.9)</p>
                         </entry>
                         <entry colname="c4">
                            <p>12349(94.2)</p>
                         </entry>
                         <entry colname="c5">
                            <p>1</p>
                         </entry>
                         <entry colname="c6">
                            <p>1</p>
                         </entry>
                         <entry colname="c7"/>
                      </row>
                      <row valign="top">
                         <entry colname="c1">
                            <p>&gt;40</p>
                         </entry>
                         <entry colname="c2">
                            <p>421(3.2)</p>
                         </entry>
                         <entry colname="c3">
                            <p>6(3.1)</p>
                         </entry>
                         <entry colname="c4">
                            <p>415(3.2)</p>
                         </entry>
                         <entry colname="c5">
                            <p>1.06</p>
                         </entry>
                         <entry colname="c6">
                            <p>0.46-2.40</p>
                         </entry>
                         <entry colname="c7"/>
                      </row>
                      <row valign="top">
                         <entry colname="c1">
                            <p>Gestational age (weeks):</p>
                         </entry>
                         <entry colname="c2"/>
                         <entry colname="c3"/>
                         <entry colname="c4"/>
                         <entry colname="c5"/>
                         <entry colname="c6"/>
                         <entry colname="c7"/>
                      </row>
                      <row valign="top">
                         <entry colname="c1">
                            <p>&lt;32</p>
                         </entry>
                         <entry colname="c2">
                            <p>146(1.1)</p>
                         </entry>
                         <entry colname="c3">
                            <p>6(3.1)</p>
                         </entry>
                         <entry colname="c4">
                            <p>140(1.1)</p>
                         </entry>
                         <entry colname="c5">
                            <p>1.45</p>
                         </entry>
                         <entry colname="c6">
                            <p>0.49-4.25</p>
                         </entry>
                         <entry colname="c7">
                            <p>0.137</p>
                         </entry>
                      </row>
                      <row valign="top">
                         <entry colname="c1">
                            <p>32-37</p>
                         </entry>
                         <entry colname="c2">
                            <p>1568(11.8)</p>
                         </entry>
                         <entry colname="c3">
                            <p>13(6.6)</p>
                         </entry>
                         <entry colname="c4">
                            <p>1555(11.9)</p>
                         </entry>
                         <entry colname="c5">
                            <p>0.59</p>
                         </entry>
                         <entry colname="c6">
                            <p>0.33-1.05</p>
                         </entry>
                         <entry colname="c7"/>
                      </row>
                      <row valign="top">
                         <entry colname="c1">
                            <p>&gt;37</p>
                         </entry>
                         <entry colname="c2">
                            <p>11596(87.1)</p>
                         </entry>
                         <entry colname="c3">
                            <p>177(90.3)</p>
                         </entry>
                         <entry colname="c4">
                            <p>11419(87.1)</p>
                         </entry>
                         <entry colname="c5">
                            <p>1</p>
                         </entry>
                         <entry colname="c6">
                            <p>1</p>
                         </entry>
                         <entry colname="c7"/>
                      </row>
                      <row valign="top">
                         <entry colname="c1">
                            <p>Feeding method:</p>
                         </entry>
                         <entry colname="c2"/>
                         <entry colname="c3"/>
                         <entry colname="c4"/>
                         <entry colname="c5"/>
                         <entry colname="c6"/>
                         <entry colname="c7"/>
                      </row>
                      <row valign="top">
                         <entry colname="c1">
                            <p>Natural</p>
                         </entry>
                         <entry colname="c2">
                            <p>8698(65.3)</p>
                         </entry>
                         <entry colname="c3">
                            <p>144(73.5)</p>
                         </entry>
                         <entry colname="c4">
                            <p>8554(65.2)</p>
                         </entry>
                         <entry colname="c5">
                            <p>1</p>
                         </entry>
                         <entry colname="c6">
                            <p>1</p>
                         </entry>
                         <entry colname="c7">
                            <p>&lt;0.001</p>
                         </entry>
                      </row>
                      <row valign="top">
                         <entry colname="c1">
                            <p>Mixed</p>
                         </entry>
                         <entry colname="c2">
                            <p>1902(14.3)</p>
                         </entry>
                         <entry colname="c3">
                            <p>16(8.2)</p>
                         </entry>
                         <entry colname="c4">
                            <p>1886(14.4)</p>
                         </entry>
                         <entry colname="c5">
                            <p>0.53</p>
                         </entry>
                         <entry colname="c6">
                            <p>0.31-0.89</p>
                         </entry>
                         <entry colname="c7"/>
                      </row>
                      <row valign="top">
                         <entry colname="c1">
                            <p>Formula</p>
                         </entry>
                         <entry colname="c2">
                            <p>2689(20.2)</p>
                         </entry>
                         <entry colname="c3">
                            <p>30(15.3)</p>
                         </entry>
                         <entry colname="c4">
                            <p>2659(20.3)</p>
                         </entry>
                         <entry colname="c5">
                            <p>0.72</p>
                         </entry>
                         <entry colname="c6">
                            <p>0.48-1.07</p>
                         </entry>
                         <entry colname="c7"/>
                      </row>
                      <row valign="top">
                         <entry colname="c1">
                            <p>Special</p>
                         </entry>
                         <entry colname="c2">
                            <p>21(0.2)</p>
                         </entry>
                         <entry colname="c3">
                            <p>6(3.1)</p>
                         </entry>
                         <entry colname="c4">
                            <p>15(0.1)</p>
                         </entry>
                         <entry colname="c5">
                            <p>21.88</p>
                         </entry>
                         <entry colname="c6">
                            <p>6.92-69.14</p>
                         </entry>
                         <entry colname="c7"/>
                      </row>
                      <row valign="top">
                         <entry colname="c1">
                            <p>Days from extraction &gt;20</p>
                         </entry>
                         <entry colname="c2">
                            <p>47(0.4)</p>
                         </entry>
                         <entry colname="c3">
                            <p>1(0.5)</p>
                         </entry>
                         <entry colname="c4">
                            <p>46(0.4)</p>
                         </entry>
                         <entry colname="c5">
                            <p>1.51</p>
                         </entry>
                         <entry colname="c6">
                            <p>0.21-11.13</p>
                         </entry>
                         <entry colname="c7">
                            <p>0.684</p>
                         </entry>
                      </row>
                      <row valign="top">
                         <entry colname="c1">
                            <p>Temperature (&#176;C)</p>
                         </entry>
                         <entry colname="c2">
                            <p>18.7&#8201;&#177;&#8201;5.6</p>
                         </entry>
                         <entry colname="c3">
                            <p>18.0&#8201;&#177;&#8201;5.2</p>
                         </entry>
                         <entry colname="c4">
                            <p>18.8&#8201;&#177;&#8201;5.6</p>
                         </entry>
                         <entry colname="c5">
                            <p>0.98</p>
                         </entry>
                         <entry colname="c6">
                            <p>0.95-1.00</p>
                         </entry>
                         <entry colname="c7">
                            <p>0.064</p>
                         </entry>
                      </row>
                   </tbody>
                </tgroup>
             </table>
          
          <p>The magnitude of atypical IRT was 1.5% (95% CI: 1.27-1.68%). Associated factors: male (OR&#8201;=&#8201;0.88, 95% CI: 0.66-1.17, p&#8201;=&#8201;0.385), maternal origin (Spain&#8201;&#8594;&#8201;OR&#8201;=&#8201;1; Africa&#8201;&#8594; OR&#8201;=&#8201;1.5, 95% CI: 0.95-2.37; South America&#8201;&#8594;&#8201;0.63, 95% CI: 0.32-1.25; rest of Europe&#8201;&#8594;&#8201;0.88, 95% CI: 0.51-1.52; Asia&#8201;&#8594;&#8201;1.21, 95% CI: 0.52-2.82; p&#8201;=&#8201;0.219), maternal age (&lt;20&#8201;&#8594;&#8201;OR&#8201;=&#8201;1.70, 95% CI: 0.83-3.49; 20-40&#8201;&#8594;&#8201;OR&#8201;= 1; &gt;40&#8201;&#8594;&#8201;OR&#8201;=&#8201;1.06, 95% CI: 0.46-2.40; p&#8201;=&#8201;0.353), gestational age (&lt;32&#8201;&#8594;&#8201;OR&#8201;=&#8201;1.45, 95% CI: 0.49-4.25; 32-37&#8201;&#8594; OR&#8201;=&#8201;0.59, 95% CI: 0.33-1.05; &gt;37&#8201;&#8594;&#8201;OR&#8201;=&#8201;1; p&#8201;=&#8201;0.137), feeding method (natural&#8201;&#8594;&#8201;OR&#8201;=&#8201;1; mixed&#8201;&#8594;&#8201;OR&#8201;=&#8201;0.53, 95% CI: 0.31-0.89; formula&#8201;&#8594;&#8201;OR&#8201;=&#8201;0.72, 95% CI: 0.48-1.07; special&#8201;&#8594;&#8201;OR&#8201;=&#8201;21.88, 95% CI: 6.92-69.14; p&#8201;&lt; 0.001), &gt;20&#160;days from extraction (OR&#8201;=&#8201;1.51, 95% CI: 0.21-11.13, p&#8201;=&#8201;0.684), and temperature (OR&#8201;=&#8201;0.98, 95% CI: 0.95-1.00, p&#8201;=&#8201;0.064).</p>
          <p>On a Cartesian graph (Figure&#160;<figr fid="F1">1</figr>) feeding groups were plotted on the X-axis and predicted probabilities of atypical IRT on the Y-axis. This graph shows that the newborns who received special nutrition were more likely to have atypical IRT.</p>
          
             <fig id="F1">
                <title>
                   <p>Figure 1</p>
                </title>
                <caption>
                   <p>Predicted probability of atypical immunoreactive trypsin between feeding methods in newborns in a Spanish region.</p>
                </caption>
                <text>
                   <p>
                      <b>Predicted probability of atypical immunoreactive trypsin between feeding methods in newborns in a Spanish region.</b> 2012&#8211;2013 data.</p>
                </text>
                <graphic file="s13023-014-0166-9-1"/>
             </fig>
          
       </sec>
       <sec>
          <st>
             <p>Discussion</p>
          </st>
          <p>When the differences in the IRT concentration in the total sample were studied according to type of feeding, IRT concentrations did not vary significantly between the three feeding groups (breastfeeding, formula and mixed). However, the elevated IRT levels in neonates receiving special feeding was striking, showing a significant difference. The mean IRT rose to more than double that of the other newborns, with many more of these newborns having IRT values above the cutoff. This was confirmed in the multivariate analysis, which showed that the probabilities of newborns receiving special nutrition being above the cutoff were about 20 times higher than those who were fed. This is undoubtedly associated with the fact that these children were subjected to special nutrition, due to their inherent disease, causing the increase in IRT. Although IRT is elevated in individuals with CF, an increase in IRT has also been seen in normal individuals with an immature ductal system, carriers of CF (66%), and in neonates with other diseases such as trisomy of chromosome 13, 18 and 21 <abbrgrp>
                <abbr bid="B21">21</abbr>
             </abbrgrp>, congenital infections (cytomegalovirus and other subclinical infections), renal failure, inadequate pancreatic perfusion and intestinal atresia. Higher IRT values are also associated with perinatal asphyxia <abbrgrp>
                <abbr bid="B22">22</abbr>
             </abbrgrp> and sick infants <abbrgrp>
                <abbr bid="B14">14</abbr>
             </abbrgrp>. On the other hand it has been reported that prenatal stress may be responsible for up to 25% of positive cases <abbrgrp>
                <abbr bid="B22">22</abbr>
             </abbrgrp>.</p>
          <p>When IRT concentrations were examined by maternal ethnicity, clearly higher values were observed in newborns of African origin, with significant differences, a finding consistent with the literature <abbrgrp>
                <abbr bid="B23">23</abbr>
             </abbrgrp>. In addition, slightly lower IRT values were found in infants of Asian and American mothers. On comparing newborns of African ethnicity with the rest of the sample using multivariate analysis, there was an almost significant difference and a greater probability (OR 1.6) that the neonate of an African mother was more likely to have IRT levels above the reference value. Ethnic influence on IRT level has been studied previously <abbrgrp>
                <abbr bid="B24">24</abbr>
             </abbrgrp>, showing an overrepresentation of African Americans in screen-positive newborn infants (10% of the general population, rising to 28% in the positive population) despite the lower incidence of CF in this population. Note that in the present study maternal origin was divided into: Spain, rest of Europe, Africa, America and Asia; although Africa here corresponded primarily to countries in north Africa (mainly Morocco). Thus, newborns from north African families have higher IRT values and most of the positive newborn screens in this population could be considered &#8220;false positives&#8221; <abbrgrp>
                <abbr bid="B13">13</abbr>
             </abbrgrp>. It should be noted that CF is the most common genetic disorder among Caucasian children. The incidence is variable: it is much less common in Asian and African populations than in European and North American populations, with variations within each country. The prevalence varies between a maximum of 1/2000 in Ireland and a minimum of 1/500,000 in Japan <abbrgrp>
                <abbr bid="B23">23</abbr>
             </abbrgrp>,<abbrgrp>
                <abbr bid="B24">24</abbr>
             </abbrgrp>.</p>
          <p>With respect to the other factors analyzed in this study, most behaved similarly to findings previously described by other authors <abbrgrp>
                <abbr bid="B15">15</abbr>
             </abbrgrp>,<abbrgrp>
                <abbr bid="B23">23</abbr>
             </abbrgrp>,<abbrgrp>
                <abbr bid="B24">24</abbr>
             </abbrgrp>, with the exception of temperature. This is possibly due to the variability between minimum and maximum temperatures throughout the year being much lower than in the regions in which this association has been observed <abbrgrp>
                <abbr bid="B25">25</abbr>
             </abbrgrp>. Finally, there was no association with maternal age. This must be verified by future studies.</p>
          <p>This work shows the need to establish cutoffs in IRT values adjusted to the ethnic and prematurity characteristics of the study population, as well as the need to postpone screening in those infants with conditions that require special feeding. This has the potential to reduce the number of inconclusive results, in which a second marker must be measured, either through DNA mutation analysis or taking a second sample for IRT retesting, thereby resulting in lower economic and emotional costs to the parents caused by unnecessary confirmations.</p>
          <sec>
             <st>
                <p>Strengths and limitations</p>
             </st>
             <p>The main strength of this study is its innovative approach to analyzing nutrition type when altered IRT values are present. Ethnicity is also evaluated in a manner different from that used by other authors. Furthermore, these factors were analyzed taking into account the ratio of all the altered IRT values, that is, through a mathematical multivariate model. Finally, the random error was less than 1%. As limitations, the IRT values analyzed are only useful for the population studied. Each neonatal cystic fibrosis screening center must define its own cutoff values and to do this the same methodology used in this work could be followed. Moreover, to minimize information bias, great care was taken in the collection of all variables. In addition, to avoid selection bias, all children who underwent neonatal screening were included. Finally, although the statistical significance of the special type of nutrition was quite high, a wide confidence interval was obtained, therefore, in order to quantify OR more precisely, future studies using a larger sample size are needed.</p>
          </sec>
       </sec>
       <sec>
          <st>
             <p>Conclusions</p>
          </st>
          <p>In conclusion, newborns receiving special nutrition have much higher IRT values, with a 20-times greater likelihood of being above the set reference value, no doubt due to the underlying disease state. Thus, CF screening is advisable in sick infants with a special diet once breastfeeding, formula or mixed feeding is initiated. Newborns of African ethnicity, specifically children born to north African mothers, have higher IRT levels than those of other ethnic groups. An important factor to bear in mind is the increased ethnic variability resulting from increased migration.</p>
          <p>The main learning point from this study is that we have to adopt new IRT cutoff points for children of certain ethnic backgrounds and for those who follow a special diet. However, we must be cautious, as these results must be verified by other authors in studies incorporating a large number of newborns.</p>
       </sec>
       <sec>
          <st>
             <p>Abbreviations</p>
          </st>
          <p>CF: Cystic fibrosis</p>
          <p>IRT: Immunoreactive tryspin</p>
          <p>DNA: Deoxyribonucleic acid</p>
          <p>AECNE: <it>Asociaci&#243;n Espa&#241;ola de Cribado Neonatal</it> [Spanish Neonatal Screening Association]</p>
          <p>OR: Adjusted odds ratio</p>
       </sec>
       <sec>
          <st>
             <p>Competing interests</p>
          </st>
          <p>The authors declare that they have no competing interests.</p>
       </sec>
       <sec>
          <st>
             <p>Authors&#8217; contributions</p>
          </st>
          <p>EC designed the study, participated in data collection and wrote the manuscript. AMR collected data, performed analysis and carried out the literature search. HM collected data and performed analysis. VFG participated in the study design and performed a critical review of the manuscript. AP participated in the study design, performed the statistical analysis and a critical review of the final paper. MMR participated in the study design, assisted in the literature search and performed a critical review of the manuscript. All authors read and approved the final manuscript.</p>
       </sec>
       <sec>
          <st>
             <p>Authors&#8217; information</p>
          </st>
          <p>EC is the Neonatal Screening coordinator in the province of Alicante in the Valencian Community and Member of Spain Orphanet Scientific Committee. HM is in charge of Neonatal Screening analyses.</p>
       </sec>
    </bdy>
    <bm>
       <ack>
          <sec>
             <st>
                <p>Acknowledgements</p>
             </st>
             <p>We thank Maria Repice for her help in preparing the English version of this work.</p>
          </sec>
       </ack>
       <refgrp>
          
          <bibl id="B1">
             
                <url>http://www.cdc.gov/mmwr/preview/mmwrhtml/rr5313a1.htm</url>
             
<note>Centers for Disease Control and Prevention (CDC): <b>Morbidity and mortality weekly report.</b> 2004, .</note>
          </bibl>
          <bibl id="B2">
             <note>Southern KW, M&#233;relle MM, Dankert-Roelse JE, Nagelkerke AD: <b>Newborn screening for cystic fibrosis.</b>
                <it>Cochrane Database Syst Rev</it> 2009, <b>1:</b>CD001402.</note>
          </bibl>
          <bibl id="B3">
             <title>
                <p>Early diagnosis of cystic fibrosis through neonatal screening prevents severe malnutrition and improves long-term growth. Wisconsin Cystic Fibrosis Neonatal Screening Study Group</p>
             </title>
             <aug>
                <au>
                   <snm>Farrell</snm>
                   <fnm>PM</fnm>
                </au>
                <au>
                   <snm>Kosorok</snm>
                   <fnm>MR</fnm>
                </au>
                <au>
                   <snm>Rock</snm>
                   <fnm>MJ</fnm>
                </au>
                <au>
                   <snm>Laxova</snm>
                   <fnm>A</fnm>
                </au>
                <au>
                   <snm>Zeng</snm>
                   <fnm>L</fnm>
                </au>
                <au>
                   <snm>Lai</snm>
                   <fnm>HC</fnm>
                </au>
                <au>
                   <snm>Hoffman</snm>
                   <fnm>G</fnm>
                </au>
                <au>
                   <snm>Laessig</snm>
                   <fnm>RH</fnm>
                </au>
                <au>
                   <snm>Splaingard</snm>
                   <fnm>ML</fnm>
                </au>
             </aug>
             <source>Pediatrics</source>
             <pubdate>2001</pubdate>
             <volume>107</volume>
             <fpage>1</fpage>
             <lpage>13</lpage>
             <xrefbib>
                <pubidlist>
                   <pubid idtype="doi">10.1542/peds.107.1.1</pubid>
                   <pubid idtype="pmpid" link="fulltext">11134427</pubid>
                </pubidlist>
             </xrefbib>
          </bibl>
          <bibl id="B4">
             <title>
                <p>The influence of newborn screening for cystic fibrosis on pulmonary outcomes in New South Wales</p>
             </title>
             <aug>
                <au>
                   <snm>McKay</snm>
                   <fnm>KO</fnm>
                </au>
                <au>
                   <snm>Waters</snm>
                   <fnm>DL</fnm>
                </au>
                <au>
                   <snm>Gaskin</snm>
                   <fnm>KJ</fnm>
                </au>
             </aug>
             <source>J Pediatr</source>
             <pubdate>2005</pubdate>
             <volume>147</volume>
             <issue>3 Suppl</issue>
             <fpage>S47</fpage>
             <lpage>S50</lpage>
             <xrefbib>
                <pubidlist>
                   <pubid idtype="doi">10.1016/j.jpeds.2005.08.013</pubid>
                   <pubid idtype="pmpid" link="fulltext">16202782</pubid>
                </pubidlist>
             </xrefbib>
          </bibl>
          <bibl id="B5">
             <title>
                <p>Complications associated with symptomatic diagnosis in infants with cystic fibrosis</p>
             </title>
             <aug>
                <au>
                   <snm>Accurso</snm>
                   <fnm>FJ</fnm>
                </au>
                <au>
                   <snm>Sontag</snm>
                   <fnm>MK</fnm>
                </au>
                <au>
                   <snm>Wagener</snm>
                   <fnm>JS</fnm>
                </au>
             </aug>
             <source>J Pediatr</source>
             <pubdate>2005</pubdate>
             <volume>147</volume>
             <issue>3 Suppl</issue>
             <fpage>S37</fpage>
             <lpage>S41</lpage>
             <xrefbib>
                <pubidlist>
                   <pubid idtype="doi">10.1016/j.jpeds.2005.08.034</pubid>
                   <pubid idtype="pmpid" link="fulltext">16202780</pubid>
                </pubidlist>
             </xrefbib>
          </bibl>
          <bibl id="B6">
             <title>
                <p>Review of outcomes of neonatal screening for cystic fibrosis versus non-screening in Europe</p>
             </title>
             <aug>
                <au>
                   <snm>Dankert-Roelse</snm>
                   <fnm>JE</fnm>
                </au>
                <au>
                   <snm>M&#233;relle</snm>
                   <fnm>ME</fnm>
                </au>
             </aug>
             <source>J Pediatr</source>
             <pubdate>2005</pubdate>
             <volume>147</volume>
             <issue>3Suppl</issue>
             <fpage>S15</fpage>
             <lpage>S20</lpage>
             <xrefbib>
                <pubidlist>
                   <pubid idtype="doi">10.1016/j.jpeds.2005.08.009</pubid>
                   <pubid idtype="pmpid" link="fulltext">16202775</pubid>
                </pubidlist>
             </xrefbib>
          </bibl>
          <bibl id="B7">
             <title>
                <p>Cystic fibrosis mortality and survival in the UK: 1947&#8211;2003</p>
             </title>
             <aug>
                <au>
                   <snm>Dodge</snm>
                   <fnm>JA</fnm>
                </au>
                <au>
                   <snm>Lewis</snm>
                   <fnm>PA</fnm>
                </au>
                <au>
                   <snm>Stanton</snm>
                   <fnm>M</fnm>
                </au>
                <au>
                   <snm>Wilsher</snm>
                   <fnm>J</fnm>
                </au>
             </aug>
             <source>Eur Respir J</source>
             <pubdate>2007</pubdate>
             <volume>29</volume>
             <fpage>522</fpage>
             <lpage>526</lpage>
             <xrefbib>
                <pubidlist>
                   <pubid idtype="doi">10.1183/09031936.00099506</pubid>
                   <pubid idtype="pmpid" link="fulltext">17182652</pubid>
                </pubidlist>
             </xrefbib>
          </bibl>
          <bibl id="B8">
             <title>
                <p>Evidence for newborn screening for cystic fibrosis</p>
             </title>
             <aug>
                <au>
                   <snm>Castellani</snm>
                   <fnm>C</fnm>
                </au>
             </aug>
             <source>Paediatr Respir Rev</source>
             <pubdate>2003</pubdate>
             <volume>4</volume>
             <fpage>278</fpage>
             <lpage>284</lpage>
             <xrefbib>
                <pubidlist>
                   <pubid idtype="doi">10.1016/S1526-0542(03)00085-X</pubid>
                   <pubid idtype="pmpid" link="fulltext">14629949</pubid>
                </pubidlist>
             </xrefbib>
          </bibl>
          <bibl id="B9">
             <title>
                <p>Benchmark for cystic fibrosis carrier screening: a European consensus document</p>
             </title>
             <aug>
                <au>
                   <snm>Castellani</snm>
                   <fnm>C</fnm>
                </au>
                <au>
                   <snm>Macek</snm>
                   <fnm>M</fnm>
                   <suf>Jr</suf>
                </au>
                <au>
                   <snm>Cassiman</snm>
                   <fnm>JJ</fnm>
                </au>
                <au>
                   <snm>Duff</snm>
                   <fnm>A</fnm>
                </au>
                <au>
                   <snm>Massie</snm>
                   <fnm>J</fnm>
                </au>
                <au>
                   <snm>ten Kate</snm>
                   <fnm>LP</fnm>
                </au>
                <au>
                   <snm>Barton</snm>
                   <fnm>D</fnm>
                </au>
                <au>
                   <snm>Cutting</snm>
                   <fnm>G</fnm>
                </au>
                <au>
                   <snm>Dallapiccola</snm>
                   <fnm>B</fnm>
                </au>
                <au>
                   <snm>Dequeker</snm>
                   <fnm>E</fnm>
                </au>
                <au>
                   <snm>Girodon</snm>
                   <fnm>E</fnm>
                </au>
                <au>
                   <snm>Grody</snm>
                   <fnm>W</fnm>
                </au>
                <au>
                   <snm>Highsmith</snm>
                   <fnm>EW</fnm>
                </au>
                <au>
                   <snm>K&#228;&#228;ri&#228;inen</snm>
                   <fnm>H</fnm>
                </au>
                <au>
                   <snm>Kruip</snm>
                   <fnm>S</fnm>
                </au>
                <au>
                   <snm>Morris</snm>
                   <fnm>M</fnm>
                </au>
                <au>
                   <snm>Pignatti</snm>
                   <fnm>PF</fnm>
                </au>
                <au>
                   <snm>Pypops</snm>
                   <fnm>U</fnm>
                </au>
                <au>
                   <snm>Schwarz</snm>
                   <fnm>M</fnm>
                </au>
                <au>
                   <snm>Soller</snm>
                   <fnm>M</fnm>
                </au>
                <au>
                   <snm>Stuhrman</snm>
                   <fnm>M</fnm>
                </au>
                <au>
                   <snm>Cuppens</snm>
                   <fnm>H</fnm>
                </au>
             </aug>
             <source>J Cyst Fibros</source>
             <pubdate>2010</pubdate>
             <volume>9</volume>
             <fpage>165</fpage>
             <lpage>178</lpage>
             <xrefbib>
                <pubidlist>
                   <pubid idtype="doi">10.1016/j.jcf.2010.02.005</pubid>
                   <pubid idtype="pmpid" link="fulltext">20363197</pubid>
                </pubidlist>
             </xrefbib>
          </bibl>
          <bibl id="B10">
             <title>
                <p>European best practice guidelines for cystic fibrosis neonatal screening</p>
             </title>
             <aug>
                <au>
                   <snm>Castellani</snm>
                   <fnm>C</fnm>
                </au>
                <au>
                   <snm>Southern</snm>
                   <fnm>KW</fnm>
                </au>
                <au>
                   <snm>Brownlee</snm>
                   <fnm>K</fnm>
                </au>
                <au>
                   <snm>Dankert Roelse</snm>
                   <fnm>J</fnm>
                </au>
                <au>
                   <snm>Duff</snm>
                   <fnm>A</fnm>
                </au>
                <au>
                   <snm>Farrell</snm>
                   <fnm>M</fnm>
                </au>
                <au>
                   <snm>Mehta</snm>
                   <fnm>A</fnm>
                </au>
                <au>
                   <snm>Munck</snm>
                   <fnm>A</fnm>
                </au>
                <au>
                   <snm>Pollitt</snm>
                   <fnm>R</fnm>
                </au>
                <au>
                   <snm>Sermet-Gaudelus</snm>
                   <fnm>I</fnm>
                </au>
                <au>
                   <snm>Wilcken</snm>
                   <fnm>B</fnm>
                </au>
                <au>
                   <snm>Ballmann</snm>
                   <fnm>M</fnm>
                </au>
                <au>
                   <snm>Corbetta</snm>
                   <fnm>C</fnm>
                </au>
                <au>
                   <snm>de Monestrol</snm>
                   <fnm>I</fnm>
                </au>
                <au>
                   <snm>Farrell</snm>
                   <fnm>P</fnm>
                </au>
                <au>
                   <snm>Feilcke</snm>
                   <fnm>M</fnm>
                </au>
                <au>
                   <snm>F&#233;rec</snm>
                   <fnm>C</fnm>
                </au>
                <au>
                   <snm>Gartner</snm>
                   <fnm>S</fnm>
                </au>
                <au>
                   <snm>Gaskin</snm>
                   <fnm>K</fnm>
                </au>
                <au>
                   <snm>Hammermann</snm>
                   <fnm>J</fnm>
                </au>
                <au>
                   <snm>Kashirskaya</snm>
                   <fnm>N</fnm>
                </au>
                <au>
                   <snm>Loeber</snm>
                   <fnm>G</fnm>
                </au>
                <au>
                   <snm>Macek</snm>
                   <fnm>M</fnm>
                   <suf>Jr</suf>
                </au>
                <au>
                   <snm>Mehta</snm>
                   <fnm>G</fnm>
                </au>
                <au>
                   <snm>Reiman</snm>
                   <fnm>A</fnm>
                </au>
                <au>
                   <snm>Rizzotti</snm>
                   <fnm>P</fnm>
                </au>
                <au>
                   <snm>Sammon</snm>
                   <fnm>A</fnm>
                </au>
                <au>
                   <snm>Sands</snm>
                   <fnm>D</fnm>
                </au>
                <au>
                   <snm>Smyth</snm>
                   <fnm>A</fnm>
                </au>
                <au>
                   <snm>Sommerburg</snm>
                   <fnm>O</fnm>
                </au>
                <etal/>
             </aug>
             <source>J Cyst Fibros</source>
             <pubdate>2009</pubdate>
             <volume>8</volume>
             <fpage>153</fpage>
             <lpage>173</lpage>
             <xrefbib>
                <pubidlist>
                   <pubid idtype="doi">10.1016/j.jcf.2009.01.004</pubid>
                   <pubid idtype="pmpid" link="fulltext">19246252</pubid>
                </pubidlist>
             </xrefbib>
          </bibl>
          <bibl id="B11">
             <note>Gartner S, Casals T, Marin JL, Seculi JL, Asensio O, Hernandez JL, Prats R, Cobos N: <b>Neonatal screening for cystic fibrosis in Catalu&#241;a.</b>
                <it>Spain Pediatr Pulmonol</it> 2003, <b>25</b>(Suppl):221.</note>
          </bibl>
          <bibl id="B12">
             <title>
                <p>Neonatal screening for cystic fibrosis: France rises to the challenge</p>
             </title>
             <aug>
                <au>
                   <snm>Farriaux</snm>
                   <fnm>JP</fnm>
                </au>
                <au>
                   <snm>Vidailhet</snm>
                   <fnm>M</fnm>
                </au>
                <au>
                   <snm>Briard</snm>
                   <fnm>ML</fnm>
                </au>
                <au>
                   <snm>Belot</snm>
                   <fnm>V</fnm>
                </au>
                <au>
                   <snm>Dhondt</snm>
                   <fnm>JL</fnm>
                </au>
             </aug>
             <source>J Inherit Metab Dis</source>
             <pubdate>2003</pubdate>
             <volume>26</volume>
             <fpage>729</fpage>
             <lpage>744</lpage>
             <xrefbib>
                <pubidlist>
                   <pubid idtype="doi">10.1023/B:BOLI.0000009921.42503.c2</pubid>
                   <pubid idtype="pmpid" link="fulltext">14739679</pubid>
                </pubidlist>
             </xrefbib>
          </bibl>
          <bibl id="B13">
             <title>
                <p>False-positive results in neonatal screening for cystic fibrosis based on a three-stage protocol (IRT/DNA/IRT): should we adjust IRT cut-off to ethnic origin?</p>
             </title>
             <aug>
                <au>
                   <snm>Cheillan</snm>
                   <fnm>D</fnm>
                </au>
                <au>
                   <snm>Vercherat</snm>
                   <fnm>M</fnm>
                </au>
                <au>
                   <snm>Chevalier-Porst</snm>
                   <fnm>F</fnm>
                </au>
                <au>
                   <snm>Charcosset</snm>
                   <fnm>M</fnm>
                </au>
                <au>
                   <snm>Rolland</snm>
                   <fnm>MO</fnm>
                </au>
                <au>
                   <snm>Dorche</snm>
                   <fnm>C</fnm>
                </au>
             </aug>
             <source>J Inher Metabol Dis</source>
             <pubdate>2005</pubdate>
             <volume>28</volume>
             <fpage>813</fpage>
             <lpage>818</lpage>
             <xrefbib>
                <pubidlist>
                   <pubid idtype="doi">10.1007/s10545-005-0067-0</pubid>
                </pubidlist>
             </xrefbib>
          </bibl>
          <bibl id="B14">
             <title>
                <p>Non-specific elevation of immunoreactive trypsinogen in sick infants</p>
             </title>
             <aug>
                <au>
                   <snm>Ravine</snm>
                   <fnm>D</fnm>
                </au>
                <au>
                   <snm>Francis</snm>
                   <fnm>RI</fnm>
                </au>
                <au>
                   <snm>Banks</snm>
                   <fnm>DM</fnm>
                </au>
             </aug>
             <source>Eur J Pediatr</source>
             <pubdate>1993</pubdate>
             <volume>152</volume>
             <fpage>348</fpage>
             <lpage>349</lpage>
             <xrefbib>
                <pubidlist>
                   <pubid idtype="doi">10.1007/BF01956751</pubid>
                   <pubid idtype="pmpid" link="fulltext">8482288</pubid>
                </pubidlist>
             </xrefbib>
          </bibl>
          <bibl id="B15">
             <title>
                <p>Immunoreactive trypsinogen (IRT) as a biomarker for cystic fibrosis: challenges in newborn dried blood spot screening</p>
             </title>
             <aug>
                <au>
                   <snm>Therrell</snm>
                   <fnm>BL</fnm>
                   <suf>Jr</suf>
                </au>
                <au>
                   <snm>Hannon</snm>
                   <fnm>WH</fnm>
                </au>
                <au>
                   <snm>Hoffman</snm>
                   <fnm>G</fnm>
                </au>
                <au>
                   <snm>Ojodu</snm>
                   <fnm>J</fnm>
                </au>
                <au>
                   <snm>Farrell</snm>
                   <fnm>PM</fnm>
                </au>
             </aug>
             <source>Mol Genet Metab</source>
             <pubdate>2012</pubdate>
             <volume>106</volume>
             <fpage>1</fpage>
             <lpage>6</lpage>
             <xrefbib>
                <pubidlist>
                   <pubid idtype="doi">10.1016/j.ymgme.2012.02.013</pubid>
                   <pubid idtype="pmpid" link="fulltext">22425451</pubid>
                </pubidlist>
             </xrefbib>
          </bibl>
          <bibl id="B16">
             <title>
                <p>Procedimiento para la obtenci&#243;n de espec&#237;menes de sangre sobre papel de filtro en los Programas de Detecci&#243;n Precoz Neonatal de Errores Cong&#233;nitos del Metabolismo</p>
             </title>
             <aug>
                <au>
                   <snm>Espada</snm>
                   <fnm>M</fnm>
                </au>
                <au>
                   <snm>Dul&#237;n</snm>
                   <fnm>E</fnm>
                </au>
             </aug>
             <source>Quim Clin</source>
             <pubdate>2001</pubdate>
             <volume>20</volume>
             <fpage>81</fpage>
             <lpage>88</lpage>
          </bibl>
          <bibl id="B17">
             
                <url>http://www.aecne.es</url>
             
<note>
                <b>Asociaci&#243;n Espa&#241;ola de Cribado Neonatal (AECNE).</b>.</note>
          </bibl>
          <bibl id="B18">
             
                <url>http://publicaciones.san.gva.es/publicaciones/documentos/V.4285-2011.pdf</url>
             
<note>Conselleria de Sanitat, Generalitat Valenciana: <b>Programa de Cribado Neonatal de Enfermedades Cong&#233;nitas en la Comunidad Valenciana.</b>.</note>
          </bibl>
          <bibl id="B19">
             
                <url>http://www.aeped.es/sites/default/files/documentos/8_1.pdf</url>
             
<note>Rellan S, Garc&#237;a de Ribera C, Arag&#243;n MO: <b>El reci&#233;n nacido prematuro. Protocolos Diagn&#243;stico Terape&#250;ticos de la AEP: Neonatolog&#237;a.</b> 2008. [].</note>
          </bibl>
          <bibl id="B20">
             
                <url>http://www.eltiempo.es/aemet.html</url>
             
<note>
                <b>Agencia Espa&#241;ola de Meteorolog&#237;a (AEMET).</b>.</note>
          </bibl>
          <bibl id="B21">
             <title>
                <p>False positive results with immunoreactive trypsinogen screening for cystic fibrosis owing to trisomy 13</p>
             </title>
             <aug>
                <au>
                   <snm>Priest</snm>
                   <fnm>FJ</fnm>
                </au>
                <au>
                   <snm>Nevin</snm>
                   <fnm>NC</fnm>
                </au>
             </aug>
             <source>J Med Genet</source>
             <pubdate>1991</pubdate>
             <volume>28</volume>
             <fpage>575</fpage>
             <lpage>576</lpage>
             <xrefbib>
                <pubidlist>
                   <pubid idtype="doi">10.1136/jmg.28.8.575-a</pubid>
                   <pubid idtype="pmpid" link="fulltext">1920376</pubid>
                </pubidlist>
             </xrefbib>
          </bibl>
          <bibl id="B22">
             <title>
                <p>Immunoreactive trypsinogen screening for cystic fibrosis: characterization of infants with a false positive screening test</p>
             </title>
             <aug>
                <au>
                   <snm>Rock</snm>
                   <fnm>MJ</fnm>
                </au>
                <au>
                   <snm>Mischler</snm>
                   <fnm>EH</fnm>
                </au>
                <au>
                   <snm>Farrell</snm>
                   <fnm>PM</fnm>
                </au>
                <au>
                   <snm>Bruns</snm>
                   <fnm>WT</fnm>
                </au>
                <au>
                   <snm>Hassemer</snm>
                   <fnm>DJ</fnm>
                </au>
                <au>
                   <snm>Laessig</snm>
                   <fnm>RH</fnm>
                </au>
             </aug>
             <source>Pediatr Pulmonol</source>
             <pubdate>1989</pubdate>
             <volume>6</volume>
             <fpage>42</fpage>
             <lpage>48</lpage>
             <xrefbib>
                <pubidlist>
                   <pubid idtype="doi">10.1002/ppul.1950060111</pubid>
                   <pubid idtype="pmpid" link="fulltext">2704582</pubid>
                </pubidlist>
             </xrefbib>
          </bibl>
          <bibl id="B23">
             <title>
                <p>The Epidemiology of Cystic Fibrosis</p>
             </title>
             <aug>
                <au>
                   <snm>Lewis</snm>
                   <fnm>PA</fnm>
                </au>
             </aug>
             <source>Cystic Fibrosis</source>
             <publisher>Arnold, London</publisher>
             <editor>Hodson ME, Geddes DM</editor>
             <edition>2</edition>
             <pubdate>2000</pubdate>
             <fpage>13</fpage>
             <lpage>25</lpage>
          </bibl>
          <bibl id="B24">
             <title>
                <p>
                   <b>Cystic fibrosis</b>
                </p>
             </title>
             <aug>
                <au>
                   <snm>Bush</snm>
                   <fnm>A</fnm>
                </au>
             </aug>
             <source>European lung white book</source>
             <publisher>European Respiratory Society Journals Limited, Brussels</publisher>
             <pubdate>2003</pubdate>
             <fpage>89</fpage>
             <lpage>95</lpage>
          </bibl>
          <bibl id="B25">
             <title>
                <p>Newborn screening for cystic fibrosis in Wisconsin: comparison of biochemical and molecular methods</p>
             </title>
             <aug>
                <au>
                   <snm>Gregg</snm>
                   <fnm>RG</fnm>
                </au>
                <au>
                   <snm>Simantel</snm>
                   <fnm>A</fnm>
                </au>
                <au>
                   <snm>Farrell</snm>
                   <fnm>PM</fnm>
                </au>
                <au>
                   <snm>Koscik</snm>
                   <fnm>R</fnm>
                </au>
                <au>
                   <snm>Kosorok</snm>
                   <fnm>MR</fnm>
                </au>
                <au>
                   <snm>Laxova</snm>
                   <fnm>A</fnm>
                </au>
                <au>
                   <snm>Laessig</snm>
                   <fnm>R</fnm>
                </au>
                <au>
                   <snm>Hoffman</snm>
                   <fnm>G</fnm>
                </au>
                <au>
                   <snm>Hassemer</snm>
                   <fnm>D</fnm>
                </au>
                <au>
                   <snm>Mischler</snm>
                   <fnm>EH</fnm>
                </au>
                <au>
                   <snm>Splaingard</snm>
                   <fnm>M</fnm>
                </au>
             </aug>
             <source>Pediatrics</source>
             <pubdate>1997</pubdate>
             <volume>99</volume>
             <fpage>819</fpage>
             <lpage>824</lpage>
             <xrefbib>
                <pubidlist>
                   <pubid idtype="doi">10.1542/peds.99.6.819</pubid>
                   <pubid idtype="pmpid" link="fulltext">9164776</pubid>
                </pubidlist>
             </xrefbib>
          </bibl>
       </refgrp>
    </bm>
 </art>
