<art>
    <ui>s13028-014-0067-x</ui>
    <ji>1751-0147</ji>
    <fm>
       <dochead>Brief communication</dochead>
       <bibl>
          <title>
             <p>Prevalence of <it>Coxiella burnetii</it> and <it>Brucella</it> spp. in tissues from subsistence harvested northern fur seals (<it>Callorhinus ursinus</it>) of St. Paul Island, Alaska</p>
          </title>
          <aug>
             <au id="A1" ca="yes">
                <snm>Duncan</snm>
                <fnm>Colleen</fnm>
                <insr iid="I1"/>
                <email>Colleen.Duncan@colostate.edu</email>
             </au>
             <au id="A2">
                <snm>Dickerson</snm>
                <fnm>Bobette</fnm>
                <insr iid="I2"/>
                <email>Bobette.Dickerson@noaa.gov</email>
             </au>
             <au id="A3">
                <snm>Pabilonia</snm>
                <fnm>Kristy</fnm>
                <insr iid="I1"/>
                <email>Kristy.Pabilonia@colostate.edu</email>
             </au>
             <au id="A4">
                <snm>Miller</snm>
                <fnm>Amy</fnm>
                <insr iid="I3"/>
                <email>AmyMiller_DVM@yahoo.com</email>
             </au>
             <au id="A5">
                <snm>Gelatt</snm>
                <fnm>Tom</fnm>
                <insr iid="I2"/>
                <email>Tom.Gelatt@noaa.gov</email>
             </au>
          </aug>
          <insg>
             <ins id="I1">
                <p>Department of Microbiology, Immunology and Pathology, Colorado State University, Diagnostic Medical Center, 300 West Drake Avenue, Fort Collins 80524, Colorado, USA</p>
             </ins>
             <ins id="I2">
                <p>National Marine Fisheries Service, Alaska Fisheries Science Center, National Marine Mammal Lab, 7600 Sand Point Way NE, Seattle 98115, Washington, USA</p>
             </ins>
             <ins id="I3">
                <p>CytoVet, 5916 Willow Lane, Dallas 75239, Texas, USA</p>
             </ins>
          </insg>
          <source>Acta Veterinaria Scandinavica</source>
          <issn>1751-0147</issn>
          <pubdate>2014</pubdate>
          <volume>56</volume>
          <issue>1</issue>
          <fpage>67</fpage>
          <url>http://www.actavetscand.com/content/56/1/67</url>
          <xrefbib>
             <pubidlist>
                <pubid idtype="doi">10.1186/s13028-014-0067-x</pubid>
                <pubid idtype="pmpid"><!-- Need to check source for data--></pubid>
             </pubidlist>
          </xrefbib>
       </bibl>
       <history>
          <rec>
             <date>
                <day>4</day>
                <month>8</month>
                <year>2014</year>
             </date>
          </rec>
          <acc>
             <date>
                <day>18</day>
                <month>9</month>
                <year>2014</year>
             </date>
          </acc>
          <pub>
             <date>
                <day>1</day>
                <month>10</month>
                <year>2014</year>
             </date>
          </pub>
       </history>
       <cpyrt>
          <year>2014</year>
          <collab>Duncan et al.; licensee BioMed Central Ltd.</collab>
          <note>This is an Open Access article distributed under the terms of the Creative Commons Attribution License (<url>http://creativecommons.org/licenses/by/4.0</url>), which permits unrestricted use, distribution, and reproduction in any medium, provided the original work is properly credited. The Creative Commons Public Domain Dedication waiver (<url>http://creativecommons.org/publicdomain/zero/1.0/</url>) applies to the data made available in this article, unless otherwise stated.</note>
       </cpyrt>
       <kwdg>
          <kwd>Alaska</kwd>
          <kwd>Brucella</kwd>
          <kwd>Callorhinus ursinus</kwd>
          <kwd>Coxiella burnetii</kwd>
          <kwd>northern fur seal</kwd>
          <kwd>zoonoses</kwd>
       </kwdg>
       <abs>
          <sec>
             <st>
                <p>Abstract</p>
             </st>
             <sec>
                <st>
                   <p>Background</p>
                </st>
                <p>The northern fur seal (<it>Callorhinus ursinus</it>) is an important cultural and nutritional resource for the Aleut community on St. Paul Island Alaska. In recent years, an increasing number of zoonotic pathogens have been identified in the population, but the public health significance of these findings is unknown. To determine the prevalence of <it>Coxiella burnetii</it> and <it>Brucella</it> spp. in northern fur seal tissues, eight tissue types from 50 subsistence-harvested fur seals were tested for bacterial DNA by real-time polymerase chain reaction.</p>
             </sec>
             <sec>
                <st>
                   <p>Findings</p>
                </st>
                <p>Of the 400 samples tested, only a single splenic sample was positive for <it>Brucella</it> spp. and the cycle threshold (ct) value was extremely high suggesting a low concentration of DNA within the tissue. <it>C. burnetii</it> DNA was not detected.</p>
             </sec>
             <sec>
                <st>
                   <p>Conclusions</p>
                </st>
                <p>Findings suggest that the risk of humans contracting brucellosis or Q fever from the consumption of harvested northern fur seals is low.</p>
             </sec>
          </sec>
       </abs>
    </fm>
    <bdy>
       <sec>
          <st>
             <p>1
 						Findings</p>
          </st>
          <p>On St. Paul Island Alaska, one of the Pribilof Islands, the northern fur seal (NFS, <it>Callorhinus ursinus</it>) is culturally significant to the Aleut community and an important traditional food. Historically infectious diseases have been considered an uncommon cause of mortality in this species <abbrgrp>
                <abbr bid="B1">1</abbr>
             </abbrgrp>, however since 2010 an increasing number of infectious agents have been identified <abbrgrp>
                <abbr bid="B2">2</abbr>
             </abbrgrp>-<abbrgrp>
                <abbr bid="B4">4</abbr>
             </abbrgrp>, some of which are zoonotic.</p>
          <p>In 2010 and 2011 <it>Coxiella burnetii</it> was identified in ~75% of the NFS placentas collected from a NFS rookery <abbrgrp>
                <abbr bid="B3">3</abbr>
             </abbrgrp>,<abbrgrp>
                <abbr bid="B5">5</abbr>
             </abbrgrp>. <it>C. burnetii</it> is a zoonotic bacterium that can cause a wide range of disease in humans including generalized malaise, severe multi-systemic disease and chronic valvular endocarditis <abbrgrp>
                <abbr bid="B6">6</abbr>
             </abbrgrp>. Inhalation is thought to be the most common mode of transmission, but the organism can also be spread by tick vectors and ingestion <abbrgrp>
                <abbr bid="B6">6</abbr>
             </abbrgrp>. Milk is the primary source of food-borne <it>C. burnetii</it>; an infection source that had decreased with pasteurization but has recently been increasing with the &#8216;raw milk&#8217; movement <abbrgrp>
                <abbr bid="B7">7</abbr>
             </abbrgrp>. While the risk of contracting disease following consumption, or handling, of other tissues is less understood, disease outbreaks have occurred in slaughterhouse and meat processing facilities <abbrgrp>
                <abbr bid="B8">8</abbr>
             </abbrgrp>.</p>
          <p>
             <it>Brucella</it> has also recently been identified in NFS placentas and in serum from an individual animal that was harvested for human consumption <abbrgrp>
                <abbr bid="B2">2</abbr>
             </abbrgrp>. The <it>Brucella</it> genus includes a number of pathogenic species that have the ability to cause disease in both humans and animals. <it>Brucella</it> spp. have been isolated from a number of marine mammal species (recently reviewed in <abbrgrp>
                <abbr bid="B9">9</abbr>
             </abbrgrp>) and marine mammal isolates have been shown to be pathogenic in people <abbrgrp>
                <abbr bid="B10">10</abbr>
             </abbrgrp>-<abbrgrp>
                <abbr bid="B12">12</abbr>
             </abbrgrp>. Brucellosis has been described as one of the most important infectious diseases in Alaska <abbrgrp>
                <abbr bid="B13">13</abbr>
             </abbrgrp>.</p>
          <p>In humans and animals, <it>Brucella</it> spp. can persist in cells of the mononuclear phagocyte system such as the bone marrow, lymph nodes, spleen and liver <abbrgrp>
                <abbr bid="B14">14</abbr>
             </abbrgrp>. Similarly, chronic infection and long-term persistence of <it>C. burnetii</it> has been identified in the bone marrow and liver of humans many years after primary bacteremia <abbrgrp>
                <abbr bid="B15">15</abbr>
             </abbrgrp>,<abbrgrp>
                <abbr bid="B16">16</abbr>
             </abbrgrp>. It is presumed that a similar pathogenesis exists in marine mammals, but this has not been substantiated. The objective of this study was to determine the tissue distribution and prevalence of <it>C. burnetii</it> and <it>Brucella</it> spp. in tissues from NFS harvested for consumption on St. Paul Island, Alaska as these zoonotic pathogens may present a human health risk.</p>
          <p>From July 5th to August 7th 2013 tissues were collected from 50 sub-adult male NFS during the St. Paul community harvest. Fresh samples of muscle, liver, kidney, spleen, testicle, lymph node, lung and bone marrow were collected and frozen at -80&#176;C in 1.5&#160;ml cryovials until testing. Bone marrow impression smears were made from the femur within 5&#160;hours of the animals&#8217; death and stored dry until transferred to the laboratory where they were stained with Wright-Giemsa Stain (Volu-Sol Inc., Salt Lake City Utah, USA). A fresh dog bone marrow sample was stained with the NFS samples as a positive staining control and samples were excluded when&#8201;&#8805;&#8201;75% of the cells were autolytic. A section of formalin fixed bone marrow was routinely processed and examined histologically.</p>
          <p>The eight tissue types (n&#8201;=&#8201;400 samples) were individually tested for both <it>C. burnetii</it> and <it>Brucella</it> spp. by real-time polymerase chain reaction (PCR). DNA was extracted from all tissues using the QIAamp DNA Mini Kit (Qiagen, Valencia, California, USA) according to manufacturer&#8217;s directions with the following exceptions: 80-120&#160;mg of tissue was used as the starting sample and the sample was incubated at 56&#176;C in proteinase K overnight for 16-18 hours. Real-time PCR was conducted as previously described for the <it>C. burnetii</it> IS1111 and COM1 gene target regions <abbrgrp>
                <abbr bid="B3">3</abbr>
             </abbrgrp> and <it>Brucella</it> spp. IS711 gene target region <abbrgrp>
                <abbr bid="B2">2</abbr>
             </abbrgrp>. A sample was considered positive at a cycle threshold (ct) value of less than or equal to 40. Marine mammal origin <it>C. burnetii</it> and <it>B. pinnipedialis</it> positive amplification controls, and a no template negative control, were used for the <it>Coxiella</it> and <it>Brucella</it> real-time PCR respectively.</p>
          <p>A single splenic sample was positive for <it>Brucella</it> (ct value 38.52); this result was repeatable but all other tissue types from this individual were negative. Of the remaining 399 samples, all were negative for both bacteria. Results of the bone marrow cytology are presented in Table&#160;<tblr tid="T1">1</tblr>. A single animal had a significantly higher myeloid: erythroid (M:E) ratio suggestive of granulocytic hyperplasia but this animal was PCR negative on all tissues. No histologic lesions were identified in the bone marrow of any animals.</p>
          
             <table id="T1">
                <title>
                   <p>Table 1</p>
                </title>
                <caption>
                   <p>
                      <b>Nucleated cell differential counts from 20 sub-adult male NFS bone marrow samples examined cytologically</b>
                   </p>
                </caption>
                <tgroup align="left" cols="6">
                   <colspec align="left" colname="c1" colnum="1" colwidth="*"/>
                   <colspec align="center" colname="c2" colnum="2" colwidth="*"/>
                   <colspec align="left" colname="c3" colnum="3" colwidth="*"/>
                   <colspec align="left" colname="c4" colnum="4" colwidth="*"/>
                   <colspec align="left" colname="c5" colnum="5" colwidth="*"/>
                   <colspec align="left" colname="c6" colnum="6" colwidth="*"/>
                   <thead>
                      <row valign="top">
                         <entry colname="c1"/>
                         <entry align="left" colname="c2">
                            <p>
                               <b>M:E ratio*</b>
                            </p>
                         </entry>
                         <entry colname="c3">
                            <p>
                               <b>Lymphocytes (%)</b>
                            </p>
                         </entry>
                         <entry colname="c4">
                            <p>
                               <b>Plasma cells (%)</b>
                            </p>
                         </entry>
                         <entry colname="c5">
                            <p>
                               <b>Macrophages (%)</b>
                            </p>
                         </entry>
                         <entry colname="c6">
                            <p>
                               <b>Megakaryocytes</b>
                            </p>
                         </entry>
                      </row>
                   </thead>
                   <tfoot>
                      <p>*The M:E ratio and% lymphocytes, plasma cells and macrophages were based on a 200 nucleated cell count in cellular areas of the slide with minimal artifact. The megakaryocyte count was based on the average of 5 cellular 10x fields.</p>
                   </tfoot>
                   <tbody>
                      <row valign="top">
                         <entry colname="c1">
                            <p>
                               <b>Mean</b>
                            </p>
                         </entry>
                         <entry align="center" colname="c2">
                            <p>2.14</p>
                         </entry>
                         <entry colname="c3">
                            <p>1</p>
                         </entry>
                         <entry colname="c4">
                            <p>0</p>
                         </entry>
                         <entry colname="c5">
                            <p>1</p>
                         </entry>
                         <entry colname="c6">
                            <p>6.6</p>
                         </entry>
                      </row>
                      <row valign="top">
                         <entry colname="c1">
                            <p>
                               <b>Median</b>
                            </p>
                         </entry>
                         <entry align="center" colname="c2">
                            <p>1.45</p>
                         </entry>
                         <entry colname="c3">
                            <p>0</p>
                         </entry>
                         <entry colname="c4">
                            <p>0</p>
                         </entry>
                         <entry colname="c5">
                            <p>1</p>
                         </entry>
                         <entry colname="c6">
                            <p>6.6</p>
                         </entry>
                      </row>
                      <row valign="top">
                         <entry colname="c1">
                            <p>
                               <b>Range</b>
                            </p>
                         </entry>
                         <entry align="center" colname="c2">
                            <p>0.8-7.0</p>
                         </entry>
                         <entry colname="c3">
                            <p>0-4</p>
                         </entry>
                         <entry colname="c4">
                            <p>0-2</p>
                         </entry>
                         <entry colname="c5">
                            <p>0-4</p>
                         </entry>
                         <entry colname="c6">
                            <p>1.8-12.2</p>
                         </entry>
                      </row>
                   </tbody>
                </tgroup>
             </table>
          
          <p>Results of this study suggest that the risk of exposure to <it>C. burnetii</it> and <it>Brucella</it> spp. through subsistence harvesting of male NFS on St. Paul Island is extremely low; only 0.25% of tested samples (one animal) had evidence of bacterial DNA in tested tissues. The single <it>Brucella</it> positive spleen sample had a high ct value suggesting a low quantity of DNA within the tissue; follow up attempts to culture <it>Brucella</it> from the splenic tissue of this animal were unsuccessful. Given that no other tissues from this animal were positive it is doubtful that this animal had an active infection, although the positive result could represent inactive DNA persisting within a splenic macrophage. As the spleen is not routinely collected or consumed by the Aleut people, this finding is of minimal public health concern. The apparent <it>Brucella</it> prevalence of 2% in this study is consistent with the previously reported placental prevalence (5%) and seroprevalence (2.5%) in this species <abbrgrp>
                <abbr bid="B2">2</abbr>
             </abbrgrp>. While brucellosis has been identified as an important zoonotic disease in Alaska, the public health risk is thought to be from the hunting of infected terrestrial, and not marine, mammals <abbrgrp>
                <abbr bid="B13">13</abbr>
             </abbrgrp>.</p>
          <p>That all samples were negative for <it>C. burnetii</it> was unexpected. The 2011 <it>C. burnetii</it> seroprevalence in subadult males was 73% <abbrgrp>
                <abbr bid="B17">17</abbr>
             </abbrgrp> suggesting that exposure is high in the cohort of animals included in the present study. Failure to identify any tissues positive by PCR suggests that for exposed NFS the infection rate is low, infection is transient or the bacteria persists in tissues other than those tested in this study. The negative findings were also surprising given recent reports of human exposure in the area. Archived serum from residents of St. Paul Island had <it>C. burnetii</it> antibodies in 12% of the samples (titer&#8201;&#8805;&#8201;1:64) <abbrgrp>
                <abbr bid="B18">18</abbr>
             </abbrgrp>, which is significantly higher than the general US population (3% at titer&#8201;&#8805;&#8201;1:16) <abbrgrp>
                <abbr bid="B19">19</abbr>
             </abbrgrp>. The present study suggests that this differential exposure is unlikely to be from consumption of NFS, however discordance between sampling timeframes that makes it challenging to compare these results. The archived human serum tested was collected between 1980-2000 and individuals included in that study may have had more opportunities for <it>C. burnetii</it> exposure. The commercial NFS harvest was active on St. Paul Island until 1985, with tens of thousands of animals killed annually for furs providing considerably more human-animal interaction <abbrgrp>
                <abbr bid="B20">20</abbr>
             </abbrgrp>. Following the ban on commercial hunting, the Aleut people continued to hunt NFS for subsistence use although the average annual harvest has been less than 500 sub adult males over the last 15&#160;years. Another possibility for the discordant results is that human exposure is coming from inhalation of aerosolized organisms arising from the contaminated birthing rookeries of the NFS. While it is illegal to disrupt federally protected rookeries during June to Mid Oct while NFS are on land, the organism can persist year round in these locations <abbrgrp>
                <abbr bid="B5">5</abbr>
             </abbrgrp> allowing for exposure opportunities even during periods when no animals are on the island.</p>
          <p>Bone marrow was examined both cytologically and histologically in this study because chronic <it>C. burnetii</it> infection in humans has been associated with bone marrow pathology such as &#8216;doughnut ring&#8217; granulomas <abbrgrp>
                <abbr bid="B21">21</abbr>
             </abbrgrp>,<abbrgrp>
                <abbr bid="B22">22</abbr>
             </abbrgrp> and an acute hemophagocytic syndrome <abbrgrp>
                <abbr bid="B23">23</abbr>
             </abbrgrp>. While neither of these lesions were observed, results of the bone marrow analysis may be helpful as a reference range for this species given the paucity of baseline information on many free ranging pinnipeds. The results of the cytologic examination of the bone marrow were similar to the reference ranges for other common domestic species. In addition, the good preservation of many of the bone marrow samples collected up to 5&#160;hours postmortem suggests that significant autolysis may not occur as quickly in this species as compared to others.</p>
          <p>While the present study suggests that there is little risk of human exposure to <it>C. burnetii</it> and <it>Brucella</it> spp. through the subsistence harvest of NFS on St. Paul Island, there remain some unanswered questions regarding the source of human exposure to <it>C. burnetii</it> on the Pribilof Islands of Alaska. Given that little is known about this zoonotic agent in the marine and coastal environment, further investigation into the epidemiology and ecology of this pathogen will help to guide public health recommendations.</p>
       </sec>
       <sec>
          <st>
             <p>Competing interests</p>
          </st>
          <p>The authors declare that they have no competing interests.</p>
       </sec>
       <sec>
          <st>
             <p>Authors&#8217; contributions</p>
          </st>
          <p>CD, BD and TG designed the study and saw it through to completion. CD and BD collected biological samples. KP optimized and conducted molecular testing. AM conducted the cytological evaluations and CD conduced histological evaluations. All authors read and approved the final manuscript.</p>
       </sec>
    </bdy>
    <bm>
       <ack>
          <sec>
             <st>
                <p>Acknowledgements</p>
             </st>
             <p>All animal tissue samples were collected under authorization of U.S. Marine Mammal Protection Act Permit #s 14327, issued to the National Marine Mammal Laboratory, Alaska Fisheries Science Center, Seattle, WA, USA. The authors thank The Tribal Government of St Paul Island for their collaboration in sample collection, the North Pacific Research Board for funding and Christina Weller for technical assistance.</p>
          </sec>
       </ack>
       <refgrp>
          
          <bibl id="B1">
             <title>
                <p>Causes of mortality in northern fur seals (<it>Callorhinus ursinus</it>), St. Paul Island, Pribilof Islands, Alaska, 1986-2006</p>
             </title>
             <aug>
                <au>
                   <snm>Spraker</snm>
                   <fnm>TR</fnm>
                </au>
                <au>
                   <snm>Lander</snm>
                   <fnm>ME</fnm>
                </au>
             </aug>
             <source>J Wild Dis</source>
             <pubdate>2010</pubdate>
             <volume>46</volume>
             <fpage>450</fpage>
             <lpage>473</lpage>
             <xrefbib>
                <pubidlist>
                   <pubid idtype="doi">10.7589/0090-3558-46.2.450</pubid>
                </pubidlist>
             </xrefbib>
          </bibl>
          <bibl id="B2">
             <title>
                <p>
                   <it>Brucella</it> placentitis and seroprevalence in northern fur seals (<it>Callorhinus ursinus</it>) of the Pribilof Islands, Alaska</p>
             </title>
             <aug>
                <au>
                   <snm>Duncan</snm>
                   <fnm>CG</fnm>
                </au>
                <au>
                   <snm>Tiller</snm>
                   <fnm>R</fnm>
                </au>
                <au>
                   <snm>Mathis</snm>
                   <fnm>D</fnm>
                </au>
                <au>
                   <snm>Stoddard</snm>
                   <fnm>R</fnm>
                </au>
                <au>
                   <snm>Kersh</snm>
                   <fnm>GJ</fnm>
                </au>
                <au>
                   <snm>Dickerson</snm>
                   <fnm>B</fnm>
                </au>
                <au>
                   <snm>Gelatt</snm>
                   <fnm>T</fnm>
                </au>
             </aug>
             <source>J Vet Diag Invest</source>
             <pubdate>2014</pubdate>
             <volume>26</volume>
             <fpage>507</fpage>
             <lpage>512</lpage>
             <xrefbib>
                <pubidlist>
                   <pubid idtype="doi">10.1177/1040638714532647</pubid>
                </pubidlist>
             </xrefbib>
          </bibl>
          <bibl id="B3">
             <title>
                <p>
                   <it>Coxiella burnetii</it> in northern fur seal (<it>Callorhinus ursinus</it>) placentas from St. Paul Island, Alaska</p>
             </title>
             <aug>
                <au>
                   <snm>Duncan</snm>
                   <fnm>C</fnm>
                </au>
                <au>
                   <snm>Kersh</snm>
                   <fnm>GJ</fnm>
                </au>
                <au>
                   <snm>Spraker</snm>
                   <fnm>T</fnm>
                </au>
                <au>
                   <snm>Patyk</snm>
                   <fnm>KA</fnm>
                </au>
                <au>
                   <snm>Fitzpatrick</snm>
                   <fnm>KA</fnm>
                </au>
                <au>
                   <snm>Massung</snm>
                   <fnm>RF</fnm>
                </au>
                <au>
                   <snm>Gelatt</snm>
                   <fnm>T</fnm>
                </au>
             </aug>
             <source>Vector Borne Zoonotic Dis</source>
             <pubdate>2012</pubdate>
             <volume>12</volume>
             <fpage>192</fpage>
             <lpage>195</lpage>
             <xrefbib>
                <pubidlist>
                   <pubid idtype="doi">10.1089/vbz.2011.0715</pubid>
                   <pubid idtype="pmpid" link="fulltext">22017469</pubid>
                </pubidlist>
             </xrefbib>
          </bibl>
          <bibl id="B4">
             <title>
                <p>Novel polyomaviral infection in the placenta of a northern fur seal (<it>Callorhinus ursinus</it>) on the Pribilof Islands, Alaska, USA</p>
             </title>
             <aug>
                <au>
                   <snm>Duncan</snm>
                   <fnm>C</fnm>
                </au>
                <au>
                   <snm>Goldstein</snm>
                   <fnm>T</fnm>
                </au>
                <au>
                   <snm>Hearne</snm>
                   <fnm>C</fnm>
                </au>
                <au>
                   <snm>Gelatt</snm>
                   <fnm>T</fnm>
                </au>
                <au>
                   <snm>Spraker</snm>
                   <fnm>T</fnm>
                </au>
             </aug>
             <source>J Wild Dis</source>
             <pubdate>2013</pubdate>
             <volume>49</volume>
             <fpage>163</fpage>
             <lpage>167</lpage>
             <xrefbib>
                <pubidlist>
                   <pubid idtype="doi">10.7589/2012-04-101</pubid>
                </pubidlist>
             </xrefbib>
          </bibl>
          <bibl id="B5">
             <title>
                <p>Multiple Strains of <it>Coxiella burnetii</it> are present in the environment of St. Paul Island, Alaska</p>
             </title>
             <aug>
                <au>
                   <snm>Duncan</snm>
                   <fnm>C</fnm>
                </au>
                <au>
                   <snm>Savage</snm>
                   <fnm>K</fnm>
                </au>
                <au>
                   <snm>Williams</snm>
                   <fnm>M</fnm>
                </au>
                <au>
                   <snm>Dickerson</snm>
                   <fnm>B</fnm>
                </au>
                <au>
                   <snm>Kondas</snm>
                   <fnm>AV</fnm>
                </au>
                <au>
                   <snm>Fitzpatrick</snm>
                   <fnm>KA</fnm>
                </au>
                <au>
                   <snm>Guerrero</snm>
                   <fnm>JL</fnm>
                </au>
                <au>
                   <snm>Spraker</snm>
                   <fnm>T</fnm>
                </au>
                <au>
                   <snm>Kersh</snm>
                   <fnm>GJ</fnm>
                </au>
             </aug>
             <source>Transbound Emerg Dis</source>
             <pubdate>2013</pubdate>
             <volume>60</volume>
             <fpage>345</fpage>
             <lpage>350</lpage>
             <xrefbib>
                <pubidlist>
                   <pubid idtype="doi">10.1111/j.1865-1682.2012.01353.x</pubid>
                   <pubid idtype="pmpid" link="fulltext">22747976</pubid>
                </pubidlist>
             </xrefbib>
          </bibl>
          <bibl id="B6">
             <title>
                <p>Q fever</p>
             </title>
             <aug>
                <au>
                   <snm>Maurin</snm>
                   <fnm>M</fnm>
                </au>
                <au>
                   <snm>Raoult</snm>
                   <fnm>D</fnm>
                </au>
             </aug>
             <source>Clin Microbiol Rev</source>
             <pubdate>1999</pubdate>
             <volume>12</volume>
             <fpage>518</fpage>
             <lpage>553</lpage>
             <xrefbib>
                <pubidlist>
                   <pubid idtype="pmpid" link="fulltext">10515901</pubid>
                </pubidlist>
             </xrefbib>
          </bibl>
          <bibl id="B7">
             <title>
                <p>Q fever cluster among raw milk drinkers, Michigan, 2011</p>
             </title>
             <aug>
                <au>
                   <snm>Signs</snm>
                   <fnm>KA</fnm>
                </au>
                <au>
                   <snm>Stobierski</snm>
                   <fnm>MG</fnm>
                </au>
                <au>
                   <snm>Gandhi</snm>
                   <fnm>TN</fnm>
                </au>
             </aug>
             <source>Clin Infect Dis</source>
             <pubdate>2012</pubdate>
             <volume>55</volume>
             <fpage>1387</fpage>
             <lpage>1389</lpage>
             <xrefbib>
                <pubidlist>
                   <pubid idtype="doi">10.1093/cid/cis690</pubid>
                   <pubid idtype="pmpid" link="fulltext">22893578</pubid>
                </pubidlist>
             </xrefbib>
          </bibl>
          <bibl id="B8">
             <title>
                <p>Occupational infection in an offal porter: a case of Q fever</p>
             </title>
             <aug>
                <au>
                   <snm>Aw</snm>
                   <fnm>TC</fnm>
                </au>
                <au>
                   <snm>Ratti</snm>
                   <fnm>N</fnm>
                </au>
             </aug>
             <source>Occ Med</source>
             <pubdate>1997</pubdate>
             <volume>47</volume>
             <fpage>432</fpage>
             <lpage>434</lpage>
             <xrefbib>
                <pubidlist>
                   <pubid idtype="doi">10.1093/occmed/47.7.432</pubid>
                </pubidlist>
             </xrefbib>
          </bibl>
          <bibl id="B9">
             <title>
                <p>Wildlife reservoirs of brucellosis: <it>Brucella</it> in aquatic environments</p>
             </title>
             <aug>
                <au>
                   <snm>Hernandez-Mora</snm>
                   <fnm>G</fnm>
                </au>
                <au>
                   <snm>Palacios-Alfaro</snm>
                   <fnm>JD</fnm>
                </au>
                <au>
                   <snm>Gonzalez-Barrientos</snm>
                   <fnm>R</fnm>
                </au>
             </aug>
             <source>Rev Sci Tech</source>
             <pubdate>2013</pubdate>
             <volume>32</volume>
             <fpage>89</fpage>
             <lpage>103</lpage>
             <xrefbib>
                <pubidlist>
                   <pubid idtype="pmpid" link="fulltext">23837368</pubid>
                </pubidlist>
             </xrefbib>
          </bibl>
          <bibl id="B10">
             <title>
                <p>Human neurobrucellosis with intracerebral granuloma caused by a marine mammal Brucella spp</p>
             </title>
             <aug>
                <au>
                   <snm>Sohn</snm>
                   <fnm>AH</fnm>
                </au>
                <au>
                   <snm>Probert</snm>
                   <fnm>WS</fnm>
                </au>
                <au>
                   <snm>Glaser</snm>
                   <fnm>CA</fnm>
                </au>
                <au>
                   <snm>Gupta</snm>
                   <fnm>N</fnm>
                </au>
                <au>
                   <snm>Bollen</snm>
                   <fnm>AW</fnm>
                </au>
                <au>
                   <snm>Wong</snm>
                   <fnm>JD</fnm>
                </au>
                <au>
                   <snm>Grace</snm>
                   <fnm>EM</fnm>
                </au>
                <au>
                   <snm>McDonald</snm>
                   <fnm>WC</fnm>
                </au>
             </aug>
             <source>Emerg Infect Dis</source>
             <pubdate>2003</pubdate>
             <volume>9</volume>
             <fpage>485</fpage>
             <lpage>488</lpage>
             <xrefbib>
                <pubidlist>
                   <pubid idtype="doi">10.3201/eid0904.020576</pubid>
                   <pubid idtype="pmpid" link="fulltext">12702232</pubid>
                </pubidlist>
             </xrefbib>
          </bibl>
          <bibl id="B11">
             <title>
                <p>Human exposure to <it>Brucella</it> recovered from a sea mammal</p>
             </title>
             <aug>
                <au>
                   <snm>Brew</snm>
                   <fnm>SD</fnm>
                </au>
                <au>
                   <snm>Perrett</snm>
                   <fnm>LL</fnm>
                </au>
                <au>
                   <snm>Stack</snm>
                   <fnm>JA</fnm>
                </au>
                <au>
                   <snm>MacMillan</snm>
                   <fnm>AP</fnm>
                </au>
                <au>
                   <snm>Staunton</snm>
                   <fnm>NJ</fnm>
                </au>
             </aug>
             <source>Vet Rec</source>
             <pubdate>1999</pubdate>
             <volume>144</volume>
             <fpage>483</fpage>
             <xrefbib>
                <pubidlist>
                   <pubid idtype="pmpid" link="fulltext">10358880</pubid>
                </pubidlist>
             </xrefbib>
          </bibl>
          <bibl id="B12">
             <title>
                <p>Characterization of a <it>Brucella</it> sp. strain as a marine-mammal type despite isolation from a patient with spinal osteomyelitis in New Zealand</p>
             </title>
             <aug>
                <au>
                   <snm>McDonald</snm>
                   <fnm>WL</fnm>
                </au>
                <au>
                   <snm>Jamaludin</snm>
                   <fnm>R</fnm>
                </au>
                <au>
                   <snm>Mackereth</snm>
                   <fnm>G</fnm>
                </au>
                <au>
                   <snm>Hansen</snm>
                   <fnm>M</fnm>
                </au>
                <au>
                   <snm>Humphrey</snm>
                   <fnm>S</fnm>
                </au>
                <au>
                   <snm>Short</snm>
                   <fnm>P</fnm>
                </au>
                <au>
                   <snm>Taylor</snm>
                   <fnm>T</fnm>
                </au>
                <au>
                   <snm>Swingler</snm>
                   <fnm>J</fnm>
                </au>
                <au>
                   <snm>Dawson</snm>
                   <fnm>CE</fnm>
                </au>
                <au>
                   <snm>Whatmore</snm>
                   <fnm>AM</fnm>
                </au>
                <au>
                   <snm>Stubberfield</snm>
                   <fnm>E</fnm>
                </au>
                <au>
                   <snm>Perrett</snm>
                   <fnm>LL</fnm>
                </au>
                <au>
                   <snm>Simmons</snm>
                   <fnm>G</fnm>
                </au>
             </aug>
             <source>J Clin Microbiol</source>
             <pubdate>2006</pubdate>
             <volume>44</volume>
             <fpage>4363</fpage>
             <lpage>4370</lpage>
             <xrefbib>
                <pubidlist>
                   <pubid idtype="doi">10.1128/JCM.00680-06</pubid>
                   <pubid idtype="pmpid" link="fulltext">17035490</pubid>
                </pubidlist>
             </xrefbib>
          </bibl>
          <bibl id="B13">
             <aug>
                <au>
                   <snm>Brubaker</snm>
                   <fnm>M</fnm>
                </au>
                <au>
                   <snm>Berner</snm>
                   <fnm>J</fnm>
                </au>
                <au>
                   <snm>Butler</snm>
                   <fnm>J</fnm>
                </au>
                <au>
                   <snm>Bradley</snm>
                   <fnm>M</fnm>
                </au>
             </aug>
             <source>Brucellosis: Understanding an Important Arctic Infectious Disease</source>
             <publisher>Center for Climate and Health, Anchorage Alaska</publisher>
             <pubdate>2010</pubdate>
          </bibl>
          <bibl id="B14">
             <title>
                <p>Interactions of the human pathogenic <it>Brucella</it> species with their hosts</p>
             </title>
             <aug>
                <au>
                   <snm>Atluri</snm>
                   <fnm>VL</fnm>
                </au>
                <au>
                   <snm>Xavier</snm>
                   <fnm>MN</fnm>
                </au>
                <au>
                   <snm>de Jong</snm>
                   <fnm>MF</fnm>
                </au>
                <au>
                   <snm>den Hartigh</snm>
                   <fnm>AB</fnm>
                </au>
                <au>
                   <snm>Tsolis</snm>
                   <fnm>RM</fnm>
                </au>
             </aug>
             <source>Annu Rev Microbiol</source>
             <pubdate>2011</pubdate>
             <volume>65</volume>
             <fpage>523</fpage>
             <lpage>541</lpage>
             <xrefbib>
                <pubidlist>
                   <pubid idtype="doi">10.1146/annurev-micro-090110-102905</pubid>
                   <pubid idtype="pmpid" link="fulltext">21939378</pubid>
                </pubidlist>
             </xrefbib>
          </bibl>
          <bibl id="B15">
             <title>
                <p>Long-term persistence of <it>Coxiella burnetii</it> in the host after primary Q fever</p>
             </title>
             <aug>
                <au>
                   <snm>Harris</snm>
                   <fnm>RJ</fnm>
                </au>
                <au>
                   <snm>Storm</snm>
                   <fnm>PA</fnm>
                </au>
                <au>
                   <snm>Lloyd</snm>
                   <fnm>A</fnm>
                </au>
                <au>
                   <snm>Arens</snm>
                   <fnm>M</fnm>
                </au>
                <au>
                   <snm>Marmion</snm>
                   <fnm>BP</fnm>
                </au>
             </aug>
             <source>Epidemiol Infect</source>
             <pubdate>2000</pubdate>
             <volume>124</volume>
             <fpage>543</fpage>
             <lpage>549</lpage>
             <xrefbib>
                <pubidlist>
                   <pubid idtype="doi">10.1017/S0950268899003763</pubid>
                   <pubid idtype="pmpid" link="fulltext">10982079</pubid>
                </pubidlist>
             </xrefbib>
          </bibl>
          <bibl id="B16">
             <title>
                <p>Long-term persistence of <it>Coxiella burnetii</it> after acute primary Q fever</p>
             </title>
             <aug>
                <au>
                   <snm>Marmion</snm>
                   <fnm>BP</fnm>
                </au>
                <au>
                   <snm>Storm</snm>
                   <fnm>PA</fnm>
                </au>
                <au>
                   <snm>Ayres</snm>
                   <fnm>JG</fnm>
                </au>
                <au>
                   <snm>Semendric</snm>
                   <fnm>L</fnm>
                </au>
                <au>
                   <snm>Mathews</snm>
                   <fnm>L</fnm>
                </au>
                <au>
                   <snm>Winslow</snm>
                   <fnm>W</fnm>
                </au>
                <au>
                   <snm>Turra</snm>
                   <fnm>M</fnm>
                </au>
                <au>
                   <snm>Harris</snm>
                   <fnm>RJ</fnm>
                </au>
             </aug>
             <source>QJM</source>
             <pubdate>2005</pubdate>
             <volume>98</volume>
             <fpage>7</fpage>
             <lpage>20</lpage>
             <xrefbib>
                <pubidlist>
                   <pubid idtype="doi">10.1093/qjmed/hci009</pubid>
                   <pubid idtype="pmpid" link="fulltext">15625349</pubid>
                </pubidlist>
             </xrefbib>
          </bibl>
          <bibl id="B17">
             <title>
                <p>
                   <it>Coxiella burnetii</it> in northern fur seals and steller sea lions of Alaska</p>
             </title>
             <aug>
                <au>
                   <snm>Minor</snm>
                   <fnm>C</fnm>
                </au>
                <au>
                   <snm>Kersh</snm>
                   <fnm>GJ</fnm>
                </au>
                <au>
                   <snm>Gelatt</snm>
                   <fnm>T</fnm>
                </au>
                <au>
                   <snm>Kondas</snm>
                   <fnm>AV</fnm>
                </au>
                <au>
                   <snm>Pabilonia</snm>
                   <fnm>KL</fnm>
                </au>
                <au>
                   <snm>Weller</snm>
                   <fnm>CB</fnm>
                </au>
                <au>
                   <snm>Dickerson</snm>
                   <fnm>BR</fnm>
                </au>
                <au>
                   <snm>Duncan</snm>
                   <fnm>CG</fnm>
                </au>
             </aug>
             <source>J Wildlife Dis</source>
             <pubdate>2013</pubdate>
             <volume>49</volume>
             <fpage>441</fpage>
             <lpage>446</lpage>
             <xrefbib>
                <pubidlist>
                   <pubid idtype="doi">10.7589/2012-09-226</pubid>
                </pubidlist>
             </xrefbib>
          </bibl>
          <bibl id="B18">
             <url>http://www.epi.hss.state.ak.us/bulletins/docs/b2014_01.pdf</url>
<note>Brubaker M, Berner J, Crowder C, Pletnikoff K, Duncan C: <b>Q Fever in Alaska - update.</b>
                <it>Alaska Epi Bull</it> 2014. .</note>
          </bibl>
          <bibl id="B19">
             <title>
                <p>Seroprevalence of Q fever in the United States, 2003-2004</p>
             </title>
             <aug>
                <au>
                   <snm>Anderson</snm>
                   <fnm>AD</fnm>
                </au>
                <au>
                   <snm>Kruszon-Moran</snm>
                   <fnm>D</fnm>
                </au>
                <au>
                   <snm>Loftis</snm>
                   <fnm>AD</fnm>
                </au>
                <au>
                   <snm>McQuillan</snm>
                   <fnm>G</fnm>
                </au>
                <au>
                   <snm>Nicholson</snm>
                   <fnm>WL</fnm>
                </au>
                <au>
                   <snm>Priestley</snm>
                   <fnm>RA</fnm>
                </au>
                <au>
                   <snm>Candee</snm>
                   <fnm>AJ</fnm>
                </au>
                <au>
                   <snm>Patterson</snm>
                   <fnm>NE</fnm>
                </au>
                <au>
                   <snm>Massung</snm>
                   <fnm>RF</fnm>
                </au>
             </aug>
             <source>J Trop Med Hyg</source>
             <pubdate>2009</pubdate>
             <volume>81</volume>
             <fpage>691</fpage>
             <lpage>694</lpage>
             <xrefbib>
                <pubidlist>
                   <pubid idtype="doi">10.4269/ajtmh.2009.09-0168</pubid>
                </pubidlist>
             </xrefbib>
          </bibl>
          <bibl id="B20">
             <url>http://www.nmfs.noaa.gov/pr/pdfs/conservation/plan_nfs_dec2007.pdf</url>
<note>National Marine Fisheries Service: <b>Conservation plan for the eastern pacific stock of northern fur seal (</b>
                <b>
                   <it>Callorhinus ursinus</it>
                </b>
                <b>).</b>
                <it>National Marine Fisheries Service</it> 2007, <b>&#4447;:</b>&#4447;. .</note>
          </bibl>
          <bibl id="B21">
             <title>
                <p>Doughnut Ring&#8212;shaped epithelioid granulomas in the bone marrow of a patient with Q fever</p>
             </title>
             <aug>
                <au>
                   <snm>Kreisel</snm>
                   <fnm>F</fnm>
                </au>
             </aug>
             <source>Int J Surg Pathol</source>
             <pubdate>2007</pubdate>
             <volume>15</volume>
             <fpage>172</fpage>
             <lpage>173</lpage>
             <xrefbib>
                <pubidlist>
                   <pubid idtype="doi">10.1177/1066896906299074</pubid>
                   <pubid idtype="pmpid" link="fulltext">17478774</pubid>
                </pubidlist>
             </xrefbib>
          </bibl>
          <bibl id="B22">
             <title>
                <p>Q fever after a journey in Syria: a diagnosis suggested by bone marrow biopsy</p>
             </title>
             <aug>
                <au>
                   <snm>Bottieau</snm>
                   <fnm>E</fnm>
                </au>
                <au>
                   <snm>De Raeve</snm>
                   <fnm>H</fnm>
                </au>
                <au>
                   <snm>Colebunders</snm>
                   <fnm>R</fnm>
                </au>
                <au>
                   <snm>Van den Ende</snm>
                   <fnm>J</fnm>
                </au>
                <au>
                   <snm>Vervoort</snm>
                   <fnm>T</fnm>
                </au>
                <au>
                   <snm>Van Marck</snm>
                   <fnm>E</fnm>
                </au>
             </aug>
             <source>Acta Clin Belg</source>
             <pubdate>2000</pubdate>
             <volume>55</volume>
             <fpage>30</fpage>
             <lpage>33</lpage>
             <xrefbib>
                <pubidlist>
                   <pubid idtype="pmpid" link="fulltext">10783505</pubid>
                </pubidlist>
             </xrefbib>
          </bibl>
          <bibl id="B23">
             <title>
                <p>Acute Q fever with hemophagocytic syndrome: case report and literature review</p>
             </title>
             <aug>
                <au>
                   <snm>Chen</snm>
                   <fnm>TC</fnm>
                </au>
                <au>
                   <snm>Chang</snm>
                   <fnm>K</fnm>
                </au>
                <au>
                   <snm>Lu</snm>
                   <fnm>PL</fnm>
                </au>
                <au>
                   <snm>Liu</snm>
                   <fnm>YC</fnm>
                </au>
                <au>
                   <snm>Chen</snm>
                   <fnm>YH</fnm>
                </au>
                <au>
                   <snm>Hsieh</snm>
                   <fnm>HC</fnm>
                </au>
                <au>
                   <snm>Yang</snm>
                   <fnm>WC</fnm>
                </au>
                <au>
                   <snm>Lin</snm>
                   <fnm>WR</fnm>
                </au>
                <au>
                   <snm>Tsai</snm>
                   <fnm>JJ</fnm>
                </au>
                <au>
                   <snm>Lin</snm>
                   <fnm>SF</fnm>
                </au>
             </aug>
             <source>Scand J Infect Dis</source>
             <pubdate>2006</pubdate>
             <volume>38</volume>
             <fpage>1119</fpage>
             <lpage>1122</lpage>
             <xrefbib>
                <pubidlist>
                   <pubid idtype="doi">10.1080/00365540600684405</pubid>
                   <pubid idtype="pmpid" link="fulltext">17148093</pubid>
                </pubidlist>
             </xrefbib>
          </bibl>
       </refgrp>
    </bm>
 </art>
