<art>
    <ui>s13045-014-0079-z</ui>
    <ji>1756-8722</ji>
    <fm>
       <dochead>Letter to the Editor</dochead>
       <bibl>
          <title>
             <p>Potential therapeutic role of antagomiR17 for the treatment of chronic lymphocytic leukemia</p>
          </title>
          <aug>
             <au id="A1">
                <snm>Dereani</snm>
                <fnm>Sara</fnm>
                <insr iid="I1"/>
                <email>sarettahd85@gmail.com</email>
             </au>
             <au id="A2">
                <snm>Macor</snm>
                <fnm>Paolo</fnm>
                <insr iid="I2"/>
                <email>pmacor@units.it</email>
             </au>
             <au id="A3">
                <snm>D&#8217;Agaro</snm>
                <fnm>Tiziana</fnm>
                <insr iid="I1"/>
                <email>tizi.daggy@gmail.com</email>
             </au>
             <au id="A4">
                <snm>Mezzaroba</snm>
                <fnm>Nelly</fnm>
                <insr iid="I2"/>
                <email>nellymezza@hotmail.com</email>
             </au>
             <au id="A5">
                <snm>Dal-Bo</snm>
                <fnm>Michele</fnm>
                <insr iid="I1"/>
                <email>mdalbo@cro.it</email>
             </au>
             <au id="A6">
                <snm>Capolla</snm>
                <fnm>Sara</fnm>
                <insr iid="I2"/>
                <email>sara_capolla@libero.it</email>
             </au>
             <au id="A7">
                <snm>Zucchetto</snm>
                <fnm>Antonella</fnm>
                <insr iid="I1"/>
                <email>zucchetto.soecs@cro.it</email>
             </au>
             <au id="A8">
                <snm>Tissino</snm>
                <fnm>Erika</fnm>
                <insr iid="I1"/>
                <email>kappatix@hotmail.it</email>
             </au>
             <au id="A9">
                <snm>Del Poeta</snm>
                <fnm>Giovanni</fnm>
                <insr iid="I3"/>
                <email>g.delpoeta@tin.it</email>
             </au>
             <au id="A10">
                <snm>Zorzet</snm>
                <fnm>Sonia</fnm>
                <insr iid="I2"/>
                <email>zorzet@units.it</email>
             </au>
             <au id="A11" ca="yes">
                <snm>Gattei</snm>
                <fnm>Valter</fnm>
                <insr iid="I1"/>
                <email>vgattei@cro.it</email>
             </au>
             <au id="A12" ca="yes">
                <snm>Bomben</snm>
                <fnm>Riccardo</fnm>
                <insr iid="I1"/>
                <email>rbomben@cro.it</email>
             </au>
          </aug>
          <insg>
             <ins id="I1">
                <p>Clinical and Experimental Onco-Hematology Unit, Centro di Riferimento Oncologico, I.R.C.C.S., Via Franco Gallini 2, Aviano, PN, Italy</p>
             </ins>
             <ins id="I2">
                <p>Department of Life Sciences, University of Trieste, Trieste, Italy</p>
             </ins>
             <ins id="I3">
                <p>Division of Hematology, S.Eugenio Hospital and University of Tor Vergata, Rome, Italy</p>
             </ins>
          </insg>
          <source>Journal of Hematology &amp; Oncology</source>
          <issn>1756-8722</issn>
          <pubdate>2014</pubdate>
          <volume>7</volume>
          <issue>1</issue>
          <fpage>79</fpage>
          <url>http://www.jhoonline.org/content/7/1/79</url>
          <xrefbib>
             <pubidlist>
                <pubid idtype="doi">10.1186/s13045-014-0079-z</pubid>
                <pubid idtype="pmpid"><!-- Need to check source for data--></pubid>
             </pubidlist>
          </xrefbib>
       </bibl>
       <history>
          <rec>
             <date>
                <day>17</day>
                <month>7</month>
                <year>2014</year>
             </date>
          </rec>
          <acc>
             <date>
                <day>12</day>
                <month>10</month>
                <year>2014</year>
             </date>
          </acc>
          <pub>
             <date>
                <day>23</day>
                <month>10</month>
                <year>2014</year>
             </date>
          </pub>
       </history>
       <cpyrt>
          <year>2014</year>
          <collab>Dereani et al.; licensee BioMed Central Ltd.</collab>
          <note>This is an Open Access article distributed under the terms of the Creative Commons Attribution License (<url>http://creativecommons.org/licenses/by/4.0</url>), which permits unrestricted use, distribution, and reproduction in any medium, provided the original work is properly credited. The Creative Commons Public Domain Dedication waiver (<url>http://creativecommons.org/publicdomain/zero/1.0/</url>) applies to the data made available in this article, unless otherwise stated.</note>
       </cpyrt>
       <kwdg>
          <kwd>CLL</kwd>
          <kwd>MicroRNA</kwd>
          <kwd>miR-17</kwd>
          <kwd>AntagomiR17</kwd>
       </kwdg>
       <abs>
          <sec>
             <st>
                <p>Abstract</p>
             </st>
             <p>Recently it was reported that microRNA from the <it>miR-17&#8201;~&#8201;92</it> family may have a key role in chronic lymphocytic leukemia (CLL). Here, we designed specific oligonucleotides to target endogenous <it>miR-17</it> (antagomiR17). In-vitro administration of antagomiR17 effectively reduced <it>miR-17</it> expression and the proliferation of CLL-like MEC-1 cells. When injected in-vivo in tumor generated by the MEC-1 cells in SCID mice, antagomiR17 dramatically reduced tumor growth and significantly increase survival. Altogether, our results provide the rationale for the use of antagomiR17 as a novel potential therapeutic tool in CLL and in other lymphoproliferative disorders where <it>miR-17</it> has a driver role in tumor progression.</p>
          </sec>
       </abs>
    </fm>
    <bdy>
       <sec>
          <st>
             <p>1
 						Findings</p>
          </st>
          <p>We have recently reported that microRNA from the <it>miR-17&#8201;~&#8201;92</it> family may be responsible for the increased proliferation/survival in chronic lymphocytic leukemia (CLL) cells expressing unmutated (UM) <it>IGHV</it> genes and with high level of ZAP-70 <abbrgrp>
                <abbr bid="B1">1</abbr>
             </abbrgrp>. In particular, the enforced expression of <it>miR-17</it> reduced the expression of the tumor suppressor genes <it>E2F5</it>, <it>TP53INP1</it>, <it>TRIM8</it> and <it>ZBTB4</it>, and protected CLL cells from apoptosis <abbrgrp>
                <abbr bid="B1">1</abbr>
             </abbrgrp>. Here, we provide evidences that the abrogation of <it>miR-17</it> expression by a specific antagomiR is sufficient to inhibit leukemic growth and progression both in-vitro and in-vivo.</p>
          <p>Peripheral blood samples from CLL patients were obtained in accordance with local Institutional Review Board requirements and declaration of Helsinki. CLL cell stimulation, microRNA and gene expression were performed as reported <abbrgrp>
                <abbr bid="B1">1</abbr>
             </abbrgrp>,<abbrgrp>
                <abbr bid="B2">2</abbr>
             </abbrgrp>. MEC-1 CLL-like cell line was transfected with a molecule against <it>miR-17</it> (hereafter antagomiR17), or scrambled control. In in-vivo experiments, tumors generated by MEC-1 cells into severe combined immunodeficiency (SCID) mice were treated with antagomiR17, scrambled control, or saline solution (see Additional file <supplr sid="S1">1</supplr>).</p><p>The MEC-1 cell line expressed <it>miR-17</it> levels comparable to those of CLL samples in which proliferation is triggered by CpG-ODN (Figure&#160;<figr fid="F1">1</figr>a). In MEC-1 cells, antagomiR17 transfection significantly reduced <it>miR-17</it> expression respect to scrambled control, both at day 2 (mean fold change 0.84&#8201;&#177;&#8201;0.06; <it>P&#8201;=&#8201;0.049</it>) and at day 4 (mean fold change 0.48&#8201;&#177;&#8201;0.14; <it>P&#8201;=&#8201;0.021</it>; Figure&#160;<figr fid="F1">1</figr>b). Moreover, the <it>TP53INP1</it>, <it>TRIM8</it> and <it>ZBTB4</it> expression showed a significant up-regulation after antagomiR17 treatment both at transcript and protein levels (Figure&#160;<figr fid="F1">1</figr>c,d). Finally, MEC-1 cells showed a significant reduction (<it>P&#8201;=&#8201;0.033</it>) of cell rate proliferation when transfected with antagomiR17 (Figure&#160;<figr fid="F1">1</figr>e). Complementary experiments performed using sorting procedures after transfecting MEC-1 cells with a Cy3-labelled antagomiR17 (Cy3-antagomiR17, Additional file <supplr sid="S2">2</supplr>: Figure S1a) showed that the Cy3-antagomiR17 bright fraction presented a significant decrease in cell proliferation respect to the Cy3-antagomiR17 dim fraction at day 7 (<it>P&#8201;=&#8201;0.008</it>; Additional file <supplr sid="S2">2</supplr>: Figure S1b). Notably, using a Cy3-labelled scrambled control no difference in MEC-1 cell proliferation was observed (Additional file <supplr sid="S2">2</supplr>: Figure S1c,d). Altogether, these data demonstrated that antagomiR17 administration effectively reduced the expression of <it>miR-17</it> and cell proliferation.</p>
             <fig id="F1">
                <title>
                   <p>Figure 1</p>
                </title>
                <caption>
                   <p>In-vitro experiments. (a)</p>
                </caption>
                <text>
                   <p>
                      <b>In-vitro experiments. (a)</b>
                      <it>miR-17</it> expression level in primary UM IGHV CLL cells left unstimulated (control) or stimulated with CpG-ODN (CpG) and in MEC-1 cell lines, as investigated by quantitative real-time polymerase chain reaction (qRT-PCR). Data represent mean&#8201;&#177;&#8201;SEM. <b>(b)</b> Expression of <it>miR-17</it> in MEC-1 cells transfected with antagomiR17 or scrambled control. <it>miR-17</it> expression was evaluated by qRT-PCR at different time-points (2 and 4&#160;days). Data represent mean&#8201;&#177;&#8201;SEM of three replicates. P values (Student&#8217;s t-test) for each time-point are shown. *<it>P&#8201;&lt;&#8201;0.05</it> (antagomiR17 <it>versus</it> scrambled control). <b>(c)</b> Expression of <it>TRIM8</it>, <it>ZBTB4</it>, and <it>TP53INP1</it> in MEC-1 cells transfected with antagomiR17 or scrambled control. Gene expression was evaluated by qRT-PCR at different time-points (2 and 4&#160;days). Data represent mean&#8201;&#177;&#8201;SEM of three replicates. P values (Student&#8217;s t-test) for each time-point are shown. *<it>P&#8201;&lt;&#8201;0.05</it> (antagomiR17 <it>versus</it> scrambled control). <b>(d)</b> Effects of antagomiR17 transfection on TP53INP1, TRIM8 and ZBTB4 protein levels in MEC-1 cells. Protein expression levels were measured by Western blot experiment. Lower panel. Relative TP53INP1, TRIM8 and ZBTB4 protein expression levels of MEC-1 cells transfected with antagomiR17 or scrambled control assessed by Western blot. &#946;<b>-</b>Actin levels were used as loading control in all cases. Upper panel. In all graphs values are represented as mean fold expression with respect to transfection with scrambled control. Data represent mean&#8201;&#177;&#8201;SEM of four replicates. P values (Student&#8217;s t-test) for each time-point are shown. *<it>P&#8201;&lt;&#8201;0.05</it> (antagomiR17 <it>versus</it> scrambled control). <b>(e)</b> Proliferation of MEC-1 cells transfected antagomiR17. MEC-1 cells were transfected with antagomiR17 or scrambled control and counted once a day for four days. Dotted line indicates scrambled control transfected cells and solid line indicates antagomiR17 transfected cells. P value (Student&#8217;s t-test) is shown. Data represent mean&#8201;&#177;&#8201;SEM of three biological replicates.</p>
                </text>
                <graphic file="s13045-014-0079-z-1"/>
             </fig>
          
          <p>Tumors generated by MEC-1 cells injected into SCID mice were treated three times (day 1-8-15) either with antagomiR17 or scrambled control. AntagomiR17 dramatically inhibited tumor growth; this effect, already relevant after the first week of therapy, was maintained till the end of the treatment (Figure&#160;<figr fid="F2">2</figr>a) leading to the complete regression of the mass in 1/5 (20%) of cases (not shown). Conversely, administration of the scrambled control resulted in a tumor growth kinetic superimposable to saline-treated tumors (Figure&#160;<figr fid="F2">2</figr>a). Of note, a single injection of antagomiR17 was sufficient to significantly reduce tumor growth for at least two weeks after treatment (Additional file <supplr sid="S2">2</supplr>: Figure S1e). Consistently, median overall survival (OS) of mice treated with antagomiR17 was significantly longer than median OS of mice treated with scrambled control (91 <it>versus</it> 52&#160;days, respectively, <it>P&#8201;=&#8201;0.0018</it>) or saline solution (91 <it>versus</it> 51&#160;days, respectively, <it>P&#8201;=&#8201;0.0044</it>) (Figure&#160;<figr fid="F2">2</figr>b). Notably, none of the mice showed signs of toxicity. Altogether, these results demonstrate that in-vivo treatment with antagomiR17 significantly abolishes tumor growth and increases survival.</p>
             <fig id="F2">
                <title>
                   <p>Figure 2</p>
                </title>
                <caption>
                   <p>In-vivo experiments. (a)</p>
                </caption>
                <text>
                   <p>
                      <b>In-vivo experiments. (a)</b> Treatment of mice with antagomiR17 inhibits in vivo tumor growth. Plot represents growth curves of tumor-bearing SCID mice treated with either antagomiR17 (5 mice) or scrambled control (5 mice) or saline solution (5 mice) for three times/2&#160;weeks (injections are indicated by arrows). The mass volume of the tumors was measured every two/three days and reported as tumor mass (mg). Dashed, dotted, and solid line indicate mice treated with saline solution, scrambled control, and antagomiR17, respectively. Data represent mean&#8201;&#177;&#8201;s.d. of five biological replicates. *<it>P&#8201;&lt;&#8201;0.05</it> (antagomiR17 <it>versus</it> scrambled control), **<it>P&#8201;&lt;&#8201;0.01</it> (antagomiR17 <it>versus</it> scrambled control). <b>(b)</b> AntagomiR17 treatment is associated with increased survival. Kaplan-Meier curves showing percentage of survival probability of tumor-bearing SCID mice treated with antagomiR17 (5 mice) or scrambled control (5 mice) or saline solution (5 mice). Dashed, dotted, and solid line indicate Kaplan-Meier curves of mice treated with saline solution (median OS 52&#160;days), scrambled control (median OS 52&#160;days), and antagomiR17 (median OS 91&#160;days), respectively. The reported P value refers to log-rank test.</p>
                </text>
                <graphic file="s13045-014-0079-z-2"/>
             </fig>
          
          <p>Evidences reported here underline that <it>miR-17</it> knockdown is sufficient to block CLL-like cells proliferation both in-vitro and in-vivo. Clinically, despite recent treatment advances, some CLL seem to be refractory to the new drugs <abbrgrp>
                <abbr bid="B3">3</abbr>
             </abbrgrp>-<abbrgrp>
                <abbr bid="B5">5</abbr>
             </abbrgrp>. In this context, antagomiR treatment may represent a commendable alternative, also considering recent antagomiR phase II trials <abbrgrp>
                <abbr bid="B6">6</abbr>
             </abbrgrp>-<abbrgrp>
                <abbr bid="B8">8</abbr>
             </abbrgrp>. This strategy could be extended to other lymphoproliferative disorders where <it>miR-17&#8201;~&#8201;92</it> amplification and/or overexpression have a pathogenetic role <abbrgrp>
                <abbr bid="B9">9</abbr>
             </abbrgrp>,<abbrgrp>
                <abbr bid="B10">10</abbr>
             </abbrgrp>. In conclusion, our results highlight the therapeutic potential of antagomiR17, providing the rationale for its use also in the context of specific target delivering systems (e.g. nanoparticles).</p>
       </sec>
       <sec>
          <st>
             <p>Competing interests</p>
          </st>
          <p>The authors declare no competing financial interests.</p>
       </sec>
       <sec>
          <st>
             <p>Authors&#8217; contributions</p>
          </st>
          <p>SD, PM performed research, and contributed to write the manuscript; TDA, NM, MDB, SC, AZ, ET performed research and in vivo experiments; GDP provided patients data; SZ, in vivo experiments; VG, RB designed the study and wrote the manuscript. All authors read and approved the final manuscript.</p>
       </sec>
       <sec>
          <st>
             <p>Authors&#8217; information</p>
          </st>
          <p>Sara Dereani and Paolo Macor contributed to this study as first authors.</p>
          <p>Valter Gattei and Riccardo Bomben equally contributed to this study as senior authors.</p>
       </sec>
       <sec>
          <st>
             <p>Additional files</p>
          </st>
          <suppl id="S1">
             <title>
                <p>Additional file 1:</p>
             </title>
             <text>
                <p>
                   <b>Supplemental material and methods.</b>
                </p>
             </text>
             <file name="s13045-014-0079-z-S1.docx">
                <p>Click here for file</p>
             </file>
          </suppl>
          <suppl id="S2">
             <title>
                <p>Additional file 2: Figure S1.</p>
             </title>
             <text>
                <p>In-vitro control experiments.</p>
             </text>
             <file name="s13045-014-0079-z-S2.pdf">
                <p>Click here for file</p>
             </file>
          </suppl>
          
       </sec>
    </bdy>
    <bm>
       <ack>
          <sec>
             <st>
                <p>Acknowledgements</p>
             </st>
             <p>Supported in part by: Ministero della Salute (Ricerca Finalizzata I.R.C.C.S., &#8220;Alleanza Contro il Cancro&#8221;; Rete Nazionale Bio-Informatica Oncologica/RN-BIO; Progetto Giovani Ricercatori n. GR-2011-02347441, n. GR-2009-1475467, n. GR-2008-1138053, Ministero della Salute, Rome, Italy; Fondazione Internazionale di Ricerca in Medicina Sperimentale (FIRMS); Associazione Italiana contro le Leucemie, linfomi e mielomi (AIL), Venezia Section, Pramaggiore Group, Italy; Ricerca Scientifica Applicata, Regione Friuli Venezia Giulia (&#8220;Linfonet&#8221; Project), Trieste, Italy; the Associazione Italiana Ricerca Cancro (AIRC), Grants n. IG-13227, MFAG-10327, Milan, Italy; &#8220;5x1000 Intramural Program&#8221;, Centro di Riferimento Oncologico, Aviano, Italy.</p>
          </sec>
       </ack>
       <refgrp>
          
          <bibl id="B1">
             <title>
                <p>The miR-17-92 family regulates the response to Toll-like receptor 9 triggering of CLL cells with unmutated IGHV genes</p>
             </title>
             <aug>
                <au>
                   <snm>Bomben</snm>
                   <fnm>R</fnm>
                </au>
                <au>
                   <snm>Gobessi</snm>
                   <fnm>S</fnm>
                </au>
                <au>
                   <snm>Dal</snm>
                   <fnm>BM</fnm>
                </au>
                <au>
                   <snm>Volinia</snm>
                   <fnm>S</fnm>
                </au>
                <au>
                   <snm>Marconi</snm>
                   <fnm>D</fnm>
                </au>
                <au>
                   <snm>Tissino</snm>
                   <fnm>E</fnm>
                </au>
                <au>
                   <snm>Benedetti</snm>
                   <fnm>D</fnm>
                </au>
                <au>
                   <snm>Zucchetto</snm>
                   <fnm>A</fnm>
                </au>
                <au>
                   <snm>Rossi</snm>
                   <fnm>D</fnm>
                </au>
                <au>
                   <snm>Gaidano</snm>
                   <fnm>G</fnm>
                </au>
                <au>
                   <snm>Del</snm>
                   <fnm>PG</fnm>
                </au>
                <au>
                   <snm>Laurenti</snm>
                   <fnm>L</fnm>
                </au>
                <au>
                   <snm>Efremov</snm>
                   <fnm>DG</fnm>
                </au>
                <au>
                   <snm>Gattei</snm>
                   <fnm>V</fnm>
                </au>
             </aug>
             <source>Leukemia</source>
             <pubdate>2012</pubdate>
             <volume>26</volume>
             <fpage>1584</fpage>
             <lpage>1593</lpage>
             <xrefbib>
                <pubidlist>
                   <pubid idtype="doi">10.1038/leu.2012.44</pubid>
                   <pubid idtype="pmpid" link="fulltext">22343732</pubid>
                </pubidlist>
             </xrefbib>
          </bibl>
          <bibl id="B2">
             <title>
                <p>Expression of mutated IGHV3-23 genes in chronic lymphocytic leukemia identifies a disease subset with peculiar clinical and biological features</p>
             </title>
             <aug>
                <au>
                   <snm>Bomben</snm>
                   <fnm>R</fnm>
                </au>
                <au>
                   <snm>Dal-Bo</snm>
                   <fnm>M</fnm>
                </au>
                <au>
                   <snm>Benedetti</snm>
                   <fnm>D</fnm>
                </au>
                <au>
                   <snm>Capello</snm>
                   <fnm>D</fnm>
                </au>
                <au>
                   <snm>Forconi</snm>
                   <fnm>F</fnm>
                </au>
                <au>
                   <snm>Marconi</snm>
                   <fnm>D</fnm>
                </au>
                <au>
                   <snm>Bertoni</snm>
                   <fnm>F</fnm>
                </au>
                <au>
                   <snm>Maffei</snm>
                   <fnm>R</fnm>
                </au>
                <au>
                   <snm>Laurenti</snm>
                   <fnm>L</fnm>
                </au>
                <au>
                   <snm>Rossi</snm>
                   <fnm>D</fnm>
                </au>
                <au>
                   <snm>Del Principe</snm>
                   <fnm>MI</fnm>
                </au>
                <au>
                   <snm>Luciano</snm>
                   <fnm>F</fnm>
                </au>
                <au>
                   <snm>Sozzi</snm>
                   <fnm>E</fnm>
                </au>
                <au>
                   <snm>Cattarossi</snm>
                   <fnm>I</fnm>
                </au>
                <au>
                   <snm>Zucchetto</snm>
                   <fnm>A</fnm>
                </au>
                <au>
                   <snm>Rossi</snm>
                   <fnm>FM</fnm>
                </au>
                <au>
                   <snm>Bulian</snm>
                   <fnm>P</fnm>
                </au>
                <au>
                   <snm>Zucca</snm>
                   <fnm>E</fnm>
                </au>
                <au>
                   <snm>Nicoloso</snm>
                   <fnm>MS</fnm>
                </au>
                <au>
                   <snm>Degan</snm>
                   <fnm>M</fnm>
                </au>
                <au>
                   <snm>Marasca</snm>
                   <fnm>R</fnm>
                </au>
                <au>
                   <snm>Efremov</snm>
                   <fnm>DG</fnm>
                </au>
                <au>
                   <snm>Del</snm>
                   <fnm>PG</fnm>
                </au>
                <au>
                   <snm>Gaidano</snm>
                   <fnm>G</fnm>
                </au>
                <au>
                   <snm>Gattei</snm>
                   <fnm>V</fnm>
                </au>
             </aug>
             <source>Clin Cancer Res</source>
             <pubdate>2010</pubdate>
             <volume>16</volume>
             <fpage>620</fpage>
             <lpage>628</lpage>
             <xrefbib>
                <pubidlist>
                   <pubid idtype="doi">10.1158/1078-0432.CCR-09-1638</pubid>
                   <pubid idtype="pmpid" link="fulltext">20068100</pubid>
                </pubidlist>
             </xrefbib>
          </bibl>
          <bibl id="B3">
             <title>
                <p>Targeting BTK with ibrutinib in relapsed chronic lymphocytic leukemia</p>
             </title>
             <aug>
                <au>
                   <snm>Byrd</snm>
                   <fnm>JC</fnm>
                </au>
                <au>
                   <snm>Furman</snm>
                   <fnm>RR</fnm>
                </au>
                <au>
                   <snm>Coutre</snm>
                   <fnm>SE</fnm>
                </au>
                <au>
                   <snm>Flinn</snm>
                   <fnm>IW</fnm>
                </au>
                <au>
                   <snm>Burger</snm>
                   <fnm>JA</fnm>
                </au>
                <au>
                   <snm>Blum</snm>
                   <fnm>KA</fnm>
                </au>
                <au>
                   <snm>Grant</snm>
                   <fnm>B</fnm>
                </au>
                <au>
                   <snm>Sharman</snm>
                   <fnm>JP</fnm>
                </au>
                <au>
                   <snm>Coleman</snm>
                   <fnm>M</fnm>
                </au>
                <au>
                   <snm>Wierda</snm>
                   <fnm>WG</fnm>
                </au>
                <au>
                   <snm>Jones</snm>
                   <fnm>JA</fnm>
                </au>
                <au>
                   <snm>Zhao</snm>
                   <fnm>W</fnm>
                </au>
                <au>
                   <snm>Heerema</snm>
                   <fnm>NA</fnm>
                </au>
                <au>
                   <snm>Johnson</snm>
                   <fnm>AJ</fnm>
                </au>
                <au>
                   <snm>Sukbuntherng</snm>
                   <fnm>J</fnm>
                </au>
                <au>
                   <snm>Chang</snm>
                   <fnm>BY</fnm>
                </au>
                <au>
                   <snm>Clow</snm>
                   <fnm>F</fnm>
                </au>
                <au>
                   <snm>Hedrick</snm>
                   <fnm>E</fnm>
                </au>
                <au>
                   <snm>Buggy</snm>
                   <fnm>JJ</fnm>
                </au>
                <au>
                   <snm>James</snm>
                   <fnm>DF</fnm>
                </au>
                <au>
                   <snm>O&#8217;Brien</snm>
                   <fnm>S</fnm>
                </au>
             </aug>
             <source>N Engl J Med</source>
             <pubdate>2013</pubdate>
             <volume>369</volume>
             <fpage>32</fpage>
             <lpage>42</lpage>
             <xrefbib>
                <pubidlist>
                   <pubid idtype="doi">10.1056/NEJMoa1215637</pubid>
                   <pubid idtype="pmpid" link="fulltext">23782158</pubid>
                </pubidlist>
             </xrefbib>
          </bibl>
          <bibl id="B4">
             <title>
                <p>NF-kB pathway mutations modulate cell survival and ibrutinib response in chronic lymphocytic leukemia</p>
             </title>
             <aug>
                <au>
                   <snm>Tiao</snm>
                   <fnm>G</fnm>
                </au>
                <au>
                   <snm>Kiezun</snm>
                   <fnm>A</fnm>
                </au>
                <au>
                   <snm>Wang</snm>
                   <fnm>Y</fnm>
                </au>
                <au>
                   <snm>Werner</snm>
                   <fnm>L</fnm>
                </au>
                <au>
                   <snm>Sougnez</snm>
                   <fnm>C</fnm>
                </au>
                <au>
                   <snm>Tesar</snm>
                   <fnm>B</fnm>
                </au>
                <au>
                   <snm>Fernandes</snm>
                   <fnm>SM</fnm>
                </au>
                <au>
                   <snm>Vartanov</snm>
                   <fnm>AR</fnm>
                </au>
                <au>
                   <snm>Hoang</snm>
                   <fnm>K</fnm>
                </au>
                <au>
                   <snm>Neuberg</snm>
                   <fnm>DS</fnm>
                </au>
                <au>
                   <snm>Getz</snm>
                   <fnm>G</fnm>
                </au>
                <au>
                   <snm>Brown</snm>
                   <fnm>JR</fnm>
                </au>
             </aug>
             <source>Blood</source>
             <pubdate>2013</pubdate>
             <volume>122</volume>
             <fpage>670</fpage>
          </bibl>
          <bibl id="B5">
             <title>
                <p>Clonal evolution in patients with chronic lymphocytic leukemia (CLL) developing resistance to BTK inhibition</p>
             </title>
             <aug>
                <au>
                   <snm>Landau</snm>
                   <fnm>D</fnm>
                </au>
                <au>
                   <snm>Hoellenriegel</snm>
                   <fnm>J</fnm>
                </au>
                <au>
                   <snm>Sougnez</snm>
                   <fnm>C</fnm>
                </au>
                <au>
                   <snm>Schlesner</snm>
                   <fnm>M</fnm>
                </au>
                <au>
                   <snm>Ishaque</snm>
                   <fnm>N</fnm>
                </au>
                <au>
                   <snm>Brors</snm>
                   <fnm>B</fnm>
                </au>
                <au>
                   <snm>Keating</snm>
                   <fnm>MJ</fnm>
                </au>
                <au>
                   <snm>Wierda</snm>
                   <fnm>WG</fnm>
                </au>
                <au>
                   <snm>Cibulskis</snm>
                   <fnm>K</fnm>
                </au>
                <au>
                   <snm>Kantarjian</snm>
                   <fnm>HM</fnm>
                </au>
                <au>
                   <snm>O&#8217;Brien</snm>
                   <fnm>SM</fnm>
                </au>
                <au>
                   <snm>Neuberg</snm>
                   <fnm>DS</fnm>
                </au>
                <au>
                   <snm>Zenz</snm>
                   <fnm>T</fnm>
                </au>
                <au>
                   <snm>Getz</snm>
                   <fnm>G</fnm>
                </au>
                <au>
                   <snm>Wu</snm>
                   <fnm>CJ</fnm>
                </au>
             </aug>
             <source>Blood</source>
             <pubdate>2013</pubdate>
             <volume>122</volume>
             <fpage>866</fpage>
          </bibl>
          <bibl id="B6">
             <title>
                <p>The therapeutic potential of microRNAs in cancer</p>
             </title>
             <aug>
                <au>
                   <snm>Thorsen</snm>
                   <fnm>SB</fnm>
                </au>
                <au>
                   <snm>Obad</snm>
                   <fnm>S</fnm>
                </au>
                <au>
                   <snm>Jensen</snm>
                   <fnm>NF</fnm>
                </au>
                <au>
                   <snm>Stenvang</snm>
                   <fnm>J</fnm>
                </au>
                <au>
                   <snm>Kauppinen</snm>
                   <fnm>S</fnm>
                </au>
             </aug>
             <source>Cancer J</source>
             <pubdate>2012</pubdate>
             <volume>18</volume>
             <fpage>275</fpage>
             <lpage>284</lpage>
             <xrefbib>
                <pubidlist>
                   <pubid idtype="doi">10.1097/PPO.0b013e318258b5d6</pubid>
                   <pubid idtype="pmpid" link="fulltext">22647365</pubid>
                </pubidlist>
             </xrefbib>
          </bibl>
          <bibl id="B7">
             <title>
                <p>Treatment of HCV infection by targeting microRNA</p>
             </title>
             <aug>
                <au>
                   <snm>Janssen</snm>
                   <fnm>HL</fnm>
                </au>
                <au>
                   <snm>Reesink</snm>
                   <fnm>HW</fnm>
                </au>
                <au>
                   <snm>Lawitz</snm>
                   <fnm>EJ</fnm>
                </au>
                <au>
                   <snm>Zeuzem</snm>
                   <fnm>S</fnm>
                </au>
                <au>
                   <snm>Rodriguez-Torres</snm>
                   <fnm>M</fnm>
                </au>
                <au>
                   <snm>Patel</snm>
                   <fnm>K</fnm>
                </au>
                <au>
                   <snm>van der Meer</snm>
                   <fnm>AJ</fnm>
                </au>
                <au>
                   <snm>Patick</snm>
                   <fnm>AK</fnm>
                </au>
                <au>
                   <snm>Chen</snm>
                   <fnm>A</fnm>
                </au>
                <au>
                   <snm>Zhou</snm>
                   <fnm>Y</fnm>
                </au>
                <au>
                   <snm>Persson</snm>
                   <fnm>R</fnm>
                </au>
                <au>
                   <snm>King</snm>
                   <fnm>BD</fnm>
                </au>
                <au>
                   <snm>Kauppinen</snm>
                   <fnm>S</fnm>
                </au>
                <au>
                   <snm>Levin</snm>
                   <fnm>AA</fnm>
                </au>
                <au>
                   <snm>Hodges</snm>
                   <fnm>MR</fnm>
                </au>
             </aug>
             <source>N Engl J Med</source>
             <pubdate>2013</pubdate>
             <volume>368</volume>
             <fpage>1685</fpage>
             <lpage>1694</lpage>
             <xrefbib>
                <pubidlist>
                   <pubid idtype="doi">10.1056/NEJMoa1209026</pubid>
                   <pubid idtype="pmpid" link="fulltext">23534542</pubid>
                </pubidlist>
             </xrefbib>
          </bibl>
          <bibl id="B8">
             <title>
                <p>Silencing of microRNAs in vivo with &#8216;antagomirs&#8217;</p>
             </title>
             <aug>
                <au>
                   <snm>Krutzfeldt</snm>
                   <fnm>J</fnm>
                </au>
                <au>
                   <snm>Rajewsky</snm>
                   <fnm>N</fnm>
                </au>
                <au>
                   <snm>Braich</snm>
                   <fnm>R</fnm>
                </au>
                <au>
                   <snm>Rajeev</snm>
                   <fnm>KG</fnm>
                </au>
                <au>
                   <snm>Tuschl</snm>
                   <fnm>T</fnm>
                </au>
                <au>
                   <snm>Manoharan</snm>
                   <fnm>M</fnm>
                </au>
                <au>
                   <snm>Stoffel</snm>
                   <fnm>M</fnm>
                </au>
             </aug>
             <source>Nature</source>
             <pubdate>2005</pubdate>
             <volume>438</volume>
             <fpage>685</fpage>
             <lpage>689</lpage>
             <xrefbib>
                <pubidlist>
                   <pubid idtype="doi">10.1038/nature04303</pubid>
                   <pubid idtype="pmpid" link="fulltext">16258535</pubid>
                </pubidlist>
             </xrefbib>
          </bibl>
          <bibl id="B9">
             <title>
                <p>Molecular subtypes of diffuse large B-cell lymphoma arise by distinct genetic pathways</p>
             </title>
             <aug>
                <au>
                   <snm>Lenz</snm>
                   <fnm>G</fnm>
                </au>
                <au>
                   <snm>Wright</snm>
                   <fnm>GW</fnm>
                </au>
                <au>
                   <snm>Emre</snm>
                   <fnm>NC</fnm>
                </au>
                <au>
                   <snm>Kohlhammer</snm>
                   <fnm>H</fnm>
                </au>
                <au>
                   <snm>Dave</snm>
                   <fnm>SS</fnm>
                </au>
                <au>
                   <snm>Davis</snm>
                   <fnm>RE</fnm>
                </au>
                <au>
                   <snm>Carty</snm>
                   <fnm>S</fnm>
                </au>
                <au>
                   <snm>Lam</snm>
                   <fnm>LT</fnm>
                </au>
                <au>
                   <snm>Shaffer</snm>
                   <fnm>AL</fnm>
                </au>
                <au>
                   <snm>Xiao</snm>
                   <fnm>W</fnm>
                </au>
                <au>
                   <snm>Powell</snm>
                   <fnm>J</fnm>
                </au>
                <au>
                   <snm>Rosenwald</snm>
                   <fnm>A</fnm>
                </au>
                <au>
                   <snm>Ott</snm>
                   <fnm>G</fnm>
                </au>
                <au>
                   <snm>Muller-Hermelink</snm>
                   <fnm>HK</fnm>
                </au>
                <au>
                   <snm>Gascoyne</snm>
                   <fnm>RD</fnm>
                </au>
                <au>
                   <snm>Connors</snm>
                   <fnm>JM</fnm>
                </au>
                <au>
                   <snm>Campo</snm>
                   <fnm>E</fnm>
                </au>
                <au>
                   <snm>Jaffe</snm>
                   <fnm>ES</fnm>
                </au>
                <au>
                   <snm>Delabie</snm>
                   <fnm>J</fnm>
                </au>
                <au>
                   <snm>Smeland</snm>
                   <fnm>EB</fnm>
                </au>
                <au>
                   <snm>Rimsza</snm>
                   <fnm>LM</fnm>
                </au>
                <au>
                   <snm>Fisher</snm>
                   <fnm>RI</fnm>
                </au>
                <au>
                   <snm>Weisenburger</snm>
                   <fnm>DD</fnm>
                </au>
                <au>
                   <snm>Chan</snm>
                   <fnm>WC</fnm>
                </au>
                <au>
                   <snm>Staudt</snm>
                   <fnm>LM</fnm>
                </au>
             </aug>
             <source>Proc Natl Acad Sci USA</source>
             <pubdate>2008</pubdate>
             <volume>105</volume>
             <fpage>13520</fpage>
             <lpage>13525</lpage>
             <xrefbib>
                <pubidlist>
                   <pubid idtype="doi">10.1073/pnas.0804295105</pubid>
                   <pubid idtype="pmpid" link="fulltext">18765795</pubid>
                </pubidlist>
             </xrefbib>
          </bibl>
          <bibl id="B10">
             <title>
                <p>Identification and characterization of a novel gene, C13orf25, as a target for 13q31-q32 amplification in malignant lymphoma</p>
             </title>
             <aug>
                <au>
                   <snm>Ota</snm>
                   <fnm>A</fnm>
                </au>
                <au>
                   <snm>Tagawa</snm>
                   <fnm>H</fnm>
                </au>
                <au>
                   <snm>Karnan</snm>
                   <fnm>S</fnm>
                </au>
                <au>
                   <snm>Tsuzuki</snm>
                   <fnm>S</fnm>
                </au>
                <au>
                   <snm>Karpas</snm>
                   <fnm>A</fnm>
                </au>
                <au>
                   <snm>Kira</snm>
                   <fnm>S</fnm>
                </au>
                <au>
                   <snm>Yoshida</snm>
                   <fnm>Y</fnm>
                </au>
                <au>
                   <snm>Seto</snm>
                   <fnm>M</fnm>
                </au>
             </aug>
             <source>Cancer Res</source>
             <pubdate>2004</pubdate>
             <volume>64</volume>
             <fpage>3087</fpage>
             <lpage>3095</lpage>
             <xrefbib>
                <pubidlist>
                   <pubid idtype="doi">10.1158/0008-5472.CAN-03-3773</pubid>
                   <pubid idtype="pmpid" link="fulltext">15126345</pubid>
                </pubidlist>
             </xrefbib>
          </bibl>
       </refgrp>
    </bm>
 </art>
