<art>
    <ui>s13000-014-0214-8</ui>
    <ji>1746-1596</ji>
    <fm>
       <dochead>Research</dochead>
       <bibl>
          <title>
             <p>Gemcitabine fixed-dose rate infusion for the treatment of pancreatic carcinoma: a meta-analysis of randomized controlled trials</p>
          </title>
          <aug>
             <au id="A1">
                <snm>Xie</snm>
                <fnm>Jiqing</fnm>
                <insr iid="I1"/>
                <email>fqwangnj@163.com</email>
             </au>
             <au id="A2">
                <snm>Yuan</snm>
                <fnm>Jing</fnm>
                <insr iid="I2"/>
                <email>yunlinn@163.com</email>
             </au>
             <au id="A3" ca="yes">
                <snm>Lu</snm>
                <fnm>Laichun</fnm>
                <insr iid="I3"/>
                <email>laichun_lu@126.com</email>
             </au>
          </aug>
          <insg>
             <ins id="I1">
                <p>Department of Pharmacy, General Hospital of Jinan Military Command, Jinan 250031, China</p>
             </ins>
             <ins id="I2">
                <p>Department of Medical Information, General Hospital of Jinan Military Command, Jinan 250031, China</p>
             </ins>
             <ins id="I3">
                <p>Department of Pharmacy, Institute of Surgery Research, Daping Hospital, Third Military Medical University, Changjiang Road 10, Chongqing 400042, China</p>
             </ins>
          </insg>
          <source>Diagnostic Pathology</source>
          <issn>1746-1596</issn>
          <pubdate>2014</pubdate>
          <volume>9</volume>
          <issue>1</issue>
          <fpage>214</fpage>
          <url>http://www.diagnosticpathology.org/content/9/1/214</url>
          <xrefbib>
             <pubidlist>
                <pubid idtype="doi">10.1186/s13000-014-0214-8</pubid>
             </pubidlist>
          </xrefbib>
       </bibl>
       <history>
          <rec>
             <date>
                <day>6</day>
                <month>9</month>
                <year>2014</year>
             </date>
          </rec>
          <acc>
             <date>
                <day>26</day>
                <month>10</month>
                <year>2014</year>
             </date>
          </acc>
          <pub>
             <date>
                <day>25</day>
                <month>11</month>
                <year>2014</year>
             </date>
          </pub>
       </history>
       <cpyrt>
          <year>2014</year>
          <collab>Xie et al.; licensee BioMed Central Ltd.</collab>
          <note>This is an Open Access article distributed under the terms of the Creative Commons Attribution License (<url>http://creativecommons.org/licenses/by/4.0</url>), which permits unrestricted use, distribution, and reproduction in any medium, provided the original work is properly credited. The Creative Commons Public Domain Dedication waiver (<url>http://creativecommons.org/publicdomain/zero/1.0/</url>) applies to the data made available in this article, unless otherwise stated.</note>
       </cpyrt>
       <kwdg>
          <kwd>Gemcitabine</kwd>
          <kwd>Fixed-dose rate</kwd>
          <kwd>Pancreatic adenocarcinoma</kwd>
          <kwd>Meta-analysis</kwd>
       </kwdg>
       <abs>
          <sec>
             <st>
                <p>Abstract</p>
             </st>
             <sec>
                <st>
                   <p>Background</p>
                </st>
                <p>Pre-clinical evidence shows that fixed dose rate (FDR) infusion of gemcitabine could optimize plasma concentration of gemcitabine, while the clinical efficacy and toxicity of FDR infusion of gemcitabine in advanced pancreatic carcinoma has not been systematically investigated. Thus, this meta-analysis was designed to ascertain this issue.</p>
             </sec>
             <sec>
                <st>
                   <p>Methods</p>
                </st>
                <p>Databases of EMBASE, PubMed, and Cochrane Library were searched for eligible randomized controlled trials (RCTs). RCTs comparing FDR and standard 30-min infusion of gemcitabine in advanced pancreatic carcinoma were included. The primary endpoints were treatment efficacy (overall response rate, 1-year survival rate, median survival, and time to treatment failure) and toxicities were secondary endpoints (neutropenia, thrombocytopenia, anemia, and vomiting). Relative risks or mean differences and corresponding 95% confidence intervals (CIs) were calculated.</p>
             </sec>
             <sec>
                <st>
                   <p>Result</p>
                </st>
                <p>After careful and rigorous selection, 3 eligible RCTs including 764 patients of advanced pancreatic adenocarcinoma were included in this meta-analysis. For treatment efficacy, FDR gemcitabine provided significantly longer median survival over standard gemcitabine (Mean Difference&#8201;=&#8201;1.24&#160;months, 95% CI: 0.39-2.09), while there was no statistical difference in other endpoints of treatment efficacy. For toxicities, patients with FDR gemcitabine experienced significantly more grade 3/4 hematological toxicities than those received standard gemcitabine (neutropenia, thrombocytopenia, and anemia), while there was no difference for vomiting.</p>
             </sec>
             <sec>
                <st>
                   <p>Conclusion</p>
                </st>
                <p>Compared with standard 30-min infusion, FDR gemcitabine provide longer median survival, but increased the risk of hematological toxicities for patients with advanced pancreatic adenocarcinoma.</p>
             </sec>
             <sec>
                <st>
                   <p>Virtual Slides</p>
                </st>
                <p>The virtual slide(s) for this article can be found here: <url>http://www.diagnosticpathology.diagnomx.eu/vs/13000_2014_214</url>
                  </p>
             </sec>
          </sec>
       </abs>
    </fm>
    <bdy>
       <sec>
          <st>
             <p>Background</p>
          </st>
          <p>Pancreatic adenocarcinoma is one of the most aggressive solid malignancies and the eighth most common cause of cancer death worldwide <abbrgrp>
                <abbr bid="B1">1</abbr>
             </abbrgrp>. Due to early metastatic dissemination, the prognosis of pancreatic adenocarcinoma is extremely poor and the 5-year survival rate is only 6% <abbrgrp>
                <abbr bid="B2">2</abbr>
             </abbrgrp>.</p>
          <p>The majority of pancreatic adenocarcinoma patients are diagnosed at advanced stage and when diagnosed, the tumor is often metastasized. Therefore, systemic chemotherapy is often the treatment of choice. The administration of gemcitabine is widely used due to the evidence of clinical benefit and prolonged survival over fluorouracil <abbrgrp>
                <abbr bid="B3">3</abbr>
             </abbrgrp>. While the objective response rate and survival of gemcitabine chemotherapy is still disappointing. Gemcitabine is usually administered in a manner of 30&#160;minutes intravenous infusion, while pharmacokinetic evidence suggests that fixed-dose rate infusion (10&#160;mg/m<sup>2</sup>/min) of gemcitabine could optimize plasma concentration of gemcitabine <abbrgrp>
                <abbr bid="B4">4</abbr>
             </abbrgrp>&#8211;<abbrgrp>
                <abbr bid="B6">6</abbr>
             </abbrgrp>. In 2012, Qiu et al. reported FDR gemcitabine could not improve survival or response rate over standard gemcitabine in non-small cell lung cancer <abbrgrp>
                <abbr bid="B7">7</abbr>
             </abbrgrp>. For pancreatic adenocarcinoma, FDR gemcitabine and standard gemcitabine have been compared in several randomized clinical trials (RCTs) <abbrgrp>
                <abbr bid="B8">8</abbr>
             </abbrgrp>&#8211;<abbrgrp>
                <abbr bid="B10">10</abbr>
             </abbrgrp>, but no meta-analysis has been performed to systematically investigate the effects of FDR gemcitabine on treatment efficacy or toxicity. Thus, this meta-analysis was designed to compare the difference between FDR gemcitabine and standard gemcitabine in the treatment efficacy and toxic effects among patients with advanced pancreatic adenocarcinoma.</p>
       </sec>
       <sec>
          <st>
             <p>Methods</p>
          </st>
          <sec>
             <st>
                <p>Searching strategy</p>
             </st>
             <p>Electronic databases of MEDLINE (via PubMed), EMBASE (via Ovid), and Cochrane Library were searched and the latest search was performed on September 2014. The searching strategy consisted of the following medical subheadings and key words: &#8220;pancreatic neoplasms&#8221;, &#8220;pancreas cancer&#8221;, &#8220;pancreatic cancer&#8221;, &#8220;fixed-dose rate&#8221;, &#8220;fixed dose rate&#8221;, &#8220;fixed-dose-rate&#8221;, &#8220;fixed dose-rate&#8221;, &#8220;prolonged infusion&#8221; and &#8220;prolonged constant infusion&#8221;. The detailed searching strategy was shown in the Additional file <supplr sid="S1">1</supplr>. References of eligible trials and relative reviews were also manually searched. There was no limitation in databases searching.</p></sec>
          <sec>
             <st>
                <p>Inclusion criteria</p>
             </st>
             <p>Trials met the following criteria were included: (a) randomized controlled trials; (b) patients were pathologically confirmed of pancreatic carcinoma at advanced stage; (c) comparing FDR infusion (10&#160;mg/m2/min) and standard infusion (30&#160;min) of gemcitabine; and (d) published with full-text articles. Two investigators (Jiqing Xie and Jing Yuan) selected eligible trials met above criteria independently. Disagreement between two investigators was solved by discussion until consensus was achieved.</p>
          </sec>
          <sec>
             <st>
                <p>Data abstraction</p>
             </st>
             <p>Two investigators (Jiqing Xie and Jing Yuan) extracted data from eligible trials independently with a pre-designed data extraction form. And disagreement was discussed with another expert (Laichun Lu) until consensus was achieved. The following data were abstracted from each eligible clinical trial: first author, publishing time, country, chemotherapy regimens, number of patients, age, number of male, number of patients with metastatic pancreatic carcinoma, number of patients with complete response and partial response, 1-year survival rate, median survival, time to treatment failure, grade 3/4 hematological and non-hematological toxicities. Tumor response was measured according to Response Evaluation Criteria in Solid Tumors (RECIST). National Cancer Institute Common Toxicity Criteria version 3.0 was used for toxicity reporting. The research protocol was in strict compliance with the institutional guidelines of the Ethics Committee at the Third Military Medical University.</p>
          </sec>
          <sec>
             <st>
                <p>Validity assessment</p>
             </st>
             <p>Methodology quality of included trials was also assessed using the &#8220;risk of bias&#8221; tool recommended by Cochrane Handbook V5.0.2. Sequence generation, allocation concealment, blinding, incomplete data and selective reporting were assessed. Based on the methods reported in each trial, each of above five components was graded &#8220;yes&#8221;, &#8220;unknown&#8221; or &#8221;no&#8221;, which meant low risk of bias, uncertain of bias and low risk of bias respectively.</p>
          </sec>
          <sec>
             <st>
                <p>Statistical analysis</p>
             </st>
             <p>The primary endpoints were treatment efficacy (overall response rate, 1-year survival rate, median survival, and time to treatment failure) and toxicities were secondary endpoints (neutropenia, thrombocytopenia, anemia, and vomiting). Mean differences were calculated for median survival and time to treatment failure. Relative risks (RRs) were calculated for the other endpoints. 95% confidence intervals (95% CI) were also calculated for all endpoints. A RR with a 95% CI without 1 and the mean difference with a 95% CI without 0 is considered of statistical significance. Fixed-effects model was used for calculating RRs and median differences unless heterogeneity was significant across trials <abbrgrp>
                   <abbr bid="B11">11</abbr>
                </abbrgrp>. A RR &gt;1 indicates that FDR infusion is associated with a higher incidence of response, 1-year survival rate and lower incidence of grade 3/4 toxicities; and a mean difference &gt;0 suggests that the FDR infusion of gemcitabine increases the median survival and time to treatment failure. Heterogeneity was tested using the Q-statistic and I<sup>2</sup>. A P value less than 0.1 or I<sup>2</sup>&#8201;&gt;&#8201;50% indicated that there existed significant heterogeneity <abbrgrp>
                   <abbr bid="B11">11</abbr>
                </abbrgrp>. A funnel plot was used to test publication bias <abbrgrp>
                   <abbr bid="B12">12</abbr>
                </abbrgrp>,<abbrgrp>
                   <abbr bid="B13">13</abbr>
                </abbrgrp>. All statistical analyses were carried out by Review Manager 5 (Version 5.2, The Cochrane Collaboration).</p>
          </sec>
       </sec>
       <sec>
          <st>
             <p>Results</p>
          </st>
          <p>After comprehensive database searching, 216 records were retrieved. By screening titles and abstracts and further reviewing of full-text papers, 3 eligible RCTs were included and analyzed in this meta-analysis. The process of study selection was shown in Figure&#160;<figr fid="F1">1</figr>. The baseline characteristics of eligible trials were shown in Table&#160;<tblr tid="T1">1</tblr>. 764 patients with confirmed pancreatic adenocarcinoma contributed to the pooled meta-analysis. Most of enrolled patients had metastatic pancreatic carcinoma.
                  
                </p>
          
             <fig id="F1">
                <title>
                   <p>Figure 1</p>
                </title>
                <caption>
                   <p>Flow Diagram of Study Selection. </p>
                </caption>
                <text>
                   <p>
                          <b>Flow Diagram of Study Selection.</b>                        
                   </p>
                </text>
                <graphic file="s13000-014-0214-8-1"/>
             </fig>
          
          
             <table id="T1">
                <title>
                   <p>Table 1</p>
                </title>
                <caption>
                   <p>
                          <b>Baseline characteristics of eligible trials</b>                        
                   </p>
                </caption>
                <tgroup align="left" cols="8">
                   <colspec align="left" colname="c1" colnum="1" colwidth="*"/>
                   <colspec align="left" colname="c2" colnum="2" colwidth="*"/>
                   <colspec align="left" colname="c3" colnum="3" colwidth="*"/>
                   <colspec align="left" colname="c4" colnum="4" colwidth="*"/>
                   <colspec align="left" colname="c5" colnum="5" colwidth="*"/>
                   <colspec align="left" colname="c6" colnum="6" colwidth="*"/>
                   <colspec align="left" colname="c7" colnum="7" colwidth="*"/>
                   <colspec align="left" colname="c8" colnum="8" colwidth="*"/>
                   <thead>
                      <row valign="top">
                         <entry colname="c1">
                            <p>
                              <b>Author</b>                            
                            </p>
                         </entry>
                         <entry colname="c2">
                            <p>
                              <b>Year</b>                            
                            </p>
                         </entry>
                         <entry colname="c3">
                            <p>
                              <b>Country</b>                            
                            </p>
                         </entry>
                         <entry colname="c4">
                            <p>
                              <b>Num</b>                              
                               <sup>
                                  <b>a</b> 
                               </sup>
                            </p>
                         </entry>
                         <entry colname="c5">
                            <p>
                              <b>Male</b>                            
                            </p>
                         </entry>
                         <entry colname="c6">
                            <p>
                              <b>Age</b>                              
                               <sup>
                                  <b>b</b> 
                               </sup>
                            </p>
                         </entry>
                         <entry colname="c7">
                            <p>
                              <b>Metastasis</b>                            
                            </p>
                         </entry>
                         <entry colname="c8">
                            <p>
                              <b>Chemotherapy</b>                            
                            </p>
                         </entry>
                      </row>
                   </thead>
                   <tfoot>
                      <p>a: Number of patients analyzed, b: data are present as median and range.</p>
                   </tfoot>
                   <tbody>
                      <row valign="top">
                         <entry colname="c1">
                            <p>
                              <b>Kulke MH</b>                            
                            </p>
                         </entry>
                         <entry colname="c2">
                            <p>2009</p>
                         </entry>
                         <entry colname="c3">
                            <p>USA</p>
                         </entry>
                         <entry colname="c4">
                            <p>58</p>
                         </entry>
                         <entry colname="c5">
                            <p>38</p>
                         </entry>
                         <entry colname="c6">
                            <p>58.9(31&#8211;81)</p>
                         </entry>
                         <entry colname="c7">
                            <p>58</p>
                         </entry>
                         <entry colname="c8">
                            <p>gemcitabine 1500&#160;mg/m<sup>2</sup> infusion 10&#160;mg/m<sup>2</sup>/min on days 1, 8, and 15, every 28&#160;days</p>
                         </entry>
                      </row>
                      <row valign="top">
                         <entry colname="c1"/>
                         <entry colname="c2"/>
                         <entry colname="c3"/>
                         <entry colname="c4">
                            <p>62</p>
                         </entry>
                         <entry colname="c5">
                            <p>35</p>
                         </entry>
                         <entry colname="c6">
                            <p>58.9(36&#8211;84)</p>
                         </entry>
                         <entry colname="c7">
                            <p>62</p>
                         </entry>
                         <entry colname="c8">
                            <p>gemcitabine 1000&#160;mg/m<sup>2</sup> 30-minute infusion d1, 8, and 15;Cisplatin 50&#160;mg/m<sup>2</sup> 30-minutes infusion on days 1 and 15, every 28&#160;days</p>
                         </entry>
                      </row>
                      <row valign="top">
                         <entry colname="c1">
                            <p>
                              <b>Poplin E</b>                            
                            </p>
                         </entry>
                         <entry colname="c2">
                            <p>2009</p>
                         </entry>
                         <entry colname="c3">
                            <p>USA</p>
                         </entry>
                         <entry colname="c4">
                            <p>277</p>
                         </entry>
                         <entry colname="c5">
                            <p>160</p>
                         </entry>
                         <entry colname="c6">
                            <p>61(36&#8211;87)</p>
                         </entry>
                         <entry colname="c7">
                            <p>246</p>
                         </entry>
                         <entry colname="c8">
                            <p>gemcitabine 1500&#160;mg/m<sup>2</sup> infusion at 10&#160;mg/m<sup>2</sup>/min&#160;days 1, 8, and 15 every 28&#160;days&#160;cycle</p>
                         </entry>
                      </row>
                      <row valign="top">
                         <entry colname="c1"/>
                         <entry colname="c2"/>
                         <entry colname="c3"/>
                         <entry colname="c4">
                            <p>275</p>
                         </entry>
                         <entry colname="c5">
                            <p>155</p>
                         </entry>
                         <entry colname="c6">
                            <p>64(31&#8211;88)</p>
                         </entry>
                         <entry colname="c7">
                            <p>248</p>
                         </entry>
                         <entry colname="c8">
                            <p>gemcitabine 1000&#160;mg/m<sup>2</sup>/30&#160;min weekly for 7&#160;week, rest 1&#160;week, then 1000&#160;mg/m<sup>2</sup>/30&#160;min weekly for 3&#160;week and rest 1&#160;week</p>
                         </entry>
                      </row>
                      <row valign="top">
                         <entry colname="c1">
                            <p>
                              <b>Tempero M</b>                            
                            </p>
                         </entry>
                         <entry colname="c2">
                            <p>2003</p>
                         </entry>
                         <entry colname="c3">
                            <p>USA</p>
                         </entry>
                         <entry colname="c4">
                            <p>43</p>
                         </entry>
                         <entry colname="c5">
                            <p>27</p>
                         </entry>
                         <entry colname="c6">
                            <p>62(42&#8211;85)</p>
                         </entry>
                         <entry colname="c7">
                            <p>38</p>
                         </entry>
                         <entry colname="c8">
                            <p>gemcitabine 1500&#160;mg/m<sup>2</sup> infusion at a rate of 10&#160;mg/m<sup>2</sup>/min, d1, 8, and 15</p>
                         </entry>
                      </row>
                      <row valign="top">
                         <entry colname="c1"/>
                         <entry colname="c2"/>
                         <entry colname="c3"/>
                         <entry colname="c4">
                            <p>49</p>
                         </entry>
                         <entry colname="c5">
                            <p>32</p>
                         </entry>
                         <entry colname="c6">
                            <p>62(31&#8211;89)</p>
                         </entry>
                         <entry colname="c7">
                            <p>46</p>
                         </entry>
                         <entry colname="c8">
                            <p>gemcitabine 2200&#160;mg/m<sup>2</sup> infusion over 30&#160;min,d1, 8, and 15</p>
                         </entry>
                      </row>
                   </tbody>
                </tgroup>
             </table>
          
          <sec>
             <st>
                <p>Primary endpoints</p>
             </st>
             <p>The primary object of this meta-analysis was to compare the differences of treatment efficacy between FDR gemcitabine and standard gemcitabine. To this end, we calculated the pooled 1-year survival rate, median survival, and overall response rate. As shown in Table&#160;<tblr tid="T2">2</tblr>, FDR gemcitabine provided a significantly long median survival (Mean Difference&#8201;=&#8201;1.24&#160;months, 95% CI: 0.39-2.09&#160;months; Figure&#160;<figr fid="F2">2</figr>) than standard gemcitabine, while there was no significant difference in overall response rate, 1-year survival rate, or time to treatment failure. As shown, no significant heterogeneity between studies were detected. Visual assessment of funnel plot did not reveal any evidence of publication bias (Figures not shown).
                    
                  </p>
             
                <table id="T2">
                   <title>
                      <p>Table 2</p>
                   </title>
                   <caption>
                      <p>
                            <b>Meta-analysis results</b>                          
                      </p>
                   </caption>
                   <tgroup align="left" cols="3">
                      <colspec align="left" colname="c1" colnum="1" colwidth="*"/>
                      <colspec align="left" colname="c2" colnum="2" colwidth="*"/>
                      <colspec align="left" colname="c3" colnum="3" colwidth="*"/>
                      <thead>
                         <row valign="top">
                            <entry colname="c1">
                               <p>
                                  <b>Outcome</b>                              
                               </p>
                            </entry>
                            <entry colname="c2">
                               <p>
                                  <b>RR</b>                                
                                  <sup>
                                     <b>a</b> 
                                  </sup>
                              </p>
                            </entry>
                            <entry colname="c3">
                               <p>
                                  <b>Heterogeneity</b>                              
                               </p>
                            </entry>
                         </row>
                      </thead>
                      <tfoot>
                         <p>a: RR with a 95% CI without 1 and the mean difference with a 95% CI without 0 is considered of statistical significance; b: for median survival and time to treatment failure, mean differences were calcluated.</p>
                      </tfoot>
                      <tbody>
                         <row valign="top">
                            <entry nameend="c3" namest="c1">
                               <p>
                                  <b>Primary Endpoints</b>                              
                               </p>
                            </entry>
                         </row>
                         <row valign="top">
                            <entry colname="c1">
                               <p>Overall response rate</p>
                            </entry>
                            <entry colname="c2">
                               <p>1.65 [0.99, 2.75]</p>
                            </entry>
                            <entry colname="c3">
                               <p>P&#8201;=&#8201;0.45, I2&#8201;=&#8201;0%</p>
                            </entry>
                         </row>
                         <row valign="top">
                            <entry colname="c1">
                               <p>1-year survival rate</p>
                            </entry>
                            <entry colname="c2">
                               <p>1.35 [0.98, 1.86]</p>
                            </entry>
                            <entry colname="c3">
                               <p>P&#8201;=&#8201;0.12,I2&#8201;=&#8201;59%</p>
                            </entry>
                         </row>
                         <row valign="top">
                            <entry colname="c1">
                               <p>Median Survival</p>
                            </entry>
                            <entry colname="c2">
                               <p>1.24 [0.39, 2.09]<sup>b</sup>
                              </p>
                            </entry>
                            <entry colname="c3">
                               <p>P&#8201;=&#8201;0.42,I2&#8201;=&#8201;0%</p>
                            </entry>
                         </row>
                         <row valign="top">
                            <entry colname="c1">
                               <p>Time to Treatment Failure</p>
                            </entry>
                            <entry colname="c2">
                               <p>0.54 [0.25, 1.33]<sup>b</sup>
                              </p>
                            </entry>
                            <entry colname="c3">
                               <p>P&#8201;=&#8201;0.22,I2&#8201;=&#8201;33%</p>
                            </entry>
                         </row>
                         <row valign="top">
                            <entry nameend="c3" namest="c1">
                               <p>
                                  <b>Secondary Endpoints</b>                              
                               </p>
                            </entry>
                         </row>
                         <row valign="top">
                            <entry colname="c1">
                               <p>Neutropenia</p>
                            </entry>
                            <entry colname="c2">
                               <p>1.79 [1.49, 2.15]</p>
                            </entry>
                            <entry colname="c3">
                               <p>P&#8201;=&#8201;0.92,I2&#8201;=&#8201;0%</p>
                            </entry>
                         </row>
                         <row valign="top">
                            <entry colname="c1">
                               <p>Thrombocytopenia</p>
                            </entry>
                            <entry colname="c2">
                               <p>2.19 [1.64, 2.93]</p>
                            </entry>
                            <entry colname="c3">
                               <p>P&#8201;=&#8201;0.50,I2&#8201;=&#8201;0%</p>
                            </entry>
                         </row>
                         <row valign="top">
                            <entry colname="c1">
                               <p>Anemia</p>
                            </entry>
                            <entry colname="c2">
                               <p>1.68 [1.15, 2.45]</p>
                            </entry>
                            <entry colname="c3">
                               <p>P&#8201;=&#8201;0.45,I2&#8201;=&#8201;0%</p>
                            </entry>
                         </row>
                         <row valign="top">
                            <entry colname="c1">
                               <p>Vomiting</p>
                            </entry>
                            <entry colname="c2">
                               <p>1.31 [0.89, 1.93]</p>
                            </entry>
                            <entry colname="c3">
                               <p>P&#8201;=&#8201;0.79,I2&#8201;=&#8201;0%</p>
                            </entry>
                         </row>
                      </tbody>
                   </tgroup>
                </table>
             
             
                <fig id="F2">
                   <title>
                      <p>Figure 2</p>
                   </title>
                   <caption>
                      <p>Forest plot for the comparison of median survival. </p>
                   </caption>
                   <text>
                      <p>
                            <b>Forest plot for the comparison of median survival.</b> FDR gemcitabine provided longer median survival than standard gemcitabine (Mean Difference&#8201;=&#8201;1.24&#160;months, 95% CI: 0.39-2.09). FDR: fixed-dose rate; SD: standard deviation; CI: confidence intervals.</p>
                   </text>
                   <graphic file="s13000-014-0214-8-2"/>
                </fig>
             
          </sec>
          <sec>
             <st>
                <p>Secondary endpoints</p>
             </st>
             <p>Grade 3/4 toxic events were the secondary endpoints of this meta-analysis. Neutropenia, thrombocytopenia, anemia and vomiting were analyzed. As shown in Table&#160;<tblr tid="T2">2</tblr>, compared with standard gemcitabine, FDR gemcitabine significantly increased the incidence of hematologic toxicities (neutropenia, thrombocytopenia, and anemia; compassion of neutropenia was shown in Figure&#160;<figr fid="F3">3</figr>), while there was no difference in the incidence of vomiting. As shown in Table&#160;<tblr tid="T2">2</tblr>, no evidence of heterogeneity was found. Funnel plots also showed no publication bias (Figures not shown).
                  </p>
             
                <fig id="F3">
                   <title>
                      <p>Figure 3</p>
                   </title>
                   <caption>
                      <p>Forest plot for the comparison of neutropenia. </p>
                   </caption>
                   <text>
                      <p>
                            <b>Forest plot for the comparison of neutropenia.</b> FDR gemcitabine significantly increased the risk of neutropenia (RR&#8201;=&#8201;1.79, 95% CI: 1.49-2.15). FDR: fixed-dose rate; CI: confidence intervals.</p>
                   </text>
                   <graphic file="s13000-014-0214-8-3"/>
                </fig>
             
          </sec>
       </sec>
       <sec>
          <st>
             <p>Discussion</p>
          </st>
          <p>In this meta-analysis, we found FDR gemcitabine, compared with standard gemcitabine, could provide longer median survival for patients with advanced pancreatic carcinoma, and patients received FDR gemcitabine would experience more hematological toxicities.</p>
          <p>Burris HA and colleagues reported in 1997 that single-agent gemcitabine administered as weekly 30-min infusion could offer significantly longer survival and clinical benefit than 5-fluorouracil <abbrgrp>
                <abbr bid="B3">3</abbr>
             </abbrgrp>. After that gemcitabine has been the standard chemotherapy for advancer pancreatic carcinoma. Gemcitabine (2&#8217;,2&#8217;-difluorodeoxycytidine) is a prodrug and potent cytotoxic agent. The deoxycytidine kinase phosphorylate gemcitabine to gemcitabine monophosphate, and subsequent phosphorylation steps yielded gemcitabine diphosphate and gemcitabine triphosphate, which are active metabolites of gemcitabine <abbrgrp>
                <abbr bid="B4">4</abbr>
             </abbrgrp>,<abbrgrp>
                <abbr bid="B14">14</abbr>
             </abbrgrp>. The gemcitabine triphosphate could inhibited cell proliferation and induce apoptosis by incorporation into DNA <abbrgrp>
                <abbr bid="B15">15</abbr>
             </abbrgrp>,<abbrgrp>
                <abbr bid="B16">16</abbr>
             </abbrgrp>. The deoxycytidine kinase is the rate-limiting enzyme in the accumulation of the active diphosphate and triphosphate metabolites <abbrgrp>
                <abbr bid="B4">4</abbr>
             </abbrgrp>. Grunewald et al. and Abbruzzese et al. demonstrated that the dose rate about 10&#160;mg/m2/min could maximize the rate of formation of gemcitabine triphosphate for mononuclear cells <abbrgrp>
                <abbr bid="B4">4</abbr>
             </abbrgrp>,<abbrgrp>
                <abbr bid="B6">6</abbr>
             </abbrgrp>. In addition to these pharmacokinetic studies and preclinical studies, Tempero et al. reported a randomized phase II trial in 2003 and found FDR gemcitabine significantly increased 1-year and 2-year survival rates compared with 30-min gemcitabine <abbrgrp>
                <abbr bid="B10">10</abbr>
             </abbrgrp>. In 2009, Poplin and colleagues showed that FDR gemcitabine could not provide substantially improved survival or symptom benefit over 30-min gemcitabine <abbrgrp>
                <abbr bid="B9">9</abbr>
             </abbrgrp>. Thus, we conducted this meta-analysis to compare the treatment efficacy and toxicity between FDR gemcitabine and 30-min gemcitabine in patients with advanced pancreatic adenocarcinoma.</p>
          <p>In this meta-analysis, we found FDR gemcitabine could only increase median survival of patients with pancreatic adenocarcinoma over standard gemcitabine, and there was no difference in overall response rate, 1-year survival rate, or time to treatment failure. This could be explained by the following reasons. First, the sample size or the number of eligible trials of this meta-analysis was small. As shown in Table&#160;<tblr tid="T2">2</tblr>, the results of overall response rate (RR&#8201;=&#8201;1.65, 95% CI: 0.99-2.75) and 1-year survival rate (RR&#8201;=&#8201;1.35, 95% CI: 0.98-1.86) were marginally significant, and it was highly possible that the results of response and 1-year survival would be statistically significant when further trials are reported. Second, most patients enrolled in this meta-analysis had metastatic disease (Table&#160;<tblr tid="T1">1</tblr>) and the prognosis of metastatic pancreatic cancer is very poor. This could explain why the median survival was significantly longer for patients received FDR gemcitabine but the 1-year survival rate was not significantly different. Because the prognosis for metastatistic patients was extremely poor and most patients died with one year. For toxicities, patients with FDR gemcitabine experienced substantially higher incidence of hematologic toxicities (neutropenia, thrombocytopenia, and anemia) than those with 30-min gemcitabine, but there was no difference in the incidence of vomiting. Compared with 30-min gemcitabine, the infusion time was prolonged for FDR gemcitabine (120&#160;min vs. 30&#160;min), and the exposure time for blood cells was longer. Thus, the results for hematologic toxicities were expectable. Additionally, it has also been demonstrated that FDR gemcitabine could increase the incidence of hematologic toxicities in non-small cell lung cancer by Qiu et al. <abbrgrp>
                <abbr bid="B7">7</abbr>
             </abbrgrp>.</p>
          <p>This is the first meta-analysis comparing treatment efficacy and toxicities between FDR gemcitabine and standard 30-min gemcitabine in pancreatic adenocarcinoma. No significant heterogeneity was found and funnel plots revealed no evidence of publication bias. Additionally, the evidence level of this meta-analysis was evaluated by the GRADE profiler, which facilitates the clinical application of our results. On the other hand, the major limitation of this meta-analysis lies in that the sample size of this meta-analysis was small. To include all potential trials, we designed comprehensive searching strategy and searched the 3 comprehensive databases. In spite of the effort to perform a comprehensive meta-analysis, only 3 eligible trials were included. Further studies are warranted to validate our findings.</p>
       </sec>
       <sec>
          <st>
             <p>Conclusions</p>
          </st>
          <p>In conclusion, our meta-analysis demonstrated that compared with standard 30-min gemcitabine, FDR gemcitabine provided longer median survival but there was no significant difference in overall response rate and 1-year survival rate in patients with advanced pancreatic adenocarcinoma, while FDR infusion was associated with more grade 3/4 hematological toxicities.</p>
       </sec>
       <sec>
          <st>
             <p>Competing interests</p>
          </st>
          <p>The authors declare that they have no competing interest.</p>
       </sec>
       <sec>
          <st>
             <p>Authors&#8217; contributions</p>
          </st>
          <p>XJ, YJ, and LL conceived, designed the study. XJ and LL analyzed the data. XJ, YJ, and LL wrote the paper. All authors read and approved the final manuscript.</p>
       </sec>
       <sec>
          <st>
             <p>Additional file</p>
          </st>
          <suppl id="S1">
             <title>
                <p>Additional file 1:</p>
             </title>
             <text>
                <p>
                              <b>Searching Strategy of this meta-analysis.</b>                            
                </p>
             </text>
             <file name="s13000-014-0214-8-S1.docx">
                <p>Click here for file</p>
             </file>
          </suppl>
          <p>
                    
                  </p>
       </sec>
    </bdy>
    <bm>
       <refgrp>
          
          <bibl id="B1">
             <title>
                <p>Global cancer statistics, 2002</p>
             </title>
             <aug>
                <au>
                   <snm>Parkin</snm>
                   <fnm>DM</fnm>
                </au>
                <au>
                   <snm>Bray</snm>
                   <fnm>F</fnm>
                </au>
                <au>
                   <snm>Ferlay</snm>
                   <fnm>J</fnm>
                </au>
                <au>
                   <snm>Pisani</snm>
                   <fnm>P</fnm>
                </au>
             </aug>
             <source>CA Cancer J Clin</source>
             <pubdate>2005</pubdate>
             <volume>55</volume>
             <fpage>74</fpage>
             <lpage>108</lpage>
             <xrefbib>
                <pubidlist>
                   <pubid idtype="doi">10.3322/canjclin.55.2.74</pubid>
                   <pubid idtype="pmpid" link="fulltext">15761078</pubid>
                </pubidlist>
             </xrefbib>
          </bibl>
          <bibl id="B2">
             <title>
                <p>Clinical cancer advances 2010: annual report on progress against cancer from the American Society of Clinical Oncology</p>
             </title>
             <aug>
                <au>
                   <snm>Kris</snm>
                   <fnm>MG</fnm>
                </au>
                <au>
                   <snm>Benowitz</snm>
                   <fnm>SI</fnm>
                </au>
                <au>
                   <snm>Adams</snm>
                   <fnm>S</fnm>
                </au>
                <au>
                   <snm>Diller</snm>
                   <fnm>L</fnm>
                </au>
                <au>
                   <snm>Ganz</snm>
                   <fnm>P</fnm>
                </au>
                <au>
                   <snm>Kahlenberg</snm>
                   <fnm>MS</fnm>
                </au>
                <au>
                   <snm>Le</snm>
                   <fnm>QT</fnm>
                </au>
                <au>
                   <snm>Markman</snm>
                   <fnm>M</fnm>
                </au>
                <au>
                   <snm>Masters</snm>
                   <fnm>GA</fnm>
                </au>
                <au>
                   <snm>Newman</snm>
                   <fnm>L</fnm>
                </au>
                <au>
                   <snm>Obel</snm>
                   <fnm>JC</fnm>
                </au>
                <au>
                   <snm>Seidman</snm>
                   <fnm>AD</fnm>
                </au>
                <au>
                   <snm>Smith</snm>
                   <fnm>SM</fnm>
                </au>
                <au>
                   <snm>Vogelzang</snm>
                   <fnm>N</fnm>
                </au>
                <au>
                   <snm>Petrelli</snm>
                   <fnm>NJ</fnm>
                </au>
             </aug>
             <source>J Clin Oncol</source>
             <pubdate>2010</pubdate>
             <volume>28</volume>
             <fpage>5327</fpage>
             <lpage>5347</lpage>
             <xrefbib>
                <pubidlist>
                   <pubid idtype="doi">10.1200/JCO.2010.33.2742</pubid>
                   <pubid idtype="pmpid" link="fulltext">21060039</pubid>
                </pubidlist>
             </xrefbib>
          </bibl>
          <bibl id="B3">
             <title>
                <p>Improvements in survival and clinical benefit with gemcitabine as first-line therapy for patients with advanced pancreas cancer: a randomized trial</p>
             </title>
             <aug>
                <au>
                   <snm>Burris</snm>
                   <fnm>HA</fnm>
                   <suf>3rd</suf>
                </au>
                <au>
                   <snm>Moore</snm>
                   <fnm>MJ</fnm>
                </au>
                <au>
                   <snm>Andersen</snm>
                   <fnm>J</fnm>
                </au>
                <au>
                   <snm>Green</snm>
                   <fnm>MR</fnm>
                </au>
                <au>
                   <snm>Rothenberg</snm>
                   <fnm>ML</fnm>
                </au>
                <au>
                   <snm>Modiano</snm>
                   <fnm>MR</fnm>
                </au>
                <au>
                   <snm>Cripps</snm>
                   <fnm>MC</fnm>
                </au>
                <au>
                   <snm>Portenoy</snm>
                   <fnm>RK</fnm>
                </au>
                <au>
                   <snm>Storniolo</snm>
                   <fnm>AM</fnm>
                </au>
                <au>
                   <snm>Tarassoff</snm>
                   <fnm>P</fnm>
                </au>
                <au>
                   <snm>Nelson</snm>
                   <fnm>R</fnm>
                </au>
                <au>
                   <snm>Dorr</snm>
                   <fnm>FA</fnm>
                </au>
                <au>
                   <snm>Stephens</snm>
                   <fnm>CD</fnm>
                </au>
                <au>
                   <snm>Von Hoff</snm>
                   <fnm>DD</fnm>
                </au>
             </aug>
             <source>J Clin Oncol</source>
             <pubdate>1997</pubdate>
             <volume>15</volume>
             <fpage>2403</fpage>
             <lpage>2413</lpage>
             <xrefbib>
                <pubidlist>
                   <pubid idtype="pmpid" link="fulltext">9196156</pubid>
                </pubidlist>
             </xrefbib>
          </bibl>
          <bibl id="B4">
             <title>
                <p>Pharmacologically directed design of the dose rate and schedule of 2',2'-difluorodeoxycytidine (Gemcitabine) administration in leukemia</p>
             </title>
             <aug>
                <au>
                   <snm>Grunewald</snm>
                   <fnm>R</fnm>
                </au>
                <au>
                   <snm>Kantarjian</snm>
                   <fnm>H</fnm>
                </au>
                <au>
                   <snm>Keating</snm>
                   <fnm>MJ</fnm>
                </au>
                <au>
                   <snm>Abbruzzese</snm>
                   <fnm>J</fnm>
                </au>
                <au>
                   <snm>Tarassoff</snm>
                   <fnm>P</fnm>
                </au>
                <au>
                   <snm>Plunkett</snm>
                   <fnm>W</fnm>
                </au>
             </aug>
             <source>Cancer Res</source>
             <pubdate>1990</pubdate>
             <volume>50</volume>
             <fpage>6823</fpage>
             <lpage>6826</lpage>
             <xrefbib>
                <pubidlist>
                   <pubid idtype="pmpid" link="fulltext">2208147</pubid>
                </pubidlist>
             </xrefbib>
          </bibl>
          <bibl id="B5">
             <title>
                <p>Kinetic analysis of human deoxycytidine kinase with the true phosphate donor uridine triphosphate</p>
             </title>
             <aug>
                <au>
                   <snm>Hughes</snm>
                   <fnm>TL</fnm>
                </au>
                <au>
                   <snm>Hahn</snm>
                   <fnm>TM</fnm>
                </au>
                <au>
                   <snm>Reynolds</snm>
                   <fnm>KK</fnm>
                </au>
                <au>
                   <snm>Shewach</snm>
                   <fnm>DS</fnm>
                </au>
             </aug>
             <source>Biochemistry</source>
             <pubdate>1997</pubdate>
             <volume>36</volume>
             <fpage>7540</fpage>
             <lpage>7547</lpage>
             <xrefbib>
                <pubidlist>
                   <pubid idtype="doi">10.1021/bi970059r</pubid>
                   <pubid idtype="pmpid" link="fulltext">9200705</pubid>
                </pubidlist>
             </xrefbib>
          </bibl>
          <bibl id="B6">
             <title>
                <p>A phase I clinical, plasma, and cellular pharmacology study of gemcitabine</p>
             </title>
             <aug>
                <au>
                   <snm>Abbruzzese</snm>
                   <fnm>JL</fnm>
                </au>
                <au>
                   <snm>Grunewald</snm>
                   <fnm>R</fnm>
                </au>
                <au>
                   <snm>Weeks</snm>
                   <fnm>EA</fnm>
                </au>
                <au>
                   <snm>Gravel</snm>
                   <fnm>D</fnm>
                </au>
                <au>
                   <snm>Adams</snm>
                   <fnm>T</fnm>
                </au>
                <au>
                   <snm>Nowak</snm>
                   <fnm>B</fnm>
                </au>
                <au>
                   <snm>Mineishi</snm>
                   <fnm>S</fnm>
                </au>
                <au>
                   <snm>Tarassoff</snm>
                   <fnm>P</fnm>
                </au>
                <au>
                   <snm>Satterlee</snm>
                   <fnm>W</fnm>
                </au>
                <au>
                   <snm>Raber</snm>
                   <fnm>MN</fnm>
                </au>
                <au>
                   <snm>Raber</snm>
                   <fnm>MN</fnm>
                </au>
             </aug>
             <source>J Clin Oncol</source>
             <pubdate>1991</pubdate>
             <volume>9</volume>
             <fpage>491</fpage>
             <lpage>498</lpage>
             <xrefbib>
                <pubidlist>
                   <pubid idtype="pmpid" link="fulltext">1999720</pubid>
                </pubidlist>
             </xrefbib>
          </bibl>
          <bibl id="B7">
             <title>
                <p>Fixed-dose rate infusion and standard rate infusion of gemcitabine in patients with advanced non-small-cell lung cancer: a meta-analysis of six trials</p>
             </title>
             <aug>
                <au>
                   <snm>Qiu</snm>
                   <fnm>MT</fnm>
                </au>
                <au>
                   <snm>Ding</snm>
                   <fnm>XX</fnm>
                </au>
                <au>
                   <snm>Hu</snm>
                   <fnm>JW</fnm>
                </au>
                <au>
                   <snm>Tian</snm>
                   <fnm>HY</fnm>
                </au>
                <au>
                   <snm>Yin</snm>
                   <fnm>R</fnm>
                </au>
                <au>
                   <snm>Xu</snm>
                   <fnm>L</fnm>
                </au>
             </aug>
             <source>Cancer Chemother Pharmacol</source>
             <pubdate>2012</pubdate>
             <volume>70</volume>
             <fpage>861</fpage>
             <lpage>873</lpage>
             <xrefbib>
                <pubidlist>
                   <pubid idtype="doi">10.1007/s00280-012-1974-z</pubid>
                   <pubid idtype="pmpid" link="fulltext">23053260</pubid>
                </pubidlist>
             </xrefbib>
          </bibl>
          <bibl id="B8">
             <title>
                <p>Randomized phase II study of gemcitabine administered at a fixed dose rate or in combination with cisplatin, docetaxel, or irinotecan in patients with metastatic pancreatic cancer: CALGB 89904</p>
             </title>
             <aug>
                <au>
                   <snm>Kulke</snm>
                   <fnm>MH</fnm>
                </au>
                <au>
                   <snm>Tempero</snm>
                   <fnm>MA</fnm>
                </au>
                <au>
                   <snm>Niedzwiecki</snm>
                   <fnm>D</fnm>
                </au>
                <au>
                   <snm>Hollis</snm>
                   <fnm>DR</fnm>
                </au>
                <au>
                   <snm>Kindler</snm>
                   <fnm>HL</fnm>
                </au>
                <au>
                   <snm>Cusnir</snm>
                   <fnm>M</fnm>
                </au>
                <au>
                   <snm>Enzinger</snm>
                   <fnm>PC</fnm>
                </au>
                <au>
                   <snm>Gorsch</snm>
                   <fnm>SM</fnm>
                </au>
                <au>
                   <snm>Goldberg</snm>
                   <fnm>RM</fnm>
                </au>
                <au>
                   <snm>Mayer</snm>
                   <fnm>RJ</fnm>
                </au>
             </aug>
             <source>J Clin Oncol</source>
             <pubdate>2009</pubdate>
             <volume>27</volume>
             <fpage>5506</fpage>
             <lpage>5512</lpage>
             <xrefbib>
                <pubidlist>
                   <pubid idtype="doi">10.1200/JCO.2009.22.1309</pubid>
                   <pubid idtype="pmpid" link="fulltext">19858396</pubid>
                </pubidlist>
             </xrefbib>
          </bibl>
          <bibl id="B9">
             <title>
                <p>Phase III, randomized study of gemcitabine and oxaliplatin versus gemcitabine (fixed-dose rate infusion) compared with gemcitabine (30-minute infusion) in patients with pancreatic carcinoma E6201: a trial of the Eastern Cooperative Oncology Group</p>
             </title>
             <aug>
                <au>
                   <snm>Poplin</snm>
                   <fnm>E</fnm>
                </au>
                <au>
                   <snm>Feng</snm>
                   <fnm>Y</fnm>
                </au>
                <au>
                   <snm>Berlin</snm>
                   <fnm>J</fnm>
                </au>
                <au>
                   <snm>Rothenberg</snm>
                   <fnm>ML</fnm>
                </au>
                <au>
                   <snm>Hochster</snm>
                   <fnm>H</fnm>
                </au>
                <au>
                   <snm>Mitchell</snm>
                   <fnm>E</fnm>
                </au>
                <au>
                   <snm>Alberts</snm>
                   <fnm>S</fnm>
                </au>
                <au>
                   <snm>O'Dwyer</snm>
                   <fnm>P</fnm>
                </au>
                <au>
                   <snm>Haller</snm>
                   <fnm>D</fnm>
                </au>
                <au>
                   <snm>Catalano</snm>
                   <fnm>P</fnm>
                </au>
                <au>
                   <snm>Cella</snm>
                   <fnm>D</fnm>
                </au>
                <au>
                   <snm>Benson</snm>
                   <fnm>AB</fnm>
                </au>
             </aug>
             <source>J Clin Oncol</source>
             <pubdate>2009</pubdate>
             <volume>27</volume>
             <fpage>3778</fpage>
             <lpage>3785</lpage>
             <xrefbib>
                <pubidlist>
                   <pubid idtype="doi">10.1200/JCO.2008.20.9007</pubid>
                   <pubid idtype="pmpid" link="fulltext">19581537</pubid>
                </pubidlist>
             </xrefbib>
          </bibl>
          <bibl id="B10">
             <title>
                <p>Randomized phase II comparison of dose-intense gemcitabine: thirty-minute infusion and fixed dose rate infusion in patients with pancreatic adenocarcinoma</p>
             </title>
             <aug>
                <au>
                   <snm>Tempero</snm>
                   <fnm>M</fnm>
                </au>
                <au>
                   <snm>Plunkett</snm>
                   <fnm>W</fnm>
                </au>
                <au>
                   <snm>Ruiz Van Haperen</snm>
                   <fnm>V</fnm>
                </au>
                <au>
                   <snm>Hainsworth</snm>
                   <fnm>J</fnm>
                </au>
                <au>
                   <snm>Hochster</snm>
                   <fnm>H</fnm>
                </au>
                <au>
                   <snm>Lenzi</snm>
                   <fnm>R</fnm>
                </au>
                <au>
                   <snm>Abbruzzese</snm>
                   <fnm>J</fnm>
                </au>
             </aug>
             <source>J Clin Oncol</source>
             <pubdate>2003</pubdate>
             <volume>21</volume>
             <fpage>3402</fpage>
             <lpage>3408</lpage>
             <xrefbib>
                <pubidlist>
                   <pubid idtype="doi">10.1200/JCO.2003.09.140</pubid>
                   <pubid idtype="pmpid" link="fulltext">12885837</pubid>
                </pubidlist>
             </xrefbib>
          </bibl>
          <bibl id="B11">
             <title>
                <p>Quantitative synthesis in systematic reviews</p>
             </title>
             <aug>
                <au>
                   <snm>Lau</snm>
                   <fnm>J</fnm>
                </au>
                <au>
                   <snm>Ioannidis</snm>
                   <fnm>JP</fnm>
                </au>
                <au>
                   <snm>Schmid</snm>
                   <fnm>CH</fnm>
                </au>
             </aug>
             <source>Ann Intern Med</source>
             <pubdate>1997</pubdate>
             <volume>127</volume>
             <fpage>820</fpage>
             <lpage>826</lpage>
             <xrefbib>
                <pubidlist>
                   <pubid idtype="doi">10.7326/0003-4819-127-9-199711010-00008</pubid>
                   <pubid idtype="pmpid" link="fulltext">9382404</pubid>
                </pubidlist>
             </xrefbib>
          </bibl>
          <bibl id="B12">
             <title>
                <p>Bias in meta-analysis detected by a simple, graphical test</p>
             </title>
             <aug>
                <au>
                   <snm>Egger</snm>
                   <fnm>M</fnm>
                </au>
                <au>
                   <snm>Davey Smith</snm>
                   <fnm>G</fnm>
                </au>
                <au>
                   <snm>Schneider</snm>
                   <fnm>M</fnm>
                </au>
                <au>
                   <snm>Minder</snm>
                   <fnm>C</fnm>
                </au>
             </aug>
             <source>BMJ</source>
             <pubdate>1997</pubdate>
             <volume>315</volume>
             <fpage>629</fpage>
             <lpage>634</lpage>
             <xrefbib>
                <pubidlist>
                   <pubid idtype="doi">10.1136/bmj.315.7109.629</pubid>
                   <pubid idtype="pmpid" link="fulltext">9310563</pubid>
                </pubidlist>
             </xrefbib>
          </bibl>
          <bibl id="B13">
             <title>
                <p>Funnel plots for detecting bias in meta-analysis: guidelines on choice of axis</p>
             </title>
             <aug>
                <au>
                   <snm>Sterne</snm>
                   <fnm>JA</fnm>
                </au>
                <au>
                   <snm>Egger</snm>
                   <fnm>M</fnm>
                </au>
             </aug>
             <source>J Clin Epidemiol</source>
             <pubdate>2001</pubdate>
             <volume>54</volume>
             <fpage>1046</fpage>
             <lpage>1055</lpage>
             <xrefbib>
                <pubidlist>
                   <pubid idtype="doi">10.1016/S0895-4356(01)00377-8</pubid>
                   <pubid idtype="pmpid" link="fulltext">11576817</pubid>
                </pubidlist>
             </xrefbib>
          </bibl>
          <bibl id="B14">
             <title>
                <p>Comparison of the cellular pharmacokinetics and toxicity of 2',2'-difluorodeoxycytidine and 1-beta-D-arabinofuranosylcytosine</p>
             </title>
             <aug>
                <au>
                   <snm>Heinemann</snm>
                   <fnm>V</fnm>
                </au>
                <au>
                   <snm>Hertel</snm>
                   <fnm>LW</fnm>
                </au>
                <au>
                   <snm>Grindey</snm>
                   <fnm>GB</fnm>
                </au>
                <au>
                   <snm>Plunkett</snm>
                   <fnm>W</fnm>
                </au>
             </aug>
             <source>Cancer Res</source>
             <pubdate>1988</pubdate>
             <volume>48</volume>
             <fpage>4024</fpage>
             <lpage>4031</lpage>
             <xrefbib>
                <pubidlist>
                   <pubid idtype="pmpid" link="fulltext">3383195</pubid>
                </pubidlist>
             </xrefbib>
          </bibl>
          <bibl id="B15">
             <title>
                <p>Action of 2',2'-difluorodeoxycytidine on DNA synthesis</p>
             </title>
             <aug>
                <au>
                   <snm>Huang</snm>
                   <fnm>P</fnm>
                </au>
                <au>
                   <snm>Chubb</snm>
                   <fnm>S</fnm>
                </au>
                <au>
                   <snm>Hertel</snm>
                   <fnm>LW</fnm>
                </au>
                <au>
                   <snm>Grindey</snm>
                   <fnm>GB</fnm>
                </au>
                <au>
                   <snm>Plunkett</snm>
                   <fnm>W</fnm>
                </au>
             </aug>
             <source>Cancer Res</source>
             <pubdate>1991</pubdate>
             <volume>51</volume>
             <fpage>6110</fpage>
             <lpage>6117</lpage>
             <xrefbib>
                <pubidlist>
                   <pubid idtype="pmpid" link="fulltext">1718594</pubid>
                </pubidlist>
             </xrefbib>
          </bibl>
          <bibl id="B16">
             <title>
                <p>Fludarabine- and gemcitabine-induced apoptosis: incorporation of analogs into DNA is a critical event</p>
             </title>
             <aug>
                <au>
                   <snm>Huang</snm>
                   <fnm>P</fnm>
                </au>
                <au>
                   <snm>Plunkett</snm>
                   <fnm>W</fnm>
                </au>
             </aug>
             <source>Cancer Chemother Pharmacol</source>
             <pubdate>1995</pubdate>
             <volume>36</volume>
             <fpage>181</fpage>
             <lpage>188</lpage>
             <xrefbib>
                <pubidlist>
                   <pubid idtype="doi">10.1007/BF00685844</pubid>
                   <pubid idtype="pmpid" link="fulltext">7781136</pubid>
                </pubidlist>
             </xrefbib>
          </bibl>
       </refgrp>
    </bm>
 </art>
