<art>
    <ui>s13014-014-0222-6</ui>
    <ji>1748-717X</ji>
    <fm>
       <dochead>Research</dochead>
       <bibl>
          <title>
             <p>Can combined intracavitary/interstitial approach be an alternative to interstitial brachytherapy with the Martinez Universal Perineal Interstitial Template (MUPIT) in computed tomography-guided adaptive brachytherapy for bulky and/or irregularly shaped gynecological tumors?</p>
          </title>
          <aug>
             <au id="A1" ca="yes">
                <snm>Oike</snm>
                <fnm>Takahiro</fnm>
                <insr iid="I1"/>
                <email>oiketakahiro@gmail.com</email>
             </au>
             <au id="A2">
                <snm>Ohno</snm>
                <fnm>Tatsuya</fnm>
                <insr iid="I1"/>
                <email>tohno@gunma-u.ac.jp</email>
             </au>
             <au id="A3">
                <snm>Noda</snm>
                <fnm>Shin-ei</fnm>
                <insr iid="I1"/>
                <email>snoda@gunma-u.ac.jp</email>
             </au>
             <au id="A4">
                <snm>Kiyohara</snm>
                <fnm>Hiroki</fnm>
                <insr iid="I1"/>
                <email>h_kiyohr@gunma-u.ac.jp</email>
             </au>
             <au id="A5">
                <snm>Ando</snm>
                <fnm>Ken</fnm>
                <insr iid="I1"/>
                <email>k-ando@showa.gunma-u.ac.jp</email>
             </au>
             <au id="A6">
                <snm>Shibuya</snm>
                <fnm>Kei</fnm>
                <insr iid="I1"/>
                <email>k-shibu@med.gunma-u.ac.jp</email>
             </au>
             <au id="A7">
                <snm>Tamaki</snm>
                <fnm>Tomoaki</fnm>
                <insr iid="I1"/>
                <email>tamakit@gunma-u.ac.jp</email>
             </au>
             <au id="A8">
                <snm>Takakusagi</snm>
                <fnm>Yosuke</fnm>
                <insr iid="I1"/>
                <email>t_kusagi@yahoo.co.jp</email>
             </au>
             <au id="A9">
                <snm>Sato</snm>
                <fnm>Hiro</fnm>
                <insr iid="I1"/>
                <email>h-sato0808@hotmail.co.jp</email>
             </au>
             <au id="A10">
                <snm>Nakano</snm>
                <fnm>Takashi</fnm>
                <insr iid="I1"/>
                <email>tnakano@med.gunma-u.ac.jp</email>
             </au>
          </aug>
          <insg>
             <ins id="I1">
                <p>Department of Radiation Oncology, Gunma University Graduate School of Medicine, 3-39-22, Showa-machi, Maebashi 371-8511, Gunma, Japan</p>
             </ins>
          </insg>
          <source>Radiation Oncology</source>
          <section>
             <title>
                <p>Clinical Radiation Oncology</p>
             </title>
          </section>
          <issn>1748-717X</issn>
          <pubdate>2014</pubdate>
          <volume>9</volume>
          <issue>1</issue>
          <fpage>222</fpage>
          <url>http://www.ro-journal.com/content/9/1/222</url>
          <xrefbib>
             <pubidlist>
                <pubid idtype="doi">10.1186/s13014-014-0222-6</pubid>
             </pubidlist>
          </xrefbib>
       </bibl>
       <history>
          <rec>
             <date>
                <day>28</day>
                <month>8</month>
                <year>2013</year>
             </date>
          </rec>
          <acc>
             <date>
                <day>26</day>
                <month>9</month>
                <year>2014</year>
             </date>
          </acc>
          <pub>
             <date>
                <day>16</day>
                <month>10</month>
                <year>2014</year>
             </date>
          </pub>
       </history>
       <cpyrt>
          <year>2014</year>
          <collab>Oike et al.; licensee BioMed Central Ltd.</collab>
          <note>This is an Open Access article distributed under the terms of the Creative Commons Attribution License (<url>http://creativecommons.org/licenses/by/2.0</url>), which permits unrestricted use, distribution, and reproduction in any medium, provided the original work is properly credited.</note>
       </cpyrt>
       <abs>
          <sec>
             <st>
                <p>Abstract</p>
             </st>
             <sec>
                <st>
                   <p>Background</p>
                </st>
                <p>Interstitial brachytherapy (ISBT) is an optional treatment for locally advanced gynecological tumours for which conventional intracavitary brachytherapy (ICBT) would result in suboptimal dose coverage. However, ISBT with Martinez Universal Perineal Interstitial Template (MUPIT), in which ~10-20 needles are usually applied, is more time-consuming and labor-intensive than ICBT alone, making it a burden on both practitioners and patients. Therefore, here we investigated the applicability of a combined intracavitary/interstitial (IC/IS) approach in image-guided adaptive brachytherapy for bulky and/or irregularly shaped gynecological tumours for which interstitial brachytherapy (ISBT) was performed.</p>
             </sec>
             <sec>
                <st>
                   <p>Methods</p>
                </st>
                <p>Twenty-one consecutive patients with gynecological malignancies treated with computed tomography-guided ISBT using MUPIT were analyzed as cases for this dosimetric study. For each patient, the IC/IS plan using a tandem and 1 or 2 interstitial needles, which was modeled after the combined IC/IS approach, was generated and compared with the IS plan based on the clinical ISBT plan, while the IC plan using only the tandem was applied as a simplified control. Maximal dose was prescribed to the high-risk clinical target volume (HR-CTV) while keeping the dose constraints of D<sub>2cc</sub> bladder&#8201;&lt;&#8201;7.0&#160;Gy and D<sub>2cc</sub> rectum&#8201;&lt;&#8201;6.0&#160;Gy. The plan with D90 HR-CTV exceeding 6.0&#160;Gy was considered acceptable.</p>
             </sec>
             <sec>
                <st>
                   <p>Results</p>
                </st>
                <p>The average D90 HR-CTV was 77%, 118% and 140% in the IC, IC/IS and IS plans, respectively, where 6&#160;Gy corresponds to 100%. The average of the ratio of D90 HR-CTV to D<sub>2cc</sub> rectum (gain factor (GF) <sub>rectum</sub>) in the IC, IC/IS and IS plans was 0.8, 1.3 and 1.5 respectively, while GF<sub>bladder</sub> was 0.9, 1.4 and 1.6, respectively. In the IC/IS plan, D90 HR-CTV, GF<sub>rectum</sub> and GF<sub>bladder</sub> exceeded 100%, 1.0 and 1.0, respectively, in all patients.</p>
             </sec>
             <sec>
                <st>
                   <p>Conclusions</p>
                </st>
                <p>These data demonstrated that the combined IC/IS approach could be a viable alternative to ISBT for gynecological malignancies with bulky and/or irregularly shaped tumours.</p>
             </sec>
          </sec>
       </abs>
    </fm>
    <bdy>
       <sec>
          <st>
             <p>Background</p>
          </st>
          <p>Interstitial brachytherapy (ISBT) is a choice of curative treatment for locally advanced gynecological tumours with extension to the lateral parametria and/or lower vaginal wall, for which intracavitary brachytherapy (ICBT) would result in suboptimal dose coverage <abbrgrp>
                <abbr bid="B1">1</abbr>
             </abbrgrp>. Accordingly, we have been treating patients with locally advanced cervical tumours and other gynecological malignancies using in-room and in-situ computed tomography (CT)-guided adaptive high dose rate (HDR) ISBT with Martinez Universal Perineal Interstitial Template (MUPIT, Nucleotron) <abbrgrp>
                <abbr bid="B2">2</abbr>
             </abbrgrp>. However, ISBT with MUPIT, in which ~10-20 needles are usually applied, is more time-consuming and labor-intensive than ICBT alone, making it a burden on practitioners. Moreover, patients receiving this treatment also must bear the hardship of keeping interstitial needles implanted for several days. Besides, facilities at which ISBT is routinely performed are limited in Japan <abbrgrp>
                <abbr bid="B3">3</abbr>
             </abbrgrp>. These aspects have prompted us to explore alternative treatment strategies for bulky and/or irregularly shaped tumours.</p>
          <p>The recent development of technologies in image-guided adaptive brachytherapy (IGABT) has enabled the integration of magnetic resonance imaging (MRI) or CT images into the treatment planning process <abbrgrp>
                <abbr bid="B4">4</abbr>
             </abbrgrp>-<abbrgrp>
                <abbr bid="B6">6</abbr>
             </abbrgrp>. This has resulted in the adaptive target concept, with dose volume assessment balancing constraints for the clinical target volume (CTV) and organs at risk (OARs). In 2011, P&#246;tter <it>et al</it>. reported the long-term results of 156 cervical cancer patients treated with chemoradiotherapy, demonstrating an overall 3-year local control rate of 92% for locally advanced tumours (&gt;5&#160;cm) treated with the MRI-guided combined intracavitary/interstitial (IC/IS) approach <abbrgrp>
                <abbr bid="B7">7</abbr>
             </abbrgrp>. This indicates that the image-guided combined IC/IS approach with a few interstitial needles could be a viable alternative to ISBT with MUPIT in the treatment of bulky and/or irregularly shaped tumours. Therefore, here we performed a dosimetric study to explore the applicability of the CT-guided combined IC/IS approach in patients with gynecological malignancies with bulky and/or irregularly shaped tumours, who were actually treated with CT-guided ISBT with MUPIT.</p>
       </sec>
       <sec>
          <st>
             <p>Methods</p>
          </st>
          <p>Twenty-one consecutive patients with gynecological malignancies treated with CT-guided adaptive HDR ISBT with MUPIT using iridium-192 source at Gunma University Hospital between April 2008 and February 2013 were selected by IRB-approved retrospective chart review. Fourteen of them (67%) were cervical cancer patients. The rest included vaginal cancer (3 patients), uterine endometrioid cancer (3 patients) and ovarian cancer (1 patient). Among them, 10/14, 1/3, 3/3 and 1/1 patients with cervical, vaginal, uterine endometrioid and ovarian cancer had recurrent tumours. Although these cases were heterogeneous in terms of primary tumour site and whether they were primary diseases or recurrences, they had the commonality of developing bulky and/or irregularly shaped tumours in the uterine cervix or vaginal stump and/or parametrium. Hence, they were considered to be favorable hypothetical cases of locally advanced cervical cancer, which has the indication for the IC/IS approach in the clinic. For example, a recurrent ovarian cancer case showed an intrapelvic tumour with bilateral parametrial involvement predominantly in the right side (Additional file <supplr sid="S1">1</supplr>: Figure S1). Average&#8201;&#177;&#8201;standard deviation (SD) of high-risk CTV (HR-CTV) in the present study was 60&#8201;&#177;&#8201;32&#160;cm<sup>3</sup>, which was similar to the values of patients with locally advanced cervical cancer treated with combined IC/IS by the Utrecht group (66&#8201;&#177;&#8201;34&#160;cm<sup>3</sup>) <abbrgrp>
                <abbr bid="B8">8</abbr>
             </abbrgrp>. Moreover, in our study, the distance between the tandem and the outer contour of HR-CTV was 30&#160;mm or greater in all cases. The Utrecht group employed a distance of 30&#160;mm as cutoff value for adding interstitial needles to the usual applicator consisting of the tandem and ovoids in IGABT for locally advanced cervical cancer <abbrgrp>
                <abbr bid="B9">9</abbr>
             </abbrgrp>. Accordingly, the Vienna group reported that a distance of 25&#160;mm in the plane of point A and that of 35&#160;mm at ring level could be covered by sufficient dose using only the intracavitary part of the Vienna applicator <abbrgrp>
                <abbr bid="B10">10</abbr>
             </abbrgrp>. Together, these data suggest that the cases selected in the current study were typical of extended tumours for which ISBT is recommended.</p><p>Application of the tandem, an endovaginal cylinder with MUPIT and interstitial needles was performed under in-room and in-situ CT guidance. Detailed procedure of the actually performed ISBT was previously described <abbrgrp>
                <abbr bid="B2">2</abbr>
             </abbrgrp>. Target delineation was performed on CT images taken by an in-room CT scanner with reference to MRI images taken just before brachytherapy. The contours of HR-CTV, rectum and bladder were delineated according to the GEC-ESTRO recommendations <abbrgrp>
                <abbr bid="B4">4</abbr>
             </abbrgrp>.</p>
          <p>We aimed to assess the applicability of a plan using the tandem and a few interstitial needles (IC/IS plan) as a viable alternative to the actually performed ISBT plan using MUPIT (IS plan). For this purpose, the IC/IS plan was generated on the CT image used for the actual ISBT treatments in each patient using the PLATO Brachytherapy Planning System (ver.14.3.6, Nucletron) or Oncentra (ver.4, Nucletron). For the IC/IS plan, the number of interstitial needles used for source loading was set at 1 or 2, taking the burden of needle application for the practitioners into consideration. Interstitial needles located at the edge of the extended part of HR-CTV were selected from needles implanted with MUPIT (9&#8211;18 needles; median, 14) based on visual inspection. One needle was used in 17 cases with unilaterally extended tumours, while 2 needles were selected in 4 cases with bilaterally extended tumours. Needles implanted in laterodorsal positions were most frequently selected (Figure&#160;<figr fid="F1">1</figr>), consistent with a previous report showing 95% of locally advanced cervical cancer cases treated with the Utrecht applicator received needle implantation in laterodorsal positions <abbrgrp>
                <abbr bid="B8">8</abbr>
             </abbrgrp>. This suggests the authenticity of the positions of the needles selected in the current study as those used for the combined IC/IS approach. The IC plans, with only the tandem used for source loading, were generated as simplified controls since treatment plans with ovoids or a ring applicator with a tandem have large diversity in the spatial disposition of the applicators.</p>
          
             <fig id="F1">
                <title>
                   <p>Figure 1</p>
                </title>
                <caption>
                   <p>Frequency of interstitial needles used in the IC/IS plan per needle location.</p>
                </caption>
                <text>
                   <p>
                      <b>Frequency of interstitial needles used in the IC/IS plan per needle location.</b> Relative locations of the needles to the tandem in a transverse plane were plotted in steps of 30 degrees. Twenty-five needles in 21 patients were used.</p>
                </text>
                <graphic file="s13014-014-0222-6-1"/>
             </fig>
          
          <p>In the treatment planning for each of the IC, IC/IS and IS plans, the highest possible dose was prescribed to HR-CTV while keeping the dose constraints for rectum and bladder. Comparison of dose volume parameters for HR-CTV between the plans while keeping the same dose constraints for the OARs helps clarify the dosimetric gain of the plans. We have previously investigated late rectal complications in cervical cancer patients treated with EBRT plus ICBT, showing that the average total EQD2 (&#945;/&#946;&#8201;=&#8201;3.0) for D<sub>2cc</sub> rectum in cases with late rectal complications and those without was 69 and 57&#160;Gy, respectively. Based on these findings, here we set the dose constraint for rectum at D<sub>2cc</sub>&#8201;&lt;&#8201;6&#160;Gy, which results in total EQD2 of 59&#160;Gy when the Japanese standard treatment regimen for advanced cervical cancer (30&#160;Gy/15 fractions of whole pelvic irradiation followed by 20&#160;Gy/10 fractions of EBRT with midline block and 4 sessions of ICBT) was employed <abbrgrp>
                <abbr bid="B11">11</abbr>
             </abbrgrp>. There has been no concrete evidence so far regarding the dose constraint for bladder using the Japanese treatment regimen. However, several European groups have revealed that the tolerability of bladder to radiotherapy is relatively higher than that of rectum <abbrgrp>
                <abbr bid="B7">7</abbr>
             </abbrgrp>,<abbrgrp>
                <abbr bid="B8">8</abbr>
             </abbrgrp>. In reference to their data, we set the dose constraint for bladder at D<sub>2cc</sub>&#8201;&lt;&#8201;7&#160;Gy.</p>
          <p>D90, the most significant dose volume parameter for local control in IGABT for cervical cancer <abbrgrp>
                <abbr bid="B12">12</abbr>
             </abbrgrp>, was used to assess HR-CTV coverage. We previously reported DVH analysis of ICBT for cervical cancer, in which CT images taken just before ICBT were superimposed on the 3-dimensional treatment plan of ICBT <abbrgrp>
                <abbr bid="B13">13</abbr>
             </abbrgrp>. The study demonstrated that &#8242;tumour volumes&#8242; almost corresponding to the current HR-CTV in GEC-ESTRO recommendations <abbrgrp>
                <abbr bid="B5">5</abbr>
             </abbrgrp> receiving less than a total of 24&#160;Gy in 4 fractions were significantly larger in patients with local recurrence than in those with local control. Based on these data, here, a plan showing D90 HR-CTV higher than 6&#160;Gy while keeping the dose constraints for the OARs was considered acceptable.</p>
          <p>To clearly understand the dosimetric gain of a plan, gain factor (GF) was defined as the ratio of D90 HR-CTV to D<sub>2cc</sub> of rectum and bladder, respectively: GF<sub>rectum</sub>&#8201;=&#8201;D90 HR-CTV/D<sub>2cc</sub> rectum, GF<sub>bladder</sub>&#8201;=&#8201;(D90 HR-CTV/D<sub>2cc</sub> bladder)&#8201;&#215;&#8201;7/6. In the present study, 6&#160;Gy for D<sub>2cc</sub> rectum and 7&#160;Gy for D<sub>2cc</sub> bladder were employed as dose constraints, and the plan showing D90 HR-CTV higher than 6&#160;Gy while keeping these dose constraints was considered acceptable. Hence, with regard to rectum, GF<sub>rectum</sub> of a &#8243;borderline-acceptable&#8243; plan showing D90 HR-CTV of 6&#160;Gy and D<sub>2cc</sub> rectum of 6&#160;Gy becomes 1.0, favorably. However, in the case of bladder, GF<sub>bladder</sub> of a &#8243;borderline-acceptable&#8243; plan showing D90 HR-CTV of 6&#160;Gy and D<sub>2cc</sub> bladder of 7&#160;Gy becomes 0.86 (i.e., 6/7). In order to make this value 1.0, the coefficient &#8243;7/6&#8243; was used in calculating GF<sub>bladder</sub>. Together, a GF higher than 1.0 indicates that the plan has the potential of being definitive and acceptable in terms of late toxicities for rectum or bladder. The treatment plans were confirmed by two radiation oncologists (T. Oike and T. Ohno).</p>
          <p>D98 and V<sub>6Gy</sub> of HR-CTV were also analyzed for target coverage, while V<sub>12Gy</sub> HR-CTV was examined for high dose volume <abbrgrp>
                <abbr bid="B5">5</abbr>
             </abbrgrp>. For inter-comparison of plans with different dose prescriptions, V<sub>6Gy</sub> and V<sub>12Gy</sub>, the volumes receiving at least 6 and 12&#160;Gy, were selected as alternatives for V100 and V200, respectively. Differences in DVH parameters were evaluated for significance by paired <it>t</it>-test using StatMateIII (ver. 3.17, ATMS). A <it>P</it> value&#8201;&lt;&#8201;0.05 was considered significant.</p>
          <p>Of note, in the present study, the cases were analyzed simply as samples for dosimetric comparison of the treatment plans to test the applicability of the combined IC/IS approach for bulky and/or irregularly shaped tumours. Thus, here we do not aim to discuss the curability of these cases in light of the actually performed treatments. Accordingly, the clinical information, including treatment history, simultaneous use of EBRT and total EQD2, is not presented.</p>
       </sec>
       <sec>
          <st>
             <p>Results and discussion</p>
          </st>
          <p>The IC plans with only the tandem resulted in insufficient HR-CTV coverage as expected (Figure&#160;<figr fid="F2">2</figr>a-e, Figure&#160;<figr fid="F3">3</figr>a, Table&#160;<tblr tid="T1">1</tblr>). D90 HR-CTV was below 100% (i.e., 6.0&#160;Gy) in 81% (17/21). GF<sub>rectum</sub> and GF<sub>bladder</sub> were below 1.0 in 81% (17/21) and 52% (11/21), respectively. Interestingly, the addition of one or two needles to the IC plan (i.e., the IC/IS plan) dramatically improved the HR-CTV coverage (Figure&#160;<figr fid="F2">2</figr>a-e, Figure&#160;<figr fid="F3">3</figr>b, Table&#160;<tblr tid="T1">1</tblr>). The D90 HR-CTV, GF<sub>rectum</sub>, GF<sub>bladder</sub>, D98 HR-CTV and V<sub>6Gy</sub> HR-CTV of the IC/IS plan was significantly higher than that of the IC plan (<it>P</it>&#8201;&lt;&#8201;0.001 in all parameters). Of note, D90 HR-CTV, GF<sub>rectum</sub> and GF<sub>bladder</sub> exceeded 100% (i.e., 6.0&#160;Gy), 1.0 and 1.0, respectively, in all cases. These data indicate that the combined IC/IS approach can achieve satisfactory dose distribution with acceptable HR-CTV coverage and tolerable sparing of rectum and bladder in bulky and/or irregularly shaped tumours for which ISBT was performed.</p>
          
             <fig id="F2">
                <title>
                   <p>Figure 2</p>
                </title>
                <caption>
                   <p>DVH parameters in the IC, IC/IS and IS plans in all patients. (a)</p>
                </caption>
                <text>
                   <p>
                      <b>DVH parameters in the IC, IC/IS and IS plans in all patients. (a)</b> D90 HR-CTV, <b>(b)</b> GF<sub>rectum</sub>, <b>(c)</b> GF<sub>bladder</sub>, <b>(d)</b> D98 HR-CTV, <b>(e)</b> V<sub>6Gy</sub> HR-CTV, <b>(f)</b> V<sub>12Gy</sub> HR-CTV. D90 and D98 HR-CTV were described in &#8220;%&#8221;, where 6&#160;Gy corresponds to 100%. NS, not statistically significant.</p>
                </text>
                <graphic file="s13014-014-0222-6-2"/>
             </fig>
          
          
             <fig id="F3">
                <title>
                   <p>Figure 3</p>
                </title>
                <caption>
                   <p>Representative dose distributions in transverse planes (a-c) and DVH curves (d-f) provided by the IC plan (a, d), the IC/IS plan with 1 needle (b, e), and the IS plan (c, f).</p>
                </caption>
                <text>
                   <p>
                      <b>Representative dose distributions in transverse planes (a-c) and DVH curves (d-f) provided by the IC plan (a, d), the IC/IS plan with 1 needle (b, e), and the IS plan (c, f).</b> The case is a 55-year-old patient with newly diagnosed cervical cancer, FIGO stage IIIB, treated with concurrent chemoradiotherapy using weekly cisplatin. <b>(a)</b> Source loading via only the tandem shows insufficient coverage of HR-CTV (D90, 4.6&#160;Gy; D98, 2.9&#160;Gy; V<sub>6Gy</sub>, 81%). <b>(b)</b> Addition of source loading via 1 needle (arrow) in expanded tumour in the left laterodorsal direction improved HR-CTV coverage (D90, 6.3&#160;Gy; D98, 5.1&#160;Gy; V<sub>6Gy</sub>, 93%). <b>(c)</b> Usage of the tandem and all 12 needles for source loading further improved HR-CTV coverage (D90, 7.6&#160;Gy; D98, 6.5&#160;Gy; V<sub>6Gy</sub>, 100%).</p>
                </text>
                <graphic file="s13014-014-0222-6-3"/>
             </fig>
          
          
             <table id="T1">
                <title>
                   <p>Table 1</p>
                </title>
                <caption>
                   <p>
                      <b>DVH parameters in IC, IC/IS and IS plans</b>
                   </p>
                </caption>
                <tgroup align="left" cols="7">
                   <colspec align="left" colname="c1" colnum="1" colwidth="*"/>
                   <colspec align="left" colname="c2" colnum="2" colwidth="*"/>
                   <colspec align="left" colname="c3" colnum="3" colwidth="*"/>
                   <colspec align="left" colname="c4" colnum="4" colwidth="*"/>
                   <colspec align="left" colname="c5" colnum="5" colwidth="*"/>
                   <colspec align="left" colname="c6" colnum="6" colwidth="*"/>
                   <colspec align="left" colname="c7" colnum="7" colwidth="*"/>
                   <thead>
                      <row valign="top">
                         <entry colname="c1"/>
                         <entry nameend="c5" namest="c2" rowsep="1">
                            <p>
                               <b>HR-CTV</b>
                            </p>
                         </entry>
                         <entry nameend="c7" namest="c6" rowsep="1">
                            <p>
                               <b>Gain factor</b>
                            </p>
                         </entry>
                      </row>
                      <row valign="top">
                         <entry colname="c1"/>
                         <entry colname="c2">
                            <p>
                               <b>D90 (%)</b>
                            </p>
                         </entry>
                         <entry colname="c3">
                            <p>
                               <b>D98 (%)</b>
                            </p>
                         </entry>
                         <entry colname="c4">
                            <p>
                               <b>V6Gy (%)</b>
                            </p>
                         </entry>
                         <entry colname="c5">
                            <p>
                               <b>V12Gy (%)</b>
                            </p>
                         </entry>
                         <entry colname="c6">
                            <p>
                               <b>Rectum</b>
                            </p>
                         </entry>
                         <entry colname="c7">
                            <p>
                               <b>Bladder</b>
                            </p>
                         </entry>
                      </row>
                   </thead>
                   <tfoot>
                      <p>Averages (SD) are shown.</p>
                   </tfoot>
                   <tbody>
                      <row valign="top">
                         <entry colname="c1">
                            <p>IC plan</p>
                         </entry>
                         <entry colname="c2">
                            <p>77 (20)</p>
                         </entry>
                         <entry colname="c3">
                            <p>53 (15)</p>
                         </entry>
                         <entry colname="c4">
                            <p>77 (14)</p>
                         </entry>
                         <entry colname="c5">
                            <p>39 (12)</p>
                         </entry>
                         <entry colname="c6">
                            <p>0.8 (0.2)</p>
                         </entry>
                         <entry colname="c7">
                            <p>0.9 (0.2)</p>
                         </entry>
                      </row>
                      <row valign="top">
                         <entry colname="c1">
                            <p>IC/IS plan</p>
                         </entry>
                         <entry colname="c2">
                            <p>118 (22)</p>
                         </entry>
                         <entry colname="c3">
                            <p>97 (18)</p>
                         </entry>
                         <entry colname="c4">
                            <p>95 (3.5)</p>
                         </entry>
                         <entry colname="c5">
                            <p>45 (16)</p>
                         </entry>
                         <entry colname="c6">
                            <p>1.3 (0.3)</p>
                         </entry>
                         <entry colname="c7">
                            <p>1.4 (0.3)</p>
                         </entry>
                      </row>
                      <row valign="top">
                         <entry colname="c1">
                            <p>IS plan</p>
                         </entry>
                         <entry colname="c2">
                            <p>140 (25)</p>
                         </entry>
                         <entry colname="c3">
                            <p>115 (25)</p>
                         </entry>
                         <entry colname="c4">
                            <p>98 (2.1)</p>
                         </entry>
                         <entry colname="c5">
                            <p>50 (21)</p>
                         </entry>
                         <entry colname="c6">
                            <p>1.5 (0.3)</p>
                         </entry>
                         <entry colname="c7">
                            <p>1.6 (0.3)</p>
                         </entry>
                      </row>
                   </tbody>
                </tgroup>
             </table>
          
          <p>In our IC/IS model with a few needles, the reproducible placement of needles to the most appropriate positions of HR-CTV is required to achieve favorable dose distribution. For this purpose, the Vienna (I) and Utrecht applicators dedicated to the combined IC/IS approach would become effective tools <abbrgrp>
                <abbr bid="B10">10</abbr>
             </abbrgrp>,<abbrgrp>
                <abbr bid="B14">14</abbr>
             </abbrgrp>, although the lateral dimensions of the extended isodose lines are limited after adding needles. Furthermore, exploration to identify the optimal treatment plan (i.e., optimal number and position of needles) for balancing satisfactory dose distributions and clinical burden should be conducted in the near future.</p>
          <p>Our data and those of others indicate that needles in laterodorsal positions are most frequently used for source loading in the combined IC/IS approach (Figure&#160;<figr fid="F1">1</figr>) <abbrgrp>
                <abbr bid="B8">8</abbr>
             </abbrgrp>. Meanwhile, laterodorsal contours of HR-CTV tend to be overestimated by CT compared with MRI, which is a major advantage of MRI in discrimination of tumours and adjacent normal tissue <abbrgrp>
                <abbr bid="B5">5</abbr>
             </abbrgrp>,<abbrgrp>
                <abbr bid="B15">15</abbr>
             </abbrgrp>. In this regard, it can be said that our study has a limitation in comparing the target coverage in the laterodorsal directions between ISBT with MUPIT and the combined IC/IS approach. Thus, an analysis in the same way as the present study and using MRI-based treatment plans should be carried out. Thus, to validate our results of the MRI-guided combined IC/IS approach, we are preparing to introduce a treatment planning system in which MRI images can be directly registered onto CT images, which should further improve the identification of HR-CTV.</p>
          <p>The IS plans achieved more conformal coverage of HR-CTV than the IC/IS plans, leading to further improvement of HR-CTV coverage and GFs compared to the IC/IS plans (Figure&#160;<figr fid="F2">2</figr>a-e, Figure&#160;<figr fid="F3">3</figr>c, Table&#160;<tblr tid="T1">1</tblr>). The D90 HR-CTV, GF<sub>rectum</sub>, GF<sub>bladder</sub>, D98 HR-CTV and V<sub>6Gy</sub> HR-CTV values of the IS plan were significantly higher than those of the IC/IS plan (<it>P</it>&#8201;&lt;&#8201;0.01, <it>P</it>&#8201;&lt;&#8201;0.01, <it>P</it>&#8201;&lt;&#8201;0.05, <it>P</it>&#8201;&lt;&#8201;0.01 and <it>P</it>&#8201;&lt;&#8201;0.001, respectively). In fact, a previous study has pointed out the existence of cases with extremely bulky and/or irregularly shaped tumours in which even the combined IC/IS approach resulted in insufficient coverage for HR-CTV <abbrgrp>
                <abbr bid="B8">8</abbr>
             </abbrgrp>. Together, ISBT with MUPIT can still be advantageous for such cases.</p>
          <p>The number and geometrical distribution of interstitial needles affect the conformality of HR-CTV coverage. Therefore, the conformality of HR-CTV coverage is of particularly high importance in the combined IC/IS approach using less needles than ISBT. Meanwhile, several indices such as the conformality index (COIN) to evaluate the conformality of target coverage in brachytherapy have been proposed <abbrgrp>
                <abbr bid="B16">16</abbr>
             </abbrgrp>. Interestingly, in the setting of the current study where maximal dose was prescribed to HR-CTV while keeping the dose constraint for the rectum (6&#160;Gy) and bladder (7&#160;Gy), COIN becomes identical to V<sub>6Gy</sub> HR-CTV. As shown in Figure&#160;<figr fid="F2">2</figr>e, V<sub>6Gy</sub> HR-CTV in the IC/IS plans has been dramatically improved compared to that in the IC plans, nearing that in the IC/IS plans. These data indicate that the IC/IS approach improves its conformality compared with the IC approach, and is close to ISBT in terms of the conformality of HR-CTV coverage in bulky and/or irregularly shaped gynecological tumours.</p>
          <p>On the other hand, there was no significant difference in V<sub>12Gy</sub> among the three plans (Figure&#160;<figr fid="F2">2</figr>f, Table&#160;<tblr tid="T1">1</tblr>). Although V150 and V200 are recommended as DVH parameters for the high dose volume by GEC-ESTRO <abbrgrp>
                <abbr bid="B11">11</abbr>
             </abbrgrp>, the clinical significance of the high dose volume has not been elucidated by various IGABT techniques, which certainly warrants further investigation.</p>
          <p>The present study has limitations. First, the study design of employing ICBT with a tandem alone as a control is weak and is not suitable for clinical use in locally advanced gynecological tumours. However, there are many types of applicators for ICBT used in combination with a tandem, including ovoids and a ring applicator. In treatment planning using these applicators, large numbers of variables such as three-dimensional spatial disposition of the applicators and dwell time setting make it difficult to standardize the scheme for optimization of a control ICBT plan among patients, leading to the difficulty of evaluating the pure dosimetric gain of additional needles. Furthermore, dosimetric study comparing a combined IC/IS technique using tandem, ovoids and a few interstitial needles with ISBT in the same patient is almost impossible because ovoids are not usually used in ISBT in the clinic. Thus, if we aim to perform such dosimetric study, comparison of the two methods using different patients with different anatomical characteristics in terms of tumours and OARs is inevitable. Such a study design also results in a weak conclusion. Upon taking these issues into consideration, in the present study, we employed the IC plan with only a tandem as a control. The optimal number and spatial disposition of needles in combination with a tandem and other applicators including ovoids should be further investigated. Second, the present study was carried out based on the assumption that the anatomy among the IC, the IC/IS and the IS approach remains the same. However, in the clinical setting, the anatomy, in particular the 3D-configuration of HR-CTV, can be different among the three methods according to the number and distribution of inserted needles. This issue should be carefully considered in the clinical application of the combined IC/IS approach as an alternative to ISBT with MUPIT.</p>
       </sec>
       <sec>
          <st>
             <p>Conclusions</p>
          </st>
          <p>Here we have demonstrated a treatment plan consisting of a tandem and at most 2 needles, which is a simplified model for the combined IC/IS approach, achieving our dose prescription criteria (i.e., D90 HR-CTV&#8201;&gt;&#8201;6.0&#160;Gy, D<sub>2cc</sub> rectum&#8201;&lt;&#8201;6.0&#160;Gy and D<sub>2cc</sub> bladder&#8201;&lt;&#8201;7.0&#160;Gy per fraction) in all 21 consecutive patients with gynecological malignancies actually treated with CT-guided ISBT using MUPIT. This indicates the potential of the combined IC/IS approach as an alternative to ISBT with MUPIT in CT-guided adaptive brachytherapy for bulky and/or irregularly shaped gynecological tumours. Further research to assess the clinical feasibility of the combined IC/IS approach should be carried out with an optimal number and spatial disposition of needles in combination with a tandem and ovoids, and also anatomical change by the insertion of a tandem and needles should be taken into consideration.</p>
       </sec>
       <sec>
          <st>
             <p>Competing interests</p>
          </st>
          <p>The authors declare that they have no competing interests.</p>
       </sec>
       <sec>
          <st>
             <p>Authors&#8217; contributions</p>
          </st>
          <p>The study conception and design: T. Oike and T. Ohno. Acquisition, analysis and interpretation of data: T. Oike, SEN, HK, KA, KS, TT, YT, HS and T. Ohno. Drafting of manuscript: T. Oike, TT and T. Ohno. Critical revision: SEN, HK, KA, KS, YT, HS, and TN. Final approval: T. Oike, T. Ohno, SEN, HK, KA, KS, TT, YT, HS and TN. All authors read and approved the final manuscript.</p>
       </sec>
       <sec>
          <st>
             <p>Additional file</p>
          </st>
          <suppl id="S1">
             <title>
                <p>Additional file 1: Figure S1</p>
             </title>
             <text>
                <p>Representative CT image of an implant for the recurrent ovarian cancer case. The tumour shows bilateral parametrial involvement predominant in the right side. An intrauterine tandem and 11 interstitial needles (white dots) were applied.</p>
             </text>
             <file name="s13014-014-0222-6-S1.pdf">
                <p>Click here for file</p>
             </file>
          </suppl>
          
       </sec>
    </bdy>
    <bm>
       <ack>
          <sec>
             <st>
                <p>Acknowledgements</p>
             </st>
             <p>We thank Tomoaki Ogano and Daisuke Ozaki of Gunma University Hospital for technical assistance. This work was supported by Grants-in-Aid from the Japan Society for the Promotion of Science for Scientific Research (C) KAKENHI [26461879].</p>
          </sec>
       </ack>
       <refgrp>
          
          <bibl id="B1">
             <title>
                <p>The American Brachytherapy Society recommendations for high-dose-rate brachytherapy for carcinoma of the cervix</p>
             </title>
             <aug>
                <au>
                   <snm>Nag</snm>
                   <fnm>S</fnm>
                </au>
                <au>
                   <snm>Erickson</snm>
                   <fnm>B</fnm>
                </au>
                <au>
                   <snm>Thomadsen</snm>
                   <fnm>B</fnm>
                </au>
                <au>
                   <snm>Orton</snm>
                   <fnm>C</fnm>
                </au>
                <au>
                   <snm>Demanes</snm>
                   <fnm>JD</fnm>
                </au>
                <au>
                   <snm>Petereit</snm>
                   <fnm>D</fnm>
                </au>
             </aug>
             <source>Int J Radiat Oncol Biol Phys</source>
             <pubdate>2000</pubdate>
             <volume>48</volume>
             <fpage>201</fpage>
             <lpage>211</lpage>
             <xrefbib>
                <pubidlist>
                   <pubid idtype="doi">10.1016/S0360-3016(00)00497-1</pubid>
                   <pubid idtype="pmpid" link="fulltext">10924990</pubid>
                </pubidlist>
             </xrefbib>
          </bibl>
          <bibl id="B2">
             <title>
                <p>High-dose-rate interstitial brachytherapy with computed tomography-based treatment planning for patients with locally advanced uterine cervical carcinoma</p>
             </title>
             <aug>
                <au>
                   <snm>Saitoh</snm>
                   <fnm>JI</fnm>
                </au>
                <au>
                   <snm>Ohno</snm>
                   <fnm>T</fnm>
                </au>
                <au>
                   <snm>Sakurai</snm>
                   <fnm>H</fnm>
                </au>
                <au>
                   <snm>Katoh</snm>
                   <fnm>H</fnm>
                </au>
                <au>
                   <snm>Wakatsuki</snm>
                   <fnm>M</fnm>
                </au>
                <au>
                   <snm>Noda</snm>
                   <fnm>SE</fnm>
                </au>
                <au>
                   <snm>Suzuki</snm>
                   <fnm>Y</fnm>
                </au>
                <au>
                   <snm>Shibuya</snm>
                   <fnm>K</fnm>
                </au>
                <au>
                   <snm>Takahashi</snm>
                   <fnm>T</fnm>
                </au>
                <au>
                   <snm>Nakano</snm>
                   <fnm>T</fnm>
                </au>
             </aug>
             <source>J Radiat Res</source>
             <pubdate>2011</pubdate>
             <volume>52</volume>
             <fpage>490</fpage>
             <lpage>495</lpage>
             <xrefbib>
                <pubidlist>
                   <pubid idtype="doi">10.1269/jrr.10189</pubid>
                   <pubid idtype="pmpid" link="fulltext">21785237</pubid>
                </pubidlist>
             </xrefbib>
          </bibl>
          <bibl id="B3">
             <title>
                <p>Patterns of radiotherapy practice for patients with cervical cancer in Japan, 2003&#8211;2005: Changing trends in the patterns of care process</p>
             </title>
             <aug>
                <au>
                   <snm>Tomita</snm>
                   <fnm>N</fnm>
                </au>
                <au>
                   <snm>Toita</snm>
                   <fnm>T</fnm>
                </au>
                <au>
                   <snm>Kodaira</snm>
                   <fnm>T</fnm>
                </au>
                <au>
                   <snm>Shinoda</snm>
                   <fnm>A</fnm>
                </au>
                <au>
                   <snm>Uno</snm>
                   <fnm>T</fnm>
                </au>
                <au>
                   <snm>Numasaki</snm>
                   <fnm>H</fnm>
                </au>
                <au>
                   <snm>Teshima</snm>
                   <fnm>T</fnm>
                </au>
                <au>
                   <snm>Mitsumori</snm>
                   <fnm>M</fnm>
                </au>
             </aug>
             <source>Int J Radiat Oncol Biol Phys</source>
             <pubdate>2012</pubdate>
             <volume>83</volume>
             <fpage>1506</fpage>
             <lpage>1513</lpage>
             <xrefbib>
                <pubidlist>
                   <pubid idtype="doi">10.1016/j.ijrobp.2011.10.013</pubid>
                   <pubid idtype="pmpid" link="fulltext">22270160</pubid>
                </pubidlist>
             </xrefbib>
          </bibl>
          <bibl id="B4">
             <title>
                <p>Gynaecological (GYN) GEC-ESTRO Working Group: Recommendations from Gynaecological (GYN) GEC-ESTRO Working Group (I): concepts and terms in 3D image based 3D treatment planning in cervix cancer brachytherapy with emphasis on MRI assessment of GTV and CTV</p>
             </title>
             <aug>
                <au>
                   <snm>Haie-Meder</snm>
                   <fnm>C</fnm>
                </au>
                <au>
                   <snm>P&#246;tter</snm>
                   <fnm>R</fnm>
                </au>
                <au>
                   <snm>Van Limbergen</snm>
                   <fnm>E</fnm>
                </au>
                <au>
                   <snm>Briot</snm>
                   <fnm>E</fnm>
                </au>
                <au>
                   <snm>De Brabandere</snm>
                   <fnm>M</fnm>
                </au>
                <au>
                   <snm>Dimopoulos</snm>
                   <fnm>J</fnm>
                </au>
                <au>
                   <snm>Dumas</snm>
                   <fnm>I</fnm>
                </au>
                <au>
                   <snm>Hellebust</snm>
                   <fnm>TP</fnm>
                </au>
                <au>
                   <snm>Kirisits</snm>
                   <fnm>C</fnm>
                </au>
                <au>
                   <snm>Lang</snm>
                   <fnm>S</fnm>
                </au>
                <au>
                   <snm>Muschitz</snm>
                   <fnm>S</fnm>
                </au>
                <au>
                   <snm>Nevinson</snm>
                   <fnm>J</fnm>
                </au>
                <au>
                   <snm>Nulens</snm>
                   <fnm>A</fnm>
                </au>
                <au>
                   <snm>Petrow</snm>
                   <fnm>P</fnm>
                </au>
                <au>
                   <snm>Wachter-Gerstner</snm>
                   <fnm>N</fnm>
                </au>
             </aug>
             <source>Radiother Oncol</source>
             <pubdate>2005</pubdate>
             <volume>74</volume>
             <fpage>235</fpage>
             <lpage>245</lpage>
             <xrefbib>
                <pubidlist>
                   <pubid idtype="doi">10.1016/j.radonc.2004.12.015</pubid>
                   <pubid idtype="pmpid" link="fulltext">15763303</pubid>
                </pubidlist>
             </xrefbib>
          </bibl>
          <bibl id="B5">
             <title>
                <p>GEC ESTRO Working Group: Recommendations from gynaecological (GYN) GEC ESTRO working group (II): concepts and terms in 3D image-based treatment planning in cervix cancer brachytherapy-3D dose volume parameters and aspects of 3D image-based anatomy, radiation physics, radiobiology</p>
             </title>
             <aug>
                <au>
                   <snm>P&#246;tter</snm>
                   <fnm>R</fnm>
                </au>
                <au>
                   <snm>Haie-Meder</snm>
                   <fnm>C</fnm>
                </au>
                <au>
                   <snm>Van Limbergen</snm>
                   <fnm>E</fnm>
                </au>
                <au>
                   <snm>Barillot</snm>
                   <fnm>I</fnm>
                </au>
                <au>
                   <snm>De Brabandere</snm>
                   <fnm>M</fnm>
                </au>
                <au>
                   <snm>Dimopoulos</snm>
                   <fnm>J</fnm>
                </au>
                <au>
                   <snm>Dumas</snm>
                   <fnm>I</fnm>
                </au>
                <au>
                   <snm>Erickson</snm>
                   <fnm>B</fnm>
                </au>
                <au>
                   <snm>Lang</snm>
                   <fnm>S</fnm>
                </au>
                <au>
                   <snm>Nulens</snm>
                   <fnm>A</fnm>
                </au>
                <au>
                   <snm>Petrow</snm>
                   <fnm>P</fnm>
                </au>
                <au>
                   <snm>Rownd</snm>
                   <fnm>J</fnm>
                </au>
                <au>
                   <snm>Kirisits</snm>
                   <fnm>C</fnm>
                </au>
             </aug>
             <source>Radiother Oncol</source>
             <pubdate>2006</pubdate>
             <volume>78</volume>
             <fpage>67</fpage>
             <lpage>77</lpage>
             <xrefbib>
                <pubidlist>
                   <pubid idtype="doi">10.1016/j.radonc.2005.11.014</pubid>
                   <pubid idtype="pmpid" link="fulltext">16403584</pubid>
                </pubidlist>
             </xrefbib>
          </bibl>
          <bibl id="B6">
             <note>Charra-Brunaud C, Levitchi M, Delannes M: <b>Dosimetric, clinical results of a French prospective study of 3D brachytherapy for cervix carcinoma.</b>
                <it>Radiother Oncol</it> 2011, <b>99:</b>S57.</note>
          </bibl>
          <bibl id="B7">
             <title>
                <p>Clinical outcome of protocol based image (MRI) guided adaptive brachytherapy combined with 3D conformal radiotherapy with or without chemotherapy in patients with locally advanced cervical cancer</p>
             </title>
             <aug>
                <au>
                   <snm>P&#246;tter</snm>
                   <fnm>R</fnm>
                </au>
                <au>
                   <snm>Georg</snm>
                   <fnm>P</fnm>
                </au>
                <au>
                   <snm>Dimopoulos</snm>
                   <fnm>JC</fnm>
                </au>
                <au>
                   <snm>Grimm</snm>
                   <fnm>M</fnm>
                </au>
                <au>
                   <snm>Berger</snm>
                   <fnm>D</fnm>
                </au>
                <au>
                   <snm>Nesvacil</snm>
                   <fnm>N</fnm>
                </au>
                <au>
                   <snm>Georg</snm>
                   <fnm>D</fnm>
                </au>
                <au>
                   <snm>Schmid</snm>
                   <fnm>MP</fnm>
                </au>
                <au>
                   <snm>Reinthaller</snm>
                   <fnm>A</fnm>
                </au>
                <au>
                   <snm>Sturdza</snm>
                   <fnm>A</fnm>
                </au>
                <au>
                   <snm>Kirisits</snm>
                   <fnm>C</fnm>
                </au>
             </aug>
             <source>Radiother Oncol</source>
             <pubdate>2011</pubdate>
             <volume>100</volume>
             <fpage>116</fpage>
             <lpage>123</lpage>
             <xrefbib>
                <pubidlist>
                   <pubid idtype="doi">10.1016/j.radonc.2011.07.012</pubid>
                   <pubid idtype="pmpid" link="fulltext">21821305</pubid>
                </pubidlist>
             </xrefbib>
          </bibl>
          <bibl id="B8">
             <title>
                <p>Clinical use of the Utrecht applicator for combined intracavitary/interstitial brachytherapy treatment in locally advanced cervical cancer</p>
             </title>
             <aug>
                <au>
                   <snm>Nomden</snm>
                   <fnm>CN</fnm>
                </au>
                <au>
                   <snm>de Leeuw</snm>
                   <fnm>AA</fnm>
                </au>
                <au>
                   <snm>Moerland</snm>
                   <fnm>MA</fnm>
                </au>
                <au>
                   <snm>Roesink</snm>
                   <fnm>JM</fnm>
                </au>
                <au>
                   <snm>Tersteeg</snm>
                   <fnm>RJ</fnm>
                </au>
                <au>
                   <snm>J&#252;rgenliemk-Schulz</snm>
                   <fnm>IM</fnm>
                </au>
             </aug>
             <source>Int J Radiat Oncol Biol Phys</source>
             <pubdate>2012</pubdate>
             <volume>82</volume>
             <fpage>1424</fpage>
             <lpage>1430</lpage>
             <xrefbib>
                <pubidlist>
                   <pubid idtype="doi">10.1016/j.ijrobp.2011.04.044</pubid>
                   <pubid idtype="pmpid" link="fulltext">21669505</pubid>
                </pubidlist>
             </xrefbib>
          </bibl>
          <bibl id="B9">
             <title>
                <p>Dose-volume histogram parameters and late side effects in magnetic resonance image-guided adaptive cervical cancer brachytherapy</p>
             </title>
             <aug>
                <au>
                   <snm>Georg</snm>
                   <fnm>P</fnm>
                </au>
                <au>
                   <snm>Lang</snm>
                   <fnm>S</fnm>
                </au>
                <au>
                   <snm>Dimopoulos</snm>
                   <fnm>JCA</fnm>
                </au>
                <au>
                   <snm>D&#246;rr</snm>
                   <fnm>W</fnm>
                </au>
                <au>
                   <snm>Sturdza</snm>
                   <fnm>AE</fnm>
                </au>
                <au>
                   <snm>Berger</snm>
                   <fnm>D</fnm>
                </au>
                <au>
                   <snm>Georg</snm>
                   <fnm>D</fnm>
                </au>
                <au>
                   <snm>Kirisits</snm>
                   <fnm>C</fnm>
                </au>
                <au>
                   <snm>P&#246;tter</snm>
                   <fnm>R</fnm>
                </au>
             </aug>
             <source>Int J Radiat Oncol Biol Phys</source>
             <pubdate>2011</pubdate>
             <volume>79</volume>
             <fpage>356</fpage>
             <lpage>362</lpage>
             <xrefbib>
                <pubidlist>
                   <pubid idtype="doi">10.1016/j.ijrobp.2009.11.002</pubid>
                   <pubid idtype="pmpid" link="fulltext">20385450</pubid>
                </pubidlist>
             </xrefbib>
          </bibl>
          <bibl id="B10">
             <title>
                <p>The Vienna applicator for combined intracavitary and interstitial brachytherapy of cervical cancer: Design, application, treatment planning, and dosimetric results</p>
             </title>
             <aug>
                <au>
                   <snm>Kirisits</snm>
                   <fnm>C</fnm>
                </au>
                <au>
                   <snm>Lang</snm>
                   <fnm>S</fnm>
                </au>
                <au>
                   <snm>Dimopoulos</snm>
                   <fnm>J</fnm>
                </au>
                <au>
                   <snm>Berger</snm>
                   <fnm>D</fnm>
                </au>
                <au>
                   <snm>Georg</snm>
                   <fnm>D</fnm>
                </au>
                <au>
                   <snm>P&#246;tter</snm>
                   <fnm>R</fnm>
                </au>
             </aug>
             <source>Int J Radiat Oncol Biol Phys</source>
             <pubdate>2006</pubdate>
             <volume>65</volume>
             <fpage>624</fpage>
             <lpage>630</lpage>
             <xrefbib>
                <pubidlist>
                   <pubid idtype="doi">10.1016/j.ijrobp.2006.01.036</pubid>
                   <pubid idtype="pmpid" link="fulltext">16690444</pubid>
                </pubidlist>
             </xrefbib>
          </bibl>
          <bibl id="B11">
             <title>
                <p>CT-based 3D dose volume parameter of the rectum and late rectal complication in patients with cervical cancer treated with high-dose-rate intracavitary brachytherapy</p>
             </title>
             <aug>
                <au>
                   <snm>Kato</snm>
                   <fnm>S</fnm>
                </au>
                <au>
                   <snm>Linh</snm>
                   <fnm>TDN</fnm>
                </au>
                <au>
                   <snm>Ohno</snm>
                   <fnm>T</fnm>
                </au>
                <au>
                   <snm>Nakano</snm>
                   <fnm>T</fnm>
                </au>
                <au>
                   <snm>Kiyohara</snm>
                   <fnm>H</fnm>
                </au>
                <au>
                   <snm>Ohkubo</snm>
                   <fnm>Y</fnm>
                </au>
                <au>
                   <snm>Kamada</snm>
                   <fnm>T</fnm>
                </au>
             </aug>
             <source>J Radiat Res</source>
             <pubdate>2010</pubdate>
             <volume>51</volume>
             <fpage>215</fpage>
             <lpage>221</lpage>
             <xrefbib>
                <pubidlist>
                   <pubid idtype="doi">10.1269/jrr.09118</pubid>
                   <pubid idtype="pmpid" link="fulltext">20339256</pubid>
                </pubidlist>
             </xrefbib>
          </bibl>
          <bibl id="B12">
             <title>
                <p>Dose-volume histogram parameters and local tumour control in magnetic resonance image-guided cervical cancer brachytherapy</p>
             </title>
             <aug>
                <au>
                   <snm>Dimopoulos</snm>
                   <fnm>JC</fnm>
                </au>
                <au>
                   <snm>Lang</snm>
                   <fnm>S</fnm>
                </au>
                <au>
                   <snm>Kirisits</snm>
                   <fnm>C</fnm>
                </au>
                <au>
                   <snm>Fidarova</snm>
                   <fnm>EF</fnm>
                </au>
                <au>
                   <snm>Berger</snm>
                   <fnm>D</fnm>
                </au>
                <au>
                   <snm>Georg</snm>
                   <fnm>P</fnm>
                </au>
                <au>
                   <snm>D&#246;rr</snm>
                   <fnm>W</fnm>
                </au>
                <au>
                   <snm>P&#246;tter</snm>
                   <fnm>R</fnm>
                </au>
             </aug>
             <source>Int J Radiat Oncol Biol Phys</source>
             <pubdate>2009</pubdate>
             <volume>75</volume>
             <fpage>56</fpage>
             <lpage>63</lpage>
             <xrefbib>
                <pubidlist>
                   <pubid idtype="doi">10.1016/j.ijrobp.2008.10.033</pubid>
                   <pubid idtype="pmpid" link="fulltext">19289267</pubid>
                </pubidlist>
             </xrefbib>
          </bibl>
          <bibl id="B13">
             <title>
                <p>Dose-volume histogram analysis of high dose rate intracavitary brachytherapy for uterine cervix cancer</p>
             </title>
             <aug>
                <au>
                   <snm>Terahara</snm>
                   <fnm>A</fnm>
                </au>
                <au>
                   <snm>Nakano</snm>
                   <fnm>T</fnm>
                </au>
                <au>
                   <snm>Ishikawa</snm>
                   <fnm>A</fnm>
                </au>
                <au>
                   <snm>Morita</snm>
                   <fnm>S</fnm>
                </au>
                <au>
                   <snm>Tsuji</snm>
                   <fnm>H</fnm>
                </au>
             </aug>
             <source>Int J Radiat Oncol Biol Phys</source>
             <pubdate>1996</pubdate>
             <volume>35</volume>
             <fpage>549</fpage>
             <lpage>554</lpage>
             <xrefbib>
                <pubidlist>
                   <pubid idtype="doi">10.1016/S0360-3016(96)80018-6</pubid>
                   <pubid idtype="pmpid" link="fulltext">8655379</pubid>
                </pubidlist>
             </xrefbib>
          </bibl>
          <bibl id="B14">
             <title>
                <p>MRI-guided treatment-planning optimisation in intracavitary or combined intracavitary/interstitial PDR brachytherapy using tandem ovoid applicators in locally advanced cervical cancer</p>
             </title>
             <aug>
                <au>
                   <snm>Jurgenliemk-Schulz</snm>
                   <fnm>IM</fnm>
                </au>
                <au>
                   <snm>Tersteeg</snm>
                   <fnm>RJ</fnm>
                </au>
                <au>
                   <snm>Roesink</snm>
                   <fnm>JM</fnm>
                </au>
                <au>
                   <snm>Bijmolt</snm>
                   <fnm>S</fnm>
                </au>
                <au>
                   <snm>Nomden</snm>
                   <fnm>CN</fnm>
                </au>
                <au>
                   <snm>Moerland</snm>
                   <fnm>MA</fnm>
                </au>
                <au>
                   <snm>de Leeuw</snm>
                   <fnm>AA</fnm>
                </au>
             </aug>
             <source>Radiother Oncol</source>
             <pubdate>2009</pubdate>
             <volume>93</volume>
             <fpage>322</fpage>
             <lpage>330</lpage>
             <xrefbib>
                <pubidlist>
                   <pubid idtype="doi">10.1016/j.radonc.2009.08.014</pubid>
                   <pubid idtype="pmpid" link="fulltext">19748695</pubid>
                </pubidlist>
             </xrefbib>
          </bibl>
          <bibl id="B15">
             <title>
                <p>Computed tomography versus magnetic resonance imaging-based contouring in cervical cancer brachytherapy: results of a prospective trial and preliminary guidelines for standardized contours</p>
             </title>
             <aug>
                <au>
                   <snm>Viswanathan</snm>
                   <fnm>AN</fnm>
                </au>
                <au>
                   <snm>Dimopoulos</snm>
                   <fnm>J</fnm>
                </au>
                <au>
                   <snm>Kirisits</snm>
                   <fnm>C</fnm>
                </au>
                <au>
                   <snm>Berger</snm>
                   <fnm>D</fnm>
                </au>
                <au>
                   <snm>P&#246;tter</snm>
                   <fnm>R</fnm>
                </au>
             </aug>
             <source>Int J Radiat Oncol Biol Phys</source>
             <pubdate>2007</pubdate>
             <volume>68</volume>
             <fpage>491</fpage>
             <lpage>498</lpage>
             <xrefbib>
                <pubidlist>
                   <pubid idtype="doi">10.1016/j.ijrobp.2006.12.021</pubid>
                   <pubid idtype="pmpid" link="fulltext">17331668</pubid>
                </pubidlist>
             </xrefbib>
          </bibl>
          <bibl id="B16">
             <title>
                <p>A conformal index (COIN) to evaluate implant quality and dose specification in brachytherapy</p>
             </title>
             <aug>
                <au>
                   <snm>Baltas</snm>
                   <fnm>D</fnm>
                </au>
                <au>
                   <snm>Kolotas</snm>
                   <fnm>C</fnm>
                </au>
                <au>
                   <snm>Geramani</snm>
                   <fnm>K</fnm>
                </au>
                <au>
                   <snm>Mould</snm>
                   <fnm>RF</fnm>
                </au>
                <au>
                   <snm>Ioannidis</snm>
                   <fnm>G</fnm>
                </au>
                <au>
                   <snm>Kekchidi</snm>
                   <fnm>M</fnm>
                </au>
                <au>
                   <snm>Zamboglou</snm>
                   <fnm>N</fnm>
                </au>
             </aug>
             <source>Int J Radiat Oncol Biol Phys</source>
             <pubdate>1998</pubdate>
             <volume>40</volume>
             <fpage>515</fpage>
             <lpage>524</lpage>
             <xrefbib>
                <pubidlist>
                   <pubid idtype="doi">10.1016/S0360-3016(97)00732-3</pubid>
                   <pubid idtype="pmpid" link="fulltext">9457842</pubid>
                </pubidlist>
             </xrefbib>
          </bibl>
       </refgrp>
    </bm>
 </art>
