<art>
    <ui>s13045-014-0067-3</ui>
    <ji>1756-8722</ji>
    <fm>
       <dochead>Editorial</dochead>
       <bibl>
          <title>
             <p>SINE (selective inhibitor of nuclear export) &#8211; translational science in a new class of anti-cancer agents</p>
          </title>
          <aug>
             <au id="A1" ca="yes">
                <snm>Gerecitano</snm>
                <fnm>John</fnm>
                <insr iid="I1"/>
                <insr iid="I2"/>
                <email>gerecitj@mskcc.org</email>
             </au>
          </aug>
          <insg>
             <ins id="I1">
                <p>Department of Medicine, Memorial Sloan Kettering Cancer Center, 1275 York Avenue, New York 10065, NY, USA</p>
             </ins>
             <ins id="I2">
                <p>Weill Cornell Medical College, New York 10065, NY, USA</p>
             </ins>
          </insg>
          <source>Journal of Hematology &amp; Oncology</source>
          <issn>1756-8722</issn>
          <pubdate>2014</pubdate>
          <volume>7</volume>
          <issue>1</issue>
          <fpage>67</fpage>
          <url>http://www.jhoonline.org/content/7/1/67</url>
          <xrefbib>
             <pubidlist>
                <pubid idtype="doi">10.1186/s13045-014-0067-3</pubid>
                <pubid idtype="pmpid"><!-- Need to check source for data--></pubid>
             </pubidlist>
          </xrefbib>
       </bibl>
       <history>
          <rec>
             <date>
                <day>9</day>
                <month>9</month>
                <year>2014</year>
             </date>
          </rec>
          <acc>
             <date>
                <day>9</day>
                <month>9</month>
                <year>2014</year>
             </date>
          </acc>
          <pub>
             <date>
                <day>4</day>
                <month>10</month>
                <year>2014</year>
             </date>
          </pub>
       </history>
       <cpyrt>
          <year>2014</year>
          <collab>Gerecitano licensee BioMed Central Ltd.</collab>
          <note>This is an Open Access article distributed under the terms of the Creative Commons Attribution License (<url>http://creativecommons.org/licenses/by/4.0</url>), which permits unrestricted use, distribution, and reproduction in any medium, provided the original work is properly credited. The Creative Commons Public Domain Dedication waiver (<url>http://creativecommons.org/publicdomain/zero/1.0/</url>) applies to the data made available in this article, unless otherwise stated.</note>
       </cpyrt>
       <abs>
          <sec>
             <st>
                <p>Abstract</p>
             </st>
             <p>Regulation of protein trafficking between the nucleus and cytoplasm represents a novel control point for antineoplastic intervention. Several proteins involved with cellular growth and survival depend on precise and timely positioning within the cell to fulfill their functions, and the nuclear membrane defines one of the most important compartmental barriers. Chromosome Region Maintenance 1, or exportin-1 (CRM1/XPO1), is involved with the export of more than 200 nuclear proteins, and has intriguingly been shown to have an increased expression in several tumor cell types. Selinexor (KPT-330) is a first-in-class selective inhibitor of nuclear export (SINE) to be developed for clinical use. Preclinical data has demonstrated antineoplastic activity of SINE compounds in many human solid and hematologic malignancies. The clinical development of Selinexor provides an excellent model for translational research.</p>
          </sec>
       </abs>
    </fm>
    <bdy>
       <sec>
          <st>
             <p>1
 						SINE &#8211; translational science in a new class of anti-cancer agents</p>
          </st>
          <p>There are many ways in which neoplastic cells can gain a selective survival advantage over their non-cancerous counterparts. While traditional chemotherapeutics target the end result of cell division caused by many transformative events, more recent &#8216;targeted therapies&#8217; have aimed to selectively block specific aspects of neoplastic cells that allow them to compete for resources and grow without restraint. For the most part, targeted therapies include those that 1) block external signals that can lead to cell growth, 2) interrupt intracellular signal transduction or enzymatic pathways that mediate growth and/or metabolism within neoplastic cells, or 3) thwart the cancer cell&#8217;s ability to evade signals and intracellular process such as apoptosis that would otherwise lead to self destruction. Many of these therapeutic strategies target cancer cells through antibody recognition or small molecule interaction with specific proteins that mediate pro-survival processes. Other strategies (such as inhibition of the proteasome, histone deacetylases, DNA methylation and heat shock proteins) seek to more globally manipulate the expression and longevity of the proteins that lead to the selective advantage of tumor cells.</p>
          <p>Regulation of protein trafficking between the nucleus and cytoplasm represents a novel control point for antineoplastic intervention. Several proteins involved with cellular growth and survival depend on precise and timely positioning within the cell to fulfill their functions, and the nuclear membrane defines one of the most important compartmental barriers. Although molecules smaller than 40&#160;kDa can passively move between the nucleus and cytoplasm, larger molecules depend on active transport mediated by karyopherin chaperones <abbrgrp>
                <abbr bid="B1">1</abbr>
             </abbrgrp>. Once such karyopherin that is exclusively engaged in nuclear export is Chromosome Region Maintenance 1, or exportin-1 (CRM1/XPO1). CRM-1 is involved with the export of more than 200 nuclear proteins, and has intriguingly been shown to have an increased expression in several tumor cell types <abbrgrp>
                <abbr bid="B2">2</abbr>
             </abbrgrp>&#8211;<abbrgrp>
                <abbr bid="B9">9</abbr>
             </abbrgrp>. The selective advantage this confers may relate to the proteins exported by CRM1, many of which (e.g. p53, p21, p27, pRb, FOXO, IkB) behave as tumor suppressors when localized to the nucleus, thus relieving inhibition of cellular growth and survival when they are exported to the cytoplasm <abbrgrp>
                <abbr bid="B1">1</abbr>
             </abbrgrp>.</p>
          <p>Selinexor (KPT-330) is a first-in-class selective inhibitor of nuclear export (SINE) to be developed for clinical use. By interacting directly with CRM1, this drug prevents its interaction with potential cargo and traps in the nucleus proteins that would otherwise have been destined for export to the cytoplasm. Preclinical data has demonstrated antineoplastic activity of SINE compounds in many human solid and hematologic malignancies including renal cell carcinoma <abbrgrp>
                <abbr bid="B10">10</abbr>
             </abbrgrp>, mantle cell lymphoma (MCL) <abbrgrp>
                <abbr bid="B8">8</abbr>
             </abbrgrp>, chronic lymphocytic leukemia (CLL) <abbrgrp>
                <abbr bid="B11">11</abbr>
             </abbrgrp>, multiple myeloma (MM) <abbrgrp>
                <abbr bid="B9">9</abbr>
             </abbrgrp>, melanoma <abbrgrp>
                <abbr bid="B12">12</abbr>
             </abbrgrp>, acute myeloid leukemia (AML) <abbrgrp>
                <abbr bid="B13">13</abbr>
             </abbrgrp> and non-Hodgkin lymphoma (NHL) <abbrgrp>
                <abbr bid="B14">14</abbr>
             </abbrgrp>. Recent work has also shown that SINE compounds increase CRM1&#8217;s proteasomal degradation, increase nuclear retention of p53 and Foxo, and lead to increased apoptosis in prostate cancer cell lines <abbrgrp>
                <abbr bid="B15">15</abbr>
             </abbrgrp>.</p>
          <p>In this issue of <it>Journal of Hematology &amp; Oncology</it>, Gravina <it>et al</it>. explore mechanisms by which SINE compounds can affect the growth and spread of prostate cancer tumor lines <abbrgrp>
                <abbr bid="B16">16</abbr>
             </abbrgrp>. The authors use tumor lines with different metastatic potentials and tropisms, and test tumor biology within different <it>in vivo</it> models. In one model, the authors orthotopically transplanted PCa cells into the prostate glands of SCID mice. Direct growth of the orthotopic tumor and extension into the peritoneum were both inhibited by KPT-330 given at two different dose levels and dosing schedules. In two models of bone metastasis, the authors injected PCa cells into the heart or directly into the tibiae of SCID mice. Both models showed decreased growth of osteolytic lesions upon treatment with SINE, as well as a decrease in markers of bone resorption and increased survival of the treated mice. To further demonstrate the antimetastatic potential of these inhibitors, the authors demonstrated decreased migratory potential across Boyden chambers, decreased metalloprotease production and decreased survival of cells detached from their microenvironment when treated with Selinexor. Perhaps even more intriguingly, they found that Selinexor can inhibit markers of angiogenesis and osteoclast differentiation induced by contact with media conditioned by PCa cells. In sum, these results suggest a multitude of ways that SINE can affect the biology and natural history of prostate cancer, from direct inhibition of cell growth to alterations in the microenvironment that mitigate not only metastasis, but destructive lesions fostered by nearby tumor growth.</p>
          <p>The clinical development of Selinexor provides an excellent model for translational research. In 2012, first-in-man phase 1 trials of KPT-330 were begun in both solid (NCT01607905) and hematologic (NCT01607892) malignancies (<url>www.clinicaltrials.gov</url>), and early reports of these trials are showing activity in various tumor types. At the 2013 annual meeting of the American Society of Hematology (ASH), updated results from the hematologic malignancy phase 1 trial demonstrated activity in patients with multiple myeloma, Waldenstrom&#8217;s macroglobulinemia, AML, CLL and various subtypes of NHL <abbrgrp>
                <abbr bid="B14">14</abbr>
             </abbrgrp>,<abbrgrp>
                <abbr bid="B17">17</abbr>
             </abbrgrp>,<abbrgrp>
                <abbr bid="B18">18</abbr>
             </abbrgrp>. Paired pre-and post-treatment biopsies obtained during these trials have shown increased intranuclear retention of tumor suppressor proteins in several patients: e.g. increased nuclear localization of p53 in a patient with MCL, retention of p53, FOXO3 and IkB in MM and of FOXO1, pRB, survivin and IkB in AML cells. Data from the solid malignancy trial was presented at the annual meeting of the American Society for Clinical Oncology (ASCO) in 2014, and showed decreases in disease burden in patients with colorectal, head &amp; neck, ovarian, cervical, prostate and other malignancies including partial remissions in 3 tumor types <abbrgrp>
                <abbr bid="B19">19</abbr>
             </abbrgrp>. Once again, paired biopsies in this trial were able to identify increased localization of tumor suppressor proteins (TSPs) including p53, p27, IkB, BRCA2 and FOX03 in various tumor types. Major side effects across these trials have included nausea, vomiting, diarrhea, thrombocytopenia and weight loss (the last of which caused the early clinical termination of a prior nuclear export inhibitor, Leptomycin B <abbrgrp>
                <abbr bid="B20">20</abbr>
             </abbrgrp>), and the optimal dosing schedule has not yet been determined.</p>
          <p>It will be very interesting to follow prostate patients on the phase 1 and subsequent trials that allow their inclusion. The model presented in this issue of JHO might predict numerous potential benefits for such patients. If the effects in humans reflect the <it>in vivo</it> experience presented here, we might expect to see direct decreases in osseous metastasis as well as decreases in lytic lesions caused by disruption of osteoclastogenesis in the microenvironment. This could alleviate one of the most vexing adverse effects of PCa &#8211; the pain that comes from bony lesions &#8211; even if tumor burden is not measurably decreased. Of course, the results reported also portend hope of improving the total disease burden, but it is too early to tell how deep or durable these responses can be with single-agent therapy. While these are compelling results for a new class of agents, we anxiously await results that will guide the optimal dosing schedule, mitigation of SINE-induced adverse effects, and best combination treatments to pursue.</p>
       </sec>
       <sec>
          <st>
             <p>Competing interests</p>
          </st>
          <p>Dr. Gerecitano serves as the principle investigator of a clinical trial involving selinexor.</p>
       </sec>
    </bdy>
    <bm>
       <refgrp>
          
          <bibl id="B1">
             <title>
                <p>Clinical translation of nuclear export inhibitors in cancer</p>
             </title>
             <aug>
                <au>
                   <snm>Senapedis</snm>
                   <fnm>WT</fnm>
                </au>
                <au>
                   <snm>Baloglu</snm>
                   <fnm>E</fnm>
                </au>
                <au>
                   <snm>Landesman</snm>
                   <fnm>Y</fnm>
                </au>
             </aug>
             <source>Semin Cancer Biol</source>
             <pubdate>2014</pubdate>
             <volume>27C</volume>
             <fpage>74</fpage>
             <lpage>86</lpage>
             <xrefbib>
                <pubidlist>
                   <pubid idtype="doi">10.1016/j.semcancer.2014.04.005</pubid>
                </pubidlist>
             </xrefbib>
          </bibl>
          <bibl id="B2">
             <title>
                <p>Expression of the nuclear export protein chromosomal region maintenance/exportin 1/Xpo1 is a prognostic factor in human ovarian cancer</p>
             </title>
             <aug>
                <au>
                   <snm>Noske</snm>
                   <fnm>A</fnm>
                </au>
                <au>
                   <snm>Weichert</snm>
                   <fnm>W</fnm>
                </au>
                <au>
                   <snm>Niesporek</snm>
                   <fnm>S</fnm>
                </au>
                <au>
                   <snm>Roske</snm>
                   <fnm>A</fnm>
                </au>
                <au>
                   <snm>Buckendahl</snm>
                   <fnm>AC</fnm>
                </au>
                <au>
                   <snm>Koch</snm>
                   <fnm>I</fnm>
                </au>
                <au>
                   <snm>Sehouli</snm>
                   <fnm>J</fnm>
                </au>
                <au>
                   <snm>Dietel</snm>
                   <fnm>M</fnm>
                </au>
                <au>
                   <snm>Denkert</snm>
                   <fnm>C</fnm>
                </au>
             </aug>
             <source>Cancer</source>
             <pubdate>2008</pubdate>
             <volume>112</volume>
             <issue>8</issue>
             <fpage>1733</fpage>
             <lpage>1743</lpage>
             <xrefbib>
                <pubidlist>
                   <pubid idtype="doi">10.1002/cncr.23354</pubid>
                   <pubid idtype="pmpid" link="fulltext">18306389</pubid>
                </pubidlist>
             </xrefbib>
          </bibl>
          <bibl id="B3">
             <title>
                <p>Prognostic value of CRM1 in pancreas cancer</p>
             </title>
             <aug>
                <au>
                   <snm>Huang</snm>
                   <fnm>WY</fnm>
                </au>
                <au>
                   <snm>Yue</snm>
                   <fnm>L</fnm>
                </au>
                <au>
                   <snm>Qiu</snm>
                   <fnm>WS</fnm>
                </au>
                <au>
                   <snm>Wang</snm>
                   <fnm>LW</fnm>
                </au>
                <au>
                   <snm>Zhou</snm>
                   <fnm>XH</fnm>
                </au>
                <au>
                   <snm>Sun</snm>
                   <fnm>YJ</fnm>
                </au>
             </aug>
             <source>Clin Invest Med</source>
             <pubdate>2009</pubdate>
             <volume>32</volume>
             <issue>6</issue>
             <fpage>E315</fpage>
             <xrefbib>
                <pubidlist>
                   <pubid idtype="pmpid" link="fulltext">20003838</pubid>
                </pubidlist>
             </xrefbib>
          </bibl>
          <bibl id="B4">
             <title>
                <p>The Karyopherin proteins, Crm1 and Karyopherin beta1, are overexpressed in cervical cancer and are critical for cancer cell survival and proliferation</p>
             </title>
             <aug>
                <au>
                   <snm>van der Watt</snm>
                   <fnm>PJ</fnm>
                </au>
                <au>
                   <snm>Maske</snm>
                   <fnm>CP</fnm>
                </au>
                <au>
                   <snm>Hendricks</snm>
                   <fnm>DT</fnm>
                </au>
                <au>
                   <snm>Parker</snm>
                   <fnm>MI</fnm>
                </au>
                <au>
                   <snm>Denny</snm>
                   <fnm>L</fnm>
                </au>
                <au>
                   <snm>Govender</snm>
                   <fnm>D</fnm>
                </au>
                <au>
                   <snm>Birrer</snm>
                   <fnm>MJ</fnm>
                </au>
                <au>
                   <snm>Leaner</snm>
                   <fnm>VD</fnm>
                </au>
             </aug>
             <source>Int J Cancer</source>
             <pubdate>2009</pubdate>
             <volume>124</volume>
             <issue>8</issue>
             <fpage>1829</fpage>
             <lpage>1840</lpage>
             <xrefbib>
                <pubidlist>
                   <pubid idtype="doi">10.1002/ijc.24146</pubid>
                   <pubid idtype="pmpid" link="fulltext">19117056</pubid>
                </pubidlist>
             </xrefbib>
          </bibl>
          <bibl id="B5">
             <title>
                <p>Expression of CRM1 in human gliomas and its significance in p27 expression and clinical prognosis</p>
             </title>
             <aug>
                <au>
                   <snm>Shen</snm>
                   <fnm>A</fnm>
                </au>
                <au>
                   <snm>Wang</snm>
                   <fnm>Y</fnm>
                </au>
                <au>
                   <snm>Zhao</snm>
                   <fnm>Y</fnm>
                </au>
                <au>
                   <snm>Zou</snm>
                   <fnm>L</fnm>
                </au>
                <au>
                   <snm>Sun</snm>
                   <fnm>L</fnm>
                </au>
                <au>
                   <snm>Cheng</snm>
                   <fnm>C</fnm>
                </au>
             </aug>
             <source>Neurosurgery</source>
             <pubdate>2009</pubdate>
             <volume>65</volume>
             <issue>1</issue>
             <fpage>153</fpage>
             <lpage>159</lpage>
             <xrefbib>
                <pubidlist>
                   <pubid idtype="doi">10.1227/01.NEU.0000348550.47441.4B</pubid>
                   <pubid idtype="pmpid" link="fulltext">19574837</pubid>
                </pubidlist>
             </xrefbib>
          </bibl>
          <bibl id="B6">
             <title>
                <p>The expression of CRM1 is associated with prognosis in human osteosarcoma</p>
             </title>
             <aug>
                <au>
                   <snm>Yao</snm>
                   <fnm>Y</fnm>
                </au>
                <au>
                   <snm>Dong</snm>
                   <fnm>Y</fnm>
                </au>
                <au>
                   <snm>Lin</snm>
                   <fnm>F</fnm>
                </au>
                <au>
                   <snm>Zhao</snm>
                   <fnm>H</fnm>
                </au>
                <au>
                   <snm>Shen</snm>
                   <fnm>Z</fnm>
                </au>
                <au>
                   <snm>Chen</snm>
                   <fnm>P</fnm>
                </au>
                <au>
                   <snm>Sun</snm>
                   <fnm>YJ</fnm>
                </au>
                <au>
                   <snm>Tang</snm>
                   <fnm>LN</fnm>
                </au>
                <au>
                   <snm>Zheng</snm>
                   <fnm>SE</fnm>
                </au>
             </aug>
             <source>Oncol Rep</source>
             <pubdate>2009</pubdate>
             <volume>21</volume>
             <issue>1</issue>
             <fpage>229</fpage>
             <lpage>235</lpage>
             <xrefbib>
                <pubidlist>
                   <pubid idtype="pmpid" link="fulltext">19082467</pubid>
                </pubidlist>
             </xrefbib>
          </bibl>
          <bibl id="B7">
             <title>
                <p>Prognostic impact and targeting of CRM1 in acute myeloid leukemia</p>
             </title>
             <aug>
                <au>
                   <snm>Kojima</snm>
                   <fnm>K</fnm>
                </au>
                <au>
                   <snm>Kornblau</snm>
                   <fnm>SM</fnm>
                </au>
                <au>
                   <snm>Ruvolo</snm>
                   <fnm>V</fnm>
                </au>
                <au>
                   <snm>Dilip</snm>
                   <fnm>A</fnm>
                </au>
                <au>
                   <snm>Duvvuri</snm>
                   <fnm>S</fnm>
                </au>
                <au>
                   <snm>Davis</snm>
                   <fnm>RE</fnm>
                </au>
                <au>
                   <snm>Zhang</snm>
                   <fnm>M</fnm>
                </au>
                <au>
                   <snm>Wang</snm>
                   <fnm>Z</fnm>
                </au>
                <au>
                   <snm>Coombes</snm>
                   <fnm>KR</fnm>
                </au>
                <au>
                   <snm>Zhang</snm>
                   <fnm>N</fnm>
                </au>
                <au>
                   <snm>Qui</snm>
                   <fnm>YH</fnm>
                </au>
                <au>
                   <snm>Burks</snm>
                   <fnm>JK</fnm>
                </au>
                <au>
                   <snm>Kanatarjian</snm>
                   <fnm>H</fnm>
                </au>
                <au>
                   <snm>Shacham</snm>
                   <fnm>S</fnm>
                </au>
                <au>
                   <snm>Kauffman</snm>
                   <fnm>M</fnm>
                </au>
                <au>
                   <snm>Andreeff</snm>
                   <fnm>M</fnm>
                </au>
                <au>
                   <snm>Qui</snm>
                   <fnm>YH</fnm>
                </au>
                <au>
                   <snm>Burks</snm>
                   <fnm>JK</fnm>
                </au>
                <au>
                   <snm>Kanatarjian</snm>
                   <fnm>H</fnm>
                </au>
                <au>
                   <snm>Shacham</snm>
                   <fnm>S</fnm>
                </au>
                <au>
                   <snm>Kauffman</snm>
                   <fnm>M</fnm>
                </au>
                <au>
                   <snm>Andreeff</snm>
                   <fnm>M</fnm>
                </au>
             </aug>
             <source>Blood</source>
             <pubdate>2013</pubdate>
             <volume>121</volume>
             <issue>20</issue>
             <fpage>4166</fpage>
             <lpage>4174</lpage>
             <xrefbib>
                <pubidlist>
                   <pubid idtype="doi">10.1182/blood-2012-08-447581</pubid>
                   <pubid idtype="pmpid" link="fulltext">23564911</pubid>
                </pubidlist>
             </xrefbib>
          </bibl>
          <bibl id="B8">
             <title>
                <p>Novel selective inhibitors of nuclear export CRM1 antagonists for therapy in mantle cell lymphoma</p>
             </title>
             <aug>
                <au>
                   <snm>Zhang</snm>
                   <fnm>K</fnm>
                </au>
                <au>
                   <snm>Wang</snm>
                   <fnm>M</fnm>
                </au>
                <au>
                   <snm>Tamayo</snm>
                   <fnm>AT</fnm>
                </au>
                <au>
                   <snm>Shacham</snm>
                   <fnm>S</fnm>
                </au>
                <au>
                   <snm>Kauffman</snm>
                   <fnm>M</fnm>
                </au>
                <au>
                   <snm>Lee</snm>
                   <fnm>J</fnm>
                </au>
                <au>
                   <snm>Zhang</snm>
                   <fnm>L</fnm>
                </au>
                <au>
                   <snm>Ou</snm>
                   <fnm>Z</fnm>
                </au>
                <au>
                   <snm>Li</snm>
                   <fnm>C</fnm>
                </au>
                <au>
                   <snm>Sun</snm>
                   <fnm>L</fnm>
                </au>
                <au>
                   <snm>Ford</snm>
                   <fnm>RJ</fnm>
                </au>
                <au>
                   <snm>Pham</snm>
                   <fnm>LV</fnm>
                </au>
             </aug>
             <source>Exp Hematol</source>
             <pubdate>2013</pubdate>
             <volume>41</volume>
             <issue>1</issue>
             <fpage>67</fpage>
             <lpage>78</lpage>
             <xrefbib>
                <pubidlist>
                   <pubid idtype="doi">10.1016/j.exphem.2012.09.002</pubid>
                   <pubid idtype="pmpid" link="fulltext">22986101</pubid>
                </pubidlist>
             </xrefbib>
          </bibl>
          <bibl id="B9">
             <title>
                <p>Genome-wide studies in multiple myeloma identify XPO1/CRM1 as a critical target validated using the selective nuclear export inhibitor KPT-276</p>
             </title>
             <aug>
                <au>
                   <snm>Schmidt</snm>
                   <fnm>J</fnm>
                </au>
                <au>
                   <snm>Braggio</snm>
                   <fnm>E</fnm>
                </au>
                <au>
                   <snm>Kortuem</snm>
                   <fnm>KM</fnm>
                </au>
                <au>
                   <snm>Egan</snm>
                   <fnm>JB</fnm>
                </au>
                <au>
                   <snm>Zhu</snm>
                   <fnm>YX</fnm>
                </au>
                <au>
                   <snm>Xin</snm>
                   <fnm>CS</fnm>
                </au>
                <au>
                   <snm>Tiedemann</snm>
                   <fnm>RE</fnm>
                </au>
                <au>
                   <snm>Palmer</snm>
                   <fnm>SE</fnm>
                </au>
                <au>
                   <snm>Garbitt</snm>
                   <fnm>VM</fnm>
                </au>
                <au>
                   <snm>McCauley</snm>
                   <fnm>D</fnm>
                </au>
                <au>
                   <snm>Kauffman</snm>
                   <fnm>M</fnm>
                </au>
                <au>
                   <snm>Shacham</snm>
                   <fnm>S</fnm>
                </au>
                <au>
                   <snm>Chesi</snm>
                   <fnm>M</fnm>
                </au>
                <au>
                   <snm>Bergsagel</snm>
                   <fnm>PL</fnm>
                </au>
                <au>
                   <snm>Stewart</snm>
                   <fnm>AK</fnm>
                </au>
             </aug>
             <source>Leukemia</source>
             <pubdate>2013</pubdate>
             <volume>27</volume>
             <issue>12</issue>
             <fpage>2357</fpage>
             <lpage>2365</lpage>
             <xrefbib>
                <pubidlist>
                   <pubid idtype="doi">10.1038/leu.2013.172</pubid>
                   <pubid idtype="pmpid" link="fulltext">23752175</pubid>
                </pubidlist>
             </xrefbib>
          </bibl>
          <bibl id="B10">
             <title>
                <p>CRM1 blockade by selective inhibitors of nuclear export attenuates kidney cancer growth</p>
             </title>
             <aug>
                <au>
                   <snm>Inoue</snm>
                   <fnm>H</fnm>
                </au>
                <au>
                   <snm>Kauffman</snm>
                   <fnm>M</fnm>
                </au>
                <au>
                   <snm>Shacham</snm>
                   <fnm>S</fnm>
                </au>
                <au>
                   <snm>Landesman</snm>
                   <fnm>Y</fnm>
                </au>
                <au>
                   <snm>Yang</snm>
                   <fnm>J</fnm>
                </au>
                <au>
                   <snm>Evans</snm>
                   <fnm>CP</fnm>
                </au>
                <au>
                   <snm>Weiss</snm>
                   <fnm>RH</fnm>
                </au>
             </aug>
             <source>J Urol</source>
             <pubdate>2013</pubdate>
             <volume>189</volume>
             <issue>6</issue>
             <fpage>2317</fpage>
             <lpage>2326</lpage>
             <xrefbib>
                <pubidlist>
                   <pubid idtype="doi">10.1016/j.juro.2012.10.018</pubid>
                   <pubid idtype="pmpid" link="fulltext">23079374</pubid>
                </pubidlist>
             </xrefbib>
          </bibl>
          <bibl id="B11">
             <title>
                <p>Selective inhibitors of nuclear export show that CRM1/XPO1 is a target in chronic lymphocytic leukemia</p>
             </title>
             <aug>
                <au>
                   <snm>Lapalombella</snm>
                   <fnm>R</fnm>
                </au>
                <au>
                   <snm>Sun</snm>
                   <fnm>Q</fnm>
                </au>
                <au>
                   <snm>Williams</snm>
                   <fnm>K</fnm>
                </au>
                <au>
                   <snm>Tangeman</snm>
                   <fnm>L</fnm>
                </au>
                <au>
                   <snm>Jha</snm>
                   <fnm>S</fnm>
                </au>
                <au>
                   <snm>Zhong</snm>
                   <fnm>Y</fnm>
                </au>
                <au>
                   <snm>Goettl</snm>
                   <fnm>V</fnm>
                </au>
                <au>
                   <snm>Mahoney</snm>
                   <fnm>E</fnm>
                </au>
                <au>
                   <snm>Berglund</snm>
                   <fnm>C</fnm>
                </au>
                <au>
                   <snm>Gupta</snm>
                   <fnm>S</fnm>
                </au>
                <au>
                   <snm>Farmer</snm>
                   <fnm>A</fnm>
                </au>
                <au>
                   <snm>Mani</snm>
                   <fnm>R</fnm>
                </au>
                <au>
                   <snm>Johnson</snm>
                   <fnm>AJ</fnm>
                </au>
                <au>
                   <snm>Lucas</snm>
                   <fnm>D</fnm>
                </au>
                <au>
                   <snm>Mo</snm>
                   <fnm>X</fnm>
                </au>
                <au>
                   <snm>Daeleman</snm>
                   <fnm>D</fnm>
                </au>
                <au>
                   <snm>Sandanayaka</snm>
                   <fnm>V</fnm>
                </au>
                <au>
                   <snm>Shechter</snm>
                   <fnm>S</fnm>
                </au>
                <au>
                   <snm>McCauley</snm>
                   <fnm>D</fnm>
                </au>
                <au>
                   <snm>Shacham</snm>
                   <fnm>S</fnm>
                </au>
                <au>
                   <snm>Kauffman</snm>
                   <fnm>M</fnm>
                </au>
                <au>
                   <snm>Chook</snm>
                   <fnm>YM</fnm>
                </au>
                <au>
                   <snm>Byrd</snm>
                   <fnm>JC</fnm>
                </au>
             </aug>
             <source>Blood</source>
             <pubdate>2012</pubdate>
             <volume>120</volume>
             <issue>23</issue>
             <fpage>4621</fpage>
             <lpage>4634</lpage>
             <xrefbib>
                <pubidlist>
                   <pubid idtype="doi">10.1182/blood-2012-05-429506</pubid>
                   <pubid idtype="pmpid" link="fulltext">23034282</pubid>
                </pubidlist>
             </xrefbib>
          </bibl>
          <bibl id="B12">
             <title>
                <p>Inhibition of CRM1-mediated nucleocytoplasmic transport: triggering human melanoma cell apoptosis by perturbing multiple cellular pathways</p>
             </title>
             <aug>
                <au>
                   <snm>Pathria</snm>
                   <fnm>G</fnm>
                </au>
                <au>
                   <snm>Wagner</snm>
                   <fnm>C</fnm>
                </au>
                <au>
                   <snm>Wagner</snm>
                   <fnm>SN</fnm>
                </au>
             </aug>
             <source>J Invest Dermatol</source>
             <pubdate>2012</pubdate>
             <volume>132</volume>
             <issue>12</issue>
             <fpage>2780</fpage>
             <lpage>2790</lpage>
             <xrefbib>
                <pubidlist>
                   <pubid idtype="doi">10.1038/jid.2012.233</pubid>
                   <pubid idtype="pmpid" link="fulltext">22832492</pubid>
                </pubidlist>
             </xrefbib>
          </bibl>
          <bibl id="B13">
             <title>
                <p>Preclinical and clinical efficacy of XPO1/CRM1 inhibition by the karyopherin inhibitor KPT-330 in Ph&#8201;+&#8201;leukemias</p>
             </title>
             <aug>
                <au>
                   <snm>Walker</snm>
                   <fnm>CJ</fnm>
                </au>
                <au>
                   <snm>Oaks</snm>
                   <fnm>JJ</fnm>
                </au>
                <au>
                   <snm>Santhanam</snm>
                   <fnm>R</fnm>
                </au>
                <au>
                   <snm>Neviani</snm>
                   <fnm>P</fnm>
                </au>
                <au>
                   <snm>Harb</snm>
                   <fnm>JG</fnm>
                </au>
                <au>
                   <snm>Ferenchak</snm>
                   <fnm>G</fnm>
                </au>
                <au>
                   <snm>Ellis</snm>
                   <fnm>JJ</fnm>
                </au>
                <au>
                   <snm>Landesman</snm>
                   <fnm>Y</fnm>
                </au>
                <au>
                   <snm>Eisfeld</snm>
                   <fnm>AK</fnm>
                </au>
                <au>
                   <snm>Gabrail</snm>
                   <fnm>NY</fnm>
                </au>
                <au>
                   <snm>Smith</snm>
                   <fnm>CL</fnm>
                </au>
                <au>
                   <snm>Caligiuri</snm>
                   <fnm>MA</fnm>
                </au>
                <au>
                   <snm>Hokland</snm>
                   <fnm>P</fnm>
                </au>
                <au>
                   <snm>Roy</snm>
                   <fnm>DC</fnm>
                </au>
                <au>
                   <snm>Reid</snm>
                   <fnm>A</fnm>
                </au>
                <au>
                   <snm>Milojkovic</snm>
                   <fnm>D</fnm>
                </au>
                <au>
                   <snm>Goldman</snm>
                   <fnm>JM</fnm>
                </au>
                <au>
                   <snm>Apperley</snm>
                   <fnm>J</fnm>
                </au>
                <au>
                   <snm>Garzon</snm>
                   <fnm>R</fnm>
                </au>
                <au>
                   <snm>Marcucci</snm>
                   <fnm>G</fnm>
                </au>
                <au>
                   <snm>Shacham</snm>
                   <fnm>S</fnm>
                </au>
                <au>
                   <snm>Kauffman</snm>
                   <fnm>MG</fnm>
                </au>
                <au>
                   <snm>Perrotti</snm>
                   <fnm>D</fnm>
                </au>
             </aug>
             <source>Blood</source>
             <pubdate>2013</pubdate>
             <volume>122</volume>
             <issue>17</issue>
             <fpage>3034</fpage>
             <lpage>3044</lpage>
             <xrefbib>
                <pubidlist>
                   <pubid idtype="doi">10.1182/blood-2013-04-495374</pubid>
                   <pubid idtype="pmpid" link="fulltext">23970380</pubid>
                </pubidlist>
             </xrefbib>
          </bibl>
          <bibl id="B14">
             <title>
                <p>Preliminary evidence of anti tumor activity of selinexor (KPT-330) in a phase I trial Ofa first-in-class oral selective inhibitor of nuclear export (SINE) in patients (pts) with relapsed/refractory Non Hodgkin&#8217;s lymphoma (NHL) and chronic lymphocytic L</p>
             </title>
             <aug>
                <au>
                   <snm>Kuruvilla</snm>
                   <fnm>J</fnm>
                </au>
                <au>
                   <snm>Gutierrez</snm>
                   <fnm>M</fnm>
                </au>
                <au>
                   <snm>Shah</snm>
                   <fnm>BD</fnm>
                </au>
                <au>
                   <snm>Gabrail</snm>
                   <fnm>NY</fnm>
                </au>
                <au>
                   <snm>de Nully Brown</snm>
                   <fnm>P</fnm>
                </au>
                <au>
                   <snm>Stone</snm>
                   <fnm>RM</fnm>
                </au>
                <au>
                   <snm>Garzon</snm>
                   <fnm>R</fnm>
                </au>
                <au>
                   <snm>Savona</snm>
                   <fnm>M</fnm>
                </au>
                <au>
                   <snm>Siegel</snm>
                   <fnm>DS</fnm>
                </au>
                <au>
                   <snm>Baz</snm>
                   <fnm>R</fnm>
                </au>
                <au>
                   <snm>Mau-Sorensen</snm>
                   <fnm>M</fnm>
                </au>
                <au>
                   <snm>Davids</snm>
                   <fnm>MS</fnm>
                </au>
                <au>
                   <snm>Byrd</snm>
                   <fnm>JC</fnm>
                </au>
                <au>
                   <snm>Shacham</snm>
                   <fnm>S</fnm>
                </au>
                <au>
                   <snm>Rashal</snm>
                   <fnm>T</fnm>
                </au>
                <au>
                   <snm>Yau</snm>
                   <fnm>CYF</fnm>
                </au>
                <au>
                   <snm>McCauley</snm>
                   <fnm>D</fnm>
                </au>
                <au>
                   <snm>Saint-Martin</snm>
                   <fnm>J-R</fnm>
                </au>
                <au>
                   <snm>McCartney</snm>
                   <fnm>J</fnm>
                </au>
                <au>
                   <snm>Landesman</snm>
                   <fnm>Y</fnm>
                </au>
                <au>
                   <snm>Klebanov</snm>
                   <fnm>B</fnm>
                </au>
                <au>
                   <snm>Pond</snm>
                   <fnm>G</fnm>
                </au>
                <au>
                   <snm>Oza</snm>
                   <fnm>AM</fnm>
                </au>
                <au>
                   <snm>Kauffman</snm>
                   <fnm>M</fnm>
                </au>
                <au>
                   <snm>Mirza</snm>
                   <fnm>MR</fnm>
                </au>
             </aug>
             <source>Blood</source>
             <pubdate>2013</pubdate>
             <volume>122</volume>
             <fpage>90</fpage>
          </bibl>
          <bibl id="B15">
             <note>Mendonca J, Sharma A, Kim HS, Hammers H, Meeker A, De Marzo A, Carducci M, Kauffman M, Shacham S, Kachhap S: <b>Selective inhibitors of nuclear export (SINE) as novel therapeutics for prostate cancer.</b>
                <it>Oncotarget</it> 2014, <b>13</b>. in press.</note>
          </bibl>
          <bibl id="B16">
             <title>
                <p>XPO1/CRM1-Selective Inhibitors of Nuclear Export (SINE) reduce tumor spreading and improve overall survival in preclinical models of prostate cancer (PCa)</p>
             </title>
             <aug>
                <au>
                   <snm>Gravina</snm>
                   <fnm/>
                </au>
                <au>
                   <snm>Tortoreto</snm>
                   <fnm>M</fnm>
                </au>
                <au>
                   <snm>Mancini</snm>
                   <fnm>A</fnm>
                </au>
                <au>
                   <snm>Addis</snm>
                   <fnm>A</fnm>
                </au>
                <au>
                   <snm>Di Cesare</snm>
                   <fnm>E</fnm>
                </au>
                <au>
                   <snm>Lenzi</snm>
                   <fnm>A</fnm>
                </au>
                <au>
                   <snm>Landesman</snm>
                   <fnm>Y</fnm>
                </au>
                <au>
                   <snm>McCauley</snm>
                   <fnm>D</fnm>
                </au>
                <au>
                   <snm>Kauffman</snm>
                   <fnm>M</fnm>
                </au>
                <au>
                   <snm>Shacham</snm>
                   <fnm>S</fnm>
                </au>
                <au>
                   <snm>Zaffaroni</snm>
                   <fnm>N</fnm>
                </au>
                <au>
                   <snm>Festuccia</snm>
                   <fnm>C</fnm>
                </au>
             </aug>
             <source>J Hematol Oncol</source>
             <pubdate>2014</pubdate>
             <volume>7</volume>
             <fpage>46</fpage>
             <xrefbib>
                <pubidlist>
                   <pubid idtype="doi">10.1186/1756-8722-7-46</pubid>
                   <pubid idtype="pmpid" link="fulltext">25284315</pubid>
                </pubidlist>
             </xrefbib>
          </bibl>
          <bibl id="B17">
             <title>
                <p>Anti Tumor Activity Of Selinexor (KPT-330), A First-In-Class Oral Selective Inhibitor Of Nuclear Export (SINE) XPO1/CRM1 Antagonist In Patients (pts) With Relapsed/Refractory Multiple Myeloma (MM) Or Waldenstrom&#8217;s Macroglobulinemia (WM)</p>
             </title>
             <aug>
                <au>
                   <snm>Chen</snm>
                   <fnm>CI</fnm>
                </au>
                <au>
                   <snm>Gutierrez</snm>
                   <fnm>M</fnm>
                </au>
                <au>
                   <snm>Brown</snm>
                   <fnm>PN</fnm>
                </au>
                <au>
                   <snm>Gabrail</snm>
                   <fnm>N</fnm>
                </au>
                <au>
                   <snm>Baz</snm>
                   <fnm>R</fnm>
                </au>
                <au>
                   <snm>Reece</snm>
                   <fnm>DE</fnm>
                </au>
                <au>
                   <snm>Savona</snm>
                   <fnm>M</fnm>
                </au>
                <au>
                   <snm>Trudel</snm>
                   <fnm>S</fnm>
                </au>
                <au>
                   <snm>Siegel</snm>
                   <fnm>DS</fnm>
                </au>
                <au>
                   <snm>Mau-Sorensen</snm>
                   <fnm>M</fnm>
                </au>
                <au>
                   <snm>Kuruvilla</snm>
                   <fnm>J</fnm>
                </au>
                <au>
                   <snm>Byrd</snm>
                   <fnm>JC</fnm>
                </au>
                <au>
                   <snm>Shacham</snm>
                   <fnm>S</fnm>
                </au>
                <au>
                   <snm>Rashal</snm>
                   <fnm>T</fnm>
                </au>
                <au>
                   <snm>Yau</snm>
                   <fnm>CYF</fnm>
                </au>
                <au>
                   <snm>McCauley</snm>
                   <fnm>D</fnm>
                </au>
                <au>
                   <snm>Saint-Martin</snm>
                   <fnm>JR</fnm>
                </au>
                <au>
                   <snm>McCartney</snm>
                   <fnm>J</fnm>
                </au>
                <au>
                   <snm>Landesman</snm>
                   <fnm>Y</fnm>
                </au>
                <au>
                   <snm>Klebanov</snm>
                   <fnm>B</fnm>
                </au>
                <au>
                   <snm>Pond</snm>
                   <fnm>G</fnm>
                </au>
                <au>
                   <snm>Oza</snm>
                   <fnm>A</fnm>
                </au>
                <au>
                   <snm>Kauffman</snm>
                   <fnm>M</fnm>
                </au>
                <au>
                   <snm>Mirza</snm>
                   <fnm>MR</fnm>
                </au>
             </aug>
             <source>Blood</source>
             <pubdate>2013</pubdate>
             <volume>122</volume>
             <fpage>1942</fpage>
          </bibl>
          <bibl id="B18">
             <title>
                <p>Phase I trial of selinexor (KPT-330), a first-in-class oral selective inhibitor of nuclear export (SINE) in patients (pts) with advanced acute myelogenous leukemia (AML)</p>
             </title>
             <aug>
                <au>
                   <snm>Savona</snm>
                   <fnm>M</fnm>
                </au>
                <au>
                   <snm>Garzon</snm>
                   <fnm>R</fnm>
                </au>
                <au>
                   <snm>Brown</snm>
                   <fnm>PN</fnm>
                </au>
                <au>
                   <snm>Yee</snm>
                   <fnm>K</fnm>
                </au>
                <au>
                   <snm>Lancet</snm>
                   <fnm>JE</fnm>
                </au>
                <au>
                   <snm>Gutierrez</snm>
                   <fnm>M</fnm>
                </au>
                <au>
                   <snm>Gabrail</snm>
                   <fnm>N</fnm>
                </au>
                <au>
                   <snm>Mau-Sorensen</snm>
                   <fnm>M</fnm>
                </au>
                <au>
                   <snm>Baz</snm>
                   <fnm>R</fnm>
                </au>
                <au>
                   <snm>Byrd</snm>
                   <fnm>JC</fnm>
                </au>
                <au>
                   <snm>Kuruvilla</snm>
                   <fnm>J</fnm>
                </au>
                <au>
                   <snm>Siegel</snm>
                   <fnm>DS</fnm>
                </au>
                <au>
                   <snm>Shacham</snm>
                   <fnm>S</fnm>
                </au>
                <au>
                   <snm>Rashal</snm>
                   <fnm>T</fnm>
                </au>
                <au>
                   <snm>Yau</snm>
                   <fnm>CYF</fnm>
                </au>
                <au>
                   <snm>McCauley</snm>
                   <fnm>D</fnm>
                </au>
                <au>
                   <snm>Saint-Martin</snm>
                   <fnm>JR</fnm>
                </au>
                <au>
                   <snm>McCartney</snm>
                   <fnm>J</fnm>
                </au>
                <au>
                   <snm>Landesman</snm>
                   <fnm>Y</fnm>
                </au>
                <au>
                   <snm>Klebanov</snm>
                   <fnm>B</fnm>
                </au>
                <au>
                   <snm>Pond</snm>
                   <fnm>G</fnm>
                </au>
                <au>
                   <snm>Oza</snm>
                   <fnm>AM</fnm>
                </au>
                <au>
                   <snm>Kauffman</snm>
                   <fnm>M</fnm>
                </au>
                <au>
                   <snm>Mirza</snm>
                   <fnm>MR</fnm>
                </au>
                <au>
                   <snm>Stone</snm>
                   <fnm>RM</fnm>
                </au>
             </aug>
             <source>Blood</source>
             <pubdate>2013</pubdate>
             <volume>122</volume>
             <fpage>1440</fpage>
          </bibl>
          <bibl id="B19">
             <title>
                <p>A first-in-class, first-in-human Phase I trial of KPT-330 (Selinexor), a Selective Inhibitor of Nuclear Export (SINE) in patients (pts) with advanced solid tumors</p>
             </title>
             <aug>
                <au>
                   <snm>Mau-Sorensen</snm>
                   <fnm>M</fnm>
                </au>
                <au>
                   <snm>Razak</snm>
                   <fnm>A</fnm>
                </au>
                <au>
                   <snm>Shields</snm>
                   <fnm>AF</fnm>
                </au>
                <au>
                   <snm>Gabrail</snm>
                   <fnm>NY</fnm>
                </au>
                <au>
                   <snm>Gerecitano</snm>
                   <fnm>JF</fnm>
                </au>
                <au>
                   <snm>Shacham</snm>
                   <fnm>S</fnm>
                </au>
                <au>
                   <snm>Lassen</snm>
                   <fnm>UN</fnm>
                </au>
                <au>
                   <snm>Rashal</snm>
                   <fnm>T</fnm>
                </au>
                <au>
                   <snm>Cooksey</snm>
                   <fnm>J</fnm>
                </au>
                <au>
                   <snm>Landesman</snm>
                   <fnm>Y</fnm>
                </au>
                <au>
                   <snm>Pond</snm>
                   <fnm>G</fnm>
                </au>
                <au>
                   <snm>Oza</snm>
                   <fnm>AM</fnm>
                </au>
                <au>
                   <snm>Kauffman</snm>
                   <fnm>M</fnm>
                </au>
                <au>
                   <snm>Siu</snm>
                   <fnm>LL</fnm>
                </au>
                <au>
                   <snm>Bedard</snm>
                   <fnm>PL</fnm>
                </au>
                <au>
                   <snm>Mahaseth</snm>
                   <fnm>H</fnm>
                </au>
                <au>
                   <snm>Mirza</snm>
                   <fnm>MR</fnm>
                </au>
                <au>
                   <snm>Mahipal</snm>
                   <fnm>A</fnm>
                </au>
             </aug>
             <source>J Clin Oncol</source>
             <pubdate>2014</pubdate>
             <volume>32</volume>
             <fpage>5s</fpage>
             <note>suppl; abstr 2537</note>
             <xrefbib>
                <pubidlist>
                   <pubid idtype="doi">10.1200/JCO.2013.49.4757</pubid>
                </pubidlist>
             </xrefbib>
          </bibl>
          <bibl id="B20">
             <title>
                <p>Phase I trial of elactocin</p>
             </title>
             <aug>
                <au>
                   <snm>Newlands</snm>
                   <fnm>ES</fnm>
                </au>
                <au>
                   <snm>Rustin</snm>
                   <fnm>GJ</fnm>
                </au>
                <au>
                   <snm>Brampton</snm>
                   <fnm>MH</fnm>
                </au>
             </aug>
             <source>Br J Cancer</source>
             <pubdate>1996</pubdate>
             <volume>74</volume>
             <issue>4</issue>
             <fpage>648</fpage>
             <lpage>649</lpage>
             <xrefbib>
                <pubidlist>
                   <pubid idtype="doi">10.1038/bjc.1996.415</pubid>
                   <pubid idtype="pmpid" link="fulltext">8761384</pubid>
                </pubidlist>
             </xrefbib>
          </bibl>
       </refgrp>
    </bm>
 </art>
