<art>
    <ui>s13049-014-0051-5</ui>
    <ji>1757-7241</ji>
    <fm>
       <dochead>Original research</dochead>
       <bibl>
          <title>
             <p>Epidemiology, morbidity and mortality from fall-related injuries in the United Arab Emirates</p>
          </title>
          <aug>
             <au id="A1">
                <snm>Grivna</snm>
                <fnm>Michal</fnm>
                <insr iid="I1"/>
                <email>m.grivna@uaeu.ac.ae</email>
             </au>
             <au id="A2">
                <snm>Eid</snm>
                <mi>O</mi>
                <fnm>Hani</fnm>
                <insr iid="I2"/>
                <email>hani2003@hotmail.com</email>
             </au>
             <au ca="yes" id="A3">
                <snm>Abu-Zidan</snm>
                <mi>M</mi>
                <fnm>Fikri</fnm>
                <insr iid="I2"/>
                <email>fabuzidan@uaeu.ac.ae</email>
             </au>
          </aug>
          <insg>
             <ins id="I1">
                <p>Institute of Public Health, College of Medicine and Health Sciences, UAE University, Al Ain, United Arab Emirates</p>
             </ins>
             <ins id="I2">
                <p>Trauma Group, Department of Surgery, College of Medicine and Health Sciences, UAE University, Al Ain, United Arab Emirates</p>
             </ins>
          </insg>
          <source>Scandinavian Journal of Trauma, Resuscitation and Emergency Medicine</source>
          <issn>1757-7241</issn>
          <pubdate>2014</pubdate>
          <volume>22</volume>
          <issue>1</issue>
          <fpage>51</fpage>
          <url>http://www.sjtrem.com/content/22/1/51</url>
          <xrefbib>
             <pubidlist>
                <pubid idtype="doi">10.1186/s13049-014-0051-5</pubid>
                <pubid idtype="pmpid">25178823</pubid>
             </pubidlist>
          </xrefbib>
       </bibl>
       <history>
          <rec>
             <date>
                <day>22</day>
                <month>5</month>
                <year>2014</year>
             </date>
          </rec>
          <acc>
             <date>
                <day>21</day>
                <month>8</month>
                <year>2014</year>
             </date>
          </acc>
          <pub>
             <date>
                <day>2</day>
                <month>9</month>
                <year>2014</year>
             </date>
          </pub>
       </history>
       <cpyrt>
          <year>2014</year>
          <collab>Grivna et al.; licensee BioMed Central Ltd.</collab>
          <note>This is an Open Access article distributed under the terms of the Creative Commons Attribution License (<url>http://creativecommons.org/licenses/by/4.0</url>), which permits unrestricted use, distribution, and reproduction in any medium, provided the original work is properly credited. The Creative Commons Public Domain Dedication waiver (<url>http://creativecommons.org/publicdomain/zero/1.0/</url>) applies to the data made available in this article, unless otherwise stated.</note>
       </cpyrt>
       <kwdg>
          <kwd>Falls</kwd>
          <kwd>Elderly</kwd>
          <kwd>Injury</kwd>
          <kwd>Prevention</kwd>
          <kwd>United Arab Emirates</kwd>
       </kwdg>
       <abs>
          <sec>
             <st>
                <p>Abstract</p>
             </st>
             <sec>
                <st>
                   <p>Background</p>
                </st>
                <p>Unintentional falls are a major cause of morbidity and mortality with a significant burden on victims, families, and societies. We aimed to study the mechanism, risk factors, and outcome of hospitalized patients with fall-related injuries in order to propose preventive measures.</p>
             </sec>
             <sec>
                <st>
                   <p>Methods</p>
                </st>
                <p>Fall-related injured patients who were admitted to Al Ain Hospital, United Arab Emirates (UAE) for more than 24&#160;hours or who died after arrival to the hospital, were studied over 3&#160;years. Demography, location and time of injury, affected body regions, hospital and ICU stay, and outcome were analyzed.</p>
             </sec>
             <sec>
                <st>
                   <p>Results</p>
                </st>
                <p>882 patients were studied, 82% were males, and 22% were less than 19&#160;years old. Majority were from the Indian subcontinent. The most common location for fall injuries was work. Patients injured at work were older and mainly non-UAE nationals (p&#8201;&lt;&#8201;0.0001) when compared with those injured at home. Patients falling from height, when compared with those falling from same level, were older (p&#8201;=&#8201;0.017), had more males (p&#8201;&lt;&#8201;0.001), were mainly from the Indian subcontinent (p&#8201;&lt;&#8201;0.001), had higher ISS (p = 0.011) and longer total hospital stay (p&#8201;&lt;&#8201;0.001).</p>
             </sec>
             <sec>
                <st>
                   <p>Conclusions</p>
                </st>
                <p>Falls are a major health problem in the UAE. Falls at work can be prevented by safety education tailored to different ethnic groups, and proper legislation and regulation. Environmental modification using evidence-based architectural design may prevent falls among vulnerable risk groups.</p>
             </sec>
          </sec>
       </abs>
    </fm>
    <bdy>
       <sec>
          <st>
             <p>Background</p>
          </st>
          <p>Unintentional falls are a major cause of morbidity and mortality with a significant burden on victims, families, and societies <abbrgrp>
                <abbr bid="B1">1</abbr>
             </abbrgrp>. They are the second leading cause of injury-related hospitalization for all ages, accounting for about 30-40% of injury admissions <abbrgrp>
                <abbr bid="B2">2</abbr>
             </abbrgrp>,<abbrgrp>
                <abbr bid="B3">3</abbr>
             </abbrgrp>. Falls present 10-15% of all Emergency Department visits <abbrgrp>
                <abbr bid="B4">4</abbr>
             </abbrgrp>. More than 60% of injury-related hospitalizations of the elderly is due to falls which cause hip fractures, traumatic brain injuries and upper limb injuries <abbrgrp>
                <abbr bid="B2">2</abbr>
             </abbrgrp>,<abbrgrp>
                <abbr bid="B3">3</abbr>
             </abbrgrp>. The cost of fall-related injuries and their effects on the health care systems are high <abbrgrp>
                <abbr bid="B5">5</abbr>
             </abbrgrp>,<abbrgrp>
                <abbr bid="B6">6</abbr>
             </abbrgrp>.</p>
          <p>United Arab Emirates (UAE) is a fast developing country with a population of more than 6 million. Falls were the second cause of trauma deaths following road traffic collisions with a death incidence rate of 7.4 per 100 000 population <abbrgrp>
                <abbr bid="B7">7</abbr>
             </abbrgrp>. The personal, environmental, and equipment risk factors for falls vary in different communities. It is important to conduct proper epidemiological studies if we aim to propose useful preventive measures. There is little information on falls in the Gulf area of the Middle East. We aimed to study the mechanism of injury, severity and outcome of hospitalized fall-related injuries in the UAE in order to give recommendations regarding their prevention.</p>
       </sec>
       <sec>
          <st>
             <p>Methods</p>
          </st>
          <sec>
             <st>
                <p>Ethics statement</p>
             </st>
             <p>The Local Ethics Committee of Al Ain Health District Area has approved data collection for all trauma patients who were admitted to Al Ain Hospital or who died in the Emergency Department (UAE RECA/02/44). Data were collected prospectively on a specially designed hard copy form. All patients or their care givers signed a consent form for permitting the use of anonymous data for research or audit.</p>
             <p>We studied all fall-related injured patients who were admitted to Al Ain Hospital for more than 24&#160;hours, or who died after arrival to the hospital during the period of March 2003 &#8211; March 2006. Al Ain hospital is a major hospital of Al Ain City, which has a population of about half a million <abbrgrp>
                   <abbr bid="B8">8</abbr>
                </abbrgrp>. Data were retrieved from Al Ain Hospital Trauma Registry, which were prospectively collected by a full time Research Fellow. Variables studied included age, gender, nationality, location of fall, type of fall (from height or same level), time and date of the fall, injured anatomical body regions, intensive care unit (ICU) admission, duration of hospital stay, and mortality.</p>
             <p>Severity of injury of the affected body region was assessed by the Abbreviated Injury Scale (AIS) and by the Injury Severity Score (ISS) <abbrgrp>
                   <abbr bid="B9">9</abbr>
                </abbrgrp>,<abbrgrp>
                   <abbr bid="B10">10</abbr>
                </abbrgrp>. The ISS was calculated manually using the Abbreviated Injury Scale Handbook <abbrgrp>
                   <abbr bid="B11">11</abbr>
                </abbrgrp>. The AIS has a value of 1&#8211;5 while ISS has a value of 1&#8211;75.</p>
          </sec>
          <sec>
             <st>
                <p>Statistical analysis</p>
             </st>
             <p>Data were analyzed using the Statistical Package for the Social Sciences (IBM-SPSS version 20, Chicago, Il). The Mann&#8211;Whitney U-test or Fisher&#8217;s exact test were used to compare two independent groups of continuous, ordinal, or categorical data. The Kruskal-Wallis non parametric test was used to compare continuous or ordinal data for more than two independent groups. Probabilities of less than 0.05 were accepted as statistically significant.</p>
             <p>We estimated the incidence rates using 2005 UAE census data with an assumption that Al Ain City population structure is similar to that of the whole UAE <abbrgrp>
                   <abbr bid="B8">8</abbr>
                </abbrgrp>.</p>
          </sec>
       </sec>
       <sec>
          <st>
             <p>Results</p>
          </st>
          <p>There were 882 patients, 727 males (82%) (male:female ratio was 4.7:1). Mean (SD) age was 32.8 (17.4) years, majority were adults in the productive years of 20&#8211;54 years old (68%; n&#8201;=&#8201;600). Twenty two percent (n&#8201;=&#8201;187) were children and youth &lt;19&#160;years (Figure&#160;<figr fid="F1">1</figr>). Majority of patients were from the Indian subcontinent (52%; n&#8201;=&#8201;454), followed by Arabs (25%; n&#8201;=&#8201;217), UAE nationals (15%; n&#8201;=&#8201;129), other Asians (5%; n&#8201;=&#8201;47), and others 3% (n&#8201;=&#8201;27).</p>
          
             <fig id="F1">
                <title>
                   <p>Figure 1</p>
                </title>
                <caption>
                   <p>Age distribution of fall patients by gender (n&#8201;=&#8201;727 males, n&#8201;=&#8201;155 females), males&#8201;=&#8201;black bars; females&#8201;=&#8201;purple bars.</p>
                </caption>
                <text>
                   <p>
                      <b>Age distribution of fall patients by gender (n&#8201;=&#8201;727 males, n&#8201;=&#8201;155 females), males&#8201;=&#8201;black bars; females&#8201;=&#8201;purple bars.</b>
                   </p>
                </text>
                <graphic file="s13049-014-0051-5-1"/>
             </fig>
          
          <p>Work was the most common location for fall injury (51%; n&#8201;=&#8201;451), followed by home (37%; n&#8201;=&#8201;324) and others (12%; n&#8201;=&#8201;107). Patients injured at work were significantly older than those injured at home or other locations (p&#8201;&lt;&#8201;0.0001) (Table&#160;<tblr tid="T1">1</tblr>). Females and UAE nationals were significantly more injured at home compared with males and non-UAE nationals (p&#8201;&lt;&#8201;0.0001) (Table&#160;<tblr tid="T1">1</tblr>). Other locations included road, off-road, public buildings, public area, hotels/clubs and others (12%; n&#8201;=&#8201;107).</p>
          
             <table id="T1">
                <title>
                   <p>Table 1</p>
                </title>
                <caption>
                   <p>
                      <b>Location of falls by age, gender and nationality, Al Ain Hospital, 2003&#8211;2006 (n&#8201;=&#8201;882)</b>
                   </p>
                </caption>
                <tgroup align="left" cols="6">
                   <colspec align="left" colname="c1" colnum="1" colwidth="*"/>
                   <colspec align="left" colname="c2" colnum="2" colwidth="*"/>
                   <colspec align="left" colname="c3" colnum="3" colwidth="*"/>
                   <colspec align="left" colname="c4" colnum="4" colwidth="*"/>
                   <colspec align="left" colname="c5" colnum="5" colwidth="*"/>
                   <colspec align="left" colname="c6" colnum="6" colwidth="*"/>
                   <thead>
                      <row valign="top">
                         <entry nameend="c2" namest="c1" rowsep="1">
                            <p>
                               <b>Variable</b>
                            </p>
                         </entry>
                         <entry colname="c3">
                            <p>
                               <b>Home n&#8201;=&#8201;324</b>
                            </p>
                         </entry>
                         <entry colname="c4">
                            <p>
                               <b>Work n&#8201;=&#8201;451</b>
                            </p>
                         </entry>
                         <entry colname="c5">
                            <p>
                               <b>Other n&#8201;=&#8201;107</b>
                            </p>
                         </entry>
                         <entry colname="c6">
                            <p>
                               <b>p-value*</b>
                            </p>
                         </entry>
                      </row>
                   </thead>
                   <tfoot>
                      <p>*p&#8201;=&#8201;Kruskall Wallis test or Fisher&#8217;s Exact test as appropriate.</p>
                      <p>Data are presented as median (range) and number (%) as appropriate.</p>
                      <p>Data on nationality were missing in three patients falling at home, 4 patients falling at work, and one patient falling elsewhere.</p>
                   </tfoot>
                   <tbody>
                      <row valign="top">
                         <entry nameend="c2" namest="c1">
                            <p>Age</p>
                         </entry>
                         <entry colname="c3">
                            <p>26 (1&#8211;100)</p>
                         </entry>
                         <entry colname="c4">
                            <p>35 (4&#8211;76)</p>
                         </entry>
                         <entry colname="c5">
                            <p>20.0 (3&#8211;75)</p>
                         </entry>
                         <entry colname="c6">
                            <p>&lt;0.0001</p>
                         </entry>
                      </row>
                      <row valign="top">
                         <entry colname="c1" morerows="1">
                            <p>Gender</p>
                         </entry>
                         <entry colname="c2">
                            <p>Male</p>
                         </entry>
                         <entry colname="c3">
                            <p>186 (57.4%)</p>
                         </entry>
                         <entry colname="c4">
                            <p>448 (99.3%)</p>
                         </entry>
                         <entry colname="c5">
                            <p>93 (86.9%)</p>
                         </entry>
                         <entry colname="c6">
                            <p>&lt;0.0001</p>
                         </entry>
                      </row>
                      <row valign="top">
                         <entry colname="c2">
                            <p>Female</p>
                         </entry>
                         <entry colname="c3">
                            <p>138 (42.6%)</p>
                         </entry>
                         <entry colname="c4">
                            <p>3 (0.7%)</p>
                         </entry>
                         <entry colname="c5">
                            <p>14 (13.1%)</p>
                         </entry>
                         <entry colname="c6"/>
                      </row>
                      <row valign="top">
                         <entry colname="c1" morerows="1">
                            <p>Nationality</p>
                         </entry>
                         <entry colname="c2">
                            <p>UAE</p>
                         </entry>
                         <entry colname="c3">
                            <p>94 (29.3%)</p>
                         </entry>
                         <entry colname="c4">
                            <p>7 (1.6%)</p>
                         </entry>
                         <entry colname="c5">
                            <p>28 (26.4%)</p>
                         </entry>
                         <entry colname="c6">
                            <p>&lt;0.0001</p>
                         </entry>
                      </row>
                      <row valign="top">
                         <entry colname="c2">
                            <p>Non-UAE</p>
                         </entry>
                         <entry colname="c3">
                            <p>227 (70.7%)</p>
                         </entry>
                         <entry colname="c4">
                            <p>440 (98.4%)</p>
                         </entry>
                         <entry colname="c5">
                            <p>78 (73.6%)</p>
                         </entry>
                         <entry colname="c6"/>
                      </row>
                   </tbody>
                </tgroup>
             </table>
          
          <p>There were more patients with falls from height (57%; n&#8201;=&#8201;501) than from same level (43%; n&#8201;=&#8201;381) (Table&#160;<tblr tid="T2">2</tblr>). Patients falling from height, when compared with those falling from same level, were older (p&#8201;=&#8201;0.017), had more males (p&#8201;&lt;&#8201;0.001), were mainly from the Indian subcontinent (p&#8201;&lt;&#8201;0.001), had higher ISS (p&#8201;=&#8201;0.011), were more admitted to the ICU (p&#8201;=&#8201;0.001), and had longer total hospital stay (p&#8201;&lt;&#8201;0.001) (Table&#160;<tblr tid="T2">2</tblr>). Falls from the same level occured more at home (n&#8201;=&#8201;214/324; 66%), while falls from height were more common at work (n&#8201;=&#8201;360/451; 80%). Two patients were injured intentionally during a conflict.</p>
          
             <table id="T2">
                <title>
                   <p>Table 2</p>
                </title>
                <caption>
                   <p>
                      <b>Demographic and severity variables by type of falls, Al Ain Hospital, 2003&#8211;2006 (n&#8201;=&#8201;882)</b>
                   </p>
                </caption>
                <tgroup align="left" cols="4">
                   <colspec align="left" colname="c1" colnum="1" colwidth="*"/>
                   <colspec align="left" colname="c2" colnum="2" colwidth="*"/>
                   <colspec align="left" colname="c3" colnum="3" colwidth="*"/>
                   <colspec align="left" colname="c4" colnum="4" colwidth="*"/>
                   <thead>
                      <row valign="top">
                         <entry colname="c1">
                            <p>
                               <b>Variable</b>
                            </p>
                         </entry>
                         <entry colname="c2">
                            <p>
                               <b>Fall from same level (n&#8201;=&#8201;381)</b>
                            </p>
                         </entry>
                         <entry colname="c3">
                            <p>
                               <b>Fall from height (n&#8201;=&#8201;501)</b>
                            </p>
                         </entry>
                         <entry colname="c4">
                            <p>
                               <b>p-value*</b>
                            </p>
                         </entry>
                      </row>
                   </thead>
                   <tfoot>
                      <p>*p&#8201;=&#8201;Fisher&#8217;s Exact test or Mann Whitney test as appropriate; Data are presented as number (%) or median (range) as appropriate.</p>
                      <p>a&#8201;=&#8201;NB. Data on nationality were missing in one patient falling from same level and seven patients falling from height.</p>
                   </tfoot>
                   <tbody>
                      <row valign="top">
                         <entry colname="c1">
                            <p>Age (years)</p>
                         </entry>
                         <entry colname="c2">
                            <p>31 (1&#8211;95)</p>
                         </entry>
                         <entry colname="c3">
                            <p>34 (2&#8211;100)</p>
                         </entry>
                         <entry colname="c4">
                            <p>0.017</p>
                         </entry>
                      </row>
                      <row valign="top">
                         <entry colname="c1">
                            <p>Gender (male)</p>
                         </entry>
                         <entry colname="c2">
                            <p>273 (71.7%)</p>
                         </entry>
                         <entry colname="c3">
                            <p>454 (90.6%)</p>
                         </entry>
                         <entry colname="c4">
                            <p>&lt;0.001</p>
                         </entry>
                      </row>
                      <row valign="top">
                         <entry colname="c1">
                            <p>Nationality (Indian subcontinent)</p>
                         </entry>
                         <entry colname="c2">
                            <p>141 (37.1%)<sup>a</sup>
                            </p>
                         </entry>
                         <entry colname="c3">
                            <p>313 (63.4%)<sup>a</sup>
                            </p>
                         </entry>
                         <entry colname="c4">
                            <p>&lt;0.001</p>
                         </entry>
                      </row>
                      <row valign="top">
                         <entry colname="c1">
                            <p>ICU admission</p>
                         </entry>
                         <entry colname="c2">
                            <p>4 (1%)</p>
                         </entry>
                         <entry colname="c3">
                            <p>26 (5.2%)</p>
                         </entry>
                         <entry colname="c4">
                            <p>0.001</p>
                         </entry>
                      </row>
                      <row valign="top">
                         <entry colname="c1">
                            <p>Length of hospital stay (days)</p>
                         </entry>
                         <entry colname="c2">
                            <p>5 (1&#8211;85)</p>
                         </entry>
                         <entry colname="c3">
                            <p>6 (1&#8211;150)</p>
                         </entry>
                         <entry colname="c4">
                            <p>&lt;0.001</p>
                         </entry>
                      </row>
                      <row valign="top">
                         <entry colname="c1">
                            <p>ISS</p>
                         </entry>
                         <entry colname="c2">
                            <p>4 (1&#8211;25)</p>
                         </entry>
                         <entry colname="c3">
                            <p>4 (1&#8211;34)</p>
                         </entry>
                         <entry colname="c4">
                            <p>0.011</p>
                         </entry>
                      </row>
                   </tbody>
                </tgroup>
             </table>
          
          <p>Wednesday had the highest incidence of falls compared with other days (19%; n&#8201;=&#8201;166) (Figure&#160;<figr fid="F2">2</figr>A). Twenty six percent (n&#8201;=&#8201;228) of falls occured during the fall (September -November) (Figure&#160;<figr fid="F2">2</figr>B). Figure&#160;<figr fid="F3">3</figr> shows the time distribution of falls by mechanism (A) and location (B) of injury. It is clear that fall from height had the highest peak at 9&#8211;11&#160;am and occured mainly at work, while fall at the same level occured continuously during daily activity time (8&#160;am &#8211; 10&#160;pm) at home. The estimated annual incidence of hospitalized injuries with falls in Al Ain city was 64.3/100,000 persons per year.</p>
          
             <fig id="F2">
                <title>
                   <p>Figure 2</p>
                </title>
                <caption>
                   <p>Distribution of fall patients by day of the week (blue bars, A) and month of the year (black bars, B).</p>
                </caption>
                <text>
                   <p>
                      <b>Distribution of fall patients by day of the week (blue bars, A) and month of the year (black bars, B).</b>
                   </p>
                </text>
                <graphic file="s13049-014-0051-5-2"/>
             </fig>
          
          
             <fig id="F3">
                <title>
                   <p>Figure 3</p>
                </title>
                <caption>
                   <p>Time distribution of fall patients by mechanism (A) (n&#8201;=&#8201;420 fall from height, n&#8201;=&#8201;291 fall from same level), fall from height&#8201;=&#8201;black bars, fall from same level&#8201;=&#8201;white bars; and by location of trauma (B) (n&#8201;=&#8201;414 work, n&#8201;=&#8201;297 home), work&#8201;=&#8201;black bars, home&#8201;=&#8201;light blue bars.</p>
                </caption>
                <text>
                   <p>
                      <b>Time distribution of fall patients by mechanism (A) (n&#8201;=&#8201;420 fall from height, n&#8201;=&#8201;291 fall from same level), fall from height&#8201;=&#8201;black bars, fall from same level&#8201;=&#8201;white bars; and by location of trauma (B) (n&#8201;=&#8201;414 work, n&#8201;=&#8201;297 home), work&#8201;=&#8201;black bars, home&#8201;=&#8201;light blue bars.</b>
                   </p>
                </text>
                <graphic file="s13049-014-0051-5-3"/>
             </fig>
          
          <p>The most common injured anatomical region was the lower extremity (n&#8201;=&#8201;362/882; 41%), followed by the upper extremity (n&#8201;=&#8201;260/882; 29%), head/face and neck (n&#8201;=&#8201;157/882; 18%), spine (n&#8201;=&#8201;115/882; 13%), chest (n&#8201;=&#8201;113/882; 13%) and abdomen (n&#8201;=&#8201;34/882; 4%). Patients who fell from height had significantly more injured chest (p&#8201;&lt;&#8201;0.001) and spine (p&#8201;&lt;&#8201;0.001) compared with those who fell on the same level (Table&#160;<tblr tid="T3">3</tblr>). There was a trend for more severe head injury for those who fell from height (p&#8201;=&#8201;0.09). Those who fell on the same level had more severe lower limb injuries compared with those who fell from height (p&#8201;&lt;&#8201;0.04).</p>
          
             <table id="T3">
                <title>
                   <p>Table 3</p>
                </title>
                <caption>
                   <p>
                      <b>Comparison of location and severity of anatomical regions between fall from the same level and fall from height of hospitalized fall-related injured patients, Al Ain Hospital, 2003&#8211;2006 (n&#8201;=&#8201;1041 regions in 882 patients)</b>
                   </p>
                </caption>
                <tgroup align="left" cols="11">
                   <colspec align="left" colname="c1" colnum="1" colwidth="*"/>
                   <colspec align="left" colname="c2" colnum="2" colwidth="*"/>
                   <colspec align="left" colname="c3" colnum="3" colwidth="*"/>
                   <colspec align="left" colname="c4" colnum="4" colwidth="*"/>
                   <colspec align="left" colname="c5" colnum="5" colwidth="*"/>
                   <colspec align="left" colname="c6" colnum="6" colwidth="*"/>
                   <colspec align="left" colname="c7" colnum="7" colwidth="*"/>
                   <colspec align="left" colname="c8" colnum="8" colwidth="*"/>
                   <colspec align="left" colname="c9" colnum="9" colwidth="*"/>
                   <colspec align="left" colname="c10" colnum="10" colwidth="*"/>
                   <colspec align="left" colname="c11" colnum="11" colwidth="*"/>
                   <thead>
                      <row valign="top">
                         <entry nameend="c11" namest="c1" rowsep="1">
                            <p>
                               <b>Injury severity by maximum AIS</b>
                            </p>
                         </entry>
                      </row>
                      <row valign="top">
                         <entry colname="c1"/>
                         <entry colname="c2" rowsep="1">
                            <p>
                               <b>Same level (n&#8201;=&#8201;381)</b>
                            </p>
                         </entry>
                         <entry nameend="c4" namest="c3" rowsep="1">
                            <p>
                               <b>From height (n&#8201;=&#8201;501)</b>
                            </p>
                         </entry>
                         <entry nameend="c7" namest="c5" rowsep="1">
                            <p>
                               <b>Same level (n&#8201;=&#8201;381)</b>
                            </p>
                         </entry>
                         <entry nameend="c10" namest="c8" rowsep="1">
                            <p>
                               <b>From height (n&#8201;=&#8201;501)</b>
                            </p>
                         </entry>
                         <entry colname="c11"/>
                      </row>
                      <row valign="top">
                         <entry colname="c1">
                            <p>
                               <b>Region</b>
                            </p>
                         </entry>
                         <entry colname="c2">
                            <p>
                               <b>Number (%)</b>
                            </p>
                         </entry>
                         <entry colname="c3">
                            <p>
                               <b>Number (%)</b>
                            </p>
                         </entry>
                         <entry colname="c4">
                            <p>
                               <b>p value*</b>
                            </p>
                         </entry>
                         <entry colname="c5">
                            <p>
                               <b>Mean</b>
                            </p>
                         </entry>
                         <entry colname="c6">
                            <p>
                               <b>Median</b>
                            </p>
                         </entry>
                         <entry colname="c7">
                            <p>
                               <b>Range</b>
                            </p>
                         </entry>
                         <entry colname="c8">
                            <p>
                               <b>Mean</b>
                            </p>
                         </entry>
                         <entry colname="c9">
                            <p>
                               <b>Median</b>
                            </p>
                         </entry>
                         <entry colname="c10">
                            <p>
                               <b>Range</b>
                            </p>
                         </entry>
                         <entry colname="c11">
                            <p>
                               <b>p value*</b>
                            </p>
                         </entry>
                      </row>
                   </thead>
                   <tfoot>
                      <p>*p&#8201;=&#8201;Fisher&#8217;s Exact test or Mann Whitney test as appropriate; Data are presented as number (%) or median (range) as appropriate.</p>
                   </tfoot>
                   <tbody>
                      <row valign="top">
                         <entry colname="c1">
                            <p>Head/face/neck</p>
                         </entry>
                         <entry colname="c2">
                            <p>63 (16.5)</p>
                         </entry>
                         <entry colname="c3">
                            <p>94 (18.8)</p>
                         </entry>
                         <entry colname="c4">
                            <p>0.44</p>
                         </entry>
                         <entry colname="c5">
                            <p>1.51</p>
                         </entry>
                         <entry colname="c6">
                            <p>1</p>
                         </entry>
                         <entry colname="c7">
                            <p>1-4</p>
                         </entry>
                         <entry colname="c8">
                            <p>1.83</p>
                         </entry>
                         <entry colname="c9">
                            <p>1</p>
                         </entry>
                         <entry colname="c10">
                            <p>1-4</p>
                         </entry>
                         <entry colname="c11">
                            <p>0.09</p>
                         </entry>
                      </row>
                      <row valign="top">
                         <entry colname="c1">
                            <p>Chest</p>
                         </entry>
                         <entry colname="c2">
                            <p>32 (8.4)</p>
                         </entry>
                         <entry colname="c3">
                            <p>81 (16.2)</p>
                         </entry>
                         <entry colname="c4">
                            <p>&lt;0.001</p>
                         </entry>
                         <entry colname="c5">
                            <p>1.66</p>
                         </entry>
                         <entry colname="c6">
                            <p>2</p>
                         </entry>
                         <entry colname="c7">
                            <p>1-3</p>
                         </entry>
                         <entry colname="c8">
                            <p>1.69</p>
                         </entry>
                         <entry colname="c9">
                            <p>1</p>
                         </entry>
                         <entry colname="c10">
                            <p>1-4</p>
                         </entry>
                         <entry colname="c11">
                            <p>0.86</p>
                         </entry>
                      </row>
                      <row valign="top">
                         <entry colname="c1">
                            <p>Abdomen</p>
                         </entry>
                         <entry colname="c2">
                            <p>13 (3.4)</p>
                         </entry>
                         <entry colname="c3">
                            <p>21 (4.2)</p>
                         </entry>
                         <entry colname="c4">
                            <p>0.68</p>
                         </entry>
                         <entry colname="c5">
                            <p>1.38</p>
                         </entry>
                         <entry colname="c6">
                            <p>1</p>
                         </entry>
                         <entry colname="c7">
                            <p>1-3</p>
                         </entry>
                         <entry colname="c8">
                            <p>1.81</p>
                         </entry>
                         <entry colname="c9">
                            <p>2</p>
                         </entry>
                         <entry colname="c10">
                            <p>1-3</p>
                         </entry>
                         <entry colname="c11">
                            <p>0.11</p>
                         </entry>
                      </row>
                      <row valign="top">
                         <entry colname="c1">
                            <p>Spine</p>
                         </entry>
                         <entry colname="c2">
                            <p>25 (6.6)</p>
                         </entry>
                         <entry colname="c3">
                            <p>90 (18.0)</p>
                         </entry>
                         <entry colname="c4">
                            <p>&lt;0.001</p>
                         </entry>
                         <entry colname="c5">
                            <p>2</p>
                         </entry>
                         <entry colname="c6">
                            <p>2</p>
                         </entry>
                         <entry colname="c7">
                            <p>2-2</p>
                         </entry>
                         <entry colname="c8">
                            <p>2.17</p>
                         </entry>
                         <entry colname="c9">
                            <p>2</p>
                         </entry>
                         <entry colname="c10">
                            <p>2-5</p>
                         </entry>
                         <entry colname="c11">
                            <p>0.36</p>
                         </entry>
                      </row>
                      <row valign="top">
                         <entry colname="c1">
                            <p>Upper extremity</p>
                         </entry>
                         <entry colname="c2">
                            <p>117 (30.7)</p>
                         </entry>
                         <entry colname="c3">
                            <p>143 (28.5)</p>
                         </entry>
                         <entry colname="c4">
                            <p>0.53</p>
                         </entry>
                         <entry colname="c5">
                            <p>1.92</p>
                         </entry>
                         <entry colname="c6">
                            <p>2</p>
                         </entry>
                         <entry colname="c7">
                            <p>1-3</p>
                         </entry>
                         <entry colname="c8">
                            <p>1.85</p>
                         </entry>
                         <entry colname="c9">
                            <p>2</p>
                         </entry>
                         <entry colname="c10">
                            <p>1-3</p>
                         </entry>
                         <entry colname="c11">
                            <p>0.18</p>
                         </entry>
                      </row>
                      <row valign="top">
                         <entry colname="c1">
                            <p>Lower extremity</p>
                         </entry>
                         <entry colname="c2">
                            <p>151 (39.6)</p>
                         </entry>
                         <entry colname="c3">
                            <p>211 (42.1)</p>
                         </entry>
                         <entry colname="c4">
                            <p>0.50</p>
                         </entry>
                         <entry colname="c5">
                            <p>2.26</p>
                         </entry>
                         <entry colname="c6">
                            <p>2</p>
                         </entry>
                         <entry colname="c7">
                            <p>1-3</p>
                         </entry>
                         <entry colname="c8">
                            <p>2.16</p>
                         </entry>
                         <entry colname="c9">
                            <p>2</p>
                         </entry>
                         <entry colname="c10">
                            <p>1-3</p>
                         </entry>
                         <entry colname="c11">
                            <p>0.04</p>
                         </entry>
                      </row>
                   </tbody>
                </tgroup>
             </table>
          
          <p>The mean (SD) total hospital stay was 8.6 (11.2) days. Two patients died (0.2%), one falling from a height and another from the same level.</p>
       </sec>
       <sec>
          <st>
             <p>Discussion</p>
          </st>
          <p>Our study has shown that the highest risk for falls for UAE nationals and females was at home, while work-related falls were more for expatriate males. Falls from the same level occured more often at home while falls from height were more common at work. Patients falling from height had more severe head injuries, were more admitted to the ICU, and had longer hospital stay when compared with those falling from the same level.</p>
          <p>Similar to others, majority of our injured patients were males from the Indian subcontinent who were injured at work <abbrgrp>
                <abbr bid="B5">5</abbr>
             </abbrgrp>,<abbrgrp>
                <abbr bid="B12">12</abbr>
             </abbrgrp>. Information about occupation was missing in our study. In comparison, construction industry was regarded as the most hazardous industry in Kuwait <abbrgrp>
                <abbr bid="B13">13</abbr>
             </abbrgrp>. Immigrant workers at construction sites are at high risk of injury <abbrgrp>
                <abbr bid="B5">5</abbr>
             </abbrgrp>,<abbrgrp>
                <abbr bid="B14">14</abbr>
             </abbrgrp>,<abbrgrp>
                <abbr bid="B15">15</abbr>
             </abbrgrp>. They often lack safety equipment and safety education using their own language. We have previously reported the challenges faced with promoting occupational safety in the UAE <abbrgrp>
                <abbr bid="B7">7</abbr>
             </abbrgrp>,<abbrgrp>
                <abbr bid="B16">16</abbr>
             </abbrgrp>.</p>
          <p>Two daily time peaks for falls were identified. They were 9&#8211;11&#160;a.m. at work and 5&#8211;9&#160;p.m. at home. A study from Canada reported that 11&#160;a.m. was the peak for occupational injuries possibly due to sleep deprivation <abbrgrp>
                <abbr bid="B17">17</abbr>
             </abbrgrp>. Work at the construction sites in the UAE starts earlier because of the hot climate with possible increase in tiredness and sleepiness. The mid-day break for summer months (12.30-4&#160;pm) was introduced in 2005 so as to avoid heat-related illness. This implies that work finishes late with possible reduction in sleeping hours. Dinges et al. have shown that excessive sleepiness reduces performance and ability to stay alert, and increases the risk of errors <abbrgrp>
                <abbr bid="B18">18</abbr>
             </abbrgrp>. The increased home falls at evening is possibly related to activities like dinner preparation. Falls occured more often on Wednesday which was the last working day of the week in the UAE during the study period. Thursday became the last working day of the week in the UAE on 1st September 2006 <abbrgrp>
                <abbr bid="B19">19</abbr>
             </abbrgrp>. We have noticed the same time of increased injury in pedestrian and bicycle-related injuries <abbrgrp>
                <abbr bid="B20">20</abbr>
             </abbrgrp>,<abbrgrp>
                <abbr bid="B21">21</abbr>
             </abbrgrp>. The monthly incidence of falls in our study was high during August, similar to a study from Canada <abbrgrp>
                <abbr bid="B17">17</abbr>
             </abbrgrp>. High outdoor temperatures, which can reach up to 50&#176;C, can decrease the vigilance among workers.</p>
          <p>Fall from height occured more at work. Falling from height at construction sites was common in Qatar with significant effects on the health care system <abbrgrp>
                <abbr bid="B5">5</abbr>
             </abbrgrp>. A similar study from Taiwan showed that falls were the most common cause of death at workplace <abbrgrp>
                <abbr bid="B22">22</abbr>
             </abbrgrp>. A study from UK reported that slipping and tripping was the most common injury at work <abbrgrp>
                <abbr bid="B23">23</abbr>
             </abbrgrp>.</p>
          <p>Falls are the leading cause of pediatric injury-related hospitalization <abbrgrp>
                <abbr bid="B24">24</abbr>
             </abbrgrp>,<abbrgrp>
                <abbr bid="B25">25</abbr>
             </abbrgrp>. Twenty two percent of patients in our study were children or youth. Families in the UAE tend to have more children who are often supervised by maids or older siblings without enough experience on first aid or safety precautions. Cases of fatal falls from higher level windows and balconies in the UAE highlighted the importance of automatic protection by passive measures, e.g. mandatory instalations of window guards <abbrgrp>
                <abbr bid="B26">26</abbr>
             </abbrgrp>. A study from USA, on pediatric falls from apartment balconies and windows, found that balcony railings with more than 10&#160;cm apart, and windows that were within 60&#160;cm of the floor were the two most important hazards <abbrgrp>
                <abbr bid="B27">27</abbr>
             </abbrgrp>. Children were previously used as camel jockeys in the UAE. They used to have major head injuries <abbrgrp>
                <abbr bid="B28">28</abbr>
             </abbrgrp>. Succesful legislative intervention with substitution of child riders by robots eliminated these injuries <abbrgrp>
                <abbr bid="B29">29</abbr>
             </abbrgrp>.</p>
          <p>Falls from the same level in our study occured more at home. Falls among the elderly, including same-level falls, can cause serious injuries and death <abbrgrp>
                <abbr bid="B30">30</abbr>
             </abbrgrp>. Five percent of our patients were of more than 65&#160;years old. 30% to 60% of old people fall every year and half of them have multiple falls <abbrgrp>
                <abbr bid="B31">31</abbr>
             </abbrgrp>,<abbrgrp>
                <abbr bid="B32">32</abbr>
             </abbrgrp>. Sterling et al. reported that injury severity and death for same-level falls in the elderly was twice that of the young people <abbrgrp>
                <abbr bid="B30">30</abbr>
             </abbrgrp>. Home hazards for falls in the elderly include narrow steps, stairs with four or more steps, absence of railings on stairs, slippery surfaces, and insufficient lighting <abbrgrp>
                <abbr bid="B33">33</abbr>
             </abbrgrp>,<abbrgrp>
                <abbr bid="B34">34</abbr>
             </abbrgrp>. Physical environment risks are related to falls <abbrgrp>
                <abbr bid="B35">35</abbr>
             </abbrgrp>. A European study showed that missing window guards at the second level or higher was a major hazard to death and disability <abbrgrp>
                <abbr bid="B36">36</abbr>
             </abbrgrp>.</p>
          <p>The most common injured region in our study was the extremity, compared with the head in Qatar <abbrgrp>
                <abbr bid="B5">5</abbr>
             </abbrgrp>. Head/face/neck in our study was the second common injured region (18%) with more severe head injury for those falling from height. This indicates the need for safety measures, such as using helmets and installing safety barriers. The annual incidence of fall-related injuries (64.3/100,000) in our study was lower than in Qatar (86.7/100,000), despite that they included only occupational-related falls <abbrgrp>
                <abbr bid="B5">5</abbr>
             </abbrgrp>.</p>
          <p>It is important to highlight that there are certain limitations in our study. Mortality was low (0.2%). It is possible that patients with more severe injuries may have died before arriving to the hospital. In contrast, patients who had minor fall injuries were treated at the Emergency Department and discharged home. Furthermore, our Trauma Registry was a time-limited research project, which may not reflect the current situation and may be not generalizable to all UAE. Our study was based in Al Ain City, which does not have many high-rise buildings. In contrast Dubai and Abu Dhabi cities have very high buildings with more construction sites and younger labourers, so, the prevalence of falling from height may be different. Furthermore, our registry lacks data on the activity of the person during the fall, type of occupation, the detailed location of the fall at home, socio-economic variables and information on risk-taking behaviors.</p>
       </sec>
       <sec>
          <st>
             <p>Conclusions</p>
          </st>
          <p>Young males are at high risk for falls at work. Falls at work can be prevented by occupational safety education, proper legislation and regulations. Safety education in the UAE should be tailored to different ethnic groups residing and working in the UAE. Environmental modification using evidence-based architectural design can prevent home falls among vulnerable risk groups such as children and elderly.</p>
       </sec>
       <sec>
          <st>
             <p>Competing interests</p>
          </st>
          <p>All authors declare that they have no competing interests.</p>
       </sec>
       <sec>
          <st>
             <p>Authors&#8217; contributions</p>
          </st>
          <p>Conceived and designed the experiments: MG HOE FAZ. Performed the experiments: HOE. Analyzed the data: MG HOE FAZ. Contributed reagents/materials/analysis tools: MG HOE FAZ. Wrote the paper: MG FAZ. Critically read the paper: MG HOE FAZ. Approved final version: MG HOE FAZ. All authors read and approved the final manuscript.</p>
       </sec>
    </bdy>
    <bm>
       <ack>
          <sec>
             <st>
                <p>Acknowledgements</p>
             </st>
             <p>This study was supported by an Interdisciplinary UAE University grant (No. 02-07-8-1/4) and UAE University grant (No. NP-14-18).</p>
          </sec>
       </ack>
       <refgrp>
          
          <bibl id="B1">
             <title>
                <p>Unintentional injuries in the home in the United States part II: morbidity</p>
             </title>
             <aug>
                <au>
                   <snm>Runyan</snm>
                   <fnm>CW</fnm>
                </au>
                <au>
                   <snm>Perkis</snm>
                   <fnm>D</fnm>
                </au>
                <au>
                   <snm>Marshall</snm>
                   <fnm>SW</fnm>
                </au>
                <au>
                   <snm>Johnson</snm>
                   <fnm>RM</fnm>
                </au>
                <au>
                   <snm>Coyne-Beasley</snm>
                   <fnm>T</fnm>
                </au>
                <au>
                   <snm>Waller</snm>
                   <fnm>AE</fnm>
                </au>
                <au>
                   <snm>Black</snm>
                   <fnm>C</fnm>
                </au>
                <au>
                   <snm>Baccaglini</snm>
                   <fnm>L</fnm>
                </au>
             </aug>
             <source>Am J Prev Med</source>
             <pubdate>2005</pubdate>
             <volume>28</volume>
             <fpage>80</fpage>
             <lpage>87</lpage>
             <xrefbib>
                <pubidlist>
                   <pubid idtype="doi">10.1016/j.amepre.2004.09.017</pubid>
                   <pubid idtype="pmpid" link="fulltext">15626561</pubid>
                </pubidlist>
             </xrefbib>
          </bibl>
          <bibl id="B2">
             <source>National Trauma Registry 2011 Report: Hospitalizations for Major Injury in Canada, 2008&#8211;2009 Data</source>
             <publisher>&#4447;, Ottawa</publisher>
             <pubdate>2011</pubdate>
          </bibl>
          <bibl id="B3">
             <source>WHO Global Report on Falls Prevention in Older Age</source>
             <publisher>World Health Organization, Geneva</publisher>
             <pubdate>2007</pubdate>
          </bibl>
          <bibl id="B4">
             <title>
                <p>Incidence and costs of unintentional falls in older people in the United Kingdom</p>
             </title>
             <aug>
                <au>
                   <snm>Scuffham</snm>
                   <fnm>P</fnm>
                </au>
                <au>
                   <snm>Chaplin</snm>
                   <fnm>S</fnm>
                </au>
                <au>
                   <snm>Legood</snm>
                   <fnm>R</fnm>
                </au>
             </aug>
             <source>J Epidemiol Community Health</source>
             <pubdate>2003</pubdate>
             <volume>57</volume>
             <fpage>740</fpage>
             <lpage>744</lpage>
             <xrefbib>
                <pubidlist>
                   <pubid idtype="doi">10.1136/jech.57.9.740</pubid>
                   <pubid idtype="pmpid" link="fulltext">12933783</pubid>
                </pubidlist>
             </xrefbib>
          </bibl>
          <bibl id="B5">
             <title>
                <p>Epidemiology of workplace-related fall from height and cost of trauma care in Qatar</p>
             </title>
             <aug>
                <au>
                   <snm>Tuma</snm>
                   <fnm>MA</fnm>
                </au>
                <au>
                   <snm>Acerra</snm>
                   <fnm>JR</fnm>
                </au>
                <au>
                   <snm>El-Menyar</snm>
                   <fnm>A</fnm>
                </au>
                <au>
                   <snm>Al-Thani</snm>
                   <fnm>H</fnm>
                </au>
                <au>
                   <snm>Al-Hassani</snm>
                   <fnm>A</fnm>
                </au>
                <au>
                   <snm>Recicar</snm>
                   <fnm>JF</fnm>
                </au>
                <au>
                   <snm>Al Yazeedi</snm>
                   <fnm>W</fnm>
                </au>
                <au>
                   <snm>Maull</snm>
                   <fnm>KI</fnm>
                </au>
             </aug>
             <source>Int J Crit Illn Inj Sci</source>
             <pubdate>2013</pubdate>
             <volume>3</volume>
             <fpage>3</fpage>
             <lpage>7</lpage>
             <xrefbib>
                <pubidlist>
                   <pubid idtype="doi">10.4103/2229-5151.109408</pubid>
                   <pubid idtype="pmpid" link="fulltext">23724377</pubid>
                </pubidlist>
             </xrefbib>
          </bibl>
          <bibl id="B6">
             <source>Workplace Safety Index, From Research to Reality</source>
             <publisher>Liberty Mutual, Hopkinton, MA</publisher>
             <pubdate>2012</pubdate>
          </bibl>
          <bibl id="B7">
             <title>
                <p>The legal framework and initiatives for promoting safety in the United Arab Emirates</p>
             </title>
             <aug>
                <au>
                   <snm>Grivna</snm>
                   <fnm>M</fnm>
                </au>
                <au>
                   <snm>Aw</snm>
                   <fnm>TC</fnm>
                </au>
                <au>
                   <snm>El-Sadig</snm>
                   <fnm>M</fnm>
                </au>
                <au>
                   <snm>Loney</snm>
                   <fnm>T</fnm>
                </au>
                <au>
                   <snm>Sharif</snm>
                   <fnm>AA</fnm>
                </au>
                <au>
                   <snm>Thomsen</snm>
                   <fnm>J</fnm>
                </au>
                <au>
                   <snm>Mauzi</snm>
                   <fnm>M</fnm>
                </au>
                <au>
                   <snm>Abu-Zidan</snm>
                   <fnm>FM</fnm>
                </au>
             </aug>
             <source>Int J Inj Contr Saf Promot</source>
             <pubdate>2012</pubdate>
             <volume>19</volume>
             <fpage>278</fpage>
             <lpage>289</lpage>
             <xrefbib>
                <pubidlist>
                   <pubid idtype="doi">10.1080/17457300.2012.696660</pubid>
                   <pubid idtype="pmpid" link="fulltext">22803840</pubid>
                </pubidlist>
             </xrefbib>
          </bibl>
          <bibl id="B8">
             <source>Annual Report 2010</source>
             <pubdate>2010</pubdate>
          </bibl>
          <bibl id="B9">
             <title>
                <p>The injury severity score: a method for describing patients with multiple injuries and evaluating emergency care</p>
             </title>
             <aug>
                <au>
                   <snm>Baker</snm>
                   <fnm>SO</fnm>
                </au>
                <au>
                   <snm>O&#8217;Neill</snm>
                   <fnm>B</fnm>
                </au>
                <au>
                   <snm>Haddon</snm>
                   <fnm>W</fnm>
                   <suf>Jr</suf>
                </au>
                <au>
                   <snm>Long</snm>
                   <fnm>WB</fnm>
                </au>
             </aug>
             <source>J Trauma</source>
             <pubdate>1974</pubdate>
             <volume>14</volume>
             <fpage>187</fpage>
             <lpage>196</lpage>
             <xrefbib>
                <pubidlist>
                   <pubid idtype="doi">10.1097/00005373-197403000-00001</pubid>
                   <pubid idtype="pmpid" link="fulltext">4814394</pubid>
                </pubidlist>
             </xrefbib>
          </bibl>
          <bibl id="B10">
             <title>
                <p>Injury Severity Scoring</p>
             </title>
             <aug>
                <au>
                   <snm>Maurer</snm>
                   <fnm>A</fnm>
                </au>
                <au>
                   <snm>Morris</snm>
                   <fnm>JA</fnm>
                   <suf>Jr</suf>
                </au>
             </aug>
             <source>Trauma</source>
             <publisher>McGraw-Hill Companies Inc, New York</publisher>
             <editor>Moore E, Feliciano D, Mattox K</editor>
             <edition>5</edition>
             <pubdate>2004</pubdate>
             <fpage>87</fpage>
             <lpage>91</lpage>
          </bibl>
          <bibl id="B11">
             <source>The Abbreviated Injury Scale 1990 revision &#8211; Update 98</source>
             <publisher>Association for the Advancement of Automotive Medicine, Barrington, IL</publisher>
             <pubdate>1998</pubdate>
          </bibl>
          <bibl id="B12">
             <title>
                <p>Major workplace related accidents in Singapore: a major trauma centre&#8217;s experience</p>
             </title>
             <aug>
                <au>
                   <snm>Ng</snm>
                   <fnm>ZX</fnm>
                </au>
                <au>
                   <snm>Teo</snm>
                   <fnm>LT</fnm>
                </au>
                <au>
                   <snm>Go</snm>
                   <fnm>KT</fnm>
                </au>
                <au>
                   <snm>Yeo</snm>
                   <fnm>YT</fnm>
                </au>
                <au>
                   <snm>Chiu</snm>
                   <fnm>MT</fnm>
                </au>
             </aug>
             <source>Ann Acad Med Singapore</source>
             <pubdate>2010</pubdate>
             <volume>39</volume>
             <fpage>920</fpage>
             <lpage>927</lpage>
             <xrefbib>
                <pubidlist>
                   <pubid idtype="pmpid" link="fulltext">21274489</pubid>
                </pubidlist>
             </xrefbib>
          </bibl>
          <bibl id="B13">
             <title>
                <p>Construction safety in Kuwait</p>
             </title>
             <aug>
                <au>
                   <snm>Al-Humaidi</snm>
                   <fnm>HM</fnm>
                </au>
                <au>
                   <snm>Tan</snm>
                   <fnm>FH</fnm>
                </au>
             </aug>
             <source>J Perform Constr Fac</source>
             <pubdate>2010</pubdate>
             <volume>24</volume>
             <fpage>70</fpage>
             <lpage>77</lpage>
             <xrefbib>
                <pubidlist>
                   <pubid idtype="doi">10.1061/(ASCE)CF.1943-5509.0000055</pubid>
                </pubidlist>
             </xrefbib>
          </bibl>
          <bibl id="B14">
             <title>
                <p>Occupational injuries in Bahrain</p>
             </title>
             <aug>
                <au>
                   <snm>Al-Arrayed</snm>
                   <fnm>A</fnm>
                </au>
                <au>
                   <snm>Hamza</snm>
                   <fnm>A</fnm>
                </au>
             </aug>
             <source>Occup Med</source>
             <pubdate>1995</pubdate>
             <volume>45</volume>
             <fpage>231</fpage>
             <lpage>233</lpage>
             <xrefbib>
                <pubidlist>
                   <pubid idtype="doi">10.1093/occmed/45.5.231</pubid>
                </pubidlist>
             </xrefbib>
          </bibl>
          <bibl id="B15">
             <title>
                <p>Path forward: emerging issues and challenges</p>
             </title>
             <aug>
                <au>
                   <snm>Gillen</snm>
                   <fnm>M</fnm>
                </au>
                <au>
                   <snm>Gittleman</snm>
                   <fnm>JL</fnm>
                </au>
             </aug>
             <source>J Saf Res</source>
             <pubdate>2010</pubdate>
             <volume>41</volume>
             <fpage>301</fpage>
             <lpage>306</lpage>
             <xrefbib>
                <pubidlist>
                   <pubid idtype="doi">10.1016/j.jsr.2010.04.005</pubid>
                </pubidlist>
             </xrefbib>
          </bibl>
          <bibl id="B16">
             <title>
                <p>Injuries from falling objects in the United Arab Emirates</p>
             </title>
             <aug>
                <au>
                   <snm>Grivna</snm>
                   <fnm>M</fnm>
                </au>
                <au>
                   <snm>Eid</snm>
                   <fnm>HO</fnm>
                </au>
                <au>
                   <snm>Abu-Zidan</snm>
                   <fnm>FM</fnm>
                </au>
             </aug>
             <source>Int J Inj Contr Saf Promot</source>
             <pubdate>2013</pubdate>
             <xrefbib>
                <pubidlist>
                   <pubid idtype="pmpid" link="fulltext">24345025</pubid>
                </pubidlist>
             </xrefbib>
          </bibl>
          <bibl id="B17">
             <title>
                <p>Traumatic brain injuries in the construction industry</p>
             </title>
             <aug>
                <au>
                   <snm>Colantonio</snm>
                   <fnm>A</fnm>
                </au>
                <au>
                   <snm>McVittie</snm>
                   <fnm>D</fnm>
                </au>
                <au>
                   <snm>Lewko</snm>
                   <fnm>J</fnm>
                </au>
                <au>
                   <snm>Yin</snm>
                   <fnm>J</fnm>
                </au>
             </aug>
             <source>Brain Inj</source>
             <pubdate>2009</pubdate>
             <volume>23</volume>
             <fpage>873</fpage>
             <lpage>878</lpage>
             <xrefbib>
                <pubidlist>
                   <pubid idtype="doi">10.1080/02699050903036033</pubid>
                   <pubid idtype="pmpid" link="fulltext">20100123</pubid>
                </pubidlist>
             </xrefbib>
          </bibl>
          <bibl id="B18">
             <title>
                <p>Cumulative sleepiness, mood disturbance, and psychomotor vigilance performance decrements during a week of sleep restricted to 4&#8211;5 hours per night</p>
             </title>
             <aug>
                <au>
                   <snm>Dinges</snm>
                   <fnm>DF</fnm>
                </au>
                <au>
                   <snm>Pack</snm>
                   <fnm>F</fnm>
                </au>
                <au>
                   <snm>Williams</snm>
                   <fnm>K</fnm>
                </au>
                <au>
                   <snm>Gillen</snm>
                   <fnm>KA</fnm>
                </au>
                <au>
                   <snm>Powell</snm>
                   <fnm>JW</fnm>
                </au>
                <au>
                   <snm>Ott</snm>
                   <fnm>GE</fnm>
                </au>
                <au>
                   <snm>Aptowicz</snm>
                   <fnm>C</fnm>
                </au>
                <au>
                   <snm>Pack</snm>
                   <fnm>AI</fnm>
                </au>
             </aug>
             <source>Sleep</source>
             <pubdate>1997</pubdate>
             <volume>20</volume>
             <fpage>267</fpage>
             <lpage>277</lpage>
             <xrefbib>
                <pubidlist>
                   <pubid idtype="pmpid" link="fulltext">9231952</pubid>
                </pubidlist>
             </xrefbib>
          </bibl>
          <bibl id="B19">
             <source>&#4447;</source>
             <pubdate>2006</pubdate>
          </bibl>
          <bibl id="B20">
             <title>
                <p>Pedestrian injuries in the United Arab Emirates</p>
             </title>
             <aug>
                <au>
                   <snm>Hefny</snm>
                   <fnm>AF</fnm>
                </au>
                <au>
                   <snm>Eid</snm>
                   <fnm>HO</fnm>
                </au>
                <au>
                   <snm>Abu-Zidan</snm>
                   <fnm>FM</fnm>
                </au>
             </aug>
             <source>Int J Inj Contr Saf Promot</source>
             <pubdate>2014</pubdate>
             <volume>&#4447;</volume>
             <fpage>&#4447;</fpage>
             <note>Apr 10. [Epub ahead of print]</note>
          </bibl>
          <bibl id="B21">
             <title>
                <p>Bicycle-related injuries requiring hospitalization in the United Arab Emirates</p>
             </title>
             <aug>
                <au>
                   <snm>Hefny</snm>
                   <fnm>AF</fnm>
                </au>
                <au>
                   <snm>Eid</snm>
                   <fnm>HO</fnm>
                </au>
                <au>
                   <snm>Grivna</snm>
                   <fnm>M</fnm>
                </au>
                <au>
                   <snm>Abu-Zidan</snm>
                   <fnm>FM</fnm>
                </au>
             </aug>
             <source>Injury</source>
             <pubdate>2012</pubdate>
             <volume>43</volume>
             <fpage>1547</fpage>
             <lpage>1550</lpage>
             <xrefbib>
                <pubidlist>
                   <pubid idtype="doi">10.1016/j.injury.2011.05.016</pubid>
                   <pubid idtype="pmpid" link="fulltext">21664613</pubid>
                </pubidlist>
             </xrefbib>
          </bibl>
          <bibl id="B22">
             <title>
                <p>Gender and age distribution of occupational fatalities in Taiwan</p>
             </title>
             <aug>
                <au>
                   <snm>Lin</snm>
                   <fnm>YH</fnm>
                </au>
                <au>
                   <snm>Chen</snm>
                   <fnm>CY</fnm>
                </au>
                <au>
                   <snm>Luo</snm>
                   <fnm>JL</fnm>
                </au>
             </aug>
             <source>Accd Anal Prev</source>
             <pubdate>2008</pubdate>
             <volume>40</volume>
             <fpage>1604</fpage>
             <lpage>1610</lpage>
             <xrefbib>
                <pubidlist>
                   <pubid idtype="doi">10.1016/j.aap.2008.04.008</pubid>
                </pubidlist>
             </xrefbib>
          </bibl>
          <bibl id="B23">
             <title>
                <p>The Labour Force Survey: self-reported work-related illness and workplace injuries in 2007/08: results from the Labour Force Survey. London?</p>
             </title>
             <source>Health and Safety Executive Statistics</source>
             <pubdate>2007</pubdate>
             <volume>2009</volume>
             <fpage>5</fpage>
          </bibl>
          <bibl id="B24">
             <title>
                <p>Epidemiologic study of injuries in childhood: the first pediatric trauma registry</p>
             </title>
             <aug>
                <au>
                   <snm>del R&#237;o JA</snm>
                   <fnm>N</fnm>
                </au>
                <au>
                   <snm>Soleto Mart&#237;n</snm>
                   <fnm>J</fnm>
                </au>
                <au>
                   <snm>Cerd&#225; Berrocal</snm>
                   <fnm>J</fnm>
                </au>
                <au>
                   <snm>Barrientos Fern&#225;ndez</snm>
                   <fnm>G</fnm>
                </au>
                <au>
                   <snm>Luque Mialdea</snm>
                   <fnm>R</fnm>
                </au>
                <au>
                   <snm>Estell&#233;s Vals</snm>
                   <fnm>C</fnm>
                </au>
                <au>
                   <snm>de Tom&#225;s Palacios</snm>
                   <fnm>E</fnm>
                </au>
                <au>
                   <snm>V&#225;zquez Est&#233;vez</snm>
                   <fnm>J</fnm>
                </au>
             </aug>
             <source>An Esp Pediatr</source>
             <pubdate>1997</pubdate>
             <volume>47</volume>
             <fpage>369</fpage>
             <lpage>372</lpage>
          </bibl>
          <bibl id="B25">
             <title>
                <p>Pediatric trauma: a hospital based study of pattern of childhood injuries in the state of Qatar</p>
             </title>
             <aug>
                <au>
                   <snm>Al Kilani</snm>
                   <fnm>HHY</fnm>
                </au>
                <au>
                   <snm>Al Mosleh</snm>
                   <fnm>AW</fnm>
                </au>
                <au>
                   <snm>Khalid</snm>
                   <fnm>MK</fnm>
                </au>
                <au>
                   <snm>El Tawil</snm>
                   <fnm>MS</fnm>
                </au>
                <au>
                   <snm>Ibrahim</snm>
                   <fnm>TK</fnm>
                </au>
                <au>
                   <snm>El Madhoun</snm>
                   <fnm>I</fnm>
                </au>
             </aug>
             <source>Middle East J Emerg Med</source>
             <pubdate>2001</pubdate>
             <volume>1</volume>
             <fpage>1</fpage>
             <lpage>6</lpage>
          </bibl>
          <bibl id="B26">
             <source>Fatal falls from high-rises return to haunt UAE: 3 deaths in 3 days, including 2 kids</source>
             <pubdate>2013</pubdate>
          </bibl>
          <bibl id="B27">
             <title>
                <p>Childhood injuries due to falls from apartment balconies and windows</p>
             </title>
             <aug>
                <au>
                   <snm>Istre</snm>
                   <fnm>GR</fnm>
                </au>
                <au>
                   <snm>McCoy</snm>
                   <fnm>MA</fnm>
                </au>
                <au>
                   <snm>Stowe</snm>
                   <fnm>M</fnm>
                </au>
                <au>
                   <snm>Davies</snm>
                   <fnm>K</fnm>
                </au>
                <au>
                   <snm>Zane</snm>
                   <fnm>D</fnm>
                </au>
                <au>
                   <snm>Anderson</snm>
                   <fnm>RJ</fnm>
                </au>
                <au>
                   <snm>Wiebe</snm>
                   <fnm>R</fnm>
                </au>
             </aug>
             <source>Inj Prev</source>
             <pubdate>2003</pubdate>
             <volume>9</volume>
             <fpage>349</fpage>
             <lpage>352</lpage>
             <xrefbib>
                <pubidlist>
                   <pubid idtype="doi">10.1136/ip.9.4.349</pubid>
                   <pubid idtype="pmpid" link="fulltext">14693898</pubid>
                </pubidlist>
             </xrefbib>
          </bibl>
          <bibl id="B28">
             <title>
                <p>Camel-related injuries in the pediatric age group</p>
             </title>
             <aug>
                <au>
                   <snm>Nawaz</snm>
                   <fnm>A</fnm>
                </au>
                <au>
                   <snm>Matta</snm>
                   <fnm>H</fnm>
                </au>
                <au>
                   <snm>Hamchou</snm>
                   <fnm>M</fnm>
                </au>
                <au>
                   <snm>Jacobsz</snm>
                   <fnm>A</fnm>
                </au>
                <au>
                   <snm>Al Salem</snm>
                   <fnm>AH</fnm>
                </au>
             </aug>
             <source>J Pediatr Surg</source>
             <pubdate>2005</pubdate>
             <volume>40</volume>
             <fpage>1248</fpage>
             <lpage>1251</lpage>
             <xrefbib>
                <pubidlist>
                   <pubid idtype="doi">10.1016/j.jpedsurg.2005.05.006</pubid>
                   <pubid idtype="pmpid" link="fulltext">16080927</pubid>
                </pubidlist>
             </xrefbib>
          </bibl>
          <bibl id="B29">
             <title>
                <p>Prevention of child camel jockey injuries: a success story from the United Arab Emirates</p>
             </title>
             <aug>
                <au>
                   <snm>Abu-Zidan</snm>
                   <fnm>FM</fnm>
                </au>
                <au>
                   <snm>Hefny</snm>
                   <fnm>AF</fnm>
                </au>
                <au>
                   <snm>Branicki</snm>
                   <fnm>F</fnm>
                </au>
             </aug>
             <source>Clin J Sport Med</source>
             <pubdate>2012</pubdate>
             <volume>22</volume>
             <fpage>467</fpage>
             <lpage>471</lpage>
             <xrefbib>
                <pubidlist>
                   <pubid idtype="doi">10.1097/JSM.0b013e318258772a</pubid>
                   <pubid idtype="pmpid" link="fulltext">22627655</pubid>
                </pubidlist>
             </xrefbib>
          </bibl>
          <bibl id="B30">
             <title>
                <p>Geriatric falls: injury severity is high and disproportionate to mechanism</p>
             </title>
             <aug>
                <au>
                   <snm>Sterling</snm>
                   <fnm>DA</fnm>
                </au>
                <au>
                   <snm>O&#8217;Connor</snm>
                   <fnm>JA</fnm>
                </au>
                <au>
                   <snm>Bonadies</snm>
                   <fnm>J</fnm>
                </au>
             </aug>
             <source>J Trauma</source>
             <pubdate>2001</pubdate>
             <volume>50</volume>
             <fpage>116</fpage>
             <lpage>119</lpage>
             <xrefbib>
                <pubidlist>
                   <pubid idtype="doi">10.1097/00005373-200101000-00021</pubid>
                   <pubid idtype="pmpid" link="fulltext">11231681</pubid>
                </pubidlist>
             </xrefbib>
          </bibl>
          <bibl id="B31">
             <title>
                <p>Population-based interventions for the prevention of fall-related injuries in older people</p>
             </title>
             <aug>
                <au>
                   <snm>McClure</snm>
                   <fnm>R</fnm>
                </au>
                <au>
                   <snm>Turner</snm>
                   <fnm>C</fnm>
                </au>
                <au>
                   <snm>Peel</snm>
                   <fnm>N</fnm>
                </au>
                <au>
                   <snm>Spinks</snm>
                   <fnm>A</fnm>
                </au>
                <au>
                   <snm>Eakin</snm>
                   <fnm>E</fnm>
                </au>
                <au>
                   <snm>Hughes</snm>
                   <fnm>K</fnm>
                </au>
             </aug>
             <source>Cochrane Database Syst Rev</source>
             <pubdate>2005</pubdate>
             <volume>1</volume>
             <xrefbib>
                <pubidlist>
                   <pubid idtype="pmpid" link="fulltext">15674948</pubid>
                </pubidlist>
             </xrefbib>
          </bibl>
          <bibl id="B32">
             <title>
                <p>Long-term outcomes of ground-level falls in the elderly</p>
             </title>
             <aug>
                <au>
                   <snm>Ayoung-Chee</snm>
                   <fnm>P</fnm>
                </au>
                <au>
                   <snm>McIntyre</snm>
                   <fnm>L</fnm>
                </au>
                <au>
                   <snm>Ebel</snm>
                   <fnm>BE</fnm>
                </au>
                <au>
                   <snm>Mack</snm>
                   <fnm>CD</fnm>
                </au>
                <au>
                   <snm>McCormick</snm>
                   <fnm>W</fnm>
                </au>
                <au>
                   <snm>Maier</snm>
                   <fnm>RV</fnm>
                </au>
             </aug>
             <source>J Trauma Care Surg</source>
             <pubdate>2014</pubdate>
             <volume>76</volume>
             <fpage>498</fpage>
             <lpage>503</lpage>
             <xrefbib>
                <pubidlist>
                   <pubid idtype="doi">10.1097/TA.0000000000000102</pubid>
                </pubidlist>
             </xrefbib>
          </bibl>
          <bibl id="B33">
             <source>Report on senior&#8217;s fall in Canada</source>
             <publisher>Division of Aging and Seniors. Public Health Agency of Canada, Ontario</publisher>
             <pubdate>2005</pubdate>
          </bibl>
          <bibl id="B34">
             <title>
                <p>Prevalence of selected risk and protective factors for falls in the home</p>
             </title>
             <aug>
                <au>
                   <snm>Marshall</snm>
                   <fnm>SW</fnm>
                </au>
                <au>
                   <snm>Runyan</snm>
                   <fnm>CW</fnm>
                </au>
                <au>
                   <snm>Yang</snm>
                   <fnm>J</fnm>
                </au>
                <au>
                   <snm>Coyne-Beasley</snm>
                   <fnm>T</fnm>
                </au>
                <au>
                   <snm>Waller</snm>
                   <fnm>AE</fnm>
                </au>
                <au>
                   <snm>Johnson</snm>
                   <fnm>RM</fnm>
                </au>
                <au>
                   <snm>Perkis</snm>
                   <fnm>D</fnm>
                </au>
             </aug>
             <source>Am J Prev Med</source>
             <pubdate>2005</pubdate>
             <volume>28</volume>
             <fpage>95</fpage>
             <lpage>101</lpage>
             <xrefbib>
                <pubidlist>
                   <pubid idtype="doi">10.1016/j.amepre.2004.09.015</pubid>
                   <pubid idtype="pmpid" link="fulltext">15626563</pubid>
                </pubidlist>
             </xrefbib>
          </bibl>
          <bibl id="B35">
             <title>
                <p>Home Injuries</p>
             </title>
             <aug>
                <au>
                   <snm>McDonald</snm>
                   <fnm>EM</fnm>
                </au>
                <au>
                   <snm>Girasek</snm>
                   <fnm>DC</fnm>
                </au>
                <au>
                   <snm>Gielen</snm>
                   <fnm>AC</fnm>
                </au>
             </aug>
             <source>Injury Prevention for Children and Adolescents: Research, Practice and Advocacy</source>
             <publisher>American Public Health Association, Washington</publisher>
             <editor>DeSefey Liller KD</editor>
             <pubdate>2006</pubdate>
             <fpage>137</fpage>
             <lpage>140</lpage>
          </bibl>
          <bibl id="B36">
             <title>
                <p>Injuries associated with housing conditions in Europe: a burden of disease study based on 2004 injury data</p>
             </title>
             <aug>
                <au>
                   <snm>Keall</snm>
                   <fnm>MD</fnm>
                </au>
                <au>
                   <snm>Ormandy</snm>
                   <fnm>D</fnm>
                </au>
                <au>
                   <snm>Baker</snm>
                   <fnm>MG</fnm>
                </au>
             </aug>
             <source>Environ Health</source>
             <pubdate>2011</pubdate>
             <volume>10</volume>
             <fpage>98</fpage>
             <xrefbib>
                <pubidlist>
                   <pubid idtype="doi">10.1186/1476-069X-10-98</pubid>
                   <pubid idtype="pmpid" link="fulltext">22074463</pubid>
                </pubidlist>
             </xrefbib>
          </bibl>
       </refgrp>
    </bm>
 </art>