<art>
    <ui>s13014-014-0221-7</ui>
    <ji>1748-717X</ji>
    <fm>
       <dochead>Research</dochead>
       <bibl>
          <title>
             <p>Feasibility and potential benefits of defining the internal gross tumor volume of hepatocellular carcinoma using contrast-enhanced 4D CT images obtained by deformable registration</p>
          </title>
          <aug>
             <au id="A1">
                <snm>Xu</snm>
                <fnm>Hua</fnm>
                <insr iid="I1"/>
                <email>jiazhutao1976@126.com</email>
             </au>
             <au id="A2">
                <snm>Gong</snm>
                <fnm>Guanzhong</fnm>
                <insr iid="I1"/>
                <email>gongguanzhong@163.com</email>
             </au>
             <au id="A3">
                <snm>Wei</snm>
                <fnm>Hong</fnm>
                <insr iid="I1"/>
                <email>weihong716@163.com</email>
             </au>
             <au id="A4">
                <snm>Chen</snm>
                <fnm>Lusheng</fnm>
                <insr iid="I1"/>
                <email>clszwxcr@163.com</email>
             </au>
             <au id="A5">
                <snm>Chen</snm>
                <fnm>Jinhu</fnm>
                <insr iid="I1"/>
                <email>felixchen@163.com</email>
             </au>
             <au id="A6">
                <snm>Lu</snm>
                <fnm>Jie</fnm>
                <insr iid="I1"/>
                <email>llujie@163.com</email>
             </au>
             <au id="A7">
                <snm>Liu</snm>
                <fnm>Tonghai</fnm>
                <insr iid="I1"/>
                <email>lthsdu@aliyun.com</email>
             </au>
             <au id="A8">
                <snm>Zhu</snm>
                <fnm>Jian</fnm>
                <insr iid="I1"/>
                <email>zhujian.cn@163.com</email>
             </au>
             <au id="A9" ca="yes">
                <snm>Yin</snm>
                <fnm>Yong</fnm>
                <insr iid="I1"/>
                <email>yongyinsd@163.com</email>
             </au>
          </aug>
          <insg>
             <ins id="I1">
                <p>Department of Radiation Oncology, Shandong Cancer Hospital and Institute, Laboratory of Radiation Oncology, Shandong Academy of Medical Sciences, 440 Jiyan Road, Jinan 250117, China</p>
             </ins>
          </insg>
          <source>Radiation Oncology</source>
          <section>
             <title>
                <p>Radiation Physics</p>
             </title>
          </section>
          <issn>1748-717X</issn>
          <pubdate>2014</pubdate>
          <volume>9</volume>
          <issue>1</issue>
          <fpage>221</fpage>
          <url>http://www.ro-journal.com/content/9/1/221</url>
          <xrefbib>
             <pubidlist>
                <pubid idtype="doi">10.1186/s13014-014-0221-7</pubid>
             </pubidlist>
          </xrefbib>
       </bibl>
       <history>
          <rec>
             <date>
                <day>21</day>
                <month>4</month>
                <year>2014</year>
             </date>
          </rec>
          <acc>
             <date>
                <day>24</day>
                <month>9</month>
                <year>2014</year>
             </date>
          </acc>
          <pub>
             <date>
                <day>16</day>
                <month>10</month>
                <year>2014</year>
             </date>
          </pub>
       </history>
       <cpyrt>
          <year>2014</year>
          <collab>Xu et al.; licensee BioMed Central Ltd.</collab>
          <note>This is an Open Access article distributed under the terms of the Creative Commons Attribution License (<url>http://creativecommons.org/licenses/by/4.0</url>), which permits unrestricted use, distribution, and reproduction in any medium, provided the original work is properly credited. The Creative Commons Public Domain Dedication waiver (<url>http://creativecommons.org/publicdomain/zero/1.0/</url>) applies to the data made available in this article, unless otherwise stated.</note>
       </cpyrt>
       <kwdg>
          <kwd>Four-dimensional computed tomography</kwd>
          <kwd>Hepatocellular carcinoma</kwd>
          <kwd>Radiotherapy</kwd>
          <kwd>Deformable registration</kwd>
       </kwdg>
       <abs>
          <sec>
             <st>
                <p>Abstract</p>
             </st>
             <sec>
                <st>
                   <p>Objective</p>
                </st>
                <p>To study the feasibility and the potential benefits of defining the internal gross tumor volume (IGTV) of hepatocellular carcinoma (HCC) using contrast-enhanced 4D CT images obtained by combining arterial-phase (AP) contrast-enhanced (CE) 3D CT and non-contrast-enhanced (NCE) 4D CT images using deformable registration (DR).</p>
             </sec>
             <sec>
                <st>
                   <p>Methods</p>
                </st>
                <p>Ten HCC patients who had received radiotherapy beforehand were selected for this study. The following CT simulation images were acquired sequentially: NCE 4D CT in free breathing, NCE 3D CT and APCE 3D CT in end-expiration breath holding. All 4D CT images were sorted into ten phases according to breath cycle (CT<sub>00</sub>&#8201;~&#8201;CT<sub>90</sub>). Gross tumor volumes (GTVs) were contoured on all CT images and the IGTV<sub>-1</sub> was obtained by merging the GTVs in each phase of 4D CT images. The GTV on the APCE 3D CT image was deformably registered to each 4D CT phase image according to liver shape using RayStation<sup>TM</sup> 3.99.0.7 version treatment planning system. The IGTV<sub>-DR</sub> was obtained by merging the GTVs after DR on the 4D CT images. Volume differences among the GTVs and between the IGTV<sub>-1</sub> and the IGTV<sub>-DR</sub> were compared.</p>
             </sec>
             <sec>
                <st>
                   <p>Results</p>
                </st>
                <p>The edge of most lesions could be definitively identified using APCE 3D CT images compared to NCE 4D and 3D CT images. The GTV volume on APCE 3D CT images increased by an average of 34.79% (<it>P</it>&#8201;&lt;&#8201;0.05). There was no significant difference among the GTV volumes obtained using NCE 4D and 3D CT images (<it>P</it>&#8201;&gt;&#8201;0.05). The GTV volumes after DR on 4D CT different phase images increased by an average of 36.29% (<it>P</it>&#8201;&lt;&#8201;0.05), as was observed using the APCE 3D CT image (<it>P</it>&#8201;&gt;&#8201;0.05). Lastly, the volume of IGTV<sub>-DR</sub> increased by an average of 19.91% compared to that of IGTV<sub>-1</sub> (<it>P</it>&#8201;&lt;&#8201;0.05).</p>
             </sec>
             <sec>
                <st>
                   <p>Conclusion</p>
                </st>
                <p>NCE 4D CT imaging alone has the potential risk of missing a partial volume of the HCC. The combination of APCE 3D CT and NCE 4D CT images using the DR technique improved the accuracy of the definition of the IGTV in HCC.</p>
             </sec>
          </sec>
       </abs>
    </fm>
    <bdy>
       <sec>
          <st>
             <p>Background</p>
          </st>
          <p>The liver shape and position vary significantly during breathing. Indeed, it has been shown that liver motion can reach 0.5&#8201;~&#8201;5.0&#160;cm during breathing <abbrgrp>
                <abbr bid="B1">1</abbr>
             </abbrgrp>-<abbrgrp>
                <abbr bid="B3">3</abbr>
             </abbrgrp>. Therefore, it is imperative to accurately determine the location of hepatocellular carcinoma (HCC) to improve the accuracy of radiotherapy <abbrgrp>
                <abbr bid="B4">4</abbr>
             </abbrgrp>. Indeed changes in liver position could adversely affect radiotherapy planning and treatment, which could lead to inaccurate definition of the volumes of tumor and normal tissues, errors in dosimetric calculations and potential increases in radiation toxicity <abbrgrp>
                <abbr bid="B5">5</abbr>
             </abbrgrp>-<abbrgrp>
                <abbr bid="B7">7</abbr>
             </abbrgrp>. Therefore, eliminating the position uncertainty derived from breathing motion could improve the accuracy of HCC radiotherapy administration and therefore the clinical outcome of cancer patients <abbrgrp>
                <abbr bid="B8">8</abbr>
             </abbrgrp>.</p>
          <p>Breath motion management methods for precision radiotherapy of HCC include active breathing control (ABC), abdominal compression and four-dimensional computed tomography (4D CT) techniques. In essence, dynamic 4D CT images could reflect the movement and deformation regularity of liver and tumors by sorting the volumetric CT images according to breath cycle which are recorded and segmented applying a respiratory position management (RPM) system <abbrgrp>
                <abbr bid="B9">9</abbr>
             </abbrgrp>,<abbrgrp>
                <abbr bid="B10">10</abbr>
             </abbrgrp>. Application of 4D CT in HCC radiotherapy has shown promising clinical outcomes. However, a contrast-enhanced (CE) 4D CT scan is lacking because of the difficulty of capturing the timing of contrast agent injection during the extended 4D CT image acquisition process <abbrgrp>
                <abbr bid="B11">11</abbr>
             </abbrgrp>. In addition, breath motions bring more artifacts to all phases of non-contrast-enhanced (NCE) 4D CT image reconstruction <abbrgrp>
                <abbr bid="B12">12</abbr>
             </abbrgrp>. It is well known that CE 3D CT image acquisition during the arterial phase yields a clear tumor edge for HCC <abbrgrp>
                <abbr bid="B13">13</abbr>
             </abbrgrp>. Therefore, improving the detection methods to determine the location of the HCC target would improve the accuracy of radiotherapy for HCC.</p>
          <p>Medical image deformable registration (DR) technique might prove a feasible approach in the treatment of HCC patients. DR could achieve a point-to-point correspondence between two given images, namely the objective image and the reference image, by voxel deformation and translation. The desired correspondence would describe the location of each tissue element in the first image relative to the second image <abbrgrp>
                <abbr bid="B14">14</abbr>
             </abbrgrp>. DR has become the core technique of adaptive radiotherapy and recent studies have shown that it can both improve the accuracy of delineation of tumors and organs at risk (OARs) based on multi-modality imaging and assess the accumulation dose <abbrgrp>
                <abbr bid="B15">15</abbr>
             </abbrgrp>-<abbrgrp>
                <abbr bid="B18">18</abbr>
             </abbrgrp>.</p>
          <p>In this study we investigated the feasibility and benefits of defining the individual internal gross target volume (IGTV) of HCC using CE 4D CT images obtained by combining APCE 3D CT and NCE 4D CT images using deformable registration (DR).</p>
       </sec>
       <sec>
          <st>
             <p>Materials and methods</p>
          </st>
          <sec>
             <st>
                <p>Patient information</p>
             </st>
             <p>Ten HCC patients (5 men, 5 women; ages 58&#8201;~&#8201;72) were studied at the Shandong Cancer Hospital following the guidelines of the ethics committee of the institution. The study were approved by the  Research  Ethics  Board  of  the  Shandong  Cancer  Hospital. All patients provided informed consent at enrollment and had their disease confirmed by radiography. None of the patients received transcatheter arterial chemoembolization (TACE). Of the ten tumors studied one was located in the left lobe of liver and the rest in the right hepatic lobe. Patients&#8217; Karnofsky performance status was higher than 80 prior to receiving initial radiotherapy.</p>
          </sec>
          <sec>
             <st>
                <p>CT acquisition</p>
             </st>
             <p>CT acquisition was performed using a Brilliance Big Bore CT scanner (Philips Medical Systems, Highland Heights, OH) with patients in a supine position. Scans (NCE 4D CT scans in free breathing, NCE 3D and APCE 3D CT scans in end-expiration breath holding) were acquired sequentially. 4D CT images were sorted into 10 series of CT images (CT<sub>00</sub>&#8201;~&#8201;CT<sub>90</sub>) according to the respiratory phase, with CT<sub>00</sub> being defined as the end inspiration and CT<sub>50</sub> the end expiration. All CT images were exported into the RayStation treatment planning system (TPS), version 3.99.0.7 (RaySearch Laboratories, Sweden) for determination of GTVs, IGTVs, liver volumes and DR.</p>
          </sec>
          <sec>
             <st>
                <p>Target acquisition</p>
             </st>
             <p>GTVs and liver contours were delineated on all images. IGTV<sub>-1</sub> was acquired by merging the 10 GTVs at all phases of 4D CT images. The GTV on APCE 3D CT image was deformably registered to each phase of 4D CT images and labeled as <sub>-DR</sub>. The IGTV<sub>-DR</sub> was obtained by merging the 10 GTVs<sub>-DR</sub> after registration. The volume differences amongst the GTVs and between IGTV<sub>-1</sub> and IGTV<sub>-DR</sub> were compared. All GTVs and liver contours were delineated by the same radiation oncologist and reviewed by a second radiation oncologist for accuracy. To reduce inconsistency in the contours, standardized window settings were used for the liver (W/L 350/ 50).</p>
          </sec>
          <sec>
             <st>
                <p>DR analysis and evaluation</p>
             </st>
             <p>DR analysis was performed using MORFEUS, a finite element model (FEM)-based multi-organ deformable image registration method that has been developed by RayStation TPS <abbrgrp>
                   <abbr bid="B19">19</abbr>
                </abbrgrp>. In this study, the APCE 3D CT image in end-expiration breath holding was selected as the target image and 10 phases of 4D CT images were selected as the reference images respectively. The target image was registered to different 4D CT phase images. The overall registration was performed in the CT region which included the size of the entire patient&#8217;s external body. The local registration was processed by tracking the liver volume as the organ of interest. After registration, the GTV on APCE 3D CT image was mapped to all phases of 4D CT images and 10 GTVs<sub>-DR</sub> were generated. Brock <it>et al.</it> evaluated the accuracy of the algorithm and reported that the precision of the vessel bifurcation identification was less than 0.1&#160;cm in the left-right (LR), anterior-posterior (AP) and superior-inferior (SI) directions, with the accuracy of the DR of the liver being lower than 0.2&#160;cm in each direction <abbrgrp>
                   <abbr bid="B19">19</abbr>
                </abbrgrp>.</p>
          </sec>
          <sec>
             <st>
                <p>Statistical analysis</p>
             </st>
             <p>The data were analyzed using the SPSS 17.0 software package (IBM, Chicago, IL). The GTVs obtained from the different scans before and after DR were compared using one way analysis of variance. The paired <it>t-</it>test was used for the group comparison of GTVs and IGTVs before and after DR. A <it>P-</it>value &lt;0.05 was considered statistically significant.</p>
          </sec>
       </sec>
       <sec>
          <st>
             <p>Results</p>
          </st>
          <sec>
             <st>
                <p>Comparison of GTVs before DR</p>
             </st>
             <p>As shown in Figure&#160;<figr fid="F1">1</figr>, the GTV on APCE 3D CT scan identified a clear edge and the boundary of the GTV could be easily determined. In contrast, the boundary was blurred on NCE 4D CT and 3D CT images. The average GTV from APCE and NCE 3D CT scans was 20.92&#8201;&#177;&#8201;13.20&#160;cm<sup>3</sup> and 15.52&#8201;&#177;&#8201;11.86&#160;cm<sup>3</sup> respectively and 15.13&#8201;&#177;&#8201;12.04&#160;cm<sup>3</sup> for NCE 4D CT scans. The GTV volume was 34.79% higher in APCE 3D CT image than in NCE 3D CT image (<it>P</it>&#8201;&lt;&#8201;0.05). No significant differences were found among the GTVs obtained using NCE 3D and 4D CT scans (<it>P</it>&#8201;&gt;&#8201;0.05), as shown in Table&#160;<tblr tid="T1">1</tblr>.</p>
             
                <fig id="F1">
                   <title>
                      <p>Figure 1</p>
                   </title>
                   <caption>
                      <p>GTV contours obtained from 3D or 4D CT scans before DR (on axial view). A</p>
                   </caption>
                   <text>
                      <p>
                         <b>GTV contours obtained from 3D or 4D CT scans before DR (on axial view). A</b>. contrast-enhanced 3D CT image. <b>B</b>. non-contrast-enhanced 3D CT image. <b>C</b>. CT<sub>00</sub> respiratory phase of 4D CT images. <b>D</b>. CT<sub>50</sub> respiratory phase of 4D CT images. Yellow contours: GTVs before DR.</p>
                   </text>
                   <graphic file="s13014-014-0221-7-1"/>
                </fig>
             
             
                <table id="T1">
                   <title>
                      <p>Table 1</p>
                   </title>
                   <caption>
                      <p>
                         <b>A comparison of GTVs obtained from 3D and 4D CT scans in different breathing phases before and after DR (</b>
                         <inline-formula>
                            <m:math xmlns:m="http://www.w3.org/1998/Math/MathML" name="s13014-014-0221-7-i1">
                               <m:mover accent="true">
                                  <m:mi>x</m:mi>
                                  <m:mo stretchy="true">&#175;</m:mo>
                               </m:mover>
                            </m:math>
                         </inline-formula>
                         <b>&#177; S)</b>
                      </p>
                   </caption>
                   <tgroup align="left" cols="6">
                      <colspec align="left" colname="c1" colnum="1" colwidth="*"/>
                      <colspec align="left" colname="c2" colnum="2" colwidth="*"/>
                      <colspec align="left" colname="c3" colnum="3" colwidth="*"/>
                      <colspec align="left" colname="c4" colnum="4" colwidth="*"/>
                      <colspec align="left" colname="c5" colnum="5" colwidth="*"/>
                      <colspec align="left" colname="c6" colnum="6" colwidth="*"/>
                      <thead>
                         <row valign="top">
                            <entry nameend="c2" namest="c1">
                               <p>
                                  <b>Scan/phase</b>
                               </p>
                            </entry>
                            <entry colname="c3">
                               <p>
                                  <b>GTV before DR (cm</b>
                                  <sup>
                                     <b>3</b>
                                  </sup>
                                  <b>)</b>
                               </p>
                            </entry>
                            <entry colname="c4">
                               <p>
                                  <b>GTV after DR (cm</b>
                                  <sup>
                                     <b>3</b>
                                  </sup>
                                  <b>)</b>
                               </p>
                            </entry>
                            <entry colname="c5">
                               <p>
                                  <b>
                                     <it>t</it>
                                  </b>
                               </p>
                            </entry>
                            <entry colname="c6">
                               <p>
                                  <b>
                                     <it>P</it>
                                  </b>
                               </p>
                            </entry>
                         </row>
                      </thead>
                      <tfoot>
                         <p>DR: deformable registration; CE: contrast enhancement; NCE: non-contrast enhancement; CT<sub>x</sub>: respiration phase.</p>
                      </tfoot>
                      <tbody>
                         <row valign="top">
                            <entry nameend="c2" namest="c1">
                               <p>3D CT<sub>CE</sub>
                               </p>
                            </entry>
                            <entry colname="c3">
                               <p>20.92&#8201;&#177;&#8201;13.20</p>
                            </entry>
                            <entry colname="c4">
                               <p>_</p>
                            </entry>
                            <entry colname="c5">
                               <p>_</p>
                            </entry>
                            <entry colname="c6">
                               <p>_</p>
                            </entry>
                         </row>
                         <row valign="top">
                            <entry nameend="c2" namest="c1">
                               <p>3D CT<sub>NCE</sub>
                               </p>
                            </entry>
                            <entry colname="c3">
                               <p>15.52&#8201;&#177;&#8201;11.86</p>
                            </entry>
                            <entry colname="c4">
                               <p>_</p>
                            </entry>
                            <entry colname="c5">
                               <p>_</p>
                            </entry>
                            <entry colname="c6">
                               <p>_</p>
                            </entry>
                         </row>
                         <row valign="top">
                            <entry colname="c1" morerows="9">
                               <p>4D CT<sub>NCE</sub>
                               </p>
                            </entry>
                            <entry colname="c2">
                               <p>CT<sub>00</sub>
                               </p>
                            </entry>
                            <entry colname="c3">
                               <p>15.03&#8201;&#177;&#8201;12.74</p>
                            </entry>
                            <entry colname="c4">
                               <p>20.82&#8201;&#177;&#8201;13.41</p>
                            </entry>
                            <entry colname="c5">
                               <p>-3.61</p>
                            </entry>
                            <entry colname="c6">
                               <p>0.006</p>
                            </entry>
                         </row>
                         <row valign="top">
                            <entry colname="c2">
                               <p>CT<sub>10</sub>
                               </p>
                            </entry>
                            <entry colname="c3">
                               <p>14.84&#8201;&#177;&#8201;12.66</p>
                            </entry>
                            <entry colname="c4">
                               <p>20.81&#8201;&#177;&#8201;13.65</p>
                            </entry>
                            <entry colname="c5">
                               <p>-3.74</p>
                            </entry>
                            <entry colname="c6">
                               <p>0.005</p>
                            </entry>
                         </row>
                         <row valign="top">
                            <entry colname="c2">
                               <p>CT<sub>20</sub>
                               </p>
                            </entry>
                            <entry colname="c3">
                               <p>14.72&#8201;&#177;&#8201;13.11</p>
                            </entry>
                            <entry colname="c4">
                               <p>20.72&#8201;&#177;&#8201;13.66</p>
                            </entry>
                            <entry colname="c5">
                               <p>-3.74</p>
                            </entry>
                            <entry colname="c6">
                               <p>0.005</p>
                            </entry>
                         </row>
                         <row valign="top">
                            <entry colname="c2">
                               <p>CT<sub>30</sub>
                               </p>
                            </entry>
                            <entry colname="c3">
                               <p>14.94&#8201;&#177;&#8201;13.14</p>
                            </entry>
                            <entry colname="c4">
                               <p>20.68&#8201;&#177;&#8201;13.70</p>
                            </entry>
                            <entry colname="c5">
                               <p>-3.79</p>
                            </entry>
                            <entry colname="c6">
                               <p>0.004</p>
                            </entry>
                         </row>
                         <row valign="top">
                            <entry colname="c2">
                               <p>CT<sub>40</sub>
                               </p>
                            </entry>
                            <entry colname="c3">
                               <p>14.93&#8201;&#177;&#8201;12.70</p>
                            </entry>
                            <entry colname="c4">
                               <p>20.62&#8201;&#177;&#8201;13.24</p>
                            </entry>
                            <entry colname="c5">
                               <p>-3.65</p>
                            </entry>
                            <entry colname="c6">
                               <p>0.005</p>
                            </entry>
                         </row>
                         <row valign="top">
                            <entry colname="c2">
                               <p>CT<sub>50</sub>
                               </p>
                            </entry>
                            <entry colname="c3">
                               <p>15.66&#8201;&#177;&#8201;12.13</p>
                            </entry>
                            <entry colname="c4">
                               <p>20.48&#8201;&#177;&#8201;13.13</p>
                            </entry>
                            <entry colname="c5">
                               <p>-4.22</p>
                            </entry>
                            <entry colname="c6">
                               <p>0.002</p>
                            </entry>
                         </row>
                         <row valign="top">
                            <entry colname="c2">
                               <p>CT<sub>60</sub>
                               </p>
                            </entry>
                            <entry colname="c3">
                               <p>15.17&#8201;&#177;&#8201;11.76</p>
                            </entry>
                            <entry colname="c4">
                               <p>20.41&#8201;&#177;&#8201;13.25</p>
                            </entry>
                            <entry colname="c5">
                               <p>-3.62</p>
                            </entry>
                            <entry colname="c6">
                               <p>0.006</p>
                            </entry>
                         </row>
                         <row valign="top">
                            <entry colname="c2">
                               <p>CT<sub>70</sub>
                               </p>
                            </entry>
                            <entry colname="c3">
                               <p>15.03&#8201;&#177;&#8201;11.87</p>
                            </entry>
                            <entry colname="c4">
                               <p>20.45&#8201;&#177;&#8201;12.71</p>
                            </entry>
                            <entry colname="c5">
                               <p>-4.19</p>
                            </entry>
                            <entry colname="c6">
                               <p>0.002</p>
                            </entry>
                         </row>
                         <row valign="top">
                            <entry colname="c2">
                               <p>CT<sub>80</sub>
                               </p>
                            </entry>
                            <entry colname="c3">
                               <p>15.43&#8201;&#177;&#8201;12.78</p>
                            </entry>
                            <entry colname="c4">
                               <p>20.57&#8201;&#177;&#8201;13.36</p>
                            </entry>
                            <entry colname="c5">
                               <p>-3.48</p>
                            </entry>
                            <entry colname="c6">
                               <p>0.007</p>
                            </entry>
                         </row>
                         <row valign="top">
                            <entry colname="c2">
                               <p>CT<sub>90</sub>
                               </p>
                            </entry>
                            <entry colname="c3">
                               <p>15.50&#8201;&#177;&#8201;13.23</p>
                            </entry>
                            <entry colname="c4">
                               <p>20.65&#8201;&#177;&#8201;13.36</p>
                            </entry>
                            <entry colname="c5">
                               <p>-3.17</p>
                            </entry>
                            <entry colname="c6">
                               <p>0.011</p>
                            </entry>
                         </row>
                         <row valign="top">
                            <entry nameend="c2" namest="c1">
                               <p>
                                  <it>F</it>
                               </p>
                            </entry>
                            <entry colname="c3">
                               <p>8.17</p>
                            </entry>
                            <entry colname="c4">
                               <p>15.319</p>
                            </entry>
                            <entry colname="c5">
                               <p>_</p>
                            </entry>
                            <entry colname="c6">
                               <p>_</p>
                            </entry>
                         </row>
                         <row valign="top">
                            <entry nameend="c2" namest="c1">
                               <p>
                                  <it>P</it>
                               </p>
                            </entry>
                            <entry colname="c3">
                               <p>0.002</p>
                            </entry>
                            <entry colname="c4">
                               <p>0.000</p>
                            </entry>
                            <entry colname="c5">
                               <p>_</p>
                            </entry>
                            <entry colname="c6">
                               <p>_</p>
                            </entry>
                         </row>
                      </tbody>
                   </tgroup>
                </table>
             
          </sec>
          <sec>
             <st>
                <p>Comparison of GTVs after DR</p>
             </st>
             <p>After DR, the volumes of GTVs obtained from 4D CT images increased by an average of 20.62&#8201;&#177;&#8201;12.73&#160;cm<sup>3</sup>, a 36.29% increase from the value obtained before DR (<it>P</it>&#8201;&lt;&#8201;0.05). The mean GTV after DR did not vary significantly from the value obtained from the APCE 3D CT image (<it>P</it>&#8201;&gt;&#8201;0.05), as shown in Table&#160;<tblr tid="T1">1</tblr> and Figure&#160;<figr fid="F2">2</figr>.</p>
             
                <fig id="F2">
                   <title>
                      <p>Figure 2</p>
                   </title>
                   <caption>
                      <p>DR improves the determination of GTV contours obtained from 4D CT images (on axial view). A</p>
                   </caption>
                   <text>
                      <p>
                         <b>DR improves the determination of GTV contours obtained from 4D CT images (on axial view). A</b>. CT<sub>00</sub> respiratory phase of 4D CT image. <b>B</b>. CT<sub>50</sub> respiratory phase of 4D CT images. Yellow contours: GTVs before DR; red contours: GTVs after DR.</p>
                   </text>
                   <graphic file="s13014-014-0221-7-2"/>
                </fig>
             
          </sec>
          <sec>
             <st>
                <p>Comparison of IGTVs before and after DR</p>
             </st>
             <p>The mean volume of IGTV<sub>-1</sub> before DR was 23.71&#8201;&#177;&#8201;16.67&#160;cm<sup>3</sup>, while the mean IGTV<sub>-DR</sub> after DR was 28.43&#8201;&#177;&#8201;16.09&#160;cm<sup>3</sup> with an average increase of 19.91% (<it>t</it>&#8201;=&#8201;-2.92, <it>P</it>&#8201;=&#8201;0.017), as shown in Figure&#160;<figr fid="F3">3</figr>.</p>
             
                <fig id="F3">
                   <title>
                      <p>Figure 3</p>
                   </title>
                   <caption>
                      <p>A comparison of IGTVs before and after DR in 4D CT images. A</p>
                   </caption>
                   <text>
                      <p>
                         <b>A comparison of IGTVs before and after DR in 4D CT images. A</b>. axial view. <b>B</b>. coronal view. <b>C</b>. sagittal view. Yellow contours: IGTV before DR; red contours: IGTV after DR.</p>
                   </text>
                   <graphic file="s13014-014-0221-7-3"/>
                </fig>
             
          </sec>
          <sec>
             <st>
                <p>DR analysis</p>
             </st>
             <p>The image registration transformation vectors that were used to register the APCE 3D CT image to CT<sub>00</sub> phase of 4D CT images are shown in Figure&#160;<figr fid="F4">4</figr>. The vector fields on the axial, coronal and sagittal slices are marked according to the legend. Ideally, the deformed CT<sub>00</sub> phase image would be identical to the 3D CT image. In practice, it was similar but not identical due to imaging artifacts and spatial resolution inaccuracies. Inspection of the deformed regions suggests good agreement of the tumor and liver after DR, as shown in Figure&#160;<figr fid="F2">2</figr>.</p>
             
                <fig id="F4">
                   <title>
                      <p>Figure 4</p>
                   </title>
                   <caption>
                      <p>Deformation fields for tumor and liver from contrast-enhanced 3D CT images to different respiratory phases of 4D CT images. A</p>
                   </caption>
                   <text>
                      <p>
                         <b>Deformation fields for tumor and liver from contrast-enhanced 3D CT images to different respiratory phases of 4D CT images. A</b>. axial view. <b>B</b>. coronal view. <b>C</b>. sagittal view in CT<sub>00</sub> respiratory phase. The variation of arrows and color show the vector fields on the axial, coronal and sagittal slices.</p>
                   </text>
                   <graphic file="s13014-014-0221-7-4"/>
                </fig>
             
          </sec>
       </sec>
       <sec>
          <st>
             <p>Discussion</p>
          </st>
          <p>The tumor target can move and deform significantly during respiration, making the accurate definition of liver lesions a critical step for high-precision radiotherapy <abbrgrp>
                <abbr bid="B20">20</abbr>
             </abbrgrp>,<abbrgrp>
                <abbr bid="B21">21</abbr>
             </abbrgrp>. 4D CT imaging is increasingly being used in radiation oncology to account for the effect of breathing on organ and tumor position in the thorax and abdomen. With this technique, the patient can breathe naturally during the 4D image acquisition process, making the therapy more comfortable. Therefore, 4D CT scanning in HCC radiotherapy could improve the accuracy of IGTV definition, reducing the margins of planning target volumes, and sparing more normal liver tissue from radiation. In summary, the 4D CT scanning technique would improve the accuracy of dose delivery and potentially result in better clinical outcomes for patients <abbrgrp>
                <abbr bid="B22">22</abbr>
             </abbrgrp>,<abbrgrp>
                <abbr bid="B23">23</abbr>
             </abbrgrp>.</p>
          <p>Conventionally, arterial-phase enhancement and venous-phase &#8220;washout&#8221; images are used in liver cancer patients to diagnose HCC <abbrgrp>
                <abbr bid="B24">24</abbr>
             </abbrgrp>. In this study, we found that the tumor areas on the NCE 3D and 4D CT scans were not accurately seen due to a lack of image contrast, which makes the determination of tumor boundaries difficult and impairs the precise delivery of radiotherapy. In addition, we found that the volumes of GTVs obtained using enhanced 3D CT scans were on average higher than those obtained using non-enhanced CT scans, consistent with previous reports <abbrgrp>
                <abbr bid="B25">25</abbr>
             </abbrgrp>. Currently, CE 4D CT scanning is not fully developed <abbrgrp>
                <abbr bid="B26">26</abbr>
             </abbrgrp>. When the patients are administered complete TACE, the location and extent of the lesions on 4D CT images can be determined with the help of iodized oil. In contrast, when the patients receive incomplete TACE or initial treatment alone, there is a greater uncertainty in the definition of tumor volumes based on NCE 4D CT images alone <abbrgrp>
                <abbr bid="B27">27</abbr>
             </abbrgrp>. Therefore, if the GTV generated on an artifact-free APCE 3D CT image could be mapped to all phase images of 4D CT with DR, some of the drawbacks of target delineation could be overcome.</p>
          <p>MORFEUS allows for the image registration of both single and multiple organs. The latter can be challenging because of the difficulty of modeling the interface between organs using splines, fluid-flow and optical flow. This DR algorithm based on FEM allows the organs to be explicitly deformed by assigning the material properties and determining the boundary conditions. For some organs, including the liver, the boundary representation is consistent between different imaging modalities although the internal image intensity representation may vary. The feasibility and accuracy of MORFEUS was validated on MR thoracic and abdominal images from healthy volunteers at inspiration and expiration. For the lung and liver deformation, the average accuracy as measured by tracking visible bifurcations in the LR, AP and SI directions was 0.19&#160;cm, 0.28&#160;cm and 0.17&#160;cm, respectively, with an average accuracy vector magnitude of 0.44&#160;cm <abbrgrp>
                <abbr bid="B19">19</abbr>
             </abbrgrp>. A FEM-based algorithm has been previously described for single organ DR. In a recent study, Ferrant <it>et al.</it> used this algorithm to register 3D intraoperative MR images of the brain and they reported that surface-based landmark discrepancies were reduced from 1.0&#160;cm to less than 0.1&#160;cm <abbrgrp>
                <abbr bid="B28">28</abbr>
             </abbrgrp>. Likewise, Liang <it>et al.</it> tested the algorithm on a simulated deformation of the rectum and found that the error in registration was reduced from 0.9&#160;cm based on an initial boundary point correspondence to 0.16&#160;cm after optimization <abbrgrp>
                <abbr bid="B29">29</abbr>
             </abbrgrp>. Zhang <it>et al.</it> also used this algorithm in a deformable lung model based on negative surface pressure <abbrgrp>
                <abbr bid="B30">30</abbr>
             </abbrgrp>. Together, these reports support the accuracy and reliability of organ registration using MORFEUS even with internal organ motion and deformation.</p>
          <p>Based on the above, the actual geometric verification of the mapped GTVs on 4D CT images, such as the shape and position of the GTV volumes, had not been performed. Apparently, the conventional way to verify the geometric change of the registered volumes is to introduce additional images, such as MR images, as a reference. MR images can yield high soft-tissue resolution. However, they require a long acquisition time and are susceptible to respiration and gastrointestinal peristalsis making their acquisition challenging. Moreover, a certain fusion error could inevitably exist when registering the MR and CT images. 4D MR would be expected to enable direct measurement of the tumor motion without contrast.</p>
          <p>In this study, DR was performed in different series of images with the same imaging modality. Specifically, a CE breath-holding CT image was obtained followed by a 4D CT image. Therefore, the CT image sets had the same coordinate system and patient position. Thus, the registration error would be acceptable for the target delineation and mapping analysis. The GTV on APCE 3D CT images was deformed to match all the respiratory phases of the 4D CT images. The IGTV obtained after DR contained more tumor motion information and further improved the delineation accuracy of the tumor. To ensure the registration accuracy of whole liver, all 3D CT scans were acquired with the patient holding breath so the liver contours correlated with those on the single-phase 4D CT images. Compared with the IGTV generated from NCE 4D CT images, the IGTV obtained after DR can significantly increase the accuracy of target definition.</p>
          <p>Beddar <it>et al.</it>
             <abbrgrp>
                <abbr bid="B26">26</abbr>
             </abbrgrp> investigated enhanced 4D CT imaging of liver tumors using synchronized intravenous contrast agent injection. Before scanning, the patient&#8217;s intravenous line was connected to an automatic injector. The timing of the enhancement phase was programmed during 4D CT image acquisition to obtain good visualization of the tumor. However, the method was invasive due to the intervention with iodine oil. In addition, the optimal time window was difficult to capture as the automatic program would not work well with all patients. In contrast, as the DR technique is incorporated into modern TPS, the technique used in our study could be easily applied.</p>
          <p>In summary, here we combined conventional target delineation protocols with image post-processing techniques to improve the accuracy of the definition of the IGTV of HCC using 4D CT. We showed that this protocol was more accurate in the determination of tumor boundaries. In future studies, we will evaluate the physiological impact of 4D radiotherapy administration.</p>
       </sec>
       <sec>
          <st>
             <p>Conclusion</p>
          </st>
          <p>Here we show that contrast-enhanced 4D CT images, acquired by combining arterial-phase contrast-enhanced 3D CT and non-enhanced 4D CT images based on the DR technique could improve the definition of the IGTV of HCC and have the potential ability to improve the success of radiotherapy.</p>
       </sec>
       <sec>
          <st>
             <p>Competing interests</p>
          </st>
          <p>The authors declare that they have no competing interests.</p>
       </sec>
       <sec>
          <st>
             <p>Authors&#8217; contributions</p>
          </st>
          <p>All authors have read and approved the final manuscript. Hua Xu, Guanzhong Gong, Hong Wei, Lusheng Chen, Jinhu Chen, Jie Lu, Tonghai Liu, Jian Zhu, Yong Yin carried out this study jointly, and Yong Yin administrated the study. All authors participated in the sequence alignmented the manuscript.</p>
       </sec>
    </bdy>
    <bm>
       <ack>
          <sec>
             <st>
                <p>Acknowledgements</p>
             </st>
             <p>This research was supported by the National Natural Science Fund of China (No. 81301936 and 81272699).</p>
          </sec>
       </ack>
       <refgrp>
          
          <bibl id="B1">
             <title>
                <p>Determination of ventilatory liver movement via radiographic evaluation of diaphragm position</p>
             </title>
             <aug>
                <au>
                   <snm>Balter</snm>
                   <fnm>JM</fnm>
                </au>
                <au>
                   <snm>Dawson</snm>
                   <fnm>LA</fnm>
                </au>
                <au>
                   <snm>Kazanjian</snm>
                   <fnm>S</fnm>
                </au>
                <au>
                   <snm>McGinn</snm>
                   <fnm>C</fnm>
                </au>
                <au>
                   <snm>Brock</snm>
                   <fnm>KK</fnm>
                </au>
                <au>
                   <snm>Lawrence</snm>
                   <fnm>T</fnm>
                </au>
                <au>
                   <snm>Ten Haken</snm>
                   <fnm>R</fnm>
                </au>
             </aug>
             <source>Int J Radiat Oncol Biol Phys</source>
             <pubdate>2001</pubdate>
             <volume>51</volume>
             <fpage>267</fpage>
             <lpage>270</lpage>
             <xrefbib>
                <pubidlist>
                   <pubid idtype="doi">10.1016/S0360-3016(01)01649-2</pubid>
                   <pubid idtype="pmpid" link="fulltext">11516877</pubid>
                </pubidlist>
             </xrefbib>
          </bibl>
          <bibl id="B2">
             <title>
                <p>Ultrasound quantitation of respiratory organ motion in the upper abdomen</p>
             </title>
             <aug>
                <au>
                   <snm>Davies</snm>
                   <fnm>SC</fnm>
                </au>
                <au>
                   <snm>Hill</snm>
                   <fnm>AL</fnm>
                </au>
                <au>
                   <snm>Holmes</snm>
                   <fnm>RB</fnm>
                </au>
                <au>
                   <snm>Halliwell</snm>
                   <fnm>M</fnm>
                </au>
                <au>
                   <snm>Jackson</snm>
                   <fnm>PC</fnm>
                </au>
             </aug>
             <source>Br J Radiol</source>
             <pubdate>1994</pubdate>
             <volume>67</volume>
             <fpage>1096</fpage>
             <lpage>1102</lpage>
             <xrefbib>
                <pubidlist>
                   <pubid idtype="doi">10.1259/0007-1285-67-803-1096</pubid>
                   <pubid idtype="pmpid" link="fulltext">7820402</pubid>
                </pubidlist>
             </xrefbib>
          </bibl>
          <bibl id="B3">
             <title>
                <p>Cranio-caudal movements of the liver, pancreas and kidneys in respiration</p>
             </title>
             <aug>
                <au>
                   <snm>Suramo</snm>
                   <fnm>I</fnm>
                </au>
                <au>
                   <snm>Paivansalo</snm>
                   <fnm>M</fnm>
                </au>
                <au>
                   <snm>Myllyla</snm>
                   <fnm>V</fnm>
                </au>
             </aug>
             <source>Acta Radiol Diagn (Stockh)</source>
             <pubdate>1984</pubdate>
             <volume>25</volume>
             <fpage>129</fpage>
             <lpage>131</lpage>
          </bibl>
          <bibl id="B4">
             <title>
                <p>Normal tissue toxicity after small field hypofractionated stereotactic body radiation</p>
             </title>
             <aug>
                <au>
                   <snm>Milano</snm>
                   <fnm>MT</fnm>
                </au>
                <au>
                   <snm>Constine</snm>
                   <fnm>LS</fnm>
                </au>
                <au>
                   <snm>Okunieff</snm>
                   <fnm>P</fnm>
                </au>
             </aug>
             <source>Radiat Oncol</source>
             <pubdate>2008</pubdate>
             <volume>3</volume>
             <fpage>36</fpage>
             <xrefbib>
                <pubidlist>
                   <pubid idtype="doi">10.1186/1748-717X-3-36</pubid>
                   <pubid idtype="pmpid" link="fulltext">18976463</pubid>
                </pubidlist>
             </xrefbib>
          </bibl>
          <bibl id="B5">
             <title>
                <p>Biological impact of geometric uncertainties: what margin is needed for intra-hepatic tumors?</p>
             </title>
             <aug>
                <au>
                   <snm>Kuo</snm>
                   <fnm>HC</fnm>
                </au>
                <au>
                   <snm>Liu</snm>
                   <fnm>WS</fnm>
                </au>
                <au>
                   <snm>Wu</snm>
                   <fnm>A</fnm>
                </au>
                <au>
                   <snm>Mah</snm>
                   <fnm>D</fnm>
                </au>
                <au>
                   <snm>Chuang</snm>
                   <fnm>KS</fnm>
                </au>
                <au>
                   <snm>Hong</snm>
                   <fnm>L</fnm>
                </au>
                <au>
                   <snm>Yaparpalvi</snm>
                   <fnm>R</fnm>
                </au>
                <au>
                   <snm>Guha</snm>
                   <fnm>C</fnm>
                </au>
                <au>
                   <snm>Kalnicki</snm>
                   <fnm>S</fnm>
                </au>
             </aug>
             <source>Radiat Oncol</source>
             <pubdate>2010</pubdate>
             <volume>5</volume>
             <fpage>48</fpage>
             <xrefbib>
                <pubidlist>
                   <pubid idtype="doi">10.1186/1748-717X-5-48</pubid>
                   <pubid idtype="pmpid" link="fulltext">20525298</pubid>
                </pubidlist>
             </xrefbib>
          </bibl>
          <bibl id="B6">
             <title>
                <p>Improvement of CT-based treatment-planning models of abdominal targets using static exhale imaging</p>
             </title>
             <aug>
                <au>
                   <snm>Balter</snm>
                   <fnm>JM</fnm>
                </au>
                <au>
                   <snm>Lam</snm>
                   <fnm>KL</fnm>
                </au>
                <au>
                   <snm>McGinn</snm>
                   <fnm>CJ</fnm>
                </au>
                <au>
                   <snm>Lawrence</snm>
                   <fnm>TS</fnm>
                </au>
                <au>
                   <snm>Ten Haken</snm>
                   <fnm>RK</fnm>
                </au>
             </aug>
             <source>Int J Radiat Oncol Biol Phys</source>
             <pubdate>1998</pubdate>
             <volume>41</volume>
             <fpage>939</fpage>
             <lpage>943</lpage>
             <xrefbib>
                <pubidlist>
                   <pubid idtype="doi">10.1016/S0360-3016(98)00130-8</pubid>
                   <pubid idtype="pmpid" link="fulltext">9652861</pubid>
                </pubidlist>
             </xrefbib>
          </bibl>
          <bibl id="B7">
             <title>
                <p>Potential benefits of eliminating planning target volume expansions for patient breathing in the treatment of liver tumors</p>
             </title>
             <aug>
                <au>
                   <snm>Ten Haken</snm>
                   <fnm>RK</fnm>
                </au>
                <au>
                   <snm>Balter</snm>
                   <fnm>JM</fnm>
                </au>
                <au>
                   <snm>Marsh</snm>
                   <fnm>LH</fnm>
                </au>
                <au>
                   <snm>Robertson</snm>
                   <fnm>JM</fnm>
                </au>
                <au>
                   <snm>Lawrence</snm>
                   <fnm>TS</fnm>
                </au>
             </aug>
             <source>Int J Radiat Oncol Biol Phys</source>
             <pubdate>1997</pubdate>
             <volume>38</volume>
             <fpage>613</fpage>
             <lpage>617</lpage>
             <xrefbib>
                <pubidlist>
                   <pubid idtype="doi">10.1016/S0360-3016(97)00009-6</pubid>
                   <pubid idtype="pmpid" link="fulltext">9231687</pubid>
                </pubidlist>
             </xrefbib>
          </bibl>
          <bibl id="B8">
             <title>
                <p>Adequacy of inhale/exhale breathhold CT based ITV margins and image-guided registration for free-breathing pancreas and liver SBRT</p>
             </title>
             <aug>
                <au>
                   <snm>Yang</snm>
                   <fnm>W</fnm>
                </au>
                <au>
                   <snm>Fraass</snm>
                   <fnm>BA</fnm>
                </au>
                <au>
                   <snm>Reznik</snm>
                   <fnm>R</fnm>
                </au>
                <au>
                   <snm>Nissen</snm>
                   <fnm>N</fnm>
                </au>
                <au>
                   <snm>Lo</snm>
                   <fnm>S</fnm>
                </au>
                <au>
                   <snm>Jamil</snm>
                   <fnm>LH</fnm>
                </au>
                <au>
                   <snm>Gupta</snm>
                   <fnm>K</fnm>
                </au>
                <au>
                   <snm>Sandler</snm>
                   <fnm>H</fnm>
                </au>
                <au>
                   <snm>Tuli</snm>
                   <fnm>R</fnm>
                </au>
             </aug>
             <source>Radiat Oncol</source>
             <pubdate>2014</pubdate>
             <volume>9</volume>
             <fpage>11</fpage>
             <xrefbib>
                <pubidlist>
                   <pubid idtype="doi">10.1186/1748-717X-9-11</pubid>
                   <pubid idtype="pmpid" link="fulltext">24401365</pubid>
                </pubidlist>
             </xrefbib>
          </bibl>
          <bibl id="B9">
             <title>
                <p>Advances in 4D radiation therapy for managing respiration: part I - 4D imaging</p>
             </title>
             <aug>
                <au>
                   <snm>Hugo</snm>
                   <fnm>GD</fnm>
                </au>
                <au>
                   <snm>Rosu</snm>
                   <fnm>M</fnm>
                </au>
             </aug>
             <source>Z Med Phys</source>
             <pubdate>2012</pubdate>
             <volume>22</volume>
             <fpage>258</fpage>
             <lpage>271</lpage>
             <xrefbib>
                <pubidlist>
                   <pubid idtype="doi">10.1016/j.zemedi.2012.06.009</pubid>
                   <pubid idtype="pmpid" link="fulltext">22784929</pubid>
                </pubidlist>
             </xrefbib>
          </bibl>
          <bibl id="B10">
             <title>
                <p>Four dimensional CT imaging: a review of current technologies and modalities</p>
             </title>
             <aug>
                <au>
                   <snm>Moorees</snm>
                   <fnm>J</fnm>
                </au>
                <au>
                   <snm>Bezak</snm>
                   <fnm>E</fnm>
                </au>
             </aug>
             <source>Australas Phys Eng Sci Med</source>
             <pubdate>2012</pubdate>
             <volume>35</volume>
             <fpage>9</fpage>
             <lpage>23</lpage>
             <xrefbib>
                <pubidlist>
                   <pubid idtype="doi">10.1007/s13246-012-0124-6</pubid>
                   <pubid idtype="pmpid" link="fulltext">22302463</pubid>
                </pubidlist>
             </xrefbib>
          </bibl>
          <bibl id="B11">
             <title>
                <p>Understanding and optimizing use of contrast material for CT of the liver</p>
             </title>
             <aug>
                <au>
                   <snm>Baron</snm>
                   <fnm>RL</fnm>
                </au>
             </aug>
             <source>AJR Am J Roentgenol</source>
             <pubdate>1994</pubdate>
             <volume>163</volume>
             <fpage>323</fpage>
             <lpage>331</lpage>
             <xrefbib>
                <pubidlist>
                   <pubid idtype="doi">10.2214/ajr.163.2.8037023</pubid>
                   <pubid idtype="pmpid" link="fulltext">8037023</pubid>
                </pubidlist>
             </xrefbib>
          </bibl>
          <bibl id="B12">
             <title>
                <p>Retrospective analysis of artifacts in four-dimensional CT images of 50 abdominal and thoracic radiotherapy patients</p>
             </title>
             <aug>
                <au>
                   <snm>Yamamoto</snm>
                   <fnm>T</fnm>
                </au>
                <au>
                   <snm>Langner</snm>
                   <fnm>U</fnm>
                </au>
                <au>
                   <snm>Loo</snm>
                   <fnm>BW</fnm>
                   <suf>Jr</suf>
                </au>
                <au>
                   <snm>Shen</snm>
                   <fnm>J</fnm>
                </au>
                <au>
                   <snm>Keall</snm>
                   <fnm>PJ</fnm>
                </au>
             </aug>
             <source>Int J Radiat Oncol Biol Phys</source>
             <pubdate>2008</pubdate>
             <volume>72</volume>
             <fpage>1250</fpage>
             <lpage>1258</lpage>
             <xrefbib>
                <pubidlist>
                   <pubid idtype="doi">10.1016/j.ijrobp.2008.06.1937</pubid>
                   <pubid idtype="pmpid" link="fulltext">18823717</pubid>
                </pubidlist>
             </xrefbib>
          </bibl>
          <bibl id="B13">
             <title>
                <p>Characterization of focal hepatic tumors. Value of two-phase scanning with spiral computed tomography</p>
             </title>
             <aug>
                <au>
                   <snm>Choi</snm>
                   <fnm>BI</fnm>
                </au>
                <au>
                   <snm>Han</snm>
                   <fnm>JK</fnm>
                </au>
                <au>
                   <snm>Cho</snm>
                   <fnm>JM</fnm>
                </au>
                <au>
                   <snm>Choi</snm>
                   <fnm>DS</fnm>
                </au>
                <au>
                   <snm>Han</snm>
                   <fnm>MC</fnm>
                </au>
                <au>
                   <snm>Lee</snm>
                   <fnm>HS</fnm>
                </au>
                <au>
                   <snm>Kim</snm>
                   <fnm>CY</fnm>
                </au>
             </aug>
             <source>Cancer</source>
             <pubdate>1995</pubdate>
             <volume>76</volume>
             <fpage>2434</fpage>
             <lpage>2442</lpage>
             <xrefbib>
                <pubidlist>
                   <pubid idtype="doi">10.1002/1097-0142(19951215)76:12&lt;2434::AID-CNCR2820761206&gt;3.0.CO;2-G</pubid>
                   <pubid idtype="pmpid" link="fulltext">8625068</pubid>
                </pubidlist>
             </xrefbib>
          </bibl>
          <bibl id="B14">
             <title>
                <p>Deformable registration for image-guided radiation therapy</p>
             </title>
             <aug>
                <au>
                   <snm>Sarrut</snm>
                   <fnm>D</fnm>
                </au>
             </aug>
             <source>Z Med Phys</source>
             <pubdate>2006</pubdate>
             <volume>16</volume>
             <fpage>285</fpage>
             <lpage>297</lpage>
             <xrefbib>
                <pubidlist>
                   <pubid idtype="pmpid" link="fulltext">17216754</pubid>
                </pubidlist>
             </xrefbib>
          </bibl>
          <bibl id="B15">
             <title>
                <p>Quantifying the accuracy of automated structure segmentation in 4D CT images using a deformable image registration algorithm</p>
             </title>
             <aug>
                <au>
                   <snm>Wijesooriya</snm>
                   <fnm>K</fnm>
                </au>
                <au>
                   <snm>Weiss</snm>
                   <fnm>E</fnm>
                </au>
                <au>
                   <snm>Dill</snm>
                   <fnm>V</fnm>
                </au>
                <au>
                   <snm>Dong</snm>
                   <fnm>L</fnm>
                </au>
                <au>
                   <snm>Mohan</snm>
                   <fnm>R</fnm>
                </au>
                <au>
                   <snm>Joshi</snm>
                   <fnm>S</fnm>
                </au>
                <au>
                   <snm>Keall</snm>
                   <fnm>PJ</fnm>
                </au>
             </aug>
             <source>Med Phys</source>
             <pubdate>2008</pubdate>
             <volume>35</volume>
             <fpage>1251</fpage>
             <lpage>1260</lpage>
             <xrefbib>
                <pubidlist>
                   <pubid idtype="doi">10.1118/1.2839120</pubid>
                   <pubid idtype="pmpid" link="fulltext">18491517</pubid>
                </pubidlist>
             </xrefbib>
          </bibl>
          <bibl id="B16">
             <title>
                <p>Improving target delineation on 4-dimensional CT scans in stage I NSCLC using a deformable registration tool</p>
             </title>
             <aug>
                <au>
                   <snm>van Dam</snm>
                   <fnm>IE</fnm>
                </au>
                <au>
                   <snm>Van Sornsen de Koste</snm>
                   <fnm>JR</fnm>
                </au>
                <au>
                   <snm>Hanna</snm>
                   <fnm>GG</fnm>
                </au>
                <au>
                   <snm>Muirhead</snm>
                   <fnm>R</fnm>
                </au>
                <au>
                   <snm>Slotman</snm>
                   <fnm>BJ</fnm>
                </au>
                <au>
                   <snm>Senan</snm>
                   <fnm>S</fnm>
                </au>
             </aug>
             <source>Radiother Oncol</source>
             <pubdate>2010</pubdate>
             <volume>96</volume>
             <fpage>67</fpage>
             <lpage>72</lpage>
             <xrefbib>
                <pubidlist>
                   <pubid idtype="doi">10.1016/j.radonc.2010.05.003</pubid>
                   <pubid idtype="pmpid" link="fulltext">20570381</pubid>
                </pubidlist>
             </xrefbib>
          </bibl>
          <bibl id="B17">
             <title>
                <p>Four-dimensional dosimetry validation and study in lung radiotherapy using deformable image registration and Monte Carlo techniques</p>
             </title>
             <aug>
                <au>
                   <snm>Huang</snm>
                   <fnm>TC</fnm>
                </au>
                <au>
                   <snm>Liang</snm>
                   <fnm>JA</fnm>
                </au>
                <au>
                   <snm>Dilling</snm>
                   <fnm>T</fnm>
                </au>
                <au>
                   <snm>Wu</snm>
                   <fnm>TH</fnm>
                </au>
                <au>
                   <snm>Zhang</snm>
                   <fnm>G</fnm>
                </au>
             </aug>
             <source>Radiat Oncol</source>
             <pubdate>2010</pubdate>
             <volume>5</volume>
             <fpage>45</fpage>
             <xrefbib>
                <pubidlist>
                   <pubid idtype="doi">10.1186/1748-717X-5-45</pubid>
                   <pubid idtype="pmpid" link="fulltext">20509955</pubid>
                </pubidlist>
             </xrefbib>
          </bibl>
          <bibl id="B18">
             <title>
                <p>Four-dimensional dose evaluation using deformable image registration in radiotherapy for liver cancer</p>
             </title>
             <aug>
                <au>
                   <snm>Jung</snm>
                   <fnm>SH</fnm>
                </au>
                <au>
                   <snm>Yoon</snm>
                   <fnm>SM</fnm>
                </au>
                <au>
                   <snm>Park</snm>
                   <fnm>SH</fnm>
                </au>
                <au>
                   <snm>Cho</snm>
                   <fnm>B</fnm>
                </au>
                <au>
                   <snm>Park</snm>
                   <fnm>JW</fnm>
                </au>
                <au>
                   <snm>Jung</snm>
                   <fnm>J</fnm>
                </au>
                <au>
                   <snm>Park</snm>
                   <fnm>JH</fnm>
                </au>
                <au>
                   <snm>Kim</snm>
                   <fnm>JH</fnm>
                </au>
                <au>
                   <snm>Ahn</snm>
                   <fnm>SD</fnm>
                </au>
             </aug>
             <source>Med Phys</source>
             <pubdate>2013</pubdate>
             <volume>40</volume>
             <fpage>011706</fpage>
             <xrefbib>
                <pubidlist>
                   <pubid idtype="doi">10.1118/1.4769427</pubid>
                   <pubid idtype="pmpid" link="fulltext">23298076</pubid>
                </pubidlist>
             </xrefbib>
          </bibl>
          <bibl id="B19">
             <title>
                <p>Accuracy of finite element model-based multi-organ deformable image registration</p>
             </title>
             <aug>
                <au>
                   <snm>Brock</snm>
                   <fnm>KK</fnm>
                </au>
                <au>
                   <snm>Sharpe</snm>
                   <fnm>MB</fnm>
                </au>
                <au>
                   <snm>Dawson</snm>
                   <fnm>LA</fnm>
                </au>
                <au>
                   <snm>Kim</snm>
                   <fnm>SM</fnm>
                </au>
                <au>
                   <snm>Jaffray</snm>
                   <fnm>DA</fnm>
                </au>
             </aug>
             <source>Med Phys</source>
             <pubdate>2005</pubdate>
             <volume>32</volume>
             <fpage>1647</fpage>
             <lpage>1659</lpage>
             <xrefbib>
                <pubidlist>
                   <pubid idtype="doi">10.1118/1.1915012</pubid>
                   <pubid idtype="pmpid" link="fulltext">16013724</pubid>
                </pubidlist>
             </xrefbib>
          </bibl>
          <bibl id="B20">
             <title>
                <p>A four-dimensional computed tomography analysis of multiorgan abdominal motion</p>
             </title>
             <aug>
                <au>
                   <snm>Hallman</snm>
                   <fnm>JL</fnm>
                </au>
                <au>
                   <snm>Mori</snm>
                   <fnm>S</fnm>
                </au>
                <au>
                   <snm>Sharp</snm>
                   <fnm>GC</fnm>
                </au>
                <au>
                   <snm>Lu</snm>
                   <fnm>HM</fnm>
                </au>
                <au>
                   <snm>Hong</snm>
                   <fnm>TS</fnm>
                </au>
                <au>
                   <snm>Chen</snm>
                   <fnm>GT</fnm>
                </au>
             </aug>
             <source>Int J Radiat Oncol Biol Phys</source>
             <pubdate>2012</pubdate>
             <volume>83</volume>
             <fpage>435</fpage>
             <lpage>441</lpage>
             <xrefbib>
                <pubidlist>
                   <pubid idtype="doi">10.1016/j.ijrobp.2011.06.1970</pubid>
                   <pubid idtype="pmpid" link="fulltext">22197238</pubid>
                </pubidlist>
             </xrefbib>
          </bibl>
          <bibl id="B21">
             <title>
                <p>Hypofractionated carbon ion therapy delivered with scanned ion beams for patients with hepatocellular carcinoma - feasibility and clinical response</p>
             </title>
             <aug>
                <au>
                   <snm>Habermehl</snm>
                   <fnm>D</fnm>
                </au>
                <au>
                   <snm>Debus</snm>
                   <fnm>J</fnm>
                </au>
                <au>
                   <snm>Ganten</snm>
                   <fnm>T</fnm>
                </au>
                <au>
                   <snm>Ganten</snm>
                   <fnm>MK</fnm>
                </au>
                <au>
                   <snm>Bauer</snm>
                   <fnm>J</fnm>
                </au>
                <au>
                   <snm>Brecht</snm>
                   <fnm>IC</fnm>
                </au>
                <au>
                   <snm>Brons</snm>
                   <fnm>S</fnm>
                </au>
                <au>
                   <snm>Haberer</snm>
                   <fnm>T</fnm>
                </au>
                <au>
                   <snm>Haertig</snm>
                   <fnm>M</fnm>
                </au>
                <au>
                   <snm>J&#228;kel</snm>
                   <fnm>O</fnm>
                </au>
                <au>
                   <snm>Parodi</snm>
                   <fnm>K</fnm>
                </au>
                <au>
                   <snm>Welzel</snm>
                   <fnm>T</fnm>
                </au>
                <au>
                   <snm>Combs</snm>
                   <fnm>SE</fnm>
                </au>
             </aug>
             <source>Radiat Oncol</source>
             <pubdate>2013</pubdate>
             <volume>8</volume>
             <fpage>59</fpage>
             <xrefbib>
                <pubidlist>
                   <pubid idtype="doi">10.1186/1748-717X-8-59</pubid>
                   <pubid idtype="pmpid" link="fulltext">23497349</pubid>
                </pubidlist>
             </xrefbib>
          </bibl>
          <bibl id="B22">
             <title>
                <p>Four-dimensional image-based treatment planning: target volume segmentation and dose calculation in the presence of respiratory motion</p>
             </title>
             <aug>
                <au>
                   <snm>Rietzel</snm>
                   <fnm>E</fnm>
                </au>
                <au>
                   <snm>Chen</snm>
                   <fnm>GT</fnm>
                </au>
                <au>
                   <snm>Choi</snm>
                   <fnm>NC</fnm>
                </au>
                <au>
                   <snm>Willet</snm>
                   <fnm>CG</fnm>
                </au>
             </aug>
             <source>Int J Radiat Oncol Biol Phys</source>
             <pubdate>2005</pubdate>
             <volume>61</volume>
             <fpage>1535</fpage>
             <lpage>1550</lpage>
             <xrefbib>
                <pubidlist>
                   <pubid idtype="doi">10.1016/j.ijrobp.2004.11.037</pubid>
                   <pubid idtype="pmpid" link="fulltext">15817360</pubid>
                </pubidlist>
             </xrefbib>
          </bibl>
          <bibl id="B23">
             <title>
                <p>Use of combined maximum and minimum intensity projections to determine internal target volume in 4-dimensional CT scans for hepatic malignancies</p>
             </title>
             <aug>
                <au>
                   <snm>Liu</snm>
                   <fnm>J</fnm>
                </au>
                <au>
                   <snm>Wang</snm>
                   <fnm>JZ</fnm>
                </au>
                <au>
                   <snm>Zhao</snm>
                   <fnm>JD</fnm>
                </au>
                <au>
                   <snm>Xu</snm>
                   <fnm>ZY</fnm>
                </au>
                <au>
                   <snm>Jiang</snm>
                   <fnm>GL</fnm>
                </au>
             </aug>
             <source>Radiat Oncol</source>
             <pubdate>2012</pubdate>
             <volume>7</volume>
             <fpage>11</fpage>
             <xrefbib>
                <pubidlist>
                   <pubid idtype="doi">10.1186/1748-717X-7-11</pubid>
                   <pubid idtype="pmpid" link="fulltext">22284745</pubid>
                </pubidlist>
             </xrefbib>
          </bibl>
          <bibl id="B24">
             <title>
                <p>Hepatocellular carcinoma: diagnosis and treatment</p>
             </title>
             <aug>
                <au>
                   <snm>Befeler</snm>
                   <fnm>AS</fnm>
                </au>
                <au>
                   <snm>Di Bisceglie</snm>
                   <fnm>AM</fnm>
                </au>
             </aug>
             <source>Gastroenterology</source>
             <pubdate>2002</pubdate>
             <volume>122</volume>
             <fpage>1609</fpage>
             <lpage>1619</lpage>
             <xrefbib>
                <pubidlist>
                   <pubid idtype="doi">10.1053/gast.2002.33411</pubid>
                   <pubid idtype="pmpid" link="fulltext">12016426</pubid>
                </pubidlist>
             </xrefbib>
          </bibl>
          <bibl id="B25">
             <title>
                <p>Analysis of factors influencing hepatocellular carcinoma detection: efficient use of computed tomography during arterial portography and during hepatic arteriography</p>
             </title>
             <aug>
                <au>
                   <snm>Fujishima</snm>
                   <fnm>T</fnm>
                </au>
                <au>
                   <snm>Yoshida</snm>
                   <fnm>H</fnm>
                </au>
                <au>
                   <snm>Obi</snm>
                   <fnm>S</fnm>
                </au>
                <au>
                   <snm>Shiina</snm>
                   <fnm>S</fnm>
                </au>
                <au>
                   <snm>Kanda</snm>
                   <fnm>M</fnm>
                </au>
                <au>
                   <snm>Tateishi</snm>
                   <fnm>R</fnm>
                </au>
                <au>
                   <snm>Akamatsu</snm>
                   <fnm>M</fnm>
                </au>
                <au>
                   <snm>Koike</snm>
                   <fnm>Y</fnm>
                </au>
                <au>
                   <snm>Sato</snm>
                   <fnm>S</fnm>
                </au>
                <au>
                   <snm>Teratani</snm>
                   <fnm>T</fnm>
                </au>
                <au>
                   <snm>Kawabe</snm>
                   <fnm>T</fnm>
                </au>
                <au>
                   <snm>Shiratori</snm>
                   <fnm>Y</fnm>
                </au>
                <au>
                   <snm>Omata</snm>
                   <fnm>M</fnm>
                </au>
             </aug>
             <source>J Gastroenterol</source>
             <pubdate>2005</pubdate>
             <volume>40</volume>
             <fpage>266</fpage>
             <lpage>273</lpage>
             <xrefbib>
                <pubidlist>
                   <pubid idtype="doi">10.1007/s00535-004-1533-4</pubid>
                   <pubid idtype="pmpid" link="fulltext">15830286</pubid>
                </pubidlist>
             </xrefbib>
          </bibl>
          <bibl id="B26">
             <title>
                <p>4D-CT imaging with synchronized intravenous contrast injection to improve delineation of liver tumors for treatment planning</p>
             </title>
             <aug>
                <au>
                   <snm>Beddar</snm>
                   <fnm>AS</fnm>
                </au>
                <au>
                   <snm>Briere</snm>
                   <fnm>TM</fnm>
                </au>
                <au>
                   <snm>Balter</snm>
                   <fnm>P</fnm>
                </au>
                <au>
                   <snm>Pan</snm>
                   <fnm>T</fnm>
                </au>
                <au>
                   <snm>Tolani</snm>
                   <fnm>N</fnm>
                </au>
                <au>
                   <snm>Ng</snm>
                   <fnm>C</fnm>
                </au>
                <au>
                   <snm>Szklaruk</snm>
                   <fnm>J</fnm>
                </au>
                <au>
                   <snm>Krishnan</snm>
                   <fnm>S</fnm>
                </au>
             </aug>
             <source>Radiother Oncol</source>
             <pubdate>2008</pubdate>
             <volume>87</volume>
             <fpage>445</fpage>
             <lpage>448</lpage>
             <xrefbib>
                <pubidlist>
                   <pubid idtype="doi">10.1016/j.radonc.2007.12.009</pubid>
                   <pubid idtype="pmpid" link="fulltext">18194819</pubid>
                </pubidlist>
             </xrefbib>
          </bibl>
          <bibl id="B27">
             <title>
                <p>Early three-dimensional conformal radiotherapy for patients with unresectable hepatocellular carcinoma after incomplete transcatheter arterial chemoembolization: a prospective evaluation of efficacy and toxicity</p>
             </title>
             <aug>
                <au>
                   <snm>Oh</snm>
                   <fnm>D</fnm>
                </au>
                <au>
                   <snm>Lim do</snm>
                   <fnm>H</fnm>
                </au>
                <au>
                   <snm>Park</snm>
                   <fnm>HC</fnm>
                </au>
                <au>
                   <snm>Paik</snm>
                   <fnm>SW</fnm>
                </au>
                <au>
                   <snm>Koh</snm>
                   <fnm>KC</fnm>
                </au>
                <au>
                   <snm>Lee</snm>
                   <fnm>JH</fnm>
                </au>
                <au>
                   <snm>Choi</snm>
                   <fnm>MS</fnm>
                </au>
                <au>
                   <snm>Yoo</snm>
                   <fnm>BC</fnm>
                </au>
                <au>
                   <snm>Lim</snm>
                   <fnm>HK</fnm>
                </au>
                <au>
                   <snm>Lee</snm>
                   <fnm>WJ</fnm>
                </au>
                <au>
                   <snm>Rhim</snm>
                   <fnm>H</fnm>
                </au>
                <au>
                   <snm>Shin</snm>
                   <fnm>SW</fnm>
                </au>
                <au>
                   <snm>Park</snm>
                   <fnm>KB</fnm>
                </au>
             </aug>
             <source>Am J Clin Oncol</source>
             <pubdate>2010</pubdate>
             <volume>33</volume>
             <fpage>370</fpage>
             <lpage>375</lpage>
             <xrefbib>
                <pubidlist>
                   <pubid idtype="doi">10.1097/COC.0b013e3181b0c298</pubid>
                   <pubid idtype="pmpid" link="fulltext">20142728</pubid>
                </pubidlist>
             </xrefbib>
          </bibl>
          <bibl id="B28">
             <title>
                <p>Registration of 3-D intraoperative MR images of the brain using a finite-element biomechanical model</p>
             </title>
             <aug>
                <au>
                   <snm>Ferrant</snm>
                   <fnm>M</fnm>
                </au>
                <au>
                   <snm>Nabavi</snm>
                   <fnm>A</fnm>
                </au>
                <au>
                   <snm>Macq</snm>
                   <fnm>B</fnm>
                </au>
                <au>
                   <snm>Jolesz</snm>
                   <fnm>FA</fnm>
                </au>
                <au>
                   <snm>Kikinis</snm>
                   <fnm>R</fnm>
                </au>
                <au>
                   <snm>Warfield</snm>
                   <fnm>SK</fnm>
                </au>
             </aug>
             <source>IEEE Trans Med Imaging</source>
             <pubdate>2001</pubdate>
             <volume>20</volume>
             <fpage>1384</fpage>
             <lpage>1397</lpage>
             <xrefbib>
                <pubidlist>
                   <pubid idtype="doi">10.1109/42.974933</pubid>
                   <pubid idtype="pmpid" link="fulltext">11811838</pubid>
                </pubidlist>
             </xrefbib>
          </bibl>
          <bibl id="B29">
             <title>
                <p>Reducing uncertainties in volumetric image based deformable organ registration</p>
             </title>
             <aug>
                <au>
                   <snm>Liang</snm>
                   <fnm>J</fnm>
                </au>
                <au>
                   <snm>Yan</snm>
                   <fnm>D</fnm>
                </au>
             </aug>
             <source>Med Phys</source>
             <pubdate>2003</pubdate>
             <volume>30</volume>
             <fpage>2116</fpage>
             <lpage>2122</lpage>
             <xrefbib>
                <pubidlist>
                   <pubid idtype="doi">10.1118/1.1587631</pubid>
                   <pubid idtype="pmpid" link="fulltext">12945976</pubid>
                </pubidlist>
             </xrefbib>
          </bibl>
          <bibl id="B30">
             <title>
                <p>Breathing synchronized delivery&#8212;a new technique for radiation treatment of the targets with respiratory motion</p>
             </title>
             <aug>
                <au>
                   <snm>Zhang</snm>
                   <fnm>T</fnm>
                </au>
                <au>
                   <snm>Keller</snm>
                   <fnm>H</fnm>
                </au>
                <au>
                   <snm>Jeraj</snm>
                   <fnm>R</fnm>
                </au>
                <au>
                   <snm>Manon</snm>
                   <fnm>R</fnm>
                </au>
                <au>
                   <snm>Welsh</snm>
                   <fnm>J</fnm>
                </au>
                <au>
                   <snm>Patel</snm>
                   <fnm>R</fnm>
                </au>
                <au>
                   <snm>Fenwick</snm>
                   <fnm>J</fnm>
                </au>
                <au>
                   <snm>Mehta</snm>
                   <fnm>M</fnm>
                </au>
                <au>
                   <snm>Mackie</snm>
                   <fnm>TR</fnm>
                </au>
                <au>
                   <snm>Paliwal</snm>
                   <fnm>B</fnm>
                </au>
             </aug>
             <source>Int J Radiat Oncol Biol Phys</source>
             <pubdate>2003</pubdate>
             <volume>57</volume>
             <fpage>S185</fpage>
             <lpage>S186</lpage>
             <xrefbib>
                <pubidlist>
                   <pubid idtype="doi">10.1016/S0360-3016(03)00980-5</pubid>
                </pubidlist>
             </xrefbib>
          </bibl>
       </refgrp>
    </bm>
 </art>
