<art>
    <ui>s13041-014-0073-y</ui>
    <ji>1756-6606</ji>
    <fm>
       <dochead>Short report</dochead>
       <bibl>
          <title>
             <p>
                <it>In vivo</it> evidence of pathogenicity of VPS35 mutations in the <it>Drosophila</it>
             </p>
          </title>
          <aug>
             <au id="A1">
                <snm>Wang</snm>
                <fnm>Hua-shan</fnm>
                <insr iid="I1"/>
                <email>mitsuvolvo@gmail.com</email>
             </au>
             <au id="A2">
                <snm>Toh</snm>
                <fnm>Joanne</fnm>
                <insr iid="I1"/>
                <email>joanne.toh.y.e@singhealth.com.sg</email>
             </au>
             <au id="A3">
                <snm>Ho</snm>
                <fnm>Patrick</fnm>
                <insr iid="I1"/>
                <email>patrick.ho.g.h@sgh.com.sg</email>
             </au>
             <au id="A4">
                <snm>Tio</snm>
                <fnm>Murni</fnm>
                <insr iid="I1"/>
                <email>murnittio@yahoo.co.uk</email>
             </au>
             <au id="A5">
                <snm>Zhao</snm>
                <fnm>Yi</fnm>
                <insr iid="I2"/>
                <email>murnittio@yahoo.co.uk</email>
             </au>
             <au ca="yes" id="A6">
                <snm>Tan</snm>
                <fnm>Eng-King</fnm>
                <insr iid="I1"/>
                <insr iid="I3"/>
                <insr iid="I4"/>
                <email>gnrtek@sgh.com.sg</email>
             </au>
          </aug>
          <insg>
             <ins id="I1">
                <p>National Neuroscience Institute, 11 Jalan Tan Tock Seng, Singapore, 308433, Singapore</p>
             </ins>
             <ins id="I2">
                <p>Department of Clinical Research, Singapore General Hospital, Singapore, 169856, Singapore</p>
             </ins>
             <ins id="I3">
                <p>Department of Neurology, Singapore General Hospital, Singapore, 169856, Singapore</p>
             </ins>
             <ins id="I4">
                <p>Duke-NUS Graduate Medical School, 8 College Road, Singapore, 169857, Singapore</p>
             </ins>
          </insg>
          <source>Molecular Brain</source>
          <issn>1756-6606</issn>
          <pubdate>2014</pubdate>
          <volume>7</volume>
          <issue>1</issue>
          <fpage>73</fpage>
          <url>http://www.molecularbrain.com/content/7/1/73</url>
          <xrefbib>
             <pubidlist>
                <pubid idtype="doi">10.1186/s13041-014-0073-y</pubid>
                <pubid idtype="pmpid">25288323</pubid>
             </pubidlist>
          </xrefbib>
       </bibl>
       <history>
          <rec>
             <date>
                <day>11</day>
                <month>7</month>
                <year>2014</year>
             </date>
          </rec>
          <acc>
             <date>
                <day>24</day>
                <month>9</month>
                <year>2014</year>
             </date>
          </acc>
          <pub>
             <date>
                <day>8</day>
                <month>10</month>
                <year>2014</year>
             </date>
          </pub>
       </history>
       <cpyrt>
          <year>2014</year>
          <collab>Wang et al.; licensee BioMed Central Ltd.</collab>
          <note>This is an Open Access article distributed under the terms of the Creative Commons Attribution License (<url>http://creativecommons.org/licenses/by/4.0</url>), which permits unrestricted use, distribution, and reproduction in any medium, provided the original work is properly credited. The Creative Commons Public Domain Dedication waiver (<url>http://creativecommons.org/publicdomain/zero/1.0/</url>) applies to the data made available in this article, unless otherwise stated.</note>
       </cpyrt>
       <kwdg>
          <kwd>Parkinson&#8217;s disease</kwd>
          <kwd>Drosophila</kwd>
          <kwd>VPS35</kwd>
          <kwd>Retromer complex</kwd>
       </kwdg>
       <abs>
          <sec>
             <st>
                <p>Abstract</p>
             </st>
             <p>Mutations of VPS35, a component of the retromer complex have been associated with late onset familial Parkinson&#8217;s disease. The D620N mutation in VPS35 appears to be most prevalent, however, P316S was found in two cases within the same family and a control, whereas L774M was identified in 6 cases and 1 control. In vivo evidence of their pathogenicity is lacking. Here we investigated the <it>in vivo</it> effects of P316S, D620N and L774M using <it>Drosophila</it> as a model. We generated transgenic human VPS35-expressing mutations and demonstrated that VPS35 D620N transgenic flies led to late-onset loss of TH-positive DA neurons, poor mobility, shortened lifespans and increased sensitivity to rotenone, a PD-linked environmental toxin, with some of these phenotypes observed for P316S but not in L774M transgenic flies. We conclude that D620N and to a smaller extent P316S are associated with pathogenicity in PD.</p>
          </sec>
       </abs>
    </fm>
    <bdy>
       <sec>
          <st>
             <p>1
 						Introduction</p>
          </st>
          <p>Parkinson&#8217;s disease (PD) is a neurodegenerative disorder that affects 1% of the aging population. It is characterized by the loss of midbrain dopaminergic (DA) neurons in the substantia nigra region as well as accumulation of Lewy body aggregates. Although PD has been studied extensively, the molecular etiology is still unknown, with many trying to unravel the genetic determinants of PD <abbrgrp>
                <abbr bid="B1">1</abbr>
             </abbrgrp>. VPS35 encodes for a subunit of the retromer, a coat-like protein complex that is involved in the recycling of membrane proteins. The retromer complex helps to guide protein sorting from the endosome-lysosome degradation pathway retrogradely to the Golgi apparatus and VPS35 functions as a platform for binding to other subunits (VPS26 and VPS29) with its distal ends in retromer assembly <abbrgrp>
                <abbr bid="B2">2</abbr>
             </abbrgrp>,<abbrgrp>
                <abbr bid="B3">3</abbr>
             </abbrgrp>.</p>
          <p>Recently, a number of reports determined a link between mutations in VPS35 and familial late-onset PD <abbrgrp>
                <abbr bid="B4">4</abbr>
             </abbrgrp>,<abbrgrp>
                <abbr bid="B5">5</abbr>
             </abbrgrp>. Successive studies showed that D620N mutation in VPS35 is the most prevalent and found to be associated with autosomal dominant PD in Caucasian and Japanese families but not in the Han Chinese population <abbrgrp>
                <abbr bid="B6">6</abbr>
             </abbrgrp>-<abbrgrp>
                <abbr bid="B9">9</abbr>
             </abbrgrp>. There are reports on other single mutations such as L774M and P316S but their pathogenicity remains unclear. P316S was found in two cases within the same family however, with a control subject also identified with the same mutation, genetic evidence for the pathogenicity of P316S remains unconvincing. L774M was identified in 6 cases and 1 control, hence the inconclusive evidence <abbrgrp>
                <abbr bid="B5">5</abbr>
             </abbrgrp>,<abbrgrp>
                <abbr bid="B10">10</abbr>
             </abbrgrp>.</p>
          <p>In flies, VPS35 was found to be involved in a number of physiological functions. Knockdown of VPS35 led to the inhibition of scavenger receptor endocytosis and VPS35 mutation resulted in the overproliferation and excessive differentiation of haemocytes, suggesting that it might have a tumor suppressor function. Also, there is likely a conserved function of VPS35 playing a role in endocytic trafficking <abbrgrp>
                <abbr bid="B11">11</abbr>
             </abbrgrp>. In addition, VPS35 was shown to act in the same pathway with Rab9 to control tracheal length by positively regulating the luminal deposition of Serp, a specific cargo for the retromer-dependent endocytic trafficking <abbrgrp>
                <abbr bid="B12">12</abbr>
             </abbrgrp>. Macleod et al., demonstrated that overexpression of VPS35 rescues dopaminergic neuronal loss and reduced lifespan caused by expression of LRRK2 G2019S in dopaminergic neurons, showing interaction between VPS35 and LRRK2 <abbrgrp>
                <abbr bid="B13">13</abbr>
             </abbrgrp>.</p>
          <p>To date, there is limited <it>in vivo</it> evidence of pathogenicity of VPS35 mutations reported in single patients. To address these gaps in knowledge, utilizing <it>Drosophila</it> as a model, we investigated the pathogenicity of three reported VPS35 mutations, P316S, D620N and L774M <it>in vivo</it>. We showed evidence that D620N is the most pathogenic mutation in VPS35 followed by P316S, and that these mutations in VPS35 are linked to PD.</p>
       </sec>
       <sec>
          <st>
             <p>2
 						Materials and methods</p>
          </st>
          <p>Experiments carried out adhered to ethical standards of the Research Center with regards to non-human experiments.</p>
          <sec>
             <st>
                <p>2.1 Fly stocks</p>
             </st>
             <p>The following flies were used in this study: <it>dopa decarboxylase (ddc)</it>-GAL4 and <it>yellow white (yw)</it> (Bloomington <it>Drosophila</it> Stock Center). Human VPS35-expressing flies were created by generating transgenic human VPS35 wild type or mutant (P316S, D620N and L774M) cDNA containing a Hemagglutinin (HA) tag at the C-terminus and inserted into the pUAST-attB plasmid, which will allow the UAS constructs to land into a chosen attP site in the fly genome during microinjection. Constructs were then sent for microinjection into <it>Drosophila</it> embryos (BestGene). Flies were raised on standard yeast-cornmeal-agar medium at 25&#176;C with 12-hour light and dark cycle.</p>
          </sec>
          <sec>
             <st>
                <p>2.2 Western blot, immunofluorescence and confocal microscopy</p>
             </st>
             <p>Protein was extracted from fly head homogenates and equal amounts of protein from the various genotypes were resolved by SDS-PAGE. HA-tagged VPS35 was detected using mouse anti-HA (1:1000, Santa Cruz). Flies were aged to day 20 and 60 after eclosion, before fly brains were dissected, fixed and stained according to published protocols <abbrgrp>
                   <abbr bid="B14">14</abbr>
                </abbrgrp>. Brains were probed with rabbit anti-tyrosine hydroxylase (1:500, Sigma-Aldrich) and mouse anti-HA (1:200, Santa Cruz).</p>
          </sec>
          <sec>
             <st>
                <p>2.3 Climbing, lifespan assays and rotenone treatment</p>
             </st>
             <p>Climbing assay was performed as described previously <abbrgrp>
                   <abbr bid="B15">15</abbr>
                </abbrgrp>. To determine adult lifespan, 100 flies from each genotype under the direction of <it>ddc</it>-GAL4 were maintained on standard media. Newly eclosed adult flies were transferred into vials containing fresh media every 3&#160;days and mortality was scored daily. Age-matched <it>ddc</it>-GAL4/+flies used as controls. In rotenone-treated flies, flies were fed with cornmeal-agar medium containing 500&#160;&#956;M rotenone (Sigma), which was first dissolved in DMSO, immediately after eclosion and during entire experimental period.</p>
          </sec>
          <sec>
             <st>
                <p>2.4 Statistical analysis</p>
             </st>
             <p>Quantitative data are expressed as mean&#8201;&#177;&#8201;SEM, unless otherwise stated. Statistical significance for climbing assay and differences in the number of TH-positive DA neurons were analyzed using one-way Anova with Bonferroni&#8217;s post hoc test, unless otherwise stated. Lifespan assay was analyzed with Log-rank test.</p>
          </sec>
       </sec>
       <sec>
          <st>
             <p>3
 						Results</p>
          </st>
          <sec>
             <st>
                <p>3.1 VSP35 D620N promotes DA neurodegeneration and loss of locomotor activity</p>
             </st>
             <p>To study the pathogenic effects of VPS35 mutants <it>in vivo</it>, we generated the following HA tagged transgenic flies: wild type VPS35 as control, and mutant VPS35 flies, P316S, D620N and L774M. They were verified via immunostaining and immunoblot that the VPS35 from the different variants were expressed and in comparable amounts (Additional file <supplr sid="S1">1</supplr>: Figure S1).</p><p>
                <it>ddc</it>-GAL4 flies, commonly used in <it>drosophila</it> PD research was used here for the overexpression of the various VPS35 transgenes in TH-positive DA neurons and to examine the gain-of-function effects of mutant VPS35 <abbrgrp>
                   <abbr bid="B16">16</abbr>
                </abbrgrp>. We first studied if DA neuronal integrity was affected, since this is a characteristic of PD patients, by comparing the number of TH-positive DA neurons (six clusters in each brain hemisphere). There was no apparent difference at 20&#160;days after eclosion across all genotypes (Figure&#160;<figr fid="F1">1</figr>A) but in aged 60&#160;days old flies, we saw a significant loss of TH-positive DA neurons in the PPL1 clusters of VPS35 D620N mutant flies (<it>p</it>&#8201;&lt;&#8201;0.05) compared to age matched wild type and control (<it>ddc</it>-GAL4/+) flies (Figure&#160;<figr fid="F1">1</figr>B, C). Interestingly, there was also significant difference between PPL1 clusters of control and wild type VPS35 flies (<it>p</it>&#8201;&lt;&#8201;0.05) (Figure&#160;<figr fid="F1">1</figr>B).</p>
             
                <fig id="F1">
                   <title>
                      <p>Figure 1</p>
                   </title>
                   <caption>
                      <p>Expression of VPS35 pathogenic variant D620N in flies result in DA neuronal degeneration and locomotive dysfunction. (A, B)</p>
                   </caption>
                   <text>
                      <p>
                         <b>Expression of VPS35 pathogenic variant D620N in flies result in DA neuronal degeneration and locomotive dysfunction. (A, B)</b> Bar graphs show number of TH-positive DA neurons in flies at 20 and 60 days after eclosion (n = 3, cohort of 10). <b>(C)</b> Representative confocal images of whole mount brains 60 days after eclosion of VPS35 wild type, P316S and D620N flies with magnified views of PPL1 cluster (boxed on the right). <b>(D)</b> Bar graph shows age-dependent climbing scores of female flies at different days after eclosion. Percentage of flies that reached the top of the column after 1 min were counted (n = 3, cohort of 20). <b>(E)</b> Survival curves were plotted as percentage of living flies. (n = 3, cohort of 100).</p>
                   </text>
                   <graphic file="s13041-014-0073-y-1"/>
                </fig>
             
             <p>As DA neuronal loss has been linked to locomotor dysfunction, we compared the mobility of the various genotypes. At 20 and 40&#160;days post eclosion, we observed a significant difference in climbing ability when comparing control flies to wildtype, P316S and D620N flies (<it>p</it>&#8201;&lt;&#8201;0.05) (Figure&#160;<figr fid="F1">1</figr>D). At 60&#160;days post eclosion, there was a marked reduction in climbing abilities for all genotypes except L774M transgenic flies, with the climbing scores for VPS35 P316S and D620N flies significantly lower (<it>p</it>&#8201;&lt;&#8201;0.05) compared to age matched control and VPS35 wild type flies (Figure&#160;<figr fid="F1">1</figr>D). This correlated with the significant loss of DA neurons in VPS35 D620N mutant flies at 60&#160;days. Interestingly, L774M transgenic flies displayed robust climbing even after 60&#160;days of aging. There was a significant decrease (<it>p</it>&#8201;&lt;&#8201;0.05) in the median lifespan of D620N flies (63&#160;days) compared to wild type and control flies (70&#160;days) (Figure&#160;<figr fid="F1">1</figr>E).</p>
          </sec>
          <sec>
             <st>
                <p>3.2 Rotenone treatment further exacerbated the pathogenicity of D620N VPS35 variant in DA neuron degeneration</p>
             </st>
             <p>We challenged the various transgenic VPS35-expressing flies with rotenone to examine their relative susceptibility of their TH-positive DA neurons to degeneration in response to a PD-linked environmental toxin. We observed a faster loss (15&#160;days) of DA neurons in the PPL1 clusters of rotenone-treated flies expressing VPS35 P316S or D620N flies compared to age-matched control flies. Accelerated loss of TH-positive DA neurons was also observed in the PPL2 cluster of VPS35 P316S and D620N flies (<it>p&#8201;&lt;</it>&#8201;0.05) (Figure&#160;<figr fid="F2">2</figr>). Again, we did not find any loss of TH-positive DA neurons in flies expressing VPS35 L774M as rotenone treatment failed to enhance any loss of TH-positive DA neurons. These results suggest that D620N VPS35 flies are highly susceptible to rotenone DA neurodegeneration.</p>
             
                <fig id="F2">
                   <title>
                      <p>Figure 2</p>
                   </title>
                   <caption>
                      <p>Exposure of VPS35 P316S and D620N mutant flies to rotenone accelerates DA neuronal loss. (A)</p>
                   </caption>
                   <text>
                      <p>
                         <b>Exposure of VPS35 P316S and D620N mutant flies to rotenone accelerates DA neuronal loss. (A)</b> Bar graph shows the quantification of the number of DA neurons in different clusters of various fly species 15 days after rotenone treatment (n = 3, cohort of 10). <b>(B)</b> Representative confocal images showing TH-positive DA neurons in the PPL1 cluster of rotenone treated fly species in VPS35 wild type, P316S and D620N flies.</p>
                   </text>
                   <graphic file="s13041-014-0073-y-2"/>
                </fig>
             
          </sec>
       </sec>
       <sec>
          <st>
             <p>4
 						Discussion</p>
          </st>
          <p>VPS35 is a component of the retromer complex recently linked to autosomal dominant late onset PD and <it>in vivo</it> evidence of pathogenicity of VPS35 mutations in single patient is lacking. Here, we characterized three reported variants of VPS35, P316S, D620N and L774M, in flies and provided <it>in vivo</it> evidence of the pathogenicity of VPS35 D620N mutation. We demonstrated that the expression of VPS35 D620N and to a smaller extent P316S, lead to the loss of TH-positive DA neurons, locomotor dysfunction and reduced lifespan.</p>
          <p>The C-terminal amino acid residues 307 &#8211; 796 form an &#945;-solenoid fold that fits into the metal-binding site of VPS29, suggesting that the known mutations of VPS35 might interfere with the interaction and assembly with VPS29, and disrupt retromer function in trafficking proteins intracellularly <abbrgrp>
                <abbr bid="B17">17</abbr>
             </abbrgrp>,<abbrgrp>
                <abbr bid="B18">18</abbr>
             </abbrgrp>. D620N is at the region where VPS35 binds not only to VPS29, but also accessory proteins such as cation-independent mannose-6-phosphate receptor (CI-MPR) and SNX1, whereby the former is essential for efficient anterograde transport of soluble hydrolases and also retrieval of mislocalized resident Golgi proteins, and the latter implicated in sorting of activated signaling receptors for lysosomal degradation <abbrgrp>
                <abbr bid="B19">19</abbr>
             </abbrgrp>. Zavodszky et al. found that unlike a complete knockdown of VPS35 that eliminates retromer function, the D620N mutation affects retromer function linked to the WASH complex. They recently published findings showing that D620N mutation in VPS35 destabilizes the retromer-WASH complex interaction, resulting in reduced endosomal localization of the WASH complex, and that cells expressing the D620N VPS35 mutation exhibited defects in autophagy <abbrgrp>
                <abbr bid="B20">20</abbr>
             </abbrgrp>. Defects in autophagy could be a contributor to PD pathogenesis as it may aggravate pathologies associated with PD, such as mitochondrial abnormalities, protein aggregation, increased reactive oxygen species and higher sensitivity to cell death. These may have contributed to the more severe phenotype observed in D620N flies. Although the precise mechanism of retromer dysfunction in PD is unclear, one report observed that the expression of VPS35 D620N led to endosomal alterations and defects in trafficking, which may partially explain its action in PD <abbrgrp>
                <abbr bid="B21">21</abbr>
             </abbrgrp>.</p>
          <p>An interesting observation was the robust climbing of L774M mutation that appeared to have a protective effect during the climbing assay after flies were aged. As the mutation is at the C-terminus of VPS35 and is part of the binding region of VPS35 to VPS29, the mutation may have modulated structural changes in VPS35 such that it binds to VPS29 more efficiently. Another interesting observation was the toxic effect of over-expressing wild type VPS35, as we observed significant differences in the number of TH-positive neurons between age matched control and wild type flies as well as climbing abilities of age matched control and wild type flies at 20 and 40&#160;days old. These results suggest that over-expressing wild type VPS35 alone causes the loss of DA neurons, and impairs locomotion even though Macleod and colleagues observed that the over-expression of wild type VPS35 rescued DA neuronal loss and reduced life span caused by LRRK2 G2019S expression in DA neurons <abbrgrp>
                <abbr bid="B13">13</abbr>
             </abbrgrp>. In addition, the over-expression of D620N and P316S mutations aggravate this effect, which is consistent with the dominant nature of these mutations.</p>
          <p>In a recent study by Tsika and colleagues, the common VPS35 D620N mutation did not compromise the protein stability, localization to endosomal and lysosomal vesicles, or the vesicular sorting of retromer cargo in rodent primary neurons or patient-derived human fibroblasts, suggesting that there is no loss of function. Instead, the overexpression of D620N VPS35 induced marked degeneration of substantia nigra dopaminergic neurons and axonal pathology in a rat model, implying that dominant VPS35 mutations lead to neurodegeneration in PD, which is similar to our results in flies <abbrgrp>
                <abbr bid="B22">22</abbr>
             </abbrgrp>.</p>
          <p>We observed that the pathogenic process caused by single mutations of D620N and P316S can be exacerbated by rotenone, an environmental mitochondrial complex I inhibitor that has been linked to PD. Other findings have shown that the retromer complex regulates the transport of mitochondrial-anchored protein ligase to peroxisomes and that enhanced VPS35 expression protects dopaminergic cells against mitochondrial stress, suggesting that there might be a connection between VPS35 and pathogenesis of PD via mitochondrial stress <abbrgrp>
                <abbr bid="B23">23</abbr>
             </abbrgrp>,<abbrgrp>
                <abbr bid="B24">24</abbr>
             </abbrgrp>.</p>
          <p>Our study in characterizing the various VPS35 mutations will contribute to the understanding of VPS35-induced PD, with <it>in vivo</it> confirmation of the pathogenicity VPS35 D620N mutation. Further functional and genetic studies can be carried out to resolve the underlying mechanisms of VPS35 in PD, in addition to studying the interactions between VPS35 and other PD associated genes, which might provide important insights in the identification of more effective drug or molecular therapeutic targets for PD patients with VPS35 mutations.</p>
       </sec>
       <sec>
          <st>
             <p>Competing interests</p>
          </st>
          <p>The authors declare that they have no competing interests.</p>
       </sec>
       <sec>
          <st>
             <p>Authors&#8217; contributions</p>
          </st>
          <p>WHS conceived and designed the study. WHS, JT and PH participated in carrying out the experiments. WHS and JT participated in analyzing the data. JT and ET drafted the manuscript. All authors read and approved the final manuscript.</p>
       </sec>
       <sec>
          <st>
             <p>Additional file</p>
          </st>
          <suppl id="S1">
             <title>
                <p>Additional file 1: Figure S1.</p>
             </title>
             <text>
                <p>HA-tagged VPS35 transgenes tested for expression and protein levels. <b>(A)</b> Immunostaining of whole-mount adult fly brains expressing wild type or mutant human VPS35 in TH&#8201;+&#8201;neurons by overexpressing HA-tagged VPS35 variants in TH&#8201;+&#8201;neurons using <it>ddc</it>-GAL4. Top row: anti-HA. Middle row: anti-TH. Bottom row: Merged images of anti-HA (green) and anti-TH (red). <b>(B)</b> An anti-HA immunoblot of adult brain lysates prepared from control (<it>elav</it>-GAL4/+) or transgenic flies expressing the various VPS35 variants (<it>elav</it>-GAL4&#8201;&gt;&#8201;VPS35 variants).</p>
             </text>
             <file name="s13041-014-0073-y-S1.docx">
                <p>Click here for file</p>
             </file>
          </suppl>
          
       </sec>
    </bdy>
    <bm>
       <ack>
          <sec>
             <st>
                <p>Acknowledgements</p>
             </st>
             <p>National Medical Research Council, Singapore Millennium Foundation, Singapore General Hospital, and Duke NUS Graduate School of Medicine. Supported by the Singapore National Research Foundation under its Translational and Clinical Research Flagship Programme and administered by the Singapore Ministry of Health&#8217;s National Medical Research Council.</p>
          </sec>
       </ack>
       <refgrp>
          
          <bibl id="B1">
             <title>
                <p>Pathogenic mutations in Parkinson disease</p>
             </title>
             <aug>
                <au>
                   <snm>Tan</snm>
                   <fnm>EK</fnm>
                </au>
                <au>
                   <snm>Skipper</snm>
                   <fnm>LM</fnm>
                </au>
             </aug>
             <source>Hum Mutat</source>
             <pubdate>2007</pubdate>
             <volume>28</volume>
             <issue>7</issue>
             <fpage>641</fpage>
             <lpage>653</lpage>
             <xrefbib>
                <pubidlist>
                   <pubid idtype="doi">10.1002/humu.20507</pubid>
                   <pubid idtype="pmpid" link="fulltext">17385668</pubid>
                </pubidlist>
             </xrefbib>
          </bibl>
          <bibl id="B2">
             <title>
                <p>The role of retromer in neurodegenerative disease</p>
             </title>
             <aug>
                <au>
                   <snm>Skinner</snm>
                   <fnm>C</fnm>
                </au>
                <au>
                   <snm>Seaman</snm>
                   <fnm>M</fnm>
                </au>
                <au>
                   <snm>Skinner</snm>
                   <fnm>C</fnm>
                </au>
                <au>
                   <snm>Seaman</snm>
                   <fnm>M</fnm>
                </au>
             </aug>
             <source>Research and Perspectives in Alzheimer&#8217;s Disease</source>
             <publisher>Springer Berlin, Heidelberg</publisher>
             <editor>St. George-Hyslop PH, Mobley WCC, Yves C</editor>
             <pubdate>2009</pubdate>
             <fpage>125</fpage>
             <lpage>140</lpage>
          </bibl>
          <bibl id="B3">
             <title>
                <p>Retromer</p>
             </title>
             <aug>
                <au>
                   <snm>Bonifacino</snm>
                   <fnm>JS</fnm>
                </au>
                <au>
                   <snm>Hurley</snm>
                   <fnm>JH</fnm>
                </au>
             </aug>
             <source>Curr Opin Cell Biol</source>
             <pubdate>2008</pubdate>
             <volume>20</volume>
             <issue>4</issue>
             <fpage>427</fpage>
             <lpage>436</lpage>
             <xrefbib>
                <pubidlist>
                   <pubid idtype="doi">10.1016/j.ceb.2008.03.009</pubid>
                   <pubid idtype="pmpid" link="fulltext">18472259</pubid>
                </pubidlist>
             </xrefbib>
          </bibl>
          <bibl id="B4">
             <title>
                <p>A mutation in VPS35, encoding a subunit of the retromer complex, causes late-onset Parkinson disease</p>
             </title>
             <aug>
                <au>
                   <snm>Zimprich</snm>
                   <fnm>A</fnm>
                </au>
                <au>
                   <snm>Benet-Pag&#232;s</snm>
                   <fnm>A</fnm>
                </au>
                <au>
                   <snm>Struhal</snm>
                   <fnm>W</fnm>
                </au>
                <au>
                   <snm>Graf</snm>
                   <fnm>E</fnm>
                </au>
                <au>
                   <snm>Eck</snm>
                   <fnm>SH</fnm>
                </au>
                <au>
                   <snm>Offman</snm>
                   <fnm>MN</fnm>
                </au>
                <au>
                   <snm>Haubenberger</snm>
                   <fnm>D</fnm>
                </au>
                <au>
                   <snm>Spielberger</snm>
                   <fnm>S</fnm>
                </au>
                <au>
                   <snm>Schulte</snm>
                   <fnm>EC</fnm>
                </au>
                <au>
                   <snm>Lichtner</snm>
                   <fnm>P</fnm>
                </au>
                <au>
                   <snm>Rossle</snm>
                   <fnm>SC</fnm>
                </au>
                <au>
                   <snm>Klopp</snm>
                   <fnm>N</fnm>
                </au>
                <au>
                   <snm>Wolf</snm>
                   <fnm>E</fnm>
                </au>
                <au>
                   <snm>Seppi</snm>
                   <fnm>K</fnm>
                </au>
                <au>
                   <snm>Pirker</snm>
                   <fnm>W</fnm>
                </au>
                <au>
                   <snm>Presslauer</snm>
                   <fnm>S</fnm>
                </au>
                <au>
                   <snm>Mollenhauer</snm>
                   <fnm>B</fnm>
                </au>
                <au>
                   <snm>Katzenschlager</snm>
                   <fnm>R</fnm>
                </au>
                <au>
                   <snm>Foki</snm>
                   <fnm>T</fnm>
                </au>
                <au>
                   <snm>Hotzy</snm>
                   <fnm>C</fnm>
                </au>
                <au>
                   <snm>Reinthaler</snm>
                   <fnm>E</fnm>
                </au>
                <au>
                   <snm>Harutyunyan</snm>
                   <fnm>A</fnm>
                </au>
                <au>
                   <snm>Kralovics</snm>
                   <fnm>R</fnm>
                </au>
                <au>
                   <snm>Peters</snm>
                   <fnm>A</fnm>
                </au>
                <au>
                   <snm>Zimprich</snm>
                   <fnm>F</fnm>
                </au>
                <au>
                   <snm>Br&#252;cke</snm>
                   <fnm>T</fnm>
                </au>
                <au>
                   <snm>Poewe</snm>
                   <fnm>W</fnm>
                </au>
                <au>
                   <snm>Auff</snm>
                   <fnm>E</fnm>
                </au>
                <au>
                   <snm>Trenkwalder</snm>
                   <fnm>C</fnm>
                </au>
                <au>
                   <snm>Rost</snm>
                   <fnm>B</fnm>
                </au>
                <etal/>
             </aug>
             <source>Am J Hum Genet</source>
             <pubdate>2011</pubdate>
             <volume>89</volume>
             <issue>1</issue>
             <fpage>168</fpage>
             <lpage>175</lpage>
             <xrefbib>
                <pubidlist>
                   <pubid idtype="doi">10.1016/j.ajhg.2011.06.008</pubid>
                   <pubid idtype="pmpid" link="fulltext">21763483</pubid>
                </pubidlist>
             </xrefbib>
          </bibl>
          <bibl id="B5">
             <title>
                <p>VPS35 mutations in Parkinson disease</p>
             </title>
             <aug>
                <au>
                   <snm>Vilari&#241;o-G&#252;ell</snm>
                   <fnm>C</fnm>
                </au>
                <au>
                   <snm>Wider</snm>
                   <fnm>C</fnm>
                </au>
                <au>
                   <snm>Ross</snm>
                   <fnm>OA</fnm>
                </au>
                <au>
                   <snm>Dachsel</snm>
                   <fnm>JC</fnm>
                </au>
                <au>
                   <snm>Kachergus</snm>
                   <fnm>JM</fnm>
                </au>
                <au>
                   <snm>Lincoln</snm>
                   <fnm>SJ</fnm>
                </au>
                <au>
                   <snm>Soto-Ortolaza</snm>
                   <fnm>AI</fnm>
                </au>
                <au>
                   <snm>Cobb</snm>
                   <fnm>SA</fnm>
                </au>
                <au>
                   <snm>Wilhoite</snm>
                   <fnm>GJ</fnm>
                </au>
                <au>
                   <snm>Bacon</snm>
                   <fnm>JA</fnm>
                </au>
                <au>
                   <snm>Behrouz</snm>
                   <fnm>B</fnm>
                </au>
                <au>
                   <snm>Melrose</snm>
                   <fnm>HL</fnm>
                </au>
                <au>
                   <snm>Hentati</snm>
                   <fnm>E</fnm>
                </au>
                <au>
                   <snm>Puschmann</snm>
                   <fnm>A</fnm>
                </au>
                <au>
                   <snm>Evans</snm>
                   <fnm>DM</fnm>
                </au>
                <au>
                   <snm>Conibear</snm>
                   <fnm>E</fnm>
                </au>
                <au>
                   <snm>Wasserman</snm>
                   <fnm>WW</fnm>
                </au>
                <au>
                   <snm>Aasly</snm>
                   <fnm>JO</fnm>
                </au>
                <au>
                   <snm>Burkhard</snm>
                   <fnm>PR</fnm>
                </au>
                <au>
                   <snm>Djaldetti</snm>
                   <fnm>R</fnm>
                </au>
                <au>
                   <snm>Ghika</snm>
                   <fnm>J</fnm>
                </au>
                <au>
                   <snm>Hentati</snm>
                   <fnm>F</fnm>
                </au>
                <au>
                   <snm>Krygowska-Wajs</snm>
                   <fnm>A</fnm>
                </au>
                <au>
                   <snm>Lynch</snm>
                   <fnm>T</fnm>
                </au>
                <au>
                   <snm>Melamed</snm>
                   <fnm>E</fnm>
                </au>
                <au>
                   <snm>Rajput</snm>
                   <fnm>A</fnm>
                </au>
                <au>
                   <snm>Rajput</snm>
                   <fnm>AH</fnm>
                </au>
                <au>
                   <snm>Solida</snm>
                   <fnm>A</fnm>
                </au>
                <au>
                   <snm>Wu</snm>
                   <fnm>RM</fnm>
                </au>
                <au>
                   <snm>Uitti</snm>
                   <fnm>RJ</fnm>
                </au>
                <etal/>
             </aug>
             <source>Am J Hum Genet</source>
             <pubdate>2011</pubdate>
             <volume>89</volume>
             <issue>1</issue>
             <fpage>162</fpage>
             <lpage>167</lpage>
             <xrefbib>
                <pubidlist>
                   <pubid idtype="doi">10.1016/j.ajhg.2011.06.001</pubid>
                   <pubid idtype="pmpid" link="fulltext">21763482</pubid>
                </pubidlist>
             </xrefbib>
          </bibl>
          <bibl id="B6">
             <title>
                <p>VPS35 mutation in Japanese patients with typical Parkinson&#8217;s disease</p>
             </title>
             <aug>
                <au>
                   <snm>Ando</snm>
                   <fnm>M</fnm>
                </au>
                <au>
                   <snm>Funayama</snm>
                   <fnm>M</fnm>
                </au>
                <au>
                   <snm>Li</snm>
                   <fnm>Y</fnm>
                </au>
                <au>
                   <snm>Kashihara</snm>
                   <fnm>K</fnm>
                </au>
                <au>
                   <snm>Murakami</snm>
                   <fnm>Y</fnm>
                </au>
                <au>
                   <snm>Ishizu</snm>
                   <fnm>N</fnm>
                </au>
                <au>
                   <snm>Toyoda</snm>
                   <fnm>C</fnm>
                </au>
                <au>
                   <snm>Noguchi</snm>
                   <fnm>K</fnm>
                </au>
                <au>
                   <snm>Hashimoto</snm>
                   <fnm>T</fnm>
                </au>
                <au>
                   <snm>Nakano</snm>
                   <fnm>N</fnm>
                </au>
                <au>
                   <snm>Sasaki</snm>
                   <fnm>R</fnm>
                </au>
                <au>
                   <snm>Kokubo</snm>
                   <fnm>Y</fnm>
                </au>
                <au>
                   <snm>Kuzuhara</snm>
                   <fnm>S</fnm>
                </au>
                <au>
                   <snm>Ogaki</snm>
                   <fnm>K</fnm>
                </au>
                <au>
                   <snm>Yamashita</snm>
                   <fnm>C</fnm>
                </au>
                <au>
                   <snm>Yoshino</snm>
                   <fnm>H</fnm>
                </au>
                <au>
                   <snm>Hatano</snm>
                   <fnm>T</fnm>
                </au>
                <au>
                   <snm>Tomiyama</snm>
                   <fnm>H</fnm>
                </au>
                <au>
                   <snm>Hattori</snm>
                   <fnm>N</fnm>
                </au>
             </aug>
             <source>Mov Disord</source>
             <pubdate>2012</pubdate>
             <volume>27</volume>
             <issue>11</issue>
             <fpage>1413</fpage>
             <lpage>1417</lpage>
             <xrefbib>
                <pubidlist>
                   <pubid idtype="doi">10.1002/mds.25145</pubid>
                   <pubid idtype="pmpid" link="fulltext">22991136</pubid>
                </pubidlist>
             </xrefbib>
          </bibl>
          <bibl id="B7">
             <title>
                <p>VPS35 gene variants are not associated with Parkinson&#8217;s disease in the mainland Chinese population</p>
             </title>
             <aug>
                <au>
                   <snm>Guo</snm>
                   <fnm>JF</fnm>
                </au>
                <au>
                   <snm>Sun</snm>
                   <fnm>QY</fnm>
                </au>
                <au>
                   <snm>Lv</snm>
                   <fnm>ZY</fnm>
                </au>
                <au>
                   <snm>Yu</snm>
                   <fnm>RL</fnm>
                </au>
                <au>
                   <snm>Li</snm>
                   <fnm>K</fnm>
                </au>
                <au>
                   <snm>Zhang</snm>
                   <fnm>YH</fnm>
                </au>
                <au>
                   <snm>Tian</snm>
                   <fnm>JY</fnm>
                </au>
                <au>
                   <snm>Xia</snm>
                   <fnm>K</fnm>
                </au>
                <au>
                   <snm>Yan</snm>
                   <fnm>XX</fnm>
                </au>
                <au>
                   <snm>Tang</snm>
                   <fnm>BS</fnm>
                </au>
             </aug>
             <source>Parkinsonism Relat Disord</source>
             <pubdate>2012</pubdate>
             <volume>18</volume>
             <issue>8</issue>
             <fpage>983</fpage>
             <lpage>985</lpage>
             <xrefbib>
                <pubidlist>
                   <pubid idtype="doi">10.1016/j.parkreldis.2012.05.002</pubid>
                   <pubid idtype="pmpid" link="fulltext">22673036</pubid>
                </pubidlist>
             </xrefbib>
          </bibl>
          <bibl id="B8">
             <title>
                <p>Identification of VPS35 mutations replicated in French families with Parkinson disease</p>
             </title>
             <aug>
                <au>
                   <snm>Lesage</snm>
                   <fnm>S</fnm>
                </au>
                <au>
                   <snm>Condroyer</snm>
                   <fnm>C</fnm>
                </au>
                <au>
                   <snm>Klebe</snm>
                   <fnm>S</fnm>
                </au>
                <au>
                   <snm>Honor&#233;</snm>
                   <fnm>A</fnm>
                </au>
                <au>
                   <snm>Tison</snm>
                   <fnm>F</fnm>
                </au>
                <au>
                   <snm>Brefel-Courbon</snm>
                   <fnm>C</fnm>
                </au>
                <au>
                   <snm>D&#252;rr</snm>
                   <fnm>A</fnm>
                </au>
                <au>
                   <snm>Brice</snm>
                   <fnm>A</fnm>
                </au>
             </aug>
             <source>Neurology</source>
             <pubdate>2012</pubdate>
             <volume>78</volume>
             <issue>18</issue>
             <fpage>1449</fpage>
             <lpage>1450</lpage>
             <xrefbib>
                <pubidlist>
                   <pubid idtype="doi">10.1212/WNL.0b013e318253d5f2</pubid>
                   <pubid idtype="pmpid" link="fulltext">22517097</pubid>
                </pubidlist>
             </xrefbib>
          </bibl>
          <bibl id="B9">
             <note>Sheerin UM, Charlesworth G, Bras J, Guerreiro R, Bhatia K, Foltynie T, Limousin P, Silveira-Moriyama L, Lees A, Wood N: <b>Screening for VPS35 mutations in Parkinson&#8217;s disease.</b>
                <it>Neurobiol Aging</it> 2012, <b>33</b>(4):838. e1-838.e5.</note>
          </bibl>
          <bibl id="B10">
             <title>
                <p>A multi-centre clinico-genetic analysis of the VPS35 gene in Parkinson disease indicates reduced penetrance for disease-associated variants</p>
             </title>
             <aug>
                <au>
                   <snm>Sharma</snm>
                   <fnm>M</fnm>
                </au>
                <au>
                   <snm>Ioannidis</snm>
                   <fnm>JPA</fnm>
                </au>
                <au>
                   <snm>Aasly</snm>
                   <fnm>JO</fnm>
                </au>
                <au>
                   <snm>Annesi</snm>
                   <fnm>G</fnm>
                </au>
                <au>
                   <snm>Brice</snm>
                   <fnm>A</fnm>
                </au>
                <au>
                   <snm>Bertram</snm>
                   <fnm>L</fnm>
                </au>
                <au>
                   <snm>Bozi</snm>
                   <fnm>M</fnm>
                </au>
                <au>
                   <snm>Barcikowska</snm>
                   <fnm>M</fnm>
                </au>
                <au>
                   <snm>Crosiers</snm>
                   <fnm>D</fnm>
                </au>
                <au>
                   <snm>Clarke</snm>
                   <fnm>CE</fnm>
                </au>
                <au>
                   <snm>Facheris</snm>
                   <fnm>MF</fnm>
                </au>
                <au>
                   <snm>Farrer</snm>
                   <fnm>M</fnm>
                </au>
                <au>
                   <snm>Garraux</snm>
                   <fnm>G</fnm>
                </au>
                <au>
                   <snm>Gispert</snm>
                   <fnm>S</fnm>
                </au>
                <au>
                   <snm>Auburger</snm>
                   <fnm>G</fnm>
                </au>
                <au>
                   <snm>Vilari&#241;o-G&#252;ell</snm>
                   <fnm>C</fnm>
                </au>
                <au>
                   <snm>Hadjigeorgiou</snm>
                   <fnm>GM</fnm>
                </au>
                <au>
                   <snm>Hicks</snm>
                   <fnm>AA</fnm>
                </au>
                <au>
                   <snm>Hattori</snm>
                   <fnm>N</fnm>
                </au>
                <au>
                   <snm>Jeon</snm>
                   <fnm>BS</fnm>
                </au>
                <au>
                   <snm>Jamrozik</snm>
                   <fnm>Z</fnm>
                </au>
                <au>
                   <snm>Krygowska-Wajs</snm>
                   <fnm>A</fnm>
                </au>
                <au>
                   <snm>Lesage</snm>
                   <fnm>S</fnm>
                </au>
                <au>
                   <snm>Lill</snm>
                   <fnm>CM</fnm>
                </au>
                <au>
                   <snm>Lin</snm>
                   <fnm>JJ</fnm>
                </au>
                <au>
                   <snm>Lynch</snm>
                   <fnm>T</fnm>
                </au>
                <au>
                   <snm>Lichtner</snm>
                   <fnm>P</fnm>
                </au>
                <au>
                   <snm>Lang</snm>
                   <fnm>AE</fnm>
                </au>
                <au>
                   <snm>Libioulle</snm>
                   <fnm>C</fnm>
                </au>
                <au>
                   <snm>Murata</snm>
                   <fnm>M</fnm>
                </au>
                <etal/>
             </aug>
             <source>J Med Genet</source>
             <pubdate>2012</pubdate>
             <volume>49</volume>
             <issue>11</issue>
             <fpage>721</fpage>
             <lpage>726</lpage>
             <xrefbib>
                <pubidlist>
                   <pubid idtype="doi">10.1136/jmedgenet-2012-101155</pubid>
                   <pubid idtype="pmpid" link="fulltext">23125461</pubid>
                </pubidlist>
             </xrefbib>
          </bibl>
          <bibl id="B11">
             <title>
                <p>Drosophila Vps35 function is necessary for normal endocytic trafficking and actin cytoskeleton organisation</p>
             </title>
             <aug>
                <au>
                   <snm>Korolchuk</snm>
                   <fnm>VI</fnm>
                </au>
                <au>
                   <snm>Sch&#252;tz</snm>
                   <fnm>MM</fnm>
                </au>
                <au>
                   <snm>G&#243;mez-Llorente</snm>
                   <fnm>C</fnm>
                </au>
                <au>
                   <snm>Rocha</snm>
                   <fnm>J</fnm>
                </au>
                <au>
                   <snm>Lansu</snm>
                   <fnm>NR</fnm>
                </au>
                <au>
                   <snm>Collins</snm>
                   <fnm>SM</fnm>
                </au>
                <au>
                   <snm>Wairkar</snm>
                   <fnm>YP</fnm>
                </au>
                <au>
                   <snm>Robinson</snm>
                   <fnm>IM</fnm>
                </au>
                <au>
                   <snm>O&#8217;Kane</snm>
                   <fnm>CJ</fnm>
                </au>
             </aug>
             <source>J Cell Sci</source>
             <pubdate>2007</pubdate>
             <volume>120</volume>
             <issue>24</issue>
             <fpage>4367</fpage>
             <lpage>4376</lpage>
             <xrefbib>
                <pubidlist>
                   <pubid idtype="doi">10.1242/jcs.012336</pubid>
                   <pubid idtype="pmpid" link="fulltext">18057029</pubid>
                </pubidlist>
             </xrefbib>
          </bibl>
          <bibl id="B12">
             <note>Dong B, Kakihara K, Otani T, Wada H, Hayashi S: <b>Rab9 and retromer regulate retrograde trafficking of luminal protein required for epithelial tube length control.</b>
                <it>Nat Commun</it> 2013, <b>4:</b>1358.</note>
          </bibl>
          <bibl id="B13">
             <title>
                <p>RAB7L1 interacts with LRRK2 to modify intraneuronal protein sorting and Parkinson&#8217;s disease risk</p>
             </title>
             <aug>
                <au>
                   <snm>MacLeod</snm>
                   <fnm>DA</fnm>
                </au>
                <au>
                   <snm>Rhinn</snm>
                   <fnm>H</fnm>
                </au>
                <au>
                   <snm>Kuwahara</snm>
                   <fnm>T</fnm>
                </au>
                <au>
                   <snm>Zolin</snm>
                   <fnm>A</fnm>
                </au>
                <au>
                   <snm>Di Paolo</snm>
                   <fnm>G</fnm>
                </au>
                <au>
                   <snm>McCabe</snm>
                   <fnm>BD</fnm>
                </au>
                <au>
                   <snm>MacCabe</snm>
                   <fnm>BD</fnm>
                </au>
                <au>
                   <snm>Marder</snm>
                   <fnm>KS</fnm>
                </au>
                <au>
                   <snm>Honig</snm>
                   <fnm>LS</fnm>
                </au>
                <au>
                   <snm>Clark</snm>
                   <fnm>LN</fnm>
                </au>
                <au>
                   <snm>Small</snm>
                   <fnm>SA</fnm>
                </au>
                <au>
                   <snm>Abeliovich</snm>
                   <fnm>A</fnm>
                </au>
             </aug>
             <source>Neuron</source>
             <pubdate>2013</pubdate>
             <volume>77</volume>
             <issue>3</issue>
             <fpage>425</fpage>
             <lpage>439</lpage>
             <xrefbib>
                <pubidlist>
                   <pubid idtype="doi">10.1016/j.neuron.2012.11.033</pubid>
                   <pubid idtype="pmpid" link="fulltext">23395371</pubid>
                </pubidlist>
             </xrefbib>
          </bibl>
          <bibl id="B14">
             <title>
                <p>Increased glutathione S-transferase activity rescues dopaminergic neuron loss in a Drosophila model of Parkinson&#8217;s disease</p>
             </title>
             <aug>
                <au>
                   <snm>Whitworth</snm>
                   <fnm>AJ</fnm>
                </au>
                <au>
                   <snm>Theodore</snm>
                   <fnm>DA</fnm>
                </au>
                <au>
                   <snm>Greene</snm>
                   <fnm>JC</fnm>
                </au>
                <au>
                   <snm>Bene&#353;</snm>
                   <fnm>H</fnm>
                </au>
                <au>
                   <snm>Wes</snm>
                   <fnm>PD</fnm>
                </au>
                <au>
                   <snm>Pallanck</snm>
                   <fnm>LJ</fnm>
                </au>
             </aug>
             <source>Proc Natl Acad Sci</source>
             <pubdate>2005</pubdate>
             <volume>102</volume>
             <issue>22</issue>
             <fpage>8024</fpage>
             <lpage>8029</lpage>
             <xrefbib>
                <pubidlist>
                   <pubid idtype="doi">10.1073/pnas.0501078102</pubid>
                   <pubid idtype="pmpid" link="fulltext">15911761</pubid>
                </pubidlist>
             </xrefbib>
          </bibl>
          <bibl id="B15">
             <title>
                <p>Drosophila overexpressing parkin R275W mutant exhibits dopaminergic neuron degeneration and mitochondrial abnormalities</p>
             </title>
             <aug>
                <au>
                   <snm>Wang</snm>
                   <fnm>C</fnm>
                </au>
                <au>
                   <snm>Lu</snm>
                   <fnm>R</fnm>
                </au>
                <au>
                   <snm>Ouyang</snm>
                   <fnm>X</fnm>
                </au>
                <au>
                   <snm>Ho</snm>
                   <fnm>MWL</fnm>
                </au>
                <au>
                   <snm>Chia</snm>
                   <fnm>W</fnm>
                </au>
                <au>
                   <snm>Yu</snm>
                   <fnm>F</fnm>
                </au>
                <au>
                   <snm>Lim</snm>
                   <fnm>KL</fnm>
                </au>
             </aug>
             <source>J Neurosci</source>
             <pubdate>2007</pubdate>
             <volume>27</volume>
             <issue>32</issue>
             <fpage>8563</fpage>
             <lpage>8857</lpage>
             <xrefbib>
                <pubidlist>
                   <pubid idtype="doi">10.1523/JNEUROSCI.0218-07.2007</pubid>
                   <pubid idtype="pmpid" link="fulltext">17687034</pubid>
                </pubidlist>
             </xrefbib>
          </bibl>
          <bibl id="B16">
             <title>
                <p>Parkin protects against LRRK2 G2019S mutant-induced dopaminergic neurodegeneration in Drosophila</p>
             </title>
             <aug>
                <au>
                   <snm>Ng</snm>
                   <fnm>CH</fnm>
                </au>
                <au>
                   <snm>Mok</snm>
                   <fnm>SZS</fnm>
                </au>
                <au>
                   <snm>Koh</snm>
                   <fnm>C</fnm>
                </au>
                <au>
                   <snm>Ouyang</snm>
                   <fnm>X</fnm>
                </au>
                <au>
                   <snm>Fivaz</snm>
                   <fnm>ML</fnm>
                </au>
                <au>
                   <snm>Tan</snm>
                   <fnm>EK</fnm>
                </au>
                <au>
                   <snm>Dawson</snm>
                   <fnm>VL</fnm>
                </au>
                <au>
                   <snm>Dawson</snm>
                   <fnm>TM</fnm>
                </au>
                <au>
                   <snm>Yu</snm>
                   <fnm>F</fnm>
                </au>
                <au>
                   <snm>Lim</snm>
                   <fnm>KL</fnm>
                </au>
             </aug>
             <source>J Neurosci</source>
             <pubdate>2009</pubdate>
             <volume>29</volume>
             <issue>36</issue>
             <fpage>11257</fpage>
             <lpage>11262</lpage>
             <xrefbib>
                <pubidlist>
                   <pubid idtype="doi">10.1523/JNEUROSCI.2375-09.2009</pubid>
                   <pubid idtype="pmpid" link="fulltext">19741132</pubid>
                </pubidlist>
             </xrefbib>
          </bibl>
          <bibl id="B17">
             <title>
                <p>Functional architecture of the retromer cargo-recognition complex</p>
             </title>
             <aug>
                <au>
                   <snm>Hierro</snm>
                   <fnm>A</fnm>
                </au>
                <au>
                   <snm>Rojas</snm>
                   <fnm>AL</fnm>
                </au>
                <au>
                   <snm>Rojas</snm>
                   <fnm>R</fnm>
                </au>
                <au>
                   <snm>Murthy</snm>
                   <fnm>N</fnm>
                </au>
                <au>
                   <snm>Effantin</snm>
                   <fnm>G</fnm>
                </au>
                <au>
                   <snm>Kajava</snm>
                   <fnm>AV</fnm>
                </au>
                <au>
                   <snm>Steven</snm>
                   <fnm>AC</fnm>
                </au>
                <au>
                   <snm>Bonifacino</snm>
                   <fnm>JS</fnm>
                </au>
                <au>
                   <snm>Hurley</snm>
                   <fnm>JH</fnm>
                </au>
             </aug>
             <source>Nature</source>
             <pubdate>2007</pubdate>
             <volume>449</volume>
             <issue>7165</issue>
             <fpage>1063</fpage>
             <lpage>1067</lpage>
             <xrefbib>
                <pubidlist>
                   <pubid idtype="doi">10.1038/nature06216</pubid>
                   <pubid idtype="pmpid" link="fulltext">17891154</pubid>
                </pubidlist>
             </xrefbib>
          </bibl>
          <bibl id="B18">
             <title>
                <p>Vps29 has a phosphoesterase fold that acts as a protein interaction scaffold for retromer assembly</p>
             </title>
             <aug>
                <au>
                   <snm>Collins</snm>
                   <fnm>BM</fnm>
                </au>
                <au>
                   <snm>Skinner</snm>
                   <fnm>CF</fnm>
                </au>
                <au>
                   <snm>Watson</snm>
                   <fnm>PJ</fnm>
                </au>
                <au>
                   <snm>Seaman</snm>
                   <fnm>MNJ</fnm>
                </au>
                <au>
                   <snm>Owen</snm>
                   <fnm>DJ</fnm>
                </au>
             </aug>
             <source>Nat Struct Mol Biol</source>
             <pubdate>2005</pubdate>
             <volume>12</volume>
             <issue>7</issue>
             <fpage>594</fpage>
             <lpage>602</lpage>
             <xrefbib>
                <pubidlist>
                   <pubid idtype="doi">10.1038/nsmb954</pubid>
                   <pubid idtype="pmpid" link="fulltext">15965486</pubid>
                </pubidlist>
             </xrefbib>
          </bibl>
          <bibl id="B19">
             <title>
                <p>The structure and function of the retromer protein complex</p>
             </title>
             <aug>
                <au>
                   <snm>Collins</snm>
                   <fnm>BM</fnm>
                </au>
             </aug>
             <source>Traffic</source>
             <pubdate>2008</pubdate>
             <volume>9</volume>
             <issue>11</issue>
             <fpage>1811</fpage>
             <lpage>1822</lpage>
             <xrefbib>
                <pubidlist>
                   <pubid idtype="doi">10.1111/j.1600-0854.2008.00777.x</pubid>
                   <pubid idtype="pmpid" link="fulltext">18541005</pubid>
                </pubidlist>
             </xrefbib>
          </bibl>
          <bibl id="B20">
             <note>Zavodszky E, Seaman MN, Moreau K, Jimenez-Sanchez M, Breusegem SY, Harbour ME, Rubinsztein DC: <b>Mutation in VPS35 associated with Parkinson&#8217;s disease impairs WASH complex association and inhibits autophagy.</b>
                <it>Nat Commun</it> 2014, <b>5:</b>3828.</note>
          </bibl>
          <bibl id="B21">
             <title>
                <p>The Vps35 D620N mutation linked to Parkinson&#8217;s disease disrupts the cargo sorting function of retromer</p>
             </title>
             <aug>
                <au>
                   <snm>Follett</snm>
                   <fnm>J</fnm>
                </au>
                <au>
                   <snm>Norwood</snm>
                   <fnm>SJ</fnm>
                </au>
                <au>
                   <snm>Hamilton</snm>
                   <fnm>NA</fnm>
                </au>
                <au>
                   <snm>Mohan</snm>
                   <fnm>M</fnm>
                </au>
                <au>
                   <snm>Kovtun</snm>
                   <fnm>O</fnm>
                </au>
                <au>
                   <snm>Tay</snm>
                   <fnm>S</fnm>
                </au>
                <au>
                   <snm>Zhe</snm>
                   <fnm>Y</fnm>
                </au>
                <au>
                   <snm>Wood</snm>
                   <fnm>SA</fnm>
                </au>
                <au>
                   <snm>Mellick</snm>
                   <fnm>GD</fnm>
                </au>
                <au>
                   <snm>Silburn</snm>
                   <fnm>PA</fnm>
                </au>
                <au>
                   <snm>Collins</snm>
                   <fnm>BM</fnm>
                </au>
                <au>
                   <snm>Bugarcic</snm>
                   <fnm>A</fnm>
                </au>
                <au>
                   <snm>Teasdale</snm>
                   <fnm>RD</fnm>
                </au>
             </aug>
             <source>Traffic</source>
             <pubdate>2014</pubdate>
             <volume>15</volume>
             <issue>2</issue>
             <fpage>230</fpage>
             <lpage>244</lpage>
             <xrefbib>
                <pubidlist>
                   <pubid idtype="doi">10.1111/tra.12136</pubid>
                   <pubid idtype="pmpid" link="fulltext">24152121</pubid>
                </pubidlist>
             </xrefbib>
          </bibl>
          <bibl id="B22">
             <title>
                <p>Parkinson&#8217;s disease-linked mutations in VPS35 induce dopaminergic neurodegeneration</p>
             </title>
             <aug>
                <au>
                   <snm>Tsika</snm>
                   <fnm>E</fnm>
                </au>
                <au>
                   <snm>Glauser</snm>
                   <fnm>L</fnm>
                </au>
                <au>
                   <snm>Moser</snm>
                   <fnm>R</fnm>
                </au>
                <au>
                   <snm>Fiser</snm>
                   <fnm>A</fnm>
                </au>
                <au>
                   <snm>Daniel</snm>
                   <fnm>G</fnm>
                </au>
                <au>
                   <snm>Sheerin</snm>
                   <fnm>UM</fnm>
                </au>
                <au>
                   <snm>Lees</snm>
                   <fnm>A</fnm>
                </au>
                <au>
                   <snm>Troncoso</snm>
                   <fnm>JC</fnm>
                </au>
                <au>
                   <snm>Lewis</snm>
                   <fnm>PA</fnm>
                </au>
                <au>
                   <snm>Bandopadhyay</snm>
                   <fnm>R</fnm>
                </au>
                <au>
                   <snm>Schneider</snm>
                   <fnm>BL</fnm>
                </au>
                <au>
                   <snm>Moore</snm>
                   <fnm>DJ</fnm>
                </au>
             </aug>
             <source>Hum Mol Genet</source>
             <pubdate>2014</pubdate>
             <volume>23</volume>
             <issue>17</issue>
             <fpage>4621</fpage>
             <lpage>4638</lpage>
             <xrefbib>
                <pubidlist>
                   <pubid idtype="doi">10.1093/hmg/ddu178</pubid>
                   <pubid idtype="pmpid" link="fulltext">24740878</pubid>
                </pubidlist>
             </xrefbib>
          </bibl>
          <bibl id="B23">
             <title>
                <p>Vps35 mediates vesicle transport between the mitochondria and peroxisomes</p>
             </title>
             <aug>
                <au>
                   <snm>Braschi</snm>
                   <fnm>E</fnm>
                </au>
                <au>
                   <snm>Goyon</snm>
                   <fnm>V</fnm>
                </au>
                <au>
                   <snm>Zunino</snm>
                   <fnm>R</fnm>
                </au>
                <au>
                   <snm>Mohanty</snm>
                   <fnm>A</fnm>
                </au>
                <au>
                   <snm>Xu</snm>
                   <fnm>L</fnm>
                </au>
                <au>
                   <snm>McBride</snm>
                   <fnm>HM</fnm>
                </au>
             </aug>
             <source>Curr Biol</source>
             <pubdate>2010</pubdate>
             <volume>20</volume>
             <issue>14</issue>
             <fpage>1310</fpage>
             <lpage>1315</lpage>
             <xrefbib>
                <pubidlist>
                   <pubid idtype="doi">10.1016/j.cub.2010.05.066</pubid>
                   <pubid idtype="pmpid" link="fulltext">20619655</pubid>
                </pubidlist>
             </xrefbib>
          </bibl>
          <bibl id="B24">
             <title>
                <p>Pathogenic mutation in VPS35 impairs its protection against MPP(+) cytotoxicity</p>
             </title>
             <aug>
                <au>
                   <snm>Bi</snm>
                   <fnm>F</fnm>
                </au>
                <au>
                   <snm>Li</snm>
                   <fnm>F</fnm>
                </au>
                <au>
                   <snm>Huang</snm>
                   <fnm>C</fnm>
                </au>
                <au>
                   <snm>Zhou</snm>
                   <fnm>H</fnm>
                </au>
             </aug>
             <source>Int J Biol Sci</source>
             <pubdate>2013</pubdate>
             <volume>9</volume>
             <issue>2</issue>
             <fpage>149</fpage>
             <lpage>155</lpage>
             <xrefbib>
                <pubidlist>
                   <pubid idtype="doi">10.7150/ijbs.5617</pubid>
                   <pubid idtype="pmpid" link="fulltext">23411763</pubid>
                </pubidlist>
             </xrefbib>
          </bibl>
       </refgrp>
    </bm>
 </art>