<art>
    <ui>s13052-014-0089-z</ui>
    <ji>1824-7288</ji>
    <fm>
       <dochead>Research</dochead>
       <bibl>
          <title>
             <p>Effect of abdomen massage for prevention of feeding intolerance in preterm infants</p>
          </title>
          <aug>
             <au id="A1" ca="yes">
                <snm>Tekg&#252;nd&#252;z</snm>
                <mnm>&#350;erafettin</mnm>
                <fnm>Kadir</fnm>
                <insr iid="I1"/>
                <email>k.tekgunduz@yahoo.com.tr</email>
             </au>
             <au id="A2">
                <snm>G&#252;rol</snm>
                <fnm>Ay&#351;e</fnm>
                <insr iid="I2"/>
                <email>ayseparlak42@gmail.com</email>
             </au>
             <au id="A3">
                <snm>Apay</snm>
                <mnm>Ejder</mnm>
                <fnm>Serap</fnm>
                <insr iid="I3"/>
                <email>sejder@hotmail.com</email>
             </au>
             <au id="A4">
                <snm>Caner</snm>
                <fnm>&#304;brahim</fnm>
                <insr iid="I1"/>
                <email>ibrahimcaner@hotmail.com</email>
             </au>
          </aug>
          <insg>
             <ins id="I1">
                <p>Faculty of Medicine, Division of Neonatology, Atat&#252;rk University, Erzurum, Turkey</p>
             </ins>
             <ins id="I2">
                <p>Health Services Vocational School, Atat&#252;rk University, Erzurum, Turkey</p>
             </ins>
             <ins id="I3">
                <p>Faculty of Health Science, Atat&#252;rk University, Erzurum 25240, Turkey</p>
             </ins>
          </insg>
          <source>Italian Journal of Pediatrics</source>
          <issn>1824-7288</issn>
          <pubdate>2014</pubdate>
          <volume>40</volume>
          <issue>1</issue>
          <fpage>89</fpage>
          <url>http://www.ijponline.net/content/40/1/89</url>
          <xrefbib>
             <pubidlist>
                <pubid idtype="doi">10.1186/s13052-014-0089-z</pubid>
             </pubidlist>
          </xrefbib>
       </bibl>
       <history>
          <rec>
             <date>
                <day>3</day>
                <month>9</month>
                <year>2014</year>
             </date>
          </rec>
          <acc>
             <date>
                <day>28</day>
                <month>10</month>
                <year>2014</year>
             </date>
          </acc>
          <pub>
             <date>
                <day>14</day>
                <month>11</month>
                <year>2014</year>
             </date>
          </pub>
       </history>
       <cpyrt>
          <year>2014</year>
          <collab>Tekg&#252;nd&#252;z et al.; licensee BioMed Central Ltd.</collab>
          <note>This is an Open Access article distributed under the terms of the Creative Commons Attribution License (<url>http://creativecommons.org/licenses/by/4.0</url>), which permits unrestricted use, distribution, and reproduction in any medium, provided the original work is properly credited. The Creative Commons Public Domain Dedication waiver (<url>http://creativecommons.org/publicdomain/zero/1.0/</url>) applies to the data made available in this article, unless otherwise stated.</note>
       </cpyrt>
       <kwdg>
          <kwd>Preterm infants</kwd>
          <kwd>Abdominal massage</kwd>
          <kwd>Feeding intolerance</kwd>
          <kwd>Abdominal distension</kwd>
          <kwd>Necrotizing enterocolitis</kwd>
       </kwdg>
       <abs>
          <sec>
             <st>
                <p>Abstract</p>
             </st>
             <sec>
                <st>
                   <p>Background</p>
                </st>
                <p>The aim of this study was to evaluate the efficacy of abdominal massage on feeding tolerance in stable preterm infants fed minimal enteral nutrition.</p>
             </sec>
             <sec>
                <st>
                   <p>Methods</p>
                </st>
                <p>The study was conducted on a control-grouped pre-test, post-test quasi-experimental design at the neonatal intensive care unit of a university hospital in Turkey between March and July 2012. Abdominal massage was applied to the massage group subjects for 15&#160;minutes, 2 times daily, before the subject was fed starting in the 5-day study period.</p>
             </sec>
             <sec>
                <st>
                   <p>Results</p>
                </st>
                <p>The study was conducted with 27 subjects, 14 in the massage group and 13 in the control group. When frequency of defecation measurements were analysed, the difference between the first day and last day of the study was not statistically significant in the massage group. However, when daily weight gain, frequency of vomiting, abdominal circumference and gastric residual volume excess measurements were analysed, the differences between the first day and last day of the study were statistically significant in the massage group.</p>
             </sec>
             <sec>
                <st>
                   <p>Conclusions</p>
                </st>
                <p>In accordance with the results of the study, we suggest that nurses should apply abdominal massage twice a day as an intervention helping to prevent gastric residual volume excess and abdominal distension in enterally fed preterm infants.</p>
             </sec>
          </sec>
       </abs>
    </fm>
    <bdy>
       <sec>
          <st>
             <p>Background</p>
          </st>
          <p>Preterm infants often have feeding difficulties due to functional immaturity of the gastrointestinal (GI) tract <abbrgrp>
                <abbr bid="B1">1</abbr>
             </abbrgrp>. Feeding intolerance (FI) is defined as the general incidence of high gastric residual volume (GRV), vomiting and abdominal distension. High GRV can be related to the increase in the incidence of other GI complications such as necrotizing enterocolitis (NEC) <abbrgrp>
                <abbr bid="B2">2</abbr>
             </abbrgrp>. Early postnatal enteral feeding with small amounts of human milk or formula may improve the development of the GI tract, gut hormone release, and gut motility. Minimal enteral feeding has some clinical benefits, such as reducing the time to start full enteral feeding and length of hospitalisation without increasing the risk of necrotizing enterocolitis <abbrgrp>
                <abbr bid="B2">2</abbr>
             </abbrgrp>,<abbrgrp>
                <abbr bid="B3">3</abbr>
             </abbrgrp>. On the one hand, enteral FI is a major problem in premature infants, resulting in prolonged hospitalisation, increased risk of sepsis and a predisposition to serious complications due to prolonged use of parenteral nutrition <abbrgrp>
                <abbr bid="B4">4</abbr>
             </abbrgrp>,<abbrgrp>
                <abbr bid="B5">5</abbr>
             </abbrgrp>. The nutritional problems of preterm infants have become particularly relevant on short and long-term development <abbrgrp>
                <abbr bid="B3">3</abbr>
             </abbrgrp>. Therefore, it is important to know and assess correctly the warning signs of the possible complications of enteral feeding <abbrgrp>
                <abbr bid="B1">1</abbr>
             </abbrgrp>.</p>
          <p>The pathophysiology of FI is poorly understood, limiting the therapeutic options. Delayed gastric emptying, intestinal immaturity, ileus of prematurity and gastroesophageal reflux may all play a role. It is not clear whether one or all of these mechanisms contribute to the observed FI <abbrgrp>
                <abbr bid="B6">6</abbr>
             </abbrgrp>.</p>
          <p>Research on massage has been carried out for many years. Massage has been found to increase the infant&#8217;s serotonin level, vagal activity, gastric motility; reduces stress hormone levels and colic; regulates sleeping; increases the motor development and coordination of the infant and supports weight gain <abbrgrp>
                <abbr bid="B7">7</abbr>
             </abbrgrp>-<abbrgrp>
                <abbr bid="B10">10</abbr>
             </abbrgrp>. According to a few research results, massage reduces the colic attacks of infants <abbrgrp>
                <abbr bid="B7">7</abbr>
             </abbrgrp>,<abbrgrp>
                <abbr bid="B11">11</abbr>
             </abbrgrp>. Diego et al. <abbrgrp>
                <abbr bid="B8">8</abbr>
             </abbrgrp> showed the effect of a 15&#160;minute massage per day for 5&#160;days in preterm infants. Preterm infant massage is consistently associated with increases in vagal activity and gastric motility. In the results of another study showed that preterm infants receiving massage therapy increased vagal tone and gastric motility <abbrgrp>
                <abbr bid="B12">12</abbr>
             </abbrgrp>. One hypothesis was that moderate-pressure massage stimulates vagal activity, leading to more efficient food absorption through increased gastric motility and the release of food absorption hormones <abbrgrp>
                <abbr bid="B12">12</abbr>
             </abbrgrp>.</p>
          <p>The aim of this study was to evaluate the efficacy of abdominal massage on feeding tolerance in stable preterm infants fed minimal enteral nutrition in the Neonatal Intensive Care Unit (NICU). This is the first research showing that abdominal massage prevents delayed FI in enterally fed preterm infants.</p>
       </sec>
       <sec>
          <st>
             <p>Materials and methods</p>
          </st>
          <sec>
             <st>
                <p>Study design</p>
             </st>
             <p>The study was conducted on a control-group pre-test, post-test quasi-experimental design at the NICU of a university hospital in Turkey between March and July 2012. Inclusion criteria included preterm infants who were being fed enterally via an orogastric tube on the NICU; gestational age 28&#8211;32 weeks; birth body weight of 1000-1750&#160;g; without intestinal obstruction, abdominal surgery, or NEC; and had no contraindication to abdominal massage. Preterm infants were excluded from this study if they had major congenital malformations, such as congenital heart disease, gastrointestinal anomalies, hypoxic injury, respiratory failure with ventilatory support, current or previous history of NEC, suspected or confirmed sepsis.</p>
             <p>The study was conducted with 27 subjects, 14 in the massage group and 13 in the control group. Sampling size was determined statistically by power analysis. Since there is no similar study in the literature, power analysis was calculated according to the incidence of premature birth and FI. As a result of the analysis, for a total sample size of 27, the power of study was calculated to be 99%.</p>
          </sec>
          <sec>
             <st>
                <p>Abdominal massage application</p>
             </st>
             <p>The preterm infants received massages from the same licensed massage therapists. Abdominal massage was applied to the massage group subjects for 15&#160;minutes, 2 times daily, before the subject was fed starting in the 5-day study period. This procedure was selected because the risk of regurgitation was low due to the emptiness of the stomach. Massage application time and frequency were decided according to studies and expert opinions found in the literature <abbrgrp>
                   <abbr bid="B8">8</abbr>
                </abbrgrp>,<abbrgrp>
                   <abbr bid="B12">12</abbr>
                </abbrgrp>.</p>
             <p>Moisturising lotion (Baby Lotion Natural Calm, pH 5.5; Johnson &amp; Johnson, New Brunswick, NJ, USA) was used for massage application. Before applying massage, the infant&#8217;s abdominal circumference was measured and palpated for distension. During massage application, the subject was placed in a supine position with the head-of-bed angle elevated at 30&#176;&#8211;45&#176;.</p>
             <p>The abdominal massage was applied in a clockwise direction over the intestines on the abdominal wall. The following strokes with moderate pressure were applied to the areas of the preterm infants&#8217; abdomen:</p><p>1. Hold your hand so your pinkie finger&#8217;s edge can move like a paddle across your baby's belly. Starting at the base of the rib cage, stroke downwards with one hand and then the other in a paddle-wheel-like motion.</p>
                <p>2. Massage the abdomen with your fingertips in a circular, clockwise motion.</p>
                <p>3. Do the "I Love U" stroke: Trace the letter I down your baby's left side. Then trace an inverted L, stroking across the belly along the base of her ribs from her right side to her left and down. Trace an inverted U, stroking from low on the baby's right side, up and around the navel, and down the left side.</p>
                <p>4. Walk your fingers around the navel, clockwise.</p>
                <p>5. Hold the knees and feet together and gently press the knees up toward the abdomen. Rotate the baby's hips around a few times to the right.</p>
                <p>6. Place your hand on the tummy horizontally and rock your hand from side to side a few times. Note: avoid massaging the tummy if the cord has not completely healed.</p>
          </sec>
          <sec>
             <st>
                <p>Feeding protocol</p>
             </st>
             <p>In all preterm infants, orogastric tubes were inserted. A 6 Fr orogastric tube is generally inserted in these infants. Bolus feedings were given by gravity drainage after priming the tubing, every three hours in the two groups. Continuous feeds were given using an automatic syringe-pump. Gastric residuals were checked every three hours in infants in the two groups, regardless of assignment. In the unit, preterm infants were fed eight meals a day. Feeding of the preterm infants was started with a 2 or 3&#160;ml feeding bolus for the first feeding. As food toleration develops, this amount was increased as 20&#160;ml/kg/day and continues until it reached 140-160&#160;ml/kg/day. During infant gavage feeding, the flow rate of milk was caused by gravity using the suspension technique without applying the pressure to the injector. Body weight was measured and recorded daily before the 9:00&#160;a.m. feeding during the study.</p>
             <p>The criteria accepted for food tolerance include a GRV less than half of the food amount given in the previous meal and absence of vomiting and abdominal distension.</p>
          </sec>
          <sec>
             <st>
                <p>Data collection instruments</p>
             </st>
             <p>Research data was collected using an investigator-initiated &#8220;Follow-up Form.&#8221; Abdominal massage was provided according to the protocol &#8220;Directive on Abdominal Massage Application&#8221; based on the information found in the literature <abbrgrp>
                   <abbr bid="B1">1</abbr>
                </abbrgrp>,<abbrgrp>
                   <abbr bid="B2">2</abbr>
                </abbrgrp>,<abbrgrp>
                   <abbr bid="B12">12</abbr>
                </abbrgrp>-<abbrgrp>
                   <abbr bid="B15">15</abbr>
                </abbrgrp> and considering enteral feeding applications in the units where the study was conducted. The follow-up form has 12 sections including the dates and hours of follow-up, infant age, infant gender, infant&#8217;s birth weight, type of feeding, daily weight gain, GRV measurement value, abdominal circumference, the number of vomiting episodes, and frequency of defecation.</p>
          </sec>
          <sec>
             <st>
                <p>Gastric residual volume measurement</p>
             </st>
             <p>The gastric residual volume measurement was taken before each feeding administration. A gastric residual volume measurement was made by aspirating with a 5&#160;ml syringe before each feeding. Positioning of the gastric tube was determined by giving 0.5-1&#160;ml of air and listening with a stethoscope at the epigastric region. The GRV measurement was then made. During the GRV measurement, the syringe piston was withdrawn slowly. When the stomach contents were no longer aspirated, the measurement was repeated to verify whether the stomach was empty.</p>
          </sec>
          <sec>
             <st>
                <p>Collecting data from the massage group</p>
             </st>
             <p>After placing the orogastric tube in the massage group, abdominal circumference and distension were measured before initiation of the first feeding. Once feedings started, before each feeding meal, follow-up weight, vomiting, GRV measurement, abdominal circumference measurement, abdominal distension measurement (palpation), and frequency of defecation, were assessed. Abdominal massage was then administered for 15&#160;minutes at 9:00&#160;a.m. and 9:00&#160;p.m. within the 5-day study period. The recorded measurements were daily documented on the &#8220;Follow-Up Form&#8221; in this period.</p>
          </sec>
          <sec>
             <st>
                <p>Collecting data from control group subjects</p>
             </st>
             <p>Infants in the control group received feedings like the infants in the massage group. Data was collected in the same way from both groups. The control group received the usual care.</p>
          </sec>
          <sec>
             <st>
                <p>Data analysis</p>
             </st>
             <p>The data analyses were carried out using the Statistical Package for Social Sciences (SPSS), version 20.0 (PASW ver.20, SPSS inc. Armonk, NY). The data analysis involved calculating percentage distributions and means of the gender, gestational age, birth weight, and type of feeding shown by the massage and control group of preterm infants. The homogeneity test (<it>X</it>
                <sup>
                   <it>2</it>
                </sup>) and independent t-test were used for the comparison of massage and control groups. The Wilcoxon signed test was used to compare intragroup measures and was performed to evaluate the differences in terms of average frequency of defecation, daily weight gain, frequency of vomiting, GRV excess and abdominal circumference between the first day and last day of the study. The Mann&#8211;Whitney U test was used to compare intergroup measurements and compare the difference between the two groups&#8217; the first day and last day mean values. The confidence interval of 95%; p&#8201;&lt;&#8201;0.05 was considered to be statistically significant.</p>
          </sec>
          <sec>
             <st>
                <p>Ethical considerations</p>
             </st>
             <p>Approval to conduct the study was obtained from the Ethics Committee of Ataturk University Medical Faculty and head physician of the university hospital. After giving the necessary information to the families who had agreed to participate in the research, written permission was obtained from the families in the massage group and the control group families.</p>
          </sec>
       </sec>
       <sec>
          <st>
             <p>Results</p>
          </st>
          <p>Complete data was available for 27 preterm infants. Comparison of the massage and control groups in accordance with the identifying characteristics of preterm infants included within the scope of the study is presented in Table&#160;<tblr tid="T1">1</tblr>. There was no statistically significant difference between groups in terms of gestational age, gender, birth weight, type of feeding, the first day measures (weight, vomiting, GRV excess, frequency of defecation or abdominal circumference).</p>
          
             <table id="T1">
                <title>
                   <p>Table 1</p>
                </title>
                <caption>
                   <p>
                      <b>Characteristics of preterm infants</b>
                   </p>
                </caption>
                <tgroup align="left" cols="4">
                   <colspec align="left" colname="c1" colnum="1" colwidth="*"/>
                   <colspec align="left" colname="c2" colnum="2" colwidth="*"/>
                   <colspec align="left" colname="c3" colnum="3" colwidth="*"/>
                   <colspec align="left" colname="c4" colnum="4" colwidth="*"/>
                   <thead>
                      <row>
                         <entry colname="c1"/>
                         <entry colname="c2">
                            <p>
                               <b>Massage group</b>
                            </p>
                         </entry>
                         <entry colname="c3">
                            <p>
                               <b>Control group</b>
                            </p>
                         </entry>
                         <entry colname="c4">
                            <p>
                               <b>Statistical significance</b>
                            </p>
                         </entry>
                      </row>
                   </thead>
                   <tbody>
                      <row>
                         <entry colname="c1" morerows="1">
                            <p>Gestational age (week)</p>
                         </entry>
                         <entry colname="c2" morerows="1">
                            <p>29.42&#8201;&#177;&#8201;3.13</p>
                         </entry>
                         <entry colname="c3" morerows="1">
                            <p>28.23&#8201;&#177;&#8201;1.48</p>
                         </entry>
                         <entry colname="c4">
                            <p>Z&#8201;=&#8201;&#8722;.738</p>
                         </entry>
                      </row>
                      <row valign="top">
                         <entry colname="c4">
                            <p>p&#8201;&gt;&#8201;.05</p>
                         </entry>
                      </row>
                      <row valign="top">
                         <entry colname="c1" morerows="1">
                            <p>Birth weight (g)</p>
                         </entry>
                         <entry colname="c2" morerows="1">
                            <p>1218.57&#8201;&#177;&#8201;226.91</p>
                         </entry>
                         <entry colname="c3" morerows="1">
                            <p>1172.69&#8201;&#177;&#8201;194.51</p>
                         </entry>
                         <entry colname="c4">
                            <p>Z&#8201;=&#8201;&#8722;1.000</p>
                         </entry>
                      </row>
                      <row valign="top">
                         <entry colname="c4">
                            <p>p&#8201;&gt;&#8201;.05</p>
                         </entry>
                      </row>
                      <row valign="top">
                         <entry colname="c1">
                            <p>Gender</p>
                         </entry>
                         <entry colname="c2"/>
                         <entry colname="c3"/>
                         <entry colname="c4"/>
                      </row>
                      <row valign="top">
                         <entry colname="c1">
                            <p>&#8195;&#8201;Male n (%)</p>
                         </entry>
                         <entry colname="c2">
                            <p>9 (64.3%)</p>
                         </entry>
                         <entry colname="c3">
                            <p>7 (53.8%)</p>
                         </entry>
                         <entry colname="c4">
                            <p>
                               <it>X</it>
                               <sup>
                                  <it>2</it>
                               </sup>&#8201;=&#8201;.304</p>
                         </entry>
                      </row>
                      <row valign="top">
                         <entry colname="c1">
                            <p>&#8195;&#8201;Female n (%)</p>
                         </entry>
                         <entry colname="c2">
                            <p>5 (35.7%)</p>
                         </entry>
                         <entry colname="c3">
                            <p>6 (46.2%)</p>
                         </entry>
                         <entry colname="c4">
                            <p>p&#8201;&gt;&#8201;.05</p>
                         </entry>
                      </row>
                      <row valign="top">
                         <entry colname="c1">
                            <p>Type of feeding</p>
                         </entry>
                         <entry colname="c2"/>
                         <entry colname="c3"/>
                         <entry colname="c4"/>
                      </row>
                      <row valign="top">
                         <entry colname="c1">
                            <p>&#8195;&#8201;Mother&#8217;s milk</p>
                         </entry>
                         <entry colname="c2">
                            <p>4 (28.6%)</p>
                         </entry>
                         <entry colname="c3">
                            <p>2 (15.4%)</p>
                         </entry>
                         <entry colname="c4">
                            <p>
                               <it>X</it>
                               <sup>
                                  <it>2</it>
                               </sup>&#8201;=&#8201;.678</p>
                         </entry>
                      </row>
                      <row valign="top">
                         <entry colname="c1">
                            <p>&#8195;&#8201;Mother&#8217;s milk and formula</p>
                         </entry>
                         <entry colname="c2">
                            <p>10 (71.4%)</p>
                         </entry>
                         <entry colname="c3">
                            <p>11 (84.6%)</p>
                         </entry>
                         <entry colname="c4">
                            <p>p&#8201;&gt;&#8201;.05</p>
                         </entry>
                      </row>
                   </tbody>
                </tgroup>
             </table>
          
          <p>In the massage group, it was that 64.3% of the preterm infants were male and the infants&#8217; average birth weight was 1218.57&#8201;&#177;&#8201;226.91&#160;g and their average gestational age was 29.42&#8201;&#177;&#8201;3.13&#160;weeks. It was found that 71.4% were being fed their mother&#8217;s milk and formula.</p>
          <p>In the control group, it was determined that 53.8% of the preterm infants were male and the infants&#8217; average birth weight was determined as 1172.69&#8201;&#177;&#8201;194.51&#160;g and their average gestational age is determined as 28.23&#8201;&#177;&#8201;1.48&#160;weeks. It was found that 84.6% were being fed their mother&#8217;s milk and formula.</p>
          <p>In Table&#160;<tblr tid="T2">2</tblr>, the mean and comparison of the first day and the last day measurements for weight, vomiting, GRV excess, frequency of defecation and abdominal circumference.</p>
          
             <table id="T2">
                <title>
                   <p>Table 2</p>
                </title>
                <caption>
                   <p>
                      <b>Comparison of the first day and last day measurements about feeding intolerance for the massage and control group</b>
                   </p>
                </caption>
                <tgroup align="left" cols="7">
                   <colspec align="left" colname="c1" colnum="1" colwidth="*"/>
                   <colspec align="left" colname="c2" colnum="2" colwidth="*"/>
                   <colspec align="left" colname="c3" colnum="3" colwidth="*"/>
                   <colspec align="left" colname="c4" colnum="4" colwidth="*"/>
                   <colspec align="left" colname="c5" colnum="5" colwidth="*"/>
                   <colspec align="left" colname="c6" colnum="6" colwidth="*"/>
                   <colspec align="left" colname="c7" colnum="7" colwidth="*"/>
                   <thead>
                      <row>
                         <entry colname="c1" morerows="1"/>
                         <entry nameend="c3" namest="c2" rowsep="1">
                            <p>
                               <b>Massage group</b>
                            </p>
                         </entry>
                         <entry colname="c4" morerows="1">
                            <p>
                               <b>p</b>
                            </p>
                         </entry>
                         <entry nameend="c6" namest="c5" rowsep="1">
                            <p>
                               <b>Control group</b>
                            </p>
                         </entry>
                         <entry colname="c7" morerows="1">
                            <p>
                               <b>p</b>
                            </p>
                         </entry>
                      </row>
                      <row valign="top">
                         <entry colname="c2">
                            <p>
                               <b>First day</b>
                            </p>
                         </entry>
                         <entry colname="c3">
                            <p>
                               <b>Last day</b>
                            </p>
                         </entry>
                         <entry colname="c5">
                            <p>
                               <b>First day</b>
                            </p>
                         </entry>
                         <entry colname="c6">
                            <p>
                               <b>Last day</b>
                            </p>
                         </entry>
                      </row>
                   </thead>
                   <tfoot>
                      <p>p &lt; 0.05 was considered to be statistically significant.</p>
                   </tfoot>
                   <tbody>
                      <row>
                         <entry colname="c1">
                            <p>
                               <b>Frequency of defecation</b>
                            </p>
                         </entry>
                         <entry colname="c2">
                            <p>1.78&#8201;&#177;&#8201;1.05</p>
                         </entry>
                         <entry colname="c3">
                            <p>2.28&#8201;&#177;&#8201;1.13</p>
                         </entry>
                         <entry colname="c4">
                            <p>&gt;.05</p>
                         </entry>
                         <entry colname="c5">
                            <p>2.07&#8201;&#177;&#8201;0.75</p>
                         </entry>
                         <entry colname="c6">
                            <p>2.15&#8201;&#177;&#8201;0.98</p>
                         </entry>
                         <entry colname="c7">
                            <p>&gt;.05</p>
                         </entry>
                      </row>
                      <row valign="top">
                         <entry colname="c1">
                            <p>
                               <b>Daily weight gain</b>
                            </p>
                         </entry>
                         <entry colname="c2">
                            <p>1377.14&#8201;&#177;&#8201;288.85</p>
                         </entry>
                         <entry colname="c3">
                            <p>1462.85&#8201;&#177;&#8201;281.96</p>
                         </entry>
                         <entry colname="c4">
                            <p>
                               <b>&lt;.05</b>
                            </p>
                         </entry>
                         <entry colname="c5">
                            <p>1401.76&#8201;&#177;&#8201;316.14</p>
                         </entry>
                         <entry colname="c6">
                            <p>1464.15&#8201;&#177;&#8201;325.42</p>
                         </entry>
                         <entry colname="c7">
                            <p>
                               <b>&lt;.05</b>
                            </p>
                         </entry>
                      </row>
                      <row valign="top">
                         <entry colname="c1">
                            <p>
                               <b>Frequency of vomiting</b>
                            </p>
                         </entry>
                         <entry colname="c2">
                            <p>2.14&#8201;&#177;&#8201;2.07</p>
                         </entry>
                         <entry colname="c3">
                            <p>0.35&#8201;&#177;&#8201;0.49</p>
                         </entry>
                         <entry colname="c4">
                            <p>
                               <b>&lt;.05</b>
                            </p>
                         </entry>
                         <entry colname="c5">
                            <p>1.46&#8201;&#177;&#8201;0.96</p>
                         </entry>
                         <entry colname="c6">
                            <p>0.84&#8201;&#177;&#8201;0.89</p>
                         </entry>
                         <entry colname="c7">
                            <p>&gt;.05</p>
                         </entry>
                      </row>
                      <row valign="top">
                         <entry colname="c1">
                            <p>
                               <b>Abdominal circumference (cm)</b>
                            </p>
                         </entry>
                         <entry colname="c2">
                            <p>25.14&#8201;&#177;&#8201;3.77</p>
                         </entry>
                         <entry colname="c3">
                            <p>23.21&#8201;&#177;&#8201;3.53</p>
                         </entry>
                         <entry colname="c4">
                            <p>
                               <b>&lt;.05</b>
                            </p>
                         </entry>
                         <entry colname="c5">
                            <p>26.30&#8201;&#177;&#8201;3.56</p>
                         </entry>
                         <entry colname="c6">
                            <p>25.84&#8201;&#177;&#8201;4.14</p>
                         </entry>
                         <entry colname="c7">
                            <p>&gt;.05</p>
                         </entry>
                      </row>
                      <row valign="top">
                         <entry colname="c1">
                            <p>
                               <b>GRV excess</b>
                            </p>
                         </entry>
                         <entry colname="c2">
                            <p>3.21&#8201;&#177;&#8201;4.91</p>
                         </entry>
                         <entry colname="c3">
                            <p>0.0&#8201;&#177;&#8201;0.0</p>
                         </entry>
                         <entry colname="c4">
                            <p>
                               <b>&lt;.05</b>
                            </p>
                         </entry>
                         <entry colname="c5">
                            <p>1.15&#8201;&#177;&#8201;2.60</p>
                         </entry>
                         <entry colname="c6">
                            <p>0.0&#8201;&#177;&#8201;0.0</p>
                         </entry>
                         <entry colname="c7">
                            <p>&gt;.05</p>
                         </entry>
                      </row>
                   </tbody>
                </tgroup>
             </table>
          
          <p>Analysis of the Mann&#8211;Whitney U test was used to test for differences between the massage and control group&#8217;s first day measurements. After comparison of the massage group preterm infants with infants in the control group, no statistically significant difference was found between the groups in terms of weight, frequency of defecation, vomiting, abdominal circumference and GRV excess.</p>
          <p>Analysis of the Wilcoxon signed test was used to test for differences between first day and last day average in the intra-group. When frequency of defecation measurements were analysed, the difference between the first day and last day of the study was not statistically significant in the massage group. However, when daily weight gain, frequency of vomiting, abdominal circumference and GRV excess measurements were analysed, the differences between the first day and last day of the study were statistically significant in the massage group. In this study, we found that frequency of vomiting, abdominal circumference and GRV excess of the last day measures decreased to the first day measures for massage group and the difference was found to be statistically significant (p&#8201;&lt;&#8201;0.05). Conversely, we found that frequency of defecation, and daily weight gain of the last day measures increased to the first day measures for massage group. In the control group, the differences between the first day and last day of the study were not statistically significant for parameters except for daily weight gain (Table&#160;<tblr tid="T2">2</tblr>).</p>
       </sec>
       <sec>
          <st>
             <p>Discussion</p>
          </st>
          <p>Feeding intolerance is extremely common in premature infants. Therefore, it is important to know and assess correctly, the warning signs of the possible complications of enteral feeding. The most frequent signs of a suspected FI in preterm infants are the presence of gastric residuals and abdominal distension <abbrgrp>
                <abbr bid="B1">1</abbr>
             </abbrgrp>. It is common practice to check the GRV before each feeding in infants <abbrgrp>
                <abbr bid="B16">16</abbr>
             </abbrgrp>. According to the data obtained on the first day of the study, GRV was observed in five of the babies in the massage group (n = 14), whereas it was observed in only three of the babies in the control group (n = 13). When the data collected on the last day of the study was analysed, GRV was not observed in any of the groups. The decrease in the amount of GRV in the massage group was found to be statistically significant (Table&#160;<tblr tid="T2">2</tblr>).</p>
          <p>It is reported in the literature that abdominal massage can stimulate parasympathetic activity resulting in a GI tract response <abbrgrp>
                <abbr bid="B17">17</abbr>
             </abbrgrp>,<abbrgrp>
                <abbr bid="B18">18</abbr>
             </abbrgrp>. Abdominal massage accelerates peristalsis by changing intra-abdominal pressure and creating a mechanical and reflexive effect on the intestines, decreasing abdominal distension and increasing intestinal movements <abbrgrp>
                <abbr bid="B19">19</abbr>
             </abbrgrp>,<abbrgrp>
                <abbr bid="B20">20</abbr>
             </abbrgrp>. This mechanism causes a significant shortening in the time for colonic passage <abbrgrp>
                <abbr bid="B21">21</abbr>
             </abbrgrp>. The effects of abdominal massage have been assessed in a small number of clinical studies <abbrgrp>
                <abbr bid="B22">22</abbr>
             </abbrgrp>,<abbrgrp>
                <abbr bid="B23">23</abbr>
             </abbrgrp>. Lee <abbrgrp>
                <abbr bid="B24">24</abbr>
             </abbrgrp> showed the effect of massage twice daily for 10&#160;days in infants with gestational aged less than 36&#160;weeks. The vagal tone was significantly higher after massage than before massage in the experimental group. One study of preterm neonates examined how massage influenced weight gain <abbrgrp>
                <abbr bid="B8">8</abbr>
             </abbrgrp>. Vagal activity and gastric motility were measured before, during and after massage therapy sessions on the first and fifth day of massage therapy to determine whether preterm infant massage leads to consistent increases in vagal activity and gastric motility and whether these increases are associated with greater weight gain <abbrgrp>
                <abbr bid="B8">8</abbr>
             </abbrgrp>. In our study, we examined this potential mechanism by assessing indices of vagal activity and gastric motility in preterm neonates receiving moderate pressure massage therapy <abbrgrp>
                <abbr bid="B12">12</abbr>
             </abbrgrp>. Based on previous findings, we hypothesised that preterm neonates receiving moderate pressure massage therapy would show greater weight gain and a greater increase in vagal activity and gastric motility, although not a greater caloric intake than preterm neonates receiving light pressure stimulation or the controls. In this study, preterm neonates receiving moderate pressure massage therapy exhibited greater weight gain and increased vagal tone and increased gastric motility during and immediately after treatment. Gastric motility and vagal activity during massage therapy, in turn, were significantly related to weight gain <abbrgrp>
                <abbr bid="B12">12</abbr>
             </abbrgrp>,<abbrgrp>
                <abbr bid="B25">25</abbr>
             </abbrgrp>.</p>
          <p>We measured the abdominal circumference as one of the sign of the abdominal distension. In the massage group and the control group were compared on the first day of the study, there was no statistically significant difference between the two groups; however, a statistically significant difference was detected between the groups in the measurements done on the last day of the study.</p>
          <p>Vomiting is the most serious complication associated with enteral feeding, increasing the risk of aspiration and pneumonia <abbrgrp>
                <abbr bid="B22">22</abbr>
             </abbrgrp>. On the first day of the study, vomiting was observed in nine babies (64.3%) in the massage group, whereas this figure fell to five (35.7%) on the last day of the study. Conversely, vomiting was observed in 10 babies (76.9%) in the control group on the first day of the study and in eight babies (61.5%) on the last day of the study. The decrease in the number of vomiting instances of the babies in the massage group was determined to be statistically significant. This reduction is an expected result. The increase in the number of defecation and the decrease in the number of vomiting instances per day as a result of the decrease in abdominal distension are desired outcomes.</p>
       </sec>
       <sec>
          <st>
             <p>Conclusions</p>
          </st>
          <p>In conclusion our study determined that abdominal massage is efficient in preventing GRV excess and abdominal distension and vomiting in enterally fed preterm infants. In accordance with the results of the study, we suggest that nurses should apply abdominal massage twice a day as an intervention helping to prevent GRV excess and abdominal distension in enterally fed preterm infants; however, more studies are needed to investigate the effect of abdominal massage on prevention of delayed gastric emptying in enterally fed infants. This study should be repeated by applying abdominal massage.</p>
       </sec>
       <sec>
          <st>
             <p>Competing interests</p>
          </st>
          <p>The authors declare that they have no competing interests.</p>
       </sec>
       <sec>
          <st>
             <p>Authors&#8217; contribution</p>
          </st>
          <p>K&#350;T, AG contributed to the conception and design of this study; AG,SEA performed the statistical analysis and drafted the manuscript; SEA,&#304;C critically reviewed the manuscript and supervised the whole study process. All authors read and approved the final manuscript.</p>
       </sec>
    </bdy>
    <bm>
       <refgrp>
          
          <bibl id="B1">
             <title>
                <p>Feeding intolerance in preterm infants. How to understand the warning signs</p>
             </title>
             <aug>
                <au>
                   <snm>Lucchini</snm>
                   <fnm>R</fnm>
                </au>
                <au>
                   <snm>Bizzarri</snm>
                   <fnm>B</fnm>
                </au>
                <au>
                   <snm>Giampietro</snm>
                   <fnm>S</fnm>
                </au>
                <au>
                   <snm>De Curtis</snm>
                   <fnm>M</fnm>
                </au>
             </aug>
             <source>J Matern Foetal Neonatal Med</source>
             <pubdate>2011</pubdate>
             <volume>24</volume>
             <fpage>72</fpage>
             <lpage>74</lpage>
             <xrefbib>
                <pubidlist>
                   <pubid idtype="doi">10.3109/14767058.2011.607663</pubid>
                </pubidlist>
             </xrefbib>
          </bibl>
          <bibl id="B2">
             <title>
                <p>Strategies to improve feeding tolerance in preterm infants</p>
             </title>
             <aug>
                <au>
                   <snm>Fanaro</snm>
                   <fnm>S</fnm>
                </au>
             </aug>
             <source>J Maternal Fetal Neonatal Med</source>
             <pubdate>2012</pubdate>
             <volume>25</volume>
             <fpage>54</fpage>
             <lpage>56</lpage>
             <xrefbib>
                <pubidlist>
                   <pubid idtype="doi">10.3109/14767058.2012.715021</pubid>
                </pubidlist>
             </xrefbib>
          </bibl>
          <bibl id="B3">
             <title>
                <p>The nutrition of preterm infants</p>
             </title>
             <aug>
                <au>
                   <snm>De Curtis</snm>
                   <fnm>M</fnm>
                </au>
                <au>
                   <snm>Rigo</snm>
                   <fnm>J</fnm>
                </au>
             </aug>
             <source>Early Hum Dev</source>
             <pubdate>2012</pubdate>
             <volume>88</volume>
             <fpage>5</fpage>
             <lpage>7</lpage>
             <xrefbib>
                <pubidlist>
                   <pubid idtype="doi">10.1016/j.earlhumdev.2011.12.020</pubid>
                </pubidlist>
             </xrefbib>
          </bibl>
          <bibl id="B4">
             <title>
                <p>A double-blind placebo-controlled study on prophylactic use of cisapride on feed intolerance and gastric emptying in preterm neonates</p>
             </title>
             <aug>
                <au>
                   <snm>Reddy</snm>
                   <fnm>PS</fnm>
                </au>
                <au>
                   <snm>Deorari</snm>
                   <fnm>AK</fnm>
                </au>
                <au>
                   <snm>Bal</snm>
                   <fnm>CS</fnm>
                </au>
                <au>
                   <snm>Paul</snm>
                   <fnm>VK</fnm>
                </au>
                <au>
                   <snm>Singh</snm>
                   <fnm>M</fnm>
                </au>
             </aug>
             <source>Indian Paediatr</source>
             <pubdate>2000</pubdate>
             <volume>37</volume>
             <fpage>837</fpage>
             <lpage>844</lpage>
          </bibl>
          <bibl id="B5">
             <title>
                <p>Efficacy of prophylactic oral erythromycin to improve enteral feeding tolerance in preterm infants: A randomised controlled study</p>
             </title>
             <aug>
                <au>
                   <snm>Mohammadizadeh</snm>
                   <fnm>M</fnm>
                </au>
                <au>
                   <snm>Ghazinour</snm>
                   <fnm>M</fnm>
                </au>
                <au>
                   <snm>Iranpour</snm>
                   <fnm>R</fnm>
                </au>
             </aug>
             <source>Singapore Med J</source>
             <pubdate>2010</pubdate>
             <volume>51</volume>
             <fpage>952</fpage>
             <lpage>956</lpage>
             <xrefbib>
                <pubidlist>
                   <pubid idtype="pmpid" link="fulltext">21221501</pubid>
                </pubidlist>
             </xrefbib>
          </bibl>
          <bibl id="B6">
             <title>
                <p>Amylin peptide is increased in preterm neonates with feed intolerance</p>
             </title>
             <aug>
                <au>
                   <snm>Kairamkonda</snm>
                   <fnm>VR</fnm>
                </au>
                <au>
                   <snm>Deorukhkar</snm>
                   <fnm>A</fnm>
                </au>
                <au>
                   <snm>Bruce</snm>
                   <fnm>C</fnm>
                </au>
                <au>
                   <snm>Coombs</snm>
                   <fnm>R</fnm>
                </au>
                <au>
                   <snm>Fraser</snm>
                   <fnm>R</fnm>
                </au>
                <au>
                   <snm>Mayer</snm>
                   <fnm>AP</fnm>
                </au>
             </aug>
             <source>Arch Dis Child Fetal Neonatal Ed</source>
             <pubdate>2008</pubdate>
             <volume>93</volume>
             <fpage>265</fpage>
             <lpage>270</lpage>
             <xrefbib>
                <pubidlist>
                   <pubid idtype="doi">10.1136/adc.2007.120816</pubid>
                </pubidlist>
             </xrefbib>
          </bibl>
          <bibl id="B7">
             <title>
                <p>The effectiveness of aromatherapy massage using lavender oil as a treatment for infantile colic</p>
             </title>
             <aug>
                <au>
                   <snm>&#199;etinkaya</snm>
                   <fnm>B</fnm>
                </au>
                <au>
                   <snm>Ba&#351;bakkal</snm>
                   <fnm>Z</fnm>
                </au>
             </aug>
             <source>Int J Nurs Pract</source>
             <pubdate>2012</pubdate>
             <volume>18</volume>
             <fpage>164</fpage>
             <lpage>169</lpage>
             <xrefbib>
                <pubidlist>
                   <pubid idtype="doi">10.1111/j.1440-172X.2012.02015.x</pubid>
                   <pubid idtype="pmpid" link="fulltext">22435980</pubid>
                </pubidlist>
             </xrefbib>
          </bibl>
          <bibl id="B8">
             <title>
                <p>Preterm infant massage elicits consistent increases in vagal activity and gastric motility that are associated with greater weight gain</p>
             </title>
             <aug>
                <au>
                   <snm>Diego</snm>
                   <fnm>MA</fnm>
                </au>
                <au>
                   <snm>Field</snm>
                   <fnm>T</fnm>
                </au>
                <au>
                   <snm>Hernandez-Reif</snm>
                   <fnm>M</fnm>
                </au>
                <au>
                   <snm>Deeds</snm>
                   <fnm>O</fnm>
                </au>
                <au>
                   <snm>Ascencio</snm>
                   <fnm>A</fnm>
                </au>
                <au>
                   <snm>Begert</snm>
                   <fnm>G</fnm>
                </au>
             </aug>
             <source>Acta Paediatr</source>
             <pubdate>2007</pubdate>
             <volume>96</volume>
             <fpage>1588</fpage>
             <lpage>1591</lpage>
             <xrefbib>
                <pubidlist>
                   <pubid idtype="doi">10.1111/j.1651-2227.2007.00476.x</pubid>
                   <pubid idtype="pmpid" link="fulltext">17888059</pubid>
                </pubidlist>
             </xrefbib>
          </bibl>
          <bibl id="B9">
             <title>
                <p>Preterm infant massage therapy studies: An American approach</p>
             </title>
             <aug>
                <au>
                   <snm>Field</snm>
                   <fnm>T</fnm>
                </au>
             </aug>
             <source>Semin Neonatol</source>
             <pubdate>2002</pubdate>
             <volume>7</volume>
             <fpage>487</fpage>
             <lpage>494</lpage>
             <xrefbib>
                <pubidlist>
                   <pubid idtype="doi">10.1053/siny.2002.0153</pubid>
                   <pubid idtype="pmpid" link="fulltext">12614601</pubid>
                </pubidlist>
             </xrefbib>
          </bibl>
          <bibl id="B10">
             <title>
                <p>Preterm infant massage therapy research: A review</p>
             </title>
             <aug>
                <au>
                   <snm>Field</snm>
                   <fnm>T</fnm>
                </au>
                <au>
                   <snm>Diego</snm>
                   <fnm>M</fnm>
                </au>
                <au>
                   <snm>Hernandez-Reif</snm>
                   <fnm>M</fnm>
                </au>
             </aug>
             <source>Infant Behav Dev</source>
             <pubdate>2010</pubdate>
             <volume>33</volume>
             <fpage>115</fpage>
             <lpage>124</lpage>
             <xrefbib>
                <pubidlist>
                   <pubid idtype="doi">10.1016/j.infbeh.2009.12.004</pubid>
                   <pubid idtype="pmpid" link="fulltext">20137814</pubid>
                </pubidlist>
             </xrefbib>
          </bibl>
          <bibl id="B11">
             <title>
                <p>Baby massage classes and the work of the international association of infant massage</p>
             </title>
             <aug>
                <au>
                   <snm>Simpson</snm>
                   <fnm>R</fnm>
                </au>
             </aug>
             <source>Compl Ther Nurs Midwifery</source>
             <pubdate>2001</pubdate>
             <volume>7</volume>
             <fpage>25</fpage>
             <lpage>33</lpage>
             <xrefbib>
                <pubidlist>
                   <pubid idtype="doi">10.1054/ctnm.2000.0510</pubid>
                </pubidlist>
             </xrefbib>
          </bibl>
          <bibl id="B12">
             <title>
                <p>Vagal activity, gastric motility, and weight gain in massaged preterm neonates</p>
             </title>
             <aug>
                <au>
                   <snm>Diego</snm>
                   <fnm>MA</fnm>
                </au>
                <au>
                   <snm>Field</snm>
                   <fnm>T</fnm>
                </au>
                <au>
                   <snm>Hernandez-Reif</snm>
                   <fnm>M</fnm>
                </au>
             </aug>
             <source>J Paediatr</source>
             <pubdate>2005</pubdate>
             <volume>147</volume>
             <fpage>50</fpage>
             <lpage>55</lpage>
             <xrefbib>
                <pubidlist>
                   <pubid idtype="doi">10.1016/j.jpeds.2005.02.023</pubid>
                </pubidlist>
             </xrefbib>
          </bibl>
          <bibl id="B13">
             <title>
                <p>Feeding Intolerance</p>
             </title>
             <aug>
                <au>
                   <snm>Moore</snm>
                   <fnm>TA</fnm>
                </au>
                <au>
                   <snm>Wilson</snm>
                   <fnm>ME</fnm>
                </au>
             </aug>
             <source>Adv Neonatal Care</source>
             <pubdate>2011</pubdate>
             <volume>11</volume>
             <fpage>149</fpage>
             <lpage>154</lpage>
             <xrefbib>
                <pubidlist>
                   <pubid idtype="doi">10.1097/ANC.0b013e31821ba28e</pubid>
                   <pubid idtype="pmpid" link="fulltext">21730906</pubid>
                </pubidlist>
             </xrefbib>
          </bibl>
          <bibl id="B14">
             <title>
                <p>Upper digestive intolerance during enteral nutrition in critically ill patients: Frequency, risk factors, and complications</p>
             </title>
             <aug>
                <au>
                   <snm>Mentec</snm>
                   <fnm>H</fnm>
                </au>
                <au>
                   <snm>Dupont</snm>
                   <fnm>H</fnm>
                </au>
                <au>
                   <snm>Bocchetti</snm>
                   <fnm>M</fnm>
                </au>
                <au>
                   <snm>Cani</snm>
                   <fnm>P</fnm>
                </au>
                <au>
                   <snm>Ponche</snm>
                   <fnm>F</fnm>
                </au>
                <au>
                   <snm>Bleichner</snm>
                   <fnm>G</fnm>
                </au>
             </aug>
             <source>Crit Care Med</source>
             <pubdate>2001</pubdate>
             <volume>29</volume>
             <fpage>1955</fpage>
             <lpage>1961</lpage>
             <xrefbib>
                <pubidlist>
                   <pubid idtype="doi">10.1097/00003246-200110000-00018</pubid>
                   <pubid idtype="pmpid" link="fulltext">11588461</pubid>
                </pubidlist>
             </xrefbib>
          </bibl>
          <bibl id="B15">
             <title>
                <p>Enteral nutrition-related gastrointestinal complications in critically ill patients: A multi-center study</p>
             </title>
             <aug>
                <au>
                   <snm>Montejo</snm>
                   <fnm>JC</fnm>
                </au>
             </aug>
             <source>Crit Care Med</source>
             <pubdate>1999</pubdate>
             <volume>27</volume>
             <fpage>1447</fpage>
             <lpage>1453</lpage>
             <xrefbib>
                <pubidlist>
                   <pubid idtype="doi">10.1097/00003246-199908000-00006</pubid>
                   <pubid idtype="pmpid" link="fulltext">10470748</pubid>
                </pubidlist>
             </xrefbib>
          </bibl>
          <bibl id="B16">
             <title>
                <p>The significance of gastric residuals in the early enteral feeding advancement of extremely low birth weight infants</p>
             </title>
             <aug>
                <au>
                   <snm>Mihatsch</snm>
                   <fnm>WA</fnm>
                </au>
                <au>
                   <snm>von Schoenaich</snm>
                   <fnm>P</fnm>
                </au>
                <au>
                   <snm>Fahnenstich</snm>
                   <fnm>H</fnm>
                </au>
                <au>
                   <snm>Dehne</snm>
                   <fnm>N</fnm>
                </au>
                <au>
                   <snm>Ebbecke</snm>
                   <fnm>H</fnm>
                </au>
                <au>
                   <snm>Plath</snm>
                   <fnm>C</fnm>
                </au>
                <au>
                   <snm>von Stockhausen</snm>
                   <fnm>HB</fnm>
                </au>
                <au>
                   <snm>Muche</snm>
                   <fnm>R</fnm>
                </au>
                <au>
                   <snm>Franz</snm>
                   <fnm>A</fnm>
                </au>
                <au>
                   <snm>Pohlandt</snm>
                   <fnm>F</fnm>
                </au>
             </aug>
             <source>Paediatrics</source>
             <pubdate>2002</pubdate>
             <volume>109</volume>
             <fpage>457</fpage>
             <lpage>459</lpage>
             <xrefbib>
                <pubidlist>
                   <pubid idtype="doi">10.1542/peds.109.3.457</pubid>
                </pubidlist>
             </xrefbib>
          </bibl>
          <bibl id="B17">
             <aug>
                <au>
                   <snm>Cassar</snm>
                   <fnm>MP</fnm>
                </au>
             </aug>
             <source>Handbook of clinical massage. A complete guide for student and practitioners</source>
             <publisher>Elsevier Science, Philadelphia, PA</publisher>
             <pubdate>2004</pubdate>
          </bibl>
          <bibl id="B18">
             <title>
                <p>A meta-analysis of massage therapy research</p>
             </title>
             <aug>
                <au>
                   <snm>Moyer</snm>
                   <fnm>CA</fnm>
                </au>
                <au>
                   <snm>Rounds</snm>
                   <fnm>J</fnm>
                </au>
                <au>
                   <snm>Hannum</snm>
                   <fnm>JW</fnm>
                </au>
             </aug>
             <source>Psychol Bull</source>
             <pubdate>2004</pubdate>
             <volume>130</volume>
             <fpage>3</fpage>
             <lpage>18</lpage>
             <xrefbib>
                <pubidlist>
                   <pubid idtype="doi">10.1037/0033-2909.130.1.3</pubid>
                   <pubid idtype="pmpid" link="fulltext">14717648</pubid>
                </pubidlist>
             </xrefbib>
          </bibl>
          <bibl id="B19">
             <title>
                <p>Managing a patient&#8217;s constipation with physical therapy</p>
             </title>
             <aug>
                <au>
                   <snm>Harrington</snm>
                   <fnm>KL</fnm>
                </au>
                <au>
                   <snm>Haskvitz</snm>
                   <fnm>EM</fnm>
                </au>
             </aug>
             <source>Phys Ther</source>
             <pubdate>2006</pubdate>
             <volume>86</volume>
             <fpage>1511</fpage>
             <lpage>1519</lpage>
             <xrefbib>
                <pubidlist>
                   <pubid idtype="doi">10.2522/ptj.20050347</pubid>
                   <pubid idtype="pmpid" link="fulltext">17079751</pubid>
                </pubidlist>
             </xrefbib>
          </bibl>
          <bibl id="B20">
             <title>
                <p>Mechanism of abdominal massage for difficult defecation in a patient with myelopathy (HAM/TSP)</p>
             </title>
             <aug>
                <au>
                   <snm>Liu</snm>
                   <fnm>Z</fnm>
                </au>
                <au>
                   <snm>Sakakibara</snm>
                   <fnm>R</fnm>
                </au>
                <au>
                   <snm>Odaka</snm>
                   <fnm>T</fnm>
                </au>
                <au>
                   <snm>Uchiyama</snm>
                   <fnm>T</fnm>
                </au>
                <au>
                   <snm>Yamamoto</snm>
                   <fnm>T</fnm>
                </au>
                <au>
                   <snm>Ito</snm>
                   <fnm>T</fnm>
                </au>
                <au>
                   <snm>Hattori</snm>
                   <fnm>T</fnm>
                </au>
             </aug>
             <source>J Neurol</source>
             <pubdate>2005</pubdate>
             <volume>252</volume>
             <fpage>1280</fpage>
             <lpage>1282</lpage>
             <xrefbib>
                <pubidlist>
                   <pubid idtype="doi">10.1007/s00415-005-0825-9</pubid>
                   <pubid idtype="pmpid" link="fulltext">15895308</pubid>
                </pubidlist>
             </xrefbib>
          </bibl>
          <bibl id="B21">
             <title>
                <p>The effect of abdominal massage on bowel function in patients with spinal cord injury</p>
             </title>
             <aug>
                <au>
                   <snm>Aya&#537;</snm>
                   <fnm>S</fnm>
                </au>
                <au>
                   <snm>Leblebici</snm>
                   <fnm>B</fnm>
                </au>
                <au>
                   <snm>S&#246;zay</snm>
                   <fnm>S</fnm>
                </au>
                <au>
                   <snm>Bayramo&#287;lu</snm>
                   <fnm>M</fnm>
                </au>
                <au>
                   <snm>Niron</snm>
                   <fnm>EA</fnm>
                </au>
             </aug>
             <source>Am J Phys Med Rehabil</source>
             <pubdate>2006</pubdate>
             <volume>85</volume>
             <fpage>951</fpage>
             <lpage>955</lpage>
             <xrefbib>
                <pubidlist>
                   <pubid idtype="doi">10.1097/01.phm.0000247649.00219.c0</pubid>
                   <pubid idtype="pmpid" link="fulltext">17117000</pubid>
                </pubidlist>
             </xrefbib>
          </bibl>
          <bibl id="B22">
             <title>
                <p>The effect of abdominal massage on gastric residual volume: A randomized controlled trial</p>
             </title>
             <aug>
                <au>
                   <snm>Uysal</snm>
                   <fnm>N</fnm>
                </au>
                <au>
                   <snm>E&#351;er</snm>
                   <fnm>&#304;</fnm>
                </au>
                <au>
                   <snm>Akpinar</snm>
                   <fnm>H</fnm>
                </au>
             </aug>
             <source>Gastroenterol Nurs</source>
             <pubdate>2012</pubdate>
             <volume>35</volume>
             <fpage>117</fpage>
             <lpage>123</lpage>
             <note>doi:10.1097/SGA.0b013e31824c235a</note>
             <xrefbib>
                <pubidlist>
                   <pubid idtype="doi">10.1097/SGA.0b013e31824c235a</pubid>
                   <pubid idtype="pmpid" link="fulltext">22472671</pubid>
                </pubidlist>
             </xrefbib>
          </bibl>
          <bibl id="B23">
             <title>
                <p>Experiences of abdominal massage for constipation</p>
             </title>
             <aug>
                <au>
                   <snm>L&#228;m&#229;s</snm>
                   <fnm>K</fnm>
                </au>
                <au>
                   <snm>Graneheim</snm>
                   <fnm>UH</fnm>
                </au>
                <au>
                   <snm>Jacobsson</snm>
                   <fnm>C</fnm>
                </au>
             </aug>
             <source>J Clin Nurs</source>
             <pubdate>2012</pubdate>
             <volume>21</volume>
             <fpage>757</fpage>
             <lpage>765</lpage>
             <xrefbib>
                <pubidlist>
                   <pubid idtype="doi">10.1111/j.1365-2702.2011.03946.x</pubid>
                   <pubid idtype="pmpid" link="fulltext">22098585</pubid>
                </pubidlist>
             </xrefbib>
          </bibl>
          <bibl id="B24">
             <title>
                <p>The effect of infant massage on weight gain, physiological and behavioural responses in premature infants</p>
             </title>
             <aug>
                <au>
                   <snm>Lee</snm>
                   <fnm>HK</fnm>
                </au>
             </aug>
             <source>Taehan Kanho Hakhoe Chi</source>
             <pubdate>2005</pubdate>
             <volume>35</volume>
             <fpage>1451</fpage>
             <lpage>1460</lpage>
             <xrefbib>
                <pubidlist>
                   <pubid idtype="pmpid" link="fulltext">16415626</pubid>
                </pubidlist>
             </xrefbib>
          </bibl>
          <bibl id="B25">
             <title>
                <p>Potential underlying mechanisms for greater weight gain in massaged preterm infants</p>
             </title>
             <aug>
                <au>
                   <snm>Field</snm>
                   <fnm>T</fnm>
                </au>
                <au>
                   <snm>Diego</snm>
                   <fnm>M</fnm>
                </au>
                <au>
                   <snm>Hernandez-Reif</snm>
                   <fnm>M</fnm>
                </au>
             </aug>
             <source>Infant Behav Dev</source>
             <pubdate>2011</pubdate>
             <volume>34</volume>
             <fpage>383</fpage>
             <lpage>389</lpage>
             <xrefbib>
                <pubidlist>
                   <pubid idtype="doi">10.1016/j.infbeh.2010.12.001</pubid>
                   <pubid idtype="pmpid" link="fulltext">21570125</pubid>
                </pubidlist>
             </xrefbib>
          </bibl>
       </refgrp>
    </bm>
 </art>
