<art>
    <ui>s13018-014-0115-2</ui>
    <ji>1749-799X</ji>
    <fm>
       <dochead>Research article</dochead>
       <bibl>
          <title>
             <p>Differential efficacy of subtalar fusion with three operative approaches</p>
          </title>
          <aug>
             <au id="A1">
                <snm>Yuan</snm>
                <fnm>Cheng-song</fnm>
                <insr iid="I1"/>
                <email>530270472@qq.com</email>
             </au>
             <au id="A2">
                <snm>Tan</snm>
                <fnm>Xiao-kang</fnm>
                <insr iid="I1"/>
                <email>xiaokangtan@yahoo.com</email>
             </au>
             <au id="A3">
                <snm>Zhou</snm>
                <fnm>Bing-Hua</fnm>
                <insr iid="I1"/>
                <email>419663855@qq.com</email>
             </au>
             <au id="A4">
                <snm>Liu</snm>
                <fnm>Jun-peng</fnm>
                <insr iid="I1"/>
                <email>404547319@qq.com</email>
             </au>
             <au id="A5">
                <snm>Tao</snm>
                <fnm>Xu</fnm>
                <insr iid="I1"/>
                <email>cwfred@live.cn</email>
             </au>
             <au id="A6" ca="yes">
                <snm>Tang</snm>
                <fnm>Kang-Lai</fnm>
                <insr iid="I1"/>
                <email>tangkanglai@hotmail.com</email>
             </au>
          </aug>
          <insg>
             <ins id="I1">
                <p>Department of Orthopaedics, Southwest Hospital, Third Military Medical University, No. 30, Gaotanyan Road, Chongqing 400038, China</p>
             </ins>
          </insg>
          <source>Journal of Orthopaedic Surgery and Research</source>
          <issn>1749-799X</issn>
          <pubdate>2014</pubdate>
          <volume>9</volume>
          <issue>1</issue>
          <fpage>115</fpage>
          <url>http://www.josr-online.com/content/9/1/115</url>
          <xrefbib>
             <pubidlist>
                <pubid idtype="doi">10.1186/s13018-014-0115-2</pubid>
             </pubidlist>
          </xrefbib>
       </bibl>
       <history>
          <rec>
             <date>
                <day>21</day>
                <month>3</month>
                <year>2014</year>
             </date>
          </rec>
          <acc>
             <date>
                <day>3</day>
                <month>11</month>
                <year>2014</year>
             </date>
          </acc>
          <pub>
             <date>
                <day>19</day>
                <month>11</month>
                <year>2014</year>
             </date>
          </pub>
       </history>
       <cpyrt>
          <year>2014</year>
          <collab>Yuan et al.; licensee BioMed Central Ltd.</collab>
          <note>This is an Open Access article distributed under the terms of the Creative Commons Attribution License (<url>http://creativecommons.org/licenses/by/4.0</url>), which permits unrestricted use, distribution, and reproduction in any medium, provided the original work is properly credited. The Creative Commons Public Domain Dedication waiver (<url>http://creativecommons.org/publicdomain/zero/1.0/</url>) applies to the data made available in this article, unless otherwise stated.</note>
       </cpyrt>
       <kwdg>
          <kwd>Subtalar joint</kwd>
          <kwd>Arthritis</kwd>
          <kwd>Arthrodesis</kwd>
          <kwd>Operative approach</kwd>
          <kwd>Controlled clinical trial</kwd>
       </kwdg>
       <abs>
          <sec>
             <st>
                <p>Abstract</p>
             </st>
             <sec>
                <st>
                   <p>Background</p>
                </st>
                <p>There are many existing operative approaches for subtalar fusion; however, no optional strategy of operative approach has been developed yet. This study aimed to analyze the differential clinical efficacy of subtalar fusion with three operative approaches.</p>
             </sec>
             <sec>
                <st>
                   <p>Methods</p>
                </st>
                <p>The clinical data of 102 patients from April 2008 to April 2012 were analyzed prospectively. These patients were divided into three groups with the random number table: group A, group B, and group C. The following parameters were compared among three groups: effective exposure area and exposure time of subtalar joint, intraoperative bleeding volume, postoperative complications, fusion time, fusion rate, AOFAS score and VAS score before and after operation.</p>
             </sec>
             <sec>
                <st>
                   <p>Results</p>
                </st>
                <p>In the exposure area score, there was no statistically significant difference between group A and group C (<it>P</it> &gt;0.05) ,but with a statistically significant difference between group A/C and group B (<it>P</it> &lt;0.05). In exposure time and intraoperative bleeding volume, there was no statistically significant difference between group A and group B (<it>P</it> &gt;0.05) but with a statistically significant difference between group A/B and group C (<it>P</it> &lt;0.05). In three groups, there was a statistically significant difference in both AOFAS score and VAS score before operation and at 6&#160;months/12&#160;months/last visit after operation (<it>P</it> &lt;0.05). The incidence of complications in the three groups was 8.8%, 12.5% and 19.4%. No statistically significant differences in fusion rate and fusion time were observed among the three groups (<it>P</it> &gt;0.05).</p>
             </sec>
             <sec>
                <st>
                   <p>Conclusion</p>
                </st>
                <p>Three operative approaches have different indications, All the three operative approaches do not influence the fusion rate and fusion time of subtalar joint. The lateral tarsal sinus approach is inferior to the posterior-lateral L approach and the approach from the inferior tip of fibula to the basilar part of the fourth metatarsal bone in the exposure area, while the lateral tarsal sinus approach and the approach from the inferior tip of fibula to the basilar part of the fourth metatarsal bone are superior to the posterior-lateral L approach in the exposure time, intraoperative bleeding volume, and incidence of complications.</p>
             </sec>
             <sec>
                <st>
                   <p>Level of evidence</p>
                </st>
                <p>Therapeutic, level III.</p>
             </sec>
          </sec>
       </abs>
    </fm>
    <bdy>
       <sec>
          <st>
             <p>Background</p>
          </st>
          <p>Subtalar fusion is a gold standard for treatment of severe subtalar arthritis <abbrgrp>
                <abbr bid="B1">1</abbr>
             </abbrgrp> and the operative factors affecting its efficacy include operative approach, cartilage removal, bone graft, hind foot deformity correction, and fixation <abbrgrp>
                <abbr bid="B2">2</abbr>
             </abbrgrp>. Since subtalar joint has a highly complex anatomy and biomechanical characteristics, we presumed that the correct selection of operative approach might not only influence the trauma, prognosis, and occurrence of complications of patients but also play an important role in the operative field, operator&#8217;s operations, and good exposure.</p>
          <p>At present, there are many approaches available for subtalar fusion, generally lateral, medial approaches <abbrgrp>
                <abbr bid="B3">3</abbr>
             </abbrgrp>. The common lateral approaches include an approach from the inferior tip of fibula to the basilar part of the fourth metatarsal bone, a lateral tarsal sinus approach, and a lateral long-L approach. The subtalar joint is routinely accessed with a lateral approach <abbrgrp>
                <abbr bid="B4">4</abbr>
             </abbrgrp>. Therefore, we only compared the clinical effects of different lateral approaches with a purpose of providing a basis for the selection of operative approach.</p>
          <p>With the final purpose of reducing potential injury and postoperative complications and providing the best clinical selection strategy of operative approaches for subtalar fusion, this study aimed to explore the differential efficacy of subtalar fusion with different operative approaches and thus figure out the preferable clinical therapy through the prospective, comparative analysis on the clinical data of 102 patients who underwent subtalar fusion <it>in situ</it> with three operative approaches from April 2008 to April 2012.</p>
       </sec>
       <sec>
          <st>
             <p>Materials and methods</p>
          </st>
          <sec>
             <st>
                <p>Study objects</p>
             </st>
             <p>This study was a prospective, randomized, single-blinded, controlled study and approved by the Ethics Committee of the Southwest Hospital. All included patients were assigned to groups A, B, and C according to the random number table. Before operation, X-ray examination, CT and MRI, as well as American Orthopaedic Foot and Ankle Society (AOFAS) scoring, VAS scoring, and admission evaluation were performed routinely.</p>
             <sec>
                <st>
                   <p>Inclusion criteria</p>
                </st>
                <p>The inclusion criteria are as follows: (1) severe subtalar arthritis, i.e., peri-subtalar joint pain, aggravated when walking, seriously influencing the daily life; (2) failure of more than 6&#160;months conservative treatment with drugs, local blockage, and physical rehabilitation; (3) fusion <it>in situ</it>; and (4) the patients and their family provided the informed consent.</p>
             </sec>
             <sec>
                <st>
                   <p>Exclusion criteria</p>
                </st>
                <p>The exclusion criteria are as follows: (1) concomitant severe medical conditions, (2) severe subtalar joint infection, (3) severe osteoporosis, (4) hind foot deformity requiring orthopedic osteotomy, and (5) the patients and their family failed to provide the informed consent.</p>
             </sec>
          </sec>
          <sec>
             <st>
                <p>Treatment</p>
             </st>
             <p>Group A: subtalar fusion <it>in situ</it> with an approach from the inferior tip of fibula to the basilar part of the fourth metatarsal bone, <it>n</it> = 34; group B: subtalar fusion <it>in situ</it> with a lateral tarsal sinus approach, <it>n</it> = 32; group C: subtalar fusion <it>in situ</it> with a posterior-lateral L approach, <it>n</it> = 36.</p>
             <p>The subtalar fusion in all included patients was performed by a chief physician with more than 15&#160;years of clinical experience. The operative procedures were as follows: the antibiotic was intravenously infused for anti-infection 30&#160;min before operation, and then lumbar anesthesia or general anesthesia was performed depending on the patient&#8217;s body condition. In all patients, the tourniquet (drive belt) was used at the root of the thigh for blood driving during operation, followed by conventional disinfection and draping. After the drive belt drove blood, the inflation pressure of tourniquet was 225&#160;mmHg. Group A: when the tip of fibula was touched, a 3- to 5-cm incision parallel to subtalar articular facet was made extending to the basilar part of the fourth metatarsal bone at 0.5&#160;cm beneath the tip of fibula (Figure&#160;<figr fid="F1">1</figr>); group B: when tarsal sinus was touched, a 2- to 4-cm short arc incision parallel to tarsal sinus was made with the center at 2&#160;cm beneath lateral malleolus (Figure&#160;<figr fid="F2">2</figr>); group C: a 5- to 7-cm incision was made extending to the basilar part of the fifth metatarsal bone with the longitudinal approach at 2 to 3&#160;cm over the lateral malleolus and along tendo calcaneus and the short and long muscle tendons of the fibula and with the horizontal approach between the tip of the lateral malleolus and the footplate skin (Figure&#160;<figr fid="F3">3</figr>). Thereafter, the cartilage on the articular facet was removed with the osteotome, bone file, and curette to expose 2&#160;mm subchondral bone, and finally the subtalar joint was fixed by two 7.3-mm cannulated screws, one traversing the lateral third of the talar neck into the calcaneus and the other through the medial third of the talar neck into the calcaneus in two directions: plantar-to-dorsal (P-D) and dorsal-to-plantar (D-P). After operation, no leg plaster fixation was performed for the affected limb, but 3 to 5&#160;days of continuous ice compress was performed and thereafter the ankle joint was subject to active and passive functional trainings. The suture was removed at 2 to 3&#160;weeks postoperatively. No load was allowed within 6&#160;weeks postoperatively, and thereafter partial load was allowed if callus was formed on the fusion surface as shown by X-ray reexamination after 6&#160;weeks and a load was not allowed if no callus was formed. At 8&#160;weeks postoperatively, partial load depended on whether there was callus formation on the fusion surface or not as shown by reexamination. At 3&#160;months postoperatively, complete load was allowed if X-ray examination showed complete fusion of subtalar joint (i.e., the joint space disappeared completely and there was continuous callus passing through the fusion surface), and CT examination might be performed when the complete fusion of subtalar joint could not be evaluated by X-ray examination.
                    
                    
                  </p>
             
                <fig id="F1">
                   <title>
                      <p>Figure 1</p>
                   </title>
                   <caption>
                      <p>An approach from the inferior tip of fibula to the basilar part of the fourth metatarsal bone and its exposure area. </p>
                   </caption>
                   <text>
                      <p>
                            <b>An approach from the inferior tip of fibula to the basilar part of the fourth metatarsal bone and its exposure area.</b>                          
                      </p>
                   </text>
                   <graphic file="s13018-014-0115-2-1"/>
                </fig>
             
             
                <fig id="F2">
                   <title>
                      <p>Figure 2</p>
                   </title>
                   <caption>
                      <p>A lateral tarsal sinus approach and its exposure area. </p>
                   </caption>
                   <text>
                      <p>
                            <b>A lateral tarsal sinus approach and its exposure area.</b>                          
                      </p>
                   </text>
                   <graphic file="s13018-014-0115-2-2"/>
                </fig>
             
             
                <fig id="F3">
                   <title>
                      <p>Figure 3</p>
                   </title>
                   <caption>
                      <p>A posterior-lateral L approach and its exposure area. </p>
                   </caption>
                   <text>
                      <p>
                            <b>A posterior-lateral L approach and its exposure area.</b>                          
                      </p>
                   </text>
                   <graphic file="s13018-014-0115-2-3"/>
                </fig>
             
          </sec>
          <sec>
             <st>
                <p>Observations</p>
             </st>
             <sec>
                <st>
                   <p>Comparison of general data</p>
                </st>
                <p>The general data including sex, age, and course of disease before operation were compared among the three groups.</p>
             </sec>
             <sec>
                <st>
                   <p>Comparison of intraoperative condition</p>
                </st>
                <p>The effective exposure area and exposure time of subtalar joint and intraoperative condition (bleeding volume and complications) were compared among the three groups. The following scoring criteria of subtalar joint exposure area during operation were used: the posterior subtalar articular facet was quartered and observed via the approaches; 10 scores: 4/4 exposure, 7 scores: 3/4 exposure, 5 scores: 2/4 exposure, 3 scores: 1/4 exposure, and 0 score: 0/4 exposure. The exposure time was recorded after the start of operation, i.e., time from skin incision to subtalar joint exposure (precision: 1&#160;min). And the intraoperative bleeding volume was recorded with the planimetry (i.e., 1&#160;cm<sup>2</sup> blood-wetted gauze indicated 1&#160;ml bleeding).</p>
             </sec>
             <sec>
                <st>
                   <p>Comparison of hind foot pain and function</p>
                </st>
                <p>Before operation, at 6&#160;months, 12&#160;months, and the last visit after operation, the hind foot pain and function of all patients were evaluated and compared with the VAS score and AOFAS score.</p>
             </sec>
             <sec>
                <st>
                   <p>Comparison of postoperative complications</p>
                </st>
                <p>Early complications included wound infection, skin necrosis, nerve injury, and articular facet dislocation, while late complications were articular facet non-union and adjacent joint osteoarthritis. The incidence of complications was compared among the three groups.</p>
             </sec>
             <sec>
                <st>
                   <p>Comparison of postoperative fusion</p>
                </st>
                <p>At 6&#160;weeks, 3&#160;months, 6&#160;months, 12&#160;months, and the last visit after operation, X-ray examination was performed, including lateral, anterioposterior, and axial views of the calcaneus. The fusion time and fusion rate were compared among the three groups. The imaging-based fusion evaluation criterion was as follows: the radiographs and CT images showed that there was bone trabecula passing through the subtalar articular facet and the joint space disappeared completely; CT examination might be performed when the complete fusion of subtalar joint could not be evaluated by X-ray examination, because it was the gold standard to evaluate the fusion of subtalar joint.</p>
             </sec>
          </sec>
          <sec>
             <st>
                <p>Statistical analysis</p>
             </st>
             <p>SPSS 13.0 software was used for statistical analysis of all data. The quantitative data were presented as mean&#8201;&#177;&#8201;standard deviation (<inline-formula>
                   <m:math xmlns:m="http://www.w3.org/1998/Math/MathML" name="s13018-014-0115-2-i1">
                      <m:mover accent="true">
                         <m:mi>&#967;</m:mi>
                         <m:mo stretchy="true">&#175;</m:mo>
                      </m:mover>
                      <m:mo>&#177;</m:mo>
                      <m:mi>s</m:mi>
                   </m:math>
                </inline-formula>) and compared with <it>t</it> test, while the qualitative data were compared with <it>X</it>                    
                <sup>2</sup> test. <it>P</it> &lt;0.05 suggested a statistically significant difference.</p>
          </sec>
       </sec>
       <sec>
          <st>
             <p>Results</p>
          </st>
          <sec>
             <st>
                <p>Comparison of general data</p>
             </st>
             <p>Totally, 102 patients with severe subtalar arthritis were included in this study, including 56 cases of traumatic arthritis, 16 cases of rheumatoid arthritis, 17 cases of osteoarthritis, 10 cases of subtalar joint tuberculosis, and 3 cases of talocalcaneal coalition. There were 64 males and 58 females, with an age of 16 to 74&#160;years (mean: 43.2&#8201;&#177;&#8201;3.6&#160;years) and a course of disease before operation being 1 to 360&#160;months (mean: 38.0&#160;months). There were no statistically significant differences in general data among group A (<it>n</it> = 34), group B (<it>n</it> = 32), and group C (<it>n</it> = 36) (<it>P</it> &gt;0.05), while the general data of the three groups were comparable, as shown in Table&#160;<tblr tid="T1">1</tblr>.
                  </p>
             
                <table id="T1">
                   <title>
                      <p>Table 1</p>
                   </title>
                   <caption>
                      <p>
                            <b>Comparison of general data among the three groups</b>                          
                      </p>
                   </caption>
                   <tgroup align="left" cols="12">
                      <colspec align="left" colname="c1" colnum="1" colwidth="*"/>
                      <colspec align="left" colname="c2" colnum="2" colwidth="*"/>
                      <colspec align="left" colname="c3" colnum="3" colwidth="*"/>
                      <colspec align="left" colname="c4" colnum="4" colwidth="*"/>
                      <colspec align="left" colname="c5" colnum="5" colwidth="*"/>
                      <colspec align="left" colname="c6" colnum="6" colwidth="*"/>
                      <colspec align="left" colname="c7" colnum="7" colwidth="*"/>
                      <colspec align="left" colname="c8" colnum="8" colwidth="*"/>
                      <colspec align="left" colname="c9" colnum="9" colwidth="*"/>
                      <colspec align="left" colname="c10" colnum="10" colwidth="*"/>
                      <colspec align="left" colname="c11" colnum="11" colwidth="*"/>
                      <colspec align="left" colname="c12" colnum="12" colwidth="*"/>
                      <thead>
                         <row valign="top">
                            <entry colname="c1" morerows="1"/>
                            <entry colname="c2" morerows="1">
                               <p>
                                  <b>Number</b>                              
                               </p>
                            </entry>
                            <entry colname="c3" morerows="1">
                               <p>
                                  <b>Sex (M/F)</b>                              
                               </p>
                            </entry>
                            <entry colname="c4" morerows="1">
                               <p>
                                  <b>Age (year)</b>                              
                               </p>
                            </entry>
                            <entry colname="c5" morerows="1">
                               <p>
                                  <b>Course of disease (month)</b>                              
                               </p>
                            </entry>
                            <entry colname="c6" morerows="1">
                               <p>
                                  <b>Preoperative AOFAS score</b>                              
                               </p>
                            </entry>
                            <entry colname="c7" morerows="1">
                               <p>
                                  <b>Preoperative VAS score</b>                              
                               </p>
                            </entry>
                            <entry nameend="c12" namest="c8" rowsep="1">
                               <p>
                                  <b>Disease type</b>                              
                               </p>
                            </entry>
                         </row>
                         <row valign="top">
                            <entry colname="c8">
                               <p>
                                  <b>Traumatic arthritis (</b>                                
                                  <b>
                                     <it>n</it> 
                                 </b>                                
                                  <b>)</b>                              
                               </p>
                            </entry>
                            <entry colname="c9">
                               <p>
                                  <b>Rheumatoid arthritis (</b>                                
                                  <b>
                                     <it>n</it> 
                                 </b>                                
                                  <b>)</b>                              
                               </p>
                            </entry>
                            <entry colname="c10">
                               <p>
                                  <b>Osteoarthritis (</b>                                
                                  <b>
                                     <it>n</it> 
                                 </b>                                
                                  <b>)</b>                              
                               </p>
                            </entry>
                            <entry colname="c11">
                               <p>
                                  <b>Tuberculosis (</b>                                
                                  <b>
                                     <it>n</it> 
                                 </b>                                
                                  <b>)</b>                              
                               </p>
                            </entry>
                            <entry colname="c12">
                               <p>
                                  <b>Talocalcaneal coalition (</b>                                
                                  <b>
                                     <it>n</it> 
                                 </b>                                
                                  <b>)</b>                              
                               </p>
                            </entry>
                         </row>
                      </thead>
                      <tfoot>
                         <p>
                            <it>Abbreviations</it>: <it>M</it> male, <it>F</it> female.</p>
                         <p>
                            <it>P</it> &gt;0.05.</p>
                      </tfoot>
                      <tbody>
                         <row valign="top">
                            <entry colname="c1">
                               <p>Group A</p>
                            </entry>
                            <entry colname="c2">
                               <p>34</p>
                            </entry>
                            <entry colname="c3">
                               <p>23/11</p>
                            </entry>
                            <entry colname="c4">
                               <p>39.4&#8201;&#177;&#8201;6.3</p>
                            </entry>
                            <entry colname="c5">
                               <p>38.4&#8201;&#177;&#8201;5.9</p>
                            </entry>
                            <entry colname="c6">
                               <p>50.0&#8201;&#177;&#8201;8.9</p>
                            </entry>
                            <entry colname="c7">
                               <p>6.05&#8201;&#177;&#8201;1.3</p>
                            </entry>
                            <entry colname="c8">
                               <p>18</p>
                            </entry>
                            <entry colname="c9">
                               <p>7</p>
                            </entry>
                            <entry colname="c10">
                               <p>4</p>
                            </entry>
                            <entry colname="c11">
                               <p>3</p>
                            </entry>
                            <entry colname="c12">
                               <p>2</p>
                            </entry>
                         </row>
                         <row valign="top">
                            <entry colname="c1">
                               <p>Group B</p>
                            </entry>
                            <entry colname="c2">
                               <p>32</p>
                            </entry>
                            <entry colname="c3">
                               <p>19/13</p>
                            </entry>
                            <entry colname="c4">
                               <p>44.9&#8201;&#177;&#8201;5.2</p>
                            </entry>
                            <entry colname="c5">
                               <p>35.2&#8201;&#177;&#8201;5.8</p>
                            </entry>
                            <entry colname="c6">
                               <p>47.0&#8201;&#177;&#8201;6.2</p>
                            </entry>
                            <entry colname="c7">
                               <p>6.38&#8201;&#177;&#8201;1.6</p>
                            </entry>
                            <entry colname="c8">
                               <p>21</p>
                            </entry>
                            <entry colname="c9">
                               <p>5</p>
                            </entry>
                            <entry colname="c10">
                               <p>3</p>
                            </entry>
                            <entry colname="c11">
                               <p>0</p>
                            </entry>
                            <entry colname="c12">
                               <p>3</p>
                            </entry>
                         </row>
                         <row valign="top">
                            <entry colname="c1">
                               <p>Group C</p>
                            </entry>
                            <entry colname="c2">
                               <p>36</p>
                            </entry>
                            <entry colname="c3">
                               <p>22/14</p>
                            </entry>
                            <entry colname="c4">
                               <p>45.3&#8201;&#177;&#8201;4.5</p>
                            </entry>
                            <entry colname="c5">
                               <p>40.1&#8201;&#177;&#8201;6.9</p>
                            </entry>
                            <entry colname="c6">
                               <p>49.9&#8201;&#177;&#8201;5.3</p>
                            </entry>
                            <entry colname="c7">
                               <p>7.06&#8201;&#177;&#8201;1.8</p>
                            </entry>
                            <entry colname="c8">
                               <p>15</p>
                            </entry>
                            <entry colname="c9">
                               <p>4</p>
                            </entry>
                            <entry colname="c10">
                               <p>10</p>
                            </entry>
                            <entry colname="c11">
                               <p>5</p>
                            </entry>
                            <entry colname="c12">
                               <p>2</p>
                            </entry>
                         </row>
                      </tbody>
                   </tgroup>
                </table>
             
          </sec>
          <sec>
             <st>
                <p>Comparison of intraoperative condition</p>
             </st>
             <sec>
                <st>
                   <p>Comparison of effective exposure area</p>
                </st>
                <p>The average exposure area score of groups A, B, and C was 8.91, 6.56, and 9.16, respectively. The results of independent sample <it>t</it> test for comparison of average exposure area score showed that there was no statistically significant difference between group A and group C (<it>P</it> &gt;0.05) but with a statistically significant difference between group A/C and group B (<it>P</it> &lt;0.05) (see Table&#160;<tblr tid="T2">2</tblr>).
                    </p>
                
                   <table id="T2">
                      <title>
                         <p>Table 2</p>
                      </title>
                      <caption>
                         <p>
                              <b>Comparison of exposure among three groups</b>                            
                         </p>
                      </caption>
                      <tgroup align="left" cols="7">
                         <colspec align="left" colname="c1" colnum="1" colwidth="*"/>
                         <colspec align="left" colname="c2" colnum="2" colwidth="*"/>
                         <colspec align="left" colname="c3" colnum="3" colwidth="*"/>
                         <colspec align="left" colname="c4" colnum="4" colwidth="*"/>
                         <colspec align="left" colname="c5" colnum="5" colwidth="*"/>
                         <colspec align="left" colname="c6" colnum="6" colwidth="*"/>
                         <colspec align="left" colname="c7" colnum="7" colwidth="*"/>
                         <thead>
                            <row valign="top">
                               <entry colname="c1"/>
                               <entry colname="c2">
                                  <p>
                                     <b>Number</b>                                
                                  </p>
                               </entry>
                               <entry colname="c3">
                                  <p>
                                     <b>4/4 exposure (</b>                                  
                                     <b>
                                        <it>n</it> 
                                    </b>                                  
                                     <b>)</b>                                
                                  </p>
                               </entry>
                               <entry colname="c4">
                                  <p>
                                     <b>3/4 exposure (</b>                                  
                                     <b>
                                        <it>n</it> 
                                    </b>                                  
                                     <b>)</b>                                
                                  </p>
                               </entry>
                               <entry colname="c5">
                                  <p>
                                     <b>2/4 exposure (</b>                                  
                                     <b>
                                        <it>n</it> 
                                    </b>                                  
                                     <b>)</b>                                
                                  </p>
                               </entry>
                               <entry colname="c6">
                                  <p>
                                     <b>1/4 exposure (</b>                                  
                                     <b>
                                        <it>n</it> 
                                    </b>                                  
                                     <b>)</b>                                
                                  </p>
                               </entry>
                               <entry colname="c7">
                                  <p>
                                     <b>Exposure score</b>                                
                                  </p>
                               </entry>
                            </row>
                         </thead>
                         <tfoot>
                            <p>Compared with group B, <it>P</it> &lt;0.05; when group A was compared with group C, <it>P</it> &gt;0.05.</p>
                         </tfoot>
                         <tbody>
                            <row valign="top">
                               <entry colname="c1">
                                  <p>Group A</p>
                               </entry>
                               <entry colname="c2">
                                  <p>34</p>
                               </entry>
                               <entry colname="c3">
                                  <p>23</p>
                               </entry>
                               <entry colname="c4">
                                  <p>9</p>
                               </entry>
                               <entry colname="c5">
                                  <p>2</p>
                               </entry>
                               <entry colname="c6">
                                  <p>0</p>
                               </entry>
                               <entry colname="c7">
                                  <p>8.91</p>
                               </entry>
                            </row>
                            <row valign="top">
                               <entry colname="c1">
                                  <p>Group B</p>
                               </entry>
                               <entry colname="c2">
                                  <p>32</p>
                               </entry>
                               <entry colname="c3">
                                  <p>6</p>
                               </entry>
                               <entry colname="c4">
                                  <p>14</p>
                               </entry>
                               <entry colname="c5">
                                  <p>8</p>
                               </entry>
                               <entry colname="c6">
                                  <p>4</p>
                               </entry>
                               <entry colname="c7">
                                  <p>6.56</p>
                               </entry>
                            </row>
                            <row valign="top">
                               <entry colname="c1">
                                  <p>Group C</p>
                               </entry>
                               <entry colname="c2">
                                  <p>36</p>
                               </entry>
                               <entry colname="c3">
                                  <p>28</p>
                               </entry>
                               <entry colname="c4">
                                  <p>7</p>
                               </entry>
                               <entry colname="c5">
                                  <p>1</p>
                               </entry>
                               <entry colname="c6">
                                  <p>0</p>
                               </entry>
                               <entry colname="c7">
                                  <p>9.16</p>
                               </entry>
                            </row>
                         </tbody>
                      </tgroup>
                   </table>
                
             </sec>
             <sec>
                <st>
                   <p>Comparison of exposure time and intraoperative bleeding volume</p>
                </st>
                <p>According to the results of independent sample <it>t</it> test for comparison of exposure time and intraoperative bleeding volume, there was no statistically significant difference between group A and group B (<it>P</it> &gt;0.05) but with a statistically significant difference between group A/B and group C (<it>P</it> &lt;0.05) (see Table&#160;<tblr tid="T3">3</tblr>).
                    </p>
                
                   <table id="T3">
                      <title>
                         <p>Table 3</p>
                      </title>
                      <caption>
                         <p>
                              <b>Comparison of exposure time and intraoperative bleeding volume among the three groups</b>                            
                         </p>
                      </caption>
                      <tgroup align="left" cols="4">
                         <colspec align="left" colname="c1" colnum="1" colwidth="*"/>
                         <colspec align="left" colname="c2" colnum="2" colwidth="*"/>
                         <colspec align="left" colname="c3" colnum="3" colwidth="*"/>
                         <colspec align="left" colname="c4" colnum="4" colwidth="*"/>
                         <thead>
                            <row valign="top">
                               <entry colname="c1"/>
                               <entry colname="c2">
                                  <p>
                                     <b>Number</b>                                
                                  </p>
                               </entry>
                               <entry colname="c3">
                                  <p>
                                     <b>Average bleeding volume (ml)</b>                                
                                  </p>
                               </entry>
                               <entry colname="c4">
                                  <p>
                                     <b>Average exposure time (min)</b>                                
                                  </p>
                               </entry>
                            </row>
                         </thead>
                         <tfoot>
                            <p>Compared with group C, <it>P</it> &lt;0.05; when group A was compared with group B, <it>P</it> &gt;0.05.</p>
                         </tfoot>
                         <tbody>
                            <row valign="top">
                               <entry colname="c1">
                                  <p>Group A</p>
                               </entry>
                               <entry colname="c2">
                                  <p>34</p>
                               </entry>
                               <entry colname="c3">
                                  <p>8.2&#8201;&#177;&#8201;2.3</p>
                               </entry>
                               <entry colname="c4">
                                  <p>3.2&#8201;&#177;&#8201;2.1</p>
                               </entry>
                            </row>
                            <row valign="top">
                               <entry colname="c1">
                                  <p>Group B</p>
                               </entry>
                               <entry colname="c2">
                                  <p>32</p>
                               </entry>
                               <entry colname="c3">
                                  <p>6.8&#8201;&#177;&#8201;1.2</p>
                               </entry>
                               <entry colname="c4">
                                  <p>2.8&#8201;&#177;&#8201;1.7</p>
                               </entry>
                            </row>
                            <row valign="top">
                               <entry colname="c1">
                                  <p>Group C</p>
                               </entry>
                               <entry colname="c2">
                                  <p>36</p>
                               </entry>
                               <entry colname="c3">
                                  <p>15.4&#8201;&#177;&#8201;1.3</p>
                               </entry>
                               <entry colname="c4">
                                  <p>3.6&#8201;&#177;&#8201;2.5</p>
                               </entry>
                            </row>
                         </tbody>
                      </tgroup>
                   </table>
                
             </sec>
          </sec>
          <sec>
             <st>
                <p>Comparison of hind foot pain and function</p>
             </st>
             <p>There was a statistically significant difference before the operation and at 6&#160;months/12&#160;months/the last visit after operation (<it>P</it> &lt;0.05). At 6&#160;months, 12&#160;months, and the last visit after operation, there were no statistically significant differences among the three groups (<it>P</it> &gt;0.05).</p>
          </sec>
          <sec>
             <st>
                <p>Comparison of postoperative complications</p>
             </st>
             <p>There were 14/102 patients who developed mild complications, with an incidence of 13.7%. In group A, one case experienced wound numbness, one case experienced anterior lateral foot numbness, and one case experienced hind foot pain; in group B, one case developed wound numbness, one case developed anterior lateral foot numbness, one case developed lateral foot dorsum numbness, and one case developed middle foot numbness; and in group C, two cases had wound numbness, three cases had anterior lateral foot numbness, one case had lateral foot dorsum numbness, and one case had toe numbness. The incidence of complications in the three groups was 8.8%, 12.5%, and 19.4%, respectively. For comparison of the incidence of complications among the three groups, the results of <it>t</it> test showed <it>P</it> &lt;0.05, thus it was believed statistically that even with careful operation and enhanced care and under the premise of avoiding complications, the incidence of complications in group C was markedly higher than those in group A and group B.</p>
          </sec>
          <sec>
             <st>
                <p>Comparison of postoperative fusion</p>
             </st>
             <p>The radiographs confirmed that all cases except one case in the three groups achieved complete bone union (Figure&#160;<figr fid="F4">4</figr>); in the aspects of fusion time and fusion rate (Table&#160;<tblr tid="T4">4</tblr>), the results of <it>t</it> test showed no statistically significant differences among the three groups.
                    
                  </p>
             
                <fig id="F4">
                   <title>
                      <p>Figure 4</p>
                   </title>
                   <caption>
                      <p>Radiographs of the three groups before operation and at the last visit. </p>
                   </caption>
                   <text>
                      <p>
                            <b>Radiographs of the three groups before operation and at the last visit.</b> Group <b>A</b> (top), group <b>B</b> (center), and group <b>C</b> (bottom).</p>
                   </text>
                   <graphic file="s13018-014-0115-2-4"/>
                </fig>
             
             
                <table id="T4">
                   <title>
                      <p>Table 4</p>
                   </title>
                   <caption>
                      <p>
                            <b>Comparison of fusion time and fusion rate among the three groups</b>                          
                      </p>
                   </caption>
                   <tgroup align="left" cols="4">
                      <colspec align="left" colname="c1" colnum="1" colwidth="*"/>
                      <colspec align="left" colname="c2" colnum="2" colwidth="*"/>
                      <colspec align="left" colname="c3" colnum="3" colwidth="*"/>
                      <colspec align="left" colname="c4" colnum="4" colwidth="*"/>
                      <thead>
                         <row valign="top">
                            <entry colname="c1"/>
                            <entry colname="c2">
                               <p>
                                  <b>Number</b>                              
                               </p>
                            </entry>
                            <entry colname="c3">
                               <p>
                                  <b>Fusion time (weeks)</b>                              
                               </p>
                            </entry>
                            <entry colname="c4">
                               <p>
                                  <b>Fusion rate (%)</b>                              
                               </p>
                            </entry>
                         </row>
                      </thead>
                      <tfoot>
                         <p>
                            <it>P</it> &gt;0.05.</p>
                      </tfoot>
                      <tbody>
                         <row valign="top">
                            <entry colname="c1">
                               <p>Group A</p>
                            </entry>
                            <entry colname="c2">
                               <p>34</p>
                            </entry>
                            <entry colname="c3">
                               <p>9.6</p>
                            </entry>
                            <entry colname="c4">
                               <p>97</p>
                            </entry>
                         </row>
                         <row valign="top">
                            <entry colname="c1">
                               <p>Group B</p>
                            </entry>
                            <entry colname="c2">
                               <p>32</p>
                            </entry>
                            <entry colname="c3">
                               <p>10.2</p>
                            </entry>
                            <entry colname="c4">
                               <p>100</p>
                            </entry>
                         </row>
                         <row valign="top">
                            <entry colname="c1">
                               <p>Group C</p>
                            </entry>
                            <entry colname="c2">
                               <p>36</p>
                            </entry>
                            <entry colname="c3">
                               <p>9.8</p>
                            </entry>
                            <entry colname="c4">
                               <p>100</p>
                            </entry>
                         </row>
                      </tbody>
                   </tgroup>
                </table>
             
          </sec>
       </sec>
       <sec>
          <st>
             <p>Discussion</p>
          </st>
          <sec>
             <st>
                <p>Selection of operative approaches for subtalar fusion</p>
             </st>
             <p>Subtalar fusion is a common therapy for subtalar joint pain, instability or deformity with no response to conservative treatment <abbrgrp>
                   <abbr bid="B1">1</abbr>
                </abbrgrp>, and its indications include traumatic subtalar arthritis, collapsed calcaneal fracture, flat foot, infectious arthritis, rheumatoid arthritis, subtalar joint tuberculosis, talocalcaneal coalition, neuromuscular disorders, and so on <abbrgrp>
                   <abbr bid="B4">4</abbr>
                </abbrgrp>. The surgical factors influencing the efficacy of subtalar fusion are operative approach, cartilage removal, bone graft, and fixation <abbrgrp>
                   <abbr bid="B3">3</abbr>
                </abbrgrp>. The selection of an applicable operative approach plays a critical role in clearly exposing subtalar joint, completely removing cartilages, effectively protecting nerves and blood vessels, and preventing complications <abbrgrp>
                   <abbr bid="B5">5</abbr>
                </abbrgrp>. Arthroscopic approach and open approach are most frequently used in clinical practice. Arthroscopic approach has many advantages, such as accurate localization, miniature invasion, clearer operative field <abbrgrp>
                   <abbr bid="B6">6</abbr>
                </abbrgrp>, and capability to reduce the damage to soft tissues adjacent to the joint and thus provide good blood supply for joint fusion, which is the development direction of mini-invasive surgery <abbrgrp>
                   <abbr bid="B7">7</abbr>
                </abbrgrp>. However, this approach has limited indications and cannot effectively correct the cases of hind foot force line and joint space loss <abbrgrp>
                   <abbr bid="B8">8</abbr>
                </abbrgrp>. Therefore, open approach still has an irreplaceable role. Currently, there are various open approaches, including a lateral tarsal sinus approach, a lateral long-L approach, an approach from the inferior tip of fibula to the basilar part of the fourth metatarsal bone <abbrgrp>
                   <abbr bid="B3">3</abbr>
                </abbrgrp>, as well as a posterior approach parallel to tendo calcaneus which was designed by Kalamchi and Evans <abbrgrp>
                   <abbr bid="B9">9</abbr>
                </abbrgrp>. Among these open approaches, a lateral tarsal sinus approach, an approach from the inferior tip of fibula to the basilar part of the fourth metatarsal bone, and a posterior-lateral long-L approach are used most commonly.</p>
             <p>Three common approaches have their own advantages. A lateral tarsal sinus approach has such advantages as a small damage to adjacent soft tissues, simple exposure of subtalar joint, no requirement for cutting talocalcaneal ligaments and calcaneofibular ligaments during operation <abbrgrp>
                   <abbr bid="B10">10</abbr>
                </abbrgrp>, and access to proper correction of hind foot deformity <abbrgrp>
                   <abbr bid="B5">5</abbr>
                </abbrgrp>. An approach from the inferior tip of fibula to the basilar part of the fourth metatarsal bone can directly expose subtalar joint, cause a small damage to adjacent soft tissues, avoid contacting sural nerve, greatly correct hind foot deformity, and simply remove the cartilage surface <abbrgrp>
                   <abbr bid="B11">11</abbr>
                </abbrgrp>. And a posterior-lateral L approach can provide extensive exposure, achieve good exposure of subtalar joint, and correct severe hind foot deformity <abbrgrp>
                   <abbr bid="B10">10</abbr>
                </abbrgrp>.</p>
             <p>According to our presumption and experience, the selection of operative approaches is based on the characteristics and severity of diseases and the operative purpose. The posterior-lateral L approach is a good choice for major bone grafting and extensive exposure; the lateral tarsal sinus approach and the approach from the inferior tip of fibula to the basilar part of the fourth metatarsal bone are both preferable for fusion <it>in situ</it> and low exposure, for example, a surgery for simple traumatic arthritis, talocalcaneal coalition, or rheumatoid arthritis often requires a low exposure area of subtalar joint due to no significant osteosclerosis, so the two approaches can be used; and in the cases of traumatic arthritis with collapsed calcaneal fracture, subtalar joint tuberculosis and osteoarthritis, the posterior-lateral L approach is the favorite of many surgeons, because it needs bone grafting, extensive and complete removal of affected tissues, and a high exposure area.</p>
          </sec>
          <sec>
             <st>
                <p>Relation between operative approaches and complications</p>
             </st>
             <p>After subtalar fusion, the occurrence of foot dorsum numbness and anterior or middle lateral foot numbness is mainly associated with the injury of cutaneous nerves originating from sural nerve and superficial peroneal nerve in the lateral hind foot <abbrgrp>
                   <abbr bid="B12">12</abbr>
                </abbrgrp>. Sural nerve injury is often followed by skin sensation disappearance of lateral footplate border and superficial peroneal nerve injury by skin sensation disappearance of foot dorsum and anterior talocrural region <abbrgrp>
                   <abbr bid="B13">13</abbr>
                </abbrgrp>. The postoperative follow-up indicated the injury of both sural nerve and superficial peroneal nerve in five cases with a lateral tarsal sinus approach, seven cases with a posterior-lateral long-L approach, and two cases with an approach from the inferior tip of fibula to the basilar part of the fourth metatarsal bone.</p>
             <p>In a review of relevant study results at home and aboard, Weinraub et al. <abbrgrp>
                   <abbr bid="B14">14</abbr>
                </abbrgrp> used the posterior-lateral long-L approach in the subtalar fusion of 28 patients and found that the fusion rate reached 100% and the fusion time was 8.5 (6&#8201;~&#8201;20) weeks, one patient experienced posterior lateral calcaneal pain, one patient experienced incision dehiscence, and one patient experienced anterior lateral foot numbness. Troy et al. <abbrgrp>
                   <abbr bid="B15">15</abbr>
                </abbrgrp> conducted subtalar fusion with the approach from the inferior tip of fibula to the basilar part of the fourth metatarsal bone in 31 patients, and the results showed that the fusion rate was 96% and the average fusion time was 10.6&#160;weeks, one patient developed toe numbness and one patient developed lateral foot dorsum numbness. Pollard et al. <abbrgrp>
                   <abbr bid="B16">16</abbr>
                </abbrgrp> performed subtalar fusion using the posterior-lateral long-L approach in 22 patients and finished a follow-up of 27.3 (12&#8201;~&#8201;63.9) months, and they found that the fusion rate was 95.5%, one case developed bone non-union, three cases developed wound dehiscence, three cases developed wound numbness, and seven cases developed metal-response pain. In a study of subtalar fusion with the posterior-lateral long-L approach in 15 patients, Lee et al. <abbrgrp>
                   <abbr bid="B17">17</abbr>
                </abbrgrp> found the fusion rate was 93.3%, two patients had anterior lateral foot numbness due to sural nerve injury and two patients had wound dehiscence. Therefore, from either the anatomy or the clinical follow-up results, the incidence of the nerve injury with the posterior-lateral L approach and the lateral tarsal sinus approach is higher than that with the approach from the inferior tip of fibula to the basilar part of the fourth metatarsal bone.</p>
          </sec>
       </sec>
       <sec>
          <st>
             <p>Conclusion</p>
          </st>
          <p>Three operative approaches have different indications, thus an applicable approach shall be selected according to the disease characteristics and the operative purpose. All the three operative approaches do not influence the fusion rate and fusion time of subtalar joint. The lateral tarsal sinus approach is inferior to the posterior-lateral L approach and the approach from the inferior tip of fibula to the basilar part of the fourth metatarsal bone in exposure area, while the lateral tarsal sinus approach and the approach from the inferior tip of fibula to the basilar part of the fourth metatarsal bone are superior to the posterior-lateral L approach in exposure time, intraoperative bleeding volume, and incidence of complications.</p>
       </sec>
       <sec>
          <st>
             <p>Competing interests</p>
          </st>
          <p>The authors declare that they have no competing interests.</p>
       </sec>
       <sec>
          <st>
             <p>Authors&#8217; contributions</p>
          </st>
          <p>C-SY participated in collecting data and drafting the manuscript. X-kT and B-hZ participated in collecting data. J-pL participated in statistics, collecting data, as well as surgery and evaluation. XT participated in study design. K-lT participated in study design and surgery, as well as final approval. All authors read and approved the final manuscript.</p>
       </sec>
    </bdy>
    <bm>
       <ack>
          <sec>
             <st>
                <p>Acknowledgements</p>
             </st>
             <p>The authors would like to thank Kang-Lai Tang, Xiao-kang Tan, Bing-hua Zhou, Jun-Peng Liu, and Xu Tao.</p>
          </sec>
       </ack>
       <refgrp>
          
          <bibl id="B1">
             <title>
                <p>In-vivo range of motion of the subtalar joint using computed tomography</p>
             </title>
             <aug>
                <au>
                   <snm>Beimers</snm>
                   <fnm>L</fnm>
                </au>
                <au>
                   <snm>Tuijthof</snm>
                   <fnm>GJ</fnm>
                </au>
                <au>
                   <snm>Blankevoort</snm>
                   <fnm>L</fnm>
                </au>
                <au>
                   <snm>Jonges</snm>
                   <fnm>R</fnm>
                </au>
                <au>
                   <snm>Maas</snm>
                   <fnm>M</fnm>
                </au>
                <au>
                   <snm>van Dijk</snm>
                   <fnm>CN</fnm>
                </au>
             </aug>
             <source>J Biomech</source>
             <pubdate>2008</pubdate>
             <volume>41</volume>
             <fpage>1390</fpage>
             <lpage>1397</lpage>
             <xrefbib>
                <pubidlist>
                   <pubid idtype="doi">10.1016/j.jbiomech.2008.02.020</pubid>
                   <pubid idtype="pmpid" link="fulltext">18405904</pubid>
                </pubidlist>
             </xrefbib>
          </bibl>
          <bibl id="B2">
             <title>
                <p>Overview of subtalar arthrodesis techniques: options, pitfalls and solutions</p>
             </title>
             <aug>
                <au>
                   <snm>Tuijthof</snm>
                   <fnm>GJM</fnm>
                </au>
                <au>
                   <snm>Beimers</snm>
                   <fnm>L</fnm>
                </au>
                <au>
                   <snm>Kerkhoffs</snm>
                   <fnm>G</fnm>
                </au>
                <au>
                   <snm>Dankelman</snm>
                   <fnm>J</fnm>
                </au>
                <au>
                   <snm>van Dijk</snm>
                   <fnm>CN</fnm>
                </au>
             </aug>
             <source>J Foot Ankle Surg</source>
             <pubdate>2010</pubdate>
             <volume>16</volume>
             <fpage>107</fpage>
             <lpage>116</lpage>
             <xrefbib>
                <pubidlist>
                   <pubid idtype="doi">10.1016/j.fas.2009.07.002</pubid>
                </pubidlist>
             </xrefbib>
          </bibl>
          <bibl id="B3">
             <title>
                <p>Isolated subtalar arthrodesis</p>
             </title>
             <aug>
                <au>
                   <snm>Easley</snm>
                   <fnm>ME</fnm>
                </au>
                <au>
                   <snm>Trnka</snm>
                   <fnm>H-J</fnm>
                </au>
                <au>
                   <snm>Schon</snm>
                   <fnm>LC</fnm>
                </au>
                <au>
                   <snm>Nade</snm>
                   <fnm>S</fnm>
                </au>
             </aug>
             <source>J Bone Joint Surg Am</source>
             <pubdate>2000</pubdate>
             <volume>82</volume>
             <fpage>613</fpage>
             <lpage>624</lpage>
             <xrefbib>
                <pubidlist>
                   <pubid idtype="pmpid" link="fulltext">10819272</pubid>
                </pubidlist>
             </xrefbib>
          </bibl>
          <bibl id="B4">
             <title>
                <p>A comprehensive review of subtalar arthrodesis</p>
             </title>
             <aug>
                <au>
                   <snm>Davies</snm>
                   <fnm>MB</fnm>
                </au>
                <au>
                   <snm>Rosenfeld</snm>
                   <fnm>PF</fnm>
                </au>
                <au>
                   <snm>Stavrou</snm>
                   <fnm>P</fnm>
                </au>
                <au>
                   <snm>Saxby</snm>
                   <fnm>TS</fnm>
                </au>
             </aug>
             <source>Foot Ankle Int</source>
             <pubdate>2007</pubdate>
             <volume>28</volume>
             <fpage>295</fpage>
             <lpage>297</lpage>
             <xrefbib>
                <pubidlist>
                   <pubid idtype="doi">10.3113/FAI.2007.0295</pubid>
                   <pubid idtype="pmpid" link="fulltext">17371651</pubid>
                </pubidlist>
             </xrefbib>
          </bibl>
          <bibl id="B5">
             <title>
                <p>In situ arthrodesis with lateral-wall ostectomy for the sequelae of fracture of the os calcis</p>
             </title>
             <aug>
                <au>
                   <snm>Savva</snm>
                   <fnm>N</fnm>
                </au>
                <au>
                   <snm>Saxby</snm>
                   <fnm>TS</fnm>
                </au>
             </aug>
             <source>J Bone Joint Surg Br</source>
             <pubdate>2007</pubdate>
             <volume>89</volume>
             <fpage>919</fpage>
             <lpage>924</lpage>
             <xrefbib>
                <pubidlist>
                   <pubid idtype="doi">10.1302/0301-620X.89B7.18926</pubid>
                   <pubid idtype="pmpid" link="fulltext">17673586</pubid>
                </pubidlist>
             </xrefbib>
          </bibl>
          <bibl id="B6">
             <title>
                <p>Technique and early experience with posterior arthroscopic subtalar arthrodesis</p>
             </title>
             <aug>
                <au>
                   <snm>Amendola</snm>
                   <fnm>A</fnm>
                </au>
                <au>
                   <snm>Lee</snm>
                   <fnm>KB</fnm>
                </au>
                <au>
                   <snm>Saltzman</snm>
                   <fnm>CL</fnm>
                </au>
                <au>
                   <snm>Suh</snm>
                   <fnm>JS</fnm>
                </au>
             </aug>
             <source>Foot Ankle Int</source>
             <pubdate>2007</pubdate>
             <volume>28</volume>
             <fpage>298</fpage>
             <lpage>302</lpage>
             <xrefbib>
                <pubidlist>
                   <pubid idtype="doi">10.3113/FAI.2007.0298</pubid>
                   <pubid idtype="pmpid" link="fulltext">17371652</pubid>
                </pubidlist>
             </xrefbib>
          </bibl>
          <bibl id="B7">
             <title>
                <p>A posterior 3-portal arthroscopic approach for isolated subtalar arthrodesis</p>
             </title>
             <aug>
                <au>
                   <snm>Lee</snm>
                   <fnm>KB</fnm>
                </au>
                <au>
                   <snm>Saltzman</snm>
                   <fnm>CL</fnm>
                </au>
                <au>
                   <snm>Suh</snm>
                   <fnm>JS</fnm>
                </au>
                <au>
                   <snm>Wasserman</snm>
                   <fnm>L</fnm>
                </au>
                <au>
                   <snm>Amendola</snm>
                   <fnm>A</fnm>
                </au>
             </aug>
             <source>Arthroscopy</source>
             <pubdate>2008</pubdate>
             <volume>24</volume>
             <fpage>1306</fpage>
             <lpage>1310</lpage>
             <xrefbib>
                <pubidlist>
                   <pubid idtype="doi">10.1016/j.arthro.2006.01.025</pubid>
                   <pubid idtype="pmpid" link="fulltext">18971064</pubid>
                </pubidlist>
             </xrefbib>
          </bibl>
          <bibl id="B8">
             <title>
                <p>Arthroscopic subtalar arthrodesis for symptomatic osteoarthritis of the hindfoot: a prospective study of 41 cases</p>
             </title>
             <aug>
                <au>
                   <snm>Glanzmann</snm>
                   <fnm>MC</fnm>
                </au>
                <au>
                   <snm>Sanhueza-Hernandez</snm>
                   <fnm>R</fnm>
                </au>
             </aug>
             <source>Foot Ankle Int</source>
             <pubdate>2007</pubdate>
             <volume>28</volume>
             <fpage>2</fpage>
             <lpage>7</lpage>
             <xrefbib>
                <pubidlist>
                   <pubid idtype="doi">10.3113/FAI.2007.0001</pubid>
                   <pubid idtype="pmpid" link="fulltext">17257530</pubid>
                </pubidlist>
             </xrefbib>
          </bibl>
          <bibl id="B9">
             <title>
                <p>Posterior subtalar fusion</p>
             </title>
             <aug>
                <au>
                   <snm>Kalamchi</snm>
                   <fnm>A</fnm>
                </au>
                <au>
                   <snm>Evans</snm>
                   <fnm>JG</fnm>
                </au>
             </aug>
             <source>J Bone Joint Surg Br</source>
             <pubdate>1977</pubdate>
             <volume>59</volume>
             <fpage>287</fpage>
             <lpage>289</lpage>
             <xrefbib>
                <pubidlist>
                   <pubid idtype="pmpid" link="fulltext">330541</pubid>
                </pubidlist>
             </xrefbib>
          </bibl>
          <bibl id="B10">
             <title>
                <p>Fresh-frozen structural allografts in the foot and ankle</p>
             </title>
             <aug>
                <au>
                   <snm>Myerson</snm>
                   <fnm>MS</fnm>
                </au>
                <au>
                   <snm>Neufeld</snm>
                   <fnm>SK</fnm>
                </au>
                <au>
                   <snm>Uribe</snm>
                   <fnm>J</fnm>
                </au>
             </aug>
             <source>J Bone Joint Surg Am</source>
             <pubdate>2005</pubdate>
             <volume>87</volume>
             <fpage>113</fpage>
             <lpage>120</lpage>
             <xrefbib>
                <pubidlist>
                   <pubid idtype="doi">10.2106/JBJS.C.01735</pubid>
                   <pubid idtype="pmpid" link="fulltext">15634821</pubid>
                </pubidlist>
             </xrefbib>
          </bibl>
          <bibl id="B11">
             <title>
                <p>Technique tip: subtalar joint fusion using a parallel guide and double screw fixation</p>
             </title>
             <aug>
                <au>
                   <snm>Scanlan</snm>
                   <fnm>RL</fnm>
                </au>
                <au>
                   <snm>Burns</snm>
                   <fnm>PR</fnm>
                </au>
                <au>
                   <snm>Crim</snm>
                   <fnm>BE</fnm>
                </au>
             </aug>
             <source>J Foot Ankle Surg</source>
             <pubdate>2010</pubdate>
             <volume>49</volume>
             <fpage>305</fpage>
             <lpage>309</lpage>
             <xrefbib>
                <pubidlist>
                   <pubid idtype="doi">10.1053/j.jfas.2010.02.017</pubid>
                   <pubid idtype="pmpid" link="fulltext">20356768</pubid>
                </pubidlist>
             </xrefbib>
          </bibl>
          <bibl id="B12">
             <title>
                <p>Arthroscopic subtalar fusion for post-traumatic subtalar arthritis</p>
             </title>
             <aug>
                <au>
                   <snm>El Shazly</snm>
                   <fnm>O</fnm>
                </au>
                <au>
                   <snm>Nassar</snm>
                   <fnm>W</fnm>
                </au>
                <au>
                   <snm>El Badrawy</snm>
                   <fnm>A</fnm>
                </au>
             </aug>
             <source>Arthroscopy</source>
             <pubdate>2009</pubdate>
             <volume>25</volume>
             <fpage>783</fpage>
             <lpage>787</lpage>
             <xrefbib>
                <pubidlist>
                   <pubid idtype="doi">10.1016/j.arthro.2008.12.017</pubid>
                   <pubid idtype="pmpid" link="fulltext">19560643</pubid>
                </pubidlist>
             </xrefbib>
          </bibl>
          <bibl id="B13">
             <title>
                <p>Ultrasound of the sural nerve: normal anatomy on cadaveric dissection and case series</p>
             </title>
             <aug>
                <au>
                   <snm>Belsack</snm>
                   <fnm>D</fnm>
                </au>
                <au>
                   <snm>Jager</snm>
                   <fnm>T</fnm>
                </au>
                <au>
                   <snm>Scafoglieri</snm>
                   <fnm>A</fnm>
                </au>
                <au>
                   <snm>Vanderdood</snm>
                   <fnm>K</fnm>
                </au>
                <au>
                   <snm>Van Hedent</snm>
                   <fnm>E</fnm>
                </au>
                <au>
                   <snm>Vanhoenacker</snm>
                   <fnm>F</fnm>
                </au>
                <au>
                   <snm>Marcelis</snm>
                   <fnm>S</fnm>
                </au>
                <au>
                   <snm>De Maeseneer</snm>
                   <fnm>M</fnm>
                </au>
             </aug>
             <source>Eur J Radiol</source>
             <pubdate>2013</pubdate>
             <volume>82</volume>
             <fpage>1953</fpage>
             <lpage>1958</lpage>
             <xrefbib>
                <pubidlist>
                   <pubid idtype="doi">10.1016/j.ejrad.2013.05.014</pubid>
                   <pubid idtype="pmpid" link="fulltext">23809918</pubid>
                </pubidlist>
             </xrefbib>
          </bibl>
          <bibl id="B14">
             <title>
                <p>Isolated medial incisional approach to subtalar and talonavicular arthrodesis</p>
             </title>
             <aug>
                <au>
                   <snm>Weinraub</snm>
                   <fnm>GM</fnm>
                </au>
                <au>
                   <snm>Schuberth</snm>
                   <fnm>JM</fnm>
                </au>
                <au>
                   <snm>Lee</snm>
                   <fnm>M</fnm>
                </au>
                <au>
                   <snm>Rush</snm>
                   <fnm>S</fnm>
                </au>
                <au>
                   <snm>Ford</snm>
                   <fnm>L</fnm>
                </au>
                <au>
                   <snm>Neufeld</snm>
                   <fnm>J</fnm>
                </au>
                <au>
                   <snm>Yu</snm>
                   <fnm>J</fnm>
                </au>
             </aug>
             <source>J Foot Ankle Surg</source>
             <pubdate>2010</pubdate>
             <volume>49</volume>
             <fpage>326</fpage>
             <lpage>330</lpage>
             <xrefbib>
                <pubidlist>
                   <pubid idtype="doi">10.1053/j.jfas.2010.04.015</pubid>
                   <pubid idtype="pmpid" link="fulltext">20610201</pubid>
                </pubidlist>
             </xrefbib>
          </bibl>
          <bibl id="B15">
             <title>
                <p>A 2-screw fixation technique for subtalar joint fusion: a retrospective case series using a 2-screw fixation construct with operative pearls</p>
             </title>
             <aug>
                <au>
                   <snm>Boffeli</snm>
                   <fnm>TJ</fnm>
                </au>
                <au>
                   <snm>Reinking</snm>
                   <fnm>RR</fnm>
                </au>
             </aug>
             <source>J Foot Ankle Surg</source>
             <pubdate>2012</pubdate>
             <volume>51</volume>
             <issue>6</issue>
             <fpage>734</fpage>
             <lpage>738</lpage>
             <xrefbib>
                <pubidlist>
                   <pubid idtype="doi">10.1053/j.jfas.2012.06.007</pubid>
                   <pubid idtype="pmpid" link="fulltext">22831782</pubid>
                </pubidlist>
             </xrefbib>
          </bibl>
          <bibl id="B16">
             <title>
                <p>Posterior bone block distraction arthrodesis of the subtalar joint: a review of 22 cases</p>
             </title>
             <aug>
                <au>
                   <snm>Pollard</snm>
                   <fnm>JD</fnm>
                </au>
                <au>
                   <snm>Schuberth</snm>
                   <fnm>JM</fnm>
                </au>
             </aug>
             <source>J Foot Ankle Surg</source>
             <pubdate>2008</pubdate>
             <volume>47</volume>
             <issue>3</issue>
             <fpage>191</fpage>
             <lpage>198</lpage>
             <xrefbib>
                <pubidlist>
                   <pubid idtype="doi">10.1053/j.jfas.2008.01.003</pubid>
                   <pubid idtype="pmpid" link="fulltext">18455664</pubid>
                </pubidlist>
             </xrefbib>
          </bibl>
          <bibl id="B17">
             <title>
                <p>D<b>istraction arthrodesis of the subtalar joint using allogeneic bone graft: a review of 15 cases</b> 
                </p>
             </title>
             <aug>
                <au>
                   <snm>Lee</snm>
                   <fnm>MS</fnm>
                </au>
                <au>
                   <snm>Valerie</snm>
                   <fnm>T</fnm>
                </au>
             </aug>
             <source>J Foot Ankle Surg</source>
             <pubdate>2010</pubdate>
             <volume>49</volume>
             <fpage>369</fpage>
             <lpage>374</lpage>
             <xrefbib>
                <pubidlist>
                   <pubid idtype="doi">10.1053/j.jfas.2010.03.001</pubid>
                   <pubid idtype="pmpid" link="fulltext">20462774</pubid>
                </pubidlist>
             </xrefbib>
          </bibl>
       </refgrp>
    </bm>
 </art>
