<art>
    <ui>s12896-014-0088-6</ui>
    <ji>1472-6750</ji>
    <fm>
       <dochead>Research article</dochead>
       <bibl>
          <title>
             <p>Improvement of an antibody-enzyme coupling yield by enzyme surface supercharging</p>
          </title>
          <aug>
             <au id="A1">
                <snm>Prasse</snm>
                <mi>A</mi>
                <fnm>Agneta</fnm>
                <insr iid="I1"/>
                <email>agneta.prasse@uni-leipzig.de</email>
             </au>
             <au id="A2">
                <snm>Zauner</snm>
                <fnm>Thomas</fnm>
                <insr iid="I1"/>
                <email>T.Zauner@wolfener-analytik.de</email>
             </au>
             <au id="A3">
                <snm>B&#252;ttner</snm>
                <fnm>Karin</fnm>
                <insr iid="I1"/>
                <email>karin.buettner@uni-leipzig.de</email>
             </au>
             <au id="A4">
                <snm>Hoffmann</snm>
                <fnm>Ralf</fnm>
                <insr iid="I1"/>
                <email>hoffmann@chemie.uni-leipzig.de</email>
             </au>
             <au id="A5" ca="yes">
                <snm>Zuchner</snm>
                <fnm>Thole</fnm>
                <insr iid="I1"/>
                <insr iid="I2"/>
                <email>Thole.Zuechner@octapharma.com</email>
             </au>
          </aug>
          <insg>
             <ins id="I1">
                <p>Institute of Bioanalytical Chemistry, Faculty of Chemistry and Mineralogy and Centre of Biotechnology and Biomedicine, Universit&#228;t Leipzig, Deutscher Platz 5, Leipzig, 04103, Germany</p>
             </ins>
             <ins id="I2">
                <p>Current address: Octapharma Biopharmaceuticals GmbH, Im Neuenheimer Feld 590, Heidelberg, 69120, Germany</p>
             </ins>
          </insg>
          <source>BMC Biotechnology</source>
          <section>
             <title>
                <p>Protein and enzyme technology</p>
             </title>
          </section>
          <issn>1472-6750</issn>
          <pubdate>2014</pubdate>
          <volume>14</volume>
          <issue>1</issue>
          <fpage>88</fpage>
          <url>http://www.biomedcentral.com/1472-6750/14/88</url>
          <xrefbib>
             <pubidlist>
                <pubid idtype="doi">10.1186/s12896-014-0088-6</pubid>
                <pubid idtype="pmpid"><!-- Need to check source for data--></pubid>
             </pubidlist>
          </xrefbib>
       </bibl>
       <history>
          <rec>
             <date>
                <day>3</day>
                <month>6</month>
                <year>2014</year>
             </date>
          </rec>
          <acc>
             <date>
                <day>6</day>
                <month>10</month>
                <year>2014</year>
             </date>
          </acc>
          <pub>
             <date>
                <day>18</day>
                <month>10</month>
                <year>2014</year>
             </date>
          </pub>
       </history>
       <cpyrt>
          <year>2014</year>
          <collab>Prasse et al.; licensee BioMed Central Ltd.</collab>
          <note>This is an Open Access article distributed under the terms of the Creative Commons Attribution License (<url>http://creativecommons.org/licenses/by/4.0</url>), which permits unrestricted use, distribution, and reproduction in any medium, provided the original work is properly credited. The Creative Commons Public Domain Dedication waiver (<url>http://creativecommons.org/publicdomain/zero/1.0/</url>) applies to the data made available in this article, unless otherwise stated.</note>
       </cpyrt>
       <kwdg>
          <kwd>ELISA</kwd>
          <kwd>Human enteropeptidase light chain</kwd>
          <kwd>Protein-protein coupling</kwd>
          <kwd>Surface supercharging</kwd>
       </kwdg>
       <abs>
          <sec>
             <st>
                <p>Abstract</p>
             </st>
             <sec>
                <st>
                   <p>Background</p>
                </st>
                <p>Protein cross-coupling reactions demand high yields, especially if the products are intended for bioanalytics, like enzyme-linked immunosorbent assays. Amongst other factors, the coupling yield depends on the concentration of the proteins being used for coupling. Protein supercharging of enzymes can increase the solubility dramatically, which could promote enzyme-antibody coupling reactions. A highly soluble, supercharged variant of the enzyme human enteropeptidase light chain was created by a site-directed mutagenesis of surface amino acids, used for the production of an antibody-enzyme conjugate and compared to the wild type enzyme.</p>
             </sec>
             <sec>
                <st>
                   <p>Results</p>
                </st>
                <p>Wild type and mutant enzyme could successfully be cross-coupled to an antibody to give antibody-enzyme conjugates suitable for ELISA. Their assay performances and the analysis of the enzyme activities in solution demonstrate that the supercharged version could be coupled to a higher extent, which resulted in better assay sensitivities. The generated conjugate, based on the supercharged enzyme, was feasible as a reporter molecule in a sandwich ELISA and allowed the detection of epidermal growth factor with a detection limit of 15.63&#160;pg (25 pmol/L).</p>
             </sec>
             <sec>
                <st>
                   <p>Conclusion</p>
                </st>
                <p>The highly soluble, surface supercharged, human enteropeptidase light chain mutant provided better yields in coupling the enzyme to an antibody than the wild type. This is most likely related to the higher protein concentration during the coupling. The data suggest that supercharging can be applied favourably to other proteins which have to be covalently linked to other polymers or surfaces with high yields without losses in enzyme activity or specificity.</p>
             </sec>
          </sec>
       </abs>
    </fm>
    <bdy>
       <sec>
          <st>
             <p>1
 						Background</p>
          </st>
          <p>The extraordinary feature of enzymes to catalyze reactions with a high selectivity is utilized in a broad field of applications, including the paper-, food- and pharmaceutical industry <abbrgrp>
                <abbr bid="B1">1</abbr>
             </abbrgrp>. Besides this, enzymes are used as bioanalytical tools, such as in biosensors or as amplifying agents in immunoassays. One prominent application is the enzyme-linked immunosorbent assay (ELISA), where an antibody-enzyme conjugate is used for the detection and quantification of analytes. Due to its compatibility to complex samples, this approach became a method of high significance in routine analysis and research <abbrgrp>
                <abbr bid="B2">2</abbr>
             </abbrgrp>. Most applications have in common, that the enzyme has to be immobilized. Whilst adsorption, entrapment and covalent-cross coupling procedures are feasible for continuous flow-through processes in industry <abbrgrp>
                <abbr bid="B3">3</abbr>
             </abbrgrp>, the latter is essential for the production of ELISA conjugates. The application in this type of immunoassay requires a synthesis protocol which ideally results in a conjugate with an enzyme:antibody ratio of at least 1:1, without causing side-products and, more importantly, remaining unconjugated antibody <abbrgrp>
                <abbr bid="B4">4</abbr>
             </abbrgrp>.</p>
          <p>Different coupling strategies have been developed, especially for the popular reporter enzymes horseradish peroxidase, alkaline phosphatase and &#946;-galactosidase. The coupling reaction for the first enzyme-antibody conjugate applied in ELISA was based on the homobifunctional linker glutaraldehyde <abbrgrp>
                <abbr bid="B5">5</abbr>
             </abbrgrp>,<abbrgrp>
                <abbr bid="B6">6</abbr>
             </abbrgrp>. Although the resulting enzyme-protein complex partially retains its enzymatic activity and immunological specificity, it suffers from the formation of inactive homo-conjugates and polymers <abbrgrp>
                <abbr bid="B4">4</abbr>
             </abbrgrp>. Thus, heterobifunctional linker molecules have been developed, which can react to two different functional groups, such as amino groups, <it>cis</it>-hydroxyl-groups in carbohydrates and thiol groups. As the coupling efficiency is also dependent on the amount of coupling sites on the proteins <abbrgrp>
                <abbr bid="B7">7</abbr>
             </abbrgrp>, the modification should occur to a large extend. Additionally, high concentrations of proteins will result in higher yields of coupling product, since diffusion- and orientation-controlled ligation processes become more likely. Although the commonly used enzymes in ELISA allow a satisfactory performance for most applications, the adoption of other enzymes might be interesting in terms of substrate diversity and sensitivity.</p>
          <p>In 2007, Lawrence <it>et al.</it> presented a method to decrease protein aggregation tendencies by specific mutations of residues on protein surfaces. This specific replacement of surface amino acids with either acidic or basic amino acids was termed <it>supercharging</it>, as the net charge of the mutants were more positive or negative <abbrgrp>
                <abbr bid="B8">8</abbr>
             </abbrgrp>. Supercharged proteins have been engineered to overcome limitations of macromolecule delivery into mammalian cells <abbrgrp>
                <abbr bid="B9">9</abbr>
             </abbrgrp> and to increase thermal stability of antibody fragments <abbrgrp>
                <abbr bid="B10">10</abbr>
             </abbrgrp>. This strategy might also be useful to improve the yield of protein-protein coupling reactions, especially the linking of enzymes to antibodies for immunological applications.</p>
          <p>We adapted supercharging to the light chain of the human enteropeptidase in an earlier study and the resulting mutant, hEPl scC112S (N6D, G21D, G22D, C112S, N141D, K209E), showed a superior solubility and heat stability <abbrgrp>
                <abbr bid="B11">11</abbr>
             </abbrgrp>. Here, we investigated the impact of enzyme supercharging on chemical crosslinking as exemplified for an antibody-enzyme conjugate. Therefore, hEPl scC112S and its wild type variant (hEPl wt) were conjugated to a secondary antibody and compared with respect to their assay performance.</p>
       </sec>
       <sec>
          <st>
             <p>2
 						Methods</p>
          </st>
          <sec>
             <st>
                <p>2.1 Reagents</p>
             </st>
             <p>Enzymes (hEPl wt and hEPl scC112S) were expressed, refolded and purified in-house <abbrgrp>
                   <abbr bid="B11">11</abbr>
                </abbrgrp>. Polyclonal sheep-anti-mouse and donkey-anti-rabbit antibodies were from Dianova (Hamburg, Germany), monoclonal mouse-anti-EGF, EGF protein and polyclonal rabbit-anti-EGF were from Abcam (Cambridge, UK). Citric acid and Tween&#174;20 were from Serva Electrophoresis (Heidelberg, Germany), Tris(hydroxymethyl)-aminomethan was from Applichem (Darmstadt, Germany). C<sub>6</sub>-Succinimidyl-4-formylbenzoate and C<sub>6</sub>-Succinimidyl-4-hydrazinonicotinate acetone hydrazone were from Acris Antibodies (Herford, Germany). Sodium chloride, hydrochlorid acid (conc.), Na<sub>2</sub>HPO<sub>4</sub>x12H<sub>2</sub>O, KH<sub>2</sub>PO<sub>4</sub>, GD<sub>4</sub>K-na and DMSO were purchased from Sigma-Aldrich (Taufkirchen, Germany) in the highest purities available. Roti&#174;-Block was ordered from Roth (Karlsruhe, Germany). Bovine serum albumin standard was from Thermo Fisher Scientific (Rockford, USA). Deionized water was obtained from a Purelab Ultra water purification system (ELGA LabWater, Celle, Germany; 18.2 M&#937;*cm).</p>
          </sec>
          <sec>
             <st>
                <p>2.2 Antibody-enzyme coupling</p>
             </st>
             <p>A 1.5-fold molar excess of enzyme (hEPl wt: 90&#160;&#956;g/mL or hEPl scC112S: 440&#160;&#956;g/mL) was coupled to a sheep-anti-mouse antibody (2.4&#160;g/L) after dialysing the proteins against modification buffer (0.1&#160;mol/L phosphate buffer, 0.15&#160;mol/L NaCl, pH&#160;8.0) separately for 16&#160;hours at 4&#176;C using a 12&#160;kDa cut-off dialysis tube (Sigma-Aldrich). Afterwards, the antibody was mixed with 40 equivalents of C<sub>6</sub>-succinimidyl-4-formylbenzoate (9&#160;g/L in DMF), while enzymes have been modified with 40 equivalents of C<sub>6</sub>-succinimidyl-4-hydrazinonicotinate acetone hydrazone (5.2&#160;g/L in DMF). The reaction mixtures were incubated at room temperature for 3&#160;hours and excess linker molecules were removed by dialysis against conjugation buffer (0.1&#160;mol/L citric acid, 0.15&#160;mol/L NaCl, pH&#160;6.0) at 4&#176;C. Antibody and enzyme solution were mixed and incubated at 4&#176;C. After 20&#160;hours, protein concentrations were determined using a Bradford assay according to standard protocols with bovine serum albumin as standard <abbrgrp>
                   <abbr bid="B12">12</abbr>
                </abbrgrp>. The solutions were used without further treatment.</p>
             <p>The ELISA-conjugate was obtained by increasing the concentration of hEPl scC112S from 0.242&#160;g/L to 3.6&#160;g/L by lyophilisation from 5&#160;mmol/L Tris-buffer (pH&#160;8.0) and subsequent resolubilization of the enzyme in water. Coupling was performed as described above, using a donkey-anti-rabbit antibody (1.2&#160;g/L) and a 10-fold molar excess of enzyme.</p>
          </sec>
          <sec>
             <st>
                <p>2.3 Enzyme assay</p>
             </st>
             <p>Kinetic characterization of the enzymes was performed in a 0.1&#160;mol/L Tris&#8211;HCl buffer (pH&#160;8.0, 10% DMSO) at room temperature using black 384-well plates (non-binding, Greiner Bio-one, Frickenhausen, Germany). GD<sub>4</sub>K-na in concentrations varying from 3.7 to 947&#160;&#956;mol/L was cleaved by addition of hEPl wt and hEPl scC112S (final concentration 10&#160;nmol/L). The linear increase of released 2-naphthylamine was recorded on a Paradigm fluorescence reader (Molecular Devices, Ismaning, Germany) using a fluorescence cartridge (&#955;<sub>ex</sub>&#8201;=&#8201;360/35&#160;nm; &#955;<sub>em</sub>&#8201;=&#8201;465/35&#160;nm; integration time 140&#160;ms). All experiments were performed in triplicates.</p>
          </sec>
          <sec>
             <st>
                <p>2.4 Enzyme-linked immunosorbent assay (ELISA)</p>
             </st>
             <p>ELISA experiments were performed in black 384-well microtitre plates (high-binding, Greiner Bio-one, Frickenhausen, Germany) with an assay volume of 100&#160;&#956;L. All experiments were performed in triplicates.</p>
             <p>Initial testing of the conjugate yield derived from the coupling with 1.5 equivalents hEPl wt or hEPl scC112S was determined using an affinity test. 100&#160;&#956;L of an in-house produced monoclonal antibody (HPT-104 <abbrgrp>
                   <abbr bid="B13">13</abbr>
                </abbrgrp>, 2.25&#160;&#956;g/mL) were incubated at 4&#176;C for 16&#160;hours. After a threefold washing step using 200&#160;&#956;L washing buffer (phosphate buffered saline, 10&#160;mmol/L phosphate, 0.3&#160;mol/L NaCl, pH&#160;7.4, 0.05% (v/v) Tween&#174;20), free binding sites were blocked with 120&#160;&#956;L blocking buffer (0.5% (w/v) casein in washing buffer). After a further washing step, conjugate solutions were added with a total protein concentration of 2&#160;&#956;g/mL and incubated. After removal of unbound components by washing, signals were generated by addition of 50&#160;&#956;mol/L GD<sub>4</sub>K-na in assay buffer (0.1&#160;mol/L Tris&#8211;HCl, pH&#160;8.0, 10% DMSO) and the fluorescence was monitored at 465&#160;nm after excitation at 360&#160;nm.</p>
             <p>The microtitre plate for the EGF sandwich ELISA was coated with monoclonal mouse-anti-EGF antibody by incubating the solution (100&#160;&#956;L, 1&#160;mg/L) at 4&#176;C for 16&#160;hours. After washing, blocking was performed with 120&#160;&#956;L Roti&#174;-Block and the plate was washed again before the addition of a four-fold serial dilution of EGF (10&#160;ng/mL to 39.1&#160;pg/mL) in <it>E. coli</it> cell lysate (protein concentration 6&#160;mg/L). After incubation for 1&#160;hour and washing, 100&#160;&#956;L of a polyclonal rabbit-anti-EGF antibody (250&#160;ng/mL) was added. Subsequently, the plate was washed and 100&#160;&#956;L of the diluted (1:1000) antibody-enzyme conjugate was incubated for one hour. After washing, 50 &#956;mol/L GD<sub>4</sub>K-na (in 0.1 mol/L Tris&#8211;HCl, pH 8.0, 10% DMSO) was added for signal development. End-point measurement was performed 4&#160;hours after incubation at 37&#176;C with &#955;<sub>ex</sub>&#8201;=&#8201;360&#160;nm and &#955;<sub>em</sub>&#8201;=&#8201;465&#160;nm. All experiments were performed in triplicates.</p>
          </sec>
       </sec>
       <sec>
          <st>
             <p>3
 						Results</p>
          </st>
          <p>Low reaction volumes are favoured for antibody-enzyme coupling reactions to obtain high coupling yields. Hence<it>,</it> proteins with high solubility are favoured for coupling<it>.</it> We therefore investigated, if the method of protein supercharging can produce mutants that are more suitable for coupling reactions compared to their wild type enzymes using human enteropeptidase light chain (hEPl) as a model enzyme (Figure&#160;<figr fid="F1">1</figr>). The light chain of the enteropeptidase holoenzyme, a 26&#160;kDa enzyme-fragment, contains the catalytic triade and is therefore sufficient for most enzymatic applications. In an earlier study, a rational design of a mutant with a high surface charge (N6D, G21D, G22D, C112S, N141D, K209E) resulted in a more than 100-fold increase in enzyme solubility <abbrgrp>
                <abbr bid="B11">11</abbr>
             </abbrgrp>, which should affect the coupling reaction positively.</p>
          
             <fig id="F1">
                <title>
                   <p>Figure 1</p>
                </title>
                <caption>
                   <p>Schematic principle of the improvement of a protein-protein coupling reaction by enzyme surface supercharging.</p>
                </caption>
                <text>
                   <p>
                      <b>Schematic principle of the improvement of a protein-protein coupling reaction by enzyme surface supercharging.</b> A high volume of wild type enzyme of the human enteropeptidase light chain is required due to its low solubility, resulting in a high total reaction volume and low yield of coupling product <b>(A)</b>. Highly soluble surface supercharged human enteropeptidase light chain permits an increase of the enzyme concentration prior to the coupling process <b>(B)</b>. Therefore the total reaction volume can be reduced to give a higher yield of desired product (antibody-enzyme conjugate).</p>
                </text>
                <graphic file="s12896-014-0088-6-1"/>
             </fig>
          
          <p>As a first step for the characterization of the enzyme, the kinetic parameters of the wild type and mutated enzyme were determined (Table&#160;<tblr tid="T1">1</tblr> and Additional file <supplr sid="S1">1</supplr>). GD<sub>4</sub>K-na was chosen as a specific substrate, because its cleavage can be detected with high sensitivity (&#955;<sub>ex</sub> = 360&#160;nm, &#955;<sub>em</sub> = 465&#160;nm). The data indicate that the mutation of the enzyme resulted in a slightly decreased affinity towards the substrate, as the Michaelis constant <it>K</it>
             <sub>m</sub> was increased from 0.11&#160;mmol/L (hEPl wt) to 0.65&#160;mmol/L for hEPl scC112S. The insertion of aspartic acid and glutamic acid in the mutant decreased the net charge of the enzyme by a difference of 6. This could result in electrostatic repulsion between enzyme surface and the tetra-aspartyl-motif of the substrate, and could be an explanation for the slightly lower substrate affinity of the supercharged enzyme hEPl scC112S. On the other hand, the mutant enzyme possesses an increased turnover number for GD<sub>4</sub>K-na, which confirms the data obtained in earlier studies for another substrate, Z-Lys-SBzl <abbrgrp>
                <abbr bid="B11">11</abbr>
             </abbrgrp>. This means that at high concentrations of substrate (&gt;1&#160;mmol/L), the mutated variant hEPl scC112S would result in a faster signal increase upon digestion than the wild type enzyme.</p>
             <table id="T1">
                <title>
                   <p>Table 1</p>
                </title>
                <caption>
                   <p>
                      <b>Kinetic parameters for the digestion of GD</b>
                      <sub>
                         <b>4</b>
                      </sub>
                      <b>K-na by hEPl wt and hEPl scC112S</b>
                   </p>
                </caption>
                <tgroup align="left" cols="5">
                   <colspec align="left" colname="c1" colnum="1" colwidth="*"/>
                   <colspec align="left" colname="c2" colnum="2" colwidth="*"/>
                   <colspec align="left" colname="c3" colnum="3" colwidth="*"/>
                   <colspec align="left" colname="c4" colnum="4" colwidth="*"/>
                   <colspec align="left" colname="c5" colnum="5" colwidth="*"/>
                   <thead>
                      <row valign="top">
                         <entry colname="c1">
                            <p>
                               <b>Enteropeptidase</b>
                            </p>
                         </entry>
                         <entry colname="c2">
                            <p>
                               <b>
                                  <it>K</it>
                               </b>
                               <sub>
                                  <b>m</b>
                               </sub>
                               <b>[mmol/L]</b>
                            </p>
                         </entry>
                         <entry colname="c3">
                            <p>
                               <b>
                                  <it>k</it>
                               </b>
                               <sub>
                                  <b>cat</b>
                               </sub>
                               <b>[s</b>
                               <sup>
                                  <b>&#8722;1</b>
                               </sup>
                               <b>]</b>
                            </p>
                         </entry>
                         <entry colname="c4">
                            <p>
                               <b>
                                  <it>k</it>
                               </b>
                               <sub>
                                  <b>cat</b>
                               </sub>
                               <b>/</b>
                               <b>
                                  <it>K</it>
                               </b>
                               <sub>
                                  <b>m</b>
                               </sub>
                               <b>[(mmol/L)</b>
                               <sup>
                                  <b>&#8722;1</b>
                               </sup>&#8201;
                                           <b>s</b>
                               <sup>
                                  <b>&#8722;1</b>
                               </sup>
                               <b>]</b>
                            </p>
                         </entry>
                         <entry colname="c5">
                            <p>
                               <b>Ref.</b>
                            </p>
                         </entry>
                      </row>
                   </thead>
                   <tbody>
                      <row valign="top">
                         <entry colname="c1">
                            <p>hEPl wt</p>
                         </entry>
                         <entry colname="c2">
                            <p>0.11&#8201;&#177;&#8201;0.01</p>
                         </entry>
                         <entry colname="c3">
                            <p>81.9&#8201;&#177;&#8201;9.8</p>
                         </entry>
                         <entry colname="c4">
                            <p>745</p>
                         </entry>
                         <entry colname="c5">
                            <p>This study</p>
                         </entry>
                      </row>
                      <row valign="top">
                         <entry colname="c1">
                            <p>hEPl scC112S</p>
                         </entry>
                         <entry colname="c2">
                            <p>0.65&#8201;&#177;&#8201;0.09</p>
                         </entry>
                         <entry colname="c3">
                            <p>169.3&#8201;&#177;&#8201;24.5</p>
                         </entry>
                         <entry colname="c4">
                            <p>260</p>
                         </entry>
                         <entry colname="c5">
                            <p>This study</p>
                         </entry>
                      </row>
                      <row valign="top">
                         <entry colname="c1">
                            <p>Human recombinant light chain</p>
                         </entry>
                         <entry colname="c2">
                            <p>0.16&#8201;&#177;&#8201;0.01</p>
                         </entry>
                         <entry colname="c3">
                            <p>115&#8201;&#177;&#8201;5</p>
                         </entry>
                         <entry colname="c4">
                            <p>719</p>
                         </entry>
                         <entry colname="c5">
                            <p>
                               <abbrgrp>
                                  <abbr bid="B14">14</abbr>
                               </abbrgrp>
                            </p>
                         </entry>
                      </row>
                   </tbody>
                </tgroup>
             </table>
          
          <p>In order to analyze the coupling efficiencies of the two enzymes, both enzymes were coupled to a secondary antibody under the same coupling conditions and an ELISA experiment was carried out. Both enzyme conjugates led to signals that differed distinctly from the negative control. The signal increase for the supercharged conjugate (Ab-hEPl scC112S) was significantly higher than that for the wild type conjugate (Ab-hEPl wt) (Figure&#160;<figr fid="F2">2</figr>). While Ab-hEPl scC112S induced a signal increase of 15758 fluorescence intensity units per minute, application of the wild type conjugate resulted in a signal increase of only 2611 fluorescence intensity units per minute.</p>
          
             <fig id="F2">
                <title>
                   <p>Figure 2</p>
                </title>
                <caption>
                   <p>Assay performances of hEPl wt and hEPl scC112S conjugate solutions.</p>
                </caption>
                <text>
                   <p>
                      <b>Assay performances of hEPl wt and hEPl scC112S conjugate solutions.</b> Detection of an immobilized model antigen (HPT-104 antibody <abbrgrp>
                         <abbr bid="B13">13</abbr>
                      </abbrgrp>) was performed using 2&#160;&#956;g/mL total protein of untreated conjugate solution. After incubation and washing, signal was generated by addition of 50&#160;&#956;mol/L GD<sub>4</sub>K-na and monitored for 100&#160;minutes. Errors&#8201;=&#8201;SD, n&#8201;=&#8201;3.</p>
                </text>
                <graphic file="s12896-014-0088-6-2"/>
             </fig>
          
          <p>This indicates a higher yield of supercharged enzyme-antibody conjugate. Control experiments without antigen did not show any signal differing from the negative control (Additional file <supplr sid="S2">2</supplr>). As the used substrate concentration for the ELISA experiment in this study is much lower (50&#160;&#956;mol/L) than the concentration needed to reach v<sub>max</sub> (1&#160;mmol/L), the faster cleavage in the ELISA obtained here can only origin from a higher amount of enzyme-antibody conjugates.</p><p>This demonstrates that the application of enzyme supercharging generated a highly soluble mutant, which is more suitable for coupling processes than its wild type form. Unfortunately, we were not able to further confirm this result via native or denaturing SDS-PAGE or Western Blot. Both methods did not show clear bands that could be used for a quantification of the coupling product (data not shown).</p>
          <p>To further investigate possible bioanalytical applications of the synthesized conjugate, a coupling reaction with a 10-fold molar excess of enzyme (hEPl scC112S) was performed. The product was then utilized as a reporter molecule for the detection of epidermal growth factor (EGF). EGF is a low-molecular-weight polypeptide which affects many biochemical pathways by binding to its receptor and can be used as a cancer biomarker <abbrgrp>
                <abbr bid="B15">15</abbr>
             </abbrgrp>. EGF was diluted in a complex mixture (<it>E. coli</it> cell lysate, 6&#160;mg/L) and detected in a standard sandwich ELISA using two specific antibodies and the synthesized antibody conjugate (Ab-hEPl scC112S) was added for detection. The observed signals after addition of the peptide substrate GD<sub>4</sub>K-na were dependent on the amount of analyte present and permitted a detection of EGF down to 15.6&#160;pg (Figure&#160;<figr fid="F3">3</figr>). This indicates that the hEPl scC112S mutant can be used as a reporter molecule in ELISA, while the wild type enzyme is not suitable for this application. This originates from the low solubility of the wild type which does not allow a high-yielding coupling protocol. In contrast to this, the supercharging surface modification of the enzyme results in an increased protein solubility as well as heat stability, which subsequently lead to higher yields of the desired antibody-enzyme conjugate.</p>
          
             <fig id="F3">
                <title>
                   <p>Figure 3</p>
                </title>
                <caption>
                   <p>Use of a hEPl scC112S-antibody conjugate for the detection of EGF.</p>
                </caption>
                <text>
                   <p>
                      <b>Use of a hEPl scC112S-antibody conjugate for the detection of EGF.</b> Epidermal growth factor (in <it>E. coli</it> cell lysate as matrix) was detected using a sandwich ELISA and an in-house produced donkey-anti-rabbit/hEPl scC112S conjugate as secondary antibody. Signal was generated by addition of 50&#160;&#956;mol/L GD<sub>4</sub>K-na and an end-point measurement was performed after 4&#160;hours of incubation at 37&#176;C. The limit of detection (S/B &gt;3xSD) was 15.63&#160;pg EGF. Errors&#8201;=&#8201;SD, n&#8201;=&#8201;3.</p>
                </text>
                <graphic file="s12896-014-0088-6-3"/>
             </fig>
          
       </sec>
       <sec>
          <st>
             <p>4
 						Discussion</p>
          </st>
          <p>Enzymes, like the serine protease enteropeptidase examined in this study, are widely used tools in biotechnology, industry and bioanalytics due to their catalytic function and their high specificity. However, many applications require the immobilization of these proteins on insoluble surfaces or on other biomolecules, such as other proteins. A very prominent example for enzyme-protein couplings are enzyme-antibody couplings and their subsequent use in enzyme immunoassays. As discussed earlier, various methods for enzyme-antibody couplings exist. However, the central problem of unsatisfactory protein solubility affects all of those coupling methods in a negative way.</p>
          <p>One way to improve protein solubility is to optimize the buffer components of the coupling buffer by applying different ionic compounds or osmolytic stabilizers like sugars and polymers <abbrgrp>
                <abbr bid="B16">16</abbr>
             </abbrgrp>. However, proteins are very sensitive to these conditions and slight modifications can cause protein precipitation, a loss in enzyme activity or antibody affinity. Other methods for the improvement of protein solubility exist, though they are not always suitable for the described problem. In 2009 Golovanov <it>et al</it>. showed, that protein solubility can be increased by a simple addition of charged amino acids. Addition of arginine and glutamic acid made several proteins accessible to NMR-studies by suppression of their aggregation tendencies <abbrgrp>
                <abbr bid="B17">17</abbr>
             </abbrgrp>. Nevertheless, this method may not be suitable for protein-protein coupling reactions, since the additives possess the same reactive moieties as the proteins (e.g. amino groups). In case of protein modification with commonly used NHS-ester based linker molecules, linker reactivity would be quenched, as the reaction cannot occur specifically with the protein. This would decrease the protein modification degree and impact the overall coupling process negatively.</p>
          <p>Also the introduction of a solubility-enhancement tag, as described in Lee <it>et al</it>. <abbrgrp>
                <abbr bid="B18">18</abbr>
             </abbrgrp> and Zhou <it>et al</it>. <abbrgrp>
                <abbr bid="B19">19</abbr>
             </abbrgrp> may have undesired effects, because it might alter the enzyme&#8217;s activity and selectivity. In principle, a mutation of surface amino acids of proteins can of course also lead to undesired side-effects. However, a careful design of suitable amino acids can leave the enzyme unaffected. This has been shown by us before for the mutation of surface amino acids of the human enteropeptidase light chain by site-directed mutagenesis <abbrgrp>
                <abbr bid="B11">11</abbr>
             </abbrgrp>.</p>
          <p>Site-directed mutagenesis was found not only to be a tool for tailoring enzyme activity and stability, but also to improve immobilization reactions. Methods were reviewed in detail before and are for example based on the production of mutants that were capable of site-directed immobilization via specific tags <abbrgrp>
                <abbr bid="B20">20</abbr>
             </abbrgrp>,<abbrgrp>
                <abbr bid="B21">21</abbr>
             </abbrgrp>. Such methods include the incorporation of particular amino acid sequences for affinity fixation (anti-tag antibody to tagged enzyme, avidin to biotinylated protein) or the addition of a Lys-containing tags for the covalent linkage via transglutaminase cross-coupling.</p>
          <p>Coupling procedures for the synthesis of antibody-enzyme conjugates require particularly high yields, since any unlabeled antibody fraction decreases the assay sensitivity, especially because it is difficult to purify the resulting coupling product from unmodified antibody. In addition to that, the preparation of highly pure and active enzymes is enormously laborious, which makes them an expensive material. Therefore high coupling yields are desired not only in terms of assay performance, but also with regard to material costs.</p>
          <p>In this study, we were able to demonstrate that site-directed mutagenesis can be used to optimize coupling reactions due to an enhancement of the protein solubility. For that purpose, we tested the potential of a supercharged version of human enteropeptidase light chain with respect to its antibody-coupling yield and could show that the method of supercharging can evolve highly soluble proteins that are suitable for coupling reactions. As proven by us earlier, the site-directed surface modification of the human enteropeptidase light chain resulted in a more than 100-fold increased solubility which allowed the use of a highly concentrated enzyme solution without causing protein aggregation. This allowed the covalent linkage to an antibody with significantly higher yields compared to the wild type enzyme. Lee and coworkers demonstrated earlier that the resulting enteropeptidase-antibody conjugates are attractive components for heterogeneous immunoassays <abbrgrp>
                <abbr bid="B22">22</abbr>
             </abbrgrp>. With the new coupling strategy, we showed here that the medium-scale synthesis of this kind of enzyme-antibody conjugates is possible, if a highly soluble supercharged version of the enzyme is used.</p>
          <p>In summary, we could show that the supercharged human enteropeptidase light chain can be effectively used for the production of an antibody-enzyme conjugate. This procedure allows the use of the mutant enzyme as a reporter molecule in a sensitive ELISA system, while the wild type enzyme failed for this application. We furthermore suggest that this strategy can in principle be used for the coupling of any desired enzyme to other proteins. Examples of such enzymes which may be used for establishing novel ELISA systems may include subtilisin <abbrgrp>
                <abbr bid="B23">23</abbr>
             </abbrgrp>, acetylcholinesterase <abbrgrp>
                <abbr bid="B24">24</abbr>
             </abbrgrp> and lipase <abbrgrp>
                <abbr bid="B25">25</abbr>
             </abbrgrp>.</p>
       </sec>
       <sec>
          <st>
             <p>5
 						Conclusion</p>
          </st>
          <p>This study showed that surface supercharging of proteins is a suitable method for the improvement of protein-protein cross coupling reactions. Hence, the biotechnologically improved, highly soluble mutant hEPl scC112S could be utilized as a reporter molecule for a sensitive ELISA system. In contrast, the wild type enzyme could not be coupled to a satisfactory extend and is therefore not suitable for this application.</p>
       </sec>
       <sec>
          <st>
             <p>Abbreviations</p>
          </st>
          <p>EGF: Epidermal growth factor</p>
          <p>ELISA: Enzyme-linked immunosorbent assay</p>
          <p>FI: Fluorescence intensity</p>
          <p>hEPl: Human enteropeptidase light chain</p>
          <p>
             <it>k</it>
             <sub>cat</sub>: Turnover number</p>
          <p>
             <it>K</it>
             <sub>m</sub>: Michaelis constant</p>
          <p>scC112S: Surface charged mutant</p>
          <p>SD: Standard deviation</p>
          <p>SDS-PAGE: Sodium dodecyl sulphate polyacrylamide gel electrophoresis</p>
          <p>v<sub>max</sub>: Maximum rate</p>
          <p>wt: Wild type</p>
       </sec>
       <sec>
          <st>
             <p>Competing interests</p>
          </st>
          <p>The authors declare that they have no competing interests.</p>
       </sec>
       <sec>
          <st>
             <p>Authors&#8217; contributions</p>
          </st>
          <p>AAP designed and performed the experiments and wrote the manuscript. TZa designed the antibody-enzyme coupling strategy. KB provided all enzymes and helped with determination of enzyme kinetics. RH helped with the design of enzyme coupling and ELISA experiments. TZu helped with design of all experiments and wrote the manuscript. All authors corrected the manuscript. All authors read and approved the final manuscript.</p>
       </sec>
       <sec>
          <st>
             <p>Additional files</p>
          </st>
          <suppl id="S1">
             <title>
                <p>Additional file 1</p>
             </title>
             <text>
                <p>
                   <b>Characterization of enzyme kinetics for hEPl wt and hEPl scC112S.</b> Measurements were performed in 0.1 mol/L Tris-buffer (pH 8.0, 10% DMSO) with a GD<sub>4</sub>K-na substrate concentration range from 3.7 to 947 &#956;mol/L. Enzymes were added to a final concentration of 10&#160;nmol/L and fluorescence was recorded at 465&#160;nm (&#955;<sub>ex</sub> = 360&#160;nm). <it>K</it>
                   <sub>m</sub> values were obtained from the fitted curves and were 0.11&#160;mmol/L for hEPl wt and 0.65&#160;mmol/L for hEPl scC112S. Errors&#8201;=&#8201;SD, n&#8201;=&#8201;3.</p>
             </text>
             <file name="s12896-014-0088-6-S1.pdf">
                <p>Click here for file</p>
             </file>
          </suppl>
          <suppl id="S2">
             <title>
                <p>Additional file 2</p>
             </title>
             <text>
                <p>
                   <b>Negative controls in ELISA.</b> In the absence of antigen, no unspecific binding by both conjugate mixtures could be detected. Conjugate solutions with a total protein concentration of 2&#160;&#956;g/mL were used; signal development was carried out by addition of 50&#160;&#956;mol/L GD<sub>4</sub>K-na. Errors&#8201;=&#8201;SD, n&#8201;=&#8201;3.</p>
             </text>
             <file name="s12896-014-0088-6-S2.pdf">
                <p>Click here for file</p>
             </file>
          </suppl>
          
       </sec>
    </bdy>
    <bm>
       <ack>
          <sec>
             <st>
                <p>Acknowledgment</p>
             </st>
             <p>We gratefully acknowledge the expert technical assistance from Stefanie Langanke. This work was supported by the Federal Ministry of Education and Research (BMBF) Innoprofile project no. 03IP604 to R.H. and the BMBF Go-Bio project no. 0315988 to T.Zu.</p>
          </sec>
       </ack>
       <refgrp>
          
          <bibl id="B1">
             <title>
                <p>Industrial Use of Enzymes</p>
             </title>
             <aug>
                <au>
                   <snm>Leisola</snm>
                   <fnm>M</fnm>
                </au>
                <au>
                   <snm>Jokela</snm>
                   <fnm>J</fnm>
                </au>
                <au>
                   <snm>Pastinen</snm>
                   <fnm>O</fnm>
                </au>
                <au>
                   <snm>Turunen</snm>
                   <fnm>O</fnm>
                </au>
             </aug>
             <source>Physiology and Maintenance - Vol. II</source>
             <publisher>EOLSS Publishers, Oxford</publisher>
             <pubdate>2001</pubdate>
          </bibl>
          <bibl id="B2">
             <title>
                <p>Enzyme Immunoassay (EIA)/Enzyme-Linked Immunosorbent Assay (ELISA)</p>
             </title>
             <aug>
                <au>
                   <snm>Lequin</snm>
                   <fnm>RM</fnm>
                </au>
             </aug>
             <source>Clin Chem</source>
             <pubdate>2005</pubdate>
             <volume>51</volume>
             <fpage>2415</fpage>
             <lpage>2418</lpage>
             <xrefbib>
                <pubidlist>
                   <pubid idtype="doi">10.1373/clinchem.2005.051532</pubid>
                </pubidlist>
             </xrefbib>
          </bibl>
          <bibl id="B3">
             <title>
                <p>Enzyme immobilization: an overview on techniques and support materials</p>
             </title>
             <aug>
                <au>
                   <snm>Datta</snm>
                   <fnm>S</fnm>
                </au>
                <au>
                   <snm>Christena</snm>
                   <fnm>LR</fnm>
                </au>
                <au>
                   <snm>Rajaram</snm>
                   <fnm>YRS</fnm>
                </au>
             </aug>
             <source>3 Biotech</source>
             <pubdate>2013</pubdate>
             <volume>3</volume>
             <fpage>1</fpage>
             <lpage>9</lpage>
             <xrefbib>
                <pubidlist>
                   <pubid idtype="doi">10.1007/s13205-012-0071-7</pubid>
                </pubidlist>
             </xrefbib>
          </bibl>
          <bibl id="B4">
             <title>
                <p>Coupling of monoclonal antibodies with enzymes</p>
             </title>
             <aug>
                <au>
                   <snm>Haugland</snm>
                   <fnm>RP</fnm>
                </au>
             </aug>
             <source>Methods Mol Biol</source>
             <pubdate>1995</pubdate>
             <volume>45</volume>
             <fpage>235</fpage>
             <lpage>243</lpage>
          </bibl>
          <bibl id="B5">
             <title>
                <p>Coupling of enzymes to proteins with glutaraldehyde</p>
             </title>
             <aug>
                <au>
                   <snm>Avrameas</snm>
                   <fnm>S</fnm>
                </au>
             </aug>
             <source>Immunochemistry</source>
             <pubdate>1969</pubdate>
             <volume>6</volume>
             <fpage>43</fpage>
             <lpage>52</lpage>
             <xrefbib>
                <pubidlist>
                   <pubid idtype="doi">10.1016/0019-2791(69)90177-3</pubid>
                </pubidlist>
             </xrefbib>
          </bibl>
          <bibl id="B6">
             <title>
                <p>Enzyme-linked immunosorbent assay (ELISA) quantitative assay of immunoglobulin G</p>
             </title>
             <aug>
                <au>
                   <snm>Engvall</snm>
                   <fnm>E</fnm>
                </au>
                <au>
                   <snm>Perlmann</snm>
                   <fnm>P</fnm>
                </au>
             </aug>
             <source>Immunochemistry</source>
             <pubdate>1971</pubdate>
             <volume>8</volume>
             <fpage>871</fpage>
             <lpage>874</lpage>
             <xrefbib>
                <pubidlist>
                   <pubid idtype="doi">10.1016/0019-2791(71)90454-X</pubid>
                </pubidlist>
             </xrefbib>
          </bibl>
          <bibl id="B7">
             <title>
                <p>Comparative activity of peroxidase-antibody conjugates with periodate and glutaraldehyde coupling according to an enzyme immunoassay</p>
             </title>
             <aug>
                <au>
                   <snm>Tresca</snm>
                   <fnm>JP</fnm>
                </au>
                <au>
                   <snm>Ricoux</snm>
                   <fnm>R</fnm>
                </au>
                <au>
                   <snm>Pontet</snm>
                   <fnm>M</fnm>
                </au>
                <au>
                   <snm>Engler</snm>
                   <fnm>R</fnm>
                </au>
             </aug>
             <source>Ann Biol Clin (Paris)</source>
             <pubdate>1995</pubdate>
             <volume>53</volume>
             <fpage>227</fpage>
             <lpage>231</lpage>
          </bibl>
          <bibl id="B8">
             <title>
                <p>Supercharging proteins can impart unusual resilience</p>
             </title>
             <aug>
                <au>
                   <snm>Lawrence</snm>
                   <fnm>MS</fnm>
                </au>
                <au>
                   <snm>Phillips</snm>
                   <fnm>KJ</fnm>
                </au>
                <au>
                   <snm>Liu</snm>
                   <fnm>DR</fnm>
                </au>
             </aug>
             <source>J Am Chem Soc</source>
             <pubdate>2007</pubdate>
             <volume>129</volume>
             <fpage>10110</fpage>
             <lpage>10112</lpage>
             <xrefbib>
                <pubidlist>
                   <pubid idtype="doi">10.1021/ja071641y</pubid>
                </pubidlist>
             </xrefbib>
          </bibl>
          <bibl id="B9">
             <note>Thompson DB, Cronican JJ, Liu DR: <b>Protein Engineering for Therapeutics, Part B.</b> In <it>Protein Engineering for Therapeutics, Part B.</it> &#4447;: Elsevier; 2012.</note>
          </bibl>
          <bibl id="B10">
             <title>
                <p>Structure-based design of supercharged, highly thermoresistant antibodies</p>
             </title>
             <aug>
                <au>
                   <snm>Miklos</snm>
                   <fnm>AE</fnm>
                </au>
                <au>
                   <snm>Kluwe</snm>
                   <fnm>C</fnm>
                </au>
                <au>
                   <snm>Der</snm>
                   <fnm>BS</fnm>
                </au>
                <au>
                   <snm>Pai</snm>
                   <fnm>S</fnm>
                </au>
                <au>
                   <snm>Sircar</snm>
                   <fnm>A</fnm>
                </au>
                <au>
                   <snm>Hughes</snm>
                   <fnm>RA</fnm>
                </au>
                <au>
                   <snm>Berrondo</snm>
                   <fnm>M</fnm>
                </au>
                <au>
                   <snm>Xu</snm>
                   <fnm>J</fnm>
                </au>
                <au>
                   <snm>Codrea</snm>
                   <fnm>V</fnm>
                </au>
                <au>
                   <snm>Buckley</snm>
                   <fnm>PE</fnm>
                </au>
                <au>
                   <snm>Calm</snm>
                   <fnm>AM</fnm>
                </au>
                <au>
                   <snm>Welsh</snm>
                   <fnm>HS</fnm>
                </au>
                <au>
                   <snm>Warner</snm>
                   <fnm>CR</fnm>
                </au>
                <au>
                   <snm>Zacharko</snm>
                   <fnm>MA</fnm>
                </au>
                <au>
                   <snm>Carney</snm>
                   <fnm>JP</fnm>
                </au>
                <au>
                   <snm>Gray</snm>
                   <fnm>JJ</fnm>
                </au>
                <au>
                   <snm>Georgiou</snm>
                   <fnm>G</fnm>
                </au>
                <au>
                   <snm>Kuhlman</snm>
                   <fnm>B</fnm>
                </au>
                <au>
                   <snm>Ellington</snm>
                   <fnm>AD</fnm>
                </au>
             </aug>
             <source>Chem Biol</source>
             <pubdate>2012</pubdate>
             <volume>19</volume>
             <fpage>449</fpage>
             <lpage>455</lpage>
             <xrefbib>
                <pubidlist>
                   <pubid idtype="doi">10.1016/j.chembiol.2012.01.018</pubid>
                </pubidlist>
             </xrefbib>
          </bibl>
          <bibl id="B11">
             <title>
                <p>Surface supercharged human enteropeptidase light chain shows improved solubility and refolding yield</p>
             </title>
             <aug>
                <au>
                   <snm>Simeonov</snm>
                   <fnm>P</fnm>
                </au>
                <au>
                   <snm>Berger-Hoffmann</snm>
                   <fnm>R</fnm>
                </au>
                <au>
                   <snm>Hoffmann</snm>
                   <fnm>R</fnm>
                </au>
                <au>
                   <snm>Str&#228;ter</snm>
                   <fnm>N</fnm>
                </au>
                <au>
                   <snm>Zuchner</snm>
                   <fnm>T</fnm>
                </au>
             </aug>
             <source>Protein Eng Des Sel</source>
             <pubdate>2011</pubdate>
             <volume>24</volume>
             <fpage>261</fpage>
             <lpage>268</lpage>
             <xrefbib>
                <pubidlist>
                   <pubid idtype="doi">10.1093/protein/gzq104</pubid>
                </pubidlist>
             </xrefbib>
          </bibl>
          <bibl id="B12">
             <title>
                <p>A rapid and sensitive method for the quantitation of microgram quantities of protein utilizing the principle of protein-dye binding</p>
             </title>
             <aug>
                <au>
                   <snm>Bradford</snm>
                   <fnm>MM</fnm>
                </au>
             </aug>
             <source>Anal Biochem</source>
             <pubdate>1976</pubdate>
             <volume>72</volume>
             <fpage>248</fpage>
             <lpage>254</lpage>
             <xrefbib>
                <pubidlist>
                   <pubid idtype="doi">10.1016/0003-2697(76)90527-3</pubid>
                </pubidlist>
             </xrefbib>
          </bibl>
          <bibl id="B13">
             <title>
                <p>Neighbored phosphorylation sites as PHF-tau specific markers in Alzheimer&#8217;s disease</p>
             </title>
             <aug>
                <au>
                   <snm>Singer</snm>
                   <fnm>D</fnm>
                </au>
                <au>
                   <snm>Lehmann</snm>
                   <fnm>J</fnm>
                </au>
                <au>
                   <snm>Hanisch</snm>
                   <fnm>K</fnm>
                </au>
                <au>
                   <snm>H&#228;rtig</snm>
                   <fnm>W</fnm>
                </au>
                <au>
                   <snm>Hoffmann</snm>
                   <fnm>R</fnm>
                </au>
             </aug>
             <source>Biochem Biophys Res Commun</source>
             <pubdate>2006</pubdate>
             <volume>346</volume>
             <fpage>819</fpage>
             <lpage>828</lpage>
             <xrefbib>
                <pubidlist>
                   <pubid idtype="doi">10.1016/j.bbrc.2006.05.201</pubid>
                </pubidlist>
             </xrefbib>
          </bibl>
          <bibl id="B14">
             <title>
                <p>Expression, purification, and characterization of human enteropeptidase catalytic subunit in Escherichia coli</p>
             </title>
             <aug>
                <au>
                   <snm>Gasparian</snm>
                   <fnm>ME</fnm>
                </au>
                <au>
                   <snm>Ostapchenko</snm>
                   <fnm>VG</fnm>
                </au>
                <au>
                   <snm>Schulga</snm>
                   <fnm>AA</fnm>
                </au>
                <au>
                   <snm>Dolgikh</snm>
                   <fnm>DA</fnm>
                </au>
                <au>
                   <snm>Kirpichnikov</snm>
                   <fnm>MP</fnm>
                </au>
             </aug>
             <source>Protein Expr Purif</source>
             <pubdate>2003</pubdate>
             <volume>31</volume>
             <fpage>133</fpage>
             <lpage>139</lpage>
             <xrefbib>
                <pubidlist>
                   <pubid idtype="doi">10.1016/S1046-5928(03)00159-1</pubid>
                </pubidlist>
             </xrefbib>
          </bibl>
          <bibl id="B15">
             <title>
                <p>The EGFR family and its ligands in human cancer</p>
             </title>
             <aug>
                <au>
                   <snm>Yarden</snm>
                   <fnm>Y</fnm>
                </au>
             </aug>
             <source>Eur J Cancer</source>
             <pubdate>2001</pubdate>
             <volume>37</volume>
             <fpage>3</fpage>
             <lpage>8</lpage>
             <xrefbib>
                <pubidlist>
                   <pubid idtype="doi">10.1016/S0959-8049(01)00230-1</pubid>
                </pubidlist>
             </xrefbib>
          </bibl>
          <bibl id="B16">
             <title>
                <p>Solubility as a function of protein structure and solvent components</p>
             </title>
             <aug>
                <au>
                   <snm>Schein</snm>
                   <fnm>CH</fnm>
                </au>
             </aug>
             <source>Bio/technology (Nature Publishing Company)</source>
             <pubdate>1990</pubdate>
             <volume>8</volume>
             <fpage>308</fpage>
             <lpage>317</lpage>
             <xrefbib>
                <pubidlist>
                   <pubid idtype="doi">10.1038/nbt0490-308</pubid>
                </pubidlist>
             </xrefbib>
          </bibl>
          <bibl id="B17">
             <title>
                <p>A simple method for improving protein solubility and long-term stability</p>
             </title>
             <aug>
                <au>
                   <snm>Golovanov</snm>
                   <fnm>AP</fnm>
                </au>
                <au>
                   <snm>Hautbergue</snm>
                   <fnm>GM</fnm>
                </au>
                <au>
                   <snm>Wilson</snm>
                   <fnm>SA</fnm>
                </au>
                <au>
                   <snm>Lian</snm>
                   <fnm>L</fnm>
                </au>
             </aug>
             <source>J Am Chem Soc</source>
             <pubdate>2004</pubdate>
             <volume>126</volume>
             <fpage>8933</fpage>
             <lpage>8939</lpage>
             <xrefbib>
                <pubidlist>
                   <pubid idtype="doi">10.1021/ja049297h</pubid>
                </pubidlist>
             </xrefbib>
          </bibl>
          <bibl id="B18">
             <title>
                <p>Stabilizing peptide fusion for solving the stability and solubility problems of therapeutic proteins</p>
             </title>
             <aug>
                <au>
                   <snm>Lee</snm>
                   <fnm>EN</fnm>
                </au>
                <au>
                   <snm>Kim</snm>
                   <fnm>YM</fnm>
                </au>
                <au>
                   <snm>Lee</snm>
                   <fnm>HJ</fnm>
                </au>
                <au>
                   <snm>Park</snm>
                   <fnm>SW</fnm>
                </au>
                <au>
                   <snm>Jung</snm>
                   <fnm>HY</fnm>
                </au>
                <au>
                   <snm>Lee</snm>
                   <fnm>JM</fnm>
                </au>
                <au>
                   <snm>Ahn</snm>
                   <fnm>Y</fnm>
                </au>
                <au>
                   <snm>Kim</snm>
                   <fnm>J</fnm>
                </au>
             </aug>
             <source>Pharm Res</source>
             <pubdate>2005</pubdate>
             <volume>22</volume>
             <fpage>1735</fpage>
             <lpage>1746</lpage>
             <xrefbib>
                <pubidlist>
                   <pubid idtype="doi">10.1007/s11095-005-6489-4</pubid>
                </pubidlist>
             </xrefbib>
          </bibl>
          <bibl id="B19">
             <title>
                <p>A solubility-enhancement tag (SET) for NMR studies of poorly behaving proteins</p>
             </title>
             <aug>
                <au>
                   <snm>Zhou</snm>
                   <fnm>P</fnm>
                </au>
                <au>
                   <snm>Lugovskoy</snm>
                   <fnm>AA</fnm>
                </au>
                <au>
                   <snm>Wagner</snm>
                   <fnm>G</fnm>
                </au>
             </aug>
             <source>J Biomol NMR</source>
             <pubdate>2001</pubdate>
             <volume>20</volume>
             <fpage>11</fpage>
             <lpage>14</lpage>
             <xrefbib>
                <pubidlist>
                   <pubid idtype="doi">10.1023/A:1011258906244</pubid>
                </pubidlist>
             </xrefbib>
          </bibl>
          <bibl id="B20">
             <title>
                <p>Control of protein immobilization: coupling immobilization and site-directed mutagenesis to improve biocatalyst or biosensor performance</p>
             </title>
             <aug>
                <au>
                   <snm>Hernandez</snm>
                   <fnm>K</fnm>
                </au>
                <au>
                   <snm>Fernandez-Lafuente</snm>
                   <fnm>R</fnm>
                </au>
             </aug>
             <source>Enzym Microb Technol</source>
             <pubdate>2011</pubdate>
             <volume>48</volume>
             <fpage>107</fpage>
             <lpage>122</lpage>
             <xrefbib>
                <pubidlist>
                   <pubid idtype="doi">10.1016/j.enzmictec.2010.10.003</pubid>
                </pubidlist>
             </xrefbib>
          </bibl>
          <bibl id="B21">
             <title>
                <p>Protein engineering for directed immobilization</p>
             </title>
             <aug>
                <au>
                   <snm>Steen Redeker</snm>
                   <fnm>E</fnm>
                </au>
                <au>
                   <snm>Ta</snm>
                   <fnm>DT</fnm>
                </au>
                <au>
                   <snm>Cortens</snm>
                   <fnm>D</fnm>
                </au>
                <au>
                   <snm>Billen</snm>
                   <fnm>B</fnm>
                </au>
                <au>
                   <snm>Guedens</snm>
                   <fnm>W</fnm>
                </au>
                <au>
                   <snm>Adriaensens</snm>
                   <fnm>P</fnm>
                </au>
             </aug>
             <source>Bioconjug Chem</source>
             <pubdate>2013</pubdate>
             <volume>24</volume>
             <fpage>1761</fpage>
             <lpage>1777</lpage>
             <xrefbib>
                <pubidlist>
                   <pubid idtype="doi">10.1021/bc4002823</pubid>
                </pubidlist>
             </xrefbib>
          </bibl>
          <bibl id="B22">
             <title>
                <p>Cascade enzyme-linked immunosorbent assay (CELISA)</p>
             </title>
             <aug>
                <au>
                   <snm>Lee</snm>
                   <fnm>Y</fnm>
                </au>
                <au>
                   <snm>Jeong</snm>
                   <fnm>Y</fnm>
                </au>
                <au>
                   <snm>Kang</snm>
                   <fnm>HJ</fnm>
                </au>
                <au>
                   <snm>Chung</snm>
                   <fnm>SJ</fnm>
                </au>
                <au>
                   <snm>Chung</snm>
                   <fnm>BH</fnm>
                </au>
             </aug>
             <source>Biosens Bioelectron</source>
             <pubdate>2009</pubdate>
             <volume>25</volume>
             <fpage>332</fpage>
             <lpage>337</lpage>
             <xrefbib>
                <pubidlist>
                   <pubid idtype="doi">10.1016/j.bios.2009.07.010</pubid>
                </pubidlist>
             </xrefbib>
          </bibl>
          <bibl id="B23">
             <title>
                <p>Improving the activity of immobilized subtilisin by site-specific attachment to surfaces</p>
             </title>
             <aug>
                <au>
                   <snm>Huang</snm>
                   <fnm>W</fnm>
                </au>
                <au>
                   <snm>Wang</snm>
                   <fnm>J</fnm>
                </au>
                <au>
                   <snm>Bhattacharyya</snm>
                   <fnm>D</fnm>
                </au>
                <au>
                   <snm>Bachas</snm>
                   <fnm>LG</fnm>
                </au>
             </aug>
             <source>Anal Chem</source>
             <pubdate>1997</pubdate>
             <volume>69</volume>
             <fpage>4601</fpage>
             <lpage>4607</lpage>
             <xrefbib>
                <pubidlist>
                   <pubid idtype="doi">10.1021/ac970390g</pubid>
                </pubidlist>
             </xrefbib>
          </bibl>
          <bibl id="B24">
             <title>
                <p>Amperometric biosensor based on a site-specific immobilization of acetylcholinesterase via affinity bonds on a nanostructured polymer membrane with integrated multiwall carbon nanotubes</p>
             </title>
             <aug>
                <au>
                   <snm>Ivanov</snm>
                   <fnm>Y</fnm>
                </au>
                <au>
                   <snm>Marinov</snm>
                   <fnm>I</fnm>
                </au>
                <au>
                   <snm>Gabrovska</snm>
                   <fnm>K</fnm>
                </au>
                <au>
                   <snm>Dimcheva</snm>
                   <fnm>N</fnm>
                </au>
                <au>
                   <snm>Godjevargova</snm>
                   <fnm>T</fnm>
                </au>
             </aug>
             <source>J Mol Catal B Enzym</source>
             <pubdate>2010</pubdate>
             <volume>63</volume>
             <fpage>141</fpage>
             <lpage>148</lpage>
             <xrefbib>
                <pubidlist>
                   <pubid idtype="doi">10.1016/j.molcatb.2010.01.005</pubid>
                </pubidlist>
             </xrefbib>
          </bibl>
          <bibl id="B25">
             <title>
                <p>Application of immobilized lipase to hydrolysis of triacylglyceride</p>
             </title>
             <aug>
                <au>
                   <snm>Kimura</snm>
                   <fnm>Y</fnm>
                </au>
                <au>
                   <snm>Tanaka</snm>
                   <fnm>A</fnm>
                </au>
                <au>
                   <snm>Sonomoto</snm>
                   <fnm>K</fnm>
                </au>
                <au>
                   <snm>Nihira</snm>
                   <fnm>T</fnm>
                </au>
                <au>
                   <snm>Fukui</snm>
                   <fnm>S</fnm>
                </au>
             </aug>
             <source>Eur J Appl Microbiol Biotechnol</source>
             <pubdate>1983</pubdate>
             <volume>17</volume>
             <fpage>107</fpage>
             <lpage>112</lpage>
             <xrefbib>
                <pubidlist>
                   <pubid idtype="doi">10.1007/BF00499860</pubid>
                </pubidlist>
             </xrefbib>
          </bibl>
       </refgrp>
    </bm>
 </art>
