<art>
    <ui>s12888-014-0305-9</ui>
    <ji>1471-244X</ji>
    <fm>
       <dochead>Research article</dochead>
       <bibl>
          <title>
             <p>Collaborative development of an electronic Personal Health Record for people with severe and enduring mental health problems</p>
          </title>
          <aug>
             <au id="A1">
                <snm>Ennis</snm>
                <fnm>Liam</fnm>
                <insr iid="I1"/>
                <email>liam.ennis@kcl.ac.uk</email>
             </au>
             <au id="A2">
                <snm>Robotham</snm>
                <fnm>Dan</fnm>
                <insr iid="I1"/>
                <email>dan.robotham@kcl.ac.uk</email>
             </au>
             <au id="A3">
                <snm>Denis</snm>
                <fnm>Mike</fnm>
                <insr iid="I2"/>
                <email>mike.denis@medsci.ox.ac.uk</email>
             </au>
             <au id="A4">
                <snm>Pandit</snm>
                <fnm>Ninjeri</fnm>
                <insr iid="I2"/>
                <email>ninjeri.pandit@nhs.net</email>
             </au>
             <au id="A5">
                <snm>Newton</snm>
                <fnm>Dave</fnm>
                <insr iid="I2"/>
                <email>david.newton@slam.nhs.uk</email>
             </au>
             <au id="A6">
                <snm>Rose</snm>
                <fnm>Diana</fnm>
                <insr iid="I1"/>
                <email>diana.rose@kcl.ac.uk</email>
             </au>
             <au id="A7" ca="yes">
                <snm>Wykes</snm>
                <fnm>Til</fnm>
                <insr iid="I1"/>
                <email>til.wykes@kcl.ac.uk</email>
             </au>
          </aug>
          <insg>
             <ins id="I1">
                <p>King&#8217;s College London, Institute of Psychiatry, De Crespigny Park, London SE5 8AF, UK</p>
             </ins>
             <ins id="I2">
                <p>South London and Maudsley NHS Foundation Trust, London, UK</p>
             </ins>
          </insg>
          <source>BMC Psychiatry</source>
          <section>
             <title>
                <p>Social psychiatry, therapy and provision of mental health care</p>
             </title>
          </section>
          <issn>1471-244X</issn>
          <pubdate>2014</pubdate>
          <volume>14</volume>
          <issue>1</issue>
          <fpage>305</fpage>
          <url>http://www.biomedcentral.com/1471-244X/14/305</url>
          <xrefbib>
             <pubidlist>
                <pubid idtype="doi">10.1186/s12888-014-0305-9</pubid>
             </pubidlist>
          </xrefbib>
       </bibl>
       <history>
          <rec>
             <date>
                <day>11</day>
                <month>4</month>
                <year>2014</year>
             </date>
          </rec>
          <acc>
             <date>
                <day>18</day>
                <month>10</month>
                <year>2014</year>
             </date>
          </acc>
          <pub>
             <date>
                <day>18</day>
                <month>11</month>
                <year>2014</year>
             </date>
          </pub>
       </history>
       <cpyrt>
          <year>2014</year>
          <collab>Ennis et al.; licensee BioMed Central Ltd.</collab>
          <note>This is an Open Access article distributed under the terms of the Creative Commons Attribution License (<url>http://creativecommons.org/licenses/by/4.0</url>), which permits unrestricted use, distribution, and reproduction in any medium, provided the original work is properly credited. The Creative Commons Public Domain Dedication waiver (<url>http://creativecommons.org/publicdomain/zero/1.0/</url>) applies to the data made available in this article, unless otherwise stated.</note>
       </cpyrt>
       <kwdg>
          <kwd>Personal health record</kwd>
          <kwd>ePHR</kwd>
          <kwd>Shared care</kwd>
          <kwd>Patient empowerment</kwd>
          <kwd>eHealth</kwd>
          <kwd>Psychosis</kwd>
          <kwd>Computer literacy</kwd>
       </kwdg>
       <abs>
          <sec>
             <st>
                <p>Abstract</p>
             </st>
             <sec>
                <st>
                   <p>Background</p>
                </st>
                <p>Previous attempts to implement electronic Personal Health Records (ePHRs) underline the importance of stakeholder involvement. We describe the development of an ePHR for people with severe and enduring mental health problems, and provide a model of involving stakeholders throughout.</p>
             </sec>
             <sec>
                <st>
                   <p>Methods</p>
                </st>
                <p>There were three stages to the development of the ePHR. These were 1) identifying and responding to user and clinical needs; 2) preliminary testing; and 3) preliminary implementation. Stakeholder involvement was pervasive in all stages. We collaborated with 133 stakeholders in the first stage, 13 in the second, and 26 in the third. On the micro-level, a service user researcher conducted much of the data collection and analysis. On the macro-level, a service user advisory group guided decisions throughout the project, and a service user was an active member of the project executive board and the implementation team.</p>
             </sec>
             <sec>
                <st>
                   <p>Results</p>
                </st>
                <p>Service users and clinicians preferred an interactive ePHR with features such as access to care plans and care notes, a mood tracker, patient reported outcomes feeding into the clinical record, and social networking features. Many of the above were constructed following consultation with the relevant professionals, however further consultation is required before building a social networking function or providing access to full care notes. Service users positively rated the usability of the ePHR. Drop-in sessions helped service users access technology and learn how to use the ePHR.</p>
             </sec>
             <sec>
                <st>
                   <p>Conclusions</p>
                </st>
                <p>We outline four considerations for future developers of ePHRs: appeal, construction, ease of use, and implementation. Success rests on implementation in routine practice, so ePHRs must be intuitive and useful for both service users and staff. Continued involvement of end users throughout the design and testing process can help to achieve this goal.</p>
             </sec>
          </sec>
       </abs>
    </fm>
    <bdy>
       <sec>
          <st>
             <p>Background</p>
          </st>
          <p>Anyone who has used the National Health Service (NHS) within the UK has a clinical record detailing their medical history <abbrgrp>
                <abbr bid="B1">1</abbr>
             </abbrgrp>. Traditionally, the clinician holds this record. The advent of electronic Personal Health Records (ePHRs) changes this <abbrgrp>
                <abbr bid="B2">2</abbr>
             </abbrgrp>. An ePHR may contain some of the information held within the clinical record, but it is accessed and maintained by the patient <abbrgrp>
                <abbr bid="B2">2</abbr>
             </abbrgrp>. Patients typically access ePHRs online, through a patient portal. A patient portal is a secure website through which patients can access their ePHR <abbrgrp>
                <abbr bid="B3">3</abbr>
             </abbrgrp>.</p>
          <p>The introduction of ePHRs is a goal for UK Government <abbrgrp>
                <abbr bid="B4">4</abbr>
             </abbrgrp>, and England&#8217;s Department of Health has committed to providing patients with access to their primary care records online by 2015 <abbrgrp>
                <abbr bid="B5">5</abbr>
             </abbrgrp>. There is a widespread belief that ePHRs will improve continuity of care <abbrgrp>
                <abbr bid="B6">6</abbr>
             </abbrgrp>,<abbrgrp>
                <abbr bid="B7">7</abbr>
             </abbrgrp>, reduce medical errors <abbrgrp>
                <abbr bid="B8">8</abbr>
             </abbrgrp>, and allow patients to be better informed, thereby facilitating communication and empowerment <abbrgrp>
                <abbr bid="B9">9</abbr>
             </abbrgrp>. Furthermore, ePHRs may benefit researchers, since they enable the collection of health outcomes data provided by the patient <abbrgrp>
                <abbr bid="B10">10</abbr>
             </abbrgrp>.</p>
          <p>There are many examples of ePHRs in primary care <abbrgrp>
                <abbr bid="B11">11</abbr>
             </abbrgrp>, but there is sometimes reluctance to introduce them to secondary mental health services. This is often due to concerns of risk, confidentiality, and sensitivity of information <abbrgrp>
                <abbr bid="B12">12</abbr>
             </abbrgrp>. However, for mental health service users these records could be especially useful. This is because mental health problems can be long-term, involve multiple service providers, and often coexist with other health complaints <abbrgrp>
                <abbr bid="B13">13</abbr>
             </abbrgrp>. An ePHR could act as a hub to connect services, placing the patient at the centre <abbrgrp>
                <abbr bid="B2">2</abbr>
             </abbrgrp>.</p>
          <p>We set out to develop an ePHR, designed with and for those with severe and enduring mental health problems. Our approach was informed by previous successes and failures. Both emphasise the inclusion of end users throughout the development process <abbrgrp>
                <abbr bid="B14">14</abbr>
             </abbrgrp>-<abbrgrp>
                <abbr bid="B16">16</abbr>
             </abbrgrp>. The current paper offers 1) a description of our ePHR; and 2) a model of service user inclusion in technology design and development.</p>
       </sec>
       <sec>
          <st>
             <p>Methods and results</p>
          </st>
          <sec>
             <st>
                <p>Setting and participants</p>
             </st>
             <p>This ePHR was developed as part of the NIHR Biomedical Research Centre, a partnership between South London and Maudsley NHS Foundation Trust (SLaM) and the Institute of Psychiatry at King&#8217;s College London. All stages were conducted at sites within SLaM. An advisory board was set up to guide the project. Board members included service users, clinicians from psychosis services, clinicians from primary care services, members of the IT department within SLaM, and the Trust patient confidentiality guardian. The project team gained approval from an independent Research Ethics Committee (NRES Committee London - Camden &amp; Islington, Reference 10/H0722/79). Much of the work was completed by researchers within the Service User Research Enterprise, which is a unit employing researchers who also have experience of using mental health services. Researchers therefore shared some of the same experiences as the participants. Written informed consent was obtained from all participants in research studies. Development consisted of three distinct stages, described in turn.</p>
          </sec>
          <sec>
             <st>
                <p>Stage 1: Identifying needs and priorities</p>
             </st>
             <sec>
                <st>
                   <p>Procedure</p>
                </st>
                <p>This stage involved two procedures. First, interviews and focus groups were held with service users to discover whether there was an appetite for an ePHR within this population, and to ascertain which features people would like the ePHR to incorporate. Focus groups were recorded and transcribed. Second, we surveyed levels of computer literacy and access amongst service users in SLaM. This is because there is little information on readiness to use technology for people with psychosis, who may have had educational opportunities limited by the early onset of their symptoms <abbrgrp>
                      <abbr bid="B12">12</abbr>
                   </abbrgrp>,<abbrgrp>
                      <abbr bid="B17">17</abbr>
                   </abbrgrp>.</p>
                <p>Interview schedules and survey questions were developed collaboratively with a Service User Advisory Group. This was to ensure that the questions asked were relevant to this population, both in content and style.</p>
             </sec>
             <sec>
                <st>
                   <p>Results</p>
                </st>
                <p>Findings relating to service users&#8217; internet access and awareness have been published <abbrgrp>
                      <abbr bid="B18">18</abbr>
                   </abbrgrp>. Briefly, surveys were conducted with 121 mental health service users living in South London. Findings suggested that people from black and other minority ethnic groups might need extra support when engaging with online health-related information, and also that mobile phones and computers were the most familiar devices for accessing the internet <abbrgrp>
                      <abbr bid="B18">18</abbr>
                   </abbrgrp>.</p>
                <p>Separate focus groups were also conducted. Simple content analysis revealed that service users:</p><p>1) wanted more information about their care; &#8220;<it>&#8230;having like information about medication, the different ones and the side effects. I for one have definitely looked up every medication I&#8217;ve been on&#8221;</it>                            
                   </p>
                   <p>2) were interested in monitoring their own health and wellbeing; <it>&#8220;&#8230;the thought process activity diaries, that&#8217;s something I was thinking of starting&#8221;</it>                            
                   </p>
                   <p>3) had concerns about the sensitivity and security of information within the ePHR. One concern related to accessing the ePHR and subsequently forgetting to delete browsing history. Security concerns were particularly salient for paranoid service users; &#8220;<it>I&#8217;m not interested anymore &#8230; [computers] were reading my thoughts&#8221;</it>                            
                   </p>
                   <p>4) wanted the ePHR to be connected and interactive, allowing them to contact their clinician and to communicate with others through social networking; <it>&#8220;maybe leave messages and so on you could post things on it &#8230; so you&#8217;d be like in a continuous dialogue&#8221;</it>                            
                   </p>
                   <p>5) may have had problems with memory and organisation, thus preferring a simple, minimal interface.</p><p>
                    </p>
                <sec>
                   <st>
                      <p>System overview</p>
                   </st>
                   <p>We named the ePHR we developed <it>myhealthlocker.</it> Figure&#160;<figr fid="F1">1</figr> illustrates the myhealthlocker connected health model, in response to stage one scoping. The patient portal acts as the front end to Microsoft&#174; HealthVault&#8482;. HealthVault is a secure online platform which enables the confidential collection, storage and sharing of health information. A two-way link was built between the patient portal and HealthVault, and between HealthVault and the Trust-held clinical record. This meant that information could be transferred from the patient portal to the Trust-held record, and vice versa, but only via HealthVault. This allowed interaction whilst maintaining the independent ownership of each party&#8217;s record. The two-way link between services and service users was a critical component of our ePHR. This infrastructure encourages dialogue and greater involvement of the service user in their care. A one-way link was established with EMIS, the most commonly used primary care records system in the UK. This meant that myhealthlocker users would be connected to both primary and secondary care services. Note that Figure&#160;<figr fid="F1">1</figr> also shows a link to the Clinical and Research Interactive Search (CRIS) system, which allows researchers to search pseudonymised medical records <abbrgrp>
                         <abbr bid="B10">10</abbr>
                      </abbrgrp>. Hence data entered by service users will contribute to the data available for audit to improve services and for clinical research. Security in the system was ensured because HealthVault undergoes continual security updates and extensive security testing. Another advantage of HealthVault is that all communication between HealthVault and other systems is encrypted, as well as the information contained within HealthVault itself (see <url>http://msdn.microsoft.com/en-gb/healthvault/cc196394.aspx</url>).
                      </p>
                   
                      <fig id="F1">
                         <title>
                            <p>Figure 1</p>
                         </title>
                         <caption>
                            <p>Schematic showing the myhealthlocker&#8482; ePHR. </p>
                         </caption>
                         <text>
                            <p>
                                <b>Schematic showing the myhealthlocker&#8482; ePHR.</b>                              
                            </p>
                         </text>
                         <graphic file="s12888-014-0305-9-1"/>
                      </fig>
                   
                   <p>It was necessary to ensure that the model we developed was compliant with data protection and information governance regulations. We therefore consulted with information governance experts, and sought advice from SLaM Trust&#8217;s patient confidentiality guardian. UK information governance regulations are too lengthy for description here, but full details can be accessed from the Information Commissioner&#8217;s Office website <abbrgrp>
                         <abbr bid="B19">19</abbr>
                      </abbrgrp>.</p>
                   <p>Data ownership was a consideration outlined in discussions with the Trust&#8217;s patient confidentiality guardian. SLaM was identified as the data controller. Service users were identified as the &#8216;data subjects&#8217; and the ultimate owners of the data.</p>
                   <p>In response to the results from our scoping exercises, the primary components to be included were care plans and Patient Reported Outcome Measures (PROMS), allowing service users to self-monitor their health. In addition myhealthlocker included customisable fields allowing users to create their own outcome measures (known as a &#8216;Rate My Day&#8217; diary) in order to monitor health outcomes relevant to each service user. Common examples included sleep, diet, exercise, smoking and concentration.</p>
                   <p>The two-way link between the patient portal and the Trust-held record was tested by sending service users&#8217; care plans from the clinical record to the patient portal. In the other direction, PROMs were completed by service users and automatically uploaded to the Trust-held record. The first PROM to be tested was the Warwick-Edinburgh Mental Well-Being Scale (WEMWBS). This is a 14-item, five-point Likert survey used for measuring mental wellbeing, and it is popular with service users <abbrgrp>
                         <abbr bid="B20">20</abbr>
                      </abbrgrp>.</p>
                   <p>Service users wished to have more information about how to monitor their health, so the ePHR included information on various physical health conditions. All text was written by service users, and reviewed by local service user groups. The ePHR focused on general health, rather than being specific to mental health, thus avoiding the perceived stigma associated with using the ePHR in public. Links to relevant organisations, resources such as NHS Choices, guides to legislation such as the Mental Health Act, and self-help information were added. The site therefore provided a signposting function.</p>
                </sec>
             </sec>
          </sec>
          <sec>
             <st>
                <p>Stage 2: Preliminary acceptability testing</p>
             </st>
             <sec>
                <st>
                   <p>Procedure</p>
                </st>
                <p>Our two groups of end users (service users and clinicians) provided feedback on the beta version of myhealthlocker.</p><p>(i) 
                              <it>Service users.</it> Eight service users were recruited through a local register from various mental health services within SLaM. A service user researcher visited service users in their own homes and showed them the features of myhealthlocker. They were asked a series of structured questions about the attractiveness of the site, appropriateness of text, ease of navigation, usefulness of the ePHR, whether it was culturally relevant, and whether it was user friendly. Service users were asked to rate each domain on a scale of 1-5, to give an indication of any areas that were lacking. Service users were also asked for their comments, which were recorded. In total, each session lasted 1-2 hours. Service users were paid &#163;15 for their time.</p>
                   <p>(ii) 
                              <it>Clinicians.</it> We gathered feedback from clinical staff in two outpatient teams for people with psychosis. Staff members within these teams were given a test password for myhealthlocker and asked to test the site for one week, after which they provided feedback to the project team. Five members of staff gave feedback.</p><p>
                    </p>
             </sec>
             <sec>
                <st>
                   <p>Results</p>
                </st>
                <p>Table&#160;<tblr tid="T1">1</tblr> shows mean acceptability scores for myhealthlocker.
                    </p>
                
                   <table id="T1">
                      <title>
                         <p>Table 1</p>
                      </title>
                      <caption>
                         <p>
                              <b>Mean acceptability scores of myhealthlocker (N = 8)</b>                            
                         </p>
                      </caption>
                      <tgroup align="left" cols="2">
                         <colspec align="left" colname="c1" colnum="1" colwidth="*"/>
                         <colspec align="left" colname="c2" colnum="2" colwidth="*"/>
                         <thead>
                            <row valign="top">
                               <entry colname="c1">
                                  <p>
                                     <b>Domain</b>                                
                                  </p>
                               </entry>
                               <entry colname="c2">
                                  <p>
                                     <b>Score</b>                                
                                  </p>
                               </entry>
                            </row>
                         </thead>
                         <tfoot>
                            <p>Scores were rated on a 5-point likert scale: 1&#8201;=&#8201;Very poor; 2&#8201;=&#8201;Poor; 3&#8201;=&#8201;Adequate; 4&#8201;=&#8201;Good; 5&#8201;=&#8201;Very good.</p>
                         </tfoot>
                         <tbody>
                            <row valign="top">
                               <entry colname="c1">
                                  <p>Cultural appropriateness</p>
                               </entry>
                               <entry colname="c2">
                                  <p>4.6</p>
                               </entry>
                            </row>
                            <row valign="top">
                               <entry colname="c1">
                                  <p>Quality of written text</p>
                               </entry>
                               <entry colname="c2">
                                  <p>4.3</p>
                               </entry>
                            </row>
                            <row valign="top">
                               <entry colname="c1">
                                  <p>Ease of navigation</p>
                               </entry>
                               <entry colname="c2">
                                  <p>4.1</p>
                               </entry>
                            </row>
                            <row valign="top">
                               <entry colname="c1">
                                  <p>Site attractiveness</p>
                               </entry>
                               <entry colname="c2">
                                  <p>4.1</p>
                               </entry>
                            </row>
                            <row valign="top">
                               <entry colname="c1">
                                  <p>User friendliness</p>
                               </entry>
                               <entry colname="c2">
                                  <p>4.1</p>
                               </entry>
                            </row>
                            <row valign="top">
                               <entry colname="c1">
                                  <p>Perceived usefulness</p>
                               </entry>
                               <entry colname="c2">
                                  <p>3.9</p>
                               </entry>
                            </row>
                         </tbody>
                      </tgroup>
                   </table>
                
                <p>Whilst all measures were scored higher than &#8220;Adequate&#8221;, changes were made following the beta testing. The most substantial change related to the layout of the site, making it easier to navigate. To improve the perceived usefulness of myhealthlocker, a Body Mass Index calculator, an exercise diary, a blood pressure log, a blog function and information about medication and welfare benefits were all added.</p>
                <p>Clinicians suggested adding the Worry Tree (a CBT tool providing a structured way of monitoring and assessing problems relating to anxiety; see Additional file <supplr sid="S1">1</supplr>: Figure S1), the Voices Diary (a motivational tool allowing service users to record auditory hallucinations), and audio files for CBT and mindfulness. These suggestions were incorporated. Furthermore, two PROMs were added, the Generalised Anxiety Disorder 7-item scale (GAD7; <abbrgrp>
                      <abbr bid="B21">21</abbr>
                   </abbrgrp>) and Personal Health Questionnaire (PHQ; <abbrgrp>
                      <abbr bid="B22">22</abbr>
                   </abbrgrp>). Both of these are popular self-report measures, commonly used in mental health settings. Whilst these measures were not chosen by service users, we felt that including them would improve the perceived utility of myhealthlocker for clinicians since they are routinely collected anyway. We hoped that this would encourage clinicians to engage with myhealthlocker and therefore take advantage of the connected healthcare model. Service users could complete these PROMs and view the results graphically.</p></sec>
          </sec>
          <sec>
             <st>
                <p>Stage 3: Preliminary implementation</p>
             </st>
             <sec>
                <st>
                   <p>Procedure</p>
                </st>
                <p>A service user planning committee was set up before making myhealthlocker available to a wider pool. This consisted of four service users. The purpose of the committee was to discuss ways in which myhealthlocker could be disseminated. Based on results from stage one, and advice from the service user planning committee, the project team developed weekly &#8216;drop-in&#8217; sessions within local community venues. The purpose of these sessions was to provide service users with access to myhealthlocker, but also to give them the opportunity to use the internet and improve computer literacy. Some did not have access outside the drop-in session, and regular attendees were lent devices such as tablets or smartphones. Service users who were lent devices were also given an information sheet containing tips for online safety. Some service users with a high standard of computer literacy were offered volunteering opportunities at the drop-in. So far, three service users have acted as volunteer co-facilitators.</p>
                <p>At the time of writing, 23 people attended drop-ins who had used psychosis services within the Trust. Each was asked to complete a 17-item feasibility questionnaire, covering demographic questions, the process of using the site for completing PROMs, setting-up and using the account, IT skills and confidence, the speed, design, and layout of the site. The survey was predominantly quantitative, including yes/no and 5-point Likert scales. There was also an open-ended question on how the site could be improved. Some participants wrote additional comments on the questionnaire form. Data were analysed using Fisher&#8217;s exact test, t-tests, and Spearman&#8217;s correlations.</p>
             </sec>
             <sec>
                <st>
                   <p>Results</p>
                </st>
                <p>At each drop-in session, the facilitator encouraged service users to complete the WEMWBS PROM and to monitor health and wellbeing by viewing their results over time. Of the 23 attendees surveyed, most (57%, n&#8201;=&#8201;13) had been using mental health services for more than six years. 13 people in the sample (56.5%) were male. The sample represented a fairly diverse range of ages: one person in the sample (4.3%) was aged 25-34; 11 (47.8%) were aged 35-44; 5 (21.7%) were aged 45-54 and six people (26.1%) were aged 55-64. Despite a majority reporting confidence in using computers prior to using myhealthlocker (61%; n&#8201;=&#8201;14), many people needed training in basic computer skills such as using a mouse and navigating websites. This training was provided ad hoc by the drop-in session facilitators. Confidence with computers was not related to age or gender.</p>
                <p>The average number of sessions attended was 19 (range = 0&#8212;63). Number of attendances was not related to age or to gender of the users. All but one of those attending had completed the WEMWBS. The remaining service user stopped engaging with myhealthlocker soon after signing up. Of those who completed the WEMWBS (n&#8201;=&#8201;22), 19 had looked at the results it generated. Most service users reported little difficulty in completing the PROM, rating it a mean of 4.4 on a scale of 1-5 (where 1 is defined as &#8216;complicated&#8217; and 5 as &#8216;simple&#8217;). Most found the questions relevant to them (mean&#8201;=&#8201;4.0), and did not feel that the process of completing the PROM was time consuming (mean&#8201;=&#8201;2.1, where a score of 1 was defined as &#8216;quick&#8217; and 5 was defined as &#8216;slow&#8217;). There were no differences between the responses of men and women, and none of the ratings were related to age.</p>
                <p>Service user opinions on the ePHR were canvassed at each drop-in. All but one said that they found the site useful, and 73% (17 out of 23) thought they would continue to use it in the future. Service users thought the layout of the site was clear (mean&#8201;=&#8201;4.0, n&#8201;=&#8201;19), had few problems with the font size (mean&#8201;=&#8201;4.2, n&#8201;=&#8201;20), with navigating the site (mean&#8201;=&#8201;3.7, n&#8201;=&#8201;20), or with understanding the content (mean&#8201;=&#8201;4.2, n&#8201;=&#8201;20). Each item was measured on a 5-point Likert scale with higher scores representing favourable responses. Again, there were no significant differences in ratings provided by men and women, and age was not related to the ratings. Qualitative comments referred to limitations of data visualisation; &#8220;the graph [is] a bit difficult to interpret&#8221;.</p>
             </sec>
          </sec>
       </sec>
       <sec>
          <st>
             <p>Discussion</p>
          </st>
          <p>We have described our experiences of creating an ePHR for people with severe and enduring mental health problems, particularly psychosis. We recognised that ePHRs in this population are likely to require additional considerations <abbrgrp>
                <abbr bid="B23">23</abbr>
             </abbrgrp>, and therefore our research is relevant to anyone who wishes to design ePHRs for other marginalised groups. We have collaborated with end-users &#8211; both staff and service users &#8211; at all stages. We believe this to be the most comprehensive involvement of stakeholders in e-health intervention design to date. Our experience allows us to set out four key considerations for future developers.</p><p>1. Appeal</p>
             <p>Our ePHR, myhealthlocker, has demonstrated some appeal to service users, shown by the adequate scores for all measures. It is encouraging to note that the site holds similar appeal across genders and age ranges. However, wide-scale uptake remains a challenge, shown by the relatively low number of people engaging with the site at the time of writing. (It is worth noting, however, that slow uptake is a feature of many ePHRs <abbrgrp>
                   <abbr bid="B24">24</abbr>
                </abbrgrp>).</p>
             <p>Electronic applications (apps) represent one way in which uptake might be improved, because apps for people with psychosis have shown some popularity in US studies <abbrgrp>
                   <abbr bid="B14">14</abbr>
                </abbrgrp>. Social networking may also encourage people to use the site <abbrgrp>
                   <abbr bid="B25">25</abbr>
                </abbrgrp>Recently, interactive sites relating to health and wellbeing have enjoyed some success (e.g., Big White Wall, an online mental wellbeing service <abbrgrp>
                   <abbr bid="B26">26</abbr>
                </abbrgrp>), and electronically supported &#8220;buddying&#8221; schemes have been attempted within SLaM <abbrgrp>
                   <abbr bid="B27">27</abbr>
                </abbrgrp>. However, none of the above has operated within the context of an ePHR. The Kaiser Permanente (KP) website is a good example of a very well-used ePHR, and so we can learn from their successes. Some of the most used functions of the KP website are patient-doctor communication, viewing test results online, and scheduling appointments <abbrgrp>
                   <abbr bid="B28">28</abbr>
                </abbrgrp>. We are currently developing secure conference facilities for proxy communication with clinicians, and the facilities for appointment scheduling and viewing test results are nearly complete. We hope that these will significantly improve appeal.</p>
             <p>2. Construction</p>
             <p>The concept of public data sharing is controversial, and the England&#8217;s National Health Service was recently forced to delay plans to develop a database of anonymous medical records <abbrgrp>
                   <abbr bid="B29">29</abbr>
                </abbrgrp>. A primary reason for this was concern about private data and privacy breaches. Such issues are particularly important to people who may suffer stigma and discrimination concerning their diagnosis <abbrgrp>
                   <abbr bid="B30">30</abbr>
                </abbrgrp>.</p>
             <p>The technical and ethical processes of building a social networking function into myhealthlocker are unresolved. Since myhealthlocker links to the Trust-held clinical record, the healthcare provider is potentially accountable for content entered into myhealthlocker. One possible solution would involve third party developers to host the information generated via the social network, but security cannot be compromised. Another option would be to moderate content; this is the method used by Big White Wall <abbrgrp>
                   <abbr bid="B26">26</abbr>
                </abbrgrp>. This of course would mean employing someone around the clock to moderate the site use. We are currently holding conversations with information governance specialists in order to assess available options.</p>
             <p>3. Ease of use</p>
             <p>People with severe and enduring mental health problems may lack experience and confidence with computers <abbrgrp>
                   <abbr bid="B18">18</abbr>
                </abbrgrp>. At present, drop-in sessions have helped educate potential users about basic IT skills, allowing the service user to explore myhealthlocker in a safe environment. However, the scalability of these drop-in sessions is limited. In order to implement the ePHR in routine practice, it needs to be intuitive for service users and clinical staff without supervision. And even with an intuitive system, a basic level of computer skills is required and we have found that this cannot always be assumed.</p>
             <p>Although our data suggest that myhealthlocker is easy to use, more data on site usage is needed. Clarity of navigation is paramount with this population, since people with experiences of psychosis often have accompanying cognitive problems <abbrgrp>
                   <abbr bid="B31">31</abbr>
                </abbrgrp>. Clarity of navigation is also critical with internet-based resources, as the probability of leaving a website is highest within the first ten seconds <abbrgrp>
                   <abbr bid="B32">32</abbr>
                </abbrgrp>.</p>
             <p>4. Implementation</p>
             <p>Implementing ePHRs in clinical practice will require a shift in attitudes <abbrgrp>
                   <abbr bid="B33">33</abbr>
                </abbrgrp>. The implementation of online banking suggests that adoption of technology depends on perceived usefulness and perceived ease of use <abbrgrp>
                   <abbr bid="B34">34</abbr>
                </abbrgrp>; this must be demonstrated to both service users and clinical staff. Furthermore, in secondary care, the ePHR requires acceptance from both primary care and secondary care clinicians. The interests of such stakeholders will need to be balanced. Previous reviews suggest negative attitudes amongst clinicians regarding shared care in mental health <abbrgrp>
                   <abbr bid="B12">12</abbr>
                </abbrgrp>, so the implementation of ePHRs is a continuing challenge.</p>
             <p>Engaging clinicians is critical to implementation <abbrgrp>
                   <abbr bid="B35">35</abbr>
                </abbrgrp>. The ePHR has the potential to benefit clinicians through a reduction in administrative burden and an improved ability to monitor service users&#8217; outcomes, but staff must identify these benefits for themselves or there is a danger of myhealthlocker being perceived as a top-down deployment and this can cause resistance <abbrgrp>
                   <abbr bid="B35">35</abbr>
                </abbrgrp>. Research shows that close collaboration with staff can allay resistance and improve utility, since clinical staff know the context in which the ePHR will be introduced <abbrgrp>
                   <abbr bid="B35">35</abbr>
                </abbrgrp>. Research also shows that staff are frequently apprehensive about using computers and may have limited skills <abbrgrp>
                   <abbr bid="B36">36</abbr>
                </abbrgrp>,<abbrgrp>
                   <abbr bid="B37">37</abbr>
                </abbrgrp>. Consequently, additional skills training for staff should also be considered.</p><p>
                </p>
       </sec>
       <sec>
          <st>
             <p>Conclusion</p>
          </st>
          <p>We believe that success with the four considerations outlined above &#8211; appeal, construction, ease of use and implementation &#8211; can be achieved through the involvement of end users, both clinicians and service users. The eventual success of myhealthlocker will depend upon embedding it within routine practice between service users and clinical staff. The ePHR must fit with service users&#8217; self-management practices, and be useful enough for clinicians to wish to engage service users with it. We have described the various stages of development of myhealthlocker, and the ways in which we included stakeholders at each stage. We believe that this involvement has allowed myhealthlocker to develop in accordance with the needs of service users and clinicians.</p>
       </sec>
       <sec>
          <st>
             <p>Competing interests</p>
          </st>
          <p>The authors declare that they have no competing interests.</p>
       </sec>
       <sec>
          <st>
             <p>Authors&#8217; contributions</p>
          </st>
          <p>TW and DRos conceived the studies. DRob, LE, and TW were responsible for drafting the manuscript and all the other authors offered comments and revisions. MD, TW and DRos were responsible for directing the programme, supported by NP and DN. All authors read and approved the final manuscript.</p>
       </sec>
       <sec>
          <st>
             <p>Authors&#8217; information</p>
          </st>
          <p>Liam Ennis and Dan Robotham are joint first authors.</p>
       </sec>
       <sec>
          <st>
             <p>Additional file</p>
          </st>
          <suppl id="S1">
             <title>
                <p>Additional file 1: Figure S1.</p>
             </title>
             <text>
                <p>An example of a &#8220;worry tree&#8221;, a CBT tool used to treat anxiety.</p>
             </text>
             <file name="s12888-014-0305-9-S1.pdf">
                <p>Click here for file</p>
             </file>
          </suppl>
          <p>
                    
                  </p>
       </sec>
    </bdy>
    <bm>
       <ack>
          <sec>
             <st>
                <p>Acknowledgements</p>
             </st>
             <p>Til Wykes, Diana Rose and Mike Denis would like to acknowledge the support the National Institute for Health Research (NIHR) Mental Health Biomedical Research Centre at South London and Maudsley NHS Foundation Trust. In addition Til Wykes would like to acknowledge her NIHR Senior Investigator Award. The views expressed are those of the authors and not necessarily those of the NHS, the NIHR or the Department of Health.</p>
             <p>We would also like to acknowledge the myhealthlocker team: Louisa Hudson, Lia Ali, Lauren Vanderzeil, Keith Lillis, Zoe Bright, Murat Soncul &amp; Matthew Mayhew.</p>
          </sec>
       </ack>
       <refgrp>
          
          <bibl id="B1">
             
                <url>http://www.bcs.org/upload/pdf/guidance-health-and-socal-records.pdf</url>
             
<note>BCS The Chartered Institute for IT: <b>Keeping your online health and social care records safe and secure.</b> 2013. Downloaded from , 04.09.2014.</note>
          </bibl>
          <bibl id="B2">
             
                <url>http://www.myhealth.london.nhs.uk/sites/default/files/u3246/ItsYourRecord.pdf</url>
             
<note>London Connect: <b>It's your record: a guide to accessing health records online.</b> 2012. Downloaded from , 04.09.2014.</note>
          </bibl>
          <bibl id="B3">
             
                <url>http://guides.nnlm.gov/content.php?pid=287967&amp;sid=2954062</url>
             
<note>National Network of Libraries of Medicine: <b>Personal Health Records (PHR) and Patient Portals.</b>  accessed on 04.09.2014.</note>
          </bibl>
          <bibl id="B4">
             <title>
                <p>Stimulating the adoption of health information technology</p>
             </title>
             <aug>
                <au>
                   <snm>Blumenthal</snm>
                   <fnm>D</fnm>
                </au>
             </aug>
             <source>New Engl J Med</source>
             <pubdate>2009</pubdate>
             <volume>360</volume>
             <issue>15</issue>
             <fpage>1477</fpage>
             <lpage>1479</lpage>
             <xrefbib>
                <pubidlist>
                   <pubid idtype="pmpid" link="fulltext">19321856</pubid>
                </pubidlist>
             </xrefbib>
          </bibl>
          <bibl id="B5">
             <source>The Power of Information: Putting all of us in Control of the Health and Care Information we Need</source>
             <publisher>HM Crown, London, UK</publisher>
             <pubdate>2012</pubdate>
          </bibl>
          <bibl id="B6">
             <title>
                <p>Continuity of care in mental health: understanding and measuring a complex phenomenon</p>
             </title>
             <aug>
                <au>
                   <snm>Burns</snm>
                   <fnm>T</fnm>
                </au>
                <au>
                   <snm>Catty</snm>
                   <fnm>J</fnm>
                </au>
                <au>
                   <snm>White</snm>
                   <fnm>S</fnm>
                </au>
                <au>
                   <snm>Clement</snm>
                   <fnm>S</fnm>
                </au>
                <au>
                   <snm>Ellis</snm>
                   <fnm>G</fnm>
                </au>
                <au>
                   <snm>Jones</snm>
                   <fnm>IR</fnm>
                </au>
                <au>
                   <snm>Lissouba</snm>
                   <fnm>P</fnm>
                </au>
                <au>
                   <snm>McLaren</snm>
                   <fnm>S</fnm>
                </au>
                <au>
                   <snm>Rose</snm>
                   <fnm>D</fnm>
                </au>
                <au>
                   <snm>Wykes</snm>
                   <fnm>T</fnm>
                </au>
             </aug>
             <source>Psychol Med</source>
             <pubdate>2009</pubdate>
             <volume>39</volume>
             <issue>2</issue>
             <fpage>313</fpage>
             <lpage>323</lpage>
             <xrefbib>
                <pubidlist>
                   <pubid idtype="pmpid" link="fulltext">18570700</pubid>
                </pubidlist>
             </xrefbib>
          </bibl>
          <bibl id="B7">
             <title>
                <p>Characteristics of personal health records: findings of the Medical Library Association/National Library of Medicine Joint Electronic Personal Health Record Task Force</p>
             </title>
             <aug>
                <au>
                   <snm>Jones</snm>
                   <fnm>DA</fnm>
                </au>
                <au>
                   <snm>Shipman</snm>
                   <fnm>JP</fnm>
                </au>
                <au>
                   <snm>Plaut</snm>
                   <fnm>DA</fnm>
                </au>
                <au>
                   <snm>Selden</snm>
                   <fnm>CR</fnm>
                </au>
             </aug>
             <source>J Med Libr Assoc</source>
             <pubdate>2010</pubdate>
             <volume>98</volume>
             <issue>3</issue>
             <fpage>243</fpage>
             <lpage>249</lpage>
             <xrefbib>
                <pubidlist>
                   <pubid idtype="pmpid" link="fulltext">20648259</pubid>
                </pubidlist>
             </xrefbib>
          </bibl>
          <bibl id="B8">
             <title>
                <p>Can electronic medical record systems transform health care? Potential health benefits, savings, and costs</p>
             </title>
             <aug>
                <au>
                   <snm>Hillestad</snm>
                   <fnm>R</fnm>
                </au>
                <au>
                   <snm>Bigelow</snm>
                   <fnm>J</fnm>
                </au>
                <au>
                   <snm>Bower</snm>
                   <fnm>A</fnm>
                </au>
                <au>
                   <snm>Girosi</snm>
                   <fnm>F</fnm>
                </au>
                <au>
                   <snm>Meili</snm>
                   <fnm>R</fnm>
                </au>
                <au>
                   <snm>Scoville</snm>
                   <fnm>R</fnm>
                </au>
                <au>
                   <snm>Taylor</snm>
                   <fnm>R</fnm>
                </au>
             </aug>
             <source>Health Affair</source>
             <pubdate>2005</pubdate>
             <volume>24</volume>
             <issue>5</issue>
             <fpage>1103</fpage>
             <lpage>1117</lpage>
          </bibl>
          <bibl id="B9">
             <title>
                <p>Empowerment of patients and communication with health care professionals through an electronic health record</p>
             </title>
             <aug>
                <au>
                   <snm>Ueckert</snm>
                   <fnm>F</fnm>
                </au>
                <au>
                   <snm>Goerz</snm>
                   <fnm>M</fnm>
                </au>
                <au>
                   <snm>Ataian</snm>
                   <fnm>M</fnm>
                </au>
                <au>
                   <snm>Tessmann</snm>
                   <fnm>S</fnm>
                </au>
                <au>
                   <snm>Prokosch</snm>
                   <fnm>HU</fnm>
                </au>
             </aug>
             <source>Int J Med Inform</source>
             <pubdate>2003</pubdate>
             <volume>70</volume>
             <issue>2&#8211;3</issue>
             <fpage>99</fpage>
             <lpage>108</lpage>
             <xrefbib>
                <pubidlist>
                   <pubid idtype="pmpid" link="fulltext">12909161</pubid>
                </pubidlist>
             </xrefbib>
          </bibl>
          <bibl id="B10">
             <title>
                <p>The South London and Maudsley NHS foundation trust biomedical research centre (SLAM BRC) case register: development and descriptive data</p>
             </title>
             <aug>
                <au>
                   <snm>Stewart</snm>
                   <fnm>R</fnm>
                </au>
                <au>
                   <snm>Soremekun</snm>
                   <fnm>M</fnm>
                </au>
                <au>
                   <snm>Perera</snm>
                   <fnm>G</fnm>
                </au>
                <au>
                   <snm>Broadbent</snm>
                   <fnm>M</fnm>
                </au>
                <au>
                   <snm>Callard</snm>
                   <fnm>F</fnm>
                </au>
                <au>
                   <snm>Denis</snm>
                   <fnm>M</fnm>
                </au>
                <au>
                   <snm>Hotopf</snm>
                   <fnm>M</fnm>
                </au>
                <au>
                   <snm>Thornicroft</snm>
                   <fnm>G</fnm>
                </au>
                <au>
                   <snm>Lovestone</snm>
                   <fnm>S</fnm>
                </au>
             </aug>
             <source>BMC Psychiatry</source>
             <pubdate>2009</pubdate>
             <volume>9</volume>
             <issue>1</issue>
             <fpage>51</fpage>
             <xrefbib>
                <pubidlist>
                   <pubid idtype="pmpid" link="fulltext">19674459</pubid>
                </pubidlist>
             </xrefbib>
          </bibl>
          <bibl id="B11">
             <title>
                <p>Potential of electronic personal health records</p>
             </title>
             <aug>
                <au>
                   <snm>Pagliari</snm>
                   <fnm>C</fnm>
                </au>
                <au>
                   <snm>Detmer</snm>
                   <fnm>D</fnm>
                </au>
                <au>
                   <snm>Singleton</snm>
                   <fnm>P</fnm>
                </au>
             </aug>
             <source>BMJ</source>
             <pubdate>2007</pubdate>
             <volume>335</volume>
             <issue>7615</issue>
             <fpage>330</fpage>
             <lpage>333</lpage>
             <xrefbib>
                <pubidlist>
                   <pubid idtype="pmpid" link="fulltext">17703042</pubid>
                </pubidlist>
             </xrefbib>
          </bibl>
          <bibl id="B12">
             <title>
                <p>Rapid progress or lengthy process? Electronic personal health records in mental health</p>
             </title>
             <aug>
                <au>
                   <snm>Ennis</snm>
                   <fnm>L</fnm>
                </au>
                <au>
                   <snm>Rose</snm>
                   <fnm>D</fnm>
                </au>
                <au>
                   <snm>Callard</snm>
                   <fnm>F</fnm>
                </au>
                <au>
                   <snm>Denis</snm>
                   <fnm>M</fnm>
                </au>
                <au>
                   <snm>Wykes</snm>
                   <fnm>T</fnm>
                </au>
             </aug>
             <source>BMC Psychiatry</source>
             <pubdate>2011</pubdate>
             <volume>11</volume>
             <issue>1</issue>
             <fpage>117</fpage>
             <xrefbib>
                <pubidlist>
                   <pubid idtype="pmpid" link="fulltext">21791069</pubid>
                </pubidlist>
             </xrefbib>
          </bibl>
          <bibl id="B13">
             <title>
                <p>Epidemiology of multimorbidity and implications for health care, research, and medical education: a cross-sectional study</p>
             </title>
             <aug>
                <au>
                   <snm>Barnett</snm>
                   <fnm>K</fnm>
                </au>
                <au>
                   <snm>Mercer</snm>
                   <fnm>SW</fnm>
                </au>
                <au>
                   <snm>Norbury</snm>
                   <fnm>M</fnm>
                </au>
                <au>
                   <snm>Watt</snm>
                   <fnm>G</fnm>
                </au>
                <au>
                   <snm>Wyke</snm>
                   <fnm>S</fnm>
                </au>
                <au>
                   <snm>Guthrie</snm>
                   <fnm>B</fnm>
                </au>
             </aug>
             <source>Lancet</source>
             <pubdate>2012</pubdate>
             <volume>380</volume>
             <issue>9836</issue>
             <fpage>37</fpage>
             <lpage>43</lpage>
             <xrefbib>
                <pubidlist>
                   <pubid idtype="pmpid" link="fulltext">22579043</pubid>
                </pubidlist>
             </xrefbib>
          </bibl>
          <bibl id="B14">
             <note>Ben-Zeev D, Brenner CJ, Begale M, Duffecy J, Mohr DC, Mueser KT: <b>Feasibility, acceptability, and preliminary efficacy of a smartphone intervention for schizophrenia.</b> 
                <it>Schizophr Bull</it> 2014. doi:10.1093/schbul/sbu033.</note>
          </bibl>
          <bibl id="B15">
             <title>
                <p>Development and usability testing of FOCUS: a smartphone system for self-management of schizophrenia</p>
             </title>
             <aug>
                <au>
                   <snm>Ben-Zeev</snm>
                   <fnm>D</fnm>
                </au>
                <au>
                   <snm>Kaiser</snm>
                   <fnm>SM</fnm>
                </au>
                <au>
                   <snm>Brenner</snm>
                   <fnm>CJ</fnm>
                </au>
                <au>
                   <snm>Begale</snm>
                   <fnm>M</fnm>
                </au>
                <au>
                   <snm>Duffecy</snm>
                   <fnm>J</fnm>
                </au>
                <au>
                   <snm>Mohr</snm>
                   <fnm>DC</fnm>
                </au>
             </aug>
             <source>Psych Rehabil J</source>
             <pubdate>2013</pubdate>
             <volume>36</volume>
             <issue>4</issue>
             <fpage>289</fpage>
          </bibl>
          <bibl id="B16">
             <title>
                <p>The role of patients in designing health information systems: the case of applying simulation techniques to design an electronic patient record (EPR) interface</p>
             </title>
             <aug>
                <au>
                   <snm>Leonard</snm>
                   <fnm>KJ</fnm>
                </au>
             </aug>
             <source>Health Care Manage Sci</source>
             <pubdate>2004</pubdate>
             <volume>7</volume>
             <issue>4</issue>
             <fpage>275</fpage>
             <lpage>284</lpage>
          </bibl>
          <bibl id="B17">
             <title>
                <p>Social consequences of psychiatric disorders, I: Educational attainment</p>
             </title>
             <aug>
                <au>
                   <snm>Kessler</snm>
                   <fnm>RC</fnm>
                </au>
                <au>
                   <snm>Foster</snm>
                   <fnm>CL</fnm>
                </au>
                <au>
                   <snm>Saunders</snm>
                   <fnm>WB</fnm>
                </au>
                <au>
                   <snm>Stang</snm>
                   <fnm>PE</fnm>
                </au>
             </aug>
             <source>Am J Psychiatr</source>
             <pubdate>1995</pubdate>
             <volume>152</volume>
             <issue>7</issue>
             <fpage>1026</fpage>
             <lpage>1032</lpage>
             <xrefbib>
                <pubidlist>
                   <pubid idtype="pmpid" link="fulltext">7793438</pubid>
                </pubidlist>
             </xrefbib>
          </bibl>
          <bibl id="B18">
             <title>
                <p>Can't surf, won't surf: the digital divide in mental health</p>
             </title>
             <aug>
                <au>
                   <snm>Ennis</snm>
                   <fnm>L</fnm>
                </au>
                <au>
                   <snm>Rose</snm>
                   <fnm>D</fnm>
                </au>
                <au>
                   <snm>Denis</snm>
                   <fnm>M</fnm>
                </au>
                <au>
                   <snm>Pandit</snm>
                   <fnm>N</fnm>
                </au>
                <au>
                   <snm>Wykes</snm>
                   <fnm>T</fnm>
                </au>
             </aug>
             <source>J Ment Health</source>
             <pubdate>2012</pubdate>
             <volume>21</volume>
             <issue>4</issue>
             <fpage>395</fpage>
             <lpage>403</lpage>
             <xrefbib>
                <pubidlist>
                   <pubid idtype="pmpid" link="fulltext">22712756</pubid>
                </pubidlist>
             </xrefbib>
          </bibl>
          <bibl id="B19">
             
                <url>http://ico.org.uk/for_organisations/data_protection</url>
             
<note>Information Commissioner&#8217;s Office: <b>Data protection.</b>  accessed on 04.09.2014.</note>
          </bibl>
          <bibl id="B20">
             <title>
                <p>Selecting outcome measures in mental health: the views of service users</p>
             </title>
             <aug>
                <au>
                   <snm>Crawford</snm>
                   <fnm>MJ</fnm>
                </au>
                <au>
                   <snm>Robotham</snm>
                   <fnm>D</fnm>
                </au>
                <au>
                   <snm>Thana</snm>
                   <fnm>L</fnm>
                </au>
                <au>
                   <snm>Patterson</snm>
                   <fnm>S</fnm>
                </au>
                <au>
                   <snm>Weaver</snm>
                   <fnm>T</fnm>
                </au>
                <au>
                   <snm>Barber</snm>
                   <fnm>R</fnm>
                </au>
                <au>
                   <snm>Wykes</snm>
                   <fnm>T</fnm>
                </au>
                <au>
                   <snm>Rose</snm>
                   <fnm>D</fnm>
                </au>
             </aug>
             <source>J Ment Health</source>
             <pubdate>2011</pubdate>
             <volume>20</volume>
             <issue>4</issue>
             <fpage>336</fpage>
             <lpage>346</lpage>
             <xrefbib>
                <pubidlist>
                   <pubid idtype="pmpid" link="fulltext">21770782</pubid>
                </pubidlist>
             </xrefbib>
          </bibl>
          <bibl id="B21">
             <title>
                <p>A brief measure for assessing generalized anxiety disorder: the GAD-7</p>
             </title>
             <aug>
                <au>
                   <snm>Spitzer</snm>
                   <fnm>RL</fnm>
                </au>
                <au>
                   <snm>Kroenke</snm>
                   <fnm>K</fnm>
                </au>
                <au>
                   <snm>Williams</snm>
                   <fnm>JB</fnm>
                </au>
                <au>
                   <snm>L&#246;we</snm>
                   <fnm>B</fnm>
                </au>
             </aug>
             <source>Arch Intern Med</source>
             <pubdate>2006</pubdate>
             <volume>166</volume>
             <issue>10</issue>
             <fpage>1092</fpage>
             <lpage>1097</lpage>
             <xrefbib>
                <pubidlist>
                   <pubid idtype="pmpid" link="fulltext">16717171</pubid>
                </pubidlist>
             </xrefbib>
          </bibl>
          <bibl id="B22">
             <title>
                <p>The Phq&#8208;9</p>
             </title>
             <aug>
                <au>
                   <snm>Kroenke</snm>
                   <fnm>K</fnm>
                </au>
                <au>
                   <snm>Spitzer</snm>
                   <fnm>RL</fnm>
                </au>
                <au>
                   <snm>Williams</snm>
                   <fnm>JB</fnm>
                </au>
             </aug>
             <source>J Gen Intern Med</source>
             <pubdate>2001</pubdate>
             <volume>16</volume>
             <issue>9</issue>
             <fpage>606</fpage>
             <lpage>613</lpage>
             <xrefbib>
                <pubidlist>
                   <pubid idtype="pmpid" link="fulltext">11556941</pubid>
                </pubidlist>
             </xrefbib>
          </bibl>
          <bibl id="B23">
             <title>
                <p>Randomized trial of an electronic personal health record for patients with serious mental illnesses</p>
             </title>
             <aug>
                <au>
                   <snm>Druss</snm>
                   <fnm>BG</fnm>
                </au>
                <au>
                   <snm>Ji</snm>
                   <fnm>X</fnm>
                </au>
                <au>
                   <snm>Glick</snm>
                   <fnm>G</fnm>
                </au>
                <au>
                   <snm>Silke</snm>
                   <fnm>A</fnm>
                </au>
             </aug>
             <source>Am J Psychiatr</source>
             <pubdate>2014</pubdate>
             <volume>171</volume>
             <issue>3</issue>
             <fpage>360</fpage>
             <lpage>368</lpage>
             <xrefbib>
                <pubidlist>
                   <pubid idtype="pmpid" link="fulltext">24435025</pubid>
                </pubidlist>
             </xrefbib>
          </bibl>
          <bibl id="B24">
             <title>
                <p>Dreams and nightmares: practical and ethical issues for patients and physicians using personal health records</p>
             </title>
             <aug>
                <au>
                   <snm>Wynia</snm>
                   <fnm>M</fnm>
                </au>
                <au>
                   <snm>Dunn</snm>
                   <fnm>K</fnm>
                </au>
             </aug>
             <source>J Law Med Ethics</source>
             <pubdate>2010</pubdate>
             <volume>38</volume>
             <issue>1</issue>
             <fpage>64</fpage>
             <lpage>73</lpage>
             <xrefbib>
                <pubidlist>
                   <pubid idtype="pmpid" link="fulltext">20446985</pubid>
                </pubidlist>
             </xrefbib>
          </bibl>
          <bibl id="B25">
             <title>
                <p>Talk to me: foundations for successful individual-group interactions in online communities</p>
             </title>
             <aug>
                <au>
                   <snm>Arguello</snm>
                   <fnm>J</fnm>
                </au>
                <au>
                   <snm>Butler</snm>
                   <fnm>BS</fnm>
                </au>
                <au>
                   <snm>Joyce</snm>
                   <fnm>E</fnm>
                </au>
                <au>
                   <snm>Kraut</snm>
                   <fnm>R</fnm>
                </au>
                <au>
                   <snm>Ling</snm>
                   <fnm>KS</fnm>
                </au>
                <au>
                   <snm>Ros&#233;</snm>
                   <fnm>C</fnm>
                </au>
                <au>
                   <snm>Wang</snm>
                   <fnm>X</fnm>
                </au>
             </aug>
             <source>Proceedings of the SIGCHI conference on Human Factors in computing systems</source>
             <publisher>ACM, New York, NY, USA</publisher>
             <pubdate>2006</pubdate>
             <fpage>959</fpage>
             <lpage>968</lpage>
          </bibl>
          <bibl id="B26">
             
                <url>http://www.bigwhitewall.com/</url>
             
<note>Big White Wall: <b>Big White Wall.</b>  accessed on 04.09.2014.</note>
          </bibl>
          <bibl id="B27">
             <title>
                <p>Assessing your mood online: acceptability and use of Moodscope</p>
             </title>
             <aug>
                <au>
                   <snm>Drake</snm>
                   <fnm>G</fnm>
                </au>
                <au>
                   <snm>Csipke</snm>
                   <fnm>E</fnm>
                </au>
                <au>
                   <snm>Wykes</snm>
                   <fnm>T</fnm>
                </au>
             </aug>
             <source>Psychol Med</source>
             <pubdate>2013</pubdate>
             <volume>43</volume>
             <issue>7</issue>
             <fpage>1455</fpage>
             <lpage>1464</lpage>
             <xrefbib>
                <pubidlist>
                   <pubid idtype="pmpid" link="fulltext">23149120</pubid>
                </pubidlist>
             </xrefbib>
          </bibl>
          <bibl id="B28">
             <title>
                <p>If you build it, will they come? The Kaiser Permanente model of online health care</p>
             </title>
             <aug>
                <au>
                   <snm>Silvestre</snm>
                   <fnm>A-L</fnm>
                </au>
                <au>
                   <snm>Sue</snm>
                   <fnm>VM</fnm>
                </au>
                <au>
                   <snm>Allen</snm>
                   <fnm>JY</fnm>
                </au>
             </aug>
             <source>Health Aff</source>
             <pubdate>2009</pubdate>
             <volume>28</volume>
             <issue>2</issue>
             <fpage>334</fpage>
             <lpage>344</lpage>
          </bibl>
          <bibl id="B29">
             
                <url>http://www.bbc.co.uk/news/health-26239532</url>
             
<note>Triggle N: <b>Giant NHS database rollout delayed.</b> In <it>BBC News.</it> BBC News Health: BBC News; 2014 (online article; ).</note>
          </bibl>
          <bibl id="B30">
             <title>
                <p>Stigma: the feelings and experiences of 46 people with mental illness Qualitative study</p>
             </title>
             <aug>
                <au>
                   <snm>Dinos</snm>
                   <fnm>S</fnm>
                </au>
                <au>
                   <snm>Stevens</snm>
                   <fnm>S</fnm>
                </au>
                <au>
                   <snm>Serfaty</snm>
                   <fnm>M</fnm>
                </au>
                <au>
                   <snm>Weich</snm>
                   <fnm>S</fnm>
                </au>
                <au>
                   <snm>King</snm>
                   <fnm>M</fnm>
                </au>
             </aug>
             <source>Br J Psychiatry</source>
             <pubdate>2004</pubdate>
             <volume>184</volume>
             <issue>2</issue>
             <fpage>176</fpage>
             <lpage>181</lpage>
             <xrefbib>
                <pubidlist>
                   <pubid idtype="pmpid" link="fulltext">14754832</pubid>
                </pubidlist>
             </xrefbib>
          </bibl>
          <bibl id="B31">
             <title>
                <p>Cognitive impairment in schizophrenia</p>
             </title>
             <aug>
                <au>
                   <snm>O'Carroll</snm>
                   <fnm>R</fnm>
                </au>
             </aug>
             <source>Adv Psychiatr Treat</source>
             <pubdate>2000</pubdate>
             <volume>6</volume>
             <issue>3</issue>
             <fpage>161</fpage>
             <lpage>168</lpage>
          </bibl>
          <bibl id="B32">
             <title>
                <p>Understanding web browsing behaviors through Weibull analysis of dwell time</p>
             </title>
             <aug>
                <au>
                   <snm>Liu</snm>
                   <fnm>C</fnm>
                </au>
                <au>
                   <snm>White</snm>
                   <fnm>RW</fnm>
                </au>
                <au>
                   <snm>Dumais</snm>
                   <fnm>S</fnm>
                </au>
             </aug>
             <source>Proceedings of the 33rd International ACM SIGIR Conference on Research and Development in Information Retrieval</source>
             <publisher>ACM, Geneva, Switzerland</publisher>
             <pubdate>2010</pubdate>
             <fpage>379</fpage>
             <lpage>386</lpage>
          </bibl>
          <bibl id="B33">
             <aug>
                <au>
                   <snm>Pagliari</snm>
                   <fnm>C</fnm>
                </au>
                <au>
                   <snm>Detmer</snm>
                   <fnm>D</fnm>
                </au>
                <au>
                   <snm>Singleton</snm>
                   <fnm>P</fnm>
                </au>
             </aug>
             <source>Electronic Personal Health Records</source>
             <publisher>Emergence and Implications for the UK London, The Nuffield Trust</publisher>
             <pubdate>2007</pubdate>
          </bibl>
          <bibl id="B34">
             <title>
                <p>An empirical investigation of the determinants of user acceptance of Internet banking</p>
             </title>
             <aug>
                <au>
                   <snm>Chau</snm>
                   <fnm>PYK</fnm>
                </au>
                <au>
                   <snm>Lai</snm>
                   <fnm>VSK</fnm>
                </au>
             </aug>
             <source>J Org Comp Elect Com</source>
             <pubdate>2003</pubdate>
             <volume>13</volume>
             <issue>2</issue>
             <fpage>123</fpage>
             <lpage>145</lpage>
          </bibl>
          <bibl id="B35">
             <title>
                <p>The NHS Care Record Service (NHS CRS): recommendations from the literature on successful implementation and adoption</p>
             </title>
             <aug>
                <au>
                   <snm>Cresswell</snm>
                   <fnm>K</fnm>
                </au>
                <au>
                   <snm>Sheikh</snm>
                   <fnm>A</fnm>
                </au>
             </aug>
             <source>Inform Primary Care</source>
             <pubdate>2009</pubdate>
             <volume>17</volume>
             <issue>3</issue>
             <fpage>153</fpage>
             <lpage>160</lpage>
          </bibl>
          <bibl id="B36">
             <title>
                <p>Are we ready for the electronic patient record? Attitudes and perceptions of staff from two NHS trust hospitals</p>
             </title>
             <aug>
                <au>
                   <snm>Kirshbaum</snm>
                   <fnm>MN</fnm>
                </au>
             </aug>
             <source>Health Inform J</source>
             <pubdate>2004</pubdate>
             <volume>10</volume>
             <issue>4</issue>
             <fpage>265</fpage>
             <lpage>276</lpage>
          </bibl>
          <bibl id="B37">
             <title>
                <p>The attitudes of health care staff to information technology: a comprehensive review of the research literature</p>
             </title>
             <aug>
                <au>
                   <snm>Ward</snm>
                   <fnm>R</fnm>
                </au>
                <au>
                   <snm>Stevens</snm>
                   <fnm>C</fnm>
                </au>
                <au>
                   <snm>Brentnall</snm>
                   <fnm>P</fnm>
                </au>
                <au>
                   <snm>Briddon</snm>
                   <fnm>J</fnm>
                </au>
             </aug>
             <source>Health Inform Lib J</source>
             <pubdate>2008</pubdate>
             <volume>25</volume>
             <issue>2</issue>
             <fpage>81</fpage>
             <lpage>97</lpage>
          </bibl>
       </refgrp>
    </bm>
 </art>
