<art>
    <ui>s12879-014-0548-6</ui>
    <ji>1471-2334</ji>
    <fm>
       <dochead>Research article</dochead>
       <bibl>
          <title>
             <p>Tuberculosis recurrence in a high incidence setting for HIV and tuberculosis in Brazil</p>
          </title>
          <aug>
             <au id="A1" ca="yes">
                <snm>Unis</snm>
                <fnm>Gisela</fnm>
                <insr iid="I1"/>
                <email>guatapi@gmail.com</email>
             </au>
             <au id="A2">
                <snm>Ribeiro</snm>
                <mnm>Wolowski</mnm>
                <fnm>Andrezza</fnm>
                <insr iid="I2"/>
                <insr iid="I3"/>
                <email>andrezzaw@yahoo.com.br</email>
             </au>
             <au id="A3">
                <snm>Esteves</snm>
                <mnm>Souza</mnm>
                <fnm>Leonardo</fnm>
                <insr iid="I2"/>
                <insr iid="I4"/>
                <email>biomedicinaleo@yahoo.com.br</email>
             </au>
             <au id="A4">
                <snm>Spies</snm>
                <mnm>S&#225;</mnm>
                <fnm>Fernanda</fnm>
                <insr iid="I3"/>
                <email>nandaspies@gmail.com</email>
             </au>
             <au id="A5">
                <snm>Picon</snm>
                <mnm>Dornelles</mnm>
                <fnm>Pedro</fnm>
                <insr iid="I1"/>
                <email>pedpicon@terra.com.br</email>
             </au>
             <au id="A6">
                <snm>Costa</snm>
                <mnm>Regina Dalla</mnm>
                <fnm>Elis</fnm>
                <insr iid="I2"/>
                <email>dallacostaer@gmail.com</email>
             </au>
             <au id="A7">
                <snm>Rossetti</snm>
                <mnm>Lucia Rosa</mnm>
                <fnm>Maria</fnm>
                <insr iid="I2"/>
                <insr iid="I4"/>
                <email>mrossett@terra.com.br</email>
             </au>
          </aug>
          <insg>
             <ins id="I1">
                <p>Hospital Sanat&#243;rio Partenon - HSP, 3722, Bento Gon&#231;alves Av, Porto Alegre, 90650-001, RS, Brazil</p>
             </ins>
             <ins id="I2">
                <p>Funda&#231;&#227;o Estadual de Produ&#231;&#227;o e Pesquisa em Sa&#250;de &#8211; FEPPS/SES/RS. 5400, Ipiranga Av, Porto Alegre, 90610-000, RS, Brazil</p>
             </ins>
             <ins id="I3">
                <p>Universidade Federal do Rio Grande do Sul, CBIOT. Bento Gon&#231;alves Av, Porto Alegre, 90000-000, RS, Brazil</p>
             </ins>
             <ins id="I4">
                <p>Programa de P&#243;s-gradua&#231;&#227;o em Gen&#233;tica e Toxicologia Aplicada-Universidade Luterana do Brasil &#8211; ULBRA, 8001 Farroupilha Av, Canoas, 92425-900, RS, Brazil</p>
             </ins>
          </insg>
          <source>BMC Infectious Diseases</source>
          <issn>1471-2334</issn>
          <pubdate>2014</pubdate>
          <volume>14</volume>
          <issue>1</issue>
          <fpage>548</fpage>
          <url>http://www.biomedcentral.com/1471-2334/14/548</url>
          <xrefbib>
             <pubidlist>
                <pubid idtype="doi">10.1186/s12879-014-0548-6</pubid>
             </pubidlist>
          </xrefbib>
       </bibl>
       <history>
          <rec>
             <date>
                <day>16</day>
                <month>5</month>
                <year>2014</year>
             </date>
          </rec>
          <acc>
             <date>
                <day>8</day>
                <month>10</month>
                <year>2014</year>
             </date>
          </acc>
          <pub>
             <date>
                <day>24</day>
                <month>10</month>
                <year>2014</year>
             </date>
          </pub>
       </history>
       <cpyrt>
          <year>2014</year>
          <collab>Unis et al.; licensee BioMed Central Ltd.</collab>
          <note>This is an Open Access article distributed under the terms of the Creative Commons Attribution License (<url>http://creativecommons.org/licenses/by/4.0</url>), which permits unrestricted use, distribution, and reproduction in any medium, provided the original work is properly credited. The Creative Commons Public Domain Dedication waiver (<url>http://creativecommons.org/publicdomain/zero/1.0/</url>) applies to the data made available in this article, unless otherwise stated.</note>
       </cpyrt>
       <kwdg>
          <kwd>Tuberculosis</kwd>
          <kwd>Recurrence</kwd>
          <kwd>HIV</kwd>
          <kwd>MIRU</kwd>
       </kwdg>
       <abs>
          <sec>
             <st>
                <p>Abstract</p>
             </st>
             <sec>
                <st>
                   <p>Background</p>
                </st>
                <p>To compare epidemiological data between recurrent cases after cure (RC), distinguishing relapse from reinfection, after dropout (RD) and new cases (NC) in an ambulatory setting in a TB-endemic country.</p>
             </sec>
             <sec>
                <st>
                   <p>Methods</p>
                </st>
                <p>Records of patients who started treatment for pulmonary TB between 2004 and 2010 in a TB clinic were reviewed. Epidemiological data were analyzed. Spoligotyping and MIRU patterns were used to determine relapse or reinfection in 13 RC available.</p>
             </sec>
             <sec>
                <st>
                   <p>Results</p>
                </st>
                <p>Of the eligible group (1449), 1060 were NC (73.2%), among the recurrent cases, 203 (14%) were RC and 186 (12.8%) were RD. Of RC, 171 (84.2%) occurred later than 6 months after a previous episode, 13 had available DNA, in 4 (30.7%) the disease was attributed to reinfection and in 9 (69.3%), to relapse. Comparing RC to NC, HIV (p&#8201;&lt;&#8201;0.0001) was independent risk factor for RC. When RC and RD were compared, alcohol abuse (p&#8201;=&#8201;0.001) and treatment noncompliance (p&#8201;=&#8201;0.006) were more frequent in RD.</p>
             </sec>
             <sec>
                <st>
                   <p>Conclusions</p>
                </st>
                <p>HIV is the sole more important associated factor for RC. This finding points the need to improve the approach to manage TB in order to decrease the chance for exposure especially in vulnerable people with increased risk of developing disease and to improve DOTS strategy to deal with factors associated to treatment noncompliance.</p>
             </sec>
          </sec>
       </abs>
    </fm>
    <bdy>
       <sec>
          <st>
             <p>Background</p>
          </st>
          <p>Although many studies have been done about recurrence of tuberculosis (TB) following completion of treatment it is still a huge problem for public health in high burden countries, where no special attention is being given to this subject <abbrgrp>
                <abbr bid="B1">1</abbr>
             </abbrgrp>. Treatments of recurrent episodes are often associated with drug resistance and low cure rates. The incidence and risk factors for recurrence, as well as the contribution of relapse or reinfection is being searched by several studies with different results <abbrgrp>
                <abbr bid="B2">2</abbr>
             </abbrgrp>&#8211;<abbrgrp>
                <abbr bid="B9">9</abbr>
             </abbrgrp>. Recurrence rates depend largely on TB incidence and HIV prevalence <abbrgrp>
                <abbr bid="B3">3</abbr>
             </abbrgrp>,<abbrgrp>
                <abbr bid="B4">4</abbr>
             </abbrgrp>. In high incidence areas for TB, people who have been treated successfully are at higher risk of developing TB from reinfection than the general population and HIV are at more risk of reinfection than non HIV <abbrgrp>
                <abbr bid="B9">9</abbr>
             </abbrgrp>&#8211;<abbrgrp>
                <abbr bid="B11">11</abbr>
             </abbrgrp>.</p>
          <p>In 2010, the Brazilian Ministry of Health made changes in TB treatment, adding a fourth drug to the basic regimen because of increasing resistance and imposed direct observed treatment for multidrug resistant tuberculosis (MDRTB) as a rule to provide the drugs to ensure adhesion to treatment as an effort to decrease new cases and recurrence <abbrgrp>
                <abbr bid="B12">12</abbr>
             </abbrgrp>.</p>
          <p>This study aimed to investigate recurrence after cure (RC), to distinguish relapse from reinfection and compare to new cases (NC) and recurrence after dropout (RD) in an ambulatory setting in a high burden area for TB and HIV in Brazil, describing epidemiological characteristics of these groups in order to bring new strategies to control recurrence, meaning primary and secondary preventive therapy, implementation of infection control measures in clinical and community settings and special care to vulnerable groups.</p>
       </sec>
       <sec>
          <st>
             <p>Methods</p>
          </st>
          <sec>
             <st>
                <p>Study setting</p>
             </st>
             <p>The study was conducted in a reference Center for TB, placed at Hospital Sanat&#243;rio Partenon in Porto Alegre city, Rio Grande do Sul, Brazil. It covers the east side of the city, counting about 180.000 inhabitants (12% of Porto Alegre population). The incidence of cases was on average 104.6 per 100.000 population per year (2004-2010). In the study area, the prevalence of HIV infection among new patients was approximately 23% <abbrgrp>
                   <abbr bid="B13">13</abbr>
                </abbrgrp>.</p>
          </sec>
          <sec>
             <st>
                <p>Ethics compliance</p>
             </st>
             <p>This study was approved by the ethical committee of Funda&#231;&#227;o Estadual de Produ&#231;&#227;o e Pesquisa em Sa&#250;de &#8211; FEPPS/SES/RS (protocol number 02/2010).</p>
          </sec>
          <sec>
             <st>
                <p>Study population and follow-up</p>
             </st>
             <p>All adult cases starting treatment for pulmonary tuberculosis confirmed by baciloscopy and/or culture between 2004 and 2010 were eligible for this retrospective analysis. New cases (NC), recurrence after cure (RC) or recurrence after dropout (RD) were analyzed for HIV status, and other epidemiological factors such as: sex, age, alcohol abuse, and drugs, smoking and treatment compliance. If recurrence after cure, period between the two episodes and cultures done in the first and second episode were also analyzed. All retreatment patients after cure with a positive culture in the first and second episodes available were identified for relapse or reinfection by molecular techniques.</p>
          </sec>
          <sec>
             <st>
                <p>Definitions</p>
             </st>
             <p>A TB case was defined as pulmonary tuberculosis confirmed by baciloscopy and/or culture with radiological and clinical findings suggestive of TB. Recurrence of TB was defined as a second episode of TB occurring after a first episode had been considered cured.</p>
             <p>Disease attributable to reinfection was defined as a recurrent disease episode with a different <it>M. tuberculosis</it> strain. Relapse was defined as a recurrent disease episode with the same <it>M. tuberculosis</it> strain found in the previous episode, assuming that reinfection with the same strain is not expected to be significant because strain diversity in this community is high <abbrgrp>
                   <abbr bid="B14">14</abbr>
                </abbrgrp>&#8211;<abbrgrp>
                   <abbr bid="B16">16</abbr>
                </abbrgrp>. The same definition was proposed by others <abbrgrp>
                   <abbr bid="B1">1</abbr>
                </abbrgrp>,<abbrgrp>
                   <abbr bid="B4">4</abbr>
                </abbrgrp>,<abbrgrp>
                   <abbr bid="B7">7</abbr>
                </abbrgrp>,<abbrgrp>
                   <abbr bid="B9">9</abbr>
                </abbrgrp> New case was defined as a case without any previous treatment. Recurrence was considered any time after end of treatment of the previous episode. A period less than 3 months after the end of the first treatment and longer than 60 months was excluded for epidemiological statistics inferring shorten period could be failure of treatment in most of the cases, and a period longer than five years as a new case. World Health Organization definitions were used to determine treatment outcome. A patient was considered cured when initially smear-positive and who was smear-negative in the last month of treatment and on at least one previous occasion.</p>
          </sec>
          <sec>
             <st>
                <p>Laboratory methods</p>
             </st>
             <sec>
                <st>
                   <p>Susceptibility test and DNA extraction</p>
                </st>
                <p>The isolates were cultured in L&#246;wenstein Jensen solid medium. The drug susceptibility testing was performed according to the proportion method described by Canetti et al. <abbrgrp>
                      <abbr bid="B17">17</abbr>
                   </abbrgrp>. Chromosomal DNA extraction was performed using the cetyltrimethylammonium bromide (CTAB) method as described by van Soolingen et al. <abbrgrp>
                      <abbr bid="B18">18</abbr>
                   </abbrgrp>.</p>
             </sec>
             <sec>
                <st>
                   <p>Genotyping analysis</p>
                </st>
                <p>Spoligotyping was performed as described by Kamerbeek et al. with a commercial kit (Ocimum Biosolutions BV, India) and the results were compared to a public database available at: <url>http://www.pasteur-guadeloupe.fr:8081/SITVIT_ONLINE</url>
                   <abbrgrp>
                      <abbr bid="B19">19</abbr>
                   </abbrgrp>,<abbrgrp>
                      <abbr bid="B20">20</abbr>
                   </abbrgrp>. MIRU-VNTR was carried out by Genoscreen&#174; using the commercial 24-loci format. If MIRU-VNTR has at least one locus of difference it was considered as different strains.</p>
             </sec>
             <sec>
                <st>
                   <p>Statistical analysis</p>
                </st>
                <p>Statistical analysis was performed using SPSS software (SPSS Inc., Chicago, IL). The groups RC, RD and NC were compared by Chi-square, <it>t</it>-test. Logistic regression analysis was made in the cases where bivariate analysis showed significative differences. Statistical significance was considered if p &lt;0.05 with 95% confidence intervals. To analyze possible confounders variables, multivariable analysis was performed.</p>
             </sec>
          </sec>
       </sec>
       <sec>
          <st>
             <p>Results</p>
          </st>
          <p>A total of 1522 adult patients started treatment for pulmonary TB between 2004 and 2010. Patients starting treatment after failure were excluded (73/4.6%). In the eligible group (1449), there were 1060 new cases (NC) (73.2%). Among the recurrent cases, 203 (14%) were RC and 186 (12.8%) were considered RD (Figure&#160;<figr fid="F1">1</figr>).</p>
          
             <fig id="F1">
                <title>
                   <p>Figure 1</p>
                </title>
                <caption>
                   <p>The flow chart of tuberculosis patient selection.</p>
                </caption>
                <text>
                   <p>
                      <b>The flow chart of tuberculosis patient selection.</b>
                   </p>
                </text>
                <graphic file="s12879-014-0548-6-1"/>
             </fig>
          
          <p>HIV positive status of the 3 groups NC, RC and RD were respectively 22.5, 37.7 and 43.3%. These groups were further compared about sex, age, smoking, alcohol abuse, drugs, and treatment compliance (Table&#160;<tblr tid="T1">1</tblr>).</p>
          
             <table id="T1">
                <title>
                   <p>Table 1</p>
                </title>
                <caption>
                   <p>
                      <b>Epidemiological and clinical characteristics of TB patients in the study period</b>
                   </p>
                </caption>
                <tgroup align="left" cols="5">
                   <colspec align="left" colname="c1" colnum="1" colwidth="*"/>
                   <colspec align="left" colname="c2" colnum="2" colwidth="*"/>
                   <colspec align="left" colname="c3" colnum="3" colwidth="*"/>
                   <colspec align="left" colname="c4" colnum="4" colwidth="*"/>
                   <colspec align="left" colname="c5" colnum="5" colwidth="*"/>
                   <thead>
                      <row valign="top">
                         <entry colname="c1">
                            <p>
                               <b>Total (</b>
                               <b>
                                  <it>n</it>
                               </b>&#8201;
                                           <b>=&#8201;1449)</b>
                            </p>
                         </entry>
                         <entry colname="c2"/>
                         <entry colname="c3">
                            <p>
                               <b>NC (%)</b>
                            </p>
                         </entry>
                         <entry colname="c4">
                            <p>
                               <b>RC (%)</b>
                            </p>
                         </entry>
                         <entry colname="c5">
                            <p>
                               <b>RD (%)</b>
                            </p>
                         </entry>
                      </row>
                      <row valign="top">
                         <entry colname="c1">
                            <p>
                               <b>Total</b>
                            </p>
                         </entry>
                         <entry colname="c2"/>
                         <entry colname="c3">
                            <p>
                               <b>n&#8201;=&#8201;1060 (73.2)</b>
                            </p>
                         </entry>
                         <entry colname="c4">
                            <p>
                               <b>n&#8201;=&#8201;203 (14)</b>
                            </p>
                         </entry>
                         <entry colname="c5">
                            <p>
                               <b>n&#8201;=&#8201;186 (12.8)</b>
                            </p>
                         </entry>
                      </row>
                   </thead>
                   <tfoot>
                      <p>NC&#8201;=&#8201;New Cases.</p>
                      <p>RC&#8201;=&#8201;Recurrence after cure.</p>
                      <p>RD&#8201;=&#8201;Recurrence after dropout.</p>
                      <p>
                         <sup>a</sup>OR = 2.15 (1.55-2.97); p &lt; 0.0001.</p>
                      <p>
                         <sup>b</sup>OR = 2.60 (1.46-4.65); p = 0.001.</p>
                      <p>
                         <sup>c</sup>OR = 2.15 (1.24-3.73); p = 0.006.</p>
                   </tfoot>
                   <tbody>
                      <row valign="top">
                         <entry colname="c1"/>
                         <entry colname="c2">
                            <p>
                               <b>Valid cases for NC/RC/RD</b>
                            </p>
                         </entry>
                         <entry colname="c3"/>
                         <entry colname="c4"/>
                         <entry colname="c5"/>
                      </row>
                      <row valign="top">
                         <entry colname="c1">
                            <p>Sex Male</p>
                         </entry>
                         <entry colname="c2">
                            <p>1060/203/186</p>
                         </entry>
                         <entry colname="c3">
                            <p>67.2</p>
                         </entry>
                         <entry colname="c4">
                            <p>63.1</p>
                         </entry>
                         <entry colname="c5">
                            <p>75.3</p>
                         </entry>
                      </row>
                      <row valign="top">
                         <entry colname="c1">
                            <p>HIV-positivity</p>
                         </entry>
                         <entry colname="c2">
                            <p>1034/199/180</p>
                         </entry>
                         <entry colname="c3">
                            <p>22.5<sup>a</sup>
                            </p>
                         </entry>
                         <entry colname="c4">
                            <p>37.7<sup>a</sup>
                            </p>
                         </entry>
                         <entry colname="c5">
                            <p>43.3</p>
                         </entry>
                      </row>
                      <row valign="top">
                         <entry colname="c1">
                            <p>Alcohol abuse</p>
                         </entry>
                         <entry colname="c2">
                            <p>965/171/152</p>
                         </entry>
                         <entry colname="c3">
                            <p>35.5</p>
                         </entry>
                         <entry colname="c4">
                            <p>35.7<sup>b</sup>
                            </p>
                         </entry>
                         <entry colname="c5">
                            <p>60.5<sup>b</sup>
                            </p>
                         </entry>
                      </row>
                      <row valign="top">
                         <entry colname="c1">
                            <p>Drug abuse</p>
                         </entry>
                         <entry colname="c2">
                            <p>911/160/145</p>
                         </entry>
                         <entry colname="c3">
                            <p>29.3</p>
                         </entry>
                         <entry colname="c4">
                            <p>31.9</p>
                         </entry>
                         <entry colname="c5">
                            <p>55.9</p>
                         </entry>
                      </row>
                      <row valign="top">
                         <entry colname="c1">
                            <p>Smoke</p>
                         </entry>
                         <entry colname="c2">
                            <p>971/172/153</p>
                         </entry>
                         <entry colname="c3">
                            <p>63.4</p>
                         </entry>
                         <entry colname="c4">
                            <p>65.7</p>
                         </entry>
                         <entry colname="c5">
                            <p>73.9</p>
                         </entry>
                      </row>
                      <row valign="top">
                         <entry colname="c1">
                            <p>Treatment noncompliance</p>
                         </entry>
                         <entry colname="c2">
                            <p>940/170/163</p>
                         </entry>
                         <entry colname="c3">
                            <p>28.5</p>
                         </entry>
                         <entry colname="c4">
                            <p>34.7<sup>c</sup>
                            </p>
                         </entry>
                         <entry colname="c5">
                            <p>60.7<sup>c</sup>
                            </p>
                         </entry>
                      </row>
                      <row valign="top">
                         <entry colname="c1">
                            <p>Age years, median</p>
                         </entry>
                         <entry colname="c2">
                            <p>1060/203/186</p>
                         </entry>
                         <entry colname="c3">
                            <p>37&#8201;&#177;&#8201;13.9</p>
                         </entry>
                         <entry colname="c4">
                            <p>39.6&#8201;&#177;&#8201;12.39</p>
                         </entry>
                         <entry colname="c5">
                            <p>36.4&#8201;&#177;&#8201;10.7</p>
                         </entry>
                      </row>
                   </tbody>
                </tgroup>
             </table>
          
          <p>Comparing RC to NC, there were statistics differences in HIV status. These results indicate that HIV infection is an independent risk factor for recurrence of TB after cure [OR = 2.15 (1.55-2.97); p &lt; 0.0001)]. Most of the 203 recurrences occurred later than 6 months after the end of the treatment of a previous episode 84.2% (n&#8201;=&#8201;171/203). When considering only patients with a period between episodes less than 3 months (90 days) or higher than 60 months (1800 days); 121 of 203 recurrences; 97 (80.16%) occurred later than 6 months after the end of the treatment of a previous episode.</p>
          <p>When RC and RD were compared, HIV status was not different in these groups. In the other hand, alcohol abuse and treatment noncompliance were statistically more frequent in those that dropped treatment [OR = 2.60 (1.46-4.65); p = 0.001)] and [OR = 2.15 (1.24-3.73); p = 0.006)] respectively.</p>
          <p>Of the 203 recurrent TB cases, 24 had cultures done in the first and second episodes, but only 13 strains were available to culture for further DNA extraction. Spoligotyping and MIRU-VNTR were performed on available strains to differentiate whether the disease is due to reinfection or relapse. According to molecular techniques, in 4 (30.7%) patients the disease was attributed to reinfection and in 9 (69.3%), to relapse.</p>
          <p>In the reinfection patients, according to MIRU-VNTR technique, there was an interval of 6 months or more between the first and second episode. In two of them, strains were isoniazid (INH) and rifampicin (RMP) resistant in both episodes. One patient had a INH resistant episode, followed by a susceptible strain 700 days later (patient 7 in Additional file <supplr sid="S1">1</supplr>: Table S1). Patient 11 had two susceptible strains in both episodes. Three patients were HIV positive and one negative (Additional file <supplr sid="S1">1</supplr>: Table S1).</p><p>In 9 (69.3%) cases the disease was attributed to relapse due to identical MIRU-VNTR profile. Among them, there were six patients that relapsed 6 months or more after the first episode. In this group, 6 cases were susceptible to all tested drugs, 2 cases were RMP and INH resistant and one was RMP resistant. Two patients were HIV positive and seven negative. No statistical differences between the two groups (relapse and reinfection) were found.</p>
          <p>Among 26 spoligotyping performed, LAM and T family were the most common, 10 (38.5%). and 6 (23%) strains respectively.</p>
       </sec>
       <sec>
          <st>
             <p>Discussion</p>
          </st>
          <p>In a previous study at the same city, recurrence of tuberculosis was estimated as 4.3% between 1989 and 1994 (0.55/100 person-years) <abbrgrp>
                <abbr bid="B7">7</abbr>
             </abbrgrp>. Now, the high incidence of recurrence (26.8% of patients, n&#8201;=&#8201;389) in the study period shows that TB is far from being controlled in this area and evidences the need to characterize this population. Since then, the incidence of HIV and TB had increased, achieving the second position in the unwanted ranking of brazilian capitals with one of the highest TB (104.6/100000 habitants) and TB/HIV (1/3 of them) incidence. Korenromp et al. found, in a study carried out in sub-Saharan Africa, rates of TB recurrence were up to 20/100 person years <abbrgrp>
                <abbr bid="B21">21</abbr>
             </abbrgrp>. In a low incidence area, Nashville-Tennessee-USA, from 1431 reported TB cases, 20 (1.4%) cases recurred in the studied period <abbrgrp>
                <abbr bid="B22">22</abbr>
             </abbrgrp>. It clearly shows the quality of TB control programs in these areas, as recurrence rates can be used to assess the effectiveness of TB control programs. In high TB incidence areas, recurrences are likely due to reinfection, related to the maintenance of infection source. However, in low incidence areas, when infection control is adequate, recurrences are likely due to relapse.</p>
          <p>In thirteen publications from 1993 to 2001, reviewed by Lambert et al. <abbrgrp>
                <abbr bid="B1">1</abbr>
             </abbrgrp>, there was not a concordance about a standard in terms of timing to characterize recurrence. In two recently published reports, Millet et al. defined at least twelve months between two positive culture and for Luzze et al., it was considered any time after the end of the previous treatment <abbrgrp>
                <abbr bid="B8">8</abbr>
             </abbrgrp>,<abbrgrp>
                <abbr bid="B9">9</abbr>
             </abbrgrp>. For epidemiological statistical proposal, to compare time between episodes it was considered from 3 months to five years, inferring shorten period could be failure of treatment in most of the cases, and a period longer than five years as a new case <abbrgrp>
                <abbr bid="B7">7</abbr>
             </abbrgrp>. Nunn et al. reported 78% of 574 recurrences by relapses, occurred within 6 months of stopping treatment and 525 recurrences by reinfection (91%) within 12 months <abbrgrp>
                <abbr bid="B23">23</abbr>
             </abbrgrp>. Recurrence due to relapse seems to occur closer to the time of cure <abbrgrp>
                <abbr bid="B24">24</abbr>
             </abbrgrp>. In a large study made in a sub-Saharan TB-endemic country the median duration to TB recurrence was 9.9 months, in agreement with earlier African studies where 90% of clinical relapses occurred within 12 months after completing treatment <abbrgrp>
                <abbr bid="B8">8</abbr>
             </abbrgrp>,<abbrgrp>
                <abbr bid="B25">25</abbr>
             </abbrgrp>,<abbrgrp>
                <abbr bid="B26">26</abbr>
             </abbrgrp>. In the same study time to reinfection was longer than to relapse (20.1 vs. 8.1 months p&#8201;=&#8201;0.07) in HIV-positive patients <abbrgrp>
                <abbr bid="B8">8</abbr>
             </abbrgrp>. In our study HIV positive patients had a longer time between episodes than HIV negative patients (p&#8201;=&#8201;0.049) suggesting that reinfection may be more implicated than relapse in HIV positive and relapse may be more implicated in HIV negative. HIV positive patients attend more frequently the public health system, probably being more exposed to a new infection and are more susceptible to disease when infected. According Pettit et al. the higher rate of reinfection among HIV infected patients may be related to increase in exposure in high incidence areas and subsequent increased risk for disease progression <abbrgrp>
                <abbr bid="B22">22</abbr>
             </abbrgrp>. The high number of recurrence in our study and the time between episodes suggest reinfection playing most of the cases as it is expected in a high burden area <abbrgrp>
                <abbr bid="B1">1</abbr>
             </abbrgrp>,<abbrgrp>
                <abbr bid="B4">4</abbr>
             </abbrgrp>,<abbrgrp>
                <abbr bid="B7">7</abbr>
             </abbrgrp>,<abbrgrp>
                <abbr bid="B9">9</abbr>
             </abbrgrp>, with a high strain diversity circulating <abbrgrp>
                <abbr bid="B14">14</abbr>
             </abbrgrp>&#8211;<abbrgrp>
                <abbr bid="B16">16</abbr>
             </abbrgrp>.</p>
          <p>Comparing RC to NC, HIV infection was independent risk factor for recurrence of TB after cure. Millet et al. reported more risk of TB recurrence in HIV positive patients <abbrgrp>
                <abbr bid="B9">9</abbr>
             </abbrgrp>. Sonnenberg et al., Panjabi et al. and Pettit et al. report HIV infection as factor independently associated with recurrence <abbrgrp>
                <abbr bid="B22">22</abbr>
             </abbrgrp>,<abbrgrp>
                <abbr bid="B27">27</abbr>
             </abbrgrp>,<abbrgrp>
                <abbr bid="B28">28</abbr>
             </abbrgrp>. Studies involving HIV positive patients have reported higher recurrence rates <abbrgrp>
                <abbr bid="B9">9</abbr>
             </abbrgrp>,<abbrgrp>
                <abbr bid="B22">22</abbr>
             </abbrgrp>,<abbrgrp>
                <abbr bid="B29">29</abbr>
             </abbrgrp>. In our study 37.7% of recurrent patients after cure were HIV positive.</p>
          <p>When RC and RD were compared, HIV status was not different in these groups. In the other hand, alcohol abuse and treatment noncompliance were statistic more frequent in those that dropped treatment than in RC group. In another study, the noncompliance was higher in alcohol abuse cases (20.9% vs. 9.9%; p = 0.01) <abbrgrp>
                <abbr bid="B7">7</abbr>
             </abbrgrp>. Many studies were done to identify risk factors associated with TB treatment default. Alcohol use or alcohol abuse has been frequently reported as a risk factor for default <abbrgrp>
                <abbr bid="B30">30</abbr>
             </abbrgrp>&#8211;<abbrgrp>
                <abbr bid="B33">33</abbr>
             </abbrgrp>.</p>
          <p>As sputum culture in Brazil is not available for each patient starting treatment, only in few it was possible to obtain sputum in the first episode and in the recurrence of the disease for genotyping analysis <abbrgrp>
                <abbr bid="B12">12</abbr>
             </abbrgrp>. Among the thirteen patients analyzed, in 4 (30.7%) patients the disease was attributed to reinfection and in 9 (69.3%), to relapse. There is no statistical difference among reinfection and relapse for epidemiological characteristics including HIV status.</p>
          <p>The LAM family was the most frequent pattern involved in relapse, which is expected as this family was the most common in the study and it is very common in the study area as well as in Brazil <abbrgrp>
                <abbr bid="B14">14</abbr>
             </abbrgrp>&#8211;<abbrgrp>
                <abbr bid="B16">16</abbr>
             </abbrgrp>. The T family, the second most common family, is also, a very common profile causing TB disease in the South Brazil <abbrgrp>
                <abbr bid="B14">14</abbr>
             </abbrgrp>&#8211;<abbrgrp>
                <abbr bid="B16">16</abbr>
             </abbrgrp>. The study had no correlation among spoligopatterns families and resistance profile.</p>
          <p>Despite no statistically difference among HIV status in the relapse group, probably due to the few number analyzed, there was a trend to an increase of relapse in HIV negative. Our findings are consistent with a study performed in an area of medium to high TB incidence, when HIV-negative patients are predominantly affected by relapse, while HIV positive patients are at risk of both relapse and reinfection <abbrgrp>
                <abbr bid="B29">29</abbr>
             </abbrgrp>,<abbrgrp>
                <abbr bid="B34">34</abbr>
             </abbrgrp>,<abbrgrp>
                <abbr bid="B35">35</abbr>
             </abbrgrp>. The median time to TB relapse was 550 days. A very similar number reported was found by Pettit et al., when relapse was 412 days, despite this study was performed in low TB incidence area, approximately 5/100 000 against Porto Alegre area which TB incidence is approximately 160/100 000 <abbrgrp>
                <abbr bid="B22">22</abbr>
             </abbrgrp>.</p>
       </sec>
       <sec>
          <st>
             <p>Conclusions</p>
          </st>
          <p>Considering the high incidence of recurrence, the period longer than 6 months after the previous episode suggests reinfection as a major cause for recurrence in a high setting of TB and HIV. HIV is the sole more important associated factor for recurrence after cure and alcohol abuse for treatment dropout. These finding points to the need for another approach to manage TB in order to decrease the chance for exposure especially in vulnerable people with increased risk of developing disease and to improve DOTS strategy to deal with factors associated to treatment noncompliance including psychological and social worker assistance.</p>
       </sec>
       <sec>
          <st>
             <p>Competing interests</p>
          </st>
          <p>The authors declare that they have no competing interests.</p>
       </sec>
       <sec>
          <st>
             <p>Authors&#8217; contributions</p>
          </st>
          <p>GU conceived the study, analyzed the data, carried out statistical analysis and drafted the manuscript. AWR carried out experimental procedures, analyzed the data and revised the manuscript. LSE carried out experimental procedures. FSS carried out experimental procedures and revised the manuscript. PDP carried out statistical analysis, analyzed the data and revised the manuscript. ERDC analyzed the data and drafted the manuscript. MLRR conceived the study, revised experimental procedures and revised the manuscript. All authors read and approved the final manuscript.</p>
       </sec>
       <sec>
          <st>
             <p>Additional file</p>
          </st>
          <suppl id="S1">
             <title>
                <p>Additional file 1: Table S1.</p>
             </title>
             <text>
                <p>Genetic characteristics of strains infecting TB recurrent patients in the study period.</p>
             </text>
             <file name="s12879-014-0548-6-S1.doc">
                <p>Click here for file</p>
             </file>
          </suppl>
          
       </sec>
    </bdy>
    <bm>
       <ack>
          <sec>
             <st>
                <p>Acknowledgements</p>
             </st>
             <p>We would like to thank the International Clinical, Operational, and Health Services Research and Training Award (ICOHRTA Program), the Fogarty International Center/US National Institutes of Health #U2RTW006885 ICOHRTA-NIH AI066994 for grant support. We also thank the staff of HSP and financial support from FEPPS.</p>
          </sec>
       </ack>
       <refgrp>
          
          <bibl id="B1">
             <title>
                <p>Recurrence in tuberculosis: relapse or reinfection?</p>
             </title>
             <aug>
                <au>
                   <snm>Lambert</snm>
                   <fnm>ML</fnm>
                </au>
                <au>
                   <snm>Hasker</snm>
                   <fnm>E</fnm>
                </au>
                <au>
                   <snm>Van Deun</snm>
                   <fnm>A</fnm>
                </au>
                <au>
                   <snm>Roberfroid</snm>
                   <fnm>D</fnm>
                </au>
                <au>
                   <snm>Boelaert</snm>
                   <fnm>M</fnm>
                </au>
                <au>
                   <snm>Van der Stuyft</snm>
                   <fnm>P</fnm>
                </au>
             </aug>
             <source>Lancet Infect Dis</source>
             <pubdate>2003</pubdate>
             <volume>3</volume>
             <fpage>282</fpage>
             <lpage>287</lpage>
             <xrefbib>
                <pubidlist>
                   <pubid idtype="doi">10.1016/S1473-3099(03)00607-8</pubid>
                   <pubid idtype="pmpid" link="fulltext">12726976</pubid>
                </pubidlist>
             </xrefbib>
          </bibl>
          <bibl id="B2">
             <title>
                <p>Contribution of reinfection to recurrent tuberculosis in South African gold miners</p>
             </title>
             <aug>
                <au>
                   <snm>Charalambous</snm>
                   <fnm>S</fnm>
                </au>
                <au>
                   <snm>Grant</snm>
                   <fnm>AD</fnm>
                </au>
                <au>
                   <snm>Moloi</snm>
                   <fnm>V</fnm>
                </au>
                <au>
                   <snm>Warren</snm>
                   <fnm>R</fnm>
                </au>
                <au>
                   <snm>Day</snm>
                   <fnm>JH</fnm>
                </au>
                <au>
                   <snm>van Helden</snm>
                   <fnm>P</fnm>
                </au>
                <au>
                   <snm>Hayes</snm>
                   <fnm>RJ</fnm>
                </au>
                <au>
                   <snm>Fielding</snm>
                   <fnm>KL</fnm>
                </au>
                <au>
                   <snm>De Cock</snm>
                   <fnm>KM</fnm>
                </au>
                <au>
                   <snm>Chaisson</snm>
                   <fnm>RE</fnm>
                </au>
                <au>
                   <snm>Churchyard</snm>
                   <fnm>GJ</fnm>
                </au>
             </aug>
             <source>Int J Tuberc Lung Dis</source>
             <pubdate>2008</pubdate>
             <volume>12</volume>
             <fpage>942</fpage>
             <lpage>948</lpage>
             <xrefbib>
                <pubidlist>
                   <pubid idtype="pmpid" link="fulltext">18647455</pubid>
                </pubidlist>
             </xrefbib>
          </bibl>
          <bibl id="B3">
             <title>
                <p>Rate of reinfection tuberculosis after successful treatment is higher than rate of new tuberculosis</p>
             </title>
             <aug>
                <au>
                   <snm>Verver</snm>
                   <fnm>S</fnm>
                </au>
                <au>
                   <snm>Warren</snm>
                   <fnm>RM</fnm>
                </au>
                <au>
                   <snm>Beyers</snm>
                   <fnm>N</fnm>
                </au>
                <au>
                   <snm>Richardson</snm>
                   <fnm>M</fnm>
                </au>
                <au>
                   <snm>van der Spuy</snm>
                   <fnm>GD</fnm>
                </au>
                <au>
                   <snm>Borgdorff</snm>
                   <fnm>MW</fnm>
                </au>
                <au>
                   <snm>Enarson</snm>
                   <fnm>DA</fnm>
                </au>
                <au>
                   <snm>Behr</snm>
                   <fnm>MA</fnm>
                </au>
                <au>
                   <snm>van Helden</snm>
                   <fnm>PD</fnm>
                </au>
             </aug>
             <source>Am J Respir Crit Care Med</source>
             <pubdate>2005</pubdate>
             <volume>171</volume>
             <fpage>1430</fpage>
             <lpage>1435</lpage>
             <xrefbib>
                <pubidlist>
                   <pubid idtype="doi">10.1164/rccm.200409-1200OC</pubid>
                   <pubid idtype="pmpid" link="fulltext">15831840</pubid>
                </pubidlist>
             </xrefbib>
          </bibl>
          <bibl id="B4">
             <title>
                <p>High rates of recurrence in HIV-infected and HIV-uninfected patients with tuberculosis</p>
             </title>
             <aug>
                <au>
                   <snm>Glynn</snm>
                   <fnm>JR</fnm>
                </au>
                <au>
                   <snm>Murray</snm>
                   <fnm>J</fnm>
                </au>
                <au>
                   <snm>Bester</snm>
                   <fnm>A</fnm>
                </au>
                <au>
                   <snm>Nelson</snm>
                   <fnm>G</fnm>
                </au>
                <au>
                   <snm>Shearer</snm>
                   <fnm>S</fnm>
                </au>
                <au>
                   <snm>Sonnenberg</snm>
                   <fnm>P</fnm>
                </au>
             </aug>
             <source>J Infect Dis</source>
             <pubdate>2010</pubdate>
             <volume>201</volume>
             <fpage>704</fpage>
             <lpage>711</lpage>
             <xrefbib>
                <pubidlist>
                   <pubid idtype="doi">10.1086/650529</pubid>
                   <pubid idtype="pmpid" link="fulltext">20121434</pubid>
                </pubidlist>
             </xrefbib>
          </bibl>
          <bibl id="B5">
             <title>
                <p>Recurrent tuberculosis in HIV-infected patients in Rio de Janeiro, Brazil</p>
             </title>
             <aug>
                <au>
                   <snm>Golub</snm>
                   <fnm>JE</fnm>
                </au>
                <au>
                   <snm>Durovni</snm>
                   <fnm>B</fnm>
                </au>
                <au>
                   <snm>King</snm>
                   <fnm>BS</fnm>
                </au>
                <au>
                   <snm>Cavalacante</snm>
                   <fnm>SC</fnm>
                </au>
                <au>
                   <snm>Pacheco</snm>
                   <fnm>AG</fnm>
                </au>
                <au>
                   <snm>Moulton</snm>
                   <fnm>LH</fnm>
                </au>
                <au>
                   <snm>Moore</snm>
                   <fnm>RD</fnm>
                </au>
                <au>
                   <snm>Chaisson</snm>
                   <fnm>RE</fnm>
                </au>
                <au>
                   <snm>Saraceni</snm>
                   <fnm>V</fnm>
                </au>
             </aug>
             <source>AIDS</source>
             <pubdate>2008</pubdate>
             <volume>22</volume>
             <fpage>2527</fpage>
             <lpage>2533</lpage>
             <xrefbib>
                <pubidlist>
                   <pubid idtype="doi">10.1097/QAD.0b013e328311ac4e</pubid>
                   <pubid idtype="pmpid" link="fulltext">19005276</pubid>
                </pubidlist>
             </xrefbib>
          </bibl>
          <bibl id="B6">
             <title>
                <p>Impact of HIV infection on the recurrence of tuberculosis in South India</p>
             </title>
             <aug>
                <au>
                   <snm>Narayanan</snm>
                   <fnm>S</fnm>
                </au>
                <au>
                   <snm>Swaminathan</snm>
                   <fnm>S</fnm>
                </au>
                <au>
                   <snm>Supply</snm>
                   <fnm>P</fnm>
                </au>
                <au>
                   <snm>Shanmugam</snm>
                   <fnm>S</fnm>
                </au>
                <au>
                   <snm>Narendran</snm>
                   <fnm>G</fnm>
                </au>
                <au>
                   <snm>Hari</snm>
                   <fnm>L</fnm>
                </au>
                <au>
                   <snm>Ramachandran</snm>
                   <fnm>R</fnm>
                </au>
                <au>
                   <snm>Locht</snm>
                   <fnm>C</fnm>
                </au>
                <au>
                   <snm>Jawahar</snm>
                   <fnm>MS</fnm>
                </au>
                <au>
                   <snm>Narayanan</snm>
                   <fnm>PR</fnm>
                </au>
             </aug>
             <source>J Infect Dis</source>
             <pubdate>2010</pubdate>
             <volume>201</volume>
             <fpage>691</fpage>
             <lpage>703</lpage>
             <xrefbib>
                <pubidlist>
                   <pubid idtype="doi">10.1086/650528</pubid>
                   <pubid idtype="pmpid" link="fulltext">20121433</pubid>
                </pubidlist>
             </xrefbib>
          </bibl>
          <bibl id="B7">
             <title>
                <p>Risk factors for recurrence of tuberculosis</p>
             </title>
             <aug>
                <au>
                   <snm>Picon</snm>
                   <fnm>PD</fnm>
                </au>
                <au>
                   <snm>Bassanesi</snm>
                   <fnm>SL</fnm>
                </au>
                <au>
                   <snm>Caramori</snm>
                   <fnm>ML</fnm>
                </au>
                <au>
                   <snm>Ferreira</snm>
                   <fnm>RL</fnm>
                </au>
                <au>
                   <snm>Jarczewski</snm>
                   <fnm>CA</fnm>
                </au>
                <au>
                   <snm>Vieira</snm>
                   <fnm>PR</fnm>
                </au>
             </aug>
             <source>J Bras Pneumol</source>
             <pubdate>2007</pubdate>
             <volume>33</volume>
             <fpage>572</fpage>
             <lpage>578</lpage>
             <xrefbib>
                <pubidlist>
                   <pubid idtype="doi">10.1590/S1806-37132007000500013</pubid>
                   <pubid idtype="pmpid" link="fulltext">18026656</pubid>
                </pubidlist>
             </xrefbib>
          </bibl>
          <bibl id="B8">
             <title>
                <p>Relapse more common than reinfection in recurrent tuberculosis 1-2 years post treatment in urban Uganda</p>
             </title>
             <aug>
                <au>
                   <snm>Luzze</snm>
                   <fnm>H</fnm>
                </au>
                <au>
                   <snm>Johnson</snm>
                   <fnm>DF</fnm>
                </au>
                <au>
                   <snm>Dickman</snm>
                   <fnm>K</fnm>
                </au>
                <au>
                   <snm>Mayanja-Kizza</snm>
                   <fnm>H</fnm>
                </au>
                <au>
                   <snm>Okwera</snm>
                   <fnm>A</fnm>
                </au>
                <au>
                   <snm>Eisenach</snm>
                   <fnm>K</fnm>
                </au>
                <au>
                   <snm>Cave</snm>
                   <fnm>MD</fnm>
                </au>
                <au>
                   <snm>Whalen</snm>
                   <fnm>CC</fnm>
                </au>
                <au>
                   <snm>Johnson</snm>
                   <fnm>JL</fnm>
                </au>
                <au>
                   <snm>Boom</snm>
                   <fnm>WH</fnm>
                </au>
                <au>
                   <snm>Joloba</snm>
                   <fnm>M</fnm>
                </au>
             </aug>
             <source>Int J Tuberc Lung Dis</source>
             <pubdate>2013</pubdate>
             <volume>17</volume>
             <fpage>361</fpage>
             <lpage>367</lpage>
             <xrefbib>
                <pubidlist>
                   <pubid idtype="doi">10.5588/ijtld.11.0692</pubid>
                   <pubid idtype="pmpid" link="fulltext">23407224</pubid>
                </pubidlist>
             </xrefbib>
          </bibl>
          <bibl id="B9">
             <title>
                <p>Tuberculosis recurrence after completion treatment in a European city: reinfection or relapse?</p>
             </title>
             <aug>
                <au>
                   <snm>Millet</snm>
                   <fnm>JP</fnm>
                </au>
                <au>
                   <snm>Shaw</snm>
                   <fnm>E</fnm>
                </au>
                <au>
                   <snm>Orcau</snm>
                   <fnm>A</fnm>
                </au>
                <au>
                   <snm>Casals</snm>
                   <fnm>M</fnm>
                </au>
                <au>
                   <snm>Mir&#243;</snm>
                   <fnm>JM</fnm>
                </au>
                <au>
                   <snm>Cayl&#224;</snm>
                   <fnm>JA</fnm>
                </au>
             </aug>
             <source>PLoS One</source>
             <pubdate>2013</pubdate>
             <volume>8</volume>
             <fpage>e64898</fpage>
             <xrefbib>
                <pubidlist>
                   <pubid idtype="doi">10.1371/journal.pone.0064898</pubid>
                   <pubid idtype="pmpid" link="fulltext">23776440</pubid>
                </pubidlist>
             </xrefbib>
          </bibl>
          <bibl id="B10">
             <title>
                <p>Extensively drug-resistant tuberculosis as a cause of death in patients co-infected with tuberculosis and HIV in a rural area of South Africa</p>
             </title>
             <aug>
                <au>
                   <snm>Gandhi</snm>
                   <fnm>NR</fnm>
                </au>
                <au>
                   <snm>Moll</snm>
                   <fnm>A</fnm>
                </au>
                <au>
                   <snm>Sturm</snm>
                   <fnm>AW</fnm>
                </au>
                <au>
                   <snm>Pawinski</snm>
                   <fnm>R</fnm>
                </au>
                <au>
                   <snm>Govender</snm>
                   <fnm>T</fnm>
                </au>
                <au>
                   <snm>Lalloo</snm>
                   <fnm>U</fnm>
                </au>
                <au>
                   <snm>Zeller</snm>
                   <fnm>K</fnm>
                </au>
                <au>
                   <snm>Andrews</snm>
                   <fnm>J</fnm>
                </au>
                <au>
                   <snm>Friedland</snm>
                   <fnm>G</fnm>
                </au>
             </aug>
             <source>Lancet</source>
             <pubdate>2006</pubdate>
             <volume>368</volume>
             <fpage>1575</fpage>
             <lpage>1580</lpage>
             <xrefbib>
                <pubidlist>
                   <pubid idtype="doi">10.1016/S0140-6736(06)69573-1</pubid>
                   <pubid idtype="pmpid" link="fulltext">17084757</pubid>
                </pubidlist>
             </xrefbib>
          </bibl>
          <bibl id="B11">
             <title>
                <p>Increased risk of default among previously treated tuberculosis cases in the Western Cape Province, South Africa</p>
             </title>
             <aug>
                <au>
                   <snm>Marx</snm>
                   <fnm>FM</fnm>
                </au>
                <au>
                   <snm>Dunbar</snm>
                   <fnm>R</fnm>
                </au>
                <au>
                   <snm>Hesseling</snm>
                   <fnm>AC</fnm>
                </au>
                <au>
                   <snm>Enarson</snm>
                   <fnm>DA</fnm>
                </au>
                <au>
                   <snm>Fielding</snm>
                   <fnm>K</fnm>
                </au>
                <au>
                   <snm>Beyers</snm>
                   <fnm>N</fnm>
                </au>
             </aug>
             <source>Int J Tuberc Lung Dis</source>
             <pubdate>2012</pubdate>
             <volume>16</volume>
             <fpage>1059</fpage>
             <lpage>1065</lpage>
             <xrefbib>
                <pubidlist>
                   <pubid idtype="doi">10.5588/ijtld.11.0506</pubid>
                   <pubid idtype="pmpid" link="fulltext">22691549</pubid>
                </pubidlist>
             </xrefbib>
          </bibl>
          <bibl id="B12">
             <source>Programa Nacional de Controle da Tuberculose. Manual de Recomenda&#231;&#245;es para o Controle da Tuberculose no Brasil. 1a ed</source>
             <publisher>Brasil. Minist&#233;rio da Sa&#250;de. Secretaria de Vigil&#226;ncia em Sa&#250;de, Bras&#237;lia</publisher>
             <pubdate>2011</pubdate>
          </bibl>
          <bibl id="B13">
             
                <url>http://lproweb.procempa.com.br/pmpa/prefpoa/cgvs/usu_doc/analise_epidemiologica_da_tuberculose.pdf</url>
             
<note>SMS/POA 2012. N&#250;cleo das Cr&#244;nicas/EVDT/CGVS/SMS/POA: <b>An&#225;lise Epidemiol&#243;gica da Tuberculose em Porto Alegre no per&#237;odo de 2001 a 2011, com destaque &#224; situa&#231;&#227;o epidemiol&#243;gica de 2011.</b> Avaliable at: . Accessed 15 December 2013.</note>
          </bibl>
          <bibl id="B14">
             <title>
                <p>Prospective study applying spoligotyping directly to DNA from sputum samples of patients suspected of having tuberculosis</p>
             </title>
             <aug>
                <au>
                   <snm>Cafrune</snm>
                   <fnm>PI</fnm>
                </au>
                <au>
                   <snm>Possuelo</snm>
                   <fnm>LG</fnm>
                </au>
                <au>
                   <snm>Ribeiro</snm>
                   <fnm>AW</fnm>
                </au>
                <au>
                   <snm>Ribeiro</snm>
                   <fnm>MO</fnm>
                </au>
                <au>
                   <snm>Unis</snm>
                   <fnm>G</fnm>
                </au>
                <au>
                   <snm>Jarczewski</snm>
                   <fnm>CA</fnm>
                </au>
                <au>
                   <snm>Rossetti</snm>
                   <fnm>ML</fnm>
                </au>
                <au>
                   <snm>Zaha</snm>
                   <fnm>A</fnm>
                </au>
             </aug>
             <source>Can J Microbiol</source>
             <pubdate>2009</pubdate>
             <volume>55</volume>
             <fpage>895</fpage>
             <lpage>900</lpage>
             <xrefbib>
                <pubidlist>
                   <pubid idtype="doi">10.1139/W09-033</pubid>
                   <pubid idtype="pmpid" link="fulltext">19767863</pubid>
                </pubidlist>
             </xrefbib>
          </bibl>
          <bibl id="B15">
             <title>
                <p>Characteristics of multidrug-resistant Mycobacterium tuberculosis in southern Brazil</p>
             </title>
             <aug>
                <au>
                   <snm>Perizzolo</snm>
                   <fnm>PF</fnm>
                </au>
                <au>
                   <snm>Dalla Costa</snm>
                   <fnm>ER</fnm>
                </au>
                <au>
                   <snm>Ribeiro</snm>
                   <fnm>AW</fnm>
                </au>
                <au>
                   <snm>Spies</snm>
                   <fnm>FS</fnm>
                </au>
                <au>
                   <snm>Ribeiro</snm>
                   <fnm>MO</fnm>
                </au>
                <au>
                   <snm>Dias</snm>
                   <fnm>CF</fnm>
                </au>
                <au>
                   <snm>Unis</snm>
                   <fnm>G</fnm>
                </au>
                <au>
                   <snm>Almeida da Silva</snm>
                   <fnm>P</fnm>
                </au>
                <au>
                   <snm>Gomes</snm>
                   <fnm>HM</fnm>
                </au>
                <au>
                   <snm>Suffys</snm>
                   <fnm>PN</fnm>
                </au>
                <au>
                   <snm>Rossetti</snm>
                   <fnm>ML</fnm>
                </au>
             </aug>
             <source>Tuberculosis (Edinb)</source>
             <pubdate>2012</pubdate>
             <volume>92</volume>
             <fpage>56</fpage>
             <lpage>59</lpage>
             <xrefbib>
                <pubidlist>
                   <pubid idtype="doi">10.1016/j.tube.2011.09.008</pubid>
                </pubidlist>
             </xrefbib>
          </bibl>
          <bibl id="B16">
             <title>
                <p>Mycobacterium tuberculosis of the RDRio genotype is the predominant cause of tuberculosis and associated with multidrug resistance in Porto Alegre City, South Brazil</p>
             </title>
             <aug>
                <au>
                   <snm>Dalla Costa</snm>
                   <fnm>ER</fnm>
                </au>
                <au>
                   <snm>Lazzarini</snm>
                   <fnm>LC</fnm>
                </au>
                <au>
                   <snm>Perizzolo</snm>
                   <fnm>PF</fnm>
                </au>
                <au>
                   <snm>D&#237;az</snm>
                   <fnm>CA</fnm>
                </au>
                <au>
                   <snm>Spies</snm>
                   <fnm>FS</fnm>
                </au>
                <au>
                   <snm>Costa</snm>
                   <fnm>LL</fnm>
                </au>
                <au>
                   <snm>Ribeiro</snm>
                   <fnm>AW</fnm>
                </au>
                <au>
                   <snm>Barroco</snm>
                   <fnm>C</fnm>
                </au>
                <au>
                   <snm>Schuh</snm>
                   <fnm>SJ</fnm>
                </au>
                <au>
                   <snm>da Silva Pereira</snm>
                   <fnm>MA</fnm>
                </au>
                <au>
                   <snm>Dias</snm>
                   <fnm>CF</fnm>
                </au>
                <au>
                   <snm>Gomes</snm>
                   <fnm>HM</fnm>
                </au>
                <au>
                   <snm>Unis</snm>
                   <fnm>G</fnm>
                </au>
                <au>
                   <snm>Zaha</snm>
                   <fnm>A</fnm>
                </au>
                <au>
                   <snm>Almeida da Silva</snm>
                   <fnm>PE</fnm>
                </au>
                <au>
                   <snm>Suffys</snm>
                   <fnm>PN</fnm>
                </au>
                <au>
                   <snm>Rossetti</snm>
                   <fnm>ML</fnm>
                </au>
             </aug>
             <source>J Clin Microbiol</source>
             <pubdate>2013</pubdate>
             <volume>51</volume>
             <fpage>1071</fpage>
             <lpage>1077</lpage>
             <xrefbib>
                <pubidlist>
                   <pubid idtype="doi">10.1128/JCM.01511-12</pubid>
                   <pubid idtype="pmpid" link="fulltext">23325819</pubid>
                </pubidlist>
             </xrefbib>
          </bibl>
          <bibl id="B17">
             <title>
                <p>Measurement of sensitivity of the tuberculosis bacillus to antibacillary drugs by the method of proportions: methodology, resistance criteria, results, and interpretation</p>
             </title>
             <aug>
                <au>
                   <snm>Canetti</snm>
                   <fnm>G</fnm>
                </au>
                <au>
                   <snm>Rist</snm>
                   <fnm>N</fnm>
                </au>
                <au>
                   <snm>Grosset</snm>
                   <fnm>J</fnm>
                </au>
             </aug>
             <source>Rev Tuberc Pneumol</source>
             <pubdate>1963</pubdate>
             <volume>27</volume>
             <fpage>217</fpage>
             <lpage>272</lpage>
          </bibl>
          <bibl id="B18">
             <title>
                <p>DNA fingerprinting of Mycobacterium tuberculosis</p>
             </title>
             <aug>
                <au>
                   <snm>van Soolingen</snm>
                   <fnm>D</fnm>
                </au>
                <au>
                   <snm>de Haas</snm>
                   <fnm>PE</fnm>
                </au>
                <au>
                   <snm>Hermans</snm>
                   <fnm>PW</fnm>
                </au>
                <au>
                   <snm>van Embden</snm>
                   <fnm>JD</fnm>
                </au>
             </aug>
             <source>Methods Enzymol</source>
             <pubdate>1994</pubdate>
             <volume>235</volume>
             <fpage>196</fpage>
             <lpage>205</lpage>
             <xrefbib>
                <pubidlist>
                   <pubid idtype="doi">10.1016/0076-6879(94)35141-4</pubid>
                   <pubid idtype="pmpid" link="fulltext">8057895</pubid>
                </pubidlist>
             </xrefbib>
          </bibl>
          <bibl id="B19">
             <title>
                <p>Simultaneous detection and strain differentiation of Mycobacterium tuberculosis for diagnosis and epidemiology</p>
             </title>
             <aug>
                <au>
                   <snm>Kamerbeek</snm>
                   <fnm>J</fnm>
                </au>
                <au>
                   <snm>Schouls</snm>
                   <fnm>L</fnm>
                </au>
                <au>
                   <snm>Kolk</snm>
                   <fnm>A</fnm>
                </au>
                <au>
                   <snm>van Agterveld</snm>
                   <fnm>M</fnm>
                </au>
                <au>
                   <snm>van Soolingen</snm>
                   <fnm>D</fnm>
                </au>
                <au>
                   <snm>Kuijper</snm>
                   <fnm>S</fnm>
                </au>
                <au>
                   <snm>Bunschoten</snm>
                   <fnm>A</fnm>
                </au>
                <au>
                   <snm>Molhuizen</snm>
                   <fnm>H</fnm>
                </au>
                <au>
                   <snm>Shaw</snm>
                   <fnm>R</fnm>
                </au>
                <au>
                   <snm>Goyal</snm>
                   <fnm>M</fnm>
                </au>
                <au>
                   <snm>van Embden</snm>
                   <fnm>J</fnm>
                </au>
             </aug>
             <source>J Clin Microbiol</source>
             <pubdate>1997</pubdate>
             <volume>35</volume>
             <fpage>907</fpage>
             <lpage>914</lpage>
             <xrefbib>
                <pubidlist>
                   <pubid idtype="pmpid" link="fulltext">9157152</pubid>
                </pubidlist>
             </xrefbib>
          </bibl>
          <bibl id="B20">
             <title>
                <p>SITVITWEB-a publicly available international multimarker database for studying Mycobacterium tuberculosis genetic diversity and molecular epidemiology</p>
             </title>
             <aug>
                <au>
                   <snm>Demay</snm>
                   <fnm>C</fnm>
                </au>
                <au>
                   <snm>Liens</snm>
                   <fnm>B</fnm>
                </au>
                <au>
                   <snm>Burgui&#232;re</snm>
                   <fnm>T</fnm>
                </au>
                <au>
                   <snm>Hill</snm>
                   <fnm>V</fnm>
                </au>
                <au>
                   <snm>Couvin</snm>
                   <fnm>D</fnm>
                </au>
                <au>
                   <snm>Millet</snm>
                   <fnm>J</fnm>
                </au>
                <au>
                   <snm>Mokrousov</snm>
                   <fnm>I</fnm>
                </au>
                <au>
                   <snm>Sola</snm>
                   <fnm>C</fnm>
                </au>
                <au>
                   <snm>Zozio</snm>
                   <fnm>T</fnm>
                </au>
                <au>
                   <snm>Rastogi</snm>
                   <fnm>N</fnm>
                </au>
             </aug>
             <source>Infect Genet Evol</source>
             <pubdate>2012</pubdate>
             <volume>12</volume>
             <fpage>755</fpage>
             <lpage>766</lpage>
             <xrefbib>
                <pubidlist>
                   <pubid idtype="doi">10.1016/j.meegid.2012.02.004</pubid>
                   <pubid idtype="pmpid" link="fulltext">22365971</pubid>
                </pubidlist>
             </xrefbib>
          </bibl>
          <bibl id="B21">
             <title>
                <p>Effects of human immunodeficiency virus infection on recurrence of tuberculosis after rifampin-based treatment: an analytical review</p>
             </title>
             <aug>
                <au>
                   <snm>Korenromp</snm>
                   <fnm>EL</fnm>
                </au>
                <au>
                   <snm>Scano</snm>
                   <fnm>F</fnm>
                </au>
                <au>
                   <snm>Williams</snm>
                   <fnm>BG</fnm>
                </au>
                <au>
                   <snm>Dye</snm>
                   <fnm>C</fnm>
                </au>
                <au>
                   <snm>Nunn</snm>
                   <fnm>P</fnm>
                </au>
             </aug>
             <source>Clin Infect Dis</source>
             <pubdate>2003</pubdate>
             <volume>37</volume>
             <fpage>101</fpage>
             <lpage>112</lpage>
             <xrefbib>
                <pubidlist>
                   <pubid idtype="doi">10.1086/375220</pubid>
                   <pubid idtype="pmpid" link="fulltext">12830415</pubid>
                </pubidlist>
             </xrefbib>
          </bibl>
          <bibl id="B22">
             <title>
                <p>Chronic lung disease and HIV infection are risk factors for recurrent tuberculosis in a low-incidence setting</p>
             </title>
             <aug>
                <au>
                   <snm>Pettit</snm>
                   <fnm>AC</fnm>
                </au>
                <au>
                   <snm>Kaltenbach</snm>
                   <fnm>LA</fnm>
                </au>
                <au>
                   <snm>Maruri</snm>
                   <fnm>F</fnm>
                </au>
                <au>
                   <snm>Cummins</snm>
                   <fnm>J</fnm>
                </au>
                <au>
                   <snm>Smith</snm>
                   <fnm>TR</fnm>
                </au>
                <au>
                   <snm>Warkentin</snm>
                   <fnm>JV</fnm>
                </au>
                <au>
                   <snm>Griffin</snm>
                   <fnm>MR</fnm>
                </au>
                <au>
                   <snm>Sterling</snm>
                   <fnm>TR</fnm>
                </au>
             </aug>
             <source>Int J Tuberc Lung Dis</source>
             <pubdate>2011</pubdate>
             <volume>15</volume>
             <fpage>906</fpage>
             <lpage>911</lpage>
             <xrefbib>
                <pubidlist>
                   <pubid idtype="doi">10.5588/ijtld.10.0448</pubid>
                   <pubid idtype="pmpid" link="fulltext">21682963</pubid>
                </pubidlist>
             </xrefbib>
          </bibl>
          <bibl id="B23">
             <title>
                <p>Timing of relapse in short-course chemotherapy trials for tuberculosis</p>
             </title>
             <aug>
                <au>
                   <snm>Nunn</snm>
                   <fnm>AJ</fnm>
                </au>
                <au>
                   <snm>Phillips</snm>
                   <fnm>PP</fnm>
                </au>
                <au>
                   <snm>Mitchison</snm>
                   <fnm>DA</fnm>
                </au>
             </aug>
             <source>Int J Tuberc Lung Dis</source>
             <pubdate>2010</pubdate>
             <volume>14</volume>
             <fpage>241</fpage>
             <lpage>242</lpage>
             <xrefbib>
                <pubidlist>
                   <pubid idtype="pmpid" link="fulltext">20074418</pubid>
                </pubidlist>
             </xrefbib>
          </bibl>
          <bibl id="B24">
             <title>
                <p>Exogenous re-infection as a cause of recurrent tuberculosis in a low-incidence area</p>
             </title>
             <aug>
                <au>
                   <snm>de Boer</snm>
                   <fnm>AS</fnm>
                </au>
                <au>
                   <snm>Borgdorff</snm>
                   <fnm>MW</fnm>
                </au>
                <au>
                   <snm>Vynnycky</snm>
                   <fnm>E</fnm>
                </au>
                <au>
                   <snm>Sebek</snm>
                   <fnm>MM</fnm>
                </au>
                <au>
                   <snm>van Soolingen</snm>
                   <fnm>D</fnm>
                </au>
             </aug>
             <source>Int J Tuberc Lung Dis</source>
             <pubdate>2003</pubdate>
             <volume>7</volume>
             <fpage>145</fpage>
             <lpage>152</lpage>
             <xrefbib>
                <pubidlist>
                   <pubid idtype="pmpid" link="fulltext">12588015</pubid>
                </pubidlist>
             </xrefbib>
          </bibl>
          <bibl id="B25">
             <title>
                <p>Relapse of tuberculosis after treatment in human immunodeficiency virus-infected patients</p>
             </title>
             <aug>
                <au>
                   <snm>Pulido</snm>
                   <fnm>F</fnm>
                </au>
                <au>
                   <snm>Pe&#241;a</snm>
                   <fnm>JM</fnm>
                </au>
                <au>
                   <snm>Rubio</snm>
                   <fnm>R</fnm>
                </au>
                <au>
                   <snm>Moreno</snm>
                   <fnm>S</fnm>
                </au>
                <au>
                   <snm>Gonz&#225;lez</snm>
                   <fnm>J</fnm>
                </au>
                <au>
                   <snm>Guijarro</snm>
                   <fnm>C</fnm>
                </au>
                <au>
                   <snm>Costa</snm>
                   <fnm>JR</fnm>
                </au>
                <au>
                   <snm>V&#225;zquez</snm>
                   <fnm>JJ</fnm>
                </au>
             </aug>
             <source>Arch Intern Med</source>
             <pubdate>1997</pubdate>
             <volume>157</volume>
             <fpage>227</fpage>
             <lpage>232</lpage>
             <xrefbib>
                <pubidlist>
                   <pubid idtype="doi">10.1001/archinte.1997.00440230105014</pubid>
                   <pubid idtype="pmpid" link="fulltext">9009982</pubid>
                </pubidlist>
             </xrefbib>
          </bibl>
          <bibl id="B26">
             <title>
                <p>A nested case-control study on treatment-related risk factors for early relapse of tuberculosis</p>
             </title>
             <aug>
                <au>
                   <snm>Chang</snm>
                   <fnm>KC</fnm>
                </au>
                <au>
                   <snm>Leung</snm>
                   <fnm>CC</fnm>
                </au>
                <au>
                   <snm>Yew</snm>
                   <fnm>WW</fnm>
                </au>
                <au>
                   <snm>Ho</snm>
                   <fnm>SC</fnm>
                </au>
                <au>
                   <snm>Tam</snm>
                   <fnm>CM</fnm>
                </au>
             </aug>
             <source>Am J Respir Crit Care Med</source>
             <pubdate>2004</pubdate>
             <volume>170</volume>
             <fpage>1124</fpage>
             <lpage>1130</lpage>
             <xrefbib>
                <pubidlist>
                   <pubid idtype="doi">10.1164/rccm.200407-905OC</pubid>
                   <pubid idtype="pmpid" link="fulltext">15374844</pubid>
                </pubidlist>
             </xrefbib>
          </bibl>
          <bibl id="B27">
             <title>
                <p>HIV-1 and recurrence, relapse, and reinfection of tuberculosis after cure: a cohort study in South African mineworkers</p>
             </title>
             <aug>
                <au>
                   <snm>Sonnenberg</snm>
                   <fnm>P</fnm>
                </au>
                <au>
                   <snm>Murray</snm>
                   <fnm>J</fnm>
                </au>
                <au>
                   <snm>Glynn</snm>
                   <fnm>JR</fnm>
                </au>
                <au>
                   <snm>Shearer</snm>
                   <fnm>S</fnm>
                </au>
                <au>
                   <snm>Kambashi</snm>
                   <fnm>B</fnm>
                </au>
                <au>
                   <snm>Godfrey-Faussett</snm>
                   <fnm>P</fnm>
                </au>
             </aug>
             <source>Lancet</source>
             <pubdate>2001</pubdate>
             <volume>358</volume>
             <fpage>1687</fpage>
             <lpage>1693</lpage>
             <xrefbib>
                <pubidlist>
                   <pubid idtype="doi">10.1016/S0140-6736(01)06712-5</pubid>
                   <pubid idtype="pmpid" link="fulltext">11728545</pubid>
                </pubidlist>
             </xrefbib>
          </bibl>
          <bibl id="B28">
             <title>
                <p>Recurrent tuberculosis and its risk factors: adequately treated patients are still at high risk</p>
             </title>
             <aug>
                <au>
                   <snm>Panjabi</snm>
                   <fnm>R</fnm>
                </au>
                <au>
                   <snm>Comstock</snm>
                   <fnm>GW</fnm>
                </au>
                <au>
                   <snm>Golub</snm>
                   <fnm>JE</fnm>
                </au>
             </aug>
             <source>Int J Tuberc Lung Dis</source>
             <pubdate>2007</pubdate>
             <volume>11</volume>
             <fpage>828</fpage>
             <lpage>837</lpage>
             <xrefbib>
                <pubidlist>
                   <pubid idtype="pmpid" link="fulltext">17705947</pubid>
                </pubidlist>
             </xrefbib>
          </bibl>
          <bibl id="B29">
             <title>
                <p>Recurrent TB: relapse or reinfection? The effect of HIV in a general population cohort in Malawi</p>
             </title>
             <aug>
                <au>
                   <snm>Crampin</snm>
                   <fnm>AC</fnm>
                </au>
                <au>
                   <snm>Mwaungulu</snm>
                   <fnm>JN</fnm>
                </au>
                <au>
                   <snm>Mwaungulu</snm>
                   <fnm>FD</fnm>
                </au>
                <au>
                   <snm>Mwafulirwa</snm>
                   <fnm>DT</fnm>
                </au>
                <au>
                   <snm>Munthali</snm>
                   <fnm>K</fnm>
                </au>
                <au>
                   <snm>Floyd</snm>
                   <fnm>S</fnm>
                </au>
                <au>
                   <snm>Fine</snm>
                   <fnm>PE</fnm>
                </au>
                <au>
                   <snm>Glynn</snm>
                   <fnm>JR</fnm>
                </au>
             </aug>
             <source>AIDS</source>
             <pubdate>2010</pubdate>
             <volume>24</volume>
             <fpage>417</fpage>
             <lpage>426</lpage>
             <xrefbib>
                <pubidlist>
                   <pubid idtype="doi">10.1097/QAD.0b013e32832f51cf</pubid>
                   <pubid idtype="pmpid" link="fulltext">20042847</pubid>
                </pubidlist>
             </xrefbib>
          </bibl>
          <bibl id="B30">
             <title>
                <p>Risk factors associated with default, failure and death among tuberculosis patients treated in a DOTS programme in Tiruvallur District, South India, 2000</p>
             </title>
             <aug>
                <au>
                   <snm>Santha</snm>
                   <fnm>T</fnm>
                </au>
                <au>
                   <snm>Garg</snm>
                   <fnm>R</fnm>
                </au>
                <au>
                   <snm>Frieden</snm>
                   <fnm>TR</fnm>
                </au>
                <au>
                   <snm>Chandrasekaran</snm>
                   <fnm>V</fnm>
                </au>
                <au>
                   <snm>Subramani</snm>
                   <fnm>R</fnm>
                </au>
                <au>
                   <snm>Gopi</snm>
                   <fnm>PG</fnm>
                </au>
                <au>
                   <snm>Selvakumar</snm>
                   <fnm>N</fnm>
                </au>
                <au>
                   <snm>Ganapathy</snm>
                   <fnm>S</fnm>
                </au>
                <au>
                   <snm>Charles</snm>
                   <fnm>N</fnm>
                </au>
                <au>
                   <snm>Rajamma</snm>
                   <fnm>J</fnm>
                </au>
                <au>
                   <snm>Narayanan</snm>
                   <fnm>PR</fnm>
                </au>
             </aug>
             <source>Int J Tuberc Lung Dis</source>
             <pubdate>2002</pubdate>
             <volume>6</volume>
             <fpage>780</fpage>
             <lpage>788</lpage>
             <xrefbib>
                <pubidlist>
                   <pubid idtype="pmpid" link="fulltext">12234133</pubid>
                </pubidlist>
             </xrefbib>
          </bibl>
          <bibl id="B31">
             <title>
                <p>Reasons for non-compliance among patients treated under Revised National Tuberculosis Control Programme (RNTCP), Tiruvallur district, south India</p>
             </title>
             <aug>
                <au>
                   <snm>Jaggarajamma</snm>
                   <fnm>K</fnm>
                </au>
                <au>
                   <snm>Sudha</snm>
                   <fnm>G</fnm>
                </au>
                <au>
                   <snm>Chandrasekaran</snm>
                   <fnm>V</fnm>
                </au>
                <au>
                   <snm>Nirupa</snm>
                   <fnm>C</fnm>
                </au>
                <au>
                   <snm>Thomas</snm>
                   <fnm>A</fnm>
                </au>
                <au>
                   <snm>Santha</snm>
                   <fnm>T</fnm>
                </au>
                <au>
                   <snm>Muniyandi</snm>
                   <fnm>M</fnm>
                </au>
                <au>
                   <snm>Narayanan</snm>
                   <fnm>PR</fnm>
                </au>
             </aug>
             <source>Indian J Tuberc</source>
             <pubdate>2007</pubdate>
             <volume>54</volume>
             <fpage>130</fpage>
             <lpage>135</lpage>
             <xrefbib>
                <pubidlist>
                   <pubid idtype="pmpid" link="fulltext">17886701</pubid>
                </pubidlist>
             </xrefbib>
          </bibl>
          <bibl id="B32">
             <title>
                <p>Risk factors associated with default among new smear positive TB patients treated under DOTS in India</p>
             </title>
             <aug>
                <au>
                   <snm>Vijay</snm>
                   <fnm>S</fnm>
                </au>
                <au>
                   <snm>Kumar</snm>
                   <fnm>P</fnm>
                </au>
                <au>
                   <snm>Chauhan</snm>
                   <fnm>LS</fnm>
                </au>
                <au>
                   <snm>Vollepore</snm>
                   <fnm>BH</fnm>
                </au>
                <au>
                   <snm>Kizhakkethil</snm>
                   <fnm>UP</fnm>
                </au>
                <au>
                   <snm>Rao</snm>
                   <fnm>SG</fnm>
                </au>
             </aug>
             <source>PLoS One</source>
             <pubdate>2010</pubdate>
             <volume>5</volume>
             <fpage>e10043</fpage>
             <xrefbib>
                <pubidlist>
                   <pubid idtype="doi">10.1371/journal.pone.0010043</pubid>
                   <pubid idtype="pmpid" link="fulltext">20386611</pubid>
                </pubidlist>
             </xrefbib>
          </bibl>
          <bibl id="B33">
             <title>
                <p>Fatores associados ao abandono do tratamento da tuberculose: uma revis&#227;o integrativa</p>
             </title>
             <aug>
                <au>
                   <snm>Chirinos</snm>
                   <fnm>NEC</fnm>
                </au>
                <au>
                   <snm>Meirelles</snm>
                   <fnm>BHS</fnm>
                </au>
             </aug>
             <source>Texto contexto - enferm</source>
             <pubdate>2011</pubdate>
             <volume>20</volume>
             <fpage>599</fpage>
             <lpage>606</lpage>
             <xrefbib>
                <pubidlist>
                   <pubid idtype="doi">10.1590/S0104-07072011000300023</pubid>
                </pubidlist>
             </xrefbib>
          </bibl>
          <bibl id="B34">
             <title>
                <p>Application of DNA fingerprinting with IS986 to sequential mycobacterial isolates obtained from pulmonary tuberculosis patients in Hong Kong before, during and after short-course chemotherapy</p>
             </title>
             <aug>
                <au>
                   <snm>Das</snm>
                   <fnm>S</fnm>
                </au>
                <au>
                   <snm>Chan</snm>
                   <fnm>SL</fnm>
                </au>
                <au>
                   <snm>Allen</snm>
                   <fnm>BW</fnm>
                </au>
                <au>
                   <snm>Mitchison</snm>
                   <fnm>DA</fnm>
                </au>
                <au>
                   <snm>Lowrie</snm>
                   <fnm>DB</fnm>
                </au>
             </aug>
             <source>Tuber Lung Dis</source>
             <pubdate>1993</pubdate>
             <volume>74</volume>
             <fpage>47</fpage>
             <lpage>51</lpage>
             <xrefbib>
                <pubidlist>
                   <pubid idtype="doi">10.1016/0962-8479(93)90068-9</pubid>
                   <pubid idtype="pmpid" link="fulltext">8098637</pubid>
                </pubidlist>
             </xrefbib>
          </bibl>
          <bibl id="B35">
             <title>
                <p>Treatment outcomes by drug resistance and HIV status among tuberculosis patients in Ho Chi Minh City, Vietnam</p>
             </title>
             <aug>
                <au>
                   <snm>Quy</snm>
                   <fnm>HT</fnm>
                </au>
                <au>
                   <snm>Cobelens</snm>
                   <fnm>FG</fnm>
                </au>
                <au>
                   <snm>Lan</snm>
                   <fnm>NT</fnm>
                </au>
                <au>
                   <snm>Buu</snm>
                   <fnm>TN</fnm>
                </au>
                <au>
                   <snm>Lambregts</snm>
                   <fnm>CS</fnm>
                </au>
                <au>
                   <snm>Borgdorff</snm>
                   <fnm>MW</fnm>
                </au>
             </aug>
             <source>Int J Tuberc Lung Dis</source>
             <pubdate>2006</pubdate>
             <volume>10</volume>
             <fpage>45</fpage>
             <lpage>51</lpage>
             <xrefbib>
                <pubidlist>
                   <pubid idtype="pmpid" link="fulltext">16466036</pubid>
                </pubidlist>
             </xrefbib>
          </bibl>
       </refgrp>
    </bm>
 </art>
