<art>
    <ui>s12875-014-0176-7</ui>
    <ji>1471-2296</ji>
    <fm>
       <dochead>Research article</dochead>
       <bibl>
          <title>
             <p>Do practice characteristics explain differences in morbidity estimates between electronic health record based general practice registration networks?</p>
          </title>
          <aug>
             <au id="A1" ca="yes">
                <snm>van den Dungen</snm>
                <fnm>C</fnm>
                <insr iid="I1"/>
                <email>c.vandendungen@hotmail.nl</email>
             </au>
             <au id="A2">
                <snm>Hoeymans</snm>
                <fnm>N</fnm>
                <insr iid="I2"/>
                <email>nancy.hoeymans@rivm.nl</email>
             </au>
             <au id="A3">
                <snm>van den Akker</snm>
                <fnm>M</fnm>
                <insr iid="I3"/>
                <insr iid="I4"/>
                <email>marjan.vandenakker@maastrichtuniversity.nl</email>
             </au>
             <au id="A4">
                <snm>Biermans</snm>
                <fnm>MCJ</fnm>
                <insr iid="I5"/>
                <email>m.biermans@radboudumc.nl</email>
             </au>
             <au id="A5">
                <snm>van Boven</snm>
                <fnm>K</fnm>
                <insr iid="I5"/>
                <insr iid="I6"/>
                <email>Kees.vanBoven@radboudumc.nl</email>
             </au>
             <au id="A6">
                <snm>Joosten</snm>
                <fnm>JHK</fnm>
                <insr iid="I7"/>
                <email>JHK.Joosten@vumc.nl</email>
             </au>
             <au id="A7">
                <snm>Verheij</snm>
                <fnm>RA</fnm>
                <insr iid="I8"/>
                <email>r.verheij@nivel.nl</email>
             </au>
             <au id="A8">
                <snm>de Waal</snm>
                <fnm>MWM</fnm>
                <insr iid="I9"/>
                <email>m.w.m.de_waal@lumc.nl</email>
             </au>
             <au id="A9">
                <snm>Schellevis</snm>
                <fnm>FG</fnm>
                <insr iid="I9"/>
                <insr iid="I10"/>
                <email>f.schellevis@nivel.nl</email>
             </au>
             <au id="A10">
                <snm>van Oers</snm>
                <fnm>JAM</fnm>
                <insr iid="I1"/>
                <insr iid="I2"/>
                <email>hans.van.oers@rivm.nl</email>
             </au>
          </aug>
          <insg>
             <ins id="I1">
                <p>Department Tranzo, Faculty of Social and Behavioural Sciences, Tilburg University, Tilburg, 5000 LE, the Netherlands</p>
             </ins>
             <ins id="I2">
                <p>National Institute for Public Health and the Environment (RIVM), Bilthoven, the Netherlands</p>
             </ins>
             <ins id="I3">
                <p>Department of Family Medicine, School for Public Health and Primary Care (Caphri), Maastricht University, Maastricht, the Netherlands</p>
             </ins>
             <ins id="I4">
                <p>Department of General Practice, KU Leuven, Leuven, Belgium</p>
             </ins>
             <ins id="I5">
                <p>Department of Primary and Community Care, Radboud University Nijmegen Medical Centre, Nijmegen, the Netherlands</p>
             </ins>
             <ins id="I6">
                <p>General Practitioner, Franeker, the Netherlands</p>
             </ins>
             <ins id="I7">
                <p>Department of General Practice and Elderly Care Medicine, The Academic Network of General Practitioners of the VU University, VU University Medical Centre, Amsterdam, the Netherlands</p>
             </ins>
             <ins id="I8">
                <p>Netherlands Institute for Health Services Research (NIVEL), Utrecht, the Netherlands</p>
             </ins>
             <ins id="I9">
                <p>Department of Public Health and Primary Care, Leiden University Medical Center, Leiden, the Netherlands</p>
             </ins>
             <ins id="I10">
                <p>Department of General Practice &amp; Elderly Care Medicine/EMGO Institute for health and care research, VU University Medical Centre, Amsterdam, the Netherlands</p>
             </ins>
          </insg>
          <source>BMC Family Practice</source>
          <section>
             <title>
                <p>epidemiology and research methodology in primary care</p>
             </title>
          </section>
          <issn>1471-2296</issn>
          <pubdate>2014</pubdate>
          <volume>15</volume>
          <issue>1</issue>
          <fpage>176</fpage>
          <url>http://www.biomedcentral.com/1471-2296/15/176</url>
          <xrefbib>
             <pubidlist>
                <pubid idtype="doi">10.1186/s12875-014-0176-7</pubid>
             </pubidlist>
          </xrefbib>
       </bibl>
       <history>
          <rec>
             <date>
                <day>6</day>
                <month>5</month>
                <year>2014</year>
             </date>
          </rec>
          <acc>
             <date>
                <day>10</day>
                <month>10</month>
                <year>2014</year>
             </date>
          </acc>
          <pub>
             <date>
                <day>30</day>
                <month>10</month>
                <year>2014</year>
             </date>
          </pub>
       </history>
       <cpyrt>
          <year>2014</year>
          <collab>van den Dungen et al.; licensee BioMed Central Ltd.</collab>
          <note>This is an Open Access article distributed under the terms of the Creative Commons Attribution License (<url>http://creativecommons.org/licenses/by/4.0</url>), which permits unrestricted use, distribution, and reproduction in any medium, provided the original work is properly credited. The Creative Commons Public Domain Dedication waiver (<url>http://creativecommons.org/publicdomain/zero/1.0/</url>) applies to the data made available in this article, unless otherwise stated.</note>
       </cpyrt>
       <kwdg>
          <kwd>Family practice</kwd>
          <kwd>Incidence</kwd>
          <kwd>Electronic medical records</kwd>
          <kwd>Practice characteristics</kwd>
          <kwd>Population health</kwd>
          <kwd>Prevalence</kwd>
       </kwdg>
       <abs>
          <sec>
             <st>
                <p>Abstract</p>
             </st>
             <sec>
                <st>
                   <p>Background</p>
                </st>
                <p>General practice based registration networks (GPRNs) provide information on population health derived from electronic health records (EHR). Morbidity estimates from different GPRNs reveal considerable, unexplained differences. Previous research showed that population characteristics could not explain this variation. In this study we investigate the influence of practice characteristics on the variation in incidence and prevalence figures between general practices and between GPRNs.</p>
             </sec>
             <sec>
                <st>
                   <p>Methods</p>
                </st>
                <p>We analyzed the influence of eight practice characteristics, such as type of practice, percentage female general practitioners, and employment of a practice nurse, on the variation in morbidity estimates of twelve diseases between six Dutch GPRNs. We used multilevel logistic regression analysis and expressed the variation between practices and GPRNs in median odds ratios (MOR). Furthermore, we analyzed the influence of type of EHR software package and province within one large national GPRN.</p>
             </sec>
             <sec>
                <st>
                   <p>Results</p>
                </st>
                <p>Hardly any practice characteristic showed an effect on morbidity estimates. Adjusting for the practice characteristics did also not alter the variation between practices or between GPRNs, as MORs remained stable. The EHR software package &#8216;Medicom&#8217; and the province &#8216;Groningen&#8217; showed significant effects on the prevalence figures of several diseases, but this hardly diminished the variation between practices.</p>
             </sec>
             <sec>
                <st>
                   <p>Conclusion</p>
                </st>
                <p>Practice characteristics do not explain the differences in morbidity estimates between GPRNs.</p>
             </sec>
          </sec>
       </abs>
    </fm>
    <bdy>
       <sec>
          <st>
             <p>Background</p>
          </st>
          <p>In the Netherlands, routinely collected data from general practice based registration networks (GPRNs) are often used to monitor incidence and prevalence of diseases in the general population. The Dutch Public Health Status and Forecasts 2010, for example, showed the morbidity figures of several diseases using such data <abbrgrp>
                <abbr bid="B1">1</abbr>
             </abbrgrp>,<abbrgrp>
                <abbr bid="B2">2</abbr>
             </abbrgrp>.</p>
          <p>This data derived from electronic health records (EHR) in general practice is relevant because the general practitioner (GP) is gatekeeper to secondary care and nearly all inhabitants are enlisted to a single GP (list system). Therefore, GPs have contact with a variety of patients, regarding age, gender, socio-economic status, ethnicity, health problems and disease stage. Furthermore, the list system makes a precise determination of the epidemiological denominator possible <abbrgrp>
                <abbr bid="B3">3</abbr>
             </abbrgrp>,<abbrgrp>
                <abbr bid="B4">4</abbr>
             </abbrgrp>.</p>
          <p>The estimated incidence and prevalence figures of different diseases show considerable variations between GPRNs. These differences in morbidity estimates are not fully understood, making the interpretation of these figures difficult <abbrgrp>
                <abbr bid="B4">4</abbr>
             </abbrgrp>,<abbrgrp>
                <abbr bid="B5">5</abbr>
             </abbrgrp>. The prevalence of osteoarthritis, for example, ranges from 10 to 60 per 1000 person years between GPRNs. Overall, prevalence figures estimated from GPRNs show more variation than incidence Figures <abbrgrp>
                <abbr bid="B6">6</abbr>
             </abbrgrp>.</p>
          <p>A generally recognized reason for variation in incidence and prevalence figures is the differences in practice population characteristics. For example, the prevalence of osteoarthritis is higher in older people, leading to a higher estimate of the prevalence of this disease in GPRNs with a higher proportion of elderly people in their practice populations. However, in previous research, we showed that population characteristics could not explain the variation between GPRNs or between general practices <abbrgrp>
                <abbr bid="B6">6</abbr>
             </abbrgrp>.</p>
          <p>In earlier research, we identified the GP and practice characteristics as a probable factor of variation between morbidity estimates using GPRN data, also known as inter-doctor variation <abbrgrp>
                <abbr bid="B5">5</abbr>
             </abbrgrp>. Inter-doctor variation is the variation in the frequency of diagnosing health problems between different health care providers, which cannot be explained by the patient characteristics (age, sex, severity of the disease) <abbrgrp>
                <abbr bid="B7">7</abbr>
             </abbrgrp>. Research identified different aspects that influence this inter-doctor variation between GPs and practices <abbrgrp>
                <abbr bid="B8">8</abbr>
             </abbrgrp>-<abbrgrp>
                <abbr bid="B10">10</abbr>
             </abbrgrp>. Examples of such characteristics are availability of health care, organization of care, such as type of practice, employment of a practice nurse and treatment opportunities <abbrgrp>
                <abbr bid="B8">8</abbr>
             </abbrgrp>,<abbrgrp>
                <abbr bid="B9">9</abbr>
             </abbrgrp>. There is evidence that different doctor- and practice characteristics, such as experience, workforce, and type of practice, influence medical practice and diagnostic variability. In the second Dutch National Survey of General Practice, urbanization level, type of practice and EHR software package influenced consultation frequency Figures <abbrgrp>
                <abbr bid="B10">10</abbr>
             </abbrgrp>.</p>
          <p>In this paper we investigate to what extent practice and GP characteristics explain the variation in morbidity estimates between six Dutch GPRNs and related practices.</p>
       </sec>
       <sec>
          <st>
             <p>Method</p>
          </st>
          <sec>
             <st>
                <p>Databases</p>
             </st>
             <p>Six Dutch GPRNs participated in this research; the Continuous Morbidity Registration Nijmegen (CMR-N), the Academic Network of General Practitioners of the VUmc (ANH-VUmc), the Netherlands Information Network of General Practice (LINH)<sup>a</sup>, the Registration Network of General Practitioners Associated with Leiden University (RNUH-LEO), the Study of Medical Information and Lifestyle in Eindhoven (SMILE) and the Transition project (Trans). More detailed information of these GPRNs can be found elsewhere <abbrgrp>
                   <abbr bid="B5">5</abbr>
                </abbrgrp>. These Dutch GPRNs were selected, because they collect information on all health problems of individual patients. GPRNs which exclusively collect information on chronic, permanent or recurring diseases were left out of this study.</p>
          </sec>
          <sec>
             <st>
                <p>Using the data</p>
             </st>
             <p>We performed an observational study without any intervention. In the Netherlands, no approval is necessary from an ethical committee for analysing data from general practice registration networks. The data are not openly available, permission to use the data is granted by ANH VUmc, RNUH_LEO, SMILE, Transition project, LINH steering committee and the chair of CMR-N.</p>
          </sec>
          <sec>
             <st>
                <p>Selection of diseases</p>
             </st>
             <p>For our analyses we selected twelve health problems: urinary tract infection, gastro-intestinal infection, neck and back problems, eczema, asthma, chronic obstructive pulmonary disease (COPD), osteoarthritis, diabetes mellitus, coronary heart disease (CHD), stroke, depression, and anxiety disorders. The selection of these health problems was based on three criteria: (1) The expected incidence of the specific disorder in the Dutch general practice population was at least 3 per 1000 per year; (2) The total set of diseases represented several ICD chapters (e.g. circulatory system, respiratory system) to obtain a broad spectrum of diseases; (3) The occurrence of incidence and prevalence of included diseases should vary between different patient subgroups (e.g. age, gender).</p>
          </sec>
          <sec>
             <st>
                <p>Incidence and prevalence rates</p>
             </st>
             <p>In this study, we used data of 2007. To determine incidence rates, all patients diagnosed with a new episode of a certain disease between the 1st of January 2007 and the 31st of December 2007 were counted per 1,000 patient years. Prevalence rates were calculated by counting the number of patients with a new or existing episode of a specific disease in 2007 per 1,000 patient years (period prevalence). Incidence rates were calculated for all twelve diseases; prevalence rates were only calculated for the ten chronic or recurring diseases. Five GPRNs record diagnoses according to the International Classification of Primary Care (ICPC), one used the so-called E-list codes <abbrgrp>
                   <abbr bid="B11">11</abbr>
                </abbrgrp>-<abbrgrp>
                   <abbr bid="B13">13</abbr>
                </abbrgrp>. When necessary, we combined different classification codes to determine morbidity <abbrgrp>
                   <abbr bid="B1">1</abbr>
                </abbrgrp>,<abbrgrp>
                   <abbr bid="B14">14</abbr>
                </abbrgrp>. For example, to measure depression we used ICPC codes P03 and P76.</p>
          </sec>
          <sec>
             <st>
                <p>Socio-demographic characteristics</p>
             </st>
             <p>This study starts with analysing the variation in incidence and prevalence figures between GPRNs and general practices adjusted for patient characteristics: age (in years), gender (male versus female), socio-economic status (high-medium-low), urbanization level (&#8216;rural&#8217;, &#8216;urban&#8217; and &#8216;large cities&#8217;) and ethnic origin <abbrgrp>
                   <abbr bid="B6">6</abbr>
                </abbrgrp>. The latter three measures were determined by proxy using 4-digit postal codes of the patients&#8217; home address (the population size is about 4,000 per postal code area) <abbrgrp>
                   <abbr bid="B15">15</abbr>
                </abbrgrp>,<abbrgrp>
                   <abbr bid="B16">16</abbr>
                </abbrgrp>.</p>
          </sec>
          <sec>
             <st>
                <p>Practice characteristics</p>
             </st>
             <p>Within a general practice, patients are generally registered with one specific GP, but most patients are not exclusively treated by that GP. The care in general practice has become more multi-practitioner and multi-disciplinary organized <abbrgrp>
                   <abbr bid="B3">3</abbr>
                </abbrgrp>. In most networks, the information of an individual patient cannot be related to an individual doctor and therefore, inter-doctor variation cannot be assessed validly. Instead, we analysed GP characteristics on practice level.</p>
             <p>The practice characteristics used in the analysis are type of practice (one GP&#8201;=&#8201;solo, two GPs&#8201;=&#8201;duo and three GPs or more&#8201;=&#8201;group practice), percentage female GPs, mean years of working experience, employment of a practice nurse (yes/no), EHR software package used in the general practice, province, distance to the nearest out-of-hours service location and distance to the nearest hospital.</p>
             <p>To be sure all practice characteristics are based on the same type of data we consulted the &#8220;Register of General Practitioners&#8221; (HAREG) of NIVEL <abbrgrp>
                   <abbr bid="B17">17</abbr>
                </abbrgrp>. This database holds information on all practising GPs and practices in the Netherlands about e.g. gender, age, and working experience. We received the information about the employment of a practice nurse and type of electronic patient record directly from the GPRN. The distances have been calculated with the so-called driving time model of Automotive Navigation Data (AND) in combination with the localisations of the out-of-hours service locations and hospitals, using 4-digit postal codes <abbrgrp>
                   <abbr bid="B18">18</abbr>
                </abbrgrp>.</p>
             <p>We are interested in the influence of practice characteristics on the variation in morbidity estimates between GPRNs and practices. Therefore, we only used the practices with all population and practice characteristics available. As a consequence, 9 out of 81 practices of LINH, 2 out of 9 practices of ANH VUmc and 1 out of 9 practices of SMILE and 1 out of 5 practices of Trans were excluded from analyses.</p>
          </sec>
          <sec>
             <st>
                <p>Analyses</p>
             </st>
             <p>Descriptive analyses were applied to give an overview of the distribution of the population and practice characteristics. To explore the variation in morbidity estimates between GPRNs and general practices we used multilevel logistic regression analysis with three levels (patient, practice and network). We used random intercepts on network and practice level to determine the unexplained variation between GPRNs and practices. We analysed the variations in morbidity estimates by calculating the corresponding median odds ratio (MOR) and 95% confidence intervals (95%CI); we also calculated the odds ratios (ORs) of the significant practice characteristics. MOR quantifies the variation between clusters by comparing two &#8216;identical&#8217; persons from two randomly chosen, but different clusters. MOR expresses the heterogeneity on an odds ratio scale between clusters and represents the median increased risk. Consequently MOR can never be smaller than one. MOR has been calculated on practice and network level. In this study, MOR refers to the (statistical) increased risk of being diagnosed with a certain disease between two randomly chosen practices or GPRNs. For example, if MOR is 2.0 the risk of being diagnosed with a specific disease is twice as high for a person in one network compared to an &#8216;identical&#8217; person in another network <abbrgrp>
                   <abbr bid="B19">19</abbr>
                </abbrgrp>,<abbrgrp>
                   <abbr bid="B20">20</abbr>
                </abbrgrp>.</p>
             <p>First, we analysed for each disease the variations in morbidity estimates between general practices and GPRNs without taking any practice characteristic into account. Second, we analysed the influence of six practice characteristics on the variations in morbidity estimates for all diseases in separate models. This results in a total of 154 models (incidence of12 diseases and prevalence of 10 diseases, analysing the variation in one model without any practice characteristics and 6 models with just one practice characteristic (22&#8201;&#215;&#8201;7&#8201;=&#8201;154)). Before we performed multilevel analyses, we checked the correlation between characteristics. A high correlation (r &gt;0.70) was found between the urbanization level of the patient&#8217;s home address and the distance to the nearest hospital of the general practice. We therefore left urbanization level out of the analyses when measuring the effect of distance to the nearest hospital.</p>
             <p>The analyses of type of EHR software package and province could not be performed in a three level analysis, as most GPRNs are located in one province and use only one or two types of EHR software package. The influence of these characteristics was only analysed using LINH data in a two level analysis (patient and practice), since this is the only GPRN located in all provinces and including seven different EHR software packages <abbrgrp>
                   <abbr bid="B21">21</abbr>
                </abbrgrp>. All analyses were performed with SAS version 9.2.</p>
          </sec>
       </sec>
       <sec>
          <st>
             <p>Results</p>
          </st>
          <p>The information of a total of 393,102 patients in 97 practices distributed over six networks was analysed. In total, the participating practices were evenly distributed between solo, duo and group practices. In the different GPNRs, on average 27 to 67 percent of the GPs were female, and the mean number of years of experience of the GPs ranged between 12.3 to 21.3&#160;years. The average distance to the out-of-hours practice or hospital varied between 2.5 and 7 kilometres. As expected, larger distances were seen in more rurally located networks and practices. In general, the mean working experience is higher in networks that exist for a longer period of time. More figures are presented in Table&#160;<tblr tid="T1">1</tblr>.</p>
          
             <table id="T1">
                <title>
                   <p>Table 1</p>
                </title>
                <caption>
                   <p>
                      <b>Practice characteristics of six general practice registration networks</b>
                   </p>
                </caption>
                <tgroup align="left" cols="11">
                   <colspec align="left" colname="c1" colnum="1" colwidth="*"/>
                   <colspec align="left" colname="c2" colnum="2" colwidth="*"/>
                   <colspec align="left" colname="c3" colnum="3" colwidth="*"/>
                   <colspec align="left" colname="c4" colnum="4" colwidth="*"/>
                   <colspec align="left" colname="c5" colnum="5" colwidth="*"/>
                   <colspec align="left" colname="c6" colnum="6" colwidth="*"/>
                   <colspec align="left" colname="c7" colnum="7" colwidth="*"/>
                   <colspec align="left" colname="c8" colnum="8" colwidth="*"/>
                   <colspec align="left" colname="c9" colnum="9" colwidth="*"/>
                   <colspec align="left" colname="c10" colnum="10" colwidth="*"/>
                   <colspec align="left" colname="c11" colnum="11" colwidth="*"/>
                   <thead>
                      <row valign="top">
                         <entry colname="c1" morerows="1"/>
                         <entry colname="c2" morerows="1">
                            <p>
                               <b>Patients</b>
                               <sup>
                                  <b>1</b>
                               </sup>
                               <b>
                                  <it>(n)</it>
                               </b>
                            </p>
                         </entry>
                         <entry colname="c3" morerows="1">
                            <p>
                               <b>Practice</b>
                               <sup>
                                  <b>1</b>
                               </sup>
                               <b>
                                  <it>(n)</it>
                               </b>
                            </p>
                         </entry>
                         <entry nameend="c6" namest="c4" rowsep="1">
                            <p>
                               <b>Type of practice</b>
                               <sup>
                                  <b>2</b>
                               </sup>
                               <b>
                                  <it>(n)</it>
                               </b>
                            </p>
                         </entry>
                         <entry colname="c7" morerows="1">
                            <p>
                               <b>Practices with POH</b>
                               <b>
                                  <it>(%)</it>
                               </b>
                            </p>
                         </entry>
                         <entry colname="c8" morerows="1">
                            <p>
                               <b>Female GPs</b>
                               <b>
                                  <it>(%)</it>
                               </b>
                            </p>
                         </entry>
                         <entry colname="c9" morerows="1">
                            <p>
                               <b>Mean working experience</b>
                               <b>
                                  <it>(years)</it>
                               </b>
                            </p>
                         </entry>
                         <entry colname="c10" morerows="1">
                            <p>
                               <b>Mean distance (range) to hospital</b>
                               <sup>
                                  <b>3</b>
                               </sup>
                               <b>
                                  <it>(km)</it>
                               </b>
                            </p>
                         </entry>
                         <entry colname="c11" morerows="1">
                            <p>
                               <b>Mean distance (range) to out-of-hours service location</b>
                               <sup>
                                  <b>3</b>
                               </sup>
                               <b>
                                  <it>(km)</it>
                               </b>
                            </p>
                         </entry>
                      </row>
                      <row valign="top">
                         <entry colname="c4">
                            <p>
                               <b>Solo</b>
                            </p>
                         </entry>
                         <entry colname="c5">
                            <p>
                               <b>duo</b>
                            </p>
                         </entry>
                         <entry colname="c6">
                            <p>
                               <b>group</b>
                            </p>
                         </entry>
                      </row>
                   </thead>
                   <tfoot>
                      <p>
                         <sup>1</sup>Total number can deviate from the network population reported elsewhere because incomplete data are excluded. <sup>2</sup>Based on the number of GPs working in a specific practice. <sup>3</sup>Estimated on basis of the central position of a postal code, which can be deviated from the actual distance.</p>
                   </tfoot>
                   <tbody>
                      <row valign="top">
                         <entry colname="c1">
                            <p>ANH VUmc</p>
                         </entry>
                         <entry colname="c2">
                            <p>32 341</p>
                         </entry>
                         <entry colname="c3">
                            <p>7</p>
                         </entry>
                         <entry colname="c4">
                            <p>1</p>
                         </entry>
                         <entry colname="c5">
                            <p>2</p>
                         </entry>
                         <entry colname="c6">
                            <p>4</p>
                         </entry>
                         <entry colname="c7">
                            <p>71.4</p>
                         </entry>
                         <entry colname="c8">
                            <p>62.7</p>
                         </entry>
                         <entry colname="c9">
                            <p>12.7</p>
                         </entry>
                         <entry colname="c10">
                            <p>2.6 (1&#8211;4)</p>
                         </entry>
                         <entry colname="c11">
                            <p>2.5 (0&#8211;5)</p>
                         </entry>
                      </row>
                      <row valign="top">
                         <entry colname="c1">
                            <p>CMR-N</p>
                         </entry>
                         <entry colname="c2">
                            <p>10 291</p>
                         </entry>
                         <entry colname="c3">
                            <p>3</p>
                         </entry>
                         <entry colname="c4">
                            <p>0</p>
                         </entry>
                         <entry colname="c5">
                            <p>1</p>
                         </entry>
                         <entry colname="c6">
                            <p>2</p>
                         </entry>
                         <entry colname="c7">
                            <p>100</p>
                         </entry>
                         <entry colname="c8">
                            <p>41.7</p>
                         </entry>
                         <entry colname="c9">
                            <p>21.3</p>
                         </entry>
                         <entry colname="c10">
                            <p>6.1 (2&#8211;9)</p>
                         </entry>
                         <entry colname="c11">
                            <p>7.3 (2&#8211;13)</p>
                         </entry>
                      </row>
                      <row valign="top">
                         <entry colname="c1">
                            <p>LINH</p>
                         </entry>
                         <entry colname="c2">
                            <p>265 724</p>
                         </entry>
                         <entry colname="c3">
                            <p>72</p>
                         </entry>
                         <entry colname="c4">
                            <p>29</p>
                         </entry>
                         <entry colname="c5">
                            <p>25</p>
                         </entry>
                         <entry colname="c6">
                            <p>18</p>
                         </entry>
                         <entry colname="c7">
                            <p>69.4</p>
                         </entry>
                         <entry colname="c8">
                            <p>27.3</p>
                         </entry>
                         <entry colname="c9">
                            <p>16</p>
                         </entry>
                         <entry colname="c10">
                            <p>7.1 (0&#8211;22)</p>
                         </entry>
                         <entry colname="c11">
                            <p>6.1 (0&#8211;22)</p>
                         </entry>
                      </row>
                      <row valign="top">
                         <entry colname="c1">
                            <p>RNUH Leo</p>
                         </entry>
                         <entry colname="c2">
                            <p>25 263</p>
                         </entry>
                         <entry colname="c3">
                            <p>3</p>
                         </entry>
                         <entry colname="c4">
                            <p>0</p>
                         </entry>
                         <entry colname="c5">
                            <p>0</p>
                         </entry>
                         <entry colname="c6">
                            <p>3</p>
                         </entry>
                         <entry colname="c7">
                            <p>100</p>
                         </entry>
                         <entry colname="c8">
                            <p>44.3</p>
                         </entry>
                         <entry colname="c9">
                            <p>20.1</p>
                         </entry>
                         <entry colname="c10">
                            <p>6.8 (3&#8211;12)</p>
                         </entry>
                         <entry colname="c11">
                            <p>4.8 (3&#8211;6)</p>
                         </entry>
                      </row>
                      <row valign="top">
                         <entry colname="c1">
                            <p>Smile</p>
                         </entry>
                         <entry colname="c2">
                            <p>47 528</p>
                         </entry>
                         <entry colname="c3">
                            <p>8</p>
                         </entry>
                         <entry colname="c4">
                            <p>1</p>
                         </entry>
                         <entry colname="c5">
                            <p>2</p>
                         </entry>
                         <entry colname="c6">
                            <p>5</p>
                         </entry>
                         <entry colname="c7">
                            <p>87.5</p>
                         </entry>
                         <entry colname="c8">
                            <p>66.9</p>
                         </entry>
                         <entry colname="c9">
                            <p>12.2</p>
                         </entry>
                         <entry colname="c10">
                            <p>3.7 (0&#8211;7)</p>
                         </entry>
                         <entry colname="c11">
                            <p>3.9 (1&#8211;7)</p>
                         </entry>
                      </row>
                      <row valign="top">
                         <entry colname="c1">
                            <p>Trans</p>
                         </entry>
                         <entry colname="c2">
                            <p>12 154</p>
                         </entry>
                         <entry colname="c3">
                            <p>4</p>
                         </entry>
                         <entry colname="c4">
                            <p>1</p>
                         </entry>
                         <entry colname="c5">
                            <p>2</p>
                         </entry>
                         <entry colname="c6">
                            <p>1</p>
                         </entry>
                         <entry colname="c7">
                            <p>50</p>
                         </entry>
                         <entry colname="c8">
                            <p>41.8</p>
                         </entry>
                         <entry colname="c9">
                            <p>19.8</p>
                         </entry>
                         <entry colname="c10">
                            <p>6.4 (2&#8211;19)</p>
                         </entry>
                         <entry colname="c11">
                            <p>6.4 (2&#8211;19)</p>
                         </entry>
                      </row>
                   </tbody>
                </tgroup>
             </table>
          
          <p>As described in the methods section, most GPRNs are located in one province and use extracted data from only one type of EHR software package. In this study, LINH is the only nationally distributed network that was processing data from multiple EHR software packages: Acros, Omnihis, Medicom, Microhis, Mira, Promedico and PromedicoASP. Together these software packages cover more that 80% of the market.</p>
          <sec>
             <st>
                <p>Influence of practice characteristics on variation between practices and networks</p>
             </st>
             <p>The variations (in MOR) of the 154 models are presented separately for general practices (Additional file <supplr sid="S1">1</supplr>: Table S1) and GPRNs (Additional file <supplr sid="S2">2</supplr>: Table S2). In only six cases of the 154 models we observed a significant effect of a practice characteristic on morbidity estimates. Group practices are related to higher estimates of the incidence figures of diabetes mellitus (OR<sub>group</sub> = 1.74) and anxiety (OR<sub>group</sub> = 1.54) as compared to solo practices. The prevalence figures of anxiety are negatively related to the distance between the general practice and the out-of-hours service location (OR = 0.96) and hospital (OR = 0.97), for depression this was only the case for the distance between general practice and the out-of-hours service location (OR = 0.96). Furthermore, the employment of a practice nurse leads to higher estimate of the prevalence of COPD (OR = 1.36).</p><p>The MOR, for example, of the variation in incidence between general practices of osteoarthritis is 1.42 (95% CI: 1.30-1.55) and the variation in prevalence is 1.60 (95% CI: 1.46-1.65). This means that the chance of being diagnosed with osteoarthritis is respectively 1.4 times higher for incident cases and 1.6 times higher for prevalent cases in one practice compared to another practice. Adding practice characteristics to the estimation of incidence and prevalence rates does not result in lower variations between general practices as MORs remain stable for all health problems (Additional file <supplr sid="S1">1</supplr>: Table S1).</p><p>Considering the variation of osteoarthritis between GPRNs, results show no variation in the incidence rates (MOR 1.02 (95% CI: 1.00-1.45)) and a relatively high variation in prevalence rates (MOR 1.96 (95% CI: 1.48-4.83)). The chance of having a diagnosis of osteoarthritis is about 2 times higher between two randomly chosen GPRNs.</p>
             <p>We observed hardly any reductions in the variation between GPRNs after the addition of practice characteristics to the analyses (Additional file <supplr sid="S2">2</supplr>: Table S2). The same results are seen for most other diseases.</p></sec>
          <sec>
             <st>
                <p>The influence of EHR software package and province</p>
             </st>
             <p>The influence of EHR software package and province on the variation in incidence and prevalence figures between practices could only be investigated in the LINH network. The effect of EHR software package and province on the variation between practices is small, results are shown in Table&#160;<tblr tid="T2">2</tblr>. Practices using the software package &#8216;Medicom&#8217; show significantly lower morbidity estimates in 6 out of 10 prevalent disorders. However, this results only in a small decline in variation between practices. For example, in the prevalence of osteoarthritis the MOR between practices decreases from 1.50 (95% CI: 1.38-1.59) to 1.47 (95% CI: 1.37-1.58). For province, practices in &#8220;Groningen&#8221; showed higher prevalence figures in 3 out of 10 disorders than the other provinces (results not shown), but statistically the variation between practices did not change. For example, in stroke the variance (in MOR) declined from 1.80 (95% CI: 1.60-1.77) to 1.75 (95% CI: 1.56-1.91).</p>
             
                <table id="T2">
                   <title>
                      <p>Table 2</p>
                   </title>
                   <caption>
                      <p>
                         <b>The influence of &#8220;EHR software package&#8221; and &#8220;province&#8221; on the variation between morbidity estimates of LINH general practices</b>
                         <sup>
                            <b>#</b>
                         </sup>
                      </p>
                   </caption>
                   <tgroup align="left" cols="6">
                      <colspec align="left" colname="c1" colnum="1" colwidth="*"/>
                      <colspec align="left" colname="c2" colnum="2" colwidth="*"/>
                      <colspec align="left" colname="c3" colnum="3" colwidth="*"/>
                      <colspec align="left" colname="c4" colnum="4" colwidth="*"/>
                      <colspec align="left" colname="c5" colnum="5" colwidth="*"/>
                      <colspec align="left" colname="c6" colnum="6" colwidth="*"/>
                      <thead>
                         <row valign="top">
                            <entry colname="c1" morerows="2">
                               <p>
                                  <b>Health problem</b>
                               </p>
                            </entry>
                            <entry nameend="c6" namest="c2" rowsep="1">
                               <p>
                                  <b>MOR (95% CI)</b>
                               </p>
                            </entry>
                         </row>
                         <row valign="top">
                            <entry nameend="c6" namest="c2" rowsep="1">
                               <p>
                                  <b>
                                     <it>Population characteristics (age, gender, SES, ethnicity and degree of urbanisation</it>
                                  </b>
                               </p>
                            </entry>
                         </row>
                         <row valign="top">
                            <entry colname="c2">
                               <p>
                                  <b>-</b>
                               </p>
                            </entry>
                            <entry nameend="c4" namest="c3">
                               <p>
                                  <b>EHR software package</b>
                               </p>
                            </entry>
                            <entry nameend="c6" namest="c5">
                               <p>
                                  <b>Province</b>
                               </p>
                            </entry>
                         </row>
                      </thead>
                      <tfoot>
                         <p>
                            <sup>#</sup>This table only present the practice characteristics that significantly influenced morbidity estimation on <sup>1</sup>0.05 level. Note: All variations (in MOR) between general practices are significant in all diseases.</p>
                      </tfoot>
                      <tbody>
                         <row valign="top">
                            <entry nameend="c6" namest="c1">
                               <p>
                                  <b>Incidence</b>
                               </p>
                            </entry>
                         </row>
                         <row valign="top">
                            <entry colname="c1">
                               <p>Urinary tract infection</p>
                            </entry>
                            <entry colname="c2">
                               <p>-</p>
                            </entry>
                            <entry colname="c3"/>
                            <entry colname="c4">
                               <p>-</p>
                            </entry>
                            <entry colname="c5"/>
                            <entry colname="c6">
                               <p>-</p>
                            </entry>
                         </row>
                         <row valign="top">
                            <entry colname="c1">
                               <p>Gastro-intestinal infection</p>
                            </entry>
                            <entry colname="c2">
                               <p>-</p>
                            </entry>
                            <entry colname="c3"/>
                            <entry colname="c4">
                               <p>-</p>
                            </entry>
                            <entry colname="c5"/>
                            <entry colname="c6">
                               <p>-</p>
                            </entry>
                         </row>
                         <row valign="top">
                            <entry colname="c1">
                               <p>Neck and back problems</p>
                            </entry>
                            <entry colname="c2">
                               <p>1.24 (1.17-1.35)</p>
                            </entry>
                            <entry colname="c3"/>
                            <entry colname="c4">
                               <p>-</p>
                            </entry>
                            <entry colname="c5"/>
                            <entry colname="c6">
                               <p>-</p>
                            </entry>
                         </row>
                         <row valign="top">
                            <entry colname="c1">
                               <p>Eczema</p>
                            </entry>
                            <entry colname="c2">
                               <p>1.27 (1.20-1.40)</p>
                            </entry>
                            <entry colname="c3"/>
                            <entry colname="c4">
                               <p>-</p>
                            </entry>
                            <entry colname="c5"/>
                            <entry colname="c6">
                               <p>-</p>
                            </entry>
                         </row>
                         <row valign="top">
                            <entry colname="c1">
                               <p>Asthma</p>
                            </entry>
                            <entry colname="c2">
                               <p>1.74 (1.52-2.11)</p>
                            </entry>
                            <entry colname="c3"/>
                            <entry colname="c4">
                               <p>-</p>
                            </entry>
                            <entry colname="c5"/>
                            <entry colname="c6">
                               <p>-</p>
                            </entry>
                         </row>
                         <row valign="top">
                            <entry colname="c1">
                               <p>COPD</p>
                            </entry>
                            <entry colname="c2">
                               <p>-</p>
                            </entry>
                            <entry colname="c3"/>
                            <entry colname="c4">
                               <p>-</p>
                            </entry>
                            <entry colname="c5"/>
                            <entry colname="c6">
                               <p>-</p>
                            </entry>
                         </row>
                         <row valign="top">
                            <entry colname="c1">
                               <p>Osteoarthritis</p>
                            </entry>
                            <entry colname="c2">
                               <p>-</p>
                            </entry>
                            <entry colname="c3"/>
                            <entry colname="c4">
                               <p>-</p>
                            </entry>
                            <entry colname="c5"/>
                            <entry colname="c6">
                               <p>-</p>
                            </entry>
                         </row>
                         <row valign="top">
                            <entry colname="c1">
                               <p>Diabetes Mellitus</p>
                            </entry>
                            <entry colname="c2">
                               <p>1.88 (1.60-2.37)</p>
                            </entry>
                            <entry colname="c3"/>
                            <entry colname="c4">
                               <p>-</p>
                            </entry>
                            <entry colname="c5"/>
                            <entry colname="c6">
                               <p>
                                  <sup>&#8722;</sup>
                               </p>
                            </entry>
                         </row>
                         <row valign="top">
                            <entry colname="c1">
                               <p>CHD</p>
                            </entry>
                            <entry colname="c2">
                               <p>2.03 (1.68-2.65)</p>
                            </entry>
                            <entry colname="c3"/>
                            <entry colname="c4">
                               <p>-</p>
                            </entry>
                            <entry colname="c5">
                               <p>1.86 (1.57-2.40)</p>
                            </entry>
                            <entry colname="c6">
                               <p>Zeeland<sup>1</sup>
                               </p>
                            </entry>
                         </row>
                         <row valign="top">
                            <entry colname="c1">
                               <p>Stroke</p>
                            </entry>
                            <entry colname="c2">
                               <p>1.49 (1.30-1.82)</p>
                            </entry>
                            <entry colname="c3"/>
                            <entry colname="c4">
                               <p>-</p>
                            </entry>
                            <entry colname="c5"/>
                            <entry colname="c6">
                               <p>-</p>
                            </entry>
                         </row>
                         <row valign="top">
                            <entry colname="c1">
                               <p>Depression</p>
                            </entry>
                            <entry colname="c2">
                               <p>1.47 (1.33-1.69)</p>
                            </entry>
                            <entry colname="c3"/>
                            <entry colname="c4">
                               <p>-</p>
                            </entry>
                            <entry colname="c5"/>
                            <entry colname="c6">
                               <p>-</p>
                            </entry>
                         </row>
                         <row valign="top">
                            <entry colname="c1">
                               <p>Anxiety</p>
                            </entry>
                            <entry colname="c2">
                               <p>1.60 (1.43-1.87)</p>
                            </entry>
                            <entry colname="c3">
                               <p>1.51 (1.36-1.76)</p>
                            </entry>
                            <entry colname="c4">
                               <p>Promedico<sup>1</sup>
                               </p>
                            </entry>
                            <entry colname="c5"/>
                            <entry colname="c6">
                               <p>-</p>
                            </entry>
                         </row>
                         <row valign="top">
                            <entry nameend="c6" namest="c1">
                               <p>
                                  <b>Prevalence</b>
                               </p>
                            </entry>
                         </row>
                         <row valign="top">
                            <entry colname="c1">
                               <p>Neck and back problems</p>
                            </entry>
                            <entry colname="c2">
                               <p>1.33 (1.28-1.40)</p>
                            </entry>
                            <entry colname="c3">
                               <p>1.29 (1.25-1.36)</p>
                            </entry>
                            <entry colname="c4">
                               <p>Medicom<sup>1</sup>
                               </p>
                            </entry>
                            <entry colname="c5"/>
                            <entry colname="c6">
                               <p>-</p>
                            </entry>
                         </row>
                         <row valign="top">
                            <entry colname="c1" morerows="2">
                               <p>Eczema</p>
                            </entry>
                            <entry colname="c2" morerows="2">
                               <p>1.52 (1.44-1.66)</p>
                            </entry>
                            <entry colname="c3">
                               <p>1.50 (1.42-1.63)</p>
                            </entry>
                            <entry colname="c4">
                               <p>Microhis<sup>1</sup>
                               </p>
                            </entry>
                            <entry colname="c5" morerows="2"/>
                            <entry colname="c6" morerows="2">
                               <p>-</p>
                            </entry>
                         </row>
                         <row valign="top">
                            <entry colname="c3">
                               <p>1.46 (1.39-1.58)</p>
                            </entry>
                            <entry colname="c4">
                               <p>Medicom<sup>1</sup>
                               </p>
                            </entry>
                         </row>
                         <row valign="top">
                            <entry colname="c3">
                               <p>1.50 (1.42-1.66)</p>
                            </entry>
                            <entry colname="c4">
                               <p>Mira<sup>1</sup>
                               </p>
                            </entry>
                         </row>
                         <row valign="top">
                            <entry colname="c1" morerows="1">
                               <p>Asthma</p>
                            </entry>
                            <entry colname="c2" morerows="1">
                               <p>1.59 (1.50-1.75)</p>
                            </entry>
                            <entry colname="c3">
                               <p>1.57 (1.48-1.71)</p>
                            </entry>
                            <entry colname="c4">
                               <p>Microhis<sup>1</sup>
                               </p>
                            </entry>
                            <entry colname="c5" morerows="1"/>
                            <entry colname="c6" morerows="1">
                               <p>-</p>
                            </entry>
                         </row>
                         <row valign="top">
                            <entry colname="c3">
                               <p>1.56 (1.47-1.71)</p>
                            </entry>
                            <entry colname="c4">
                               <p>Medicom<sup>1</sup>
                               </p>
                            </entry>
                         </row>
                         <row valign="top">
                            <entry colname="c1">
                               <p>COPD</p>
                            </entry>
                            <entry colname="c2">
                               <p>1.64 (1.49-1.75)</p>
                            </entry>
                            <entry colname="c3"/>
                            <entry colname="c4">
                               <p>-</p>
                            </entry>
                            <entry colname="c5"/>
                            <entry colname="c6">
                               <p>-</p>
                            </entry>
                         </row>
                         <row valign="top">
                            <entry colname="c1">
                               <p>Osteoarthritis</p>
                            </entry>
                            <entry colname="c2">
                               <p>1.50 (1.38-1.59)</p>
                            </entry>
                            <entry colname="c3">
                               <p>1.47 (1.36-1.56)</p>
                            </entry>
                            <entry colname="c4">
                               <p>Medicom<sup>1</sup>
                               </p>
                            </entry>
                            <entry colname="c5"/>
                            <entry colname="c6">
                               <p>-</p>
                            </entry>
                         </row>
                         <row valign="top">
                            <entry colname="c1">
                               <p>Diabetes Mellitus</p>
                            </entry>
                            <entry colname="c2">
                               <p>1.38 (1.30-1.48)</p>
                            </entry>
                            <entry colname="c3"/>
                            <entry colname="c4">
                               <p>-</p>
                            </entry>
                            <entry colname="c5">
                               <p>1.36 (1.28-1.45)</p>
                            </entry>
                            <entry colname="c6">
                               <p>Gelderland<sup>1</sup>
                               </p>
                            </entry>
                         </row>
                         <row valign="top">
                            <entry colname="c1" morerows="1">
                               <p>CHD</p>
                            </entry>
                            <entry colname="c2" morerows="1">
                               <p>2.03 (1.77-2.23)</p>
                            </entry>
                            <entry colname="c3" morerows="1"/>
                            <entry colname="c4" morerows="1">
                               <p>-</p>
                            </entry>
                            <entry colname="c5"/>
                            <entry colname="c6">
                               <p>-</p>
                            </entry>
                         </row>
                         <row valign="top">
                            <entry colname="c5"/>
                            <entry colname="c6">
                               <p>-</p>
                            </entry>
                         </row>
                         <row valign="top">
                            <entry colname="c1">
                               <p>Stroke</p>
                            </entry>
                            <entry colname="c2">
                               <p>1.80 (1.60-1.97)</p>
                            </entry>
                            <entry colname="c3"/>
                            <entry colname="c4">
                               <p>-</p>
                            </entry>
                            <entry colname="c5">
                               <p>1.75 (1.56-1.91)</p>
                            </entry>
                            <entry colname="c6">
                               <p>Groningen<sup>1</sup>
                               </p>
                            </entry>
                         </row>
                         <row valign="top">
                            <entry colname="c1">
                               <p>Depression</p>
                            </entry>
                            <entry colname="c2">
                               <p>1.61 (1.51-1.77)</p>
                            </entry>
                            <entry colname="c3">
                               <p>1.58 (1.48-1.73)</p>
                            </entry>
                            <entry colname="c4">
                               <p>Medicom<sup>1</sup>
                               </p>
                            </entry>
                            <entry colname="c5">
                               <p>1.56 (1.43-1.72)</p>
                            </entry>
                            <entry colname="c6">
                               <p>Groningen<sup>1</sup>
                               </p>
                            </entry>
                         </row>
                         <row valign="top">
                            <entry colname="c1" morerows="1">
                               <p>Anxiety</p>
                            </entry>
                            <entry colname="c2" morerows="1">
                               <p>1.71 (1.59-1.90)</p>
                            </entry>
                            <entry colname="c3">
                               <p>1.62 (1.52-1.78)</p>
                            </entry>
                            <entry colname="c4">
                               <p>Microhis<sup>1</sup>
                               </p>
                            </entry>
                            <entry colname="c5">
                               <p>1.67 (1.56-1.85)</p>
                            </entry>
                            <entry colname="c6">
                               <p>Groningen<sup>1</sup>
                               </p>
                            </entry>
                         </row>
                         <row valign="top">
                            <entry colname="c3">
                               <p>1.65 (1.54-1.82)</p>
                            </entry>
                            <entry colname="c4">
                               <p>Medicom<sup>1</sup>
                               </p>
                            </entry>
                            <entry colname="c5"/>
                            <entry colname="c6"/>
                         </row>
                      </tbody>
                   </tgroup>
                </table>
             
          </sec>
       </sec>
       <sec>
          <st>
             <p>Discussion</p>
          </st>
          <p>Our results show that only a small number of practice characteristics was related to morbidity estimates. Adjusting for these practice characteristics hardly reduced the variation of morbidity estimates between networks or practices. We did not find any apparent influence of GP or practice characteristics on the variation in morbidity estimates between GPRNs.</p>
          <p>Practice characteristics cannot explain the variation between GPRNs or general practices. Still, we found that in group practices more patients were diagnosed with diabetes and anxiety disorders, and practices with a practice nurse showed more patients with the diagnoses COPD. Similar to our findings, in Nielen et al. group practices were associated with higher estimates of incidence of diabetes mellitus (OR = 1.3) <abbrgrp>
                <abbr bid="B22">22</abbr>
             </abbrgrp>. Practice nurses mainly support the GP in monitoring and treating patients with chronic diseases, e.g. diabetes mellitus, CHD, COPD and asthma. A possible explanation for higher prevalence figures of COPD is that a practice nurse with regular contact with these patients keeps better records than the GP.</p>
          <p>The relation between psychological problems, such as depression or anxiety, and distance to nearest hospital or out-of-hour service location is probably due to the relationship between large cities and psychological problems. Both psychological problems and smaller distances to a hospital or out-of-hour service locations are more apparent in large cities <abbrgrp>
                <abbr bid="B23">23</abbr>
             </abbrgrp>,<abbrgrp>
                <abbr bid="B24">24</abbr>
             </abbrgrp>. This is shown in the high correlation found between the urbanization level of patient&#8217;s home address and the distance from general practice to the nearest hospital.</p>
          <p>To our knowledge, this is the first research that investigates the direct influence of GP and practice characteristics on the variation of morbidity estimates between registration networks, not on the actual morbidity estimation. We explored the practice characteristics that, in earlier research, showed any relevance to morbidity estimation <abbrgrp>
                <abbr bid="B8">8</abbr>
             </abbrgrp>-<abbrgrp>
                <abbr bid="B10">10</abbr>
             </abbrgrp>. However we must comment that we found particularly small number of significant relations between morbidity figures and practice characteristics. Unfortunately, we could only investigate GP characteristics aggregated on the practice level. This may have diminished the effect of these characteristics on morbidity estimation. Though, research showed that GPs in one practice are more similar than GPs between practices, because a GP&#8217;s medical practice is affected by the working environment <abbrgrp>
                <abbr bid="B8">8</abbr>
             </abbrgrp>,<abbrgrp>
                <abbr bid="B10">10</abbr>
             </abbrgrp>,<abbrgrp>
                <abbr bid="B25">25</abbr>
             </abbrgrp>,<abbrgrp>
                <abbr bid="B26">26</abbr>
             </abbrgrp>. Furthermore, Marinus <abbrgrp>
                <abbr bid="B8">8</abbr>
             </abbrgrp> concluded that the investigation of individual GP characteristics on variation would be less effective. Therefore studying the variation at the practice level is legitimate.</p>
          <p>A drawback of this study is that we could not differentiate between actual morbidity differences and artefacts of the recording system. Differences between provinces may reflect real differences in health status between populations <abbrgrp>
                <abbr bid="B27">27</abbr>
             </abbrgrp>, although there is no reason to expect such large differences of these twelve diseases within a small country as the Netherlands. Overall, no clear effect of province is seen in our data.</p>
          <p>Another possible artefact is the type of EHR to record morbidity. Practices using the &#8216;Medicom&#8217; software package showed lower prevalence figures of osteoarthritis, asthma, eczema, depression, anxiety disorders and neck and back problems. &#8216;Medicom&#8217; automatically ends an episode if there is no regular contact for this specific health problem. This is often the case in osteoarthritis or stroke. Two GPRNs (SMILE and RNUH Leo) contain only practices, which use the &#8216;Medicom&#8217; software package, but these GPRNs do not show lower prevalence estimates of osteoarthritis (as we would expect regarding their software package). If a GP marked an episode of osteoarthritis as an episode with special attention, the episode would have stayed active, suggesting a different recording strategy between the different GPRNs.</p>
          <p>Other research also showed that inter-doctor variation in morbidity estimates remains high after adjusting for population and practice characteristics <abbrgrp>
                <abbr bid="B25">25</abbr>
             </abbrgrp>. Westert and de Bakker <abbrgrp>
                <abbr bid="B25">25</abbr>
             </abbrgrp> suggested that better use of classification systems by training of GPs might be effective in narrowing the variation. Similar results about the lower number of episodes in practices using &#8216;Medicom&#8217; compared to other EHR software packages were found by Khan et al. <abbrgrp>
                <abbr bid="B28">28</abbr>
             </abbrgrp>. In their follow up study they observed an increase of the recording quality of the electronic patient records and less variation between practices and between EHR software packages <abbrgrp>
                <abbr bid="B29">29</abbr>
             </abbrgrp>.</p>
          <p>Variation in morbidity estimates can occur on different stages of the recording process, at the consultation, recording in the EHR, data extraction, data storage, analyses and use of the data for estimation of incidence and prevalence figures. In a previous paper, we investigated the influence of population characteristics on morbidity estimates; in this current research we added the influence of practice characteristics <abbrgrp>
                <abbr bid="B6">6</abbr>
             </abbrgrp>. However, neither population nor practice characteristics could explain the variation between incidence and prevalence estimates between practices or GPRNs. A next step is to investigate the effects of recording agreements of different GPRNs on morbidity variations between GPRNs. The variation between GPRNs is much higher in prevalence figures compared to incidence figures, which might be related to different methods of calculating morbidity <abbrgrp>
                <abbr bid="B5">5</abbr>
             </abbrgrp>,<abbrgrp>
                <abbr bid="B26">26</abbr>
             </abbrgrp>. For example, some networks only count disease episodes when a patient had contact for that disease in a particular year, as others also include single contacts (not linked to an episode) or episodes with problem status. Understanding the differences between GPRNs and practices is needed to come to the most valid and reliable estimate for morbidity rates in the general population using general practice based data.</p>
       </sec>
       <sec>
          <st>
             <p>Conclusions</p>
          </st>
          <p>The goal of this study was to explain differences in morbidity estimates from different GPRNs. We investigated to what extent differences in characteristics of general practices could explain this variation. Our results show that only a small number of practice characteristics was related to morbidity estimates. Adjusting for these practice characteristics hardly reduced the variation between networks or practices. Therefore, we conclude that GPs and practice characteristics do not explain the differences in incidence and prevalence figures between different networks.</p>
       </sec>
       <sec>
          <st>
             <p>Endnote</p>
          </st>
          <p>
             <sup>a</sup>The name of this network changed in 2013 to NIVEL Primary Care Database (NIVEL-PCD).</p>
       </sec>
       <sec>
          <st>
             <p>Abbreviations</p>
          </st>
          <p>CHD: Coronary heart disease</p>
          <p>COPD: Chronic obstructive pulmonary disease</p>
          <p>EHR: Electronic health record</p>
          <p>GP: General practitioner</p>
          <p>GPRN: General practice registration Network</p>
          <p>HAREG: Register of general practitioners of NIVEL</p>
          <p>ICD: International classification of disease</p>
          <p>ICPC: International classification of primary care</p>
          <p>MOR: Median odds ratio</p>
          <p>OR: Odds ration</p>
       </sec>
       <sec>
          <st>
             <p>Competing interests</p>
          </st>
          <p>The authors declare that they have no competing interests.</p>
       </sec>
       <sec>
          <st>
             <p>Authors&#8217; contributions</p>
          </st>
          <p>CvdD, NH, FS and HvO participated in the conceptual development, study design, the writing and editing of the article. CvdD was also responsible for data collection, data analysis and drafting of the manuscript. MvdA, MB, CvB, HJ, RV and MdW participated in data collection and contribution to subsequential drafts. All authors approved the final draft.</p>
       </sec>
       <sec>
          <st>
             <p>Additional files</p>
          </st>
          <suppl id="S1">
             <title>
                <p>Additional file 1: Table S1.</p>
             </title>
             <text>
                <p>The influence of practice characteristics on the variation of incidence and prevalence figures between general practices.</p>
             </text>
             <file name="s12875-014-0176-7-S1.doc">
                <p>Click here for file</p>
             </file>
          </suppl>
          <suppl id="S2">
             <title>
                <p>Additional file 2: Table S2.</p>
             </title>
             <text>
                <p>The influence of practice characteristics on the variation of incidence and prevalence estimates between general practice registration networks.</p>
             </text>
             <file name="s12875-014-0176-7-S2.doc">
                <p>Click here for file</p>
             </file>
          </suppl>
          
       </sec>
    </bdy>
    <bm>
       <ack>
          <sec>
             <st>
                <p>Acknowledgements</p>
             </st>
             <p>The authors thank Raymond Kenens (HAREG/NIVEL) for the delivery of the practice characteristics derived from the HAREG database and Henriette Giesbers (RIVM) for the determination of the distances between the general practices and the nearest hospital and out-of-hour service locations. Furthermore, we thank Hendriek Boshuizen for the methodological and SAS support. Special thanks to Caroline Ameling (RIVM) and Gerda Doornbos (RIVM) for their help with analyzing the models.</p>
             <sec>
                <st>
                   <p>Participating general practice registration networks</p>
                </st>
                <p>ANH-VUmc, Academic General Practice Network of VU University medical centre.</p>
                <p>CMR-N, Continuous Morbidity Registration Nijmegen.</p>
                <p>LINH, Netherlands Infromation network of General Practice, changed in 2013 to &#8220;NIVEL Primary Care Database&#8221; (NIVEL-PCD).</p>
                <p>RNUH-LEO, Registration network of General Practitioners associated with Leiden University.</p>
                <p>SMILE, Study of Medical Information and Lifestyle in Eindhoven.</p>
                <p>Trans, Transition Project.</p>
             </sec>
          </sec>
       </ack>
       <refgrp>
          
          <bibl id="B1">
             <aug>
                <au>
                   <snm>van der Lucht</snm>
                   <fnm>F</fnm>
                </au>
                <au>
                   <snm>Polder</snm>
                   <fnm>JJ</fnm>
                </au>
             </aug>
             <source>Towards better health. The Dutch 2010 Public Health Status and Forecasts Report</source>
             <publisher>National Institude for Public Health and the Environment, Bilthoven</publisher>
             <pubdate>2011</pubdate>
          </bibl>
          <bibl id="B2">
             <aug>
                <au>
                   <snm>Hoeymans</snm>
                   <fnm>N</fnm>
                </au>
                <au>
                   <snm>Melse</snm>
                   <fnm>JM</fnm>
                </au>
                <au>
                   <snm>Schoemaker</snm>
                   <fnm>CG</fnm>
                </au>
             </aug>
             <source>Gezondheid en Determinanten. Deelrapport van de VTV 2010 Van Gezond Naar Beter</source>
             <publisher>Rijksinstituut voor volksgezondheid en milieu, Bilthoven</publisher>
             <pubdate>2010</pubdate>
          </bibl>
          <bibl id="B3">
             <title>
                <p>Primary care in the Netherlands: current situation and trends</p>
             </title>
             <aug>
                <au>
                   <snm>de Bakker</snm>
                   <fnm>DH</fnm>
                </au>
                <au>
                   <snm>Groenewegen</snm>
                   <fnm>PP</fnm>
                </au>
             </aug>
             <source>Italian J Public Health</source>
             <pubdate>2009</pubdate>
             <volume>6</volume>
             <issue>2</issue>
             <fpage>128</fpage>
             <lpage>134</lpage>
          </bibl>
          <bibl id="B4">
             <title>
                <p>Using registries in general practice to estimate countrywide morbidity in the Netherlands</p>
             </title>
             <aug>
                <au>
                   <snm>Gijsen</snm>
                   <fnm>R</fnm>
                </au>
                <au>
                   <snm>Poos</snm>
                   <fnm>R</fnm>
                </au>
             </aug>
             <source>Public Health</source>
             <pubdate>2006</pubdate>
             <volume>120</volume>
             <fpage>923</fpage>
             <lpage>936</lpage>
             <xrefbib>
                <pubidlist>
                   <pubid idtype="doi">10.1016/j.puhe.2006.06.005</pubid>
                   <pubid idtype="pmpid" link="fulltext">16949625</pubid>
                </pubidlist>
             </xrefbib>
          </bibl>
          <bibl id="B5">
             <title>
                <p>What factors explain the differences in morbidity estimations among general practice registration networks in the Netherlands? A first analysis</p>
             </title>
             <aug>
                <au>
                   <snm>van den Dungen</snm>
                   <fnm>C</fnm>
                </au>
                <au>
                   <snm>Hoeymans</snm>
                   <fnm>N</fnm>
                </au>
                <au>
                   <snm>Gijsen</snm>
                   <fnm>R</fnm>
                </au>
                <au>
                   <snm>van der Akker</snm>
                   <fnm>M</fnm>
                </au>
                <au>
                   <snm>Boesten</snm>
                   <fnm>J</fnm>
                </au>
                <au>
                   <snm>Brouwer</snm>
                   <fnm>H</fnm>
                </au>
                <au>
                   <snm>Smeets</snm>
                   <fnm>H</fnm>
                </au>
                <au>
                   <snm>van der Veen</snm>
                   <fnm>WJ</fnm>
                </au>
                <au>
                   <snm>Verheij</snm>
                   <fnm>R</fnm>
                </au>
                <au>
                   <snm>de Waal</snm>
                   <fnm>M</fnm>
                </au>
                <au>
                   <snm>Schellevis</snm>
                   <fnm>F</fnm>
                </au>
                <au>
                   <snm>Westert</snm>
                   <fnm>G</fnm>
                </au>
             </aug>
             <source>European J Gen Prac</source>
             <pubdate>2008</pubdate>
             <volume>14</volume>
             <issue>suppl 1</issue>
             <fpage>53</fpage>
             <lpage>62</lpage>
             <xrefbib>
                <pubidlist>
                   <pubid idtype="doi">10.1080/13814780802436218</pubid>
                </pubidlist>
             </xrefbib>
          </bibl>
          <bibl id="B6">
             <title>
                <p>The influence of population characteristics on variation in general practice based morbidity estimations</p>
             </title>
             <aug>
                <au>
                   <snm>van den Dungen</snm>
                   <fnm>C</fnm>
                </au>
                <au>
                   <snm>Hoeymans</snm>
                   <fnm>N</fnm>
                </au>
                <au>
                   <snm>Boshuizen</snm>
                   <fnm>HC</fnm>
                </au>
                <au>
                   <snm>van den Akker</snm>
                   <fnm>M</fnm>
                </au>
                <au>
                   <snm>Biermans</snm>
                   <fnm>MCJ</fnm>
                </au>
                <au>
                   <snm>van Boven</snm>
                   <fnm>K</fnm>
                </au>
                <au>
                   <snm>Brouwer</snm>
                   <fnm>HJ</fnm>
                </au>
                <au>
                   <snm>Verheij</snm>
                   <fnm>RA</fnm>
                </au>
                <au>
                   <snm>de Waal</snm>
                   <fnm>MWM</fnm>
                </au>
                <au>
                   <snm>Schellevis</snm>
                   <fnm>FG</fnm>
                </au>
                <au>
                   <snm>Westert</snm>
                   <fnm>GP</fnm>
                </au>
             </aug>
             <source>BMC Public Health</source>
             <pubdate>2011</pubdate>
             <volume>24</volume>
             <issue>11</issue>
             <fpage>887</fpage>
             <note>doi:10.1186/1471-2458-11-887</note>
             <xrefbib>
                <pubidlist>
                   <pubid idtype="doi">10.1186/1471-2458-11-887</pubid>
                </pubidlist>
             </xrefbib>
          </bibl>
          <bibl id="B7">
             <title>
                <p>An international glossary for general/family practice</p>
             </title>
             <aug>
                <au>
                   <snm>Bentzen</snm>
                   <fnm>N</fnm>
                </au>
             </aug>
             <source>Fam Pract</source>
             <pubdate>1995</pubdate>
             <volume>12</volume>
             <issue>3</issue>
             <fpage>341</fpage>
             <lpage>369</lpage>
             <xrefbib>
                <pubidlist>
                   <pubid idtype="doi">10.1093/fampra/12.3.341</pubid>
                </pubidlist>
             </xrefbib>
          </bibl>
          <bibl id="B8">
             <aug>
                <au>
                   <snm>Marinus</snm>
                   <fnm>AMF</fnm>
                </au>
             </aug>
             <source>Inter-Doktervariatie in de Huisartsenpraktijk. Interdoctor Variation in General Practice, Doctoral Thesis</source>
             <publisher>University of Amsterdam, Amsterdam</publisher>
             <pubdate>1993</pubdate>
          </bibl>
          <bibl id="B9">
             <title>
                <p>Hoe up-to-date is het medisch dossier? Een onderzoek op vijf lokaties</p>
             </title>
             <aug>
                <au>
                   <snm>van der Meer</snm>
                   <fnm>V</fnm>
                </au>
                <au>
                   <snm>de Waal</snm>
                   <fnm>MWM</fnm>
                </au>
                <au>
                   <snm>Timmers</snm>
                   <fnm>AP</fnm>
                </au>
                <au>
                   <snm>de Bock</snm>
                   <fnm>GH</fnm>
                </au>
                <au>
                   <snm>Springer</snm>
                   <fnm>MP</fnm>
                </au>
             </aug>
             <source>Huisarts en Wetenschap</source>
             <pubdate>2001</pubdate>
             <volume>44</volume>
             <issue>5</issue>
             <fpage>194</fpage>
             <lpage>197</lpage>
          </bibl>
          <bibl id="B10">
             <aug>
                <au>
                   <snm>Cardol</snm>
                   <fnm>M</fnm>
                </au>
                <au>
                   <snm>van Dijk</snm>
                   <fnm>L</fnm>
                </au>
                <au>
                   <snm>de Jong</snm>
                   <fnm>JD</fnm>
                </au>
                <au>
                   <snm>de Bakker</snm>
                   <fnm>DH</fnm>
                </au>
                <au>
                   <snm>Westert</snm>
                   <fnm>GP</fnm>
                </au>
             </aug>
             <source>Verschillen Tussen Praktijken en Huisartsen in Contactfrequenties. Tweede Nationale Studie Naar Ziekten en Verrichtingen in de Huisartspraktijk Deel 2 Huisartsenzorg: Wat Doet de Poortwachter?</source>
             <publisher>Nivel, Utrecht</publisher>
             <pubdate>2004</pubdate>
          </bibl>
          <bibl id="B11">
             <aug>
                <au>
                   <snm>Lamberts</snm>
                   <fnm>H</fnm>
                </au>
                <au>
                   <snm>Woods</snm>
                   <fnm>M</fnm>
                </au>
             </aug>
             <source>International Classification of Primary Care (ICPC)</source>
             <publisher>Published Oxford University Press, Oxford</publisher>
             <pubdate>1987</pubdate>
          </bibl>
          <bibl id="B12">
             <note>Oliemans AP: <it>Morbidity in General Practice [Dutch]</it>, PhD thesis. Leiden; 1969.</note>
          </bibl>
          <bibl id="B13">
             <title>
                <p>A classification of disease</p>
             </title>
             <source>J Coll Gen Pract Res Newsl (Br J Gen Pract)</source>
             <pubdate>1959</pubdate>
             <volume>2</volume>
             <issue>2</issue>
             <fpage>140</fpage>
             <lpage>159</lpage>
          </bibl>
          <bibl id="B14">
             <aug>
                <au>
                   <snm>Gijsen</snm>
                   <fnm>R</fnm>
                </au>
                <au>
                   <snm>Verkleij</snm>
                   <fnm>PH</fnm>
                </au>
                <au>
                   <snm>Dijksterhuis</snm>
                   <fnm>PH</fnm>
                </au>
                <au>
                   <snm>van de Lisdonk</snm>
                   <fnm>E</fnm>
                </au>
                <au>
                   <snm>Metsemakers</snm>
                   <fnm>JFM</fnm>
                </au>
                <au>
                   <snm>van der Velden</snm>
                   <fnm>J</fnm>
                </au>
             </aug>
             <source>Ziektespecifieke Vergelijking van de Geregistreerde Morbiditeit in Vier Huisartsenregistraties: een Analyse ten Behoeve van VTV-1997</source>
             <publisher>Rijksinstituut voor Volksgezondheid en Milieu (RIVM), Bilthoven</publisher>
             <pubdate>1997</pubdate>
          </bibl>
          <bibl id="B15">
             
                <url>http://www.cbs.nl/nl-NL/menu/home/default.htm</url>
             
<note>Statistics Netherlands (CBS Centraal Bureau voor de Statistiek); 2010. Available from: .</note>
          </bibl>
          <bibl id="B16">
             
                <url>http://www.scp.nl/content.jsp?objectid=default:20133</url>
             
<note>Statusscore (Dutch): <it>The Netherlands Institute for Social Science (SCP Sociaal en Cultureel Planbureu).</it> Available from: .</note>
          </bibl>
          <bibl id="B17">
             
                <url>http://www.nivel.nl/en/node/1777</url>
             
<note>HAREG database. Available from: .</note>
          </bibl>
          <bibl id="B18">
             
                <url>http://www.zorgatlas.nl/zorg/ziekenhuiszorg/algemene-en-academische-ziekenhuizen/aanbod/afstand-tot-dichtstbijzijnde-ziekenhuis/#breadcrumb</url>
             
<note>Distance to nearest hospital 2012 (Dutch). Available from: .</note>
          </bibl>
          <bibl id="B19">
             <title>
                <p>Appropriate assessment of neighborhood effects on individual health: integrating random and fixed effects in multilevel logistic regression</p>
             </title>
             <aug>
                <au>
                   <snm>Larsen</snm>
                   <fnm>K</fnm>
                </au>
                <au>
                   <snm>Merlo</snm>
                   <fnm>J</fnm>
                </au>
             </aug>
             <source>Am J Epidemiol</source>
             <pubdate>2005</pubdate>
             <volume>161</volume>
             <issue>1</issue>
             <fpage>81</fpage>
             <lpage>88</lpage>
             <xrefbib>
                <pubidlist>
                   <pubid idtype="doi">10.1093/aje/kwi017</pubid>
                   <pubid idtype="pmpid" link="fulltext">15615918</pubid>
                </pubidlist>
             </xrefbib>
          </bibl>
          <bibl id="B20">
             <title>
                <p>A brief conceptual tutorial of multilevel analysis in social epidemiology: using measures of clustering in multilevel logistic regression to investigate contextual phenomena</p>
             </title>
             <aug>
                <au>
                   <snm>Merlo</snm>
                   <fnm>J</fnm>
                </au>
                <au>
                   <snm>Chaix</snm>
                   <fnm>B</fnm>
                </au>
                <au>
                   <snm>Ohlsson</snm>
                   <fnm>H</fnm>
                </au>
                <au>
                   <snm>Beckman</snm>
                   <fnm>A</fnm>
                </au>
                <au>
                   <snm>Johnell</snm>
                   <fnm>K</fnm>
                </au>
                <au>
                   <snm>Hjerpe</snm>
                   <fnm>P</fnm>
                </au>
                <au>
                   <snm>Rastam</snm>
                   <fnm>L</fnm>
                </au>
                <au>
                   <snm>Larsen</snm>
                   <fnm>K</fnm>
                </au>
             </aug>
             <source>J Epidemiol Community Health</source>
             <pubdate>2006</pubdate>
             <volume>60</volume>
             <fpage>290</fpage>
             <lpage>297</lpage>
             <xrefbib>
                <pubidlist>
                   <pubid idtype="doi">10.1136/jech.2004.029454</pubid>
                   <pubid idtype="pmpid" link="fulltext">16537344</pubid>
                </pubidlist>
             </xrefbib>
          </bibl>
          <bibl id="B21">
             
                <url>http://www.nivel.nl/en/dossier/nivel-primary-care-database</url>
             
<note>NIVEL Primary Care Database. Available from: .</note>
          </bibl>
          <bibl id="B22">
             <note>Nielen MMJ, Schellevis FG, Verheij RA: <b>Inter-practice variation in diagnosing hypertension and diabetes mellitus: a cross-sectional study in general practice.</b>
                <it>BMC Fam Pract</it> 2009, <b>10:</b>6. doi:10.1186/1471-2296-10-6.</note>
          </bibl>
          <bibl id="B23">
             
                <url>http://www.loketgezondleven.nl/gezonde-gemeente/depressie/cijfers-en-feiten/oorzaken-en-gevolgen</url>
             
<note>Causes and consequences of depression (Dutch). Available from: .</note>
          </bibl>
          <bibl id="B24">
             
                <url>http://www.zorgatlas.nl/gezondheid-en-ziekte/functioneren-en-kwaliteit-van-leven/psychische-gezondheid-2012/#breadcrumb</url>
             
<note>Mulder M: <it>Psychological problems between 2008&#8211;2011 (Dutch).</it>. Available from: .</note>
          </bibl>
          <bibl id="B25">
             <title>
                <p>Interdokter- en interpraktijkvariatie binnen en tussen huisartsregistraties. Een secundaire analyse</p>
             </title>
             <aug>
                <au>
                   <snm>Westert</snm>
                   <fnm>GP</fnm>
                </au>
                <au>
                   <snm>de Bakker</snm>
                   <fnm>DH</fnm>
                </au>
                <au>
                   <snm>Schellevis</snm>
                   <fnm>FG</fnm>
                </au>
             </aug>
             <source>Huisarts en Wetenschap</source>
             <pubdate>1999</pubdate>
             <volume>42</volume>
             <issue>1</issue>
             <fpage>18</fpage>
             <lpage>21</lpage>
          </bibl>
          <bibl id="B26">
             <title>
                <p>De betekenis van interpraktijkvariatie in registratienetwerken</p>
             </title>
             <aug>
                <au>
                   <snm>Brouwer</snm>
                   <fnm>HJ</fnm>
                </au>
                <au>
                   <snm>van Weert</snm>
                   <fnm>HC</fnm>
                </au>
                <au>
                   <snm>Vintges</snm>
                   <fnm>MMQ</fnm>
                </au>
                <au>
                   <snm>Bindels</snm>
                   <fnm>PJE</fnm>
                </au>
             </aug>
             <source>Huisarts en Wetenschap</source>
             <pubdate>2000</pubdate>
             <volume>43</volume>
             <issue>10</issue>
             <fpage>426</fpage>
             <lpage>429</lpage>
          </bibl>
          <bibl id="B27">
             <title>
                <p>Regional differences in cardiovascular risk factor profile cannot fully explain differences in cardiovascular morbidity in the Netherlands: a comparison of two urban areas</p>
             </title>
             <aug>
                <au>
                   <snm>Plat</snm>
                   <fnm>AW</fnm>
                </au>
                <au>
                   <snm>te Wierik</snm>
                   <fnm>MJ</fnm>
                </au>
                <au>
                   <snm>Kroon</snm>
                   <fnm>AA</fnm>
                </au>
                <au>
                   <snm>Schouten</snm>
                   <fnm>HJ</fnm>
                </au>
                <au>
                   <snm>van den Akker</snm>
                   <fnm>M</fnm>
                </au>
                <au>
                   <snm>van Schayck</snm>
                   <fnm>CP</fnm>
                </au>
                <au>
                   <snm>de Leeuw</snm>
                   <fnm>PK</fnm>
                </au>
                <au>
                   <snm>Hajema</snm>
                   <fnm>KJ</fnm>
                </au>
                <au>
                   <snm>Stoffers</snm>
                   <fnm>HE</fnm>
                </au>
             </aug>
             <source>Neth J Med</source>
             <pubdate>2005</pubdate>
             <volume>63</volume>
             <issue>8</issue>
             <fpage>309</fpage>
             <lpage>315</lpage>
             <xrefbib>
                <pubidlist>
                   <pubid idtype="pmpid" link="fulltext">16186641</pubid>
                </pubidlist>
             </xrefbib>
          </bibl>
          <bibl id="B28">
             <aug>
                <au>
                   <snm>Khan</snm>
                   <fnm>NA</fnm>
                </au>
                <au>
                   <snm>Visscher</snm>
                   <fnm>S</fnm>
                </au>
                <au>
                   <snm>Verheij</snm>
                   <fnm>RA</fnm>
                </au>
             </aug>
             <source>Quality of the Electronic Patient Record Measured. EPR-Scan Region of Twente, a First Measure</source>
             <publisher>Nivel, Utrecht</publisher>
             <pubdate>2011</pubdate>
          </bibl>
          <bibl id="B29">
             <aug>
                <au>
                   <snm>van der Bij</snm>
                   <fnm>S</fnm>
                </au>
                <au>
                   <snm>Khan</snm>
                   <fnm>NA</fnm>
                </au>
                <au>
                   <snm>ten Veen</snm>
                   <fnm>P</fnm>
                </au>
                <au>
                   <snm>Roodzant</snm>
                   <fnm>E</fnm>
                </au>
                <au>
                   <snm>Visscher</snm>
                   <fnm>S</fnm>
                </au>
                <au>
                   <snm>Verheij</snm>
                   <fnm>RA</fnm>
                </au>
             </aug>
             <source>De Kwaliteit van Elektronische Verslaglegging Door Huisartsen Gemeten</source>
             <publisher>Nivel, Utrecht</publisher>
             <pubdate>2013</pubdate>
          </bibl>
       </refgrp>
    </bm>
 </art>
