<art>
    <ui>s12888-014-0294-8</ui>
    <ji>1471-244X</ji>
    <fm>
       <dochead>Study protocol</dochead>
       <bibl>
          <title>
             <p>SIAM (Suicide intervention assisted by messages): the development of a post-acute crisis text messaging outreach for suicide prevention</p>
          </title>
          <aug>
             <au id="A1" ca="yes">
                <snm>Berrouiguet</snm>
                <fnm>Sofian</fnm>
                <insr iid="I1"/>
                <email>sofian.berrouiguet@chu-brest.fr</email>
             </au>
             <au id="A2">
                <snm>Alavi</snm>
                <fnm>Zarrin</fnm>
                <insr iid="I2"/>
                <email>zarrin.alavi@chu-brest.fr</email>
             </au>
             <au id="A3">
                <snm>Vaiva</snm>
                <fnm>Guillaume</fnm>
                <insr iid="I3"/>
                <email>guillaume.vaiva@chru-lille.fr</email>
             </au>
             <au id="A4">
                <snm>Courtet</snm>
                <fnm>Philippe</fnm>
                <insr iid="I4"/>
                <email>philippe.courtet@univ-montp1.fr</email>
             </au>
             <au id="A5">
                <snm>Baca-Garc&#237;a</snm>
                <fnm>Enrique</fnm>
                <insr iid="I5"/>
                <email>ebacgar2@yahoo.es</email>
             </au>
             <au id="A6">
                <snm>Vidailhet</snm>
                <fnm>Pierre</fnm>
                <insr iid="I6"/>
                <email>Pierre.Vidailhet@chru-strasbourg.fr</email>
             </au>
             <au id="A7">
                <snm>Gravey</snm>
                <fnm>Michel</fnm>
                <insr iid="I8"/>
                <email>mgravey@lanestel.fr</email>
             </au>
             <au id="A8">
                <snm>Guillodo</snm>
                <fnm>Elise</fnm>
                <insr iid="I1"/>
                <email>eliseguillodo@gmail.com</email>
             </au>
             <au id="A9">
                <snm>Brandt</snm>
                <fnm>Sara</fnm>
                <insr iid="I7"/>
                <email>sbrandt@skidmore.edu</email>
             </au>
             <au id="A10">
                <snm>Walter</snm>
                <fnm>Michel</fnm>
                <insr iid="I1"/>
                <email>michel.walter@chu-brest.f</email>
             </au>
          </aug>
          <insg>
             <ins id="I1">
                <p>Brest Medical University Hospital at Bohars, Adult Psychiatry, Bohars, 29820, France</p>
             </ins>
             <ins id="I2">
                <p>INSERM Clinical Investigation Center 1412, Brest Medical University Hospital, Bohars, France</p>
             </ins>
             <ins id="I3">
                <p>Clinical Investigation Center 9301, INSERM et CHU Lille, Lille INSERM U888France</p>
             </ins>
             <ins id="I4">
                <p>Montpellier University Hospital, Montpellier, INSERM U1061, France</p>
             </ins>
             <ins id="I5">
                <p>Department of Psychiatry at Fundaci&#243;n Jimenez Diaz Hospital, Aut&#243;noma University, CIBERSAM, Madrid 28040, Spain</p>
             </ins>
             <ins id="I6">
                <p>Strasbourg Medical University Hospital, Adult Psychiatry, Strasbourg, 67000, France</p>
             </ins>
             <ins id="I7">
                <p>Department of Psychology, Skidmore College, 815 North Broadway, Saratoga Springs 12866, NY, USA</p>
             </ins>
             <ins id="I8">
                <p>Lanestel, 38 rue Jim S&#233;vellec, Brest, 29200, France</p>
             </ins>
          </insg>
          <source>BMC Psychiatry</source>
          <issn>1471-244X</issn>
          <pubdate>2014</pubdate>
          <volume>14</volume>
          <issue>1</issue>
          <fpage>294</fpage>
          <url>http://www.biomedcentral.com/1471-244X/14/294</url>
          <xrefbib>
             <pubidlist>
                <pubid idtype="doi">10.1186/s12888-014-0294-8</pubid>
             </pubidlist>
          </xrefbib>
       </bibl>
       <history>
          <rec>
             <date>
                <day>29</day>
                <month>9</month>
                <year>2014</year>
             </date>
          </rec>
          <acc>
             <date>
                <day>13</day>
                <month>10</month>
                <year>2014</year>
             </date>
          </acc>
          <pub>
             <date>
                <day>18</day>
                <month>11</month>
                <year>2014</year>
             </date>
          </pub>
       </history>
       <cpyrt>
          <year>2014</year>
          <collab>Berrouiguet et al.; licensee BioMed Central Ltd.</collab>
          <note>This is an Open Access article distributed under the terms of the Creative Commons Attribution License (<url>http://creativecommons.org/licenses/by/4.0</url>), which permits unrestricted use, distribution, and reproduction in any medium, provided the original work is properly credited. The Creative Commons Public Domain Dedication waiver (<url>http://creativecommons.org/publicdomain/zero/1.0/</url>) applies to the data made available in this article, unless otherwise stated.</note>
       </cpyrt>
       <kwdg>
          <kwd>Prevention and control</kwd>
          <kwd>Recurrence</kwd>
          <kwd>Suicide, attempted</kwd>
          <kwd>Telephone</kwd>
          <kwd>Tertiary prevention</kwd>
          <kwd>Text messaging</kwd>
       </kwdg>
       <abs>
          <sec>
             <st>
                <p>Abstract</p>
             </st>
             <sec>
                <st>
                   <p>Background</p>
                </st>
                <p>Suicidal behaviour and deliberate self-harm are common among adults. Research indicates that maintaining contact either via letter or postcard with at-risk adults following discharge from care services can reduce reattempt risk. Feasibility trials demonstrated that intervention through text message was also effective in preventing suicide repetition amongst suicide attempters. The aim of the current study is to investigate the effect of text message intervention versus traditional treatment on reducing the risk of suicide attempt repetition among adults after self-harm.</p>
             </sec>
             <sec>
                <st>
                   <p>Methods/design</p>
                </st>
                <p>The study will be a 2-year multicentric randomized controlled trial conducted by the Brest University Hospital, France. Participants will be adults discharged after self&#8211;harm, from emergency services or after a short hospitalization. Participants will be recruited over a 12-month period. The intervention is comprised of an SMS that will be sent at h48, D7, D15 and monthly. The text message enquires about the patients&#8217; well-being and includes information regarding individual sources of help and evidence-based self help strategies. Participants will be assessed at the baseline, month 6 and 13. As primary endpoint, we will assess the number of patients who reattempt suicide in each group at 6&#160;months. As secondary endpoints, we will assess the number of patients who reattempt suicide at 13&#160;month, the number of suicide attempts in the intervention and control groups at 6 and 13&#160;month, the number of death by suicide in the intervention and control groups at month 6 and 13. In both groups, suicidal ideations, will be assessed at the baseline, month 6 and 13. Medical costs and satisfaction will be assessed at month 13.</p>
             </sec>
             <sec>
                <st>
                   <p>Discussion</p>
                </st>
                <p>This paper describes the design and deployment of a trial SIAM; an easily reproducible intervention that aims to reduce suicide risk in adults after self-harm. It utilizes several characteristics of interventions that have shown a significant reduction in the number of suicide reattempts. We propose to assess its efficacy in reducing suicide reattempt in the suicide attempter (SA) population.</p>
             </sec>
             <sec>
                <st>
                   <p>Trial registration</p>
                </st>
                <p>The study was registered on Clinical Trials Registry (clinicaltrials.gov): <url>NCT02106949</url>, registrerd on 06 June 2014.</p>
             </sec>
          </sec>
       </abs>
    </fm>
    <bdy>
       <sec>
          <st>
             <p>Background</p>
          </st>
          <p>The construction of effective suicide-prevention and continuity of care strategies is a major challenge in the assessment and management of suicide attempters (SAs). Post-crisis management of suicidal patients varies from hospital discharge to forced hospitalization. Hospitalization rate after suicide attempt varies from 25 to 50% <abbrgrp>
                <abbr bid="B1">1</abbr>
             </abbrgrp>. Fourteen to 25% of SAs treated at an emergency department (ED) reattempt suicide within the 1&#8211;2 years following discharge <abbrgrp>
                <abbr bid="B2">2</abbr>
             </abbrgrp>,<abbrgrp>
                <abbr bid="B3">3</abbr>
             </abbrgrp>.</p>
          <p>Outreach monitoring interventions via mail or phone facilitate access to care in case of recurrence in post-acute crisis patients discharged from the ED. Several studies on outreach interventions for suicidal patients have been published since 2001. The pioneer intervention was proposed by Motto et al. <abbrgrp>
                <abbr bid="B4">4</abbr>
             </abbrgrp> and was based on postal contact. They proposed a follow-up in fifteen years after having started the inclusions in 1969. The objective of the postal contact was to show the patient that someone was concerned about his or her situation and maintain positive feelings towards him or her. After 5&#160;years, a significant decrease in suicide related deaths was observed in the contacted group (versus no-contact group) of high-risk patients who refused on-going treatment. Carter et al. <abbrgrp>
                <abbr bid="B5">5</abbr>
             </abbrgrp> programmed automated sent postcards. In the year following the suicide attempt, the authors reported a lower number of relapse in the contacted group, especially among women.</p>
          <p>These positive results led to other studies exploring the effectiveness of telephone outreach (Vaiva et al. <abbrgrp>
                <abbr bid="B6">6</abbr>
             </abbrgrp>). The telephone contact at one month proved, in per protocol analysis, to reduce the number of suicidal reattempts by about half over the course of one year (12% versus 21.6% in the control group). The post-hoc analysis showed no effect of the contact in first-attempters. The proposal of telephone contact was very well accepted and positively perceived by the population of this study.</p>
          <p>In the EDGE project, a hotline was available to participants 24&#160;hours a day, 7&#160;days a week <abbrgrp>
                <abbr bid="B7">7</abbr>
             </abbrgrp>. In the intervention group, suicide attempters repeaters rate did not differ significantly from that in the control group (15.1% vs. 17.3% at one year, 21.2% vs. 22.8% at two years). However, there was a lower number of reattempts in intervention group among suicide attempters repeaters (incidence risk ratio 0.55 at one year, and 0.49 at two years).</p>
          <p>Vaiva and Walter proposed to construct a case management algorithm <abbrgrp>
                <abbr bid="B8">8</abbr>
             </abbrgrp>. This &#171;ALGOS&#187; monitoring algorithm is based on the two interventions that showed a significant reduction in the number of SA repeaters: systematic telephone contact (ineffective in first-attempters) and &#171;crisis card&#187; (information card providing a 24/7 reachable phone number, effective only in first-attempters). Participants that were not contacted during phone call periods and participants that refused proposed healthcare can benefit from the &#171;short letters&#187; of Motto or the &#171;postcards&#187; of Carter.</p>
          <p>A Chinese study published in 2010 proposed to use a different type of intervention that involved sending text messages to suicidal patients after discharge from the ED <abbrgrp>
                <abbr bid="B9">9</abbr>
             </abbrgrp>. They sent 15 patients four text messages for four weeks following a suicide attempt. The text of the message varied for each transmission but the four text messages were the same for all patients. Although this type of intervention proved to be effective, management of large patient populations was not possible with the proposed device.</p>
          <p>Taking into consideration the strengths and pitfalls of each of these strategies, we developed a software program that allows the transmittance of text messages to SAs. The SIAM (suicide intervention assisted by messages) software that we developed aims to simplify the inclusion of the patients and to have an optimized text sending. We assessed the technical feasibility and acceptability of this device in a pilot study <abbrgrp>
                <abbr bid="B10">10</abbr>
             </abbrgrp>. Text messages provide several characteristics of existing monitoring strategies for suicide attempt repeaters. Using our software, we personalized the messages as recommended by Motto <abbrgrp>
                <abbr bid="B4">4</abbr>
             </abbrgrp> and reached patients earlier than with a letter. Our software program allows us to readily personalize each message according to the required level of care. We clearly identify care services as the senders of the messages, as would have been done in a letter. Call-back numbers proposed in our messages are available 24&#160;h per day and 7&#160;days per week, in line with the contact strategy proposed by Evans et al. <abbrgrp>
                <abbr bid="B7">7</abbr>
             </abbrgrp>. In comparison to the contact strategies by letter, access to our service was made easier as the patient simply had to press the call button on his/her telephone to contact us upon receiving the text message. Furthermore, sending a message with our device is 10 times cheaper than sending a postcard or a letter. The utilization of this monitoring system does not require the action of a clinician. All messages are written and scheduled before discharge and automatically sent over the monitoring period. Despite the variation in suicidal behaviour across the population <abbrgrp>
                <abbr bid="B11">11</abbr>
             </abbrgrp>, the worldwide dispersion of mobile phones could offer new perspectives in suicide reattempt prevention. As text messages utilize several characteristics of interventions that have significantly reduced the number of suicide reattempts, we propose to assess its efficacy on reducing suicide reattempt in SA population.</p>
       </sec>
       <sec>
          <st>
             <p>Methods/design</p>
          </st>
          <sec>
             <st>
                <p>Aims and hypotheses</p>
             </st>
             <p>This study aims to determine whether the receipt of a text message sent regularly over a six-month period can reduce suicidal and self-harming behaviour among SAs.</p>
             <p>We hypothesize that the routine reception of a text message during a six-month period will:</p><p>1. Decrease the proportion of reattempters at 6 and 13&#160;months;</p>
                <p>2. Decrease the number of total reattempts at 6 and 13&#160;months;</p>
                <p>3. Decrease suicide deaths;</p>
                <p>4. Decrease suicidal ideations;</p>
                <p>5. Decrease intervention costs;</p>
                <p>6. Improve satisfaction through care services.</p><p>
                  </p>
          </sec>
          <sec>
             <st>
                <p>Study design</p>
             </st>
             <p>The study is a 2-year multicentric randomized controlled trial conducted by the Brest University Hospital, France. Participants are adults discharged after self&#8211;harm, recruited in Brest, Lille, Rennes, Nantes, Tours, Vannes, and Saint-Nazaire. Participants will be recruited over a 12-month period. The study is a randomized controlled trial registered on Clinical Trials Registry (ClinicalTrials.gov; number: NCT02106949). It was authorized by ANSM (French Health Ministry) and approved by the Northwest IV Ethical Committee for the Protection of Patients.</p>
          </sec>
          <sec>
             <st>
                <p>Setting</p>
             </st>
             <p>Participating centers are Brest, Rennes, Nantes, Lille, Angers, Tours, Vannes, (France) - public funded specialist mental health services for adults in the Western and Northwestern regions of France.</p>
          </sec>
          <sec>
             <st>
                <p>Participants</p>
             </st>
             <p>Inclusion criteria are: male or female, aged 18 or older, surviving a suicide attempt, discharged from ED or Psychiatric Units (PU), hospitalized for less than 7&#160;days, giving consent, and able to be contacted by phone.</p>
             <p>The exclusion criteria are: refusing to participate, underage, incarcerated, under guardianship, without a mobile phone, enrolled in other trials, and in emergency situations where their state of health did not allow obtaining written consent.</p>
             <p>In the case of discharge, a follow-up visit or planned hospitalization will be scheduled.</p>
          </sec>
          <sec>
             <st>
                <p>Procedure</p>
             </st>
             <p>Participation in the study will be proposed to all suicidal adults referred to our psychiatric ED meeting the above criteria. In each center, adults who attempt suicide are admitted to the general ED and are evaluated by our ED psychiatrist who decides patients&#8217; discharge or hospitalization. Patients will be enrolled after this evaluation. After enrolment, patients will be assigned to the intervention or control group, using an electronic randomization program. At month 6 and month 13, patients in both intervention and control groups will be contacted by phone for the evaluation. A trained psychiatrist will administer the evaluation.</p>
          </sec>
          <sec>
             <st>
                <p>Intervention</p>
             </st>
             <p>Text messages are customized with each patient&#8217;s name and sent with an identical outreach schedule for each patient. We will send nine different text messages to each patient 48&#160;hours after discharge, at day 8, day 15 and month 1, 2, 3, 4, 5, 6. All the text messages will be sent at 1&#160;pm. The four messages will refer to: the validation of the suffering, recall of the discharge agreement, and the monitoring system, i.e. our outreach continuing care intervention.</p>
             <p>They also will include information in regard to the monitoring doctor&#8217;s name (psychiatrist or general physician), and the date of the scheduled appointment if applicable. The contact phone number will be indicated in each text message transmission and the message will appear as sent from the psychiatric emergencies hotline number reachable 24/7. One example of the messages received by the patients will be: <it>&#8220;Mr X, we hope that your situation is getting better and that you could go to the Dr Y consultation (April 7th 2011 at 10&#160;h00). You can call us for anything you may need at 0298000000&#8221;.</it> A final reminder text message will be sent 48&#160;hours before the call-back telephone evaluation of month 6 and 13. Patients will be followed up by the psychiatrist of their choice or by their general physician. Text messaging monitoring will be proposed as an additional support to their standard of care.</p>
             <sec>
                <st>
                   <p>Control intervention</p>
                </st>
                <p>Those in the control group will receive the follow up as usual including psychiatrist or physician consultation.</p>
             </sec>
          </sec>
          <sec>
             <st>
                <p>Outcomes measures</p>
             </st>
             <p>As primary endpoints, we will assess the number of patients who will reattempt suicide in each group at month 6.</p>
             <p>As secondary endpoints, we will assess the number of patients who will reattempt suicide at month 13, the number of suicide attempts in the intervention and control groups at month 6 and 13, and the number of deaths by suicide in the intervention and control groups at 6 and 13&#160;month. In both group, suicidal ideations will be assessed at the baseline, 6 and 13-months. Medical costs and satisfaction will be assessed at month 13.</p>
             <p>Baseline evaluation will be done in ED or PU before discharge. Socio-demographic details, including age, gender, employment, educational status, history of suicide attempt, country of birth, medical history and details of any treatment being received, will be recorded on a specifically designed, standardized questionnaire.</p>
             <p>The Columbia Scale measures suicidal ideation and intent. It is a 25 item screening scale with items including binary variables (yes or no) and variables scales for each question. <abbrgrp>
                   <abbr bid="B12">12</abbr>
                </abbrgrp>. It is also available in French.</p>
             <p>Axis-I psychiatric diagnoses will be assessed using the International Neuropsychiatric Interview (M.I.N.I.). It is a short, structured diagnostic interview developed for DSM-IV and ICD-10 psychiatric disorders <abbrgrp>
                   <abbr bid="B13">13</abbr>
                </abbrgrp>. With an administration time of approximately 15&#160;minutes, it is the structured psychiatric interview of choice for psychiatric evaluation and outcome tracking in clinical psychopharmacology trials and epidemiological studies. It has been validated in French <abbrgrp>
                   <abbr bid="B14">14</abbr>
                </abbrgrp>.</p>
             <p>The medico-economic questionnaire (MEDEC) is a use of care services inventory including binary variables. It is carried out by the method validated by Beecham &amp; Knapp at 13&#160;month <abbrgrp>
                   <abbr bid="B15">15</abbr>
                </abbrgrp>.</p>
             <p>The satisfaction questionnaire was designed by our team <abbrgrp>
                   <abbr bid="B10">10</abbr>
                </abbrgrp> to assess whether such outreach system was accepted by the patients. The subjective system effectiveness will be explored to assess patients&#8217; acceptability.</p>
          </sec>
          <sec>
             <st>
                <p>Sample size calculation: effect size and statistical power</p>
             </st>
             <p>Expected reattempt rate is about 18% <abbrgrp>
                   <abbr bid="B6">6</abbr>
                </abbrgrp>,<abbrgrp>
                   <abbr bid="B16">16</abbr>
                </abbrgrp>. We hope to reduce this rate to 9% in the intervention group. Such a reduction in reattempts with a statistical power of 0.8, requires a sample size of 247 patients in each group. Taking into account the expected proportion of SAs that will not respond to the follow-up message, 530 patients in total will be recruited.</p>
          </sec>
          <sec>
             <st>
                <p>Randomisation/intervention</p>
             </st>
             <p>Random allocation to the intervention group and the control group will be carried out by an independent statistician and will be stratified by center study using blocked randomization and computer generated random numbers. This will be conducted using an online randomization system. This will be concealed from the research team (psychiatrist, nurse). The statistician will notify the study coordinator regarding the group allocation. Text messages will be sent by SIAM program, designed for the pilot study. Once the patient data is entered, the program will generate four independent text messages containing patient&#8217;s name, doctor's name and monitoring schedule from the date of inclusion. At any time the patient data, date of sending the text message and message content could be modified. At any time, sending messages (transmissions) could be interrupted. The number displayed on the recipient&#8217;s mobile phone was the psychiatric ED.</p>
          </sec>
          <sec>
             <st>
                <p>Statistical methods</p>
             </st>
             <p>Continuous variables will be summarized using mean, standard deviation, median and inter-quartile range (IQR). Categorical variables will be summarized using frequency, percentage and 95% CI. Means will be compared between the intervention and control groups using the Student test (t-test) or Mann&#8211;Whitney test. Comparisons of proportions between groups will be performed using the Chi square test or Fisher&#8217;s exact test as appropriate.</p>
             <p>Generalized linear model will be used to compare the intervention and control groups for each outcome measure over time (baseline, 6&#160;months, 13&#160;months). The corresponding baseline values of each outcome measure will be used as a covariate. In addition, the effects of other possible predictors (such as gender and age) on outcome will be explored.</p>
             <p>Analysis of predictive factors of suicide attempt repetition will be performed using logistic regressions. An approach by a decisional tree (CHAID) will also be considered. Analysis of time delay of SA repetition will be performed using conventional methods of survival analysis: Kaplan-Meyer method, log-rank test and Cox model for multifactorial models. The research for specific profiles will be conducted using classification methods to identify clusters with atypical profiles.</p>
             <p>An interim analysis will be conducted on the first 250 participants using the O&#8217;Brian and Fleming method. If the difference between intervention and control groups is not significant (p &lt;0.5%), statistical significance will have to reach a level of p&#8201;&lt;&#8201;4.8% by the end of the study to demonstrate a significant difference. A Data and Safety Monitoring Board (DSMB) will conduct this assessment.</p>
          </sec>
          <sec>
             <st>
                <p>Safety and supervision</p>
             </st>
             <p>Patients are informed that they can contact the center where they have been treated at any time. Phone contact will be established by a trained psychiatrist and research assistant at month 6 and 13 to assess the outcome measures. If there is no cause for concern after the 6&#160;month phone call evaluation, patients from each group will be informed that they will be contacted at month 13 for a new evaluation. If there are concerns about the participant, contact will be made by phone or face-to-face as to discuss the concerns. If the research fellow is concerned about the participant, an immediate referral will be made to an appropriate service. Any patient considered to be at high risk will be referred to an appropriate service.</p>
          </sec>
       </sec>
       <sec>
          <st>
             <p>Discussion</p>
          </st>
          <p>This paper describes the protocol for a Randomized Clinical Trial that aims to reduce reattempt among SAs. Postal and phone interventions have shown efficacy in prevention of suicide reattempts <abbrgrp>
                <abbr bid="B4">4</abbr>
             </abbrgrp>,<abbrgrp>
                <abbr bid="B5">5</abbr>
             </abbrgrp>,<abbrgrp>
                <abbr bid="B7">7</abbr>
             </abbrgrp>.</p>
          <p>This low-cost and transferable SMS intervention has the potential to reach a large number of people who are traditionally hard to reach and treat. Non-compliant patients, especially young people, could be an interesting target of such a monitoring device. The SMS allows the health care team to keep in touch with people that are not reachable by existing contact strategies. This intervention is not a substitute for treatment. It may be used as a useful additional or alternative to standard care when people refuse other forms of treatment. Even though we used a web system to deploy our text monitoring device, our main goal is to encourage human to human contact between SAs and health care providers. The absence of social relationship cannot be completely replaced by a text message care providing service. However, it is essential for ED and PU staff to maintain contact with patients after a suicide attempt. The beneficial effects of this therapeutic monitoring intervention can be utilized as a long-term follow-up for SAs by allowing them to feel continuously cared for by the PU and ED staff. We believe that this monitoring tool can be used shortly after discharge from medical care centers in prevention of high-risk post-acute suicide. The use of this type of suicide intervention tool also lends itself to the development of more complex programs such as a mobile app or intervention website. These additional resources may also offer effective opportunities to maintain contact with SAs.</p>
       </sec>
       <sec>
          <st>
             <p>Competing interests</p>
          </st>
          <p>The authors (SB, AZ, PC, GV, EBC, PV, MG, MW) declare that they have no competing interests:</p>
          <p>- In the past 5&#160;years, they didn&#8217;t receive reimbursements, fees, funding, or salary from an organization that may in any way gain or lose financially from the publication of this manuscript.</p>
          <p>- They don&#8217;t hold any stocks or shares in an organization that may in any way gain or lose financially from the publication of this manuscript, either now or in the future.</p>
          <p>- They don&#8217;t receive reimbursements, fees, funding, or salary from any organization that holds or has applied for patents relating to the content of the manuscript.</p>
          <p>- They don&#8217;t have any other financial or non-financial competing interests.</p>
       </sec>
       <sec>
          <st>
             <p>Authors&#8217; contributions</p>
          </st>
          <p>Authors SB, AZ and MW were all involved in the conception of the study and made substantial contributions to the study design. MG programmed the SMS monitoring software system. In addition GV made significant contributions to acquisition of data, training and clinical supervision. All authors have been involved in drafting the manuscript and have seen and approved the final version.</p>
       </sec>
    </bdy>
    <bm>
       <ack>
          <sec>
             <st>
                <p>Acknowledgements</p>
             </st>
             <p>The authors would like to acknowledge Professor Michel Walter for his contribution to the study design, Zarrin Alavi for her contribution in writing this manuscript, and Catherine Mesmeur for her contribution during the pilot study. Thanks to Lanestel and Michel Gravey for developing the SMS monitoring software system. This study is funded by a grant from the Fondation de France and CRITT sant&#233; Bretagne.</p>
          </sec>
       </ack>
       <refgrp>
          
          <bibl id="B1">
             <title>
                <p>Determinants of psychiatric hospitalization after attempted suicide</p>
             </title>
             <aug>
                <au>
                   <snm>Suominen</snm>
                   <fnm>K</fnm>
                </au>
                <au>
                   <snm>L&#246;nnqvist</snm>
                   <fnm>J</fnm>
                </au>
             </aug>
             <source>Gen Hosp Psychiatry</source>
             <pubdate>2006</pubdate>
             <volume>28</volume>
             <fpage>424</fpage>
             <lpage>430</lpage>
             <xrefbib>
                <pubidlist>
                   <pubid idtype="doi">10.1016/j.genhosppsych.2006.03.009</pubid>
                   <pubid idtype="pmpid" link="fulltext">16950379</pubid>
                </pubidlist>
             </xrefbib>
          </bibl>
          <bibl id="B2">
             <title>
                <p>A. Prediction of repeated parasuicide after 1&#8211;12 months</p>
             </title>
             <aug>
                <au>
                   <snm>Cedereke</snm>
                   <fnm>M</fnm>
                </au>
                <au>
                   <snm>Ojehagen</snm>
                   <fnm>A</fnm>
                </au>
             </aug>
             <source>Eur Psychiatry</source>
             <pubdate>2005</pubdate>
             <volume>20</volume>
             <fpage>101</fpage>
             <lpage>109</lpage>
             <xrefbib>
                <pubidlist>
                   <pubid idtype="doi">10.1016/j.eurpsy.2004.09.008</pubid>
                   <pubid idtype="pmpid" link="fulltext">15797693</pubid>
                </pubidlist>
             </xrefbib>
          </bibl>
          <bibl id="B3">
             <title>
                <p>Repetition of acute poisoning in Oslo: 1-year prospective study</p>
             </title>
             <aug>
                <au>
                   <snm>Heyerdahl</snm>
                   <fnm>F</fnm>
                </au>
                <au>
                   <snm>Bjornaas</snm>
                   <fnm>MA</fnm>
                </au>
                <au>
                   <snm>Dahl</snm>
                   <fnm>R</fnm>
                </au>
                <au>
                   <snm>Hovda</snm>
                   <fnm>KE</fnm>
                </au>
                <au>
                   <snm>Nore</snm>
                   <fnm>AK</fnm>
                </au>
                <au>
                   <snm>Ekeberg</snm>
                   <fnm>O</fnm>
                </au>
                <au>
                   <snm>Jacobsen</snm>
                   <fnm>D</fnm>
                </au>
             </aug>
             <source>Br J Psychiatry</source>
             <pubdate>2009</pubdate>
             <volume>194</volume>
             <fpage>73</fpage>
             <lpage>79</lpage>
             <xrefbib>
                <pubidlist>
                   <pubid idtype="doi">10.1192/bjp.bp.107.048322</pubid>
                   <pubid idtype="pmpid" link="fulltext">19118331</pubid>
                </pubidlist>
             </xrefbib>
          </bibl>
          <bibl id="B4">
             <title>
                <p>A randomized controlled trial of postcrisis suicide prevention</p>
             </title>
             <aug>
                <au>
                   <snm>Motto</snm>
                   <fnm>JA</fnm>
                </au>
                <au>
                   <snm>Bostrom</snm>
                   <fnm>AG</fnm>
                </au>
             </aug>
             <source>Psychiatr Serv</source>
             <pubdate>2001</pubdate>
             <volume>52</volume>
             <fpage>828</fpage>
             <lpage>833</lpage>
             <xrefbib>
                <pubidlist>
                   <pubid idtype="doi">10.1176/appi.ps.52.6.828</pubid>
                   <pubid idtype="pmpid" link="fulltext">11376235</pubid>
                </pubidlist>
             </xrefbib>
          </bibl>
          <bibl id="B5">
             <title>
                <p>Postcards from the EDge project: randomised controlled trial of an intervention using postcards to reduce repetition of hospital treated deliberate self poisoning</p>
             </title>
             <aug>
                <au>
                   <snm>Carter</snm>
                   <fnm>GL</fnm>
                </au>
                <au>
                   <snm>Clover</snm>
                   <fnm>K</fnm>
                </au>
                <au>
                   <snm>Whyte</snm>
                   <fnm>IM</fnm>
                </au>
                <au>
                   <snm>Dawson</snm>
                   <fnm>AH</fnm>
                </au>
                <au>
                   <snm>D&#8217;Este</snm>
                   <fnm>C</fnm>
                </au>
             </aug>
             <source>BMJ</source>
             <pubdate>2005</pubdate>
             <volume>331</volume>
             <fpage>805</fpage>
             <xrefbib>
                <pubidlist>
                   <pubid idtype="doi">10.1136/bmj.38579.455266.E0</pubid>
                   <pubid idtype="pmpid" link="fulltext">16183654</pubid>
                </pubidlist>
             </xrefbib>
          </bibl>
          <bibl id="B6">
             <title>
                <p>Effect of telephone contact on further suicide attempts in patients discharged from an emergency department: randomised controlled study</p>
             </title>
             <aug>
                <au>
                   <snm>Vaiva</snm>
                   <fnm>G</fnm>
                </au>
                <au>
                   <snm>Ducrocq</snm>
                   <fnm>F</fnm>
                </au>
                <au>
                   <snm>Meyer</snm>
                   <fnm>P</fnm>
                </au>
                <au>
                   <snm>Mathieu</snm>
                   <fnm>D</fnm>
                </au>
                <au>
                   <snm>Philippe</snm>
                   <fnm>A</fnm>
                </au>
                <au>
                   <snm>Libersa</snm>
                   <fnm>C</fnm>
                </au>
                <au>
                   <snm>Goudemand</snm>
                   <fnm>M</fnm>
                </au>
             </aug>
             <source>BMJ</source>
             <pubdate>2006</pubdate>
             <volume>332</volume>
             <fpage>1241</fpage>
             <lpage>1245</lpage>
             <xrefbib>
                <pubidlist>
                   <pubid idtype="doi">10.1136/bmj.332.7552.1241</pubid>
                   <pubid idtype="pmpid" link="fulltext">16735333</pubid>
                </pubidlist>
             </xrefbib>
          </bibl>
          <bibl id="B7">
             <title>
                <p>Crisis card following self-harm: 12-month follow-up of a randomised controlled trial</p>
             </title>
             <aug>
                <au>
                   <snm>Evans</snm>
                   <fnm>J</fnm>
                </au>
             </aug>
             <source>Br J Psychiatry</source>
             <pubdate>2005</pubdate>
             <volume>187</volume>
             <fpage>186</fpage>
             <lpage>187</lpage>
             <xrefbib>
                <pubidlist>
                   <pubid idtype="doi">10.1192/bjp.187.2.186</pubid>
                   <pubid idtype="pmpid" link="fulltext">16055834</pubid>
                </pubidlist>
             </xrefbib>
          </bibl>
          <bibl id="B8">
             <title>
                <p>ALGOS: the development of a randomized controlled trial testing a case management algorithm designed to reduce suicide risk among suicide attempters</p>
             </title>
             <aug>
                <au>
                   <snm>Vaiva</snm>
                   <fnm>G</fnm>
                </au>
                <au>
                   <snm>Walter</snm>
                   <fnm>M</fnm>
                </au>
                <au>
                   <snm>Arab Al</snm>
                   <fnm>AS</fnm>
                </au>
                <au>
                   <snm>Courtet</snm>
                   <fnm>P</fnm>
                </au>
                <au>
                   <snm>Bellivier</snm>
                   <fnm>F</fnm>
                </au>
                <au>
                   <snm>Demarty</snm>
                   <fnm>AL</fnm>
                </au>
                <au>
                   <snm>Duhem</snm>
                   <fnm>S</fnm>
                </au>
                <au>
                   <snm>Ducrocq</snm>
                   <fnm>F</fnm>
                </au>
                <au>
                   <snm>Goldstein</snm>
                   <fnm>P</fnm>
                </au>
                <au>
                   <snm>Libersa</snm>
                   <fnm>C</fnm>
                </au>
             </aug>
             <source>BMC Psychiatry</source>
             <pubdate>2011</pubdate>
             <volume>11</volume>
             <fpage>1</fpage>
             <xrefbib>
                <pubidlist>
                   <pubid idtype="doi">10.1186/1471-244X-11-1</pubid>
                   <pubid idtype="pmpid" link="fulltext">21194496</pubid>
                </pubidlist>
             </xrefbib>
          </bibl>
          <bibl id="B9">
             <title>
                <p>A pilot study of mobile telephone message interventions with suicide attempters in China</p>
             </title>
             <aug>
                <au>
                   <snm>Chen</snm>
                   <fnm>H</fnm>
                </au>
                <au>
                   <snm>Mishara</snm>
                   <fnm>BL</fnm>
                </au>
                <au>
                   <snm>Liu</snm>
                   <fnm>XX</fnm>
                </au>
             </aug>
             <source>Crisis</source>
             <pubdate>2010</pubdate>
             <volume>31</volume>
             <fpage>109</fpage>
             <lpage>112</lpage>
             <xrefbib>
                <pubidlist>
                   <pubid idtype="pmpid" link="fulltext">20418217</pubid>
                </pubidlist>
             </xrefbib>
          </bibl>
          <bibl id="B10">
             <title>
                <p>Post-acute crisis text messaging outreach for suicide prevention: A pilot study</p>
             </title>
             <aug>
                <au>
                   <snm>Berrouiguet</snm>
                   <fnm>S</fnm>
                </au>
                <au>
                   <snm>Gravey</snm>
                   <fnm>M</fnm>
                </au>
                <au>
                   <snm>Le Galudec</snm>
                   <fnm>M</fnm>
                </au>
                <au>
                   <snm>Alavi</snm>
                   <fnm>Z</fnm>
                </au>
                <au>
                   <snm>Walter</snm>
                   <fnm>M</fnm>
                </au>
             </aug>
             <source>Psychiatry Res</source>
             <pubdate>2014</pubdate>
             <volume>217</volume>
             <fpage>154</fpage>
             <lpage>157</lpage>
             <xrefbib>
                <pubidlist>
                   <pubid idtype="doi">10.1016/j.psychres.2014.02.034</pubid>
                   <pubid idtype="pmpid" link="fulltext">24736112</pubid>
                </pubidlist>
             </xrefbib>
          </bibl>
          <bibl id="B11">
             <title>
                <p>The WHO START study: suicidal behaviors across different areas of the world</p>
             </title>
             <aug>
                <au>
                   <snm>De Leo</snm>
                   <fnm>D</fnm>
                </au>
                <au>
                   <snm>Milner</snm>
                   <fnm>A</fnm>
                </au>
                <au>
                   <snm>Fleischmann</snm>
                   <fnm>A</fnm>
                </au>
                <au>
                   <snm>Bertolote</snm>
                   <fnm>J</fnm>
                </au>
                <au>
                   <snm>Collings</snm>
                   <fnm>S</fnm>
                </au>
                <au>
                   <snm>Amadeo</snm>
                   <fnm>S</fnm>
                </au>
                <au>
                   <snm>Chan</snm>
                   <fnm>S</fnm>
                </au>
                <au>
                   <snm>Yip</snm>
                   <fnm>PS</fnm>
                </au>
                <au>
                   <snm>Huang</snm>
                   <fnm>Y</fnm>
                </au>
                <au>
                   <snm>Saniel</snm>
                   <fnm>B</fnm>
                </au>
                <au>
                   <snm>Lilo</snm>
                   <fnm>F</fnm>
                </au>
                <au>
                   <snm>Lilo</snm>
                   <fnm>C</fnm>
                </au>
                <au>
                   <snm>David</snm>
                   <fnm>AM</fnm>
                </au>
                <au>
                   <snm>Benavente</snm>
                   <fnm>B</fnm>
                </au>
                <au>
                   <snm>Nadera</snm>
                   <fnm>D</fnm>
                </au>
                <au>
                   <snm>Pompili</snm>
                   <fnm>M</fnm>
                </au>
                <au>
                   <snm>Kolves</snm>
                   <fnm>KE</fnm>
                </au>
                <au>
                   <snm>Kolves</snm>
                   <fnm>K</fnm>
                </au>
                <au>
                   <snm>Wang</snm>
                   <fnm>X</fnm>
                </au>
             </aug>
             <source>Crisis</source>
             <pubdate>2013</pubdate>
             <volume>34</volume>
             <fpage>156</fpage>
             <lpage>163</lpage>
             <xrefbib>
                <pubidlist>
                   <pubid idtype="pmpid" link="fulltext">23628665</pubid>
                </pubidlist>
             </xrefbib>
          </bibl>
          <bibl id="B12">
             <title>
                <p>The Columbia-Suicide Severity Rating Scale: initial validity and internal consistency findings from three multisite studies with adolescents and adults</p>
             </title>
             <aug>
                <au>
                   <snm>Posner</snm>
                   <fnm>K</fnm>
                </au>
                <au>
                   <snm>Brown</snm>
                   <fnm>GK</fnm>
                </au>
                <au>
                   <snm>Stanley</snm>
                   <fnm>B</fnm>
                </au>
                <au>
                   <snm>Brent</snm>
                   <fnm>DA</fnm>
                </au>
                <au>
                   <snm>Yershova</snm>
                   <fnm>KV</fnm>
                </au>
                <au>
                   <snm>Oquendo</snm>
                   <fnm>MA</fnm>
                </au>
                <au>
                   <snm>Currier</snm>
                   <fnm>GW</fnm>
                </au>
                <au>
                   <snm>Melvin</snm>
                   <fnm>GA</fnm>
                </au>
                <au>
                   <snm>Greenhill</snm>
                   <fnm>L</fnm>
                </au>
                <au>
                   <snm>Shen</snm>
                   <fnm>S</fnm>
                </au>
                <au>
                   <snm>Mann</snm>
                   <fnm>JJ</fnm>
                </au>
             </aug>
             <source>Am J Psychiatry</source>
             <pubdate>2011</pubdate>
             <volume>168</volume>
             <fpage>1266</fpage>
             <lpage>1277</lpage>
             <xrefbib>
                <pubidlist>
                   <pubid idtype="doi">10.1176/appi.ajp.2011.10111704</pubid>
                   <pubid idtype="pmpid" link="fulltext">22193671</pubid>
                </pubidlist>
             </xrefbib>
          </bibl>
          <bibl id="B13">
             <title>
                <p>The Mini-International Neuropsychiatric Interview (M.I.N.I.): the development and validation of a structured diagnostic psychiatric interview for DSM-IV and ICD-10</p>
             </title>
             <aug>
                <au>
                   <snm>Sheehan</snm>
                   <fnm>DV</fnm>
                </au>
                <au>
                   <snm>Lecrubier</snm>
                   <fnm>Y</fnm>
                </au>
                <au>
                   <snm>Sheehan</snm>
                   <fnm>KH</fnm>
                </au>
                <au>
                   <snm>Amorim</snm>
                   <fnm>P</fnm>
                </au>
                <au>
                   <snm>Janavs</snm>
                   <fnm>J</fnm>
                </au>
                <au>
                   <snm>Weiller</snm>
                   <fnm>E</fnm>
                </au>
                <au>
                   <snm>Herqueta</snm>
                   <fnm>T</fnm>
                </au>
                <au>
                   <snm>Baker</snm>
                   <fnm>R</fnm>
                </au>
                <au>
                   <snm>Dunbar</snm>
                   <fnm>DC</fnm>
                </au>
             </aug>
             <source>J Clin Psychiatry</source>
             <pubdate>1998</pubdate>
             <volume>Suppl 20</volume>
             <fpage>22</fpage>
             <lpage>33</lpage>
          </bibl>
          <bibl id="B14">
             <title>
                <p>Screening for depression in patients with medical hospitalization. Comparison of two self-evaluation scales and clinical assessment with a structured questionnaire</p>
             </title>
             <aug>
                <au>
                   <snm>Cath&#233;bras</snm>
                   <fnm>P</fnm>
                </au>
                <au>
                   <snm>Mosnier</snm>
                   <fnm>C</fnm>
                </au>
                <au>
                   <snm>L&#233;vy</snm>
                   <fnm>M</fnm>
                </au>
                <au>
                   <snm>Bouchou</snm>
                   <fnm>K</fnm>
                </au>
                <au>
                   <snm>Rousset</snm>
                   <fnm>H</fnm>
                </au>
             </aug>
             <source>Enc&#233;phale</source>
             <pubdate>1994</pubdate>
             <volume>20</volume>
             <fpage>311</fpage>
             <lpage>317</lpage>
             <xrefbib>
                <pubidlist>
                   <pubid idtype="pmpid" link="fulltext">8088234</pubid>
                </pubidlist>
             </xrefbib>
          </bibl>
          <bibl id="B15">
             <title>
                <p>Costing mental health services</p>
             </title>
             <aug>
                <au>
                   <snm>Knapp</snm>
                   <fnm>M</fnm>
                </au>
                <au>
                   <snm>Beecham</snm>
                   <fnm>J</fnm>
                </au>
             </aug>
             <source>Psychol Med</source>
             <pubdate>1990</pubdate>
             <volume>20</volume>
             <fpage>893</fpage>
             <lpage>908</lpage>
             <xrefbib>
                <pubidlist>
                   <pubid idtype="doi">10.1017/S003329170003659X</pubid>
                   <pubid idtype="pmpid" link="fulltext">2126630</pubid>
                </pubidlist>
             </xrefbib>
          </bibl>
          <bibl id="B16">
             <title>
                <p>J. Suicide Reattempters</p>
             </title>
             <aug>
                <au>
                   <snm>Mendez-Bustos</snm>
                   <fnm>P</fnm>
                </au>
                <au>
                   <snm>de Leon-Martinez</snm>
                   <fnm>V</fnm>
                </au>
                <au>
                   <snm>Miret</snm>
                   <fnm>M</fnm>
                </au>
                <au>
                   <snm>Baca-Garcia</snm>
                   <fnm>E</fnm>
                </au>
                <au>
                   <snm>Lopez-Castroman</snm>
                   <fnm>J</fnm>
                </au>
                <au>
                   <snm>Mendez-Bustos</snm>
                   <fnm>P</fnm>
                </au>
                <au>
                   <snm>de Leon-Martinez</snm>
                   <fnm>V</fnm>
                </au>
                <au>
                   <snm>Miret</snm>
                   <fnm>M</fnm>
                </au>
                <au>
                   <snm>Baca-Garcia</snm>
                   <fnm>E</fnm>
                </au>
                <au>
                   <snm>Lopez-Castroman</snm>
                   <fnm>J</fnm>
                </au>
             </aug>
             <source>Harv Rev Psychiatry</source>
             <pubdate>2013</pubdate>
             <volume>21</volume>
             <fpage>281</fpage>
             <lpage>295</lpage>
             <xrefbib>
                <pubidlist>
                   <pubid idtype="doi">10.1097/HRP.0000000000000001</pubid>
                   <pubid idtype="pmpid" link="fulltext">24201820</pubid>
                </pubidlist>
             </xrefbib>
          </bibl>
       </refgrp>
    </bm>
 </art>
