<art>
    <ui>s12888-014-0243-6</ui>
    <ji>1471-244X</ji>
    <fm>
       <dochead>Research article</dochead>
       <bibl>
          <title>
             <p>The strengths based approach as a service delivery model for severe mental illness: a meta-analysis of clinical trials</p>
          </title>
          <aug>
             <au ca="yes" id="A1">
                <snm>Ibrahim</snm>
                <fnm>Nashwa</fnm>
                <insr iid="I1"/>
                <insr iid="I2"/>
                <email>ntxaen@nottingham.ac.uk</email>
             </au>
             <au id="A2">
                <snm>Michail</snm>
                <fnm>Maria</fnm>
                <insr iid="I3"/>
                <email>Maria.Michail@nottingham.ac.uk</email>
             </au>
             <au id="A3">
                <snm>Callaghan</snm>
                <fnm>Patrick</fnm>
                <insr iid="I3"/>
                <insr iid="I4"/>
                <email>patrick.callaghan@nottingham.ac.uk</email>
             </au>
          </aug>
          <insg>
             <ins id="I1">
                <p>University of Nottingham, Room B33, School of Health Sciences, Faculty of Medicine and Health Sciences, (South Block), Queens Medical Centre, Derby Road, Nottingham NG7 2UH, UK</p>
             </ins>
             <ins id="I2">
                <p>Faculty of Nursing, Psychiatric and Mental Health Nursing Department, Mansoura University, Mansoura, Egypt</p>
             </ins>
             <ins id="I3">
                <p>University of Nottingham, Room D17 Institute of Mental Health, Innovation Park, Triumph Road, Nottingham NG7 2TU, UK</p>
             </ins>
             <ins id="I4">
                <p>University of Nottingham, Room 1977 A floor, Queens Medical Centre, Nottingham NG7 2UH, UK</p>
             </ins>
          </insg>
          <source>BMC Psychiatry</source>
          <issn>1471-244X</issn>
          <pubdate>2014</pubdate>
          <volume>14</volume>
          <issue>1</issue>
          <fpage>243</fpage>
          <url>http://www.biomedcentral.com/1471-244X/14/243</url>
          <xrefbib>
             <pubidlist>
                <pubid idtype="doi">10.1186/s12888-014-0243-6</pubid>
                <pubid idtype="pmpid">25189400</pubid>
             </pubidlist>
          </xrefbib>
       </bibl>
       <history>
          <rec>
             <date>
                <day>29</day>
                <month>5</month>
                <year>2014</year>
             </date>
          </rec>
          <acc>
             <date>
                <day>19</day>
                <month>8</month>
                <year>2014</year>
             </date>
          </acc>
          <pub>
             <date>
                <day>29</day>
                <month>8</month>
                <year>2014</year>
             </date>
          </pub>
       </history>
       <cpyrt>
          <year>2014</year>
          <collab>Ibrahim et al.; licensee BioMed Central Ltd.</collab>
          <note>This is an Open Access article distributed under the terms of the Creative Commons Attribution License (<url>http://creativecommons.org/licenses/by/4.0</url>), which permits unrestricted use, distribution, and reproduction in any medium, provided the original work is properly credited. The Creative Commons Public Domain Dedication waiver (<url>http://creativecommons.org/publicdomain/zero/1.0/</url>) applies to the data made available in this article, unless otherwise stated.</note>
       </cpyrt>
       <kwdg>
          <kwd>Service delivery models</kwd>
          <kwd>Medical model</kwd>
          <kwd>Strengths approach</kwd>
          <kwd>Systematic review</kwd>
          <kwd>Meta-analysis</kwd>
       </kwdg>
       <abs>
          <sec>
             <st>
                <p>Abstract</p>
             </st>
             <sec>
                <st>
                   <p>Background</p>
                </st>
                <p>The strengths-based approach is considered a paradigm shift from the deficits- focused service delivery models. The aim of this review was to systematically review randomised controlled trials (RCTs) and quasi experimental studies examining the impact of the strengths-based approach on level of functioning and quality of life as primary outcomes and psychotic symptoms as secondary outcomes in people diagnosed with severe mental illness.</p>
             </sec>
             <sec>
                <st>
                   <p>Methods</p>
                </st>
                <p>This review was conducted in the School of Health Sciences, University of Nottingham, United Kingdom. Participants in the primary studies were adults diagnosed with psychotic disorders. The methodological quality of the included studies was assessed independently by two reviewers using &#8220;Consort 2010&#8221; checklist for the randomized controlled trials or &#8220;TREND&#8221; for the quasi-experimental studies. The EPOC checklist was used for data extraction while management of data and meta-analysis were performed using Review Manager software (RevMan version 5.2).</p>
             </sec>
             <sec>
                <st>
                   <p>Results</p>
                </st>
                <p>No significant difference was found between the strengths-based approach and other service delivery models in level of functioning and quality of life. However, a significant effect on symptoms favouring other service delivery models was reported.</p>
             </sec>
             <sec>
                <st>
                   <p>Conclusion</p>
                </st>
                <p>Based upon evidence of moderate quality, this review suggests there is no effect of the strengths-based model of service delivery in level of functioning and quality of life in adults diagnosed with severe mental illness. The number of trials is low; therefore further evidence is required to ascertain the impact of the strengths-based approach in community mental health care.</p>
             </sec>
          </sec>
       </abs>
    </fm>
    <bdy>
       <sec>
          <st>
             <p>Background</p>
          </st>
          <p>The strengths-based approach is a person-centred approach to caring which supports commitment to human potential for development and growth <abbrgrp>
                <abbr bid="B1">1</abbr>
             </abbrgrp>. The implementation of the strengths-based approach consists of both structural and practice components which are reported to be unique to this delivery model. The structural component covers certain aspects such as low case load, low supervisors to case managers&#8217; ratio, and the use of structured weekly group supervision to ensure adherence to the principles of the model. The practice components revolve around the use of the strengths assessment and personal recovery plans developed in collaboration between service users and practitioners. Moreover, the practice components utilise naturally occurring and existing environmental and community resources (non-mental health resources). A fidelity scale of the strengths-based approach was developed to ensure adherence of practitioners to items of the fidelity scale during the implementation of the model <abbrgrp>
                <abbr bid="B2">2</abbr>
             </abbrgrp>.</p>
          <p>Published empirical studies about the strengths-based approach lack clear description of the underlying intervention. However, these studies share some commonalities regarding interventions; firstly, interventions focus on service users&#8217; strengths and services were tailored to meet individual needs. Secondly, an emphasis on naturally occurring and existing environmental resources (supported employment, supported housing, supported education, and supported recreation) was apparent in these studies. Thirdly, service users collaborate with practitioners in setting their recovery plans. Finally, nearly 70% of service users in these published studies were not seen in the case management office, which is consistent with the principle of in-vivo (community) service users&#8217; contact in the strengths-based approach. All these components are items in the strengths-fidelity scale <abbrgrp>
                <abbr bid="B3">3</abbr>
             </abbrgrp>.</p>
          <p>Using the strengths- fidelity scale to assess fidelity of the strengths-based approach, in nearly all published studies, there is lack of clear distinction between this model and other services.</p>
          <p>Studies comparing the strengths-based approach with other service delivery models have provided promising results regarding psychosocial health and wellbeing outcomes, hospitalization, family burden, overall physical and mental health, and psychotic symptoms <abbrgrp>
                <abbr bid="B4">4</abbr>
             </abbrgrp>. However, there are no available systematic reviews with meta-analysis published in the English language to provide objective evaluation of the results of the primary studies about the strengths-based approach. In the current review, a meta-analysis of primary studies was conducted to evaluate and compare the strengths-based approach with other service delivery models on service users&#8217; level of functioning and quality of life as primary outcomes and psychotic symptoms as secondary outcomes for people living with severe mental health illness.</p>
          <sec>
             <st>
                <p>Objectives</p>
             </st>
             <p>The main objective of this review was to evaluate through meta-analysis the impact of the strengths-based approach on service users&#8217; level of functioning and quality of life, as primary outcomes and psychotic symptoms as secondary outcomes in people living with severe mental health illness.</p>
          </sec>
       </sec>
       <sec>
          <st>
             <p>Methods</p>
          </st>
          <p>This review adheres to the Updated Method Guidelines for Systematic Reviews in the Cochrane Collaboration Back Review Group <abbrgrp>
                <abbr bid="B5">5</abbr>
             </abbrgrp>. Moreover, the Preferred Reporting Items of systematic Reviews and Meta-analyses (PRISMA) flow diagram was used to inform the searching process and outcomes <abbrgrp>
                <abbr bid="B6">6</abbr>
             </abbrgrp>.</p>
          <sec>
             <st>
                <p>Inclusion criteria</p>
             </st>
             <sec>
                <st>
                   <p>Studies&#8217; design</p>
                </st>
                <p>Due to the paucity of empirical studies on the strengths-based approach, a prior decision was taken by the reviewers to include both randomised controlled trials (RCTs) and quasi- experimental studies that evaluated the impact of the approach on people living with severe mental illness compared with other service delivery models. The service (strengths-based) could be delivered by psychiatrists, psychologists, psychiatric nurses, or social workers. No restriction was imposed on publication dates or the geographical location of the primary studies.</p>
                <p>The review included studies published only in English due to feasibility as well as time and resources issues.</p>
             </sec>
             <sec>
                <st>
                   <p>Participants</p>
                </st>
                <p>The review included studies whose participants were adults aged 18 to 65&#160;years, diagnosed with psychotic disorders according to either the Diagnostic and Statistical Manual of Mental Disorders (DSM) <abbrgrp>
                      <abbr bid="B7">7</abbr>
                   </abbrgrp> or the International Classification of Disease (ICD) <abbrgrp>
                      <abbr bid="B8">8</abbr>
                   </abbrgrp>, and receiving care at community mental health settings. Studies that included participants with intellectual difficulties were excluded.</p>
             </sec>
             <sec>
                <st>
                   <p>Interventions</p>
                </st>
                <p>Studies that adhered to the fidelity of the strengths-based approach were included; fidelity refers to adherence of the practice to the guidelines. Also, studies that reported following the functional elements of the strengths-based approach developed by Charles Rapp (the model developer <abbrgrp>
                      <abbr bid="B9">9</abbr>
                   </abbrgrp>) were included.</p>
             </sec>
             <sec>
                <st>
                   <p>Outcomes</p>
                </st>
                <p>This review included three main outcomes; service users&#8217; level of functioning, quality of life as primary outcomes and psychotic symptoms as secondary outcomes.</p>
             </sec>
          </sec>
          <sec>
             <st>
                <p>Search methods for identification of studies</p>
             </st>
             <sec>
                <st>
                   <p>Electronic search</p>
                </st>
                <p>An initial scoping review of 51784 records was conducted through data based searching. The search strategy involved identification of keywords (medical subjects&#8217; headings), synonyms, relevant theses and dissertations, and sources of grey literature. The Cochrane Library, Joanna Briggs Institute (JBI) Library database and CINAHL database were searched and no previous systematic reviews with meta-analysis in the English language covering this area (published or underway) were identified. Unpublished studies were identified and those fulfilling our inclusion criteria were included in the review. The searched data bases were:</p><p> -EMBASE, MEDLINE, PSYCHINFO, CINAHL, ASSIA, PASCAL, SOCIOLOGICAL</p>
                   <p> ABSTRCATS, SCOPUS, WEB of SCIENCE, WEB of SCIENCE, Zetoc, ETHOS.</p>
                <p>The Additional file <supplr sid="S1">1</supplr> shows MEDLINE (Ovid) search terms that have been adapted to all data base searching.</p>
                <suppl id="S1">
                   <title>
                      <p>Additional file 1:</p>
                   </title>
                   <text>
                      <p>
                         <b>MEDLINE (Ovid) serach strategy which was adapted for other data base seraching.</b>
                      </p>
                   </text>
                   <file name="s12888-014-0243-6-S1.doc">
                      <p>Click here for file</p>
                   </file>
                </suppl></sec>
             <sec>
                <st>
                   <p>Searching other sources</p>
                </st>
                <p>The screening of reference lists was done for both included and excluded studies to find any study of relevance to the review inclusion criteria. Google scholar as one of the grey literature sources was also searched.</p>
             </sec>
             <sec>
                <st>
                   <p>Correspondence</p>
                </st>
                <p>Communication was established with Charles Rapp (the developer of the model <abbrgrp>
                      <abbr bid="B9">9</abbr>
                   </abbrgrp>), as well as Matthew Modrcin, and Rick Goscha, to gain more insight about the strengths-based approach. The librarians at School of Social Welfare, University of Kansas (where the model was developed) were contacted to assist in the identification of further articles about the strengths-based approach or guide the search process.</p>
             </sec>
          </sec>
          <sec>
             <st>
                <p>Data collection and analysis</p>
             </st>
             <sec>
                <st>
                   <p>Selection of studies</p>
                </st>
                <p>Screening of the abstracts of potentially relevant primary studies retrieved by electronic searching was performed by the primary reviewer (NI). In case of doubt or unavailable abstracts, full articles were inspected and articles were excluded based on filtering process of title, abstract and full text review to ensure only articles fulfilling the inclusion criteria were retained.</p>
             </sec>
             <sec>
                <st>
                   <p>Quality assessment</p>
                </st>
                <p>Two reviewers (NI and MM) independently assessed the quality of retrieved studies using CONSORT 2010 <abbrgrp>
                      <abbr bid="B10">10</abbr>
                   </abbrgrp>, which is a 25-item checklist developed for reporting RCTs. Items report the following: title and abstract, introduction, methods (trial design, participants, interventions, outcomes, sample size, randomisation, and statistical methods), results (participants&#8217; flow, recruitment, baseline data, numbers analysed, outcomes and estimation, ancillary analysis, and harms), discussion (limitations, generalizability, and interpretation), and other information (registration, protocol, and funding). For the non RCTs, the TREND statement <abbrgrp>
                      <abbr bid="B11">11</abbr>
                   </abbrgrp> was used for assessing their quality. The TREND checklist consists of 22 items covering the following: title and abstract, introduction, methods (participants, interventions, objectives, outcomes, and sample size), assignment method, unit of analysis, statistical methods, results (participants&#8217; flow, recruitment, baseline data, numbers analysed, outcomes and estimation, ancillary analysis, and adverse events), and discussion (interpretation, generalizability, and overall evidence). There were no disagreements between the primary and secondary reviewers&#8217; quality appraisals.</p>
             </sec>
             <sec>
                <st>
                   <p>Data extraction and management</p>
                </st>
                <p>The Cochrane Effective Practice and Organization of Care Group (EPOC) <abbrgrp>
                      <abbr bid="B12">12</abbr>
                   </abbrgrp> data extraction checklist was used by NI and MM independently to extract data from eligible studies. This checklist allows the extraction of data from both randomised and non-randomised trials. The following information was extracted: interventions, participants, setting, methods, outcome measures, number of participants, results. Standard deviations, sample size, and means were also extracted (data were continuous).</p>
                <p>The random effect model was used for combining data in the statistical pooling due to heterogeneity among included studies <abbrgrp>
                      <abbr bid="B13">13</abbr>
                   </abbrgrp>. Statistical pooling was conducted by using Review Manager Software (RevMan version 5.2) with 95% confidence interval. Two reasons behind using this software were the free downloading of this software, and the first author having undergone training in the use of this software.</p>
             </sec>
          </sec>
          <sec>
             <st>
                <p>Dealing with missing data</p>
             </st>
             <p>Authors were contacted in case of missing data; if the missing data was not obtained from authors (due to loss of the original data or no response being received); the reviewers included those studies in a narrative synthesis (Glover <abbrgrp>
                   <abbr bid="B14">14</abbr>
                </abbrgrp>; Macias et al. <abbrgrp>
                   <abbr bid="B15">15</abbr>
                </abbrgrp>; and Stanard, <abbrgrp>
                   <abbr bid="B16">16</abbr>
                </abbrgrp>) in order to avoid missing out any substantive conclusions about the strengths-based approach.</p>
             <p>In case of missing data as in Macias et al. <abbrgrp>
                   <abbr bid="B17">17</abbr>
                </abbrgrp>, Barry et al. <abbrgrp>
                   <abbr bid="B18">18</abbr>
                </abbrgrp>, and Chamberlain <abbrgrp>
                   <abbr bid="B19">19</abbr>
                </abbrgrp>; the primary and secondary reviewers made the calculations needed to obtain the summary statistic for the continuous outcomes; standard deviations were calculated by calculating the difference in mean (MD); obtaining t values by the help of P value and degree of freedom (df); calculating the standard error (SE) from t value; calculating the standard deviation from the standard error following the guidelines in the Cochrane Handbook for Systematic Reviews of Interventions <abbrgrp>
                   <abbr bid="B20">20</abbr>
                </abbrgrp>.</p>
          </sec>
          <sec>
             <st>
                <p>Assessment of Heterogeneity</p>
             </st>
             <p>Due to the scarcity of empirical studies about the strengths-based approach, all eligible studies were included without considering clinical heterogeneity. However, the I-squared test was employed to provide an indication of variation among studies thought to be due to chance. Depending on the results of I-squared test; heterogeneity was interpreted depending on the following parameters:</p><p> 0 to 40%: might not be considered important,</p>
                <p> 30 to 60%: might represent moderate heterogeneity,</p>
                <p> 50 to 90%: may represent substantial heterogeneity, and</p>
                <p> 75 to 100%: considerable heterogeneity <abbrgrp>
                      <abbr bid="B21">21</abbr>
                   </abbrgrp>. In this review we visually inspected the forest plot to detect heterogeneity.</p>
          </sec>
          <sec>
             <st>
                <p>Subgroup analysis</p>
             </st>
             <p>It was difficult to run subgroup analyses in this review as no data was provided in the primary studies about sub-groups of the population.</p>
          </sec>
       </sec>
       <sec>
          <st>
             <p>Results</p>
          </st>
          <sec>
             <st>
                <p>Results of the search</p>
             </st>
             <p>The PRISMA flow diagram (Figure&#160;<figr fid="F1">1</figr>) was used to report the results of the search outcomes. It shows 51784 records were screened for their titles, abstract and full text. Eight studies were identified as eligible after removing duplicates, commentaries, reviews, and qualitative studies. During the stage of quality appraisal and data extraction two quasi experimental studies and one RCT were excluded from the meta-analysis as missing data could not be obtained from the authors; two of these excluded studies (Macias et al. <abbrgrp>
                   <abbr bid="B15">15</abbr>
                </abbrgrp>; Stanard <abbrgrp>
                   <abbr bid="B16">16</abbr>
                </abbrgrp>) did not report means or standard deviations of either the intervention or the control group and upon request the authors of these papers reported that they no longer had any data. The third excluded study by Glover <abbrgrp>
                   <abbr bid="B14">14</abbr>
                </abbrgrp> reported no data for the control group, and we were unable to obtain the contact details for this author. Therefore, five studies were considered for pooling and inclusion in the meta-analysis; four RCTs and one quasi-experimental study.</p>
             
                <fig id="F1">
                   <title>
                      <p>Figure 1</p>
                   </title>
                   <caption>
                      <p>PRISMA flow diagram of the search process.</p>
                   </caption>
                   <text>
                      <p>
                         <b>PRISMA flow diagram of the search process.</b>
                      </p>
                   </text>
                   <graphic file="s12888-014-0243-6-1"/>
                </fig>
             
          </sec>
          <sec>
             <st>
                <p>Description of studies included in the meta-analysis</p>
             </st>
             <p>The PRISMA flow diagram shows five studies were included in the meta-analysis (one quasi- experimental and four RCTs). A total of 194 participants from both sexes diagnosed with severe mental illness and ranging in age from 18 to 61&#160;years were represented in these studies. It should be noted that the most common psychiatric diagnosis was schizophrenia. All studies implemented the strengths-based approach in community-based settings (in-vivo). Four of the included studies originated in the USA; one was conducted in Sweden. Additional file <supplr sid="S2">2</supplr>: Table S1 shows characteristics of studies included in the meta-analysis.</p>
             <suppl id="S2">
                <title>
                   <p>Additional file 2: Table S1.</p>
                </title>
                <text>
                   <p>Characteristics of included studies and risk of bias.</p>
                </text>
                <file name="s12888-014-0243-6-S2.doc">
                   <p>Click here for file</p>
                </file>
             </suppl></sec>
          <sec>
             <st>
                <p>Description of studies excluded from the meta-analysis</p>
             </st>
             <p>Three studies, all conducted in the USA, were excluded from the meta-analysis (two quasi-experimental and one RCT) with a total number of 232 participants from both sexes and a mean age of 43.10&#160;years. Schizophrenia was the prominent psychiatric diagnosis among participants in those studies. Although these studies were excluded from the meta-analysis due to missing data required for calculating effect size, they did adhere to the fidelity of the strengths model. Table two shows the characteristics of the excluded studies.</p>
          </sec>
          <sec>
             <st>
                <p>Intervention in the studies included in the meta-analysis</p>
             </st>
             <p>In Barry et al. <abbrgrp>
                   <abbr bid="B18">18</abbr>
                </abbrgrp> the strengths-based delivery model was compared to assertive community treatment; one professional clinician in the strength-delivery model was in charge of the service user rather than a team of health care providers as in the assertive community treatment. Moreover, the strengths-based service delivery model emphasised goal planning by the service users as well as helping them to find membership in the community through liaising with community services. Bjorkman et al. <abbrgrp>
                   <abbr bid="B22">22</abbr>
                </abbrgrp> provided no description of the service provided, however the study stated that the strengths-based services placed moderate emphasis on skills training, low emphasis on integration of services, and high emphasis on consumers&#8217; engagement and input in planning the service with the case manager. The average caseload was nine clients and the service was community-based. Therefore, it can be reasonably assumed that the strengths-based components in this study adhered to the fidelity of the strengths model.</p>
             <p>Chamberlain <abbrgrp>
                   <abbr bid="B19">19</abbr>
                </abbrgrp> described the functional elements of the model as: collaboration between the service user and the practitioner in the assessment of the needs of the service user in different life domains, whereby both service users&#8217; and community strengths were assessed and determined. Mutual contracts between the service user and the practitioner were established whereby goals are client-directed and the client takes responsibility for these goals; the role of the practitioner was to help the service user to develop strategies to acquire environmental resources; social problem-solving can be achieved through resources acquisition, in-vivo tasks, cognitive restructuring, and deinstitutionalisation techniques; the strengths-based case manager is responsible for monitoring client&#8217;s achievement of the goals and changes them if needed besides providing support to the client. Macias et al. <abbrgrp>
                   <abbr bid="B17">17</abbr>
                </abbrgrp> found that strengths-based case managers were trained to provide linkage and brokerage of social as well as medical services. Case managers emphasised clients&#8217; autonomy in goal planning. Strengths-based case managers were supervised; caseloads were determined to meet the fidelity of the model in terms of one-to-one contacts.</p>
             <p>Modrcin et al. <abbrgrp>
                   <abbr bid="B23">23</abbr>
                </abbrgrp> implemented an intervention guided by a 250- page manual (Modrcin et al., 1985) which was not available online; a request for the manual was made to the chief author, who stated that it has been withdrawn and replaced by the <it>Strengths Model: A Recovery-Oriented Approach to Mental Health Services</it>
                <abbrgrp>
                   <abbr bid="B4">4</abbr>
                </abbrgrp>, however the study provided a synopsis from this manual that might help in understanding the nature of the strengths-based intervention; &#8220;<it>the clients often have limited information about community services and resources; the case manager provides it. Client&#8217;s characteristically experience profound anxiety when confronting new tasks and challenges; the case manager supports and encourages. Clients frequently lack information or skills in basic aspects of independent living skills to form and sustain social relationships; the case manager offers a relationship, models and teaches social skills, and helps the client generalise that to other persons. Clients sometimes experience painful crises that place their live in turmoil and increase symptomatic behaviour; the case managers are a first line of intervention to minimise the potential for regression or relapse</it>&#8221; (p.308). The study by Modrcin et al. <abbrgrp>
                   <abbr bid="B23">23</abbr>
                </abbrgrp> reported adherence to the fidelity of the strengths model in terms of conducting weekly group supervisions and exploiting community services and resources to attain service users&#8217; set-goals.</p>
          </sec>
          <sec>
             <st>
                <p>Comparison (control arm) in the studies included in the meta-analysis</p>
             </st>
             <p>The strengths-based approach was compared to; assertive community treatment (ACT), the standard care services (which was described as outpatient, inpatient, and day-care facilities), and traditional community services (that were described as drug treatments and psychotherapy services), and psychosocial rehabilitation.</p>
          </sec>
          <sec>
             <st>
                <p>Outcome measures in the studies included in the meta-analysis</p>
             </st>
             <p>The details of the outcomes which were only used in the meta-analysis are presented below:</p>
             <sec>
                <st>
                   <p>Level of functioning</p>
                </st>
                <p>Barry et al. <abbrgrp>
                      <abbr bid="B18">18</abbr>
                   </abbrgrp> used the instrumental activities of daily living (IADL) tool to assess patients&#8217; functional level. Higher scores on this scales indicated better functioning, the joint reliability correlation for this tool ranged from 0.85-0.91. Bjorkman et al. <abbrgrp>
                      <abbr bid="B22">22</abbr>
                   </abbrgrp> measured the psychosocial functioning using the Strauss and Carpenter Scale <abbrgrp>
                      <abbr bid="B24">24</abbr>
                   </abbrgrp>. The Uniform Client Data Inventory (UCDI) was used by Chamberlain <abbrgrp>
                      <abbr bid="B19">19</abbr>
                   </abbrgrp> to assess the level of functioning which consists of four subscales. As mentioned in the study, a Kappa coefficient was used to determine the reliability of this scale and the results indicated that the scale is reliable if it is used by practitioners who are familiar and have good knowledge of their clients, however, the study did not provide a measure for the reliability coefficient. In the study by Macias et al. <abbrgrp>
                      <abbr bid="B17">17</abbr>
                   </abbrgrp> participants&#8217; level of functioning was measured by Professional Rating of Consumer Functioning; no data was given about the reliability of this scale.</p>
             </sec>
             <sec>
                <st>
                   <p>Quality of life</p>
                </st>
                <p>The Oregon Quality of Life Questionnaire (OQLQ) was used by Chamberlain, <abbrgrp>
                      <abbr bid="B19">19</abbr>
                   </abbrgrp>. The OQLQ is a self-report instrument that measures service users&#8217; perception of managing internal and external stress. The inter-rater reliability of this scale was high; above 0.80. Modrcin, et al. <abbrgrp>
                      <abbr bid="B23">23</abbr>
                   </abbrgrp> also used the OQLQ to measure service users&#8217; quality of life. Bjorkman et al. <abbrgrp>
                      <abbr bid="B22">22</abbr>
                   </abbrgrp> used the Lancashire Quality of Life Profile (LQOLP) <abbrgrp>
                      <abbr bid="B25">25</abbr>
                   </abbrgrp>, but no data was given about the reliability of this scale.</p>
             </sec>
             <sec>
                <st>
                   <p>Symptoms</p>
                </st>
                <p>In Barry et al. <abbrgrp>
                      <abbr bid="B18">18</abbr>
                   </abbrgrp> the Brief Psychiatric Rating Scale was used to assess service users&#8217; symptoms <abbrgrp>
                      <abbr bid="B26">26</abbr>
                   </abbrgrp> with the reported reliability coefficient of 0.80 or greater. Bjorkman et al. <abbrgrp>
                      <abbr bid="B22">22</abbr>
                   </abbrgrp> used the Hopkins Ckecklist-90 to assess participants&#8217; symptoms <abbrgrp>
                      <abbr bid="B27">27</abbr>
                   </abbrgrp> with no information provided regarding its reliability. Macias et al. <abbrgrp>
                      <abbr bid="B17">17</abbr>
                   </abbrgrp> measured symptoms of depression, anxiety, and somatic complaints using the Brief Psychological Well-Being index. The study reported a test-retest reliability of this scale of: r (13) =0.97, p&#8201;&lt;&#8201;0.01.</p>
             </sec>
          </sec>
          <sec>
             <st>
                <p>Attrition in studies included in the meta-analysis</p>
             </st>
             <p>Attrition varied considerably across studies included in the meta-analysis; in Bjorkman et al. <abbrgrp>
                   <abbr bid="B22">22</abbr>
                </abbrgrp> follow-up (36&#160;months) data was available for 86% of participants. In Modrcin et al. <abbrgrp>
                   <abbr bid="B23">23</abbr>
                </abbrgrp> and Chamberlain <abbrgrp>
                   <abbr bid="B19">19</abbr>
                </abbrgrp> no data on attrition was available. In Macias et al. <abbrgrp>
                   <abbr bid="B17">17</abbr>
                </abbrgrp> seven participants were lost to attrition, however, five of them were replaced resulting in a final sample of 41 participants. In the quasi-experimental study by Barry et al. <abbrgrp>
                   <abbr bid="B18">18</abbr>
                </abbrgrp> attrition rates at two year follow-up were 88.6% for the assertive community treatment group and 67.5% for the strengths-based group. Providing a median value for attrition rate among the studies included in the meta-analysis was difficult because two of these studies did not report attrition.</p>
          </sec>
          <sec>
             <st>
                <p>Effects of the strengths-based intervention in the studies excluded from the meta-analysis</p>
             </st>
             <p>With regard to outcomes relevant to this review, none of the excluded studies provided clear and specific information about the description of the strengths-based service delivery; Table&#160;<tblr tid="T1">1</tblr>, characteristics of studies excluded from the meta-analysis shows how the strengths-based interventions were described in those studies.</p>
             
                <table id="T1">
                   <title>
                      <p>Table 1</p>
                   </title>
                   <caption>
                      <p>
                         <b>Characteristics of studies excluded from meta-analysis (included in descriptive synthesis)</b>
                      </p>
                   </caption>
                   <tgroup align="left" cols="5">
                      <colspec align="left" colname="c1" colnum="1" colwidth="*"/>
                      <colspec align="left" colname="c2" colnum="2" colwidth="*"/>
                      <colspec align="left" colname="c3" colnum="3" colwidth="*"/>
                      <colspec align="left" colname="c4" colnum="4" colwidth="*"/>
                      <colspec align="left" colname="c5" colnum="5" colwidth="*"/>
                      <thead>
                         <row valign="top">
                            <entry colname="c1">
                               <p>
                                  <b>Study ID/origin</b>
                               </p>
                            </entry>
                            <entry colname="c2">
                               <p>
                                  <b>Design</b>
                               </p>
                            </entry>
                            <entry colname="c3">
                               <p>
                                  <b>Intervention/comparison</b>
                               </p>
                            </entry>
                            <entry colname="c4">
                               <p>
                                  <b>Outcomes</b>
                               </p>
                            </entry>
                            <entry colname="c5">
                               <p>
                                  <b>Results</b>
                               </p>
                            </entry>
                         </row>
                      </thead>
                      <tbody>
                         <row valign="top">
                            <entry colname="c1">
                               <p>- (Glover, 1995) <abbrgrp>
                                     <abbr bid="B14">14</abbr>
                                  </abbrgrp>.</p>
                            </entry>
                            <entry colname="c2">
                               <p>-RTC.</p>
                            </entry>
                            <entry colname="c3">
                               <p>- Three case managers received training from Charles Rapp, the</p>
                            </entry>
                            <entry colname="c4">
                               <p>-Consumer functioning by the Utah Case Management Consumer Assessment Record.</p>
                            </entry>
                            <entry colname="c5">
                               <p>-Study group showed significant improvement in level of functioning compared to the control group P&#8201;&lt;&#8201;.01.</p>
                            </entry>
                         </row>
                         <row valign="top">
                            <entry colname="c1" morerows="1">
                               <p>-USA</p>
                            </entry>
                            <entry colname="c2">
                               <p>-Participants should havemet the definition of severe persistent mental illness to be included in the study, participants with primary diagnosis of substance misuse or organic mental disorders were excluded from the study.</p>
                            </entry>
                            <entry colname="c3">
                               <p>developer of the strengths model as well as 20&#160;hours of direct supervision for using the strengths model, weekly supervision meetings were held to enforce adherence to the principles of the strengths model, in addition, caseloads were 20 clients. Moreover, Case managers provided services to clients in the community. All of the former adheres to the fidelity of the strengths model scale.</p>
                            </entry>
                            <entry colname="c4" morerows="1">
                               <p>-Hospital admissions were measured 42&#160;months after implementation of the model by reviewing Valley Mental Health Records retrospectively for evidence of hospitalization 18&#160;months before the implementation of the case management and 42&#160;months after initiation of case management.</p>
                            </entry>
                            <entry colname="c5" morerows="1">
                               <p>-At 42&#160;months, 33% of the experimental group and 13% of the control had been hospitalised; differences between groups were not statistically significant.</p>
                            </entry>
                         </row>
                         <row valign="top">
                            <entry colname="c2">
                               <p>- 136 participants were randomly assigned to study and control group; 67 participants in the study group and 69 in the control.</p>
                            </entry>
                            <entry colname="c3">
                               <p>-comparison was traditional case management services.</p>
                            </entry>
                         </row>
                         <row valign="top">
                            <entry colname="c1">
                               <p>(Macias, 1997) <abbrgrp>
                                     <abbr bid="B15">15</abbr>
                                  </abbrgrp>
                               </p>
                            </entry>
                            <entry colname="c2">
                               <p>- Pre-post quasi experimental study.</p>
                            </entry>
                            <entry colname="c3">
                               <p>-Strengths case management services were community based. Program assessment records focused on achieving clients personal goals which commit to the principles of the strengths model apparent in The fidelity of strengths modelscale.</p>
                            </entry>
                            <entry colname="c4">
                               <p>-Quality of life and functioning variables by the Self Report inventory (Macias and Jackson, 1990) <abbrgrp>
                                     <abbr bid="B28">28</abbr>
                                  </abbrgrp>.</p>
                            </entry>
                            <entry colname="c5" morerows="1">
                               <p>-Regarding therapists&#8217; assessment of consumer symptomatology, strengths case management group showed significant reduction in symptoms. The MANCOVA produced significant time effect p&#8201;&lt;&#8201;.01, focused <it>t</it> test showed attribution of time effect to case management on the symptoms subscale P&#8201;&lt;&#8201;.001.</p>
                            </entry>
                         </row>
                         <row valign="top">
                            <entry colname="c1" morerows="1">
                               <p>-USA</p>
                            </entry>
                            <entry colname="c2" morerows="1">
                               <p>&#8722;97 participants were included in  this study; 48 in the study group and 49 in the control group</p>
                            </entry>
                            <entry colname="c3" morerows="1">
                               <p>- Comparison was treatment in usual.</p>
                            </entry>
                            <entry colname="c4">
                               <p>-Depression, anxiety, and somatisation by the Brief Psychological Well-being (Macias and Kinney, 1990) <abbrgrp>
                                     <abbr bid="B29">29</abbr>
                                  </abbrgrp>.</p>
                            </entry>
                         </row>
                         <row valign="top">
                            <entry colname="c4">
                               <p>-Consumer functioning by Utah Case Management Consumer Assessment Record (CCAR)</p>
                            </entry>
                            <entry colname="c5">
                               <p>-therapists&#8217; CCAR assessment correlates significantly with self-report measures of psychiatric symptomatology p&#8201;&lt;&#8201;.05 which correlated significantly with family members&#8217; assessment of consumer symptomatology p&#8201;&lt;&#8201;.01.</p>
                            </entry>
                         </row>
                         <row valign="top">
                            <entry colname="c1">
                               <p>- (Stanard, 1999) <abbrgrp>
                                     <abbr bid="B16">16</abbr>
                                  </abbrgrp>.</p>
                            </entry>
                            <entry colname="c2">
                               <p>-Quasi experimental study.</p>
                            </entry>
                            <entry colname="c3">
                               <p>-Case managers for the study group received 40&#160;hours of training on the strengths model. Manipulation check was conducted to determine the effect of training on case managers, findings showed that case managers operated according to the principles of the strengths model.</p>
                            </entry>
                            <entry colname="c4">
                               <p>- Quality of life was measured by the Quality of Life Inventory by (Frisch, 1992) <abbrgrp>
                                     <abbr bid="B30">30</abbr>
                                  </abbrgrp>.</p>
                            </entry>
                            <entry colname="c5">
                               <p>-Repeated measures ANOVA on QOL showed significant interaction effect p&#8201;&lt;&#8201;.05 which indicated that the experimental group showed satisfaction with QOL compared to the control group.</p>
                            </entry>
                         </row>
                         <row valign="top">
                            <entry colname="c1" morerows="3">
                               <p>-USA</p>
                            </entry>
                            <entry colname="c2" morerows="3">
                               <p>&#8722;44 participants took part in this study; 29 in the study group and 15 in the control group.</p>
                            </entry>
                            <entry colname="c3" morerows="3">
                               <p>-strengths case management versus generalist case management</p>
                            </entry>
                            <entry colname="c4">
                               <p>-Residential Living and Vocational Educational Status by a tool developed during strengths case management training.</p>
                            </entry>
                            <entry colname="c5">
                               <p>-There was no significant effect regarding hospital days p&#8201;&gt;&#8201;.05.</p>
                            </entry>
                         </row>
                         <row valign="top">
                            <entry colname="c4">
                               <p>-Hospitalisation Rate and Number of Hospital Days which was reported by case managers for 3&#160;months before the study and during the study.</p>
                            </entry>
                            <entry colname="c5">
                               <p>-Results showed no statistically significant differences between the study and control  group regarding psychiatric symptoms p&#8201;&gt;&#8201;.05.</p>
                            </entry>
                         </row>
                         <row valign="top">
                            <entry colname="c4" morerows="1">
                               <p>-Symptoms by using Hopkins Symptoms Checklist-90</p>
                            </entry>
                            <entry colname="c5">
                               <p>-regarding hospitalisation rate before and after treatment for the whole sample, chi square test showed no statistically significant difference between both groups p&#8201;&gt;&#8201;.05.</p>
                            </entry>
                         </row>
                         <row valign="top">
                            <entry colname="c5">
                               <p>-chi square was performed before and after treatment for residential living outcomes and it showed significance p&#8201;&lt;&#8201;.001 suggesting that there was differences in residential treatment favouring the study group.</p>
                            </entry>
                         </row>
                      </tbody>
                   </tgroup>
                </table>
             
             <p>The three excluded studies varied in design; two were quasi-experimental (Macias et al. <abbrgrp>
                   <abbr bid="B15">15</abbr>
                </abbrgrp>; and Stanard <abbrgrp>
                   <abbr bid="B16">16</abbr>
                </abbrgrp>); one was an RCT (Glover, <abbrgrp>
                   <abbr bid="B14">14</abbr>
                </abbrgrp>). Moreover, these studies varied in the number of participants as shown in Table two. Glover (<abbrgrp>
                   <abbr bid="B14">14</abbr>
                </abbrgrp>) randomly assigned 136 participants to either study or control group; (67 and 69 respectively) to compare the strengths-based case management intervention with traditional case management services. Baseline measures were taken followed by six and nine months&#8217; follow-ups; after the latter, the intervention group (the strengths-based intervention) showed significant improvement in its level of functioning, whereas the traditional case management group showed no change. Macias et al. <abbrgrp>
                   <abbr bid="B15">15</abbr>
                </abbrgrp> assigned 97 participants to strengths-based case management intervention as study group and community mental health centres&#8217; services (day treatment and residential programs) as control group (n&#8201;=&#8201;48 and 49 respectively). Measures were taken at baseline with nine-months follow up. Therapists&#8217; assessment of service users&#8217; symptomatology reported that the strengths-based management treatment significantly reduced service users&#8217; symptomatology compared to the control group (F (1, 63) =5.42; P &lt;0.01). Moreover, professional assessment of consumers&#8217; symptomatology correlated significantly with both self-reports and family reports;(r&#8201;=&#8201;.36; p&#8201;&lt;&#8201;.05); r&#8201;=&#8201;.47; p&#8201;&lt;&#8201;0.01).</p>
             <p>Stanard <abbrgrp>
                   <abbr bid="B16">16</abbr>
                </abbrgrp> used a smaller number of participants (n&#8201;=&#8201;44), with 29 receiving the strengths-based case management in the study group and 15 receiving general case management in the control group. Measures were taken at baseline for both groups and at three-months follow-up. Results of ANOVA after treatment for both study and control group showed significant effect favouring the strengths case management regarding quality of life, (F (1, 44)&#8201;=&#8201;5.97, p &lt;0.05). Regarding symptoms&#8217; outcome, differences between both study and control group were not statistically significant.</p>
          </sec>
          <sec>
             <st>
                <p>Risk of bias in included studies</p>
             </st>
             <p>Information about risk of bias in this review is presented in Table one.</p>
             <sec>
                <st>
                   <p>Allocation</p>
                </st>
                <p>Among the RCTs included in this review, only that by Bjorkman et al. <abbrgrp>
                      <abbr bid="B22">22</abbr>
                   </abbrgrp> described how allocation was performed by using the random number procedure in the Software Package of Statistical Analysis (SPSS); no data was provided by the other studies regarding allocation.</p>
             </sec>
             <sec>
                <st>
                   <p>Blinding</p>
                </st>
                <p>Bjorkman et al. <abbrgrp>
                      <abbr bid="B22">22</abbr>
                   </abbrgrp> gave no information about blinding of participants and personnel; however interviewers were blind to group allocation during outcome assessment. In the other three RCTs (Chamberlain <abbrgrp>
                      <abbr bid="B19">19</abbr>
                   </abbrgrp>; Macias et al. <abbrgrp>
                      <abbr bid="B17">17</abbr>
                   </abbrgrp>; and Modrcin et al. <abbrgrp>
                      <abbr bid="B23">23</abbr>
                   </abbrgrp>), no data was mentioned about either blinding of participants and personnel or blinding of outcome assessment.</p>
             </sec>
             <sec>
                <st>
                   <p>Reporting bias</p>
                </st>
                <p>Reporting bias is influenced by the nature and direction of results during dissemination of findings; statistically significant results are more likely to be published than non-significant results. Moreover, studies published in the English language are more likely to be published than those in other languages <abbrgrp>
                      <abbr bid="B20">20</abbr>
                   </abbrgrp>. In this review, funnel plots of both primary and secondary outcomes were difficult to inspect visually due to the limited number of included studies. The Cochrane Handbook of Systematic reviews of Interventions <abbrgrp>
                      <abbr bid="B20">20</abbr>
                   </abbrgrp> advises that tests be run to detect funnel plot asymmetry if the number of studies included in a review is more than 10, therefore none of these tests was conducted in this review.</p>
             </sec>
             <sec>
                <st>
                   <p>Other sources of bias</p>
                </st>
                <p>Other potential sources of bias in this review included the variation in the control arm among the primary studies. The control delivery model used by Bjorkman et al. <abbrgrp>
                      <abbr bid="B22">22</abbr>
                   </abbrgrp> for example was the standard care. The control group of Macias et al. <abbrgrp>
                      <abbr bid="B17">17</abbr>
                   </abbrgrp> had undergone psychosocial rehabilitation, whereas the control arm used by Barry et al. <abbrgrp>
                      <abbr bid="B18">18</abbr>
                   </abbrgrp> was traditional community services, described in the study as drug treatments and psychotherapy services. Additionally, the variation in sample size among included studies ranged from 41 in (Modrcin et al. <abbrgrp>
                      <abbr bid="B23">23</abbr>
                   </abbrgrp> to 174 in Barry et al. <abbrgrp>
                      <abbr bid="B18">18</abbr>
                   </abbrgrp>). Furthermore, the variation in the psychometric tools used to assess outcomes among included studies might contribute to bias in this review. Finally, follow-up intervals in the included studies varied between four to 36&#160;months post-intervention (baseline). Bjorkman et al. <abbrgrp>
                      <abbr bid="B22">22</abbr>
                   </abbrgrp> administered measures at 18 and 36&#160;months post-intervention; Modrcin et al. <abbrgrp>
                      <abbr bid="B23">23</abbr>
                   </abbrgrp> at four months post-intervention; and Macias et al. <abbrgrp>
                      <abbr bid="B17">17</abbr>
                   </abbrgrp> at one year post-intervention. In the quasi-experimental study by Barry et al. <abbrgrp>
                      <abbr bid="B18">18</abbr>
                   </abbrgrp> follow-up was administered every six months for two years, but only at four months post-intervention by Chamberlain <abbrgrp>
                      <abbr bid="B19">19</abbr>
                   </abbrgrp>.</p>
             </sec>
          </sec>
          <sec>
             <st>
                <p>Effect of intervention</p>
             </st>
             <p>In this review we analysed three outcome measures separately; level of functioning and quality of life as primary outcomes, and symptoms as secondary outcomes. Three forest plots presented pooled estimates for the selected outcome measures with 95% confidence intervals. Means, standard deviations, and sample size were required to calculate the effect size (Standardised mean difference) for the measurement data included, the reason behind using this effect size is the variation in the psychometric tools used in assessing the outcomes included in this review <abbrgrp>
                   <abbr bid="B20">20</abbr>
                </abbrgrp> (Figures&#160;<figr fid="F2">2</figr>, <figr fid="F3">3</figr>, <figr fid="F4">4</figr>, <figr fid="F5">5</figr> and <figr fid="F6">6</figr>).</p>
             
                <fig id="F2">
                   <title>
                      <p>Figure 2</p>
                   </title>
                   <caption>
                      <p>Forest plot of level of functioning outcome.</p>
                   </caption>
                   <text>
                      <p>
                         <b>Forest plot of level of functioning outcome.</b>
                      </p>
                   </text>
                   <graphic file="s12888-014-0243-6-2"/>
                </fig>
             
             
                <fig id="F3">
                   <title>
                      <p>Figure 3</p>
                   </title>
                   <caption>
                      <p>Forest plot of level of functioning after removing (unticking or unchecking) the outlier study (Chamberlain,</p>
                   </caption>
                   <text>
                      <p>
                         <b>Forest plot of level of functioning after removing (unticking or unchecking) the outlier study (Chamberlain,</b>
                         <b>[</b>
                         <abbrgrp>
                            <abbr bid="B19">19</abbr>
                         </abbrgrp>
                         <b>]</b>
                         <b>).</b>
                      </p>
                   </text>
                   <graphic file="s12888-014-0243-6-3"/>
                </fig>
             
             
                <fig id="F4">
                   <title>
                      <p>Figure 4</p>
                   </title>
                   <caption>
                      <p>Forest plot of quality of life outcome.</p>
                   </caption>
                   <text>
                      <p>
                         <b>Forest plot of quality of life outcome.</b>
                      </p>
                   </text>
                   <graphic file="s12888-014-0243-6-4"/>
                </fig>
             
             
                <fig id="F5">
                   <title>
                      <p>Figure 5</p>
                   </title>
                   <caption>
                      <p>Forest plot of symptoms outcome.</p>
                   </caption>
                   <text>
                      <p>
                         <b>Forest plot of symptoms outcome.</b>
                      </p>
                   </text>
                   <graphic file="s12888-014-0243-6-5"/>
                </fig>
             
             
                <fig id="F6">
                   <title>
                      <p>Figure 6</p>
                   </title>
                   <caption>
                      <p>Forest plot of symptoms outcome after removing (unticking or unchecking) the outlier study (Barry et al.</p>
                   </caption>
                   <text>
                      <p>
                         <b>Forest plot of symptoms outcome after removing (unticking or unchecking) the outlier study (Barry et al.</b>
                         <b>[</b>
                         <abbrgrp>
                            <abbr bid="B18">18</abbr>
                         </abbrgrp>
                         <b>]</b>
                         <b>).</b>
                      </p>
                   </text>
                   <graphic file="s12888-014-0243-6-6"/>
                </fig>
             
             <sec>
                <st>
                   <p>Level of functioning outcome</p>
                </st>
                <p>Five studies were included in measuring the overall pooled estimate for the level of functioning outcome. No significant effect was detected between the strengths-based approach and other service delivery models (n&#8201;=&#8201;194 p&#8201;&lt;&#8201;0.32, CI &#8722;0.27 to 0.82) (Figure&#160;<figr fid="F2">2</figr>).</p>
             </sec>
             <sec>
                <st>
                   <p>Quality of life</p>
                </st>
                <p>Two studies as shown in Figure four were included in the forest plot measuring the pooled estimate of quality of life. No significant effect was observed between the strengths based approach and the control group (n&#8201;=&#8201;54 p&#8201;&lt;&#8201;0.37, CI &#8722;76.94 to 28.93).</p>
             </sec>
             <sec>
                <st>
                   <p>Symptoms</p>
                </st>
                <p>This outcome was reported by Barry et al. <abbrgrp>
                      <abbr bid="B18">18</abbr>
                   </abbrgrp>, Bjorkman et al. <abbrgrp>
                      <abbr bid="B22">22</abbr>
                   </abbrgrp>, Chamberlain <abbrgrp>
                      <abbr bid="B19">19</abbr>
                   </abbrgrp>, and Macias et al. <abbrgrp>
                      <abbr bid="B17">17</abbr>
                   </abbrgrp>. A significant effect favouring the control existed (n&#8201;=&#8201;171, p&#8201;&lt;&#8201;0.0001, CI 4.22 to 12.03) (Figure five).</p>
             </sec>
          </sec>
       </sec>
       <sec>
          <st>
             <p>Discussion</p>
          </st>
          <sec>
             <st>
                <p>Summary of the main results</p>
             </st>
             <p>Five studies with a total of 180 participants with severe mental illness were included in this review to evaluate the impact of the strengths-based approach as a service delivery model on service users&#8217; level of functioning and quality of life as primary outcomes and psychotic symptoms as secondary outcomes in people living with severe mental illness. No significant difference was found between the strengths-based approach and other service delivery models regarding level of functioning and quality of life. However, a significant effect favouring other service delivery models (i.e. controls in the studies) regarding symptoms was reported, as shown in Figure five.</p>
             <p>The substantial heterogeneity that existed in the three forest plots pooling the three outcome measures (level of functioning, quality of life, and symptoms) should be considered in analysing the results of this review. This heterogeneity might be attributed to variations in sample size, the way outcomes were measured, variation in the studies&#8217; design, and the follow-ups periods of included studies. It is a challenge to draw firm final conclusions from the results of this meta-analysis for several reasons. First, the methodological shortcomings of the included studies, such as small sample sizes, unclear description of the study design, incomplete reporting of randomization procedures, and the lack of clear definition and description of the strengths-based approach. Second, relatively few primary studies were conducted to test the efficacy of the strengths-based approach. Third, the use of the term &#8216;severe mental illness&#8217; in the primary studies is too vague; this population is diverse and an investigation of subgroups of this population would yield more accurate and specific findings. Finally, the high heterogeneity among the included studies limits the conclusions one can draw from this review.</p>
             <p>Excluding outlier studies that contributed to the substantial heterogeneity in this review resulted in the following observations. In the functional capacity plot, Chamberlain <abbrgrp>
                   <abbr bid="B19">19</abbr>
                </abbrgrp> was the outlier study and removing it from the forest plot resulted in reduction of heterogeneity. However, no significant effects were reported between the strengths-based approach and other service delivery models after removing this outlier study as shown in Figure&#160;<figr fid="F3">3</figr>. Barry et al. <abbrgrp>
                   <abbr bid="B18">18</abbr>
                </abbrgrp> was considered the outlier study in the forest plot of symptoms (related to heterogeneity in sample size and of very negative results). Excluding it from the forest plot resulted in reduction in the heterogeneity and changed the overall effect from favouring the control before exclusion to no significant difference after the exclusion (from p&#8201;&lt;&#8201;0.0001 to p&#8201;=&#8201;0.93) as shown in Figure&#160;<figr fid="F6">6</figr>.</p>
          </sec>
          <sec>
             <st>
                <p>Overall quality of the evidence</p>
             </st>
             <p>The included primary studies are of low methodological quality; the RCTs lack any information about randomisation, allocation concealment and blinding. Moreover, the authors of primary studies failed to provide a clear and definite description of the strengths-based approach making it difficult to distinguish it from other delivery models.</p>
          </sec>
          <sec>
             <st>
                <p>Strengths of this review</p>
             </st>
             <p>This is the first systematic review with meta-analysis evaluating the impact of the strengths-based approach as a service delivery model of functional capacity, quality of life, and symptoms.</p>
          </sec>
          <sec>
             <st>
                <p>Limitations of this review</p>
             </st>
             <p>Restricting the language of included primary studies to English due to feasibility and resources issues is considered a limitation in this review (and a potential bias as well). In addition, the substantial heterogeneity and low quality of included studies added to the weakness of findings, particularly with relation to implications for practice.</p>
          </sec>
          <sec>
             <st>
                <p>Implications for research</p>
             </st>
             <p>It is necessary for future studies in this area to consider and present their methods more clearly, particularly the description of the strengths-based approach. Moreover, presentation of all numerical data to guide prospective reviews is recommended.</p>
          </sec>
       </sec>
       <sec>
          <st>
             <p>Conclusion</p>
          </st>
          <p>Based upon evidence of moderate quality, this review suggests there is no effect of the strengths-based model of service delivery in level of functioning and quality of life in adults diagnosed with severe mental illness. The number of trials is low. Therefore, further evidence is required to ascertain the impact of the strengths-based approach in community mental health.</p>
       </sec>
       <sec>
          <st>
             <p>Abbreviations</p>
          </st>
          <p>RCT: Randomized Controlled Trial</p>
          <p>MeSH: Medical Subjects&#8217; headings</p>
          <p>DSM: The Diagnostic and Statistical Manual of Mental disorders</p>
          <p>ICD: International Classification of disease</p>
          <p>RevMan: Review Manager</p>
          <p>PRISMA: Preferred Reporting Items of Systematic reviews and meta-analyses</p>
          <p>JBI: Joanna Briggs Institute</p>
          <p>EPOC: Effective Practice and Organisation of Crae</p>
          <p>IADLL: Instrumental Activity of daily Living</p>
          <p>GAF: Global assessment of functioning</p>
          <p>OQOLG: Oregon Quality of Life Questionnaire</p>
          <p>BPRS: the Brief Psychiatric Rating Scale</p>
          <p>UCDI: Uniform Client Data Inventory</p>
          <p>CI: Confidence Interval</p>
          <p>SPSS: Software Package of Statistical Analysis</p>
          <p>SE: the Standard Error</p>
          <p>SMD: the Standardised Mean Difference</p>
          <p>MD: Mean difference</p>
          <p>SD: the standard Deviation</p>
          <p>(df): Degree of freedom</p>
       </sec>
       <sec>
          <st>
             <p>Competing interests</p>
          </st>
          <p>The authors declare that they have no competing interests.</p>
       </sec>
       <sec>
          <st>
             <p>Authors&#8217; contributions</p>
          </st>
          <p>All authors read and approved the final manuscript. NI and MM reviewed included papers and conducted data analysis, PC advised on methodology, and NI, MM and PC wrote the review paper.</p>
       </sec>
       <sec>
          <st>
             <p>Additional files</p>
          </st>
          
       </sec>
    </bdy>
    <bm>
       <ack>
          <sec>
             <st>
                <p>Acknowledgement</p>
             </st>
             <p>The authors would like to acknowledge the Egyptian Ministry of Higher Education and the Egyptian Educational Culture Bureau in London for funding the PhD studies of Nashwa Ibrahim at the University of Nottingham, School of Health Sciences. We would also like to acknowledge the professors and librarians at School of Social Welfare, University of Kansas for their help throughout this review.</p>
          </sec>
       </ack>
       <refgrp>
          
          <bibl id="B1">
             <aug>
                <au>
                   <snm>Gottlieb</snm>
                   <fnm>L</fnm>
                </au>
             </aug>
             <source>Strengths-Based Nursing Care Health and Healing for Person and Family</source>
             <publisher>Springer Publishing Company, LLC, United States of America</publisher>
             <pubdate>2013</pubdate>
          </bibl>
          <bibl id="B2">
             <title>
                <p>Strengths model case management fidelity scores and client outcomes</p>
             </title>
             <aug>
                <au>
                   <snm>Fukui</snm>
                   <fnm>S</fnm>
                </au>
                <au>
                   <snm>Goscha</snm>
                   <fnm>R</fnm>
                </au>
                <au>
                   <snm>Rapp</snm>
                   <fnm>CA</fnm>
                </au>
                <au>
                   <snm>Mabry</snm>
                   <fnm>A</fnm>
                </au>
                <au>
                   <snm>Liddy</snm>
                   <fnm>P</fnm>
                </au>
                <au>
                   <snm>Marty</snm>
                   <fnm>D</fnm>
                </au>
             </aug>
             <source>Psychiatr Serv</source>
             <pubdate>2012</pubdate>
             <volume>63</volume>
             <issue>7</issue>
             <fpage>708</fpage>
             <lpage>710</lpage>
             <xrefbib>
                <pubidlist>
                   <pubid idtype="doi">10.1176/appi.ps.201100373</pubid>
                   <pubid idtype="pmpid" link="fulltext">22752035</pubid>
                </pubidlist>
             </xrefbib>
          </bibl>
          <bibl id="B3">
             <title>
                <p>The operationalization, implementation, and effectiveness of the strengths perspective: a review of empirical studies</p>
             </title>
             <aug>
                <au>
                   <snm>Staudt</snm>
                   <fnm>M</fnm>
                </au>
                <au>
                   <snm>Howardw</snm>
                   <fnm>MO</fnm>
                </au>
                <au>
                   <snm>Drake</snm>
                   <fnm>B</fnm>
                </au>
             </aug>
             <source>J Soc Serv Res</source>
             <pubdate>2001</pubdate>
             <volume>27</volume>
             <issue>3</issue>
             <fpage>1</fpage>
             <lpage>21</lpage>
             <xrefbib>
                <pubidlist>
                   <pubid idtype="doi">10.1300/J079v27n03_01</pubid>
                </pubidlist>
             </xrefbib>
          </bibl>
          <bibl id="B4">
             <aug>
                <au>
                   <snm>Rapp</snm>
                   <fnm>CA</fnm>
                </au>
                <au>
                   <snm>Goscha</snm>
                   <fnm>RJ</fnm>
                </au>
             </aug>
             <source>The Strengths Model: A Recovery-Oriented Approach to Mental Health Services</source>
             <publisher>Oxford University Press, New York</publisher>
             <pubdate>2011</pubdate>
          </bibl>
          <bibl id="B5">
             <title>
                <p>Updated method guidelines for systematic reviews in the Cochrane collaboration back review group</p>
             </title>
             <aug>
                <au>
                   <snm>Van Tulder</snm>
                   <fnm>M</fnm>
                </au>
                <au>
                   <snm>Furlan</snm>
                   <fnm>A</fnm>
                </au>
                <au>
                   <snm>Bombardier</snm>
                   <fnm>C</fnm>
                </au>
                <au>
                   <snm>Bouter</snm>
                   <fnm>L</fnm>
                </au>
             </aug>
             <source>Spine</source>
             <pubdate>2003</pubdate>
             <volume>28</volume>
             <issue>12</issue>
             <fpage>1290</fpage>
             <lpage>1299</lpage>
             <xrefbib>
                <pubidlist>
                   <pubid idtype="pmpid" link="fulltext">12811274</pubid>
                </pubidlist>
             </xrefbib>
          </bibl>
          <bibl id="B6">
             <title>
                <p>Preferred reporting items for systematic reviews and meta-analyses: the PRISMA statement</p>
             </title>
             <aug>
                <au>
                   <snm>Moher</snm>
                   <fnm>D</fnm>
                </au>
                <au>
                   <snm>Liberati</snm>
                   <fnm>A</fnm>
                </au>
                <au>
                   <snm>Tetzlaff</snm>
                   <fnm>J</fnm>
                </au>
                <au>
                   <snm>Altman</snm>
                   <fnm>DG</fnm>
                </au>
             </aug>
             <source>Ann Intern Med</source>
             <pubdate>2009</pubdate>
             <volume>151</volume>
             <issue>4</issue>
             <fpage>264</fpage>
             <lpage>269</lpage>
             <xrefbib>
                <pubidlist>
                   <pubid idtype="doi">10.7326/0003-4819-151-4-200908180-00135</pubid>
                   <pubid idtype="pmpid" link="fulltext">19622511</pubid>
                </pubidlist>
             </xrefbib>
          </bibl>
          <bibl id="B7">
             <url>http://www.oxfordbibliographies.com/view/document/obo-9780199828340/obo-9780199828340-0022.xml</url>
<note>WHO: <b>Diagnostic and statistical manual of mental disorders.</b>
                <it>&#4447;</it> 1995, <b>&#4447;:</b>&#4447;. .</note>
          </bibl>
          <bibl id="B8">
             <source>International Statistical Classification of Diseases and Related Health Problems, vol. 1</source>
             <publisher>World Health Organization, Geneva</publisher>
             <pubdate>2004</pubdate>
          </bibl>
          <bibl id="B9">
             <aug>
                <au>
                   <snm>Rapp</snm>
                   <fnm>CA</fnm>
                </au>
             </aug>
             <source>The strengths model: case management with people suffering from severe and persistent mental illness</source>
             <publisher>Oxford University Press, New York</publisher>
             <pubdate>1998</pubdate>
          </bibl>
          <bibl id="B10">
             <title>
                <p>CONSORT 2010 explanation and elaboration: updated guidelines for reporting parallel group randomised trials</p>
             </title>
             <aug>
                <au>
                   <snm>Moher</snm>
                   <fnm>D</fnm>
                </au>
                <au>
                   <snm>Hopewell</snm>
                   <fnm>S</fnm>
                </au>
                <au>
                   <snm>Schulz</snm>
                   <fnm>KF</fnm>
                </au>
                <au>
                   <snm>Montori</snm>
                   <fnm>V</fnm>
                </au>
                <au>
                   <snm>G&#248;tzsche</snm>
                   <fnm>PC</fnm>
                </au>
                <au>
                   <snm>Devereaux</snm>
                   <fnm>P</fnm>
                </au>
                <au>
                   <snm>Elbourne</snm>
                   <fnm>D</fnm>
                </au>
                <au>
                   <snm>Egger</snm>
                   <fnm>M</fnm>
                </au>
                <au>
                   <snm>Altman</snm>
                   <fnm>DG</fnm>
                </au>
             </aug>
             <source>J Clin Epidemiol</source>
             <pubdate>2010</pubdate>
             <volume>63</volume>
             <issue>8</issue>
             <fpage>e1</fpage>
             <lpage>e37</lpage>
             <xrefbib>
                <pubidlist>
                   <pubid idtype="doi">10.1016/j.jclinepi.2010.03.004</pubid>
                   <pubid idtype="pmpid" link="fulltext">20346624</pubid>
                </pubidlist>
             </xrefbib>
          </bibl>
          <bibl id="B11">
             <title>
                <p>Improving the reporting quality of nonrandomized evaluations of behavioral and public health interventions: the TREND statement</p>
             </title>
             <aug>
                <au>
                   <snm>Des Jarlais</snm>
                   <fnm>DC</fnm>
                </au>
                <au>
                   <snm>Lyles</snm>
                   <fnm>C</fnm>
                </au>
                <au>
                   <snm>Crepaz</snm>
                   <fnm>N</fnm>
                </au>
             </aug>
             <source>J Inf</source>
             <pubdate>2004</pubdate>
             <volume>94</volume>
             <issue>3</issue>
             <fpage>363</fpage>
             <lpage>365</lpage>
          </bibl>
          <bibl id="B12">
             <url>http://epocoslo.cochrane.org/epoc-specific-resources-review-authors</url>
<note>
                <b>EPOC-specific resources for review authors.</b>.</note>
          </bibl>
          <bibl id="B13">
             <title>
                <p>Fixed-and random-effects models in meta-analysis</p>
             </title>
             <aug>
                <au>
                   <snm>Hedges</snm>
                   <fnm>LV</fnm>
                </au>
                <au>
                   <snm>Vevea</snm>
                   <fnm>JL</fnm>
                </au>
             </aug>
             <source>Psychol Methods</source>
             <pubdate>1998</pubdate>
             <volume>3</volume>
             <issue>4</issue>
             <fpage>486</fpage>
             <xrefbib>
                <pubidlist>
                   <pubid idtype="doi">10.1037/1082-989X.3.4.486</pubid>
                </pubidlist>
             </xrefbib>
          </bibl>
          <bibl id="B14">
             <title>
                <p>Strengths case management for the seriously and persistently mentally ell: effects on level of social functioning and hospital admissions</p>
             </title>
             <aug>
                <au>
                   <snm>Glover</snm>
                   <fnm>D</fnm>
                </au>
             </aug>
             <source>&#4447;</source>
             <pubdate>1995</pubdate>
             <volume>&#4447;</volume>
             <fpage>&#4447;</fpage>
          </bibl>
          <bibl id="B15">
             <title>
                <p>Case management in the context of capitation financing: An evaluation of the strengths model</p>
             </title>
             <aug>
                <au>
                   <snm>Macias</snm>
                   <fnm>C</fnm>
                </au>
                <au>
                   <snm>Farley</snm>
                   <fnm>OW</fnm>
                </au>
                <au>
                   <snm>Jackson</snm>
                   <fnm>R</fnm>
                </au>
                <au>
                   <snm>Kinney</snm>
                   <fnm>R</fnm>
                </au>
             </aug>
             <source>Adm Policy Ment Health Ment Health Serv Res</source>
             <pubdate>1997</pubdate>
             <volume>24</volume>
             <issue>6</issue>
             <fpage>535</fpage>
             <lpage>543</lpage>
             <xrefbib>
                <pubidlist>
                   <pubid idtype="doi">10.1007/BF02042831</pubid>
                </pubidlist>
             </xrefbib>
          </bibl>
          <bibl id="B16">
             <title>
                <p>The effect of training in a strengths model of case management on client outcomes in a community mental health center</p>
             </title>
             <aug>
                <au>
                   <snm>Stanard</snm>
                   <fnm>RP</fnm>
                </au>
             </aug>
             <source>Community Ment Health J</source>
             <pubdate>1999</pubdate>
             <volume>35</volume>
             <issue>2</issue>
             <fpage>169</fpage>
             <lpage>179</lpage>
             <xrefbib>
                <pubidlist>
                   <pubid idtype="doi">10.1023/A:1018724831815</pubid>
                   <pubid idtype="pmpid" link="fulltext">10412625</pubid>
                </pubidlist>
             </xrefbib>
          </bibl>
          <bibl id="B17">
             <title>
                <p>The role of case management within a community support system: partnership with psychosocial rehabilitation</p>
             </title>
             <aug>
                <au>
                   <snm>Macias</snm>
                   <fnm>C</fnm>
                </au>
                <au>
                   <snm>Kinney</snm>
                   <fnm>R</fnm>
                </au>
                <au>
                   <snm>Farley</snm>
                   <fnm>OW</fnm>
                </au>
                <au>
                   <snm>Jackson</snm>
                   <fnm>R</fnm>
                </au>
                <au>
                   <snm>Vos</snm>
                   <fnm>B</fnm>
                </au>
             </aug>
             <source>Community Ment Health J</source>
             <pubdate>1994</pubdate>
             <volume>30</volume>
             <issue>4</issue>
             <fpage>323</fpage>
             <lpage>339</lpage>
             <xrefbib>
                <pubidlist>
                   <pubid idtype="doi">10.1007/BF02207486</pubid>
                   <pubid idtype="pmpid" link="fulltext">7956109</pubid>
                </pubidlist>
             </xrefbib>
          </bibl>
          <bibl id="B18">
             <title>
                <p>Effect of strengths model versus assertive community treatment model on participant outcomes and utilization: two-year follow-up</p>
             </title>
             <aug>
                <au>
                   <snm>Barry</snm>
                   <fnm>KL</fnm>
                </au>
                <au>
                   <snm>Zeber</snm>
                   <fnm>JE</fnm>
                </au>
                <au>
                   <snm>Blow</snm>
                   <fnm>FC</fnm>
                </au>
                <au>
                   <snm>Valenstein</snm>
                   <fnm>M</fnm>
                </au>
             </aug>
             <source>Psychiatr Rehabil J</source>
             <pubdate>2003</pubdate>
             <volume>26</volume>
             <issue>3</issue>
             <fpage>268</fpage>
             <lpage>277</lpage>
             <xrefbib>
                <pubidlist>
                   <pubid idtype="doi">10.2975/26.2003.268.277</pubid>
                   <pubid idtype="pmpid" link="fulltext">12661529</pubid>
                </pubidlist>
             </xrefbib>
          </bibl>
          <bibl id="B19">
             <aug>
                <au>
                   <snm>Chamberlain</snm>
                   <fnm>R</fnm>
                </au>
             </aug>
             <source>An Experimental Study of the Strengths Model of Case Management</source>
             <pubdate>1991</pubdate>
          </bibl>
          <bibl id="B20">
             <url>www.cochrane-handbook.org</url>
<note>Higgins JP, Green S: <it>Cochrane Handbook for Systematic Reviews of Interventions, vol. 5.</it> &#4447;: Wiley Online Library; 2008. Available from .</note>
          </bibl>
          <bibl id="B21">
             <url>www.cochrane-handbook.org</url>
<note>Deeks JJ, Higgins J, Altman DG: <b>Analysing Data and Undertaking Meta-Analyses.</b> In <it>Cochrane Handbook for Systematic Reviews of Interventions: Cochrane Book Series.</it> &#4447;: &#4447;; 2008:243&#8211;296. Available from .</note>
          </bibl>
          <bibl id="B22">
             <title>
                <p>Outcome of case management based on the strengths model compared to standard care. A randomised controlled trial</p>
             </title>
             <aug>
                <au>
                   <snm>Bjorkman</snm>
                   <fnm>T</fnm>
                </au>
                <au>
                   <snm>Hansson</snm>
                   <fnm>L</fnm>
                </au>
                <au>
                   <snm>Sandlund</snm>
                   <fnm>M</fnm>
                </au>
             </aug>
             <source>Soc Psychiatry Psychiatr Epidemiol</source>
             <pubdate>2002</pubdate>
             <volume>37</volume>
             <issue>4</issue>
             <fpage>147</fpage>
             <lpage>152</lpage>
             <xrefbib>
                <pubidlist>
                   <pubid idtype="doi">10.1007/s001270200008</pubid>
                   <pubid idtype="pmpid" link="fulltext">12027240</pubid>
                </pubidlist>
             </xrefbib>
          </bibl>
          <bibl id="B23">
             <title>
                <p>The evaluation of case management services with the chronically mentally ill</p>
             </title>
             <aug>
                <au>
                   <snm>Modrcin</snm>
                   <fnm>M</fnm>
                </au>
                <au>
                   <snm>Rapp</snm>
                   <fnm>CA</fnm>
                </au>
                <au>
                   <snm>POERTNER</snm>
                   <fnm>J</fnm>
                </au>
             </aug>
             <source>Eval Program Plann</source>
             <pubdate>1988</pubdate>
             <volume>11</volume>
             <fpage>307</fpage>
             <lpage>314</lpage>
             <xrefbib>
                <pubidlist>
                   <pubid idtype="doi">10.1016/0149-7189(88)90043-2</pubid>
                   <pubid idtype="pmpid" link="fulltext">10290669</pubid>
                </pubidlist>
             </xrefbib>
          </bibl>
          <bibl id="B24">
             <title>
                <p>The prediction of outcome in schizophrenia: II. Relationships between predictor and outcome variables: a report from the WHO International Pilot Study of Schizophrenia</p>
             </title>
             <aug>
                <au>
                   <snm>Strauss</snm>
                   <fnm>JS</fnm>
                </au>
                <au>
                   <snm>Carpenter</snm>
                   <fnm>WT</fnm>
                   <suf>Jr</suf>
                </au>
             </aug>
             <source>Arch Gen Psychiatry</source>
             <pubdate>1974</pubdate>
             <volume>31</volume>
             <issue>1</issue>
             <fpage>37</fpage>
             <xrefbib>
                <pubidlist>
                   <pubid idtype="doi">10.1001/archpsyc.1974.01760130021003</pubid>
                   <pubid idtype="pmpid" link="fulltext">4835985</pubid>
                </pubidlist>
             </xrefbib>
          </bibl>
          <bibl id="B25">
             <title>
                <p>Measuring the quality of life of severely mentally ill people using the Lancashire Quality of Life Profile</p>
             </title>
             <aug>
                <au>
                   <snm>Oliver</snm>
                   <fnm>J</fnm>
                </au>
                <au>
                   <snm>Huxley</snm>
                   <fnm>P</fnm>
                </au>
                <au>
                   <snm>Priebe</snm>
                   <fnm>S</fnm>
                </au>
                <au>
                   <snm>Kaiser</snm>
                   <fnm>W</fnm>
                </au>
             </aug>
             <source>Soc Psychiatry Psychiatr Epidemiol</source>
             <pubdate>1997</pubdate>
             <volume>32</volume>
             <issue>2</issue>
             <fpage>76</fpage>
             <lpage>83</lpage>
             <xrefbib>
                <pubidlist>
                   <pubid idtype="doi">10.1007/BF00788924</pubid>
                   <pubid idtype="pmpid" link="fulltext">9050348</pubid>
                </pubidlist>
             </xrefbib>
          </bibl>
          <bibl id="B26">
             <title>
                <p>The brief psychiatric rating scale</p>
             </title>
             <aug>
                <au>
                   <snm>Overall</snm>
                   <fnm>JE</fnm>
                </au>
                <au>
                   <snm>Gorham</snm>
                   <fnm>DR</fnm>
                </au>
             </aug>
             <source>Psychol Rep</source>
             <pubdate>1962</pubdate>
             <volume>10</volume>
             <issue>3</issue>
             <fpage>799</fpage>
             <lpage>812</lpage>
             <xrefbib>
                <pubidlist>
                   <pubid idtype="doi">10.2466/pr0.1962.10.3.799</pubid>
                </pubidlist>
             </xrefbib>
          </bibl>
          <bibl id="B27">
             <title>
                <p>Confirmation of the dimensional structure of the SCL&#8208;90: a study in construct validation</p>
             </title>
             <aug>
                <au>
                   <snm>Derogatis</snm>
                   <fnm>LR</fnm>
                </au>
                <au>
                   <snm>Cleary</snm>
                   <fnm>PA</fnm>
                </au>
             </aug>
             <source>J Clin Psychol</source>
             <pubdate>1977</pubdate>
             <volume>33</volume>
             <issue>4</issue>
             <fpage>981</fpage>
             <lpage>989</lpage>
             <xrefbib>
                <pubidlist>
                   <pubid idtype="doi">10.1002/1097-4679(197710)33:4&lt;981::AID-JCLP2270330412&gt;3.0.CO;2-0</pubid>
                </pubidlist>
             </xrefbib>
          </bibl>
          <bibl id="B28">
             <aug>
                <au>
                   <snm>Macias</snm>
                   <fnm>C</fnm>
                </au>
                <au>
                   <snm>Jackson</snm>
                   <fnm>R</fnm>
                </au>
             </aug>
             <source>The Self-Report Inventory: an interview schedule for adults with serious mental illness</source>
             <publisher>Graduate School of Social Work, Salt Lake City: University of Utah</publisher>
             <pubdate>1990</pubdate>
          </bibl>
          <bibl id="B29">
             <aug>
                <au>
                   <snm>Macias</snm>
                   <fnm>C</fnm>
                </au>
                <au>
                   <snm>Kinney</snm>
                   <fnm>R</fnm>
                </au>
             </aug>
             <source>The brief psychological wellbeing index</source>
             <publisher>Graduate School of Social Work, Salt Lake City: University Of Utah</publisher>
             <pubdate>1990</pubdate>
          </bibl>
          <bibl id="B30">
             <title>
                <p>
                   <b>Clinical validation of the Quality of Life Inventory. A measure of life satisfaction for use in treatment planning and outcome assessment</b>
                </p>
             </title>
             <aug>
                <au>
                   <snm>Frisch</snm>
                   <fnm>MB</fnm>
                </au>
                <au>
                   <snm>Cornell</snm>
                   <fnm>J</fnm>
                </au>
                <au>
                   <snm>Villanueva</snm>
                   <fnm>M</fnm>
                </au>
                <au>
                   <snm>Retzlaff</snm>
                   <fnm>PJ</fnm>
                </au>
             </aug>
             <source>Psychological Assessment</source>
             <pubdate>1992</pubdate>
             <volume>4</volume>
             <issue>1</issue>
             <fpage>92</fpage>
             <xrefbib>
                <pubidlist>
                   <pubid idtype="doi">10.1037/1040-3590.4.1.92</pubid>
                </pubidlist>
             </xrefbib>
          </bibl>
       </refgrp>
    </bm>
 </art>