<art>
    <ui>s12913-014-0593-2</ui>
    <ji>1472-6963</ji>
    <fm>
       <dochead>Research article</dochead>
       <bibl>
          <title>
             <p>Knowledge and practice of tuberculosis infection control among health professionals in Northwest Ethiopia; 2011</p>
          </title>
          <aug>
             <au id="A1" ca="yes">
                <snm>Temesgen</snm>
                <fnm>Chanie</fnm>
                <insr iid="I1"/>
                <email>chanie.tem@gmail.com</email>
             </au>
             <au id="A2">
                <snm>Demissie</snm>
                <fnm>Meaza</fnm>
                <insr iid="I2"/>
                <email>meazademissie@gmail.com</email>
             </au>
          </aug>
          <insg>
             <ins id="I1">
                <p>&#4447;, Bahir Dar, Ethiopia</p>
             </ins>
             <ins id="I2">
                <p>Addis Continental Institute of Public Health, Addis Ababa, Ethiopia</p>
             </ins>
          </insg>
          <source>BMC Health Services Research</source>
          <issn>1472-6963</issn>
          <pubdate>2014</pubdate>
          <volume>14</volume>
          <issue>1</issue>
          <fpage>593</fpage>
          <url>http://www.biomedcentral.com/1472-6963/14/593</url>
          <xrefbib>
             <pubidlist>
                <pubid idtype="doi">10.1186/s12913-014-0593-2</pubid>
             </pubidlist>
          </xrefbib>
       </bibl>
       <history>
          <rec>
             <date>
                <day>20</day>
                <month>3</month>
                <year>2013</year>
             </date>
          </rec>
          <acc>
             <date>
                <day>10</day>
                <month>11</month>
                <year>2014</year>
             </date>
          </acc>
          <pub>
             <date>
                <day>19</day>
                <month>11</month>
                <year>2014</year>
             </date>
          </pub>
       </history>
       <cpyrt>
          <year>2014</year>
          <collab>Temesgen and Demissie; licensee BioMed Central Ltd.</collab>
          <note>This is an Open Access article distributed under the terms of the Creative Commons Attribution License (<url>http://creativecommons.org/licenses/by/2.0</url>), which permits unrestricted use, distribution, and reproduction in any medium, provided the original work is properly credited.</note>
       </cpyrt>
       <kwdg>
          <kwd>&#4447;</kwd>
       </kwdg>
       <abs>
          <sec>
             <st>
                <p>Abstract</p>
             </st>
             <sec>
                <st>
                   <p>Background</p>
                </st>
                <p>Tuberculosis (TB) is highly prevalent in sub-Saharan Africa, making the risk of infection transmission high in these countries. Despite high prevalence of TB and expected high probability of nosocomial transmission in Ethiopia, a rapid assessment done in 2008 revealed that most health facilities in Ethiopia do not use tuberculosis infection control (TBIC) practices. Patients and providers are therefore at risk of exposure to TB, especially at high case load facilities. The purpose of this study was to assess TBIC knowledge and practices among health professionals working in hospitals in the Amhara region of Northwest Ethiopia.</p>
             </sec>
             <sec>
                <st>
                   <p>Methods</p>
                </st>
                <p>An institution-based hybrid study was implemented form August 2010 to January 2011. The subjects were health professionals who were proportionally selected from each hospital. Subjects self-administered a questionnaire that contained sections on socio-demographics and on TBIC knowledge and practice. Those answering &#8805;60% of knowledge questions correctly and &#8805;50% of practice questions correctly were considered to have good knowledge and practice, respectively.</p>
             </sec>
             <sec>
                <st>
                   <p>Results</p>
                </st>
                <p>A total of 313 healthcare professionals were enrolled from four healthcare facilities. The response rate was 96%. Only 18.8% received in-service training. Among those who were trained, 74.4%, 95% CI (69.6, 79.3%) were found to have good knowledge and 63.2%, 95% CI (57.9, 68.6%) good practice on TBIC. Training was found to be a predictor of TBIC knowledge, AOR* 3.386 and 95% CI (1.377, 8.330) while knowledge of TBIC was a strong predictor of good TBIC practice, AOR* 10.667 and 95% CI (5.769, 19.721).</p>
             </sec>
             <sec>
                <st>
                   <p>Conclusions</p>
                </st>
                <p>Though the majority of the respondents had good TBIC knowledge and practice, a considerable proportion of healthcare professionals were not trained on TBIC. Respondents trained on TBIC were found to be more knowledgeable than those not trained. Similarly, respondents with good TBIC knowledge were 10 times more likely to have good TBIC practice compared to those with poor TBIC knowledge. Training was not found to have an effect on TBIC practice.</p>
                <p>*Adjusted Odds Ratio.</p>
             </sec>
          </sec>
       </abs>
    </fm>
    <bdy>
       <sec>
          <st>
             <p>Background</p>
          </st>
          <p>Tuberculosis infection control (TBIC) is a combination of measures aimed at minimizing the risk of TB infection transmission within populations <abbrgrp>
                <abbr bid="B1">1</abbr>
             </abbrgrp>. Gaps in (TBIC) implementation practice predispose health professionals to nosocomial tuberculosis (TB) transmission. TBIC is not appropriately implemented in most developing countries. Effective TBIC in healthcare settings depends on early identification, isolating infected persons, and rapidly and effectively treating persons with TB. A combination of control measures--including administrative, engineering, and environmental controls and personal protection measures--have been recommended to reduce nosocomial TB risk <abbrgrp>
                <abbr bid="B2">2</abbr>
             </abbrgrp>. These recommended measures are implemented by healthcare facilities in high-income countries; however, given their high cost, few facilities in low-income countries can afford to implement them <abbrgrp>
                <abbr bid="B3">3</abbr>
             </abbrgrp>.</p>
          <p>&#8220;The risk of transmission of <it>M. tuberculosis</it> from individuals with TB to other patients and to health professionals (HPs) has been recognized for many years. This risk is high in health facilities especially in many low- and middle-income countries&#8221; <abbrgrp>
                <abbr bid="B4">4</abbr>
             </abbrgrp>. A review of available published literature regarding the risk of TB infection and disease among health care workers (HCWs) revealed that the median prevalence of latent TB infection (LTBI) in HPs was 63% <abbrgrp>
                <abbr bid="B5">5</abbr>
             </abbrgrp>. Other reports showed tuberculin skin test conversion and increased risk of TB among health professionals in Turkey <abbrgrp>
                <abbr bid="B6">6</abbr>
             </abbrgrp> and Melbourne <abbrgrp>
                <abbr bid="B7">7</abbr>
             </abbrgrp>, demonstrating the importance of appropriate TBIC practice at health care settings.</p>
          <p>Despite the high prevalence of TB and the expected high probability of nosocomial transmission in Ethiopia, a recent assessment established that most health facilities have do not use TBIC practices <abbrgrp>
                <abbr bid="B8">8</abbr>
             </abbrgrp>. Patients and providers are therefore at risk of exposure to TB, especially at high case load health facilities where TB patients and suspected cases stay longer for inpatient or outpatient follow-up care.</p>
          <p>Recommended TBIC measures to reduce nosocomial infection--including developing an infection control plan, educating health professionals and patients, improving sputum collection practices, performing triage and evaluation of suspected TB patients in outpatient settings, reducing exposure in the laboratory <abbrgrp>
                <abbr bid="B9">9</abbr>
             </abbrgrp>, and employing administrative controls (early detection, isolation, and treatment of patients with TB)--have been the most effective components of TBIC programs <abbrgrp>
                <abbr bid="B10">10</abbr>
             </abbrgrp>. Delays in diagnosis and initiation of treatment and failure to separate or isolate patients with smear-positive TB from other patients also contribute to transmission risk <abbrgrp>
                <abbr bid="B11">11</abbr>
             </abbrgrp>,<abbrgrp>
                <abbr bid="B12">12</abbr>
             </abbrgrp>.</p>
       </sec>
       <sec>
          <st>
             <p>Methods</p>
          </st>
          <p>The study involved four hospitals that were located between 300&#160;km (Debre Markos) to 567 kms (Bahir Dar) northwest of Addis Ababa. The study hospitals were selected based on the flow of TB patients. Study hospitals combined are expected to serve a total population of more than 9 million.</p>
          <p>This study used a health institution-based hybrid design. The staff from the four study hospitals served as a source population, and 313 of these healthcare workers were enrolled in the study. The four hospitals have a total of 498 health care workers. The group of study participants was composed as follows: 13% from Motta hospital, 13% from Finoteselam hospital, 31% Debre Markos hospital, and 43% from Felegehiwot hospital. The source population was composed of physicians, health officers, nurses, laboratory technicians, pharmacists, radiographers, physiotherapists, and environmental health workers.</p>
          <p>A list of all health professionals in each hospital was prepared and used to select 326 study subjects. The sample size was determined by using EPI INFO Version 3.5.1 Ssat calc by considering a 50% level of TBIC practice, a 95% confidence level, 80% power, and a 1:1 ratio of poor and good practice to detect an odds ratio (OR) of 2. A ten percent (10%) non-response rate was considered to calculate the final sample size. Proportional numbers of study participants were allocated to each hospital according to its contribution to the sampling frame and individual participants were selected by a lottery method from each facility, taking the contribution of each discipline into consideration. Study participants were selected from units where TB patients and suspected cases receive health care.</p>
          <p>Trained data collectors facilitated the self administered data collection by using a pre-tested structured questionnaire focused on knowledge and practice related to TBIC. With the assistance of coordinators in each unit, data collectors had all study participants in the same department complete the instrument simultaneously. The principal investigator supervised data collection to ensure data quality and implemented a daily check of the collected data in order to keep consistency.</p>
          <p>Respondents answering &#8805;60% of the TBIC knowledge questions correctly were considered to have good TBIC knowledge; others were considered to have poor knowledge. Those answering &#8805;50% of the TBIC practice questions correctly were considered to have good TBIC practice, and others were considered to have poor practice.</p>
          <p>TBIC knowledge (good and poor) and TBIC practice (good and poor) were taken as the main dependent/outcome variables. Explanatory/exposure variables potentially determining TBIC knowledge and practice were the socio-demographic characteristics: year of service, level of education, professional category, job location, and training on TBIC. Knowledge related to TBIC was also considered as a potential explanatory variable for TBIC practice.</p>
          <p>Data were cleaned and entered into a computer using EPI-INFO version 3.5.1. Data were then exported and analyzed using SPSS version 15. Variables were recoded to compute some of the analysis. Frequencies, percentages, and means were calculated as appropriate for TBIC knowledge and practice. Percentage compliance of TBIC practice was calculated. The relationships of independent/predictor variables (age, gender, level of education, training, job location, professional category, and service year) with dependent variables (good knowledge, poor knowledge, good practice, and poor practice) were calculated through cross tabulation and a summary table was generated. Univariate binary logistic analysis and multivariate logistic regression analysis were also done to determine the relationship between outcome variables and a range of factors.</p>
          <p>Odds ratios (OR) were computed for the presence and strength of the associations found and 95% CIs were calculated to determine statistical significance for each predictor variable. Finally, those variables that showed association were analyzed using multivariate models. Only variables that showed statistically significant association in the final analysis were considered to explain the presence of association.</p>
          <p>Ethical clearance was obtained from the Joint MPH program of Addis Continental Institute of Public Health and Gondar University. Officaly written permission was secured from the Amhara Regional Health Bureau. The respondents were informed about the objective and purpose of the study and each respondent gave verbal consent. Respondents were also informed of their right to participate or not participate in the study. Confidentiality of the information was assured; data was collected anonymously and only an identity number was used on each questionnaire.</p>
       </sec>
       <sec>
          <st>
             <p>Results</p>
          </st>
          <p>A total of 313 healthcare professionals were enrolled from four healthcare facilities. The response rate was 96%. Among the respondents, 153 (48.9%) were males and 160 (51.1%) females. The median age was 28; the mean age was 30.3, and age ranged from 20 to 60&#160;years. Concerning the educational level of the respondents, 198 (63.3%) have a diploma (55.9% were either clinical nurses or midwives) and the remaining 115 (36.7%) had a university degree or post graduate work.</p>
          <p>One hundred and eighteen (37.7%) of the respondents work in the outpatient department, 119 (38%) were from the wards, and the remaining 76 (24.3%) were from either the laboratory or pharmacy.</p>
          <p>Only 18.8% of the respondents were trained on TBIC. Of these, 45% were trained in the past year while 55% were trained in the past two or more years. For 85% of those trained, the TBIC trainings lasted for a period of three or more days (see Table&#160;<tblr tid="T1">1</tblr>).
                </p>
          
             <table id="T1">
                <title>
                   <p>Table 1</p>
                </title>
                <caption>
                   <p>
                          <b>Socio-Demographic characteristics of respondent health professionals</b>                        
                   </p>
                </caption>
                <tgroup align="left" cols="4">
                   <colspec align="left" colname="c1" colnum="1" colwidth="*"/>
                   <colspec align="left" colname="c2" colnum="2" colwidth="*"/>
                   <colspec align="left" colname="c3" colnum="3" colwidth="*"/>
                   <colspec align="left" colname="c4" colnum="4" colwidth="*"/>
                   <thead>
                      <row valign="top">
                         <entry nameend="c2" namest="c1">
                            <p>
                              <b>Variables</b>                            
                            </p>
                         </entry>
                         <entry colname="c3">
                            <p>
                              <b>Number</b>                            
                            </p>
                         </entry>
                         <entry colname="c4">
                            <p>
                              <b>Percent</b>                            
                            </p>
                         </entry>
                      </row>
                   </thead>
                   <tfoot>
                      <p>Key: HO =&#8201;Health Officer, Lab =&#8201;Laboratory professional, Pharm =&#8201;Pharmacy professional, OPD =&#8201;Out Patient Department.</p>
                   </tfoot>
                   <tbody>
                      <row valign="top">
                         <entry colname="c1" morerows="2">
                            <p>Age</p>
                         </entry>
                         <entry colname="c2">
                            <p>18- 29</p>
                         </entry>
                         <entry colname="c3">
                            <p>196</p>
                         </entry>
                         <entry colname="c4">
                            <p>62.6</p>
                         </entry>
                      </row>
                      <row valign="top">
                         <entry colname="c2">
                            <p>30&#8211;39</p>
                         </entry>
                         <entry colname="c3">
                            <p>67</p>
                         </entry>
                         <entry colname="c4">
                            <p>21.4</p>
                         </entry>
                      </row>
                      <row valign="top">
                         <entry colname="c2">
                            <p>&gt;/ = 40</p>
                         </entry>
                         <entry colname="c3">
                            <p>50</p>
                         </entry>
                         <entry colname="c4">
                            <p>16</p>
                         </entry>
                      </row>
                      <row valign="top">
                         <entry colname="c1" morerows="1">
                            <p>Sex</p>
                         </entry>
                         <entry colname="c2">
                            <p>Male</p>
                         </entry>
                         <entry colname="c3">
                            <p>153</p>
                         </entry>
                         <entry colname="c4">
                            <p>48.9</p>
                         </entry>
                      </row>
                      <row valign="top">
                         <entry colname="c2">
                            <p>Female</p>
                         </entry>
                         <entry colname="c3">
                            <p>160</p>
                         </entry>
                         <entry colname="c4">
                            <p>51.1</p>
                         </entry>
                      </row>
                      <row valign="top">
                         <entry colname="c1" morerows="1">
                            <p>Educational Background</p>
                         </entry>
                         <entry colname="c2">
                            <p>Diploma</p>
                         </entry>
                         <entry colname="c3">
                            <p>198</p>
                         </entry>
                         <entry colname="c4">
                            <p>63.3</p>
                         </entry>
                      </row>
                      <row valign="top">
                         <entry colname="c2">
                            <p>Degree and above</p>
                         </entry>
                         <entry colname="c3">
                            <p>115</p>
                         </entry>
                         <entry colname="c4">
                            <p>36.7</p>
                         </entry>
                      </row>
                      <row valign="top">
                         <entry colname="c1" morerows="2">
                            <p>Category of health workers</p>
                         </entry>
                         <entry colname="c2">
                            <p>Physician or HO</p>
                         </entry>
                         <entry colname="c3">
                            <p>59</p>
                         </entry>
                         <entry colname="c4">
                            <p>18.8</p>
                         </entry>
                      </row>
                      <row valign="top">
                         <entry colname="c2">
                            <p>Nurse</p>
                         </entry>
                         <entry colname="c3">
                            <p>175</p>
                         </entry>
                         <entry colname="c4">
                            <p>55.9</p>
                         </entry>
                      </row>
                      <row valign="top">
                         <entry colname="c2">
                            <p>Lab, pharm, or other</p>
                         </entry>
                         <entry colname="c3">
                            <p>79</p>
                         </entry>
                         <entry colname="c4">
                            <p>25.2</p>
                         </entry>
                      </row>
                      <row valign="top">
                         <entry colname="c1" morerows="2">
                            <p>Job location</p>
                         </entry>
                         <entry colname="c2">
                            <p>OPD</p>
                         </entry>
                         <entry colname="c3">
                            <p>118</p>
                         </entry>
                         <entry colname="c4">
                            <p>37.7</p>
                         </entry>
                      </row>
                      <row valign="top">
                         <entry colname="c2">
                            <p>Wards</p>
                         </entry>
                         <entry colname="c3">
                            <p>119</p>
                         </entry>
                         <entry colname="c4">
                            <p>38</p>
                         </entry>
                      </row>
                      <row valign="top">
                         <entry colname="c2">
                            <p>Lab or Pharm</p>
                         </entry>
                         <entry colname="c3">
                            <p>76</p>
                         </entry>
                         <entry colname="c4">
                            <p>24.3</p>
                         </entry>
                      </row>
                      <row valign="top">
                         <entry colname="c1" morerows="2">
                            <p>Years of Service</p>
                         </entry>
                         <entry colname="c2">
                            <p>&lt;10</p>
                         </entry>
                         <entry colname="c3">
                            <p>236</p>
                         </entry>
                         <entry colname="c4">
                            <p>75.4</p>
                         </entry>
                      </row>
                      <row valign="top">
                         <entry colname="c2">
                            <p>10-19</p>
                         </entry>
                         <entry colname="c3">
                            <p>43</p>
                         </entry>
                         <entry colname="c4">
                            <p>13.7</p>
                         </entry>
                      </row>
                      <row valign="top">
                         <entry colname="c2">
                            <p>&gt;/ = 20</p>
                         </entry>
                         <entry colname="c3">
                            <p>34</p>
                         </entry>
                         <entry colname="c4">
                            <p>10.9</p>
                         </entry>
                      </row>
                      <row valign="top">
                         <entry colname="c1" morerows="1">
                            <p>Training on TBIC</p>
                         </entry>
                         <entry colname="c2">
                            <p>No</p>
                         </entry>
                         <entry colname="c3">
                            <p>254</p>
                         </entry>
                         <entry colname="c4">
                            <p>81.2</p>
                         </entry>
                      </row>
                      <row valign="top">
                         <entry colname="c2">
                            <p>Yes</p>
                         </entry>
                         <entry colname="c3">
                            <p>59</p>
                         </entry>
                         <entry colname="c4">
                            <p>18.8</p>
                         </entry>
                      </row>
                   </tbody>
                </tgroup>
             </table>
          
          <sec>
             <st>
                <p>Tuberculosis infection control knowledge and determinants</p>
             </st>
             <p>When assessing TBIC knowledge, 78.3% of the respondents mentioned the need for a TBIC committee. On questions asking them to identify effective TBIC measures, 88.5% identified opening a window; 77.3%, isolation; and 64.5%, minimizing hospital stays. Respondents identified other TBIC measures as well: 34.2% identified use of a respirator by the health worker; 86.3%, educating patients; 75.7%, prioritizing TB suspects; and 71.6% health worker TB screening. Overall, 74.4% of the respondents were found to have good knowledge. On the other hand, only 34.2% of the respondents knew that respirators can provide protection from inhaling <it>mycobacterium tuberculosis</it> (MTB) <it>bacilli</it> and only 46% correctly identified that use of a fan (ventilator) minimizes the risk of TB infection.</p>
             <p>Multivariate logistic regression models that included variables for training on TB, job location, and age category revealed that training is the strongest determinant of knowledge, AOR 3.386 and 95% CI (1.377, 8.330). On the other hand, job location and age category, AOR 0.592 and 95% CI (0.286, 1.223) and 0.913 95% CI (0.649, 1.284), respectively, were not found to be associated with TBIC knowledge in the multivariate models (Table&#160;<tblr tid="T2">2</tblr>). Neither did years of service or education levels show any association with TBIC knowledge.
                  </p>
             
                <table id="T2">
                   <title>
                      <p>Table 2</p>
                   </title>
                   <caption>
                      <p>
                            <b>Multivariate logistic regression of TBIC knowledge using predictor factors identified in univariate logistic regression</b>                          
                      </p>
                   </caption>
                   <tgroup align="left" cols="5">
                      <colspec align="left" colname="c1" colnum="1" colwidth="*"/>
                      <colspec align="left" colname="c2" colnum="2" colwidth="*"/>
                      <colspec align="left" colname="c3" colnum="3" colwidth="*"/>
                      <colspec align="left" colname="c4" colnum="4" colwidth="*"/>
                      <colspec align="left" colname="c5" colnum="5" colwidth="*"/>
                      <thead>
                         <row valign="top">
                            <entry colname="c1">
                               <p>
                                  <b>Characteristics</b>                              
                               </p>
                            </entry>
                            <entry colname="c2">
                               <p>
                                  <b>Poor knowledge</b>                              
                               </p>
                            </entry>
                            <entry colname="c3">
                               <p>
                                  <b>Good knowledge</b>                              
                               </p>
                            </entry>
                            <entry colname="c4">
                               <p>
                                  <b>COR 95% CI</b>                              
                               </p>
                            </entry>
                            <entry colname="c5">
                               <p>
                                  <b>AOR 95% CI</b>                              
                               </p>
                            </entry>
                         </row>
                      </thead>
                      <tfoot>
                         <p>Note: *Significant association.</p>
                      </tfoot>
                      <tbody>
                         <row valign="top">
                            <entry nameend="c5" namest="c1">
                               <p>Age Category</p>
                            </entry>
                         </row>
                         <row valign="top">
                            <entry colname="c1">
                               <p>30-39</p>
                            </entry>
                            <entry colname="c2">
                               <p>25</p>
                            </entry>
                            <entry colname="c3">
                               <p>42</p>
                            </entry>
                            <entry colname="c4">
                               <p>0.486 (0.267, 0.884)*</p>
                            </entry>
                            <entry colname="c5">
                               <p>0.913 (0.649, 1.284)</p>
                            </entry>
                         </row>
                         <row valign="top">
                            <entry colname="c1">
                               <p>18-29</p>
                            </entry>
                            <entry colname="c2">
                               <p>44</p>
                            </entry>
                            <entry colname="c3">
                               <p>152</p>
                            </entry>
                            <entry colname="c4">
                               <p>1</p>
                            </entry>
                            <entry colname="c5">
                               <p>1</p>
                            </entry>
                         </row>
                         <row valign="top">
                            <entry nameend="c5" namest="c1">
                               <p>Job location</p>
                            </entry>
                         </row>
                         <row valign="top">
                            <entry colname="c1">
                               <p>Laboratory and Pharmacy</p>
                            </entry>
                            <entry colname="c2">
                               <p>14</p>
                            </entry>
                            <entry colname="c3">
                               <p>62</p>
                            </entry>
                            <entry colname="c4">
                               <p>2.104 (1.048,4.222)*</p>
                            </entry>
                            <entry colname="c5">
                               <p>0.592 (0.286,1.223</p>
                            </entry>
                         </row>
                         <row valign="top">
                            <entry colname="c1">
                               <p>OPD</p>
                            </entry>
                            <entry colname="c2">
                               <p>38</p>
                            </entry>
                            <entry colname="c3">
                               <p>80</p>
                            </entry>
                            <entry colname="c4">
                               <p>1</p>
                            </entry>
                            <entry colname="c5">
                               <p>1</p>
                            </entry>
                         </row>
                         <row valign="top">
                            <entry nameend="c5" namest="c1">
                               <p>TBIC training</p>
                            </entry>
                         </row>
                         <row valign="top">
                            <entry colname="c1">
                               <p>Yes</p>
                            </entry>
                            <entry colname="c2">
                               <p>6</p>
                            </entry>
                            <entry colname="c3">
                               <p>53</p>
                            </entry>
                            <entry colname="c4">
                               <p>3.613 (1.496, 8.813)*</p>
                            </entry>
                            <entry colname="c5">
                               <p>3.386 (1.377, 8.330)*</p>
                            </entry>
                         </row>
                         <row valign="top">
                            <entry colname="c1">
                               <p>No</p>
                            </entry>
                            <entry colname="c2">
                               <p>74</p>
                            </entry>
                            <entry colname="c3">
                               <p>180</p>
                            </entry>
                            <entry colname="c4">
                               <p>1</p>
                            </entry>
                            <entry colname="c5">
                               <p>1</p>
                            </entry>
                         </row>
                      </tbody>
                   </tgroup>
                </table>
             
          </sec>
          <sec>
             <st>
                <p>Tuberculosis infection control practices and determinants</p>
             </st>
             <p>Questions concerning the health professionals&#8217; TBIC practice revealed that 64.9% (<it>n =</it>&#8201;203) of the respondents do open windows before they start work to improve the natural ventilation of the room. In addition, 71.6% of them educate patients on how to prevent TB infection transmission and 60.7% replied that they get tested for TB when they have symptoms of the disease. Only 21.1% of healthcare workers indicated that they use a mask to protect themselves from TB infection. Finally, 33.5% said they give priority to TB patients, and 39.9% use a fan (ventilator) to augment the natural ventilation. Overall, 198 out of 313 health professionals (63.3%) had &#8220;good&#8221; scores for practice regarding TBIC. The analyses found no significant difference in the proportions of male and female respondents with good TBIC practice (64.1% and 62.5%, respectively), OR 0.935 and 95% CI (0.591, 1.482).</p>
             <p>Multivariate analysis (job location and TBIC knowledge) revealed that knowledge about TBIC was the strong predictor of good TBIC practice, AOR 10.667 and 95% CI (5.769, 19.721) (Table&#160;<tblr tid="T3">3</tblr>).
                  </p>
             
                <table id="T3">
                   <title>
                      <p>Table 3</p>
                   </title>
                   <caption>
                      <p>
                            <b>Multivariate logistic regression of TBIC Practice using predictor factors identified in univariate logistic regression</b>                          
                      </p>
                   </caption>
                   <tgroup align="left" cols="5">
                      <colspec align="left" colname="c1" colnum="1" colwidth="*"/>
                      <colspec align="left" colname="c2" colnum="2" colwidth="*"/>
                      <colspec align="left" colname="c3" colnum="3" colwidth="*"/>
                      <colspec align="left" colname="c4" colnum="4" colwidth="*"/>
                      <colspec align="left" colname="c5" colnum="5" colwidth="*"/>
                      <thead>
                         <row valign="top">
                            <entry colname="c1">
                               <p>
                                  <b>Characteristics</b>                              
                               </p>
                            </entry>
                            <entry colname="c2">
                               <p>
                                  <b>Poor Practice</b>                              
                               </p>
                            </entry>
                            <entry colname="c3">
                               <p>
                                  <b>Good Practice</b>                              
                               </p>
                            </entry>
                            <entry colname="c4">
                               <p>
                                  <b>COR (95% CI)</b>                              
                               </p>
                            </entry>
                            <entry colname="c5">
                               <p>
                                  <b>AOR (95% CI)</b>                              
                               </p>
                            </entry>
                         </row>
                      </thead>
                      <tfoot>
                         <p>Note:*Significant association.</p>
                      </tfoot>
                      <tbody>
                         <row valign="top">
                            <entry nameend="c5" namest="c1">
                               <p>Job location</p>
                            </entry>
                         </row>
                         <row valign="top">
                            <entry colname="c1">
                               <p>Laboratory and Pharmacy</p>
                            </entry>
                            <entry colname="c2">
                               <p>23</p>
                            </entry>
                            <entry colname="c3">
                               <p>53</p>
                            </entry>
                            <entry colname="c4">
                               <p>2.304 (1.255, 4.233)*</p>
                            </entry>
                            <entry colname="c5">
                               <p>1.38 (0.674,2.829)</p>
                            </entry>
                         </row>
                         <row valign="top">
                            <entry colname="c1">
                               <p>Wards</p>
                            </entry>
                            <entry colname="c2">
                               <p>33</p>
                            </entry>
                            <entry colname="c3">
                               <p>86</p>
                            </entry>
                            <entry colname="c4">
                               <p>2.606 (1.519,4.471)*</p>
                            </entry>
                            <entry colname="c5">
                               <p>0.509 (0.257, 1.008)</p>
                            </entry>
                         </row>
                         <row valign="top">
                            <entry colname="c1">
                               <p>OPD</p>
                            </entry>
                            <entry colname="c2">
                               <p>59</p>
                            </entry>
                            <entry colname="c3">
                               <p>59</p>
                            </entry>
                            <entry colname="c4">
                               <p>1</p>
                            </entry>
                            <entry colname="c5">
                               <p>1</p>
                            </entry>
                         </row>
                         <row valign="top">
                            <entry nameend="c5" namest="c1">
                               <p>TBIC Knowledge</p>
                            </entry>
                         </row>
                         <row valign="top">
                            <entry colname="c1">
                               <p>Yes</p>
                            </entry>
                            <entry colname="c2">
                               <p>54</p>
                            </entry>
                            <entry colname="c3">
                               <p>179</p>
                            </entry>
                            <entry colname="c4">
                               <p>10.64 (5.852, 19.35)*</p>
                            </entry>
                            <entry colname="c5">
                               <p>10.667 (5.77,19.72)*</p>
                            </entry>
                         </row>
                         <row valign="top">
                            <entry colname="c1">
                               <p>No</p>
                            </entry>
                            <entry colname="c2">
                               <p>61</p>
                            </entry>
                            <entry colname="c3">
                               <p>19</p>
                            </entry>
                            <entry colname="c4">
                               <p>1</p>
                            </entry>
                            <entry colname="c5">
                               <p>1</p>
                            </entry>
                         </row>
                      </tbody>
                   </tgroup>
                </table>
             
          </sec>
       </sec>
       <sec>
          <st>
             <p>Discussion</p>
          </st>
          <p>A majority of the respondents were found to score &#8220;good&#8221; on TBIC knowledge and practice. In addition to the good overall knowledge about TBIC, the respondents also demonstrated good knowledge about the need for an infection prevention (IP) committee to implement TBIC activities, window opening, patient isolation, and patient education. Furthermore, most of the respondents saw the need to prioritize TB patients to minimize hospital stay and the need for healthcare worker screening to quickly detect TB infection. These positive findings may be attributable to the dissemination of TBIC guidelines, trainings, and supportive supervisions by the national and regional TB control programs as well as the support from nongovernmental organizations working on TBIC.</p>
          <p>The lower knowledge level regarding respirators and the use of fans may be attributable to unavailability of this equipment in the respective health facilities. Those who use respirators and fans probably received them from organizations working in partnership with the government on TBIC.</p>
          <p>The proportion of TBIC knowledge questions answered correctly for all participating health professionals was 70%. On this measure, health workers&#8217; knowledge was higher than that reported from the United States (median 55%) <abbrgrp>
                <abbr bid="B13">13</abbr>
             </abbrgrp>. Eighty-six percent of the respondents in our study knew that educating patients on cough etiquette is important. This finding is in line with a report from the United States <abbrgrp>
                <abbr bid="B14">14</abbr>
             </abbrgrp>. Knowledge levels in our study that are similar to or higher than those reported by healthcare workers in the United States could be explained by the high TB patient load in the study hospitals: The frequent exposure respondents in our study have to TB cases provides frequent opportunities to learn about TB treatment and prevention.</p>
          <p>Of the health professionals in our study, 74.4% scored &#8220;good&#8221; knowledge in TBIC. This was better than rates reported from Russia (&#8220;overall scores were low&#8221;) <abbrgrp>
                <abbr bid="B15">15</abbr>
             </abbrgrp> and the Philippines (misunderstanding of TB infection transmission despite high magnitude of TB in the general population) <abbrgrp>
                <abbr bid="B16">16</abbr>
             </abbrgrp>. On the other hand, proportions of healthcare workers with &#8220;good&#8221; knowledge from Iraq (95.5%) <abbrgrp>
                <abbr bid="B17">17</abbr>
             </abbrgrp>, Saudi Arabia (81.8%), and Bangkok (85%) are higher than ours <abbrgrp>
                <abbr bid="B18">18</abbr>
             </abbrgrp>,<abbrgrp>
                <abbr bid="B19">19</abbr>
             </abbrgrp>. Explaining this knowledge difference is generally difficult; however, variations in the rates of &#8220;good&#8221; knowledge across countries could be attributed to the different settings and methodologies used by different studies.</p>
          <p>TBIC knowledge was not found in our study to have any association with years of service, unlike the findings from Iraq <abbrgrp>
                <abbr bid="B17">17</abbr>
             </abbrgrp>. Only 18.8% of the respondents were found trained on TBIC. This is contradictory to the recommendation on giving training on TBIC before the initial assignment of each health worker to any unit in the health facilities <abbrgrp>
                <abbr bid="B8">8</abbr>
             </abbrgrp>.</p>
          <p>Training was found to have a statistically significant association with TBIC knowledge--OR 3.631 and 95% CI (1.496, 8.813). This was not the case in studies from the United States (on medical residents) <abbrgrp>
                <abbr bid="B13">13</abbr>
             </abbrgrp> and Australia (on new graduate nurses) <abbrgrp>
                <abbr bid="B20">20</abbr>
             </abbrgrp>. We found no significant differences in knowledge by category of healthcare workers, whereas in a study of Russian health workers physicians scored significantly higher than nurses and laboratory staff <abbrgrp>
                <abbr bid="B15">15</abbr>
             </abbrgrp>. In our study a higher proportion of the respondents (91.4%) trained on TBIC responded as having contact with TB patients/suspected cases, while a study in South Africa found the opposite <abbrgrp>
                <abbr bid="B21">21</abbr>
             </abbrgrp>.</p>
          <p>Our findings also revealed that only 34.2% of the healthcare professionals felt that a respirator should be worn to prevent TB infection transmission; this is far below what is reported from the United States (65% of those with no TB patient contact and 88% of those with patient contact) <abbrgrp>
                <abbr bid="B14">14</abbr>
             </abbrgrp>. The unavailability of respirators in our context is the most likely reason for the reportedly low levels of this practice.</p>
          <p>While training on TBIC was significantly associated with window opening and getting tested for TB when exposed to TB, it was not found to be a predictor of the other specific practice questions or of overall TBIC practice. This finding is contradictory to the report from Australia <abbrgrp>
                <abbr bid="B20">20</abbr>
             </abbrgrp>. The lack of association between training and practice may be due to an emphasis on the theoretical aspects of training rather than skill-based components. Similarly, though we found statistically significant differences in window opening practices between those trained on TBIC and those not, OR 1.9 and 95% CI (1.02, 3.75), there were no significant differences in other standard IP practices (educating patients on cough etiquette, giving priority to suspected cases of TB) by training. This indicates that the basic minimum practice for healthcare facilities caring for patients suspected of air born diseases (including TB) is not in line with recommendations <abbrgrp>
                <abbr bid="B8">8</abbr>
             </abbrgrp>,<abbrgrp>
                <abbr bid="B22">22</abbr>
             </abbrgrp>. The Ethiopian TBIC guidelines clearly state that healthcare providers should triage and fast-track TB suspected cases, educate on cough etiquette, improve the cross ventilation of the room by opening windows, adjust seating arrangements, isolate TB suspected cases in the waiting area and wards, provide ambulatory management, conduct routine TB screening, follow up on TBIC activity implementation by the IP committee, and use respirators and fans to minimize TB infection <abbrgrp>
                <abbr bid="B8">8</abbr>
             </abbrgrp>.</p>
          <p>Overall, 63.3% of the respondents scored &#8220;good&#8221; practice, where the median percent of TBIC practice questions correctly answered was 50%. This is much better than what is reported from Iraq (38.2%) <abbrgrp>
                <abbr bid="B17">17</abbr>
             </abbrgrp>. However, a study from Bangkok revealed that all of the IP committee members and 85% of the hospital personnel attempted to implement TBIC measures <abbrgrp>
                <abbr bid="B18">18</abbr>
             </abbrgrp>.</p>
          <p>Concerning specific practices, 21.8%, 32.3%, 44.2%, 40.8%, 30.2%, and 39.4% of the health professionals working in the outpatient department (OPD), TB/HIV clinic, medical ward, other wards, laboratory, and pharmacy, respectively, prioritize TB patients. This is much lower than what is observed from Bangkok <abbrgrp>
                <abbr bid="B18">18</abbr>
             </abbrgrp>. Mask usage is reported by only 21.1% of the respondents, which is much lower than that reported from Bangkok <abbrgrp>
                <abbr bid="B18">18</abbr>
             </abbrgrp> and South Africa <abbrgrp>
                <abbr bid="B21">21</abbr>
             </abbrgrp>. The difference in these findings may be attributed to the unavailability of the masks. Window opening is practiced by the majority (64.9%) of respondents; this is much better than findings from the Philippines (39%) <abbrgrp>
                <abbr bid="B23">23</abbr>
             </abbrgrp>. Nurses, pharmacy health professionals, and laboratory professionals are found to be better than physicians and health officers in giving priority for TB patients; however, it is not statistically significant, unlike the finding in Saudi Arabia <abbrgrp>
                <abbr bid="B19">19</abbr>
             </abbrgrp>.</p>
          <p>In contrast to the high scores under each knowledge question, a majority of the health professionals did not demonstrate appropriate TBIC practice; only 21% use masks, 33.5% prioritize TB patients, and 39.9% use a fan (ventilator). The discrepancy between healthcare workers&#8217; knowledge on the one hand and practice on the other is probably attributed to shortage or unavailability of supplies like fans (ventilators) and respirators (masks). Hence, health care workers have not had opportunities to put their knowledge into practice in an effective way.</p>
          <p>Working in the wards, pharmacy, and laboratory were significant predictors of good practice compared to working in the outpatient department. This could probably be due to exposure of suspected or confirmed cases of TB patients coming to each of these units. TB suspects or cases come to these units for inpatient management, to get a sputum examination done, and to collect drugs for respiratory tract infections with documents indicating TB. These documents (patient chart, sputum laboratory request paper, and prescription papers) bring the issue of TB infection transmission to the attention of the healthcare workers in these units and alert them to be vigilant in IP. On the other hand, patients come to the outpatient clinics with numerous complaints, and only after a full clinical evaluation will suspicion of TB come to mind. By then, it is already too late to implement good TBIC measures.</p>
          <p>The findings of this research were in line with what one may expect under each TBIC practice question: Health professionals with good TBIC knowledge were more likely to implement the TBIC practices compared to those with poor knowledge, OR 10.6 and 95% CI (5.8, 19.3).</p>
          <p>In this study, though univariate regression showed mulitple predictor variables, AOR revealed that training is the only statistically significant determinant of TBIC knowledge. Similarly, multivariate logistic regression revealed that good TBIC knowledge is a strong determinant for good TBIC practice.</p>
          <sec>
             <st>
                <p>Limitations of the study</p>
             </st>
             <p>There is limitated reference material available to compare our study with other studies done in similar settings.</p>
             <p>Observing practices may produce more accurate results than asking about practices in a questionnaire, but this study did not include observation as a data collection method.</p>
          </sec>
       </sec>
       <sec>
          <st>
             <p>Conclusions</p>
          </st>
          <p>A majority of the respondents were found to have good TBIC knowledge and practice. Training on TBIC appears to be a strong determinant of knowledge of TBIC, while knowledge of TBIC was a strong predictor of good TBIC practice.</p>
          <p>On the other hand, training on TBIC on its own did not appear to have any positive influence on TBIC practice. This could be due to emphasis given to the theoretical aspects of training rather than skill-based components. Training healthcare professionals with emphasis on skills rather than theory is vital to strengthening the implementation of TBIC activities. The relatively low level of knowledge regarding respirators and fans/ventilators is probably due to the unavailability of these supplies, hence the availability of these supplies can improve their utilization and TBIC practice overall. Further research to investigate the reasons why training is not associated with better practice is recommended (Additional file <supplr sid="S1">1</supplr>).</p></sec>
       <sec>
          <st>
             <p>Competing interests</p>
          </st>
          <p>The authors declare that they have no competing interests.</p>
       </sec>
       <sec>
          <st>
             <p>Authors&#8217; contributions</p>
          </st>
          <p>The corresponding author is the principal investigator who worked on the study from the proposal writing through the paper write-up. The co-author played a significant role during the whole process. Both authors read and approved the final manuscript.</p>
       </sec>
       <sec>
          <st>
             <p>Additional file</p>
          </st>
          <suppl id="S1">
             <title>
                <p>Additional file 1</p>
             </title>
             <text>
                <p>
                              <b>Structured Questionnaire with consent form for the Assessment of TB Infection Control knowledge and Practice by Health Care Workers in North West Ethiopia; 2011.</b>                            
                </p>
             </text>
             <file name="s12913-014-0593-2-S1.doc">
                <p>Click here for file</p>
             </file>
          </suppl>
          <p>
                    
                  </p>
       </sec>
    </bdy>
    <bm>
       <ack>
          <sec>
             <st>
                <p>Acknowledgement</p>
             </st>
             <p>We thank the Amhara Regional Health Bureau and the study hospitals for giving permission to conduct the study and for their cooperation during the process of data collection. Our thanks also go to the study participants in the study hospitals, who devoted their time to give valuable information. Special thanks to Judy Meiksine and Rebecca Meiksine for the unreserved English editorial support they provided to us.</p>
          </sec>
       </ack>
       <refgrp>
          
          <bibl id="B1">
             <note>World Health Organization: <it>Policy on TB Infection Controls in Health-Care Facilities, Congregate Settings and Households</it>, WHO/HTM/TB/2009.419. WHO, 20 Avenue Appia, 1211 Geneva 27, Switzerland.</note>
          </bibl>
          <bibl id="B2">
             <title>
                <p>Tuberculosis Infection Control in Healthcare Settings</p>
             </title>
             <aug>
                <au>
                   <snm>Blumberg</snm>
                   <fnm>HM</fnm>
                </au>
             </aug>
             <source>Practical Handbook for Healthcare Epidemiologists</source>
             <publisher>Slack Incorporated, New Jersey</publisher>
             <editor>Lautenbach E, Woeltje K</editor>
             <pubdate>2004</pubdate>
             <fpage>259</fpage>
             <lpage>273</lpage>
          </bibl>
          <bibl id="B3">
             <title>
                <p>Guidelines for preventing the transmission of mycobacterium tuberculosis in health-care settings, 2005</p>
             </title>
             <source>MMWR Recomm Rep</source>
             <pubdate>2005</pubdate>
             <volume>54</volume>
             <issue>17</issue>
             <fpage>1</fpage>
             <lpage>141</lpage>
          </bibl>
          <bibl id="B4">
             <note>Joshi R, Reingold AL, Menzies D, Pai M: <b>Tuberculosis among health-care workers in low- and middle-income countries: a systematic review.</b> 
                <it>PLoS Med</it> 2006, <b>3</b>(12):e494.</note>
          </bibl>
          <bibl id="B5">
             <title>
                <p>Risk of tuberculosis infection and disease associated with work in health care settings</p>
             </title>
             <aug>
                <au>
                   <snm>Menzies</snm>
                   <fnm>D</fnm>
                </au>
                <au>
                   <snm>Joshi</snm>
                   <fnm>R</fnm>
                </au>
                <au>
                   <snm>Pai</snm>
                   <fnm>M</fnm>
                </au>
             </aug>
             <source>Int J Tuberc Lung Dis</source>
             <pubdate>2007</pubdate>
             <volume>11</volume>
             <issue>6</issue>
             <fpage>593</fpage>
             <lpage>605</lpage>
             <xrefbib>
                <pubidlist>
                   <pubid idtype="pmpid" link="fulltext">17519089</pubid>
                </pubidlist>
             </xrefbib>
          </bibl>
          <bibl id="B6">
             <note>Cuhadaroglu C, Erelel M, Tabak L, Kilicaslan Z: <b>Increased risk of tuberculosis in health care workers: a retrospective survey at a teaching hospital in Istanbul, Turkey.</b> 
                <it>BMC Infect Dis</it> 2002, <b>2:</b>14.</note>
          </bibl>
          <bibl id="B7">
             <title>
                <p>Assessing the risk of tuberculosis infection among healthcare workers: the Melbourne mantoux study. Melbourne mantoux study group</p>
             </title>
             <aug>
                <au>
                   <snm>Stuart</snm>
                   <fnm>RL</fnm>
                </au>
                <au>
                   <snm>Bennett</snm>
                   <fnm>NJ</fnm>
                </au>
                <au>
                   <snm>Forbes</snm>
                   <fnm>AB</fnm>
                </au>
                <au>
                   <snm>Grayson</snm>
                   <fnm>ML</fnm>
                </au>
             </aug>
             <source>Med J Aust</source>
             <pubdate>2001</pubdate>
             <volume>174</volume>
             <issue>11</issue>
             <fpage>569</fpage>
             <lpage>573</lpage>
             <xrefbib>
                <pubidlist>
                   <pubid idtype="pmpid" link="fulltext">11453329</pubid>
                </pubidlist>
             </xrefbib>
          </bibl>
          <bibl id="B8">
             <source>Guideline for the Prevention of Transmission of Tuberculosis in Health Care Facilities, Congregate and Community Setting in Ethiopia</source>
             <publisher>Federal Ministry of Health, Ethiopia</publisher>
             <pubdate>2009</pubdate>
          </bibl>
          <bibl id="B9">
             <source>Guidelines for the prevention of tuberculosis in health care facilities in resource-limited settings</source>
             <publisher>WHO, Geneva</publisher>
             <pubdate>1999</pubdate>
          </bibl>
          <bibl id="B10">
             <title>
                <p>Preventing the nosocomial transmission of tuberculosis</p>
             </title>
             <aug>
                <au>
                   <snm>Blumberg</snm>
                   <fnm>HM</fnm>
                </au>
                <au>
                   <snm>Watkins</snm>
                   <fnm>DL</fnm>
                </au>
                <au>
                   <snm>Berschling</snm>
                   <fnm>JD</fnm>
                </au>
                <au>
                   <snm>Antle</snm>
                   <fnm>A</fnm>
                </au>
                <au>
                   <snm>Moore</snm>
                   <fnm>P</fnm>
                </au>
                <au>
                   <snm>White</snm>
                   <fnm>N</fnm>
                </au>
                <au>
                   <snm>Hunter</snm>
                   <fnm>M</fnm>
                </au>
                <au>
                   <snm>Green</snm>
                   <fnm>B</fnm>
                </au>
                <au>
                   <snm>Ray</snm>
                   <fnm>SM</fnm>
                </au>
                <au>
                   <snm>McGowan</snm>
                   <fnm>JE</fnm>
                   <suf>Jr</suf>
                </au>
             </aug>
             <source>Ann Intern Med</source>
             <pubdate>1995</pubdate>
             <volume>122</volume>
             <fpage>658</fpage>
             <lpage>663</lpage>
             <xrefbib>
                <pubidlist>
                   <pubid idtype="doi">10.7326/0003-4819-122-9-199505010-00003</pubid>
                   <pubid idtype="pmpid" link="fulltext">7702227</pubid>
                </pubidlist>
             </xrefbib>
          </bibl>
          <bibl id="B11">
             <title>
                <p>Diagnostic evaluation of pulmonary tuberculosis: what do doctors of modern medicine do in India?</p>
             </title>
             <aug>
                <au>
                   <snm>Prasad</snm>
                   <fnm>R</fnm>
                </au>
                <au>
                   <snm>Nautiyal</snm>
                   <fnm>RG</fnm>
                </au>
                <au>
                   <snm>Mukherji</snm>
                   <fnm>PK</fnm>
                </au>
                <au>
                   <snm>Jain</snm>
                   <fnm>A</fnm>
                </au>
                <au>
                   <snm>Singh</snm>
                   <fnm>K</fnm>
                </au>
                <au>
                   <snm>Ahuja</snm>
                   <fnm>RC</fnm>
                </au>
             </aug>
             <source>Int J Tuberc Lung Dis</source>
             <pubdate>2003</pubdate>
             <volume>7</volume>
             <fpage>52</fpage>
             <lpage>57</lpage>
             <xrefbib>
                <pubidlist>
                   <pubid idtype="pmpid" link="fulltext">12701835</pubid>
                </pubidlist>
             </xrefbib>
          </bibl>
          <bibl id="B12">
             <title>
                <p>A survey of tuberculosis hospitals in India</p>
             </title>
             <aug>
                <au>
                   <snm>Singh</snm>
                   <fnm>AA</fnm>
                </au>
                <au>
                   <snm>Frieden</snm>
                   <fnm>TR</fnm>
                </au>
                <au>
                   <snm>Khatri</snm>
                   <fnm>GR</fnm>
                </au>
                <au>
                   <snm>Garg</snm>
                   <fnm>R</fnm>
                </au>
             </aug>
             <source>Int J Tuberc Lung Dis</source>
             <pubdate>2004</pubdate>
             <volume>8</volume>
             <fpage>1255</fpage>
             <lpage>1259</lpage>
             <xrefbib>
                <pubidlist>
                   <pubid idtype="pmpid" link="fulltext">15527159</pubid>
                </pubidlist>
             </xrefbib>
          </bibl>
          <bibl id="B13">
             
                <url>http://www.biomedcentral.com/1471-2334/7/89</url>
             
<note>Petros CK, Frangiscos GS, Ruben MO, Valerianna CA, Kathleen RP, Yukari CM, James DC: <b>U.S. medical resident familiarity with national tuberculosis guidelines.</b> 
                <it>BMC Infect Dis</it> 2007, <b>7:</b>89. doi:10.1186/1471-2334-7-89. . Accessed on May 12/2010.</note>
          </bibl>
          <bibl id="B14">
             <title>
                <p>Knowledge of the transmission of tuberculosis and infection control measures for tuberculosis among healthcare workers. &#8211; Lai KK</p>
             </title>
             <aug>
                <au>
                   <snm>Lai</snm>
                   <fnm>KK</fnm>
                </au>
                <au>
                   <snm>Fontecchio</snm>
                   <fnm>SA</fnm>
                </au>
                <au>
                   <snm>Kelley</snm>
                   <fnm>AL</fnm>
                </au>
                <au>
                   <snm>Melvin</snm>
                   <fnm>ZS</fnm>
                </au>
             </aug>
             <source>Infect Control Hosp Epidemiol</source>
             <pubdate>1996</pubdate>
             <volume>17</volume>
             <issue>3</issue>
             <fpage>168</fpage>
             <lpage>170</lpage>
             <xrefbib>
                <pubidlist>
                   <pubid idtype="doi">10.2307/30142376</pubid>
                   <pubid idtype="pmpid" link="fulltext">8708355</pubid>
                </pubidlist>
             </xrefbib>
          </bibl>
          <bibl id="B15">
             <title>
                <p>Russian health care workers&#8217; knowledge of tuberculosis and infection control [Notes from the field]</p>
             </title>
             <aug>
                <au>
                   <snm>Woith</snm>
                   <fnm>WM</fnm>
                </au>
                <au>
                   <snm>Volchenkov</snm>
                   <fnm>G</fnm>
                </au>
                <au>
                   <snm>Larson</snm>
                   <fnm>JL</fnm>
                </au>
             </aug>
             <source>Int J Tuberc Lung Dis</source>
             <pubdate>2010</pubdate>
             <volume>14</volume>
             <issue>11</issue>
             <fpage>1489</fpage>
             <lpage>1492</lpage>
             <xrefbib>
                <pubidlist>
                   <pubid idtype="pmpid" link="fulltext">20937192</pubid>
                </pubidlist>
             </xrefbib>
          </bibl>
          <bibl id="B16">
             <title>
                <p>Knowledge, attitudes and practices for tuberculosis among Filipino family physicians: a comparative analysis by practice setting and location</p>
             </title>
             <aug>
                <au>
                   <snm>Manalo</snm>
                   <fnm>MFC</fnm>
                </au>
                <au>
                   <snm>Pineda</snm>
                   <fnm>AV</fnm>
                </au>
                <au>
                   <snm>Montoya</snm>
                   <fnm>JC</fnm>
                </au>
             </aug>
             <source>Phil J Microbiol Infect Dis</source>
             <pubdate>1998</pubdate>
             <volume>27</volume>
             <issue>1</issue>
             <fpage>6</fpage>
             <lpage>12</lpage>
          </bibl>
          <bibl id="B17">
             <note>Hashim DS, Al Kubaisy W, Al Dulayme A: <b>Knowledge, attitudes and practices survey among health care workers and tuberculosis patients in Iraq.</b> 
                <it>La Revue de Sant&#233; de la M&#233;diterran&#233;e orientale</it> 2003, <b>9:</b>4.</note>
          </bibl>
          <bibl id="B18">
             <title>
                <p>Assessment of infection control knowledge, attitude and practice among healthcare workers during the Hajj period of the Islamic year 1423 (2003)</p>
             </title>
             <aug>
                <au>
                   <snm>Ghabrah</snm>
                   <fnm>TM</fnm>
                </au>
                <au>
                   <snm>Madani</snm>
                   <fnm>TA</fnm>
                </au>
                <au>
                   <snm>Albarrak</snm>
                   <fnm>AM</fnm>
                </au>
                <au>
                   <snm>Alhazmi</snm>
                   <fnm>MA</fnm>
                </au>
                <au>
                   <snm>Alazraqi</snm>
                   <fnm>TA</fnm>
                </au>
                <au>
                   <snm>Alhudaithi</snm>
                   <fnm>MA</fnm>
                </au>
                <au>
                   <snm>Ishaq</snm>
                   <fnm>AH</fnm>
                </au>
             </aug>
             <source>Scand J Infect Dis</source>
             <pubdate>2007</pubdate>
             <volume>39</volume>
             <issue>11 &amp; 12</issue>
             <fpage>1018</fpage>
             <lpage>1024</lpage>
             <xrefbib>
                <pubidlist>
                   <pubid idtype="doi">10.1080/00365540701466173</pubid>
                   <pubid idtype="pmpid" link="fulltext">17852933</pubid>
                </pubidlist>
             </xrefbib>
          </bibl>
          <bibl id="B19">
             <note>Luksamijarulkul P, Supapvanit C, Loosereewanich P, Aiumlaor P: <b>Risk assessment towards tuberculosis among hospital personnel: administrative control, risk exposure, use of protective barriers and microbial air quality.</b> 
                <it>Southeast Asian J Trop Med Public Health</it> 2004, <b>35:</b>4.</note>
          </bibl>
          <bibl id="B20">
             <title>
                <p>New graduate nurses and infection control: knowledge versus practice</p>
             </title>
             <aug>
                <au>
                   <snm>Friedewald</snm>
                   <fnm>M</fnm>
                </au>
                <au>
                   <snm>Elwin</snm>
                   <fnm>C</fnm>
                </au>
             </aug>
             <source>Aust Infect Control</source>
             <pubdate>2003</pubdate>
             <volume>8</volume>
             <issue>1</issue>
             <fpage>21</fpage>
             <lpage>27</lpage>
             <note>doi:10.1071/HI03021</note>
          </bibl>
          <bibl id="B21">
             <title>
                <p>Knowledge, attitudes, behavior and prevalence of TB infection among dentists in the Western Cape</p>
             </title>
             <aug>
                <au>
                   <snm>Naidoo</snm>
                   <fnm>S</fnm>
                </au>
                <au>
                   <snm>Mahommed</snm>
                   <fnm>A</fnm>
                </au>
             </aug>
             <source>SADJ</source>
             <pubdate>2002</pubdate>
             <volume>57</volume>
             <issue>11</issue>
             <fpage>476</fpage>
             <lpage>478</lpage>
             <xrefbib>
                <pubidlist>
                   <pubid idtype="pmpid" link="fulltext">12674868</pubid>
                </pubidlist>
             </xrefbib>
          </bibl>
          <bibl id="B22">
             <title>
                <p>Tuberculosis: infection control/exposure control issues for oral healthcare workers. 22-</p>
             </title>
             <aug>
                <au>
                   <snm>Porteous</snm>
                   <fnm>NB</fnm>
                </au>
                <au>
                   <snm>Terezhalmy</snm>
                   <fnm>GT</fnm>
                </au>
             </aug>
             <source>J Contemp Dent Pract</source>
             <pubdate>2008</pubdate>
             <volume>9</volume>
             <issue>1</issue>
             <fpage>1</fpage>
             <lpage>13</lpage>
             <xrefbib>
                <pubidlist>
                   <pubid idtype="pmpid" link="fulltext">18176643</pubid>
                </pubidlist>
             </xrefbib>
          </bibl>
          <bibl id="B23">
             <note>Yu CT, Zantua RR, Sto. Tomas LJH: <b>Pulmonary tuberculosis: knowledge, attitudes and practices of selected physicians in a tertiary-care hospital. Philippines.</b> 
                <it>J Microbiol Infect Dis</it> 2002.</note>
          </bibl>
       </refgrp>
    </bm>
 </art>
