<art>
    <ui>s12917-014-0239-y</ui>
    <ji>1746-6148</ji>
    <fm>
       <dochead>Research article</dochead>
       <bibl>
          <title>
             <p>Prevalence of porcine cysticercosis in the Lake Kyoga Basin, Uganda</p>
          </title>
          <aug>
             <au id="A1" ca="yes">
                <snm>Nsadha</snm>
                <fnm>Zachary</fnm>
                <insr iid="I1"/>
                <email>znsadhansadha@gmail.com</email>
             </au>
             <au id="A2">
                <snm>Thomas</snm>
                <mi>F</mi>
                <fnm>Lian</fnm>
                <insr iid="I2"/>
                <insr iid="I3"/>
                <email>lian.thomas@zoonotic-diseases.org</email>
             </au>
             <au id="A3">
                <snm>F&#232;vre</snm>
                <mi>M</mi>
                <fnm>Eric</fnm>
                <insr iid="I3"/>
                <insr iid="I4"/>
                <email>Eric.Fevre@liverpool.ac.uk</email>
             </au>
             <au id="A4">
                <snm>Nasinyama</snm>
                <fnm>George</fnm>
                <insr iid="I1"/>
                <email>gnasinyama@yahoo.co</email>
             </au>
             <au id="A5">
                <snm>Ojok</snm>
                <fnm>Lonzy</fnm>
                <insr iid="I1"/>
                <email>lonzy@vetmed.mak.ac.ug</email>
             </au>
             <au id="A6">
                <snm>Waiswa</snm>
                <fnm>Charles</fnm>
                <insr iid="I5"/>
                <email>hhsltd@yahoo.com</email>
             </au>
          </aug>
          <insg>
             <ins id="I1">
                <p>School of Veterinary Medicine and Animal Resources, Makerere University, Kampala, Uganda</p>
             </ins>
             <ins id="I2">
                <p>Centre for Immunity, Infection and Evolution, Institute for Immunology and Infection Research, School of Biological Sciences, University of Edinburgh, West Mains rd, Edinburgh EH9 3JT, UK</p>
             </ins>
             <ins id="I3">
                <p>International Livestock Research Institute, Nairobi 00100, Kenya</p>
             </ins>
             <ins id="I4">
                <p>Institute of Infection and Global Health, University of Liverpool, Leahurst Campus, Neston CH64 7TE, UK</p>
             </ins>
             <ins id="I5">
                <p>Coordinating Office for Control of Trypanosomiasis in Uganda, Wandegeya, Uganda</p>
             </ins>
          </insg>
          <source>BMC Veterinary Research</source>
          <issn>1746-6148</issn>
          <pubdate>2014</pubdate>
          <volume>10</volume>
          <issue>1</issue>
          <fpage>239</fpage>
          <url>http://www.biomedcentral.com/1746-6148/10/239</url>
          <xrefbib>
             <pubidlist>
                <pubid idtype="doi">10.1186/s12917-014-0239-y</pubid>
                <pubid idtype="pmpid"><!-- Need to check source for data--></pubid>
             </pubidlist>
          </xrefbib>
       </bibl>
       <history>
          <rec>
             <date>
                <day>7</day>
                <month>10</month>
                <year>2013</year>
             </date>
          </rec>
          <acc>
             <date>
                <day>23</day>
                <month>9</month>
                <year>2014</year>
             </date>
          </acc>
          <pub>
             <date>
                <day>5</day>
                <month>10</month>
                <year>2014</year>
             </date>
          </pub>
       </history>
       <cpyrt>
          <year>2014</year>
          <collab>Nsadha et al.; licensee BioMed Central Ltd.</collab>
          <note>This is an Open Access article distributed under the terms of the Creative Commons Attribution License (<url>http://creativecommons.org/licenses/by/4.0</url>), which permits unrestricted use, distribution, and reproduction in any medium, provided the original work is properly credited. The Creative Commons Public Domain Dedication waiver (<url>http://creativecommons.org/publicdomain/zero/1.0/</url>) applies to the data made available in this article, unless otherwise stated.</note>
       </cpyrt>
       <kwdg>
          <kwd>Taenia solium</kwd>
          <kwd>Cysticercosis</kwd>
          <kwd>Public health</kwd>
          <kwd>Zoonoses</kwd>
          <kwd>Helminths</kwd>
          <kwd>Neurocysticercosis</kwd>
          <kwd>Prevalence</kwd>
          <kwd>East Africa</kwd>
          <kwd>Lake Kyoga Basin</kwd>
       </kwdg>
       <abs>
          <sec>
             <st>
                <p>Abstract</p>
             </st>
             <sec>
                <st>
                   <p>Background</p>
                </st>
                <p>
                   <it>Taenia solium</it> is a zoonotic helminth with the potential to cause life threatening epilepsy in people through the aberrant larval infection of the brain called Neurocysticercosis (NCC). The pig is the intermediate host for <it>T. solium</it> where the larval form, cysticercus cellulosae, normally develops after the pig eats eggs of the parasite. Humans are the definitive host where the adult tapeworm develops and are infected through the consumption of poorly cooked, infected meat. <it>T. solium</it> has been acknowledged by the World Health Organization (WHO), Food and Agriculture Organization (FAO) and UK Department for International Development (DFID) as being a neglected zoonotic disease, and was recently included in the WHO roadmap for control of neglected tropical diseases. This neglect encompasses a lack of epidemiological data and a lack of validated, effective control strategies being adopted. Understanding the epidemiology of this parasite in the intermediate host is the first step towards designing suitable intervention strategies for the improvement of public health. This study was undertaken to provide an accurate and up-to-date estimate for the prevalence of porcine cysticercosis in the Lake Kyoga basin.</p>
             </sec>
             <sec>
                <st>
                   <p>Results</p>
                </st>
                <p>Sera from 378 pigs were analysed with the HP10 Antigen Enzyme Linked Immunosorbant Assay (ELISA) and the prevalence was found to be 25.7% (95% confidence interval 21.0% to 30.0%). Previous sero- surveillance in this region, using the B158/B60 Ag Elisa had indicated a prevalence of 8.6% in 2005 indicating a dramatic increase in prevalence (J. Parasitol Res, Article ID 375493, 2009) within a 6&#160;year period.</p>
             </sec>
             <sec>
                <st>
                   <p>Conclusion</p>
                </st>
                <p>This increasing prevalence in the disease indicates to us that there is currently no effective control of this parasite and that in this region of Uganda at least; cysticercosis remains a neglected zoonotic disease.</p>
             </sec>
          </sec>
       </abs>
    </fm>
    <bdy>
       <sec>
          <st>
             <p>1
 						Background</p>
          </st>
          <p>In Uganda pig farming is an increasingly popular source of livelihoods <abbrgrp>
                <abbr bid="B1">1</abbr>
             </abbrgrp> and the population of pigs has increased from 1.7 million in 2003 to 3.2 million 2009 <abbrgrp>
                <abbr bid="B2">2</abbr>
             </abbrgrp>,<abbrgrp>
                <abbr bid="B3">3</abbr>
             </abbrgrp>. There is a deliberate effort by the government of Uganda to encourage pig farming in poor rural communities throughPrograms like National Agricultural Advisory Services (NAADS; <url>www.naads.or.ug</url>). The popularity of pig farming is partially due to the ability of farmers to keep pigs under minimal input systems, allowing pigs to range freely, thereby exploiting the scavenging nature of the animals to feed them cheaply. Despite the economic opportunities which these low-input systems provide, pigs that are kept under a free range system are at high risk of acquiring a range of diseases. These diseases can either be production limiting, such as the helminths <it>Ascaris suis</it> and <it>Trichuris suis</it>
             <abbrgrp>
                <abbr bid="B4">4</abbr>
             </abbrgrp>,<abbrgrp>
                <abbr bid="B5">5</abbr>
             </abbrgrp> or the highly pathogenic virus causing African swine fever <abbrgrp>
                <abbr bid="B6">6</abbr>
             </abbrgrp>, or have serious public health consequences, such as Trichenellosis <abbrgrp>
                <abbr bid="B7">7</abbr>
             </abbrgrp>, Toxoplasmosis <abbrgrp>
                <abbr bid="B8">8</abbr>
             </abbrgrp> and, of specific interest to this study, cysticercosis caused by the zoonotic helminth <it>Taenia solium</it>
             <abbrgrp>
                <abbr bid="B9">9</abbr>
             </abbrgrp>,<abbrgrp>
                <abbr bid="B10">10</abbr>
             </abbrgrp>.</p>
          <p>Cysticercus cellulosae is the larval stage of <it>T. solium</it> found in the pig. The infection is contracted by pig when they either ingest human faeces containing infective eggs, or when feeding on pasture contaminated with <it>T. solium</it> eggs <abbrgrp>
                <abbr bid="B11">11</abbr>
             </abbrgrp>. In people who consume raw or inadequately cooked pork from infected animals, the larval cysts can develop into the adult stage tapeworm in their intestine, an infection known as taeniasis. Gravid proglottids containing infective eggs detach from the adult tapeworm and are excreted in the faeces in an intermittent fashion <abbrgrp>
                <abbr bid="B12">12</abbr>
             </abbrgrp>. In areas where open defecation is common, the feacal material containing these infective eggs are again accessible for consumption by pigs and the life-cycle is perpetuated <abbrgrp>
                <abbr bid="B13">13</abbr>
             </abbrgrp>,<abbrgrp>
                <abbr bid="B14">14</abbr>
             </abbrgrp>.</p>
          <p>Humans can also act as an aberrant intermediate host for <it>T. solium</it> if there is faecal-oral contamination with the infective eggs. In such cases the larval stage can be found in human muscle, eye or central nervous system causing human cysticercosis <abbrgrp>
                <abbr bid="B15">15</abbr>
             </abbrgrp>. The most serious form of human cysticercosis is when the larval form develops in the brain, a condition called neurocysticercosis. Neurocysticercosis is major cause of adulthood acquired epilepsy <abbrgrp>
                <abbr bid="B16">16</abbr>
             </abbrgrp>, making <it>T. solium</it> a great public health risk in endemic communities <abbrgrp>
                <abbr bid="B17">17</abbr>
             </abbrgrp>.</p>
          <p>Key risk factors for porcine cysticercosis are present in the Lake Kyoga basin, a region of central Uganda supporting a significant rural population, as well as providing a source of food to more densely populated urban communities. The majority of pig farmers in the region keep their pigs at free range <abbrgrp>
                <abbr bid="B18">18</abbr>
             </abbrgrp>,<abbrgrp>
                <abbr bid="B19">19</abbr>
             </abbrgrp>. Open defecation is highly prevalent, with a previous study observing that 59.9% of the households do not have latrines and those with latrines often do not use them <abbrgrp>
                <abbr bid="B19">19</abbr>
             </abbrgrp>. Many pigs from free-range production systems are not taken to the formal slaughter facilities where meat inspection can be carried out <abbrgrp>
                <abbr bid="B20">20</abbr>
             </abbrgrp>,<abbrgrp>
                <abbr bid="B21">21</abbr>
             </abbrgrp>. Pigs are often slaughtered in unhygienic conditions, in the open air, with slaughter men wearing no protective clothing and no cleaning of the slaughter instrument (use of one machete for slaughter, de-hairing and dressing of the carcass). Similar poor slaughter conditions have been reported in neighboring Kenya <abbrgrp>
                <abbr bid="B22">22</abbr>
             </abbrgrp>.</p>
          <p>Researchers who were carrying out a study on onchocerciasis in Moyo district in northern Uganda, found that some skin nodules of human patients, suspected to be onchocerciasis were due to human cysticercosis on the skin <abbrgrp>
                <abbr bid="B23">23</abbr>
             </abbrgrp>. This indicates to us that there is great need for more information about the prevalence of the disease in the pig keeping areas of the country. Lingual palpation has already been utilized to determine the prevalence of cysticercosis in this study site <abbrgrp>
                <abbr bid="B19">19</abbr>
             </abbrgrp> found to range up to 12.9% in some sub-counties. Since it is known that lingual inspection is not sensitive in very light infections <abbrgrp>
                <abbr bid="B24">24</abbr>
             </abbrgrp>, it is possible that there is an underestimate of the true prevalence of porcine cysticercosis in the Lake Kyoga basin. A previous seroprevalence study was carried out in a smaller geographical area on the southern shores of Lake Kyoga (Kamuli and Kaliro districts) which estimated a porcine infection prevalence of 8.9% <abbrgrp>
                <abbr bid="B18">18</abbr>
             </abbrgrp>. The Lake Kyoga basin region is very large, covering many districts and is currently experiencing rapid growth of the pig population. We felt there was need to carry out an extensive study on the prevalence of porcine cysticercosis in the whole of the Lake Kyoga basin. Porcine cysticercosis has a great impact on the public health of the community where it prevails <abbrgrp>
                <abbr bid="B25">25</abbr>
             </abbrgrp>. The purpose of this study was to determine the sero-prevalence of porcine cysticercosis in the Lake Kyoga basin to better understand the trend of procine cysticercosis in the study areas.</p>
       </sec>
       <sec>
          <st>
             <p>2
 						Methods</p>
          </st>
          <sec>
             <st>
                <p>2.1 Ethical approval</p>
             </st>
             <p>The study was carried out with authority from the Research and Ethics Committe of Makerere University Faculty of Veterinary Medicine. Approval was granted on the 14/05/2008, reference VAB/REC/08/010.</p>
          </sec>
          <sec>
             <st>
                <p>2.2 Study area</p>
             </st>
             <p>The study area comprised those districts adjoining Lake Kyoga in central Uganda with pig populations of over 10,000 head according to the Ministry of Agriculture, Animal Industry and Fisheries <abbrgrp>
                   <abbr bid="B3">3</abbr>
                </abbrgrp>). Within each of these 6 selected districts, one sub-county was chosen using simple random sampling to act as the study area. The following sub-counties were sampled; Galiraya sub-county for Kayunga district, Kidera sub-county for Kamuli district, Nawaikoke sub-county for Kaliro district, Nambiesio sub-county for Apac district, Bululu sub-county for Kaberamaido district and Kangai sub-county for Amolator district. In each sub-county, the two adjoining parishes with the highest number of pigs were selected for sampling.</p>
          </sec>
          <sec>
             <st>
                <p>2.3 Sample size determination</p>
             </st>
             <p>The sample size was determined using the formula;</p>
             <p>
                <inline-formula>
                   <m:math xmlns:m="http://www.w3.org/1998/Math/MathML" name="s12917-014-0239-y-i1">
                      <m:mi>n</m:mi>
                      <m:mo>=</m:mo>
                      <m:mi mathvariant="italic">deff</m:mi>
                      <m:mfrac>
                         <m:mrow>
                            <m:msup>
                               <m:mi>z</m:mi>
                               <m:mn>2</m:mn>
                            </m:msup>
                            <m:mi>p</m:mi>
                            <m:mi>q</m:mi>
                         </m:mrow>
                         <m:msup>
                            <m:mi>e</m:mi>
                            <m:mn>2</m:mn>
                         </m:msup>
                      </m:mfrac>
                   </m:math>
                </inline-formula>
                <abbrgrp>
                   <abbr bid="B26">26</abbr>
                </abbrgrp>
             </p>
             <p>Where <it>deff</it>&#8201;=&#8201;design effect (2) in order to take into account the clustering associated with the design of the study which is based upon districts</p>
             <p>
                <it>n</it>&#8201;=&#8201;sample size</p>
             <p>
                <it>z</it>&#8201;=&#8201;the confidence interval for a normal distribution taken as 1.96 (95% level)</p>
             <p>
                <it>p</it>&#8201;=&#8201;the prevalence of cysticercosis based on previous study in Kamuli District (p&#8201;=&#8201;0.085 i[18])</p>
             <p>
                <it>q</it>&#8201;=&#8201;1-p</p>
             <p>
                <it>e</it>&#8201;=&#8201;the level of precision (10%)</p>
             <p>The minimum sample size required in each district was determined to be 60 pigs.</p>
          </sec>
          <sec>
             <st>
                <p>2.4 Sample collection</p>
             </st>
             <p>A home-to-home-visit method was adopted to sample pigs <abbrgrp>
                   <abbr bid="B27">27</abbr>
                </abbrgrp>. In the study areas, most households are found along village paths. With guidance from the local authorities and the local veterinary staff, we moved along these paths from one end of the village towards the other. Houses were sampled at intervals of 400&#160;m along the path, with the nearest pig-owning home to this distance being visited.</p>
             <p>Piglets are unlikely to acquire <it>T. solium</it> infections before 2-6weeks <abbrgrp>
                   <abbr bid="B28">28</abbr>
                </abbrgrp>, and <it>T. solium</it> circulating antigens are detectable 2&#8211;6 weeks post infection <abbrgrp>
                   <abbr bid="B29">29</abbr>
                </abbrgrp>. It was therefore decided that pigs would be eligible for inclusion in the study at three months of age. Sows in the last trimester of pregnancy were excluded for fear of causing stress resulting in abortions. One eligible pig was sampled from households with 2 of fewer pigs and 2 pigs were sampled from every homestead with 3 or more pigs with a total of 390 pig serum samples collected. The project aims and objectives were explained to pig owners and their verbal consent was obtained prior to sampling their pigs. The pig was cast in dorsal recumbencey and using a 20 gauge needle, 10 mls of blood was collected from the cranial vena cava into plain BD vaccutauners&#174; and left at room temperature for 12&#160;hours to allow adequate clotting. The clotted blood was centrifuged to separate the serum which was then collected and stored in cryo-vials at &#8722;20&#176;C until laboratory analysis.</p>
          </sec>
          <sec>
             <st>
                <p>2.5 Laboratory analysis</p>
             </st>
             <p>Samples were analyzed at the International Livestock Research Institute (ILRI) by antigen capture ELISA, utilizing the HP10 monoclonal antibody (McAb) <abbrgrp>
                   <abbr bid="B30">30</abbr>
                </abbrgrp>. Briefly, Flat bottom immulon&#174; 4HB X ELISA plates were coated with 50% saturated (NH<sub>4</sub>) <sub>2</sub>S0<sub>4</sub> precipitate McAb HP10 at 10&#160;g/ml diluted in carbonate-bicarbonate buffer 9.6 pH (Sigma C3041). After being coated overnight at 4&#176;C the plate was washed in 0.9% NaCl with 0.05% Tween&#174;20 and non-reacted binding sites blocked for one hour at room temperature using Phosphate buffered saline (PBS) 7.3 pH (Sigma P4417) with 1% Bovine Serum Albumin (BSA) (Sigma A4503) and 0.05% Tween&#174;20. 100&#160;&#956;l of undiluted sera was added to each well, incubated for one hour at 37&#176;C, washed as before, then biotinilated McAb-HP10 diluted 1:2500 with PBS/BSA/Tween20 was added for 1&#160;hr at 37&#176;C. After washing again, 100&#160;&#956;l per well of Streptavidin peroxidise (sigma S5512) conjugate at 1:10000 dilution in PBS/BSA/Tween20 was incubated for 1&#160;hour at 37&#176;C, followed by a further wash before 3, 3&#8217;, 5, 5&#8217;- Tetramethylbenzidine (TMB) substrate (Sigma T8665) was added for 15&#160;minutes at room temperature, the reaction stopped with 0.2&#160;M H<sub>2</sub>SO<sub>4</sub> and read in an ELISA plate reader at 450&#160;nm. All samples were run in duplicate with five diluent control wells, five negative control wells and two positive control wells. Negative controls were obtained from indoor raised pigs from the UK which is free from <it>T. solium</it> cysticercosis and positive control sera was obtained from calves experimentally infected with <it>T. saginata</it>. Cut-off values were determined for each plate by using the mean optical density of all negative controls plus three standard deviations. Any sera sample with an optical density over this cut off was considered to be positive.</p>
          </sec>
          <sec>
             <st>
                <p>2.6 Statistical analysis</p>
             </st>
             <p>Results were entered into Microsoft Access 2007 database and were analysed using the &#8216;R&#8217; environment for statistical computing <abbrgrp>
                   <abbr bid="B31">31</abbr>
                </abbrgrp>.</p>
          </sec>
       </sec>
       <sec>
          <st>
             <p>3
 						Results</p>
          </st>
          <p>390 pigs were sampled from 6 districts in the Lake Kyoga region. The majority of pigs sampled were kept on a free-range basis although sows with suckling piglets were generally tethered.</p>
          <p>Sufficient sera were available to run the HP10 ELISA on 378 samples, with an average of 63 samples per district (57&#8211;69). The sero-prevalence of circulating <it>T. solium</it> antigens was found to be 25.3% (95% confidence interval 21.0-30.0%) with district prevalence ranging from 20.3-33.9% as shown in Table&#160;<tblr tid="T1">1</tblr>, with the geographical location of the sampling sites and their respective prevalence estimates indicated on Figure&#160;<figr fid="F1">1</figr>.</p>
          
             <table id="T1">
                <title>
                   <p>Table 1</p>
                </title>
                <caption>
                   <p>
                      <b>Sero-prevalence estimates and confidence intervals for each district in the study area</b>
                   </p>
                </caption>
                <tgroup align="left" cols="3">
                   <colspec align="left" colname="c1" colnum="1" colwidth="*"/>
                   <colspec align="left" colname="c2" colnum="2" colwidth="*"/>
                   <colspec align="left" colname="c3" colnum="3" colwidth="*"/>
                   <thead>
                      <row valign="top">
                         <entry colname="c1">
                            <p>
                               <b>District</b>
                            </p>
                         </entry>
                         <entry colname="c2">
                            <p>
                               <b>Prevalence (%)</b>
                            </p>
                         </entry>
                         <entry colname="c3">
                            <p>
                               <b>95% Confidence interval (%)</b>
                            </p>
                         </entry>
                      </row>
                   </thead>
                   <tbody>
                      <row valign="top">
                         <entry colname="c1">
                            <p>
                               <b>Kayunga</b>
                            </p>
                         </entry>
                         <entry colname="c2">
                            <p>21.5</p>
                         </entry>
                         <entry colname="c3">
                            <p>12.3-33.5</p>
                         </entry>
                      </row>
                      <row valign="top">
                         <entry colname="c1">
                            <p>
                               <b>Kamuli</b>
                            </p>
                         </entry>
                         <entry colname="c2">
                            <p>28.1</p>
                         </entry>
                         <entry colname="c3">
                            <p>17.6-40.8</p>
                         </entry>
                      </row>
                      <row valign="top">
                         <entry colname="c1">
                            <p>
                               <b>Kaliro</b>
                            </p>
                         </entry>
                         <entry colname="c2">
                            <p>23.2</p>
                         </entry>
                         <entry colname="c3">
                            <p>13.9-34.9</p>
                         </entry>
                      </row>
                      <row valign="top">
                         <entry colname="c1">
                            <p>
                               <b>Kiberamaido</b>
                            </p>
                         </entry>
                         <entry colname="c2">
                            <p>20.3</p>
                         </entry>
                         <entry colname="c3">
                            <p>11.3-32.2</p>
                         </entry>
                      </row>
                      <row valign="top">
                         <entry colname="c1">
                            <p>
                               <b>Apac</b>
                            </p>
                         </entry>
                         <entry colname="c2">
                            <p>28.1</p>
                         </entry>
                         <entry colname="c3">
                            <p>16.9-41.5</p>
                         </entry>
                      </row>
                      <row valign="top">
                         <entry colname="c1">
                            <p>
                               <b>Amolator</b>
                            </p>
                         </entry>
                         <entry colname="c2">
                            <p>33.9</p>
                         </entry>
                         <entry colname="c3">
                            <p>22.1-47.4</p>
                         </entry>
                      </row>
                      <row valign="top">
                         <entry colname="c1">
                            <p>
                               <b>Total</b>
                            </p>
                         </entry>
                         <entry colname="c2">
                            <p>25.7</p>
                         </entry>
                         <entry colname="c3">
                            <p>21.0-30.0</p>
                         </entry>
                      </row>
                   </tbody>
                </tgroup>
             </table>
          
          
             <fig id="F1">
                <title>
                   <p>Figure 1</p>
                </title>
                <caption>
                   <p>Map of study area showing prevalence of</p>
                </caption>
                <text>
                   <p>
                      <b>Map of study area showing prevalence of</b>
                      <b>
                         <it>T. solium</it>
                      </b>
                      <b>cysticercosis in the porcine population of each selected sub-county.</b> Legend; this map was produced using ArcMap&#8482; version9.1 with geographical data provided by ILRI GIS unit <url>http://www.ilri.org/gis</url>.</p>
                </text>
                <graphic file="s12917-014-0239-y-1"/>
             </fig>
          
       </sec>
       <sec>
          <st>
             <p>4
 						Discussion</p>
          </st>
          <p>The prevalence of <it>T. solium</it> cysticercosis determined through the HP10 Ag-ELISA was found to be 25.3% (95% C.I. 21.0-30.0%). This is similar to the prevalence levels found in several other sub-Saharan countries where the parasite is endemic, including 34.9% prevalence in Mozambique <abbrgrp>
                <abbr bid="B9">9</abbr>
             </abbrgrp>, 32.8% in Kenya <abbrgrp>
                <abbr bid="B32">32</abbr>
             </abbrgrp>, 23.3% in Zambia <abbrgrp>
                <abbr bid="B33">33</abbr>
             </abbrgrp> and 24.6% in Cameroon <abbrgrp>
                <abbr bid="B34">34</abbr>
             </abbrgrp>. It is interesting to note, that a previous, smaller, study carried out in the districts of Kamuli and Kaliro in 2005 indicated a prevalence of only 8.5% (95% C.I. 6-11%) using the B60/B168 Antigen ELISA, although a rising prevalence had been noted between the 2005 study and a 2009 study using the insensitive lingual palpation method, which indicated a prevalence of up to 12.9% <abbrgrp>
                <abbr bid="B19">19</abbr>
             </abbrgrp>.</p>
          <p>The drivers of increased prevalence in the study area is not clearly known, but there are several potential causes for this increase. The increasing popularity of pig keeping and pork consumption may also be one of the drivers for increased prevalence of porcine cysticercosis. An increased pig population, free ranging, in a <it>T. solium</it> contaminated environment will have higher chances to acquire infection. Although there is some evidence of successful interventions to control porcine cysticercosis in other countries <abbrgrp>
                <abbr bid="B35">35</abbr>
             </abbrgrp>,<abbrgrp>
                <abbr bid="B36">36</abbr>
             </abbrgrp>, there have not been any interventions carried out to control porcine cysticercosis in the Lake Kyoga basin and the transmission cycle has therefore been allowed to continue unabated.</p>
          <p>The main economic activity in the Lake Kyoga basin is agriculture and it is very likely that that the farmers in the field often practise open defecation due to the long distance from their hometead latrines <abbrgrp>
                <abbr bid="B9">9</abbr>
             </abbrgrp>. This practice results in potentially infective feacal material being accessible by free ranging pigs, potenitally leading to increased prevalence of porcine cysticercosis.</p>
          <p>It is also possible that this increased prevalence is due to infected pigs being moved into the study area. In Kayunga District we found that there had recently been massive deaths of pigs claimed to be due to African swine fever. The pig population was therefore comprised of new pigs acquired by farmers from outside the study area. It was therefore possible that the infected pigs acquired infection prior to moving into the study area. Unfortunately we did not obtain details of which pigs were part of this restocking procedure and this is therefore only conjecture.</p>
          <p>The HP10 ELISA has an estimated sensitivity and specificity of 70.4% (95% Bayesian credibility interval 52.7-84.7%) ad 66.1% (B.C.I. 44.6-85.1%) respectively <abbrgrp>
                <abbr bid="B37">37</abbr>
             </abbrgrp>. There is therefore the possibility that the prevalence estimate is not accurate due to undiagnosed or misdiagnosed infections, for instance due to cross reactions with <it>T. hydategenia</it> or other parasites. Fine dissection of full pig carcasses would have enabled direct visulisation of cysticercosis cellulosae and is therefore the &#8216;gold standard&#8217; diagnostic for the porcine infection. Unfortunately there was no budget for such a technique and therefore the results of the angtigen ELISA provide us with the best an indication of infection prevalence.</p>
          <p>In the absence of a detailed analysis of risk factors, the reasons for this increase in prevalence are difficult to elucidate, but we feel that the key message from this study is that no successful efforts are being made in this region to control a parasite of high public health importance. We would therefore like to strongly recommend that intervention packages for the taeniasis/cysticercosis complex, taking into account both human and porcine hosts are trialed and evaluated in order to begin the journey to eradicating this parasite.</p>
       </sec>
       <sec>
          <st>
             <p>5
 						Conclusion</p>
          </st>
          <p>This study found a high prevalence of viable <it>T. solium</it> infection in pigs in the region of Lake Kyoga Basin. This is a serious public health risk to both the consumers of pork and the wider community and we believe that measures are required to control this important zoonotic parasite in this area.</p>
       </sec>
       <sec>
          <st>
             <p>Competing interests</p>
          </st>
          <p>The authors declare that they have no competing interests.</p>
       </sec>
       <sec>
          <st>
             <p>Authors&#8217; contributions</p>
          </st>
          <p>ZN designed the study, collected the field data and drafted the manuscript, LFT undertook the laboratory analysis, analysed the data and drafted the manuscript, EMF assisted in drafting the manuscript, GN and LO participated in the design and supervision of the developments of the research, CW participated in the data collection in the field and oversaw implementation of the study. All authors read and approved the final manuscript.</p>
       </sec>
    </bdy>
    <bm>
       <ack>
          <sec>
             <st>
                <p>Acknowledgements</p>
             </st>
             <p>We would like to thank Leslie Harrison and Micheal Parkhouse who kindly provided the Monoclonal antibodies and positive control sera used in this study. We would also like to thank Tim Strugnell from the Veterinary Laboratories Agency (UK) for providing the negative control sera. We would like to thank Philip Toye (ILRI) for his assistance in setting up the Ag-ELISA diagnostics at ILRI, which were funded by both the Association for Strengthening Agricultural Research in East and Central Africa (ASARECA) and the Wellcome Trust (which also provides support to EMF - 085308). LFT is funded by the UK BBSRC. We would like to thank Makerere University for the financial support of the field work aspect to this study. None of the funding sources had any influence on study design, analysis or interpretation of data. We would lastly like to thank the Uganda National Council for science and Technology for permission to carry out this study. We would like to show gratitude to Mr. Kisekka Magidu and Velma Kivali for the good technical support they rendered during the laboratory work of this study.</p>
          </sec>
       </ack>
       <refgrp>
          
          <bibl id="B1">
             <title>
                <p>Pigs, Goats and Chickens for Rural Development: Small Holder farmer&#8217;s Experience in Uganda</p>
             </title>
             <aug>
                <au>
                   <snm>Ampaire</snm>
                   <fnm>A</fnm>
                </au>
                <au>
                   <snm>Rothschild</snm>
                   <fnm>MF</fnm>
                </au>
             </aug>
             <source>Livestock Research for Rural Development. vol. 22</source>
             <pubdate>2010</pubdate>
          </bibl>
          <bibl id="B2">
             <source>Uganda Bureau of Statistics</source>
             <pubdate>2004</pubdate>
          </bibl>
          <bibl id="B3">
             <source>MAAIF/UBOS, Uganda</source>
             <pubdate>2009</pubdate>
          </bibl>
          <bibl id="B4">
             <title>
                <p>Losses to Internal Parasites in Swine Production</p>
             </title>
             <aug>
                <au>
                   <snm>Stewart</snm>
                   <fnm>TB</fnm>
                </au>
                <au>
                   <snm>Hale</snm>
                   <fnm>OM</fnm>
                </au>
             </aug>
             <source>J Anim Sci</source>
             <pubdate>1988</pubdate>
             <volume>66</volume>
             <issue>6</issue>
             <fpage>1548</fpage>
             <lpage>1554</lpage>
             <xrefbib>
                <pubidlist>
                   <pubid idtype="pmpid" link="fulltext">2969380</pubid>
                </pubidlist>
             </xrefbib>
          </bibl>
          <bibl id="B5">
             <title>
                <p>Parasitic helminths of the pig: factors influencing transmission and infection levels</p>
             </title>
             <aug>
                <au>
                   <snm>Nansen</snm>
                   <fnm>P</fnm>
                </au>
                <au>
                   <snm>Roepstorff</snm>
                   <fnm>A</fnm>
                </au>
             </aug>
             <source>Int J Parasitol</source>
             <pubdate>1999</pubdate>
             <volume>29</volume>
             <issue>6</issue>
             <fpage>877</fpage>
             <lpage>891</lpage>
             <xrefbib>
                <pubidlist>
                   <pubid idtype="doi">10.1016/S0020-7519(99)00048-X</pubid>
                   <pubid idtype="pmpid" link="fulltext">10480725</pubid>
                </pubidlist>
             </xrefbib>
          </bibl>
          <bibl id="B6">
             <title>
                <p>Infectious animal diseases: the wildlife/livestock interface</p>
             </title>
             <aug>
                <au>
                   <snm>Bengis</snm>
                   <fnm>RG</fnm>
                </au>
                <au>
                   <snm>Kock</snm>
                   <fnm>RA</fnm>
                </au>
                <au>
                   <snm>Fischer</snm>
                   <fnm>J</fnm>
                </au>
             </aug>
             <source>Rev Sci Tech Off Int Epizoot</source>
             <pubdate>2002</pubdate>
             <volume>21</volume>
             <issue>1</issue>
             <fpage>53</fpage>
             <lpage>66</lpage>
          </bibl>
          <bibl id="B7">
             <title>
                <p>Comparing the demonstration of freedom from Trichinella infection of domestic pigs by traditional and risk-based surveillance</p>
             </title>
             <aug>
                <au>
                   <snm>Schuppers</snm>
                   <fnm>ME</fnm>
                </au>
                <au>
                   <snm>Frey</snm>
                   <fnm>CF</fnm>
                </au>
                <au>
                   <snm>Gottstein</snm>
                   <fnm>B</fnm>
                </au>
                <au>
                   <snm>St&#228;rk</snm>
                   <fnm>KDC</fnm>
                </au>
                <au>
                   <snm>Kihm</snm>
                   <fnm>U</fnm>
                </au>
                <au>
                   <snm>Regula</snm>
                   <fnm>G</fnm>
                </au>
             </aug>
             <source>Epidemiol Infect</source>
             <pubdate>2010</pubdate>
             <volume>138</volume>
             <issue>09</issue>
             <fpage>1242</fpage>
             <lpage>1251</lpage>
             <xrefbib>
                <pubidlist>
                   <pubid idtype="doi">10.1017/S0950268809991518</pubid>
                   <pubid idtype="pmpid" link="fulltext">20067658</pubid>
                </pubidlist>
             </xrefbib>
          </bibl>
          <bibl id="B8">
             <title>
                <p>Seroprevalence of Trichinella spiralis and Toxoplasma gondii in pigs from different housing systems in The Netherlands</p>
             </title>
             <aug>
                <au>
                   <snm>van der Giessen</snm>
                   <fnm>J</fnm>
                </au>
                <au>
                   <snm>Fonville</snm>
                   <fnm>M</fnm>
                </au>
                <au>
                   <snm>Bouwknegt</snm>
                   <fnm>M</fnm>
                </au>
                <au>
                   <snm>Langelaar</snm>
                   <fnm>M</fnm>
                </au>
                <au>
                   <snm>Vollema</snm>
                   <fnm>A</fnm>
                </au>
             </aug>
             <source>Vet Parasitol</source>
             <pubdate>2007</pubdate>
             <volume>148</volume>
             <issue>3&#8211;4</issue>
             <fpage>371</fpage>
             <lpage>374</lpage>
             <xrefbib>
                <pubidlist>
                   <pubid idtype="doi">10.1016/j.vetpar.2007.06.009</pubid>
                   <pubid idtype="pmpid" link="fulltext">17646053</pubid>
                </pubidlist>
             </xrefbib>
          </bibl>
          <bibl id="B9">
             <title>
                <p>Prevalence and risk factors of porcine cysticercosis in Angonia District, Mozambique</p>
             </title>
             <aug>
                <au>
                   <snm>Pondja</snm>
                   <fnm>A</fnm>
                </au>
                <au>
                   <snm>Neves</snm>
                   <fnm>L</fnm>
                </au>
                <au>
                   <snm>Mlangwa</snm>
                   <fnm>J</fnm>
                </au>
                <au>
                   <snm>Afonso</snm>
                   <fnm>S</fnm>
                </au>
                <au>
                   <snm>Fafetine</snm>
                   <fnm>J</fnm>
                </au>
                <au>
                   <snm>Willingham</snm>
                   <fnm>AL</fnm>
                </au>
                <au>
                   <snm>Thamsborg</snm>
                   <fnm>SM</fnm>
                </au>
                <au>
                   <snm>Johansen</snm>
                   <fnm>MV</fnm>
                </au>
             </aug>
             <source>PLoS Negl Trop Dis</source>
             <pubdate>2010</pubdate>
             <volume>4</volume>
             <issue>2</issue>
             <fpage>e594</fpage>
             <xrefbib>
                <pubidlist>
                   <pubid idtype="doi">10.1371/journal.pntd.0000594</pubid>
                   <pubid idtype="pmpid" link="fulltext">20126403</pubid>
                </pubidlist>
             </xrefbib>
          </bibl>
          <bibl id="B10">
             <title>
                <p>Risk factors associated with porcine cysticercosis in selected districts of Eastern and Southern provinces of Zambia</p>
             </title>
             <aug>
                <au>
                   <snm>Sikasunge</snm>
                   <fnm>CS</fnm>
                </au>
                <au>
                   <snm>Phiri</snm>
                   <fnm>IK</fnm>
                </au>
                <au>
                   <snm>Phiri</snm>
                   <fnm>AM</fnm>
                </au>
                <au>
                   <snm>Dorny</snm>
                   <fnm>P</fnm>
                </au>
                <au>
                   <snm>Siziya</snm>
                   <fnm>S</fnm>
                </au>
                <au>
                   <snm>Willingham</snm>
                   <fnm>IAL</fnm>
                </au>
             </aug>
             <source>Vet Parasitol</source>
             <pubdate>2007</pubdate>
             <volume>143</volume>
             <issue>1</issue>
             <fpage>59</fpage>
             <lpage>66</lpage>
             <xrefbib>
                <pubidlist>
                   <pubid idtype="doi">10.1016/j.vetpar.2006.07.023</pubid>
                   <pubid idtype="pmpid" link="fulltext">16956727</pubid>
                </pubidlist>
             </xrefbib>
          </bibl>
          <bibl id="B11">
             <title>
                <p>An epidemiological study of Taenia solium cysticercosis in a rural population in the Bolivian Chaco</p>
             </title>
             <aug>
                <au>
                   <snm>Carrique-Mas</snm>
                   <fnm>J</fnm>
                </au>
                <au>
                   <snm>Iihoshi</snm>
                   <fnm>N</fnm>
                </au>
                <au>
                   <snm>Widdowson</snm>
                   <fnm>MA</fnm>
                </au>
                <au>
                   <snm>Roca</snm>
                   <fnm>Y</fnm>
                </au>
                <au>
                   <snm>Morales</snm>
                   <fnm>G</fnm>
                </au>
                <au>
                   <snm>Quiroga</snm>
                   <fnm>J</fnm>
                </au>
                <au>
                   <snm>Cejas</snm>
                   <fnm>F</fnm>
                </au>
                <au>
                   <snm>Caihuara</snm>
                   <fnm>M</fnm>
                </au>
                <au>
                   <snm>Ibarra</snm>
                   <fnm>R</fnm>
                </au>
                <au>
                   <snm>Edelsten</snm>
                   <fnm>M</fnm>
                </au>
             </aug>
             <source>Acta Trop</source>
             <pubdate>2001</pubdate>
             <volume>80</volume>
             <issue>3</issue>
             <fpage>229</fpage>
             <lpage>235</lpage>
             <xrefbib>
                <pubidlist>
                   <pubid idtype="doi">10.1016/S0001-706X(01)00161-9</pubid>
                   <pubid idtype="pmpid" link="fulltext">11700180</pubid>
                </pubidlist>
             </xrefbib>
          </bibl>
          <bibl id="B12">
             <title>
                <p>
                   <it>Taenia solium</it> cysticercosis</p>
             </title>
             <aug>
                <au>
                   <snm>Garcia</snm>
                   <fnm>HH</fnm>
                </au>
                <au>
                   <snm>Gonzalez</snm>
                   <fnm>AE</fnm>
                </au>
                <au>
                   <snm>Evans</snm>
                   <fnm>CAW</fnm>
                </au>
                <au>
                   <snm>Gilman</snm>
                   <fnm>RH</fnm>
                </au>
             </aug>
             <source>Lancet</source>
             <pubdate>2003</pubdate>
             <volume>362</volume>
             <issue>9383</issue>
             <fpage>547</fpage>
             <lpage>556</lpage>
             <xrefbib>
                <pubidlist>
                   <pubid idtype="doi">10.1016/S0140-6736(03)14117-7</pubid>
                   <pubid idtype="pmpid" link="fulltext">12932389</pubid>
                </pubidlist>
             </xrefbib>
          </bibl>
          <bibl id="B13">
             <title>
                <p>Swine cysticercosis hotspots surrounding Taenia solium tapeworm carriers</p>
             </title>
             <aug>
                <au>
                   <snm>Lescano</snm>
                   <fnm>AG</fnm>
                </au>
                <au>
                   <snm>Garcia</snm>
                   <fnm>HH</fnm>
                </au>
                <au>
                   <snm>Gilman</snm>
                   <fnm>RH</fnm>
                </au>
                <au>
                   <snm>Guezala</snm>
                   <fnm>MC</fnm>
                </au>
                <au>
                   <snm>Tsang</snm>
                   <fnm>VCW</fnm>
                </au>
                <au>
                   <snm>Gavidia</snm>
                   <fnm>CM</fnm>
                </au>
                <au>
                   <snm>Rodriguez</snm>
                   <fnm>S</fnm>
                </au>
                <au>
                   <snm>Moulton</snm>
                   <fnm>LH</fnm>
                </au>
                <au>
                   <snm>Green</snm>
                   <fnm>JA</fnm>
                </au>
                <au>
                   <snm>Gonzalez</snm>
                   <fnm>AE</fnm>
                </au>
             </aug>
             <source>AmJTrop Med Hyg</source>
             <pubdate>2007</pubdate>
             <volume>76</volume>
             <issue>2</issue>
             <fpage>376</fpage>
          </bibl>
          <bibl id="B14">
             <title>
                <p>Risk factors for the prevalence of porcine cysticercosis in Mbulu District, Tanzania</p>
             </title>
             <aug>
                <au>
                   <snm>Ngowi</snm>
                   <fnm>HA</fnm>
                </au>
                <au>
                   <snm>Kassuku</snm>
                   <fnm>AA</fnm>
                </au>
                <au>
                   <snm>Maeda</snm>
                   <fnm>GEM</fnm>
                </au>
                <au>
                   <snm>Boa</snm>
                   <fnm>ME</fnm>
                </au>
                <au>
                   <snm>Carabin</snm>
                   <fnm>H</fnm>
                </au>
                <au>
                   <snm>Willingham</snm>
                   <fnm>AL</fnm>
                </au>
             </aug>
             <source>Vet Parasitol</source>
             <pubdate>2004</pubdate>
             <volume>120</volume>
             <issue>4</issue>
             <fpage>275</fpage>
             <lpage>283</lpage>
             <xrefbib>
                <pubidlist>
                   <pubid idtype="doi">10.1016/j.vetpar.2004.01.015</pubid>
                   <pubid idtype="pmpid" link="fulltext">15063938</pubid>
                </pubidlist>
             </xrefbib>
          </bibl>
          <bibl id="B15">
             <title>
                <p>Control of the taeniosis/cysticercosis complex: Future developments</p>
             </title>
             <aug>
                <au>
                   <snm>Flisser</snm>
                   <fnm>A</fnm>
                </au>
                <au>
                   <snm>Rodr&#237;guez-Canul</snm>
                   <fnm>R</fnm>
                </au>
                <au>
                   <snm>Willingham Iii</snm>
                   <fnm>AL</fnm>
                </au>
             </aug>
             <source>Vet Parasitol</source>
             <pubdate>2006</pubdate>
             <volume>139</volume>
             <issue>4</issue>
             <fpage>283</fpage>
             <lpage>292</lpage>
             <xrefbib>
                <pubidlist>
                   <pubid idtype="doi">10.1016/j.vetpar.2006.04.019</pubid>
                   <pubid idtype="pmpid" link="fulltext">16730125</pubid>
                </pubidlist>
             </xrefbib>
          </bibl>
          <bibl id="B16">
             <title>
                <p>Epidemiology and aetiology of epilepsy in sub-Saharan Africa</p>
             </title>
             <aug>
                <au>
                   <snm>Preux</snm>
                   <fnm>P-M</fnm>
                </au>
                <au>
                   <snm>Druet-Cabanac</snm>
                   <fnm>M</fnm>
                </au>
             </aug>
             <source>Lancet Neurol</source>
             <pubdate>2005</pubdate>
             <volume>4</volume>
             <issue>1</issue>
             <fpage>21</fpage>
             <lpage>31</lpage>
             <xrefbib>
                <pubidlist>
                   <pubid idtype="doi">10.1016/S1474-4422(04)00963-9</pubid>
                   <pubid idtype="pmpid" link="fulltext">15620854</pubid>
                </pubidlist>
             </xrefbib>
          </bibl>
          <bibl id="B17">
             <title>
                <p>Regional Action Plan for Combating Taenia solium Cysticercosis/Taeniosis in Eastern and Southern Africa</p>
             </title>
             <aug>
                <au>
                   <snm>Boa</snm>
                   <fnm>M</fnm>
                </au>
                <au>
                   <snm>Mukaratirwa</snm>
                   <fnm>S</fnm>
                </au>
                <au>
                   <snm>Willingham</snm>
                   <fnm>AL</fnm>
                </au>
                <au>
                   <snm>Johansen</snm>
                   <fnm>MV</fnm>
                </au>
             </aug>
             <source>Acta Trop</source>
             <pubdate>2003</pubdate>
             <volume>87</volume>
             <issue>1</issue>
             <fpage>183</fpage>
             <lpage>186</lpage>
             <xrefbib>
                <pubidlist>
                   <pubid idtype="doi">10.1016/S0001-706X(03)00117-7</pubid>
                   <pubid idtype="pmpid" link="fulltext">12781395</pubid>
                </pubidlist>
             </xrefbib>
          </bibl>
          <bibl id="B18">
             <title>
                <p>Porcine cysticercosis in southeast Uganda: seroprevalence in Kamuli and Kaliro districts</p>
             </title>
             <aug>
                <au>
                   <snm>Waiswa</snm>
                   <fnm>C</fnm>
                </au>
                <au>
                   <snm>F&#232;vre</snm>
                   <fnm>EM</fnm>
                </au>
                <au>
                   <snm>Nsadha</snm>
                   <fnm>Z</fnm>
                </au>
                <au>
                   <snm>Sikasunge</snm>
                   <fnm>CS</fnm>
                </au>
                <au>
                   <snm>Willingham Iii</snm>
                   <fnm>AL</fnm>
                </au>
             </aug>
             <source>J Parasitol Res</source>
             <pubdate>2009</pubdate>
             <volume>2009</volume>
             <fpage>5pp. Article ID 375493</fpage>
             <xrefbib>
                <pubidlist>
                   <pubid idtype="doi">10.1155/2009/375493</pubid>
                </pubidlist>
             </xrefbib>
          </bibl>
          <bibl id="B19">
             <title>
                <p>Risk factors and lingual prevalence of porcine cysticercosis in the Lake Kyoga Basin in Uganda</p>
             </title>
             <aug>
                <au>
                   <snm>Nsadha</snm>
                   <fnm>Z</fnm>
                </au>
                <au>
                   <snm>Saimo</snm>
                   <fnm>M</fnm>
                </au>
                <au>
                   <snm>Waiswa</snm>
                   <fnm>C</fnm>
                </au>
                <au>
                   <snm>Maingi</snm>
                   <fnm>N</fnm>
                </au>
                <au>
                   <snm>Ojok</snm>
                   <fnm>L</fnm>
                </au>
                <au>
                   <snm>Willingham</snm>
                   <fnm>AL</fnm>
                   <suf>III</suf>
                </au>
                <au>
                   <snm>Mutagwanya</snm>
                   <fnm>R</fnm>
                </au>
                <au>
                   <snm>Nyakarhuka</snm>
                   <fnm>L</fnm>
                </au>
                <au>
                   <snm>Lubega</snm>
                   <fnm>G</fnm>
                </au>
             </aug>
             <source>Africa J Anim Biomed Sci</source>
             <pubdate>2010</pubdate>
             <volume>5</volume>
             <issue>3</issue>
             <fpage>43</fpage>
             <lpage>50</lpage>
          </bibl>
          <bibl id="B20">
             <title>
                <p>Taenia solium cysticercosis in the democratic republic of Congo: how does pork trade affect the transmission of the parasite?</p>
             </title>
             <aug>
                <au>
                   <snm>Praet</snm>
                   <fnm>N</fnm>
                </au>
                <au>
                   <snm>Kanobana</snm>
                   <fnm>K</fnm>
                </au>
                <au>
                   <snm>Kabwe</snm>
                   <fnm>C</fnm>
                </au>
                <au>
                   <snm>Maketa</snm>
                   <fnm>V</fnm>
                </au>
                <au>
                   <snm>Lukanu</snm>
                   <fnm>P</fnm>
                </au>
                <au>
                   <snm>Lutumba</snm>
                   <fnm>P</fnm>
                </au>
                <au>
                   <snm>Polman</snm>
                   <fnm>K</fnm>
                </au>
                <au>
                   <snm>Matondo</snm>
                   <fnm>P</fnm>
                </au>
                <au>
                   <snm>Speybroeck</snm>
                   <fnm>N</fnm>
                </au>
                <au>
                   <snm>Dorny</snm>
                   <fnm>P</fnm>
                </au>
             </aug>
             <source>PLoS Negl Trop Dis</source>
             <pubdate>2010</pubdate>
             <volume>4</volume>
             <issue>9</issue>
             <fpage>e817</fpage>
             <xrefbib>
                <pubidlist>
                   <pubid idtype="doi">10.1371/journal.pntd.0000817</pubid>
                   <pubid idtype="pmpid" link="fulltext">20838646</pubid>
                </pubidlist>
             </xrefbib>
          </bibl>
          <bibl id="B21">
             <title>
                <p>The emergence of Taenia solium cysticercosis in Eastern and Southern Africa as a serious agricultural problem and public health risk</p>
             </title>
             <aug>
                <au>
                   <snm>Phiri</snm>
                   <fnm>IK</fnm>
                </au>
                <au>
                   <snm>Ngowi</snm>
                   <fnm>H</fnm>
                </au>
                <au>
                   <snm>Afonso</snm>
                   <fnm>S</fnm>
                </au>
                <au>
                   <snm>Matenga</snm>
                   <fnm>E</fnm>
                </au>
                <au>
                   <snm>Boa</snm>
                   <fnm>M</fnm>
                </au>
                <au>
                   <snm>Mukaratirwa</snm>
                   <fnm>S</fnm>
                </au>
                <au>
                   <snm>Githigia</snm>
                   <fnm>S</fnm>
                </au>
                <au>
                   <snm>Saimo</snm>
                   <fnm>M</fnm>
                </au>
                <au>
                   <snm>Sikasunge</snm>
                   <fnm>C</fnm>
                </au>
                <au>
                   <snm>Maingi</snm>
                   <fnm>N</fnm>
                </au>
             </aug>
             <source>Acta Trop</source>
             <pubdate>2003</pubdate>
             <volume>87</volume>
             <issue>1</issue>
             <fpage>13</fpage>
             <lpage>23</lpage>
             <xrefbib>
                <pubidlist>
                   <pubid idtype="doi">10.1016/S0001-706X(03)00051-2</pubid>
                   <pubid idtype="pmpid" link="fulltext">12781374</pubid>
                </pubidlist>
             </xrefbib>
          </bibl>
          <bibl id="B22">
             <title>
                <p>Characteristics of pig trade in low income settings in Busia District, Kenya</p>
             </title>
             <aug>
                <au>
                   <snm>Kagira</snm>
                   <fnm>JM</fnm>
                </au>
                <au>
                   <snm>Maingi</snm>
                   <fnm>N</fnm>
                </au>
                <au>
                   <snm>Kanyari</snm>
                   <fnm>PWN</fnm>
                </au>
                <au>
                   <snm>Githigia</snm>
                   <fnm>SM</fnm>
                </au>
                <au>
                   <snm>Ng&#8216;ang&#8217;a</snm>
                   <fnm>JC</fnm>
                </au>
                <au>
                   <snm>Gachohi</snm>
                   <fnm>JM</fnm>
                </au>
             </aug>
             <source>Trop Vet</source>
             <pubdate>2009</pubdate>
             <volume>26</volume>
             <issue>2</issue>
             <fpage>1</fpage>
             <lpage>9</lpage>
          </bibl>
          <bibl id="B23">
             <title>
                <p>Could neurocysticercosis be the cause of onchocerciasis-associated epileptic seizures?</p>
             </title>
             <aug>
                <au>
                   <snm>Katabarwa</snm>
                   <fnm>M</fnm>
                </au>
                <au>
                   <snm>Lakwo</snm>
                   <fnm>T</fnm>
                </au>
                <au>
                   <snm>Habumogisha</snm>
                   <fnm>P</fnm>
                </au>
                <au>
                   <snm>Richards</snm>
                   <fnm>F</fnm>
                </au>
                <au>
                   <snm>Eberhard</snm>
                   <fnm>M</fnm>
                </au>
             </aug>
             <source>AmJTrop Med Hyg</source>
             <pubdate>2008</pubdate>
             <volume>78</volume>
             <issue>3</issue>
             <fpage>400</fpage>
             <lpage>401</lpage>
          </bibl>
          <bibl id="B24">
             <title>
                <p>Prevalence and comparision of serologic assays, necropsy, and tongue examination for the diagnosis of porcine cysticercosis in Peru</p>
             </title>
             <aug>
                <au>
                   <snm>Gonzalez</snm>
                   <fnm>AE</fnm>
                </au>
                <au>
                   <snm>Cama</snm>
                   <fnm>V</fnm>
                </au>
                <au>
                   <snm>Gilman</snm>
                   <fnm>RH</fnm>
                </au>
                <au>
                   <snm>Tsang</snm>
                   <fnm>VCW</fnm>
                </au>
                <au>
                   <snm>Pilcher</snm>
                   <fnm>JB</fnm>
                </au>
                <au>
                   <snm>Chavera</snm>
                   <fnm>A</fnm>
                </au>
                <au>
                   <snm>Castro</snm>
                   <fnm>M</fnm>
                </au>
                <au>
                   <snm>Montenegro</snm>
                   <fnm>T</fnm>
                </au>
                <au>
                   <snm>Verastegui</snm>
                   <fnm>M</fnm>
                </au>
                <au>
                   <snm>Miranda</snm>
                   <fnm>E</fnm>
                </au>
                <au>
                   <snm>Bazalar</snm>
                   <fnm>H</fnm>
                </au>
             </aug>
             <source>Am J Trop Med Hyg</source>
             <pubdate>1990</pubdate>
             <volume>43</volume>
             <issue>2</issue>
             <fpage>194</fpage>
             <lpage>199</lpage>
             <xrefbib>
                <pubidlist>
                   <pubid idtype="pmpid" link="fulltext">2389823</pubid>
                </pubidlist>
             </xrefbib>
          </bibl>
          <bibl id="B25">
             <title>
                <p>Resurgence of cases of epileptic seizures and burns associated with cysticercosis in Assologaima, Jayawijaya, Irian Jaya, Indonesia, 1991&#8211;1995</p>
             </title>
             <aug>
                <au>
                   <snm>Wandra</snm>
                   <fnm>T</fnm>
                </au>
                <au>
                   <snm>Subahar</snm>
                   <fnm>R</fnm>
                </au>
                <au>
                   <snm>Simanjutak</snm>
                   <fnm>GM</fnm>
                </au>
                <au>
                   <snm>Margono</snm>
                   <fnm>SS</fnm>
                </au>
                <au>
                   <snm>Suroso</snm>
                   <fnm>T</fnm>
                </au>
                <au>
                   <snm>Okamoto</snm>
                   <fnm>M</fnm>
                </au>
                <au>
                   <snm>Nakao</snm>
                   <fnm>M</fnm>
                </au>
                <au>
                   <snm>Sako</snm>
                   <fnm>Y</fnm>
                </au>
                <au>
                   <snm>Nakayo</snm>
                   <fnm>K</fnm>
                </au>
                <au>
                   <snm>Schantz</snm>
                   <fnm>PM</fnm>
                </au>
                <au>
                   <snm>Ito</snm>
                   <fnm>A</fnm>
                </au>
             </aug>
             <source>Trans R Soc Trop Med Hyg</source>
             <pubdate>2000</pubdate>
             <volume>94</volume>
             <issue>1</issue>
             <fpage>46</fpage>
             <lpage>50</lpage>
             <xrefbib>
                <pubidlist>
                   <pubid idtype="doi">10.1016/S0035-9203(00)90433-4</pubid>
                   <pubid idtype="pmpid" link="fulltext">10748897</pubid>
                </pubidlist>
             </xrefbib>
          </bibl>
          <bibl id="B26">
             <source>Sampling Strategies: Population Services International, Washington DC</source>
             <pubdate>2007</pubdate>
          </bibl>
          <bibl id="B27">
             <title>
                <p>Packed cell volume as a measure of procine health and the implication on the control of sleeping sickness in Uganda</p>
             </title>
             <aug>
                <au>
                   <snm>Waiswa</snm>
                   <fnm>C</fnm>
                </au>
                <au>
                   <snm>Olaho-Mukani</snm>
                   <fnm>W</fnm>
                </au>
                <au>
                   <snm>Katunguka-Rwakishaya</snm>
                   <fnm>E</fnm>
                </au>
             </aug>
             <source>Bulg J Vet Med</source>
             <pubdate>2003</pubdate>
             <volume>6</volume>
             <issue>3</issue>
             <fpage>187</fpage>
             <lpage>191</lpage>
          </bibl>
          <bibl id="B28">
             <title>
                <p>
                   <it>Taenia solium</it> cysticercosis in young pigs: age at first infection and histological characteristics</p>
             </title>
             <aug>
                <au>
                   <snm>de Aluja</snm>
                   <fnm>AS</fnm>
                </au>
                <au>
                   <snm>Martinez</snm>
                   <fnm>MJ</fnm>
                </au>
                <au>
                   <snm>Villalobos</snm>
                   <fnm>AN</fnm>
                </au>
             </aug>
             <source>Vet Parasitol</source>
             <pubdate>1998</pubdate>
             <volume>76</volume>
             <issue>1&#8211;2</issue>
             <fpage>71</fpage>
             <lpage>79</lpage>
             <xrefbib>
                <pubidlist>
                   <pubid idtype="doi">10.1016/S0304-4017(97)00059-9</pubid>
                   <pubid idtype="pmpid" link="fulltext">9653992</pubid>
                </pubidlist>
             </xrefbib>
          </bibl>
          <bibl id="B29">
             <title>
                <p>Kinetics of circulating antigens in pigs experimentally infected with T solium eggs</p>
             </title>
             <aug>
                <au>
                   <snm>Nguekam</snm>
                   <fnm>A</fnm>
                </au>
                <au>
                   <snm>Zoli</snm>
                   <fnm>AP</fnm>
                </au>
                <au>
                   <snm>Vondou</snm>
                   <fnm>L</fnm>
                </au>
                <au>
                   <snm>Pouedet</snm>
                   <fnm>SM</fnm>
                </au>
                <au>
                   <snm>Assana</snm>
                   <fnm>E</fnm>
                </au>
                <au>
                   <snm>Dorny</snm>
                   <fnm>P</fnm>
                </au>
                <au>
                   <snm>Brandt</snm>
                   <fnm>J</fnm>
                </au>
                <au>
                   <snm>Losson</snm>
                   <fnm>B</fnm>
                </au>
                <au>
                   <snm>Geerts</snm>
                   <fnm>S</fnm>
                </au>
             </aug>
             <source>Vet Parasitol</source>
             <pubdate>2003</pubdate>
             <volume>111</volume>
             <issue>4</issue>
             <fpage>323</fpage>
             <lpage>332</lpage>
             <xrefbib>
                <pubidlist>
                   <pubid idtype="doi">10.1016/S0304-4017(02)00391-6</pubid>
                   <pubid idtype="pmpid" link="fulltext">12559711</pubid>
                </pubidlist>
             </xrefbib>
          </bibl>
          <bibl id="B30">
             <title>
                <p>Specific detection of circulating surface/secreted glycoproteins of viable cysticerci in Taenia saginata cysticercosis</p>
             </title>
             <aug>
                <au>
                   <snm>Harrison</snm>
                   <fnm>LJS</fnm>
                </au>
                <au>
                   <snm>Joshua</snm>
                   <fnm>GWP</fnm>
                </au>
                <au>
                   <snm>Wright</snm>
                   <fnm>SH</fnm>
                </au>
                <au>
                   <snm>Parkhouse</snm>
                   <fnm>RME</fnm>
                </au>
             </aug>
             <source>Parasite Immunol</source>
             <pubdate>1989</pubdate>
             <volume>11</volume>
             <issue>4</issue>
             <fpage>351</fpage>
             <lpage>370</lpage>
             <xrefbib>
                <pubidlist>
                   <pubid idtype="doi">10.1111/j.1365-3024.1989.tb00673.x</pubid>
                   <pubid idtype="pmpid" link="fulltext">2674862</pubid>
                </pubidlist>
             </xrefbib>
          </bibl>
          <bibl id="B31">
             <source>R: A Language and Environment for Statistical Computing</source>
             <publisher>R Foundation for Statistical Computing, Vienna</publisher>
             <pubdate>2005</pubdate>
          </bibl>
          <bibl id="B32">
             <title>
                <p>Prevalence of porcine cysticercosis and associated risk factors in Homa Bay District, Kenya</p>
             </title>
             <aug>
                <au>
                   <snm>Eshitera</snm>
                   <fnm>EE</fnm>
                </au>
                <au>
                   <snm>Githigia</snm>
                   <fnm>SM</fnm>
                </au>
                <au>
                   <snm>Kitala</snm>
                   <fnm>P</fnm>
                </au>
                <au>
                   <snm>Thomas</snm>
                   <fnm>LF</fnm>
                </au>
                <au>
                   <snm>F&#232;vre</snm>
                   <fnm>EM</fnm>
                </au>
                <au>
                   <snm>Harrison</snm>
                   <fnm>LJS</fnm>
                </au>
                <au>
                   <snm>Mwihia</snm>
                   <fnm>EW</fnm>
                </au>
                <au>
                   <snm>Otieno</snm>
                   <fnm>RO</fnm>
                </au>
                <au>
                   <snm>Ojiambo</snm>
                   <fnm>F</fnm>
                </au>
                <au>
                   <snm>Maingi</snm>
                   <fnm>N</fnm>
                </au>
             </aug>
             <source>BMC Vet Res</source>
             <pubdate>2012</pubdate>
             <volume>8</volume>
             <issue>1</issue>
             <fpage>234</fpage>
             <xrefbib>
                <pubidlist>
                   <pubid idtype="doi">10.1186/1746-6148-8-234</pubid>
                   <pubid idtype="pmpid" link="fulltext">23217158</pubid>
                </pubidlist>
             </xrefbib>
          </bibl>
          <bibl id="B33">
             <title>
                <p>Prevalence of <it>Taenia solium</it> porcine cysticercosis in the Eastern, Southern and Western provinces of Zambia</p>
             </title>
             <aug>
                <au>
                   <snm>Sikasunge</snm>
                   <fnm>CS</fnm>
                </au>
                <au>
                   <snm>Phiri</snm>
                   <fnm>IK</fnm>
                </au>
                <au>
                   <snm>Phiri</snm>
                   <fnm>AM</fnm>
                </au>
                <au>
                   <snm>Siziya</snm>
                   <fnm>S</fnm>
                </au>
                <au>
                   <snm>Dorny</snm>
                   <fnm>P</fnm>
                </au>
                <au>
                   <snm>Willingham</snm>
                   <fnm>AL</fnm>
                   <suf>III</suf>
                </au>
             </aug>
             <source>Vet J</source>
             <pubdate>2008</pubdate>
             <volume>176</volume>
             <issue>2</issue>
             <fpage>240</fpage>
             <lpage>244</lpage>
             <xrefbib>
                <pubidlist>
                   <pubid idtype="doi">10.1016/j.tvjl.2007.02.030</pubid>
                   <pubid idtype="pmpid" link="fulltext">17468023</pubid>
                </pubidlist>
             </xrefbib>
          </bibl>
          <bibl id="B34">
             <title>
                <p>Epidemiological survey of swine cysticercosis in two rural communities of West-Cameroon</p>
             </title>
             <aug>
                <au>
                   <snm>Pouedet</snm>
                   <fnm>MSR</fnm>
                </au>
                <au>
                   <snm>Zoli</snm>
                   <fnm>AP</fnm>
                </au>
                <au>
                   <snm>Vondou</snm>
                   <fnm>L</fnm>
                </au>
                <au>
                   <snm>Assana</snm>
                   <fnm>E</fnm>
                </au>
                <au>
                   <snm>Speybroeck</snm>
                   <fnm>N</fnm>
                </au>
                <au>
                   <snm>Berkvens</snm>
                   <fnm>D</fnm>
                </au>
                <au>
                   <snm>Dorny</snm>
                   <fnm>P</fnm>
                </au>
                <au>
                   <snm>Brandt</snm>
                   <fnm>J</fnm>
                </au>
                <au>
                   <snm>Geerts</snm>
                   <fnm>S</fnm>
                </au>
             </aug>
             <source>Vet Parasitol</source>
             <pubdate>2002</pubdate>
             <volume>106</volume>
             <issue>1</issue>
             <fpage>45</fpage>
             <lpage>54</lpage>
             <xrefbib>
                <pubidlist>
                   <pubid idtype="doi">10.1016/S0304-4017(02)00035-3</pubid>
                   <pubid idtype="pmpid" link="fulltext">11992710</pubid>
                </pubidlist>
             </xrefbib>
          </bibl>
          <bibl id="B35">
             <title>
                <p>Measures for prevention and control of Taenia solium cysticercosis in pigs in rural community in Honduras</p>
             </title>
             <aug>
                <au>
                   <snm>Sarti</snm>
                   <fnm>E</fnm>
                </au>
                <au>
                   <snm>Rajshekahar</snm>
                   <fnm>V</fnm>
                </au>
             </aug>
             <source>Vet Parasitol</source>
             <pubdate>2003</pubdate>
             <volume>78</volume>
             <fpage>233</fpage>
             <lpage>238</lpage>
          </bibl>
          <bibl id="B36">
             <title>
                <p>A health-education intervention trial to reduce porcine cysticercosis in Mbulu District, Tanzania</p>
             </title>
             <aug>
                <au>
                   <snm>Ngowi</snm>
                   <fnm>HA</fnm>
                </au>
                <au>
                   <snm>Carabin</snm>
                   <fnm>H</fnm>
                </au>
                <au>
                   <snm>Kassuku</snm>
                   <fnm>AA</fnm>
                </au>
                <au>
                   <snm>Mlozi</snm>
                   <fnm>MRS</fnm>
                </au>
                <au>
                   <snm>Mlangwa</snm>
                   <fnm>JED</fnm>
                </au>
             </aug>
             <source>Prev Vet Med</source>
             <pubdate>2008</pubdate>
             <volume>85</volume>
             <issue>1&#8211;2</issue>
             <fpage>52</fpage>
             <lpage>67</lpage>
             <note>30</note>
             <xrefbib>
                <pubidlist>
                   <pubid idtype="doi">10.1016/j.prevetmed.2007.12.014</pubid>
                   <pubid idtype="pmpid" link="fulltext">18243375</pubid>
                </pubidlist>
             </xrefbib>
          </bibl>
          <bibl id="B37">
             <title>
                <p>Corrigendum to Prevalence of Taenia solium cysticercosis in swine from a community-based study in 21 villages of the Eastern Cape Province, South Africa</p>
             </title>
             <aug>
                <au>
                   <snm>Krecek</snm>
                   <fnm>RC</fnm>
                </au>
                <au>
                   <snm>Michael</snm>
                   <fnm>LM</fnm>
                </au>
                <au>
                   <snm>Schantz</snm>
                   <fnm>PM</fnm>
                </au>
                <au>
                   <snm>Ntanjana</snm>
                   <fnm>L</fnm>
                </au>
                <au>
                   <snm>Smith</snm>
                   <fnm>MF</fnm>
                </au>
                <au>
                   <snm>Dorny</snm>
                   <fnm>P</fnm>
                </au>
                <au>
                   <snm>Harrison</snm>
                   <fnm>LJS</fnm>
                </au>
                <au>
                   <snm>Grimm</snm>
                   <fnm>F</fnm>
                </au>
                <au>
                   <snm>Praet</snm>
                   <fnm>N</fnm>
                </au>
                <au>
                   <snm>Willingham</snm>
                   <fnm>AL</fnm>
                   <suf>III</suf>
                </au>
             </aug>
             <source>Vet Parasitol</source>
             <pubdate>2011</pubdate>
             <volume>154</volume>
             <issue>2008</issue>
             <fpage>3847</fpage>
          </bibl>
       </refgrp>
    </bm>
 </art>
