<art>
    <ui>s12917-014-0189-4</ui>
    <ji>1746-6148</ji>
    <fm>
       <dochead>Methodology article</dochead>
       <bibl>
          <title>
             <p>Evaluation of sixty-eight cases of fracture stabilisation by external hybrid fixation and a proposal for hybrid construct classification</p>
          </title>
          <aug>
             <au ca="yes" id="A1">
                <snm>Jim&#233;nez-Heras</snm>
                <fnm>Mar&#237;a</fnm>
                <insr iid="I1"/>
                <email>mariajh86@gmail.com</email>
             </au>
             <au id="A2">
                <snm>Rovesti</snm>
                <mnm>Luca</mnm>
                <fnm>Gian</fnm>
                <insr iid="I2"/>
                <email>grovesti@clinicamiller.it</email>
             </au>
             <au id="A3">
                <snm>Nocco</snm>
                <fnm>Gianluca</fnm>
                <insr iid="I3"/>
                <email>luconocco@hotmail.com</email>
             </au>
             <au id="A4">
                <snm>Barilli</snm>
                <fnm>Massimo</fnm>
                <insr iid="I4"/>
                <email>massimobarilli@alice.it</email>
             </au>
             <au id="A5">
                <snm>Bogoni</snm>
                <fnm>Paolo</fnm>
                <insr iid="I5"/>
                <email>paolobogoni@alice.it</email>
             </au>
             <au id="A6">
                <snm>Salas-Herreros</snm>
                <fnm>Emilio</fnm>
                <insr iid="I6"/>
                <email>emilio.shcc@gmail.com</email>
             </au>
             <au id="A7">
                <snm>Armato</snm>
                <fnm>Matteo</fnm>
                <insr iid="I7"/>
                <email>matteoarmato@gmail.com</email>
             </au>
             <au id="A8">
                <snm>Collivignarelli</snm>
                <fnm>Francesco</fnm>
                <insr iid="I8"/>
                <email>collivignarelli.francesco@gmail.com</email>
             </au>
             <au id="A9">
                <snm>Vegni</snm>
                <fnm>Federico</fnm>
                <insr iid="I9"/>
                <email>fvegni@yahoo.it</email>
             </au>
             <au id="A10">
                <snm>Rodr&#237;guez-Quiros</snm>
                <fnm>Jesus</fnm>
                <insr iid="I10"/>
                <email>jrquiros@vet.ucm.es</email>
             </au>
          </aug>
          <insg>
             <ins id="I1">
                <p>Centro Veterinario Eurocan, Guadarrama, Madrid, Spain</p>
             </ins>
             <ins id="I2">
                <p>Clinica Veterinaria M. E. Miller, Cavriago, (RE), Italy</p>
             </ins>
             <ins id="I3">
                <p>Centro Specialistico Veterinario di Lecce, Lecce, Italy</p>
             </ins>
             <ins id="I4">
                <p>Ospedale Veterinario &#8220;I Portoni Rossi&#8221;, Zola Pedrosa, (BO), Italy</p>
             </ins>
             <ins id="I5">
                <p>Ambulatorio Veterinario Associato Bogoni &amp; Pasotti, Ghedi, (BS), Italy</p>
             </ins>
             <ins id="I6">
                <p>Hospital Veterinario Benartemi 24H, Vecindario, Gran Canaria, Spain</p>
             </ins>
             <ins id="I7">
                <p>Fundacion Hospital ClinicoVeterinario de Castilla y Leon, Leon, Spain</p>
             </ins>
             <ins id="I8">
                <p>Clinica Veterinaria Roma Sud, Roma, Italy</p>
             </ins>
             <ins id="I9">
                <p>Ambulatorio Veterinario Casentino, Poppi, (AR), Italy</p>
             </ins>
             <ins id="I10">
                <p>Department of Internal Medicine and Surgery, Veterinary Teaching Hospital, Veterinary School, Complutense University, Madrid, Spain</p>
             </ins>
          </insg>
          <source>BMC Veterinary Research</source>
          <issn>1746-6148</issn>
          <pubdate>2014</pubdate>
          <volume>10</volume>
          <issue>1</issue>
          <fpage>189</fpage>
          <url>http://www.biomedcentral.com/1746-6148/10/189</url>
          <xrefbib>
             <pubidlist>
                <pubid idtype="doi">10.1186/s12917-014-0189-4</pubid>
                <pubid idtype="pmpid">25238972</pubid>
             </pubidlist>
          </xrefbib>
       </bibl>
       <history>
          <rec>
             <date>
                <day>3</day>
                <month>11</month>
                <year>2013</year>
             </date>
          </rec>
          <acc>
             <date>
                <day>13</day>
                <month>8</month>
                <year>2014</year>
             </date>
          </acc>
          <pub>
             <date>
                <day>20</day>
                <month>9</month>
                <year>2014</year>
             </date>
          </pub>
       </history>
       <cpyrt>
          <year>2014</year>
          <collab>Jim&#233;nez-Heras et al.; licensee BioMed Central Ltd.</collab>
          <note>This is an Open Access article distributed under the terms of the Creative Commons Attribution License (<url>http://creativecommons.org/licenses/by/2.0</url>), which permits unrestricted use, distribution, and reproduction in any medium, provided the original work is properly credited. The Creative Commons Public Domain Dedication waiver (<url>http://creativecommons.org/publicdomain/zero/1.0/</url>) applies to the data made available in this article, unless otherwise stated.</note>
       </cpyrt>
       <kwdg>
          <kwd>Fracture</kwd>
          <kwd>External hybrid fixation</kwd>
          <kwd>Hybrid frame classification</kwd>
          <kwd>Dog</kwd>
          <kwd>Cat</kwd>
       </kwdg>
       <abs>
          <sec>
             <st>
                <p>Abstract</p>
             </st>
             <sec>
                <st>
                   <p>Background</p>
                </st>
                <p>Hybrid external fixation (HEF) is an emerging technique for fracture stabilization in veterinary orthopedics, but its use has been reported in few papers in the veterinary literature. The linear and circular elements that form hybrid fixators can be connected in a very high number of combinations, and for this reason just referring to HEF without any classification is often misleading about the actual frame structure. The aim of this study was to retrospectively evaluate fracture stabilization by HEF in 58 client-owned dogs and 8 cats, and to extend the already existing classification for hybrid constructs to include all frame configurations used in this study and potentially applicable in clinical settings. Animal signalment, fracture classification, surgical procedure and frame configuration were recorded. Complications, radiographic, functional and cosmetic results were evaluated at the time of fixator removal.</p>
             </sec>
             <sec>
                <st>
                   <p>Results</p>
                </st>
                <p>Sixty-eight fractures in 58 dogs and eight cats were evaluated. Two dogs had bilateral fractures. Fifty-one percent were radio-ulna, 34% tibial, 9% humeral, 3% femoral and 3% scapular fractures. One ring combined with one or two linear elements was the most widely employed configuration in this case series. Radiographic results at the time of frame removal were excellent in 59% of the cases, good in 38% and fair in 3%, while functional and cosmetic results were excellent in 69% of the cases, good in 27% and fair in 4%.</p>
             </sec>
             <sec>
                <st>
                   <p>Conclusions</p>
                </st>
                <p>HEF is a useful option for fracture treatment in dogs and cats, particularly for peri and juxta-articular fractures. It can be applied with a minimally invasive approach, allows adjustments during the postoperative period and is a versatile system because of the large variety of combinations that can fit with the specific fracture features. The classification used enables to determine the number of linear and circular elements used in the frame.</p>
             </sec>
          </sec>
       </abs>
    </fm>
    <bdy>
       <sec>
          <st>
             <p>1
 						Background</p>
          </st>
          <p>External fixation is a very commonly used technique for fracture stabilisation. It can be used in open or closed fractures, produces minimal tissue disruption during its placement and can be used in combination with other forms of internal fixation <abbrgrp>
                <abbr bid="B1">1</abbr>
             </abbrgrp>.</p>
          <p>Linear external fixators (LEFs) are biomechanically versatile, allow simple assembly and disassembly, and are widely used to treat fractures <abbrgrp>
                <abbr bid="B2">2</abbr>
             </abbrgrp>.</p>
          <p>Circular external fixators (CEFs) have some biomechanical advantages over linear ones and are used to treat fractures, limb length discrepancies, bone defects, non-unions or angular deformities. However, they need a high level of postoperative (PO) care and are sometimes uncomfortable for the patient because of the interference with muscle and joint motion, being usually cumbersome and heavy <abbrgrp>
                <abbr bid="B3">3</abbr>
             </abbrgrp>,<abbrgrp>
                <abbr bid="B4">4</abbr>
             </abbrgrp>.</p>
          <p>Hybrid linear-circular external fixators (HEFs) consist of linear skeletal fixation articulated with circular fixation components. These frames have been applied in growth deformities correction and also in fracture repair <abbrgrp>
                <abbr bid="B5">5</abbr>
             </abbrgrp>,<abbrgrp>
                <abbr bid="B6">6</abbr>
             </abbrgrp>; they are versatile and enable different configurations depending on the features of the bone and fracture.</p>
          <p>HEFs share some of the positive characteristics of CEFs. The tensioned small-diameter wires allow the fixation of small bone fragments and counteract the bending or torsional displacements that are adverse for bone healing. Moreover, they enable the axial micro-motion, which stimulates callus formation and accelerates bone healing <abbrgrp>
                <abbr bid="B7">7</abbr>
             </abbrgrp>-<abbrgrp>
                <abbr bid="B9">9</abbr>
             </abbrgrp>. HEFs can also be changed in configuration, allowing PO adjustments and residual angular deformity correction <abbrgrp>
                <abbr bid="B3">3</abbr>
             </abbrgrp>,<abbrgrp>
                <abbr bid="B5">5</abbr>
             </abbrgrp>. CEFs usually require three or four rings to stabilize the fracture, while HEFs require a reduced number of rings due to their combination with the linear elements. As a consequence, HEFs are usually less cumbersome and are better tolerated by the patient, easier and less time consuming to apply <abbrgrp>
                <abbr bid="B6">6</abbr>
             </abbrgrp>,<abbrgrp>
                <abbr bid="B10">10</abbr>
             </abbrgrp>. This type of fixation is very useful in fractures with short juxta-articular fragments, in which AO/ASIF principles of a minimum of six cortices in each fragment <abbrgrp>
                <abbr bid="B11">11</abbr>
             </abbrgrp> are difficult to achieve. The circular component contributes to a good stabilisation of the small fragment, while the linear element is used in the long one <abbrgrp>
                <abbr bid="B5">5</abbr>
             </abbrgrp>,<abbrgrp>
                <abbr bid="B10">10</abbr>
             </abbrgrp>,<abbrgrp>
                <abbr bid="B12">12</abbr>
             </abbrgrp>. Ring diameter and thickness can be changed, while strut constructs can be added to the frame to adjust the axial stiffness of the fixator <abbrgrp>
                <abbr bid="B13">13</abbr>
             </abbrgrp>. HEFs are currently used in several types of fractures, not only in juxta-articular but also transverse, oblique or comminuted diaphyseal fractures <abbrgrp>
                <abbr bid="B10">10</abbr>
             </abbrgrp>,<abbrgrp>
                <abbr bid="B12">12</abbr>
             </abbrgrp>,<abbrgrp>
                <abbr bid="B14">14</abbr>
             </abbrgrp>.</p>
          <p>Published reports describe the use of HEFs for fracture stabilisation in dogs and cats <abbrgrp>
                <abbr bid="B5">5</abbr>
             </abbrgrp>,<abbrgrp>
                <abbr bid="B6">6</abbr>
             </abbrgrp>,<abbrgrp>
                <abbr bid="B10">10</abbr>
             </abbrgrp>,<abbrgrp>
                <abbr bid="B12">12</abbr>
             </abbrgrp> and a classification of these fixators has already been proposed <abbrgrp>
                <abbr bid="B6">6</abbr>
             </abbrgrp>,<abbrgrp>
                <abbr bid="B14">14</abbr>
             </abbrgrp>. The frame structures evaluated in this study did not fit completely with the existing classification, and for this reason it was extended to include all the potential combination of circular and linear elements.</p>
          <p>The objectives of this study were to evaluate the clinical and radiographic outcome of fracture stabilization with HEFs in a cohort of clinical cases, and to propose an extended classification method for hybrid frames.</p>
       </sec>
       <sec>
          <st>
             <p>2
 						Methods</p>
          </st>
          <p>Medical records of dogs and cats operated on for fracture stabilisation by HEFs at the institutions of the authors were reviewed. The use of external fixation was decided by the surgeon in charge of the case, and based on her/his experience and preference. The inclusion criteria were the availability of preoperative radiographs and PO rechecks until the time of frame removal. The HEF technique was defined as that involving an external fixator, whose components included at least one circular element in combination with at least a linear one. Sixty-eight fractures in 66 patients fulfilled the criteria for inclusion.</p>
          <p>Animal signalment (age, breed, gender, and weight) and information about the bone involved and fracture location were recorded. The great variation in frame configurations observed during the inclusion phase prompted for an extended classification of the hybrid fixators.</p>
          <p>Fractures were classified for location, if they were open or closed, and as simple (two bone fragments) or complex (more than two bone fragments).</p>
          <p>The circular elements were 6-mm-thick aluminum alloy or carbon fiber rings 55, 85 and 115&#160;mm in diameter, and were either complete (360&#176;) or partial rings (270&#176; or 180&#176;) (Universal system, Ad Maiora, Cavriago, Italy). The rings were 15-mm wide and included 8-mm wide slots to place stabilizing elements, i.e. connection threaded bars, bolts for fixation of K-wires and clamps holding threaded pins. Linear uniplanar elements (rails) were made of 6-mm-thick aluminum alloy or thermoplastic material and were connected to the rings by nuts and washers, which could be flat or hemispheric. When flat nuts and washers were used, the linear element was locked in an orthogonal position with respect to the ring. When the hemispheric ones were employed, it could be inclined up to 30&#176; with regards to the plane of the ring. Rails can have one, two or three oval slots with the same function as those of the rings. Linear cylindrical elements included rods and pin-holding cylinders. Rods were 80 or 110&#160;mm in length, are made of aluminum alloy and can be placed perpendicular or oblique with respect to the ring they are connected with. They bring specifically designed clamps to hold threaded pins up to 4&#160;mm in diameter. The cylinders had a diameter of 15&#160;mm, are made of aluminum alloy and have holes that can hold up to three threaded pins that are locked by an interferential screw (Universal system, Ad Maiora, Cavriago, Italy). The carbon fiber rings and thermoplastic rails are radiolucent, and they were used to increase the fracture evaluation when the amount of metallic frame could have hindered it.</p>
          <p>Details regarding the surgical procedure and configuration of the HEFs were recorded and an extended classification system was used to describe the frames used in this case series (Table&#160;<tblr tid="T1">1</tblr>).</p>
          
             <table id="T1">
                <title>
                   <p>Table 1</p>
                </title>
                <caption>
                   <p>
                      <b>Hybrid fixators classification based on rings and linear elements and their position in the frame</b>
                   </p>
                </caption>
                <tgroup align="left" cols="3">
                   <colspec align="left" colname="c1" colnum="1" colwidth="*"/>
                   <colspec align="left" colname="c2" colnum="2" colwidth="*"/>
                   <colspec align="left" colname="c3" colnum="3" colwidth="*"/>
                   <tbody>
                      <row valign="top">
                         <entry colname="c1"/>
                         <entry colname="c2">
                            <p>
                               <b>1. Type I configuration</b>
                            </p>
                         </entry>
                         <entry colname="c3"/>
                      </row>
                      <row rowsep="1" valign="top">
                         <entry colname="c1" valign="middle">
                            <p>
                               <b>IA</b>
                            </p>
                         </entry>
                         <entry colname="c2" valign="middle">
                            <p>1 ring and 1 linear element.</p>
                         </entry>
                         <entry colname="c3">
                            
                         </entry>
                      </row>
                      <row rowsep="1" valign="top">
                         <entry colname="c1" morerows="1" valign="middle">
                            <p>
                               <b>IB</b>
                            </p>
                         </entry>
                         <entry colname="c2" morerows="1" valign="middle">
                            <p>1 ring and 2 linear elements.</p>
                         </entry>
                         <entry colname="c3">
                            
                         </entry>
                      </row>
                      <row rowsep="1" valign="top">
                         <entry colname="c3">
                            
                         </entry>
                      </row>
                      <row valign="top">
                         <entry colname="c1" morerows="2" rowsep="1" valign="middle">
                            <p>
                               <b>IC</b>
                            </p>
                         </entry>
                         <entry colname="c2" morerows="2" rowsep="1" valign="middle">
                            <p>1 ring and 3 or more linear elements.</p>
                         </entry>
                         <entry colname="c3">
                            
                         </entry>
                      </row>
                      <row valign="top">
                         <entry colname="c3">
                            
                         </entry>
                      </row>
                      <row rowsep="1" valign="top">
                         <entry colname="c3">
                            
                         </entry>
                      </row>
                      <row valign="top">
                         <entry colname="c1"/>
                         <entry colname="c2">
                            <p>
                               <b>2. Type II configuration</b>
                            </p>
                         </entry>
                         <entry colname="c3"/>
                      </row>
                      <row rowsep="1" valign="top">
                         <entry colname="c1" morerows="1" valign="middle">
                            <p>
                               <b>IIA</b>
                            </p>
                         </entry>
                         <entry colname="c2" morerows="1" valign="middle">
                            <p>2 rings and 1 linear element.</p>
                         </entry>
                         <entry colname="c3">
                            
                         </entry>
                      </row>
                      <row valign="top">
                         <entry colname="c3" rowsep="1">
                            
                         </entry>
                      </row>
                      <row rowsep="1" valign="top">
                         <entry colname="c1" morerows="6" valign="middle">
                            <p>
                               <b>IIB</b>
                            </p>
                         </entry>
                         <entry colname="c2" morerows="6" valign="middle">
                            <p>2 rings and 2 linear elements.</p>
                         </entry>
                         <entry colname="c3">
                            
                         </entry>
                      </row>
                      <row valign="top">
                         <entry colname="c3">
                            
                         </entry>
                      </row>
                      <row valign="top">
                         <entry colname="c3">
                            
                         </entry>
                      </row>
                      <row valign="top">
                         <entry colname="c3">
                            
                         </entry>
                      </row>
                      <row valign="top">
                         <entry colname="c3">
                            
                         </entry>
                      </row>
                      <row valign="top">
                         <entry colname="c3">
                            
                         </entry>
                      </row>
                      <row rowsep="1" valign="top">
                         <entry colname="c3">
                            
                         </entry>
                      </row>
                      <row rowsep="1" valign="top">
                         <entry colname="c1" morerows="5" valign="middle">
                            <p>
                               <b>IIC</b>
                            </p>
                         </entry>
                         <entry colname="c2" morerows="5" valign="middle">
                            <p>2 rings and 3 linear elements</p>
                         </entry>
                         <entry colname="c3">
                            
                         </entry>
                      </row>
                      <row valign="top">
                         <entry colname="c3">
                            
                         </entry>
                      </row>
                      <row valign="top">
                         <entry colname="c3">
                            
                         </entry>
                      </row>
                      <row valign="top">
                         <entry colname="c3">
                            
                         </entry>
                      </row>
                      <row valign="top">
                         <entry colname="c3">
                            
                         </entry>
                      </row>
                      <row rowsep="1" valign="top">
                         <entry colname="c3">
                            
                         </entry>
                      </row>
                      <row rowsep="1" valign="top">
                         <entry colname="c1" morerows="5" valign="middle">
                            <p>
                               <b>IID</b>
                            </p>
                         </entry>
                         <entry colname="c2" morerows="5" valign="middle">
                            <p>2 rings and 4 linear elements.</p>
                         </entry>
                         <entry colname="c3">
                            
                         </entry>
                      </row>
                      <row valign="top">
                         <entry colname="c3">
                            
                         </entry>
                      </row>
                      <row valign="top">
                         <entry colname="c3">
                            
                         </entry>
                      </row>
                      <row valign="top">
                         <entry colname="c3">
                            
                         </entry>
                      </row>
                      <row valign="top">
                         <entry colname="c3">
                            
                         </entry>
                      </row>
                      <row rowsep="1" valign="top">
                         <entry colname="c3">
                            
                         </entry>
                      </row>
                      <row valign="top">
                         <entry colname="c1"/>
                         <entry colname="c2">
                            <p>
                               <b>3. Type III configuration</b>
                            </p>
                         </entry>
                         <entry colname="c3"/>
                      </row>
                      <row valign="top">
                         <entry nameend="c3" namest="c1">
                            <p>
                               <b>
                                  <it>IIIA:</it>
                               </b>
                               <it>3 or more rings and 1 linear element.</it>
                            </p>
                         </entry>
                      </row>
                      <row valign="top">
                         <entry nameend="c3" namest="c1">
                            <p>
                               <b>
                                  <it>IIIB</it>
                               </b>
                               <it>: 3 or more rings and 2 linear elements.</it>
                            </p>
                         </entry>
                      </row>
                      <row valign="top">
                         <entry nameend="c3" namest="c1">
                            <p>
                               <b>
                                  <it>IIIC</it>
                               </b>
                               <it>: 3 or more rings and 3 linear elements.</it>
                            </p>
                         </entry>
                      </row>
                      <row valign="top">
                         <entry nameend="c3" namest="c1">
                            <p>
                               <b>
                                  <it>IIID</it>
                               </b>
                               <it>: 3 or more rings and 4 or more linear elements.</it>
                            </p>
                         </entry>
                      </row>
                   </tbody>
                </tgroup>
             </table>
          
          <p>Classification based on ring number was as follows.</p><p>I. one ring included in the frame.</p>
             <p>II. two rings included in the frame.</p>
             <p>III. three or more rings included in the frame.</p>
          <p>Classification based on the linear element number was as follows.</p><p>A: One linear element included in the frame.</p>
             <p>B: Two linear elements included in the frame.</p>
             <p>C: Three linear elements included in the frame.</p>
             <p>D: Four or more linear elements included in the frame.</p>
          <p>For example, a construct IIC is composed of two rings and three linear elements.</p>
          <p>Some of the frame configurations included strut constructs, made by one or two malleable stainless steel bars connecting the linear and circular elements by hooks <abbrgrp>
                <abbr bid="B13">13</abbr>
             </abbrgrp>. Dynamizable linear components were used in some frames. They are linear elements that are composed of two telescopic rods that can be adjusted so as to compress or distract the fracture when in the locked position. They can also be set in a dynamic position, allowing axial loading during weight bearing, i.e. dynamization of the frame.</p>
          <p>Fracture reduction, radiographic results and functional and cosmetic results were evaluated following a scale already described <abbrgrp>
                <abbr bid="B3">3</abbr>
             </abbrgrp>.</p>
          <p>The fracture reduction was evaluated in the immediate PO, taking into account the contact between fragments and limb alignment:</p><p> Excellent: 90 to 100% contact between fragments and angular deformity less than 5&#176;.</p>
             <p> Good: 50 to 90% contact between fracture fragments or 5&#176; to 10&#176; angular deformity.</p>
             <p> Fair: 10 to 50% contact between fracture fragments or 10&#176; to 30&#176; angular deformity.</p>
             <p> Poor: contact between fracture fragments less than 10% or angular deformity greater than 30&#176; <abbrgrp>
                   <abbr bid="B3">3</abbr>
                </abbrgrp>.</p>
          <p>Total fixator time, i.e. the time the fixator was left on the patient, destabilization, number of PO rechecks, system adjustments and minor and major complications were recorded.</p>
          <p>The complications were considered minor when they were managed without additional surgery or they delayed the course of the treatment without influencing its expected outcome. Complications were considered major when they required additional surgery, substantial frame modification under general anesthesia or affected the final expected outcome.</p>
          <p>Outcome was evaluated by radiographic, functional and cosmetic results at the latest available recheck. Radiographic results were graded as follows:</p><p> Excellent: Fracture healed and angular deformity less than 5&#176;.</p>
             <p> Good: Fracture healed and 5&#176; to 10&#176; angular deformity.</p>
             <p> Fair: Fracture healed and 10 to 30&#176; of angular deformity.</p>
             <p> Poor: Fracture not healed or fracture healed and angular deformity greater than 30&#176; <abbrgrp>
                   <abbr bid="B3">3</abbr>
                </abbrgrp>.</p>
          <p>Functional and cosmetic results were graded compared to the contralateral limb. When this was not possible, the evaluation was performed comparing the affected limb with a normal dog limb <abbrgrp>
                <abbr bid="B3">3</abbr>
             </abbrgrp>,<abbrgrp>
                <abbr bid="B15">15</abbr>
             </abbrgrp> and graded as follows:</p><p> Excellent: Functionally normal and similar appearance to that of the contralateral normal limb.</p>
             <p> Good: Slight lameness only after exercise or minor difference with the contralateral normal limb.</p>
             <p> Fair: Slight to moderate lameness but consistent weight bearing or noticeable difference from the contralateral normal limb.</p>
             <p> Poor: Not weight bearing lameness or marked, disfiguring alteration compared to the contralateral normal limb.</p>
          <p>The ordinal data collected were statistically analyzed with the average&#8201;&#177;&#8201;standard deviation, using the statistical package SAS 9.2 (2008 SAS Institute Inc., Cary, NC, USA). The Student&#8217;s t-test was used to evaluate the null hypothesis between the following variables:</p><p> Type of fracture (open or closed, simple or complex) and healing time of the fracture.</p>
             <p> Presence of complications (minor or major) and healing time of the fracture.</p>
             <p> Presence of residual angular deformities and healing time of the fracture.</p>
          <p>The chi-square test was also used to evaluate the null hypothesis between the following variables:</p><p> Functional and cosmetic results and type of fracture (open or closed, simple or complex).</p>
             <p> Functional and cosmetic results and the presence of complications (minor or major).</p>
             <p> Type of fracture (open or closed, simple or complex) and presence of residual angular deformities.</p>
          <p>The level of significance was set at P &lt;&#8201;.05 for all the tests.</p>
          <p>The same statistical evaluations performed on the whole fractures population were repeated for radius-ulna and tibia fractures groups, which had the higher number of cases, enough to be statistically evaluated.</p>
          <p>No previous permission was requested to an Ethical Committee, because the technique evaluated is already described in the veterinary literature and clinically applied on a regular basis.</p>
       </sec>
       <sec>
          <st>
             <p>3
 						Results</p>
          </st>
          <p>A total of 68 fractures in 58 dogs and eight cats were retrospectively evaluated. Two dogs had bilateral fractures. Twenty-eight dogs were male and 30 female, while 4 cats were male and 4 female. Many breeds were included in the study.</p>
          <p>Mean age was 3.2&#8201;&#177;&#8201;3.3&#160;years (median, 2&#160;years; range, 0.1 to 14&#160;years) and mean body weight was 14&#8201;&#177;&#8201;10&#160;kg for dogs (median, 9&#160;kg; range, 1.5 to 45&#160;kg) and 4&#160;kg for cats (range, 3.1 to 5&#160;kg).</p>
          <p>Forty-three (63.2%) of the fractures were caused by car accidents, 11 (16.2%) by a fall from a height, 7 (10.3%) by unknown trauma, 3 (4.4%) by a jump during exercise, 3 (4.4%) by gunshot and 1 (1.5%) by a bite.</p>
          <p>The average delay between fracture and treatment in cases that were not previously treated was 6&#8201;&#177;&#8201;4.9&#160;days (median, 4&#160;days; range, 1 to 20&#160;days), while in the eight cases where the fracture was already operated on, the average delay between fracture and treatment was 33&#8201;&#177;&#8201;31.2&#160;days (median, 15&#160;days; range, 3 to 85&#160;days).</p>
          <p>Out of the 68 fractures, 35 (51%) were radio-ulna, 23 (34%) tibia, 6 (9%) humerus, 2 (3%) femur and 2 (3%) scapula fractures. Forty-four percent were right and 56% left limbs. Twenty-seven fractures (40%) were transverse, 24 (35%) were comminuted or multi-fragmentary, 11 (16%) were short oblique and 6 (9%) were long oblique or spiroidal. Twenty-seven (40%) fractures showed short peri or juxta-articular fragments, which were smaller than the 25% of the total length of the bone, and one fracture was articular.</p>
          <p>Ten fractures were open.</p>
          <p>Construct I was the most used frame structure in this study. Construct IA was applied in 16 (24%) cases, IB in 28 (41%) and IC in 7 (10%). Construct IIA was used in 2 (3%), IIB in 9 (13%), IIC in 2 (3%) and IID in 2 (3) cases. Constructs IIIB and IIIC were used in one case each.</p>
          <p>A cancellous bone graft was performed in two cases and the frame was connected to an intramedullary pin (tie-in construct) in three cases.</p>
          <p>Radiolucent elements were used in six frames. A radiolucent ring was used in five of them, while a radiolucent ring, bar and linear elements were used in the remaining one. Only one type of ring, i.e. full or partial, was employed in 61 cases. Full rings were used in 47 cases, 270&#176; rings were used in six, and 180&#176; rings in eight cases. Combinations of 180&#176; rings with 360&#176; rings were used in six cases, and 270&#176; with 360&#176; in one case. Linear uniplanar rails with one slot were included in 27 frame constructs, rails with two slots in 26 and rails with three slots in 4 frames. One frame included rails with one and three slots. The length of the rails was due to the size of the patient and to the features of the fracture. Cylinders were used in 4 frames, while cylindrical rods were used in 6 frames.</p>
          <p>Thirty-three frame constructs (48%) included linear components positioned orthogonally, 31 (46%) positioned obliquely and 4 (6%) contained both orthogonal and oblique linear elements. In 45 (66%) cases, no strut construct was included in the frame, while in 16 (24%) a strut construct with one bar and in 7 (10%) a strut construct with 2 bars was applied. A dynamizable bar was employed in two cases.</p>
          <p>Open minimally invasive surgery was performed in 45 (66%) fractures, fluoroscopy-assisted closed reduction was accomplished intraoperatively in 20 (30%), and in 3 (4%) cases closed reduction without fluoroscopy was carried out. Intraoperative skeletal traction for fracture reduction was used in 4 cases <abbrgrp>
                <abbr bid="B16">16</abbr>
             </abbrgrp>,<abbrgrp>
                <abbr bid="B17">17</abbr>
             </abbrgrp>.</p>
          <p>The mean time of surgery was 126&#8201;&#177;&#8201;41&#160;minutes (median, 122&#160;minutes; range, 45 to 220&#160;minutes). The fracture reduction achieved in the immediate PO was excellent in 36 (53%) cases, good in 24 (35%) and fair in 8 (12%).</p>
          <p>The mean time to fixator removal (fixator time) was 77&#8201;&#177;&#8201;32&#160;days (median, 67&#160;days; range, 21 to 167), and the average number of PO radiographic rechecks was 5 (range, 2 to 9).</p>
          <p>No significant differences in treatment duration between simple or complex fractures (P =&#8201;0.11) or between open or closed fractures (P =&#8201;0.31) were found.</p>
          <p>Destabilization was carried out in 27 (40%) cases. It was performed when bone callus was radiographically visible but it was not strong enough for complete fixator removal. In 21 cases a linear component was removed, while in five cases a circular element and in one case both linear and circular elements were removed. Frame adjustments were required in 16 cases (23%). Some adjustments were performed because of contact between the fixator and the skin, to exert compression on the fracture, dynamize the fracture callus or correct angular deformities.</p>
          <p>Thirty-nine fractures (57%) presented minor complications, including serous discharge from the pins and wire tracts (n =&#8201;25), which led to sero-purulent discharge in two of these cases, distal limb edema (n =&#8201;5), hemorrhage from the pins and wire tracts (n =&#8201;3), intraoperative fractures (n =&#8201;2), pressure sores caused by the frame on the skin (n =&#8201;2), loss of tension of the wires (n =&#8201;2), and loosening of some elements of the fixator (n =&#8201;2). Out of these 39 patients, five presented two minor complications.</p>
          <p>Twelve fractures (18%) presented major complications including osteomyelitis (n =&#8201;4), angular deformity that required revision (n =&#8201;2), secondary fracture (n =&#8201;2), bone sequestration (n =&#8201;1), frame instability (n =&#8201;1), elbow subluxation (n =&#8201;1) and quadriceps contracture (n =&#8201;1). There were no significant differences in treatment duration between cases that presented minor (<it>P =</it>&#8201;0.13) or major complications (P =&#8201;0.39) and those without complications.</p>
          <p>Radiographic results at the time of frame removal was graded as excellent in 39 (57%) cases, good in 25 (37%) and fair in 4 (6%).</p>
          <p>Functional and cosmetic results were scored as excellent in 46 (67%) cases, good in 18 (27%), fair in 3 (4%) and poor in one. In one of the cases, the radiographic outcome was graded as good, but the functional result was considered poor because of a quadriceps contracture. No statistically significant differences in functional and cosmetic results were found between simple or complex fractures (P =&#8201;0.49) or between open or closed fractures (P =&#8201;0.36). Moreover, no significant differences in functional and cosmetic results were observed between cases with minor (P =&#8201;0.84) or major complications (P =&#8201;0.18) and those without complications.</p>
          <p>Residual angular deformities were present in 14 cases. Valgus deformity was seen in nine cases; three of them had 5&#176;, two 8&#176; and the remaining had 6&#176;, 9&#176;, 15&#176; and 24&#176; of valgus. Varus of 4&#176; was present in one case, and 5&#176; and 30&#176; procurvatum in two. One case had 10&#176; procurvatum combined with 10&#176; supinatus, and another one 7&#176; procurvatum combined with 15&#176; valgus. Radius-ulna was the most prone to show residual angular deformities (8 cases), though this segment was overrepresented in this study.</p>
          <p>Complex fractures did not show a significantly higher number of angular deformities (P =&#8201;0.19) than simple fractures. The time to fixator removal was significantly higher (P &lt;&#8201;.01) in cases with angular deformities compared to cases without.</p>
          <sec>
             <st>
                <p>3.1 Radius-ulna</p>
             </st>
             <p>Thirty-five cases were radius-ulna fractures: 22 (63%) were transverse, 7 (20%) comminuted, 4 (11%) oblique, and 2 (6%) spiroidal. The most used configurations were IB in 20 (57%) cases (Figure&#160;<figr fid="F1">1</figr>), IIB in 6 (17%) and IA in 3 (9%). Two of the remaining 6 cases (6%) were treated with configuration IIA, two with IC, one with IIIB and one with IID configuration. The rings used for radius-ulna fractures were 360&#176; in 29 (83%) cases and 270&#176; in 2 (6%); a combination of 360&#176; rings distally and 270&#176; and 180&#176; rings proximally was used in 4 (11%) cases. Twenty-one (60%) frames contained orthogonal linear elements, 11 (31%) inclinable ones and 3 (9%) both of them. One or two-bar strut constructs were used in 8 (29%) constructs: one IA and 7 (35%) IB configurations. The healing time for radius-ulna fractures was 75.6&#8201;&#177;&#8201;30.6&#160;days (median, 67&#160;days; range, 36 to 167&#160;days).</p>
             
                <fig id="F1">
                   <title>
                      <p>Figure 1</p>
                   </title>
                   <caption>
                      <p>Clinical (A) and radiographic (B) pictures of a construct IB for stabilisation of a radius-ulna fracture.</p>
                   </caption>
                   <text>
                      <p>
                         <b>Clinical (A) and radiographic (B) pictures of a construct IB for stabilisation of a radius-ulna fracture.</b> The distal short segment was stabilised by two K wires tensioned on the ring and a threaded pin on a post, and the proximal long segment by three threaded pins on a rail. Note the use of a radiolucent ring to allow for an unobstructed visualization of the fracture area.</p>
                   </text>
                   <graphic file="s12917-014-0189-4-1"/>
                </fig>
             
             <p>One case treated with construct IA, 10 (50%) cases treated with IB and 3 (50%) cases with IIB exhibited minor complications. None of the cases with IA had major complications, while 6 (30%) of IB and one of IIB showed major complications. No differences were observed in treatment duration between open and closed fractures (P =&#8201;0.69) or between simple and complex ones (P =&#8201;0.97). Time to fixator removal was significantly longer when minor complications were present (P &lt;&#8201;.01), while no difference in treatment duration was found when major complications were present (P =&#8201;0.17). There were no differences in the functional and cosmetic results between simple or complex fractures (P =&#8201;0.4) and between open or closed fractures (P =&#8201;0.5). No statistically significant differences in functional and cosmetic results were found when minor (P =&#8201;0.67) or major complications (P =&#8201;0.40) were present. Furthermore, there was no significant difference in functional results between cases that showed angular deformities and those that did not (P =&#8201;1), and also in the time to fixator removal when angular deformities were present (P =&#8201;0.17).</p>
          </sec>
          <sec>
             <st>
                <p>3.2 Tibia</p>
             </st>
             <p>Twenty-three cases included in the study were tibial fractures: 11 (48%) comminuted or multi-fragmentary, 3 (13%) transverse, 7 (30%) oblique and 2 (9%) spiroidal. The most used configurations were IA (Figure&#160;<figr fid="F2">2</figr>) in 10 (44%) cases, IB in 5 (22%) and IC in 4 (17%). In two of the remaining four cases construct IIC (9%), in one IIB and in one IID were applied.</p>
             
                <fig id="F2">
                   <title>
                      <p>Figure 2</p>
                   </title>
                   <caption>
                      <p>Clinical (A) and radiographic (B) pictures of a construct IA for stabilisation of a tibia fracture.</p>
                   </caption>
                   <text>
                      <p>
                         <b>Clinical (A) and radiographic (B) pictures of a construct IA for stabilisation of a tibia fracture.</b> The distal short segment was stabilised by two K wires tensioned on the ring and the proximal long segment was stabilized by three threaded pins on a rail. Note the use of two malleable steel bar connected to the linear and circular element of the frame as a strut construct.</p>
                   </text>
                   <graphic file="s12917-014-0189-4-2"/>
                </fig>
             
             <p>The rings used were 360&#176; in 17 (74%) cases, 270&#176; in 3 (13 and 180&#176; in one; a combination of 180&#176; proximal ring with 360&#176; distal ring was used in 2 (9%) cases. Inclinable linear elements were used in 14 (61%) cases, while 8 (35%) included orthogonal ones and one both of them. One or two-bar strut constructs were used in 12 (52%) cases. Time to fixator removal was 77.6&#8201;&#177;&#8201;39.2&#160;days (median, 70&#160;days; range, 21 to 164&#160;days).</p>
             <p>Seven (70%) the cases treated with the IA configuration had minor complications, whereas 3 (60%) cases treated by IB and 3 (75%) treated by IC configuration displayed minor complications. None of the cases with the IA configuration showed major complications; however, one case with IB and two cases with IC configuration had major complications.</p>
             <p>No significant differences in treatment duration were found between simple or complex fractures (P =&#8201;0.11) and between open and closed ones (P =&#8201;0.4). Also, no significant differences were found in treatment duration when minor (P =&#8201;0.77) or major (P =&#8201;0.77) complications were present. There were no discernible differences in functional and cosmetic results between simple or complex fractures (P =&#8201;1) and between open and closed fractures (P =&#8201;0.6). Moreover, no differences in functional and cosmetic results were noted between cases with minor (P =&#8201;0.61) and major (P =&#8201;1) complications. There were also no differences in functional results between cases that showed angular deformities and those that did not (P =&#8201;0.6), and in the time to fixator removal when angular deformities were present (P =&#8201;0.14).</p>
          </sec>
          <sec>
             <st>
                <p>3.3 Humerus</p>
             </st>
             <p>Six cases in the study were humeral fractures. Four were diaphyseal comminuted or multifragmentary fractures, one was spiroidal fracture and one was an articular, bicondilar fracture. Configuration IIB (Figure&#160;<figr fid="F3">3</figr>) was used in two cases, while configurations IA, IB, IC and IIIC were applied in one case each. The rings used in the frame construct were 180&#176; in four cases, 270&#176; in one and 360&#176; in one. Four frames included inclinable linear elements and two orthogonal ones. No frame included a strut construct. Four cases had minor complications. None of the cases had major complications. Healing time for humeral fractures was 81.3&#8201;&#177;&#8201;23.6&#160;days (median, 71.5&#160;days; range, 60 to 120&#160;days).</p>
             
                <fig id="F3">
                   <title>
                      <p>Figure 3</p>
                   </title>
                   <caption>
                      <p>Clinical (A) and radiographic (B) pictures of a construct IIB for stabilisation of a humeral fracture.</p>
                   </caption>
                   <text>
                      <p>
                         <b>Clinical (A) and radiographic (B) pictures of a construct IIB for stabilisation of a humeral fracture.</b> The distal fragment was stabilised by two threaded pins on the ring and a threaded pin on a post; the proximal segment was stabilised by two pins on the ring. An intramedullary pin is connected to a rail placed on the proximal ring, resulting in a tie-in configuration.</p>
                   </text>
                   <graphic file="s12917-014-0189-4-3"/>
                </fig>
             
          </sec>
          <sec>
             <st>
                <p>3.4 Femur</p>
             </st>
             <p>Two cases involved femoral fractures; both of them were transversal fractures and treated with the IB configuration. Partial 180&#176; rings were used in the IB configuration, one of the fractures included an inclinable linear element and the other an orthogonal one. No strut construct was employed in these frames. Healing time was 82.5&#8201;&#177;&#8201;31.8&#160;days (median, 82.5&#160;days; range, 60 to 105&#160;days).</p>
          </sec>
          <sec>
             <st>
                <p>3.5 Scapula</p>
             </st>
             <p>Two cases were scapular fractures; both of them were comminuted fractures and treated using the IA configuration with partial 180&#176; rings. One of the frames included an inclinable linear element and the other an orthogonal one. A strut construct with two bars was employed in one of the cases. Healing time was 86.5&#8201;&#177;&#8201;33.2&#160;days (median, 86.5&#160;days; range, 63 to 110&#160;days).</p>
          </sec>
       </sec>
       <sec>
          <st>
             <p>4
 						Discussion</p>
          </st>
          <p>Hybrid external fixation is an emerging orthopaedic technique <abbrgrp>
                <abbr bid="B1">1</abbr>
             </abbrgrp>,<abbrgrp>
                <abbr bid="B5">5</abbr>
             </abbrgrp>,<abbrgrp>
                <abbr bid="B10">10</abbr>
             </abbrgrp>,<abbrgrp>
                <abbr bid="B12">12</abbr>
             </abbrgrp>. To date, a clear definition of what can be considered a hybrid fixator and a systematic classification of the frame structures used have not been proposed. While evaluating the cases for their inclusion in this study, we were prompted to define them in a simple yet consistent way and classify them in a clear, reproducible way, in order to create a homogenous group for evaluation. The classification used in this study is an extension of the existing one, and could be applied to the frame constructs that did not fit with the previous one.</p>
          <p>Previous studies have described the use of HEFs mainly to treat radio-ulna and tibial fractures <abbrgrp>
                <abbr bid="B5">5</abbr>
             </abbrgrp>,<abbrgrp>
                <abbr bid="B12">12</abbr>
             </abbrgrp>, while other study describe their application in femoral or humeral fractures <abbrgrp>
                <abbr bid="B10">10</abbr>
             </abbrgrp>. The cases included in this study demonstrated their application to scapula fractures as well. This fixation technique is often recommended to manage fractures with short juxta-articular segments <abbrgrp>
                <abbr bid="B10">10</abbr>
             </abbrgrp>,<abbrgrp>
                <abbr bid="B12">12</abbr>
             </abbrgrp>. In this case series, a wide variety of fractures was treated, from simple transverse diaphyseal fractures to comminuted and peri-articular ones. Interestingly, the healing time did not significantly differ between simple and complex fractures, and between the quality of functional and cosmetic outcome.</p>
          <p>Construct I was the most used frame structure in radius-ulna and tibial fractures. It was the easiest to apply, providing good stability to the fracture and being well tolerated by the patient. Construct IB was the most used in radius-ulna and IA in tibial fractures. The most used rings in tibial and radius-ulna configurations were 360&#176; and 270&#176;; when more than one ring was included in the frame, the half ring was always placed proximally, allowing flexion-extension of the stifle or elbow joint.</p>
          <p>Few studies have reported the use of HEF for proximal limb fractures <abbrgrp>
                <abbr bid="B5">5</abbr>
             </abbrgrp>,<abbrgrp>
                <abbr bid="B10">10</abbr>
             </abbrgrp>,<abbrgrp>
                <abbr bid="B12">12</abbr>
             </abbrgrp>. Construct IB was used in femoral fractures, using 180&#176; rings and pins and wires in areas with less prominent muscle masses <abbrgrp>
                <abbr bid="B6">6</abbr>
             </abbrgrp>, despite a real safe corridor for pin insertion does not exist in the femur. Humeral fractures were treated with constructs IA, IB, IC and IIIC. In most cases, 180&#176; and 270&#176; rings were used and positioned laterally, in order to avoid interference with a correct elbow function; a 360&#176; ring was used in a single case and elbow flexion was partially restricted.</p>
          <p>Scapula fractures were treated with construct IA, using a 180&#176; ring placed laterally, and was extremely well tolerated by the patients.</p>
          <p>Inclinable linear elements using hemispheric nuts and washers facilitated fracture alignment in different planes and PO changes when necessary <abbrgrp>
                <abbr bid="B6">6</abbr>
             </abbrgrp>,<abbrgrp>
                <abbr bid="B18">18</abbr>
             </abbrgrp>-<abbrgrp>
                <abbr bid="B20">20</abbr>
             </abbrgrp>. It has been shown that the use of hemispheric nuts and washers does not weaken the frame structure <abbrgrp>
                <abbr bid="B19">19</abbr>
             </abbrgrp>.</p>
          <p>HEF can be combined with other fracture treatment techniques. In this case series, the most used technique used in combination with the fixator was intramedullary pinning in the tie-in configuration <abbrgrp>
                <abbr bid="B5">5</abbr>
             </abbrgrp>,<abbrgrp>
                <abbr bid="B10">10</abbr>
             </abbrgrp>.</p>
          <p>The use of radiolucent elements allowed for better assessment of fracture reduction and healing on radiographs <abbrgrp>
                <abbr bid="B21">21</abbr>
             </abbrgrp>,<abbrgrp>
                <abbr bid="B22">22</abbr>
             </abbrgrp>. Historically, PO radiographic rechecks were difficult with external fixators, especially with CEFs, because of the superposition of the fixator elements onto the fracture. Repeated exposures were required, often with some degree of obliquity to avoid interference from the fixator, with a subsequent increase in X-ray exposure and the time required by the procedure. Radiolucent elements dramatically reduce radiographic interference, as well as the time required for the recheck and X-ray exposure.</p>
          <p>Once the primary bone callus has developed, axial micro-motion of the stabilized fracture segments stimulates further callus formation and bone healing <abbrgrp>
                <abbr bid="B7">7</abbr>
             </abbrgrp>-<abbrgrp>
                <abbr bid="B9">9</abbr>
             </abbrgrp>. For this purpose, both dynamization and destabilization techniques were used. Dynamizable fixators can be used as linear elements of the frame and can be changed to enable axial loading of the callus without torsional and bending forces because the fixator frame is not changed, other than for the sliding of the telescopic cylinders along the longitudinal axis. Destabilization can be achieved by removing some of the frame elements. Conceptually, this differs from dynamization because it introduces axial, torsional and bending forces in the callus, and not just the axial forces like with dynamization. Linear elements are removed for destabilization more frequently than circular ones in construct I frames because they stabilize the short fragment as the only holding element, while linear elements can be more than one, and they can be progressively removed. Furthermore, circular elements allow some micro-movements on the fracture callus, like compression and distraction, which are potentially beneficial for fracture consolidation and counteract more efficiently the bending and rotational forces that negatively affect callus maturation <abbrgrp>
                <abbr bid="B7">7</abbr>
             </abbrgrp>,<abbrgrp>
                <abbr bid="B8">8</abbr>
             </abbrgrp>,<abbrgrp>
                <abbr bid="B23">23</abbr>
             </abbrgrp>, and for this reason are usually the last elements to be removed. In this study, linear elements were removed in 78% of the cases where destabilization was performed. This may be due to the fact that 75% of the frames had just one ring, and it is much more likely to remove the lineal component before the ring.</p>
          <p>Strut constructs were used to increase the axial stiffness of the frame. The addition of one or two malleable steel bars connected to the frame by custom designed hooks prevented the junction between the circular and linear elements from being a stress riser in the construct. This occurred by distributing the forces acting on this junction among various points instead of a single one, thereby decreasing the risk of breakage. A report described the use of two bars as a strut construct, which compared favorably with the single-bar construct <abbrgrp>
                <abbr bid="B13">13</abbr>
             </abbrgrp>. In this study, 27% of the radius-ulna cases and 52% of the tibial cases employed strut constructs in their configuration. Moreover, this configuration promotes destabilization by removing the strut construct bars, thereby allowing more forces to be exerted on the fracture area.</p>
          <p>Intraoperatively, fluoroscopy and minimally invasive surgical approaches were carried out. These techniques result in less devascularization and soft tissue damage. Intraoperative skeletal traction was used to reduce the fracture in some cases. The application of the methods for fracture stabilization can be greatly simplified when the fracture is held stably and reduced <abbrgrp>
                <abbr bid="B15">15</abbr>
             </abbrgrp>.</p>
          <p>Frame preassembly was performed in most cases. It was based on preoperative radiographs and decreased surgical time and potential frame drawbacks <abbrgrp>
                <abbr bid="B3">3</abbr>
             </abbrgrp>. As described in previous reports and observed in this case cohort, patient positioning was very important during surgery because it can affect residual angular deformities <abbrgrp>
                <abbr bid="B3">3</abbr>
             </abbrgrp>. This can happen because in most instances the surgeon does not have a correct perspective view of the fractured limb. Based on the authors&#8217; experience, the limb should be free to be moved along the all range of motion during surgery, to check for improper limb alignment and potential interference with the fixator frame. A high percentage of the patients showed minor complications related to inflammation and wire/pin tract serous or purulent discharge, as already described in previous reports <abbrgrp>
                <abbr bid="B3">3</abbr>
             </abbrgrp>,<abbrgrp>
                <abbr bid="B4">4</abbr>
             </abbrgrp>,<abbrgrp>
                <abbr bid="B10">10</abbr>
             </abbrgrp>. In our study, 57% of the cases presented minor complications. These complications were controlled by thorough cleaning of the pin/wire bone interface, by antibiotics when osteomyelitis or soft tissue infection was suspected, and by removing the involved wire or pin in severe cases. In two cases, iatrogenic fractures were caused intraoperatively during pin insertion. One of them was caused by the pin placed too close to the fracture line, and the second one by the pin that opened a bone fissure that was not correctly appreciated by the surgeon. The offending pin was removed and the fracture stabilized by extending the frame structure, which stabilized both the original and iatrogenic fractures. This complication increased the healing time in radius-ulna fractures where it occurred.</p>
          <p>Major complications occurred in 12 (18%) cases. Osteomyelitis was mainly due to preoperative contamination and soft-tissue trauma and was treated with local curettage, antibiotics and a cleaning protocol. In case of open fractures, HEFs can be useful because they do not hinder the wound, giving the opportunity for PO management. Other complications were represented by bone sequestration due to an avascular area of bone, bone lysis along wire and pin tracts, leading to frame instability, or nonunions. They were managed by revising the fracture area, removing fibrous and necrotic tissues, and increasing the stabilisation by changing the ineffective stabilizing elements.</p>
          <p>Residual deformities were acutely or progressively corrected, thanks to the frame adjustments performed with the hemispheric nuts and washers <abbrgrp>
                <abbr bid="B18">18</abbr>
             </abbrgrp>-<abbrgrp>
                <abbr bid="B20">20</abbr>
             </abbrgrp>. Most of these changes were made with the awake patient, reducing the cost of the procedure and the risks associated with anesthesia <abbrgrp>
                <abbr bid="B3">3</abbr>
             </abbrgrp>. In five (36%) of the 14 cases that had residual angular deformities this resulted in a longer healing time. In some cases the correction was not performed due to the unavailability of the owners, for example when they lived very far from the clinic, economical constraints, technical difficulties, or lack of appreciation of the problem by either the owners or the surgeon.</p>
          <p>As already described for circular external fixation <abbrgrp>
                <abbr bid="B3">3</abbr>
             </abbrgrp>, the potential for PO adjustments of the frame and limb residual angular deformity corrections favorably altered the grade of the fracture in the immediate PO and at implant removal. Some of the cases that were classified as fair or good in the immediate PO were eventually classified as good or excellent following this PO correction.</p>
          <p>The healing time in our case series was similar to those reported earlier <abbrgrp>
                <abbr bid="B5">5</abbr>
             </abbrgrp>,<abbrgrp>
                <abbr bid="B10">10</abbr>
             </abbrgrp>, but longer in comparison with CEFs in antebrachial and crural fractures <abbrgrp>
                <abbr bid="B3">3</abbr>
             </abbrgrp>,<abbrgrp>
                <abbr bid="B4">4</abbr>
             </abbrgrp>.</p>
       </sec>
       <sec>
          <st>
             <p>5
 						Conclusions</p>
          </st>
          <p>Hybrid fixation represents a technique that can be considered for fracture stabilization, mostly for peri and juxta-articular fractures. It is a very versatile technique, and apparently the fracture features and complications do not heavily influence its outcome. For this reason they may be a suitable option for treatment of more demanding fractures. The extended classification system enables the inclusion of many potential frame configurations. Future biomechanical studies could be interesting to evaluate the influence of the relative position of linear and circular elements in the frame.</p>
          <p>This study has some limitations. Being a retrospective clinical investigation, the study design has inherent uncontrolled variables. Among those is the multi-centric nature of the study, which introduces a high level of intra-surgeon variability in the surgical approach, PO management, complication management, and timing for dynamization and/or destabilization. Furthermore, the same surgeon who had operated on the fracture evaluated the outcome of the case, and this could have introduced bias on its objective evaluation.</p>
       </sec>
       <sec>
          <st>
             <p>Competing interests</p>
          </st>
          <p>Dr. Rovesti owns shares of the Ad Maiora Company.</p>
       </sec>
       <sec>
          <st>
             <p>Authors&#8217; contributions</p>
          </st>
          <p>MJH was involved in collecting, analyzing and interpreting the data, drafting the manuscript and developing the classification scheme for HEF. GLR contributed providing data of the clinical cases included in the study, developing the classification scheme for HEF, revising the manuscript for intellectual content and giving the final approval for the version to be published. GLR, GN, MB, PB, ES, MA, FC and FV contributed providing data of the clinical cases included in the study that were used to create the hybrid classification. JRQ contributed to the analysis and interpretation of data, developing the classification scheme for HEF and revising the manuscript for intellectual content. All authors read and approved the final manuscript.</p>
       </sec>
       <sec>
          <st>
             <p>Authors&#8217; information</p>
          </st>
          <p>Matteo Armato present address is YourVets, Coventry, UK.</p>
       </sec>
    </bdy>
    <bm>
       <ack>
          <sec>
             <st>
                <p>Acknowledgements</p>
             </st>
             <p>Dr. Francisco Javier Garcia Liras (Madrid, Spain) designed for this article the illustrations appearing in the classification scheme for HEF.</p>
          </sec>
       </ack>
       <refgrp>
          
          <bibl id="B1">
             <title>
                <p>Recent advances in external skeletal fixation</p>
             </title>
             <aug>
                <au>
                   <snm>Lewis</snm>
                   <fnm>DD</fnm>
                </au>
                <au>
                   <snm>Cross</snm>
                   <fnm>AR</fnm>
                </au>
                <au>
                   <snm>Carmichael</snm>
                   <fnm>S</fnm>
                </au>
                <au>
                   <snm>Anderson</snm>
                   <fnm>MA</fnm>
                </au>
             </aug>
             <source>J Small Anim Pract</source>
             <pubdate>2001</pubdate>
             <volume>42</volume>
             <fpage>103</fpage>
             <lpage>112</lpage>
             <xrefbib>
                <pubidlist>
                   <pubid idtype="doi">10.1111/j.1748-5827.2001.tb02006.x</pubid>
                   <pubid idtype="pmpid" link="fulltext">11303852</pubid>
                </pubidlist>
             </xrefbib>
          </bibl>
          <bibl id="B2">
             <title>
                <p>External skeletal fixation: linear fixators</p>
             </title>
             <aug>
                <au>
                   <snm>Johnson</snm>
                   <fnm>AL</fnm>
                </au>
                <au>
                   <snm>DeCamp</snm>
                   <fnm>CE</fnm>
                </au>
             </aug>
             <source>Vet Clin North Am Small Anim Pract</source>
             <pubdate>1999</pubdate>
             <volume>29</volume>
             <fpage>1135</fpage>
             <lpage>1152</lpage>
             <xrefbib>
                <pubidlist>
                   <pubid idtype="pmpid" link="fulltext">10503288</pubid>
                </pubidlist>
             </xrefbib>
          </bibl>
          <bibl id="B3">
             <title>
                <p>Management of 49 antebrachial and crural fractures in dogs using circular external fixators</p>
             </title>
             <aug>
                <au>
                   <snm>Rovesti</snm>
                   <fnm>GL</fnm>
                </au>
                <au>
                   <snm>Bosio</snm>
                   <fnm>A</fnm>
                </au>
                <au>
                   <snm>Marcellin-Little</snm>
                   <fnm>DJ</fnm>
                </au>
             </aug>
             <source>J Small Anim Pract</source>
             <pubdate>2007</pubdate>
             <volume>48</volume>
             <fpage>194</fpage>
             <lpage>200</lpage>
             <xrefbib>
                <pubidlist>
                   <pubid idtype="doi">10.1111/j.1748-5827.2006.00267.x</pubid>
                   <pubid idtype="pmpid" link="fulltext">17381764</pubid>
                </pubidlist>
             </xrefbib>
          </bibl>
          <bibl id="B4">
             <title>
                <p>Circular external skeletal fixation stabilization of antebrachial and crural fractures in 25 dogs</p>
             </title>
             <aug>
                <au>
                   <snm>Anderson</snm>
                   <fnm>GM</fnm>
                </au>
                <au>
                   <snm>Lewis</snm>
                   <fnm>DD</fnm>
                </au>
                <au>
                   <snm>Radasch</snm>
                   <fnm>RM</fnm>
                </au>
                <au>
                   <snm>Marcellin-Little</snm>
                   <fnm>DJ</fnm>
                </au>
                <au>
                   <snm>Degna</snm>
                   <fnm>MT</fnm>
                </au>
                <au>
                   <snm>Cross</snm>
                   <fnm>AR</fnm>
                </au>
             </aug>
             <source>J Am Anim Hosp Assoc</source>
             <pubdate>2003</pubdate>
             <volume>39</volume>
             <fpage>479</fpage>
             <lpage>498</lpage>
             <xrefbib>
                <pubidlist>
                   <pubid idtype="doi">10.5326/0390479</pubid>
                   <pubid idtype="pmpid" link="fulltext">14518657</pubid>
                </pubidlist>
             </xrefbib>
          </bibl>
          <bibl id="B5">
             <title>
                <p>Use of IMEX SK-circular external fixator hybrid constructs for fracture stabilization in dogs and cats</p>
             </title>
             <aug>
                <au>
                   <snm>Farese</snm>
                   <fnm>JP</fnm>
                </au>
                <au>
                   <snm>Lewis</snm>
                   <fnm>DD</fnm>
                </au>
                <au>
                   <snm>Cross</snm>
                   <fnm>AR</fnm>
                </au>
                <au>
                   <snm>Collins</snm>
                   <fnm>KE</fnm>
                </au>
                <au>
                   <snm>Anderson</snm>
                   <fnm>GM</fnm>
                </au>
                <au>
                   <snm>Halling</snm>
                   <fnm>KB</fnm>
                </au>
             </aug>
             <source>J Am Anim Hosp Assoc</source>
             <pubdate>2002</pubdate>
             <volume>38</volume>
             <fpage>279</fpage>
             <lpage>289</lpage>
             <xrefbib>
                <pubidlist>
                   <pubid idtype="doi">10.5326/0380279</pubid>
                   <pubid idtype="pmpid" link="fulltext">12022415</pubid>
                </pubidlist>
             </xrefbib>
          </bibl>
          <bibl id="B6">
             <title>
                <p>Descriptive report of antebrachial growth deformity correction in 17 dogs from 1999 to 2007, using hybrid linear-circular external fixators constructs</p>
             </title>
             <aug>
                <au>
                   <snm>Sereda</snm>
                   <fnm>CW</fnm>
                </au>
                <au>
                   <snm>Lewis</snm>
                   <fnm>DD</fnm>
                </au>
                <au>
                   <snm>Radasch</snm>
                   <fnm>RM</fnm>
                </au>
                <au>
                   <snm>Bruce</snm>
                   <fnm>CW</fnm>
                </au>
                <au>
                   <snm>Kirkby</snm>
                   <fnm>KA</fnm>
                </au>
             </aug>
             <source>Can Vet J</source>
             <pubdate>2009</pubdate>
             <volume>50</volume>
             <fpage>723</fpage>
             <lpage>732</lpage>
             <xrefbib>
                <pubidlist>
                   <pubid idtype="pmpid" link="fulltext">19794868</pubid>
                </pubidlist>
             </xrefbib>
          </bibl>
          <bibl id="B7">
             <title>
                <p>The influence of induced micromovement upon the healing of experimental tibial fractures</p>
             </title>
             <aug>
                <au>
                   <snm>Goodship</snm>
                   <fnm>AE</fnm>
                </au>
                <au>
                   <snm>Kenwright</snm>
                   <fnm>J</fnm>
                </au>
             </aug>
             <source>J Bone Joint Surg [Br]</source>
             <pubdate>1985</pubdate>
             <volume>67</volume>
             <fpage>650</fpage>
             <lpage>655</lpage>
          </bibl>
          <bibl id="B8">
             <title>
                <p>Axial movement and tibial fractures. A controlled randomized trial of treatment</p>
             </title>
             <aug>
                <au>
                   <snm>Kenwright</snm>
                   <fnm>J</fnm>
                </au>
                <au>
                   <snm>Richardson</snm>
                   <fnm>JB</fnm>
                </au>
                <au>
                   <snm>Cunningham</snm>
                   <fnm>JL</fnm>
                </au>
                <au>
                   <snm>White</snm>
                   <fnm>SH</fnm>
                </au>
                <au>
                   <snm>Goodship</snm>
                   <fnm>AE</fnm>
                </au>
                <au>
                   <snm>Adams</snm>
                   <fnm>MA</fnm>
                </au>
                <au>
                   <snm>Magnussen</snm>
                   <fnm>PA</fnm>
                </au>
                <au>
                   <snm>Newman</snm>
                   <fnm>JH</fnm>
                </au>
             </aug>
             <source>J Bone Joint Surg [Br]</source>
             <pubdate>1991</pubdate>
             <volume>73</volume>
             <fpage>654</fpage>
             <lpage>659</lpage>
          </bibl>
          <bibl id="B9">
             <title>
                <p>Application and postoperative management of external skeletal fixators</p>
             </title>
             <aug>
                <au>
                   <snm>Aron</snm>
                   <fnm>DN</fnm>
                </au>
                <au>
                   <snm>Dewey</snm>
                   <fnm>CW</fnm>
                </au>
             </aug>
             <source>Vet Clin North Am Small Anim Pract</source>
             <pubdate>1992</pubdate>
             <volume>22</volume>
             <fpage>69</fpage>
             <lpage>98</lpage>
             <xrefbib>
                <pubidlist>
                   <pubid idtype="pmpid" link="fulltext">1539431</pubid>
                </pubidlist>
             </xrefbib>
          </bibl>
          <bibl id="B10">
             <title>
                <p>Management of humeral and femoral fractures in dogs and cats with linear-circular hybrid external fixators</p>
             </title>
             <aug>
                <au>
                   <snm>Kirkby</snm>
                   <fnm>KA</fnm>
                </au>
                <au>
                   <snm>Lewis</snm>
                   <fnm>DD</fnm>
                </au>
                <au>
                   <snm>Lafuente</snm>
                   <fnm>MP</fnm>
                </au>
                <au>
                   <snm>Radasch</snm>
                   <fnm>RM</fnm>
                </au>
                <au>
                   <snm>Fitzpatrick</snm>
                   <fnm>N</fnm>
                </au>
                <au>
                   <snm>Farese</snm>
                   <fnm>JP</fnm>
                </au>
                <au>
                   <snm>Wheeler</snm>
                   <fnm>JL</fnm>
                </au>
                <au>
                   <snm>Hernandez</snm>
                   <fnm>JA</fnm>
                </au>
             </aug>
             <source>J Am Anim Hosp Assoc</source>
             <pubdate>2008</pubdate>
             <volume>44</volume>
             <fpage>180</fpage>
             <lpage>197</lpage>
             <xrefbib>
                <pubidlist>
                   <pubid idtype="doi">10.5326/0440180</pubid>
                   <pubid idtype="pmpid" link="fulltext">18593855</pubid>
                </pubidlist>
             </xrefbib>
          </bibl>
          <bibl id="B11">
             <title>
                <p>Chapter 2</p>
             </title>
             <aug>
                <au>
                   <snm>Schatzker</snm>
                   <fnm>J</fnm>
                </au>
                <au>
                   <snm>Meutstege</snm>
                   <fnm>F</fnm>
                </au>
                <au>
                   <snm>Prieur</snm>
                   <fnm>WD</fnm>
                </au>
             </aug>
             <source>Implants and Their Application. Manual of Internal Fixation in Small Animals</source>
             <publisher>Springer-Verlag, Berlin, Germany</publisher>
             <editor>Brinker WO, Olmstead MI, Sumner-Smith G, Prieur WD</editor>
             <pubdate>1998</pubdate>
             <fpage>57</fpage>
             <lpage>94</lpage>
             <xrefbib>
                <pubidlist>
                   <pubid idtype="doi">10.1007/978-3-642-60288-7_2</pubid>
                </pubidlist>
             </xrefbib>
          </bibl>
          <bibl id="B12">
             <title>
                <p>Treatment of distal diaphyseal fractures using hybrid external skeletal fixation in three dogs</p>
             </title>
             <aug>
                <au>
                   <snm>Clarke</snm>
                   <fnm>SP</fnm>
                </au>
                <au>
                   <snm>Carmichael</snm>
                   <fnm>S</fnm>
                </au>
             </aug>
             <source>J Small Anim Pract</source>
             <pubdate>2006</pubdate>
             <volume>47</volume>
             <fpage>98</fpage>
             <lpage>103</lpage>
             <xrefbib>
                <pubidlist>
                   <pubid idtype="doi">10.1111/j.1748-5827.2006.00014.x</pubid>
                   <pubid idtype="pmpid" link="fulltext">16438698</pubid>
                </pubidlist>
             </xrefbib>
          </bibl>
          <bibl id="B13">
             <title>
                <p>Biomechanical comparison of strategies to adjust axial stiffness of a hybrid fixator</p>
             </title>
             <aug>
                <au>
                   <snm>Socie</snm>
                   <fnm>MJ</fnm>
                </au>
                <au>
                   <snm>Rovesti</snm>
                   <fnm>GL</fnm>
                </au>
                <au>
                   <snm>Griffon</snm>
                   <fnm>DJ</fnm>
                </au>
                <au>
                   <snm>Elkhatib</snm>
                   <fnm>O</fnm>
                </au>
                <au>
                   <snm>Mudrock</snm>
                   <fnm>RN</fnm>
                </au>
                <au>
                   <snm>Kurath</snm>
                   <fnm>P</fnm>
                </au>
             </aug>
             <source>Vet Comp Orthop Traumatol</source>
             <pubdate>2012</pubdate>
             <volume>25</volume>
             <fpage>224</fpage>
             <lpage>230</lpage>
             <xrefbib>
                <pubidlist>
                   <pubid idtype="doi">10.3415/VCOT-11-04-0053</pubid>
                   <pubid idtype="pmpid" link="fulltext">22451135</pubid>
                </pubidlist>
             </xrefbib>
          </bibl>
          <bibl id="B14">
             <title>
                <p>A biomechanical comparison of three hybrid linear-circular external fixator constructs</p>
             </title>
             <aug>
                <au>
                   <snm>Hudson</snm>
                   <fnm>CC</fnm>
                </au>
                <au>
                   <snm>Lewis</snm>
                   <fnm>DD</fnm>
                </au>
                <au>
                   <snm>Cross</snm>
                   <fnm>AR</fnm>
                </au>
                <au>
                   <snm>Dunbar</snm>
                   <fnm>NJ</fnm>
                </au>
                <au>
                   <snm>Horodyski</snm>
                   <fnm>M</fnm>
                </au>
                <au>
                   <snm>Banks</snm>
                   <fnm>SA</fnm>
                </au>
                <au>
                   <snm>Pozzi</snm>
                   <fnm>A</fnm>
                </au>
             </aug>
             <source>Vet Surg</source>
             <pubdate>2012</pubdate>
             <volume>41</volume>
             <fpage>954</fpage>
             <lpage>965</lpage>
             <xrefbib>
                <pubidlist>
                   <pubid idtype="doi">10.1111/j.1532-950X.2012.01035.x</pubid>
                   <pubid idtype="pmpid" link="fulltext">22957475</pubid>
                </pubidlist>
             </xrefbib>
          </bibl>
          <bibl id="B15">
             <title>
                <p>Antebrachial deformities in the dog: treatment with external fixation</p>
             </title>
             <aug>
                <au>
                   <snm>Fox</snm>
                   <fnm>SM</fnm>
                </au>
                <au>
                   <snm>Bray</snm>
                   <fnm>JC</fnm>
                </au>
                <au>
                   <snm>Guerin</snm>
                   <fnm>SR</fnm>
                </au>
                <au>
                   <snm>Burbridge</snm>
                   <fnm>HM</fnm>
                </au>
             </aug>
             <source>J Small Anim Pract</source>
             <pubdate>1995</pubdate>
             <volume>36</volume>
             <fpage>315</fpage>
             <lpage>320</lpage>
             <xrefbib>
                <pubidlist>
                   <pubid idtype="doi">10.1111/j.1748-5827.1995.tb02936.x</pubid>
                   <pubid idtype="pmpid" link="fulltext">7474962</pubid>
                </pubidlist>
             </xrefbib>
          </bibl>
          <bibl id="B16">
             <title>
                <p>Intraoperative skeletal traction in the dog: a cadaveric study</p>
             </title>
             <aug>
                <au>
                   <snm>Rovesti</snm>
                   <fnm>GL</fnm>
                </au>
                <au>
                   <snm>Margini</snm>
                   <fnm>A</fnm>
                </au>
                <au>
                   <snm>Cappellari</snm>
                   <fnm>F</fnm>
                </au>
                <au>
                   <snm>Peirone</snm>
                   <fnm>B</fnm>
                </au>
             </aug>
             <source>Vet Comp Orthop Traumatol</source>
             <pubdate>2006</pubdate>
             <volume>19</volume>
             <fpage>9</fpage>
             <lpage>13</lpage>
             <xrefbib>
                <pubidlist>
                   <pubid idtype="pmpid" link="fulltext">16594538</pubid>
                </pubidlist>
             </xrefbib>
          </bibl>
          <bibl id="B17">
             <title>
                <p>Clinical application of intraoperative skeletal traction in the dog</p>
             </title>
             <aug>
                <au>
                   <snm>Rovesti</snm>
                   <fnm>GL</fnm>
                </au>
                <au>
                   <snm>Margini</snm>
                   <fnm>A</fnm>
                </au>
                <au>
                   <snm>Cappellari</snm>
                   <fnm>F</fnm>
                </au>
                <au>
                   <snm>Peirone</snm>
                   <fnm>B</fnm>
                </au>
             </aug>
             <source>Vet Comp Orthop Traumatol</source>
             <pubdate>2006</pubdate>
             <volume>19</volume>
             <fpage>14</fpage>
             <lpage>19</lpage>
             <xrefbib>
                <pubidlist>
                   <pubid idtype="pmpid" link="fulltext">16594539</pubid>
                </pubidlist>
             </xrefbib>
          </bibl>
          <bibl id="B18">
             <title>
                <p>Pes varus correction in Dachshunds using a hybrid external fixator</p>
             </title>
             <aug>
                <au>
                   <snm>Radasch</snm>
                   <fnm>RM</fnm>
                </au>
                <au>
                   <snm>Lewis</snm>
                   <fnm>DF</fnm>
                </au>
                <au>
                   <snm>McDonald</snm>
                   <fnm>DE</fnm>
                </au>
                <au>
                   <snm>Calfee</snm>
                   <fnm>EF</fnm>
                </au>
                <au>
                   <snm>Barstad</snm>
                   <fnm>RD</fnm>
                </au>
             </aug>
             <source>Vet Surg</source>
             <pubdate>2008</pubdate>
             <volume>37</volume>
             <fpage>71</fpage>
             <lpage>81</lpage>
             <xrefbib>
                <pubidlist>
                   <pubid idtype="doi">10.1111/j.1532-950X.2007.00350.x</pubid>
                   <pubid idtype="pmpid" link="fulltext">18199059</pubid>
                </pubidlist>
             </xrefbib>
          </bibl>
          <bibl id="B19">
             <title>
                <p>Are circular external fixators weakened by the use of hemispheric washers?</p>
             </title>
             <aug>
                <au>
                   <snm>Marcellin-Little</snm>
                   <fnm>DJ</fnm>
                </au>
                <au>
                   <snm>Roe</snm>
                   <fnm>SC</fnm>
                </au>
                <au>
                   <snm>Rovesti</snm>
                   <fnm>GL</fnm>
                </au>
                <au>
                   <snm>Bosio</snm>
                   <fnm>A</fnm>
                </au>
                <au>
                   <snm>Ferretti</snm>
                   <fnm>A</fnm>
                </au>
             </aug>
             <source>Vet Surg</source>
             <pubdate>2002</pubdate>
             <volume>31</volume>
             <fpage>367</fpage>
             <lpage>374</lpage>
             <xrefbib>
                <pubidlist>
                   <pubid idtype="doi">10.1053/jvet.2002.33604</pubid>
                   <pubid idtype="pmpid" link="fulltext">12094351</pubid>
                </pubidlist>
             </xrefbib>
          </bibl>
          <bibl id="B20">
             <title>
                <p>Axial characteristics of circular external skeletal fixator single ring constructs</p>
             </title>
             <aug>
                <au>
                   <snm>Lewis</snm>
                   <fnm>DD</fnm>
                </au>
                <au>
                   <snm>Bronson</snm>
                   <fnm>DG</fnm>
                </au>
                <au>
                   <snm>Cross</snm>
                   <fnm>AR</fnm>
                </au>
                <au>
                   <snm>Welch</snm>
                   <fnm>RD</fnm>
                </au>
                <au>
                   <snm>Kubilis</snm>
                   <fnm>PS</fnm>
                </au>
             </aug>
             <source>Vet Surg</source>
             <pubdate>2011</pubdate>
             <volume>30</volume>
             <fpage>386</fpage>
             <lpage>394</lpage>
             <xrefbib>
                <pubidlist>
                   <pubid idtype="doi">10.1053/jvet.2001.24397</pubid>
                </pubidlist>
             </xrefbib>
          </bibl>
          <bibl id="B21">
             <title>
                <p>Comparative biomechanical evaluation of different external fixation sidebars: stainless-steel tubes versus carbon fiber rods</p>
             </title>
             <aug>
                <au>
                   <snm>Kowalski</snm>
                   <fnm>M</fnm>
                </au>
                <au>
                   <snm>Schemitsch</snm>
                   <fnm>EH</fnm>
                </au>
                <au>
                   <snm>Harrington</snm>
                   <fnm>RM</fnm>
                </au>
                <au>
                   <snm>Chapman</snm>
                   <fnm>JR</fnm>
                </au>
                <au>
                   <snm>Swiontkowski</snm>
                   <fnm>MF</fnm>
                </au>
             </aug>
             <source>J Orthop Trauma</source>
             <pubdate>1996</pubdate>
             <volume>10</volume>
             <fpage>470</fpage>
             <lpage>475</lpage>
             <xrefbib>
                <pubidlist>
                   <pubid idtype="doi">10.1097/00005131-199610000-00004</pubid>
                   <pubid idtype="pmpid" link="fulltext">8892146</pubid>
                </pubidlist>
             </xrefbib>
          </bibl>
          <bibl id="B22">
             <title>
                <p>Biomechanics of radiotransparent circular external fixators</p>
             </title>
             <aug>
                <au>
                   <snm>Nele</snm>
                   <fnm>U</fnm>
                </au>
                <au>
                   <snm>Maffulli</snm>
                   <fnm>N</fnm>
                </au>
                <au>
                   <snm>Pintore</snm>
                   <fnm>E</fnm>
                </au>
             </aug>
             <source>Clin Orthop Relat Res</source>
             <pubdate>1994</pubdate>
             <volume>308</volume>
             <fpage>68</fpage>
             <lpage>72</lpage>
             <xrefbib>
                <pubidlist>
                   <pubid idtype="pmpid" link="fulltext">7955703</pubid>
                </pubidlist>
             </xrefbib>
          </bibl>
          <bibl id="B23">
             <title>
                <p>Comparison of the mechanical performance of three types of external fixators: linear, circular and hybrid</p>
             </title>
             <aug>
                <au>
                   <snm>Caja</snm>
                   <fnm>VL</fnm>
                </au>
                <au>
                   <snm>Kim</snm>
                   <fnm>W</fnm>
                </au>
                <au>
                   <snm>Larsson</snm>
                   <fnm>S</fnm>
                </au>
                <au>
                   <snm>Chao</snm>
                   <fnm>EY</fnm>
                </au>
             </aug>
             <source>Clin Biomech</source>
             <pubdate>1995</pubdate>
             <volume>10</volume>
             <fpage>401</fpage>
             <lpage>406</lpage>
             <xrefbib>
                <pubidlist>
                   <pubid idtype="doi">10.1016/0268-0033(95)00014-3</pubid>
                </pubidlist>
             </xrefbib>
          </bibl>
       </refgrp>
    </bm>
 </art>