<art>
    <ui>s12913-014-0590-5</ui>
    <ji>1472-6963</ji>
    <fm>
       <dochead>Debate</dochead>
       <bibl>
          <title>
             <p>Improving coordination through information continuity: a framework for translational research</p>
          </title>
          <aug>
             <au id="A1" ca="yes">
                <snm>Gardner</snm>
                <fnm>Karen</fnm>
                <insr iid="I1"/>
                <email>Karen.Gardner@anu.edu.au</email>
             </au>
             <au id="A2">
                <snm>Banfield</snm>
                <fnm>Michelle</fnm>
                <insr iid="I1"/>
                <email>Michelle.Banfield@anu.edu.au</email>
             </au>
             <au id="A3">
                <snm>McRae</snm>
                <fnm>Ian</fnm>
                <insr iid="I1"/>
                <email>Ian.S.McRae@anu.edu.au</email>
             </au>
             <au id="A4">
                <snm>Gillespie</snm>
                <fnm>James</fnm>
                <insr iid="I2"/>
                <email>James.Gillespie@syd.edu.au</email>
             </au>
             <au id="A5">
                <snm>Yen</snm>
                <fnm>Laurann</fnm>
                <insr iid="I1"/>
                <email>Laurann.Yen@anu.edu.au</email>
             </au>
          </aug>
          <insg>
             <ins id="I1">
                <p>Australian Primary Health Care Research Institute, The Australian National University, Cnr Mills &amp; Eggleston Rds, Canberra ACT 0200, Australia</p>
             </ins>
             <ins id="I2">
                <p>Menzies Centre for Health Policy, School of Public Health, University of Sydney, Sydney, NSW 2006, Australia</p>
             </ins>
          </insg>
          <source>BMC Health Services Research</source>
          <issn>1472-6963</issn>
          <pubdate>2014</pubdate>
          <volume>14</volume>
          <issue>1</issue>
          <fpage>590</fpage>
          <url>http://www.biomedcentral.com/1472-6963/14/590</url>
          <xrefbib>
             <pubidlist>
                <pubid idtype="doi">10.1186/s12913-014-0590-5</pubid>
             </pubidlist>
          </xrefbib>
       </bibl>
       <history>
          <rec>
             <date>
                <day>15</day>
                <month>6</month>
                <year>2014</year>
             </date>
          </rec>
          <acc>
             <date>
                <day>10</day>
                <month>11</month>
                <year>2014</year>
             </date>
          </acc>
          <pub>
             <date>
                <day>25</day>
                <month>11</month>
                <year>2014</year>
             </date>
          </pub>
       </history>
       <cpyrt>
          <year>2014</year>
          <collab>Gardner et al.; licensee BioMed Central Ltd.</collab>
          <note>This is an Open Access article distributed under the terms of the Creative Commons Attribution License (<url>http://creativecommons.org/licenses/by/4.0</url>), which permits unrestricted use, distribution, and reproduction in any medium, provided the original work is properly credited. The Creative Commons Public Domain Dedication waiver (<url>http://creativecommons.org/publicdomain/zero/1.0/</url>) applies to the data made available in this article, unless otherwise stated.</note>
       </cpyrt>
       <kwdg>
          <kwd>Coordination</kwd>
          <kwd>Continuity</kwd>
          <kwd>Information continuity</kwd>
          <kwd>Primary health care</kwd>
          <kwd>Translational research</kwd>
          <kwd>Quality improvement</kwd>
       </kwdg>
       <abs>
          <sec>
             <st>
                <p>Abstract</p>
             </st>
             <sec>
                <st>
                   <p>Background</p>
                </st>
                <p>There is good evidence that coordination can have beneficial impacts on patient care and outcomes but the mechanisms by which coordination is to be achieved are poorly understood and rarely identified in relevant policies. One approach suggests that continuity of information is a key element but research is yet to provide guidance on how to optimise coordination through improving continuity in healthcare settings.</p>
             </sec>
             <sec>
                <st>
                   <p>Discussion</p>
                </st>
                <p>In this paper we report on the development of a conceptual framework of information continuity in care coordination. We drew on evidence from systematic reviews of coordination and empirical studies on information use in integrated care models to develop the framework. It identifies the architecture, processes and scope of practices that evidence suggests is required to support information continuity in a population based approach to care coordination.</p>
             </sec>
             <sec>
                <st>
                   <p>Summary</p>
                </st>
                <p>The framework offers value to policy makers and practitioners as a map that identifies the multi-level elements of an integrated system capable of driving better coordination. Testing of the framework in different settings could aid our understanding of information continuity as a mechanism for linking coordination strategies that operate at different levels of the health system and enable synthesis of findings for informing policy and practice.</p>
             </sec>
          </sec>
       </abs>
    </fm>
    <bdy>
       <sec>
          <st>
             <p>Background</p>
          </st>
          <p>Care coordination is a key feature of patient-centered health systems. There is good evidence that coordination can have beneficial impacts on care processes and patient outcomes <abbrgrp>
                <abbr bid="B1">1</abbr>
             </abbrgrp>-<abbrgrp>
                <abbr bid="B3">3</abbr>
             </abbrgrp> but reviews also reveal the term is inconsistently defined and used to refer to a range of strategies from those targeting the clinical care of individual patients to organisational and system interventions such as pooled funds, managed care and pay for performance schemes that provide incentives for achieving coordination <abbrgrp>
                <abbr bid="B4">4</abbr>
             </abbrgrp>-<abbrgrp>
                <abbr bid="B6">6</abbr>
             </abbrgrp>. These different interventions operate at micro (service), meso (primary health care organisations that facilitate links between health service providers and between organisations) and macro (system and policy) levels of the health system, but the mechanisms by which they achieve their outcomes are poorly understood <abbrgrp>
                <abbr bid="B7">7</abbr>
             </abbrgrp> and lack of alignment between different levels impedes effective delivery <abbrgrp>
                <abbr bid="B8">8</abbr>
             </abbrgrp>. Evidence from health systems around the world shows that organizational integration alone does not itself lead to improvements in coordination at the service level <abbrgrp>
                <abbr bid="B2">2</abbr>
             </abbrgrp>,<abbrgrp>
                <abbr bid="B9">9</abbr>
             </abbrgrp>,<abbrgrp>
                <abbr bid="B10">10</abbr>
             </abbrgrp>. While meso level strategies like fund pooling and purchasing may be used to drive coordination for particular population groups for example, these must be aligned with micro level strategies like care planning, multidisciplinary teamwork, use of information technologies and disease management guidelines to improve outcomes <abbrgrp>
                <abbr bid="B8">8</abbr>
             </abbrgrp>.</p>
          <p>From the patient perspective, continuity of care is the experience of care coordination <abbrgrp>
                <abbr bid="B11">11</abbr>
             </abbrgrp>. Continuity refers to the degree to which care is linked and made coherent over time. Like coordination, continuity is associated with improvements in the quality of care and better outcomes such as higher satisfaction and lower hospitalization rates <abbrgrp>
                <abbr bid="B12">12</abbr>
             </abbrgrp>,<abbrgrp>
                <abbr bid="B13">13</abbr>
             </abbrgrp>. A recent review identified three separate dimensions: informational, management and relationship continuity, each of which is required to link discrete elements in a care pathway to achieve continuity <abbrgrp>
                <abbr bid="B14">14</abbr>
             </abbrgrp>.</p>
          <p>Information is the common thread linking care from one provider to another and from one healthcare event to another <abbrgrp>
                <abbr bid="B14">14</abbr>
             </abbrgrp>. Information continuity refers to the capacity of that information to travel with the patient and throughout the health system, between providers and over time, to facilitate a continuous care experience. This requires the organised collection of a patient&#8217;s information and relies on adequate medical records indicating episodes of illness, management and follow-up, as well as effective telecommunications, good referral systems, and feedback from other providers <abbrgrp>
                <abbr bid="B12">12</abbr>
             </abbrgrp>.</p>
          <p>Continuity of care is usually taken to mean the relationship between a single practitioner and patient which transcends specific episodes of care. As primary health care moves further towards multidisciplinary teamwork however, efforts to achieve continuity will increasingly need to span multiple providers as well as multiple encounters over time. These and other changes in practice suggest that information continuity could be expected to play a central role in coordination since information can be made readily available and is conducive to automation <abbrgrp>
                <abbr bid="B12">12</abbr>
             </abbrgrp>. Sustaining relationships between providers and their patients, ensuring that care is planned to meet needs and information flows when and where it is needed to support continuity is likely to present significant challenges <abbrgrp>
                <abbr bid="B15">15</abbr>
             </abbrgrp>.</p>
          <p>This paper explores the intersection between information continuity and strategies for care coordination. It is part of a larger study examining coordination in Australian primary health care policy and practice <abbrgrp>
                <abbr bid="B8">8</abbr>
             </abbrgrp>,<abbrgrp>
                <abbr bid="B15">15</abbr>
             </abbrgrp>,<abbrgrp>
                <abbr bid="B16">16</abbr>
             </abbrgrp>. In this paper, we draw on a review of systematic reviews of care coordination strategies conducted in the US for the Agency for Healthcare Research and Quality <abbrgrp>
                <abbr bid="B1">1</abbr>
             </abbrgrp> and a review of clinical and service integration conducted for the Kings Fund in the UK <abbrgrp>
                <abbr bid="B9">9</abbr>
             </abbrgrp> as well as our review of effective coordination strategies in Australia <abbrgrp>
                <abbr bid="B8">8</abbr>
             </abbrgrp> to develop a conceptual framework of information continuity in care coordination that we propose may be used in translation research to strengthen policy and action responses. The framework postulates a multi-dimensional relationship in which information moves horizontally at the micro (service) level and vertically between the micro, meso and macro levels of the system to facilitate coordination. The framework has been developed with reference to the Australian system which suffers from extensive fragmentation arising in the division of responsibility for funding and delivering health between three levels of government. However, the framework may also have application in other countries where service integration and coordination of care are significant problems since the strategies it draws on are internationally recognized and their effectiveness have been demonstrated in multiple settings and countries.</p>
       </sec>
       <sec>
          <st>
             <p>Discussion</p>
          </st>
          <sec>
             <st>
                <p>Interventions for achieving coordination</p>
             </st>
             <p>Interventions promoting coordination for long term conditions in primary health care include care planning, patient self management, case management, quality improvement processes at the micro level; development of regional organizational bodies with responsibility for service planning and devolved purchasing arrangements at the meso level; funding models and financial incentives at the macro level <abbrgrp>
                   <abbr bid="B8">8</abbr>
                </abbrgrp>.</p>
             <p>Models of coordination have operated largely at the patient level in Australia through strategies such as care planning and case conferencing which support the development of structured relationships between providers and patients and embed financial incentives for selected conditions within them <abbrgrp>
                   <abbr bid="B2">2</abbr>
                </abbrgrp>. A recent systematic review of evidence on the effectiveness of these strategies found that each was associated with improved health or patient satisfaction in more than 50% of the studies identified in the review <abbrgrp>
                   <abbr bid="B2">2</abbr>
                </abbrgrp>. Interventions that used multiple strategies were more effective than those relying on a single strategy.</p>
             <p>Internationally, positive effects on patient outcomes from multidisciplinary teams, disease management, and case management across a number of clinical areas and topics managed in primary health care have also been observed <abbrgrp>
                   <abbr bid="B1">1</abbr>
                </abbrgrp>. In mental health, systematic reviews have shown that disease management programs can improve depression severity and adherence to treatment, and in patients with diabetes, disease management has reduced glycaeted haemoglobin and improved glycaemic control <abbrgrp>
                   <abbr bid="B1">1</abbr>
                </abbrgrp>. There is also some evidence that case management reduces re-hospitalization rates in patients with mental health problems and improves glycaemic control in patients with diabetes.</p>
             <p>At the meso level, limited evidence is available from systematic reviews on the impact of organizational interventions for fundholding, purchasing or contracting that can be applied in the Australian context. Although organizational models can achieve change in the organization and delivery of primary health care they are reliant on the levers available to them to induce change, which primarily are funding and commissioning <abbrgrp>
                   <abbr bid="B17">17</abbr>
                </abbrgrp>. Four key domains for potential policy reform to increase coordination in Australia identified by Nacarella et al. were flexible GP funding; quality frameworks at a practice level; meso-level primary care organisations and investment in practice infrastructure <abbrgrp>
                   <abbr bid="B18">18</abbr>
                </abbrgrp>.</p>
             <p>Quality improvement strategies are part of the broader set of meso level programs, structures and incentives that provide the enabling factors capable of inducing improvement in the delivery of care at the micro level <abbrgrp>
                   <abbr bid="B2">2</abbr>
                </abbrgrp>. When used as part of structured quality improvement processes, patient education, provider education, provider reminders, audit and feedback, relay of clinical data, organizational change, financial and regulatory incentives, can be effective in changing professional practice <abbrgrp>
                   <abbr bid="B19">19</abbr>
                </abbrgrp>,<abbrgrp>
                   <abbr bid="B20">20</abbr>
                </abbrgrp>, improving the quality of care <abbrgrp>
                   <abbr bid="B21">21</abbr>
                </abbrgrp>-<abbrgrp>
                   <abbr bid="B24">24</abbr>
                </abbrgrp> and patient outcomes <abbrgrp>
                   <abbr bid="B25">25</abbr>
                </abbrgrp>.</p>
             <p>At the macro level, pay-for-performance incentives have been used to stimulate improvements in a range of different services including coordination of care. A recent paper <abbrgrp>
                   <abbr bid="B25">25</abbr>
                </abbrgrp> based on a narrative review of evidence from five comparator countries <abbrgrp>
                   <abbr bid="B18">18</abbr>
                </abbrgrp> described pay-for-performance schemes as multi-faceted entities involving complex interventions that may include accreditation, education, quality improvement, investment in information technology and data collection systems, professional support and regional structures. Despite their popularity, the evidence relating to the impact of incentive payments on quality and outcomes is weak and unintended consequences have been documented in many models. Australia&#8217;s pay-for-performance approaches have been shaped by the absence of patient enrolment and rely on the use of practice based disease registers and fee-for-service activity captured in medicare payment systems through electronic patient record systems. Further development of automated data extraction at the practice level and incentive payments that reward team care and are based on completed annual cycles of care is needed <abbrgrp>
                   <abbr bid="B26">26</abbr>
                </abbrgrp>.</p>
          </sec>
          <sec>
             <st>
                <p>Information use in integrated models</p>
             </st>
             <p>Insights into how best to use information in these strategies to operationalize a coherent and multi-level approach to care coordination might best be drawn from studies of integrated care models in managed care organisations such as Kaiser Permanente which have demonstrated high performance against a number of indicators <abbrgrp>
                   <abbr bid="B9">9</abbr>
                </abbrgrp>. These models have historically used coordinating mechanisms to control costs, improve disease outcomes, quality of care, and patient satisfaction <abbrgrp>
                   <abbr bid="B1">1</abbr>
                </abbrgrp>. Information collected from patients about their medical condition, individual preference for care and personal and social circumstances is collated and used at different levels of aggregation to develop care arrangements, monitor quality and assess outcomes at different levels. Ham&#8217;s analysis of Kaiser Permanente&#8217;s performance point to multi-specialty group practice, aligned incentives, information technology and guidelines, accountability for performance and defined populations, a physician-management partnership, effective leadership and a collaborative culture as key success factors <abbrgrp>
                   <abbr bid="B9">9</abbr>
                </abbrgrp>.</p>
             <p>At the clinical level, integrated assessment and care planning use patient information to determine the scope, type and frequency of services to be provided. In practical terms this means using information to engage individuals and families in the redesign of their care; address complex multisystem issues for accessing services; provide planned care; facilitate referral, and co-manage care with multiple specialists based on evidence-based guidelines <abbrgrp>
                   <abbr bid="B27">27</abbr>
                </abbrgrp>. At the meso level, patient information is aggregated for analysis to assess and monitor improvements in disease outcomes, quality of care, patient satisfaction and program efficiencies.</p>
          </sec>
          <sec>
             <st>
                <p>Information continuity in coordinated care</p>
             </st>
             <p>Bringing these different bodies of evidence together, we propose that information continuity operates in two dimensions to achieve coordination: horizontally at the clinical level to determine the scope, type and frequency of services required to link care events and ensure that these are connected and coherent; and vertically between mechanisms designed to stimulate coordination such as between financial incentives; quality improvement programs; care planning and case management interventions. Figure&#160;<figr fid="F1">1</figr> reflects our synthesis of the evidence related to information use in care coordination. The framework aims to capture the breadth of information and use of evidence based tools, processes or strategies at different levels that can be used to improve continuity of care at the patient level and drive coordination across the system.
                  </p>
             
                <fig id="F1">
                   <title>
                      <p>Figure 1</p>
                   </title>
                   <caption>
                      <p>Conceptual framework of information use in coordination of care. </p>
                   </caption>
                   <text>
                      <p>
                            <b>Conceptual framework of information use in coordination of care.</b>                          
                      </p>
                   </text>
                   <graphic file="s12913-014-0590-5-1"/>
                </fig>
             
             <p>As shown in the diagram, information generated at the patient level about individual clinical and demographic characteristics, preferences and satisfaction may be used at that level to assess individual patient needs and packages of care. Use of disease registers, best practice guidelines, electronic records and automated data extraction tools support information continuity within case management and multi-disciplinary team care arrangements which promote coordination of care at that level.</p>
             <p>Patient information may also be aggregated by population subgroup to assess disease outcomes or patient satisfaction at the meso level. When combined with risk factor prevalence, SES profile, workforce and other service information this data may also be used for quality improvement or to inform service planning and purchasing. Formal agreements between providers, tools for data analysis, deliberation and communication allow information to be analysed in different ways and repackaged for feed back to the patient level to support providers and patients in service improvement and patient self management initiatives. Thus group data from multiple services can provide the context in which individual services or patients are able to review their performance against self identified objectives.</p>
             <p>At the macro level, the use of patient data together with cost and system information can be used to promote coordination for population subgroups through financial and practice incentives. However this is not routine in Australia and the development of patient budgets remains experimental. The difficulties associated with developing financial incentives to promote coordination of care for patient groups within the context of fee-for-service medicine and in the absence of patient enrolment have recently been demonstrated in the development of the Australian government Diabetes Pilot <abbrgrp>
                   <abbr bid="B26">26</abbr>
                </abbrgrp> and early results suggest that such developments will be iterative.</p>
             <p>Notwithstanding these limitations, different types of information can be used to support continuity at the patient level and used to drive coordination across the system. Information can be aggregated and analysed in different ways and fed back in loops through different levels of organisation to assess questions related to patient needs and packages of care at the clinical level; disease outcomes, patient satisfaction and quality of care at the meso level; and equity and efficiency at the macro level.</p>
          </sec>
       </sec>
       <sec>
          <st>
             <p>Summary</p>
          </st>
          <p>The framework offers value to policy makers and practitioners as a map that identifies the domains in which elements of an integrated system capable of driving better coordination need to be developed. Testing of the framework in different primary health care settings could aid our understanding of information continuity as a mechanism for linking coordination strategies that operate at different levels of the health system including how specific elements need to be enacted, implemented and sustained at the coalface. Such research will enable synthesis of findings for informing policy and practice.</p>
       </sec>
       <sec>
          <st>
             <p>Competing interests</p>
          </st>
          <p>The authors declare no competing interests. The funding organisation (Ian Potter Foundation) had no role in the study design, data collection, analysis and interpretation, or the writing and publication of this article.</p>
       </sec>
       <sec>
          <st>
             <p>Authors&#8217; contributions</p>
          </st>
          <p>KG participated in the design of the study, conducted interviews and analysis and drafted the manuscript. MB participated in the design of the study, conducted interviews and analysis and contributed to the drafting of the manuscript. IM and JG conceived the study, participated in design and analysis discussions and contributed to drafting of the manuscript. LY conceived the study, participated in design and analysis, conducted interviews and contributed to drafting of the manuscript. All authors read and approved the final manuscript.</p>
       </sec>
    </bdy>
    <bm>
       <ack>
          <sec>
             <st>
                <p>Acknowledgements</p>
             </st>
             <p>This study was supported by a grant from the Ian Potter Foundation to the Menzies Centre for Health Policy. The Australian Primary Health Care Research Institute is supported by a grant from the Australian Government Department of Health and Ageing. The information and opinions contained in it do not necessarily reflect the views or policy of the Australian Primary Health Care Research Institute or the Australian Government Department of Health and Ageing. The Menzies Centre for Health Policy is supported by a grant from the Sir Robert Menzies Memorial Foundation. We would like to acknowledge the contributions of the individuals and organizations who generously gave their time to participate in this study.</p>
          </sec>
       </ack>
       <refgrp>
          
          <bibl id="B1">
             <title>
                <p>Care coordination. Volume 7</p>
             </title>
             <aug>
                <au>
                   <snm>McDonald</snm>
                   <fnm>KM</fnm>
                </au>
                <au>
                   <snm>Sundaram</snm>
                   <fnm>V</fnm>
                </au>
                <au>
                   <snm>Bravata</snm>
                   <fnm>DM</fnm>
                </au>
                <au>
                   <snm>Lewis</snm>
                   <fnm>R</fnm>
                </au>
                <au>
                   <snm>Lin</snm>
                   <fnm>N</fnm>
                </au>
                <au>
                   <snm>Kraft</snm>
                   <fnm>S</fnm>
                </au>
                <au>
                   <snm>McKinnon</snm>
                   <fnm>M</fnm>
                </au>
                <au>
                   <snm>Paguntalan</snm>
                   <fnm>H</fnm>
                </au>
                <au>
                   <snm>Owens</snm>
                   <fnm>DK</fnm>
                </au>
             </aug>
             <source>Closing the Quality Gap: A Critical Analysis of Quality Improvement Strategies. Technical Review 9</source>
             <publisher>Agency for Healthcare Research and Quality, Rockville, MD</publisher>
             <editor>Shojania KG, McDonald KM, Wachter RM, Owens DK</editor>
             <pubdate>2007</pubdate>
          </bibl>
          <bibl id="B2">
             <title>
                <p>Coordinating primary health care: an analysis of the outcomes of a systematic review</p>
             </title>
             <aug>
                <au>
                   <snm>Powell Davies</snm>
                   <fnm>G</fnm>
                </au>
                <au>
                   <snm>Williams</snm>
                   <fnm>AM</fnm>
                </au>
                <au>
                   <snm>Larsen</snm>
                   <fnm>K</fnm>
                </au>
                <au>
                   <snm>Perkins</snm>
                   <fnm>D</fnm>
                </au>
                <au>
                   <snm>Roland</snm>
                   <fnm>M</fnm>
                </au>
                <au>
                   <snm>Harris</snm>
                   <fnm>MF</fnm>
                </au>
             </aug>
             <source>Med J Aust</source>
             <pubdate>2008</pubdate>
             <volume>188</volume>
             <issue>8</issue>
             <fpage>S65</fpage>
             <lpage>S68</lpage>
             <xrefbib>
                <pubidlist>
                   <pubid idtype="pmpid" link="fulltext">18429740</pubid>
                </pubidlist>
             </xrefbib>
          </bibl>
          <bibl id="B3">
             <aug>
                <au>
                   <snm>Tieman</snm>
                   <fnm>J</fnm>
                </au>
                <au>
                   <snm>Mitchell</snm>
                   <fnm>G</fnm>
                </au>
                <au>
                   <snm>Shelby-James</snm>
                   <fnm>T</fnm>
                </au>
                <au>
                   <snm>Currow</snm>
                   <fnm>D</fnm>
                </au>
                <au>
                   <snm>Fazekas</snm>
                   <fnm>B</fnm>
                </au>
                <au>
                   <snm>O&#8217;Doherty</snm>
                   <fnm>L</fnm>
                </au>
                <au>
                   <snm>Hegarty</snm>
                   <fnm>M</fnm>
                </au>
                <au>
                   <snm>Eriksson</snm>
                   <fnm>L</fnm>
                </au>
                <au>
                   <snm>Brown</snm>
                   <fnm>R</fnm>
                </au>
                <au>
                   <snm>Reid-Orr</snm>
                   <fnm>D</fnm>
                </au>
             </aug>
             <source>Integration, Coordination and Multidisciplinary Approaches in Primary Care: A systematic investigation of the literature</source>
             <publisher>Australian Primary Health Care Research Institute, Canberra</publisher>
             <pubdate>2006</pubdate>
          </bibl>
          <bibl id="B4">
             <title>
                <p>Five laws for integrating medical and social services: lessons from the United States and the United Kingdom</p>
             </title>
             <aug>
                <au>
                   <snm>Lewtz</snm>
                   <fnm>W</fnm>
                </au>
             </aug>
             <source>Milbank Q</source>
             <pubdate>1999</pubdate>
             <volume>77</volume>
             <issue>1</issue>
             <fpage>77</fpage>
             <lpage>110</lpage>
             <xrefbib>
                <pubidlist>
                   <pubid idtype="doi">10.1111/1468-0009.00125</pubid>
                </pubidlist>
             </xrefbib>
          </bibl>
          <bibl id="B5">
             <title>
                <p>Integrated care: meaning, logic, applications and implications - a discussion paper</p>
             </title>
             <aug>
                <au>
                   <snm>Kodner</snm>
                   <fnm>D</fnm>
                </au>
                <au>
                   <snm>Spreeuwenberg</snm>
                   <fnm>C</fnm>
                </au>
             </aug>
             <source>Int J Integrated Care</source>
             <pubdate>2002</pubdate>
             <volume>2</volume>
             <issue>14</issue>
             <fpage>1</fpage>
             <lpage>6</lpage>
          </bibl>
          <bibl id="B6">
             <title>
                <p>Integration and chronic care: a review</p>
             </title>
             <aug>
                <au>
                   <snm>Nolte</snm>
                   <fnm>E</fnm>
                </au>
                <au>
                   <snm>McKee</snm>
                   <fnm>M</fnm>
                </au>
             </aug>
             <source>Caring for People with Chronic Conditions: A Health System Perspective</source>
             <publisher>Open University Press, New York</publisher>
             <editor>Nolte E, McKee M</editor>
             <pubdate>2008</pubdate>
          </bibl>
          <bibl id="B7">
             <aug>
                <au>
                   <snm>Oliver-Baxter</snm>
                   <fnm>J</fnm>
                </au>
                <au>
                   <snm>Brown</snm>
                   <fnm>L</fnm>
                </au>
                <au>
                   <snm>Bywood</snm>
                   <fnm>P</fnm>
                </au>
             </aug>
             <source>Integrated Care: What Policies Support and Influence Integration in Health Care in Australia?</source>
             <publisher>Primary Health Care Information Service, Adelaide, South Australia</publisher>
             <pubdate>2013</pubdate>
          </bibl>
          <bibl id="B8">
             <title>
                <p>From coordinated care trials to medicare locals: what difference does changing the policy driver from efficiency to quality make for coordinating care?</p>
             </title>
             <aug>
                <au>
                   <snm>Gardner</snm>
                   <fnm>K</fnm>
                </au>
                <au>
                   <snm>Yen</snm>
                   <fnm>L</fnm>
                </au>
                <au>
                   <snm>Banfield</snm>
                   <fnm>M</fnm>
                </au>
                <au>
                   <snm>Gillespie</snm>
                   <fnm>J</fnm>
                </au>
                <au>
                   <snm>McRae</snm>
                   <fnm>I</fnm>
                </au>
                <au>
                   <snm>Wells</snm>
                   <fnm>R</fnm>
                </au>
             </aug>
             <source>Int J Qual Health Care</source>
             <pubdate>2013</pubdate>
             <volume>25</volume>
             <issue>1</issue>
             <fpage>50</fpage>
             <lpage>57</lpage>
             <xrefbib>
                <pubidlist>
                   <pubid idtype="doi">10.1093/intqhc/mzs069</pubid>
                   <pubid idtype="pmpid" link="fulltext">23175532</pubid>
                </pubidlist>
             </xrefbib>
          </bibl>
          <bibl id="B9">
             <title>
                <p>Clinical and service integration</p>
             </title>
             <aug>
                <au>
                   <snm>Curry</snm>
                   <fnm>N</fnm>
                </au>
                <au>
                   <snm>Ham</snm>
                   <fnm>C</fnm>
                </au>
             </aug>
             <source>The Route to Improved Outcomes</source>
             <publisher>The Kings Fund, London</publisher>
             <pubdate>2010</pubdate>
          </bibl>
          <bibl id="B10">
             <title>
                <p>Ten key principles for successful health systems integration</p>
             </title>
             <aug>
                <au>
                   <snm>Suter</snm>
                   <fnm>E</fnm>
                </au>
                <au>
                   <snm>Oelke</snm>
                   <fnm>ND</fnm>
                </au>
                <au>
                   <snm>Adair</snm>
                   <fnm>CE</fnm>
                </au>
                <au>
                   <snm>Armitage</snm>
                   <fnm>GD</fnm>
                </au>
             </aug>
             <source>Healthcare Quarterly</source>
             <pubdate>2009</pubdate>
             <volume>13</volume>
             <issue>Sp</issue>
             <fpage>16</fpage>
             <lpage>23</lpage>
             <note>doi:10.12927/hcq.2009.21092</note>
             <xrefbib>
                <pubidlist>
                   <pubid idtype="doi">10.12927/hcq.2009.21092</pubid>
                   <pubid idtype="pmpid" link="fulltext">20057244</pubid>
                </pubidlist>
             </xrefbib>
          </bibl>
          <bibl id="B11">
             <title>
                <p>What do we know about patients&#8217; perceptions of continuity of care? A meta-synthesis of qualitative studies</p>
             </title>
             <aug>
                <au>
                   <snm>Waibel</snm>
                   <fnm>S</fnm>
                </au>
                <au>
                   <snm>Henao</snm>
                   <fnm>D</fnm>
                </au>
                <au>
                   <snm>Aller</snm>
                   <fnm>MB</fnm>
                </au>
                <au>
                   <snm>Vargas</snm>
                   <fnm>I</fnm>
                </au>
                <au>
                   <snm>Vazquez</snm>
                   <fnm>ML</fnm>
                </au>
             </aug>
             <source>Int J Qual Health Care</source>
             <pubdate>2012</pubdate>
             <volume>24</volume>
             <issue>1</issue>
             <fpage>39</fpage>
             <lpage>48</lpage>
             <xrefbib>
                <pubidlist>
                   <pubid idtype="doi">10.1093/intqhc/mzr068</pubid>
                   <pubid idtype="pmpid" link="fulltext">22146566</pubid>
                </pubidlist>
             </xrefbib>
          </bibl>
          <bibl id="B12">
             <note>Crooks VA, Agarwal G: What are the roles involved in establishing and maintaining informational continuity of care within family practice? A systematic review. <it>BMC Fam Pract</it> 2008</note>
          </bibl>
          <bibl id="B13">
             <title>
                <p>Current evidence on the impact of continuity of care</p>
             </title>
             <aug>
                <au>
                   <snm>O&#8217;Malley</snm>
                   <fnm>A</fnm>
                </au>
             </aug>
             <source>Curr Opin Pediatr</source>
             <pubdate>2004</pubdate>
             <volume>16</volume>
             <fpage>693</fpage>
             <lpage>699</lpage>
             <xrefbib>
                <pubidlist>
                   <pubid idtype="doi">10.1097/01.mop.0000142488.67171.02</pubid>
                   <pubid idtype="pmpid" link="fulltext">15548934</pubid>
                </pubidlist>
             </xrefbib>
          </bibl>
          <bibl id="B14">
             <title>
                <p>Continuity of care: a multidisciplinary review</p>
             </title>
             <aug>
                <au>
                   <snm>Haggerty</snm>
                   <fnm>JL</fnm>
                </au>
                <au>
                   <snm>Reid</snm>
                   <fnm>RJ</fnm>
                </au>
                <au>
                   <snm>Freeman</snm>
                   <fnm>GK</fnm>
                </au>
                <au>
                   <snm>Starfield</snm>
                   <fnm>BH</fnm>
                </au>
                <au>
                   <snm>Adair</snm>
                   <fnm>CE</fnm>
                </au>
                <au>
                   <snm>McKendry</snm>
                   <fnm>R</fnm>
                </au>
             </aug>
             <source>BMJ</source>
             <pubdate>2003</pubdate>
             <volume>327</volume>
             <fpage>1219</fpage>
             <lpage>1221</lpage>
             <xrefbib>
                <pubidlist>
                   <pubid idtype="doi">10.1136/bmj.327.7425.1219</pubid>
                   <pubid idtype="pmpid" link="fulltext">14630762</pubid>
                </pubidlist>
             </xrefbib>
          </bibl>
          <bibl id="B15">
             <title>
                <p>Unlocking information for coordination of care in Australia: a qualitative study of information continuity in four primary health care models</p>
             </title>
             <aug>
                <au>
                   <snm>Banfield</snm>
                   <fnm>M</fnm>
                </au>
                <au>
                   <snm>Gardner</snm>
                   <fnm>K</fnm>
                </au>
                <au>
                   <snm>McRae</snm>
                   <fnm>I</fnm>
                </au>
                <au>
                   <snm>Gillespie</snm>
                   <fnm>J</fnm>
                </au>
                <au>
                   <snm>Wells</snm>
                   <fnm>R</fnm>
                </au>
                <au>
                   <snm>Yen</snm>
                   <fnm>L</fnm>
                </au>
             </aug>
             <source>BMC Family Practice</source>
             <pubdate>2013</pubdate>
             <volume>14</volume>
             <fpage>34</fpage>
             <xrefbib>
                <pubidlist>
                   <pubid idtype="doi">10.1186/1471-2296-14-34</pubid>
                   <pubid idtype="pmpid" link="fulltext">23497291</pubid>
                </pubidlist>
             </xrefbib>
          </bibl>
          <bibl id="B16">
             <title>
                <p>Coordination of care in Australian mental health policy</p>
             </title>
             <aug>
                <au>
                   <snm>Banfield</snm>
                   <fnm>MA</fnm>
                </au>
                <au>
                   <snm>Gardner</snm>
                   <fnm>KL</fnm>
                </au>
                <au>
                   <snm>Yen</snm>
                   <fnm>LE</fnm>
                </au>
                <au>
                   <snm>McRae</snm>
                   <fnm>IS</fnm>
                </au>
                <au>
                   <snm>Wells</snm>
                   <fnm>RW</fnm>
                </au>
             </aug>
             <source>Aust Health Review</source>
             <pubdate>2012</pubdate>
             <volume>36</volume>
             <issue>2</issue>
             <fpage>153</fpage>
             <lpage>157</lpage>
             <xrefbib>
                <pubidlist>
                   <pubid idtype="doi">10.1071/AH11049</pubid>
                </pubidlist>
             </xrefbib>
          </bibl>
          <bibl id="B17">
             <title>
                <p>The implementation and impact of different funding initiatives on access to multidisciplinary primary health care and policy implications</p>
             </title>
             <aug>
                <au>
                   <snm>McDonald</snm>
                   <fnm>J</fnm>
                </au>
                <au>
                   <snm>Harris</snm>
                   <fnm>MF</fnm>
                </au>
                <au>
                   <snm>Cumming</snm>
                   <fnm>J</fnm>
                </au>
                <au>
                   <snm>Powell Davies</snm>
                   <fnm>G</fnm>
                </au>
                <au>
                   <snm>Burns</snm>
                   <fnm>P</fnm>
                </au>
             </aug>
             <source>Med J Aust</source>
             <pubdate>2008</pubdate>
             <volume>188</volume>
             <issue>8</issue>
             <fpage>S69</fpage>
             <lpage>S72</lpage>
             <xrefbib>
                <pubidlist>
                   <pubid idtype="pmpid" link="fulltext">18429741</pubid>
                </pubidlist>
             </xrefbib>
          </bibl>
          <bibl id="B18">
             <title>
                <p>Primary care funding and organisational policy options and implications:a narrative review of evidence from five comparator countries</p>
             </title>
             <aug>
                <au>
                   <snm>Naccarella</snm>
                   <fnm>L</fnm>
                </au>
                <au>
                   <snm>Southern</snm>
                   <fnm>D</fnm>
                </au>
                <au>
                   <snm>Furler</snm>
                   <fnm>JS</fnm>
                </au>
                <au>
                   <snm>Scott</snm>
                   <fnm>A</fnm>
                </au>
                <au>
                   <snm>Prosser</snm>
                   <fnm>L</fnm>
                </au>
                <au>
                   <snm>Young</snm>
                   <fnm>D</fnm>
                </au>
                <au>
                   <snm>Swerissen</snm>
                   <fnm>H</fnm>
                </au>
                <au>
                   <snm>Waters</snm>
                   <fnm>E</fnm>
                </au>
             </aug>
             <source>Med J Aust</source>
             <pubdate>2008</pubdate>
             <volume>188</volume>
             <issue>8</issue>
             <fpage>S73</fpage>
             <lpage>S76</lpage>
             <xrefbib>
                <pubidlist>
                   <pubid idtype="pmpid" link="fulltext">18429742</pubid>
                </pubidlist>
             </xrefbib>
          </bibl>
          <bibl id="B19">
             <title>
                <p>Does telling people what they have been doing change what they do? A systematic review of the effects of audit and feedback</p>
             </title>
             <aug>
                <au>
                   <snm>Jamtvedt</snm>
                   <fnm>G</fnm>
                </au>
                <au>
                   <snm>Young</snm>
                   <fnm>JM</fnm>
                </au>
                <au>
                   <snm>Kristoffersen</snm>
                   <fnm>DT</fnm>
                </au>
                <au>
                   <snm>O&#8217;Brien</snm>
                   <fnm>MA</fnm>
                </au>
                <au>
                   <snm>Oxman</snm>
                   <fnm>AD</fnm>
                </au>
             </aug>
             <source>Qual Saf Health Care</source>
             <pubdate>2006</pubdate>
             <volume>15</volume>
             <fpage>433</fpage>
             <lpage>436</lpage>
             <xrefbib>
                <pubidlist>
                   <pubid idtype="doi">10.1136/qshc.2006.018549</pubid>
                   <pubid idtype="pmpid" link="fulltext">17142594</pubid>
                </pubidlist>
             </xrefbib>
          </bibl>
          <bibl id="B20">
             <title>
                <p>Can the feedback of patient assessments, brief training, or their combination, improve the interpersonal skills of primary care physicians? A systematic review</p>
             </title>
             <aug>
                <au>
                   <snm>Cheraghi-Sohi</snm>
                   <fnm>S</fnm>
                </au>
                <au>
                   <snm>Bowe</snm>
                   <fnm>P</fnm>
                </au>
             </aug>
             <source>BMC Health Serv Res</source>
             <pubdate>2008</pubdate>
             <volume>8</volume>
             <fpage>179</fpage>
             <xrefbib>
                <pubidlist>
                   <pubid idtype="doi">10.1186/1472-6963-8-179</pubid>
                   <pubid idtype="pmpid" link="fulltext">18715516</pubid>
                </pubidlist>
             </xrefbib>
          </bibl>
          <bibl id="B21">
             <title>
                <p>Creating the evidence base for quality improvement collaboratives</p>
             </title>
             <aug>
                <au>
                   <snm>Mittman</snm>
                   <fnm>BS</fnm>
                </au>
             </aug>
             <source>Ann Intern Med</source>
             <pubdate>2004</pubdate>
             <volume>140</volume>
             <fpage>887</fpage>
             <lpage>896</lpage>
             <xrefbib>
                <pubidlist>
                   <pubid idtype="doi">10.7326/0003-4819-140-11-200406010-00011</pubid>
                </pubidlist>
             </xrefbib>
          </bibl>
          <bibl id="B22">
             <title>
                <p>Evidence for the impact of quality improvement collaboratives: systematic review</p>
             </title>
             <aug>
                <au>
                   <snm>Schouten</snm>
                   <fnm>LMT</fnm>
                </au>
                <au>
                   <snm>Hulscher</snm>
                   <fnm>MEJL</fnm>
                </au>
                <au>
                   <snm>Jannes</snm>
                   <fnm>JE</fnm>
                </au>
                <au>
                   <snm>van Everdingen</snm>
                   <fnm>JJE</fnm>
                </au>
                <au>
                   <snm>Huijsman</snm>
                   <fnm>R</fnm>
                </au>
                <au>
                   <snm>Grol</snm>
                   <fnm>RPTM</fnm>
                </au>
             </aug>
             <source>BMJ</source>
             <pubdate>2008</pubdate>
             <volume>336</volume>
             <fpage>1491</fpage>
             <lpage>1494</lpage>
             <xrefbib>
                <pubidlist>
                   <pubid idtype="doi">10.1136/bmj.39570.749884.BE</pubid>
                   <pubid idtype="pmpid" link="fulltext">18577559</pubid>
                </pubidlist>
             </xrefbib>
          </bibl>
          <bibl id="B23">
             <title>
                <p>The effect of feedback to general practitioners on quality of care for people with type 2 diabetes. A systematic review of the literature</p>
             </title>
             <aug>
                <au>
                   <snm>Guldberg</snm>
                   <fnm>TL</fnm>
                </au>
                <au>
                   <snm>Lauritzen</snm>
                   <fnm>T</fnm>
                </au>
                <au>
                   <snm>Kristensen</snm>
                   <fnm>JK</fnm>
                </au>
                <au>
                   <snm>Vedsted</snm>
                   <fnm>P</fnm>
                </au>
             </aug>
             <source>BMC Family Practice</source>
             <pubdate>2009</pubdate>
             <volume>10</volume>
             <fpage>30</fpage>
             <xrefbib>
                <pubidlist>
                   <pubid idtype="doi">10.1186/1471-2296-10-30</pubid>
                   <pubid idtype="pmpid" link="fulltext">19419548</pubid>
                </pubidlist>
             </xrefbib>
          </bibl>
          <bibl id="B24">
             <title>
                <p>Effects of quality improvement strategies for type 2 diabetes on glycemic control a meta-regression analysis</p>
             </title>
             <aug>
                <au>
                   <snm>Shojania</snm>
                   <fnm>KG</fnm>
                </au>
                <au>
                   <snm>Ranji</snm>
                   <fnm>SR</fnm>
                </au>
                <au>
                   <snm>McDonald</snm>
                   <fnm>KM</fnm>
                </au>
                <au>
                   <snm>Grimshaw</snm>
                   <fnm>JM</fnm>
                </au>
                <au>
                   <snm>Sundaram</snm>
                   <fnm>V</fnm>
                </au>
                <au>
                   <snm>Rushakoff</snm>
                   <fnm>RJ</fnm>
                </au>
                <au>
                   <snm>Owens</snm>
                   <fnm>DK</fnm>
                </au>
             </aug>
             <source>JAMA</source>
             <pubdate>2006</pubdate>
             <volume>296</volume>
             <issue>4</issue>
             <fpage>427</fpage>
             <lpage>440</lpage>
             <xrefbib>
                <pubidlist>
                   <pubid idtype="doi">10.1001/jama.296.4.427</pubid>
                   <pubid idtype="pmpid" link="fulltext">16868301</pubid>
                </pubidlist>
             </xrefbib>
          </bibl>
          <bibl id="B25">
             <title>
                <p>What do we know about how to do audit and feedback? Pitfalls in applying evidence from a systematic review</p>
             </title>
             <aug>
                <au>
                   <snm>Foy</snm>
                   <fnm>R</fnm>
                </au>
                <au>
                   <snm>Eccles</snm>
                   <fnm>MP</fnm>
                </au>
                <au>
                   <snm>Jamtvedt</snm>
                   <fnm>G</fnm>
                </au>
                <au>
                   <snm>Young</snm>
                   <fnm>J</fnm>
                </au>
                <au>
                   <snm>Grimshaw</snm>
                   <fnm>JM</fnm>
                </au>
                <au>
                   <snm>Baker</snm>
                   <fnm>R</fnm>
                </au>
             </aug>
             <source>BMC Health Serv Res</source>
             <pubdate>2005</pubdate>
             <volume>5</volume>
             <fpage>50</fpage>
             <xrefbib>
                <pubidlist>
                   <pubid idtype="doi">10.1186/1472-6963-5-50</pubid>
                   <pubid idtype="pmpid" link="fulltext">16011811</pubid>
                </pubidlist>
             </xrefbib>
          </bibl>
          <bibl id="B26">
             <title>
                <p>Implementing pay-for-performance in Australian primary care: lessons from the United Kingdom and the United States</p>
             </title>
             <aug>
                <au>
                   <snm>Campbell</snm>
                   <fnm>S</fnm>
                </au>
                <au>
                   <snm>Scott</snm>
                   <fnm>A</fnm>
                </au>
                <au>
                   <snm>Parker</snm>
                   <fnm>R</fnm>
                </au>
                <au>
                   <snm>Naccarella</snm>
                   <fnm>L</fnm>
                </au>
                <au>
                   <snm>Furler</snm>
                   <fnm>JS</fnm>
                </au>
                <au>
                   <snm>Young</snm>
                   <fnm>D</fnm>
                </au>
                <au>
                   <snm>Sivey</snm>
                   <fnm>PM</fnm>
                </au>
             </aug>
             <source>Med J Aust</source>
             <pubdate>2010</pubdate>
             <volume>193</volume>
             <issue>7</issue>
             <fpage>408</fpage>
             <lpage>411</lpage>
             <xrefbib>
                <pubidlist>
                   <pubid idtype="pmpid" link="fulltext">20919973</pubid>
                </pubidlist>
             </xrefbib>
          </bibl>
          <bibl id="B27">
             <title>
                <p>Practice-based care coordination: a medical home essential</p>
             </title>
             <aug>
                <au>
                   <snm>McAllister</snm>
                   <fnm>W</fnm>
                </au>
                <au>
                   <snm>Presler</snm>
                   <fnm>E</fnm>
                </au>
                <au>
                   <snm>Cooley</snm>
                   <fnm>WC</fnm>
                </au>
             </aug>
             <source>Pediatrics</source>
             <pubdate>2007</pubdate>
             <volume>120</volume>
             <fpage>e723</fpage>
             <xrefbib>
                <pubidlist>
                   <pubid idtype="doi">10.1542/peds.2006-1684</pubid>
                   <pubid idtype="pmpid" link="fulltext">17766512</pubid>
                </pubidlist>
             </xrefbib>
          </bibl>
       </refgrp>
    </bm>
 </art>
