<art>
    <ui>s12913-014-0539-8</ui>
    <ji>1472-6963</ji>
    <fm>
       <dochead>Research article</dochead>
       <bibl>
          <title>
             <p>Key actors&#8217; perspectives on cost-effectiveness analysis in Uganda: a cross-sectional survey</p>
          </title>
          <aug>
             <au id="A1">
                <snm>Musuuza</snm>
                <mi>S</mi>
                <fnm>Jackson</fnm>
                <insr iid="I1"/>
                <email>musuuza@wisc.edu</email>
             </au>
             <au id="A2">
                <snm>Singer</snm>
                <mi>E</mi>
                <fnm>Mendel</fnm>
                <insr iid="I2"/>
                <email>mendel@case.edu</email>
             </au>
             <au id="A3">
                <snm>Mandalakas</snm>
                <mi>M</mi>
                <fnm>Anna</fnm>
                <insr iid="I3"/>
                <email>anna.mandalakas@bcm.edu</email>
             </au>
             <au id="A4" ca="yes">
                <snm>Katamba</snm>
                <fnm>Achilles</fnm>
                <insr iid="I4"/>
                <email>axk95@case.edu</email>
             </au>
          </aug>
          <insg>
             <ins id="I1">
                <p>Institute for Clinical and Translational Research, University of Wisconsin School of Medicine and Public Health, Madison, Wisconsin, USA</p>
             </ins>
             <ins id="I2">
                <p>Department of Epidemiology and Biostatistics, Case Western Reserve University, Cleveland, Ohio, USA</p>
             </ins>
             <ins id="I3">
                <p>Department of Pediatrics, Baylor College of Medicine, Houston, Texas, USA</p>
             </ins>
             <ins id="I4">
                <p>Department of Medicine, Makerere University College of Health Sciences, Kampala, Uganda</p>
             </ins>
          </insg>
          <source>BMC Health Services Research</source>
          <issn>1472-6963</issn>
          <pubdate>2014</pubdate>
          <volume>14</volume>
          <issue>1</issue>
          <fpage>539</fpage>
          <url>http://www.biomedcentral.com/1472-6963/14/539</url>
          <xrefbib>
             <pubidlist>
                <pubid idtype="doi">10.1186/s12913-014-0539-8</pubid>
             </pubidlist>
          </xrefbib>
       </bibl>
       <history>
          <rec>
             <date>
                <day>8</day>
                <month>8</month>
                <year>2013</year>
             </date>
          </rec>
          <acc>
             <date>
                <day>20</day>
                <month>10</month>
                <year>2014</year>
             </date>
          </acc>
          <pub>
             <date>
                <day>4</day>
                <month>11</month>
                <year>2014</year>
             </date>
          </pub>
       </history>
       <cpyrt>
          <year>2014</year>
          <collab>Musuuza et al.; licensee BioMed Central Ltd.</collab>
          <note>This is an Open Access article distributed under the terms of the Creative Commons Attribution License (<url>http://creativecommons.org/licenses/by/2.0</url>) which permits unrestricted use, distribution, and reproduction in any medium, provided the original work is properly credited. The Creative Commons Public Domain Dedication waiver (<url>http://creativecommons.org/publicdomain/zero/1.0/</url>) applies to the data made available in this article, unless otherwise stated.</note>
       </cpyrt>
       <kwdg>
          <kwd>Cost-effectiveness analysis</kwd>
          <kwd>Healthcare in Uganda</kwd>
          <kwd>Constrained resources</kwd>
       </kwdg>
       <abs>
          <sec>
             <st>
                <p>Abstract</p>
             </st>
             <sec>
                <st>
                   <p>Background</p>
                </st>
                <p>Cost effectiveness analysis (CEA) is a useful tool for allocation of constrained resources, yet CEA methodologies are rarely taught or implemented in developing nations. We aimed to assess exposure to, and interest in CEA, and identify barriers to implementation in Uganda.</p>
             </sec>
             <sec>
                <st>
                   <p>Methods</p>
                </st>
                <p>A cross-sectional survey was carried out in Uganda using a newly developed self-administered questionnaire (via online and paper based approaches), targeting the main health care actors as identified by a previous study.</p>
             </sec>
             <sec>
                <st>
                   <p>Results</p>
                </st>
                <p>Overall, there was a 68% response rate, with a 92% (69/75) response rate among the paper-based respondents compared to a 40% (26/65) rate with the online respondents. Seventy eight percent (74/95) of the respondents had no exposure to CEA. None of those with a master of medicine degree had any CEA exposure, and 80% of technical officers, who are directly involved in policy formulation, had no CEA exposure. Barriers to CEA identified by more than 50% of the participants were: lack of information technology (IT) infrastructure (hardware and software); lack of local experts in the field of CEA; lack of or limited local data; limited CEA training in schools; equity or ethical issues; and lack of training grants incorporating CEA. 93% reported a lot of interest in learning to conduct CEA, and over 95% felt CEA was important for clinical decision making and policy formulation.</p>
             </sec>
             <sec>
                <st>
                   <p>Conclusions</p>
                </st>
                <p>Among health care actors in Uganda, there is very limited exposure to, but substantial interest in conducting CEA and including it in clinical decision making and health care policy formation. Capacity to undertake CEA needs to be built through incorporation into medical training and use of regional approaches.</p>
             </sec>
          </sec>
       </abs>
    </fm>
    <bdy>
       <sec>
          <st>
             <p>Background</p>
          </st>
          <p>In the past 20&#160;years, cost-effectiveness analysis (CEA) has become increasingly popular as a means of assessing the value of health care treatments. CEA endeavors to guide decision making such as to compare the health benefits of competing treatments within the context of cost. While these methods have been refined and gained traction in developed nations, there has been little use of CEA in developing nations <abbrgrp>
                <abbr bid="B1">1</abbr>
             </abbrgrp>. Countries with scarce health care resources would logically stand to gain most from these methods to optimize allocation of those scarce resources. In Sub-Saharan Africa (SSA), adverse factors ranging from civil wars and extreme poverty to high rates of infectious disease strain health care budgets and delivery systems, making optimal allocation of health care especially important. Taken in the context of an expected doubling of the population in the next 25&#160;years <abbrgrp>
                <abbr bid="B2">2</abbr>
             </abbrgrp>, it becomes even more urgent that CEA be more widely conducted and used to inform policy and practice. Accordingly, the World Health Organization (WHO) recommends incorporation of CEA in policy formulation and practice <abbrgrp>
                <abbr bid="B3">3</abbr>
             </abbrgrp>. Despite all this, CEA publications in developing countries are few <abbrgrp>
                <abbr bid="B1">1</abbr>
             </abbrgrp>, and some have employed inconsistent and often flawed methodology <abbrgrp>
                <abbr bid="B4">4</abbr>
             </abbrgrp>.</p>
          <p>Additional potential barriers to the conduct and impact of CEA in developing nations include lack of trained local personnel, lack of local data, and poor infrastructure <abbrgrp>
                <abbr bid="B5">5</abbr>
             </abbrgrp>. Other hypothesized barriers include a shortage of CEA experts and lack of familiarity with CEA among policy makers and opinion leaders.</p>
          <p>Despite the presence of barriers, evidence from developing countries continues to show that CEA is perceived as important for decision making. A study done among Ugandan health workers and policy makers showed that about 90% of all respondents recognized both disease severity and cost effectiveness as very important in health care decision making <abbrgrp>
                <abbr bid="B6">6</abbr>
             </abbrgrp>. However, we have not come across studies which have attempted to document key actors&#8217; perspectives in regard to the barriers which attenuate the influence of CEA in policy formulation and practice in Sub-Saharan Africa.</p>
          <p>In a commentary on the role of pharmacoeconomics in developing countries that was recently published in <it>PharmacoEconomics</it>, Babar and Scahill <abbrgrp>
                <abbr bid="B7">7</abbr>
             </abbrgrp> argue that &#8220;there is a need for a model that could aid in determining the perceived need and benefits of using pharmacoeconomics in formulary development in a given developing country&#8221;. By providing primary research on the exposure, interest and barriers to CEA in the context of a developing Sub-Saharan African nation, our study attempts to make a contribution to this effect.</p>
          <p>This study aims to identify barriers to the conduct of CEA and its impact on policy and practice in a Sub-Saharan African country, Uganda. It also assesses the interest in and exposure to CEA methods, as well as the frequency of use of CEA in actual health care policy and practice.</p>
       </sec>
       <sec>
          <st>
             <p>Methods</p>
          </st>
          <p>We carried out a cross sectional survey of the different health care delivery actors in Uganda. Self-administered questionnaires were used. In order to increase the response rate, we used both paper-based and online questionnaires. After two reminders (chosen arbitrarily) were given following no response on the paper version, we would send the online version. This approach was not effective and was applied to only six participants. We eventually opted to invite all those who had not completed the paper version to complete an online questionnaire. The online questionnaires were designed and administered using REDCap Survey Software (version 1.3.10; Vanderbilt University, Tennessee, USA).</p>
          <p>Questionnaires were sent out to health care workers; technical officers at the Ministry of Health (these are directly involved in policy formulation), post-graduate students training in health- related fields, and professors in the medical schools.</p>
          <p>Health care workers and students were drawn from the two main teaching hospitals namely: Mulago teaching hospital for Makerere University and Mbarara University teaching hospital for Mbarara University of Science and Technology. The two hospitals were selected because they are the two main teaching hospitals in Uganda; it is the students trained in these hospitals that end up being the main decision makers in health care.</p>
          <p>The study participants were selected as follows: For the Ministry of Health Officials, we contacted a senior officer and after we described the study to him, he advised us to send questionnaires to specific individuals from 3 departments that are involved in economic evaluations, namely Planning&#8201;&#8722;&#8201;5 respondents; Clinical Services-5 respondents; and Community Health- 5 respondents. For the students in the two medical schools, we obtained a list of names of postgraduate students from the program administrators and randomly selected those to whom the questionnaires were sent. We obtained a similar list for health care workers at the level of medical officer and above and randomly selected respondents. We also sent questionnaires to directors or deputy directors of Non-governmental organizations involved in health care delivery. All participants were fluent in English, so it was not necessary to provide translations.</p>
          <p>Data was collected between July and October 2010. Bi-weekly e-mail reminders were sent to participants.</p>
          <p>The study received IRB approval from the Case Western Reserve University Institutional Review Board (IRB) and the Makerere University Faculty of Medicine Scientific and Ethics committee, with final approval from the Ugandan National Council of Science and Technology. This study was conducted under standard ethical practices.</p>
          <sec>
             <st>
                <p>Statistical analysis</p>
             </st>
             <p>Data were entered online using REDCap Survey, and analyzed using SAS (version 9.2; SAS Institute,Cary North Carolina,USA). We carried out descriptive analyses looking at the demographic characteristics of respondents such as sex, education and work place.</p>
             <p>Exposure to CEA was treated as a binary variable i.e. some exposure (for those who had some or a lot of exposure during their training, current or past) and no exposure (for those who had no exposure). Some exposure as used in this paper refers to whether someone was exposed to CEA through their current or past training and/or through any other setting such as short term trainings, conferences/workshops, grand rounds, online material and journal clubs.</p>
             <p>A lot of exposure refers to someone who had classroom training in CEA and he/she is currently actively carrying out or involved in CEA research. No exposure means someone who did not have any exposure to CEA prior to this study.</p>
             <p>All questions involving a five-point scale of strongly agree, agree, neutral, disagree and strongly disagree, were re-coded as agree (strongly agree and agree) and disagree (neutral, disagree and strongly disagree). Neutral was included in the disagree category to bias results against the null hypothesis.</p>
             <p>Variables concerning the level of interest in conducting or learning to conduct CEA were coded as: a lot of interest (a lot of interest) and not a lot of interest (little, some or no interest).</p>
             <p>Questions involving the frequency of use of CEA were coded as: always, sometimes, and rarely or never.</p>
             <p>In order to test associations, we did a chi-square goodness of fit test to test whether the observed proportions for &#8216;agree&#8217; or &#8216;disagree&#8217; were different when a given question concerned policy versus when the same question concerned clinical practice.</p>
             <p>In addition, we did chi-square tests looking at the association between interest in conducting or learning to conduct CEA versus exposure to CEA. We also asked participants about potential barriers to CEA and their solutions.</p>
          </sec>
       </sec>
       <sec>
          <st>
             <p>Results</p>
          </st>
          <p>A total of 134 questionnaires were sent out. Of these 75 (57.2%) were paper-based and 65 (46.4%) were online. Six of the 65 online ones were from those who received the paper-based version and never responded. The remaining 59 were all sent directly online. Of the 75 paper- based ones, 69 (92.3%) were returned, but only 26 (40%) of the 65 online participants responded. Results are derived from a total of 95 (68%) returned questionnaires.</p>
          <p>Majority of the respondents were employees of tertiary/referral hospitals and universities. These accounted for 34% and 28% respectively. The mean age of respondents was 36&#160;years and males represented 61% of all respondents (Table&#160;<tblr tid="T1">1</tblr>).</p>
          
             <table id="T1">
                <title>
                   <p>Table 1</p>
                </title>
                <caption>
                   <p>
                      <b>Demographic characteristics of the survey respondents</b>
                   </p>
                </caption>
                <tgroup align="left" cols="2">
                   <colspec align="left" colname="c1" colnum="1" colwidth="*"/>
                   <colspec align="left" colname="c2" colnum="2" colwidth="*"/>
                   <thead>
                      <row valign="top">
                         <entry colname="c1">
                            <p>
                               <b>Characteristic</b>
                            </p>
                         </entry>
                         <entry colname="c2">
                            <p>
                               <b>N (%)</b>
                            </p>
                         </entry>
                      </row>
                   </thead>
                   <tfoot>
                      <p>*&#8216;Other&#8217; included master of business administration (MBA) and masters in human resource management.</p>
                      <p>**The other category included individuals who were pursuing a master&#8217;s degree in business administration and master&#8217;s degree in management.</p>
                      <p>(N =95).</p>
                   </tfoot>
                   <tbody>
                      <row valign="top">
                         <entry nameend="c2" namest="c1">
                            <p>
                               <b>Sex</b>
                            </p>
                         </entry>
                      </row>
                      <row valign="top">
                         <entry colname="c1">
                            <p>Male</p>
                         </entry>
                         <entry colname="c2">
                            <p>58 (61.1)</p>
                         </entry>
                      </row>
                      <row valign="top">
                         <entry colname="c1">
                            <p>Female</p>
                         </entry>
                         <entry colname="c2">
                            <p>36 (38.8)</p>
                         </entry>
                      </row>
                      <row valign="top">
                         <entry colname="c1">
                            <p>Missing</p>
                         </entry>
                         <entry colname="c2">
                            <p>1 (1.1)</p>
                         </entry>
                      </row>
                      <row valign="top">
                         <entry nameend="c2" namest="c1">
                            <p>
                               <b>Work-</b>
                               <b>place</b>
                            </p>
                         </entry>
                      </row>
                      <row valign="top">
                         <entry colname="c1">
                            <p>Ministry of Health</p>
                         </entry>
                         <entry colname="c2">
                            <p>15 (15.7)</p>
                         </entry>
                      </row>
                      <row valign="top">
                         <entry colname="c1">
                            <p>Tertiary/referral hospital</p>
                         </entry>
                         <entry colname="c2">
                            <p>32 (33.7)</p>
                         </entry>
                      </row>
                      <row valign="top">
                         <entry colname="c1">
                            <p>University</p>
                         </entry>
                         <entry colname="c2">
                            <p>27 (28.4)</p>
                         </entry>
                      </row>
                      <row valign="top">
                         <entry colname="c1">
                            <p>NGO</p>
                         </entry>
                         <entry colname="c2">
                            <p>20 (21.1)</p>
                         </entry>
                      </row>
                      <row valign="top">
                         <entry colname="c1">
                            <p>Missing</p>
                         </entry>
                         <entry colname="c2">
                            <p>1 (1.1)</p>
                         </entry>
                      </row>
                      <row valign="top">
                         <entry nameend="c2" namest="c1">
                            <p>
                               <b>Training completed</b>
                            </p>
                         </entry>
                      </row>
                      <row valign="top">
                         <entry colname="c1">
                            <p>Bachelor of medicine/MD</p>
                         </entry>
                         <entry colname="c2">
                            <p>59 (62.1)</p>
                         </entry>
                      </row>
                      <row valign="top">
                         <entry colname="c1">
                            <p>Postgraduate training/MMED</p>
                         </entry>
                         <entry colname="c2">
                            <p>8 (8.4)</p>
                         </entry>
                      </row>
                      <row valign="top">
                         <entry colname="c1">
                            <p>MS/MPH</p>
                         </entry>
                         <entry colname="c2">
                            <p>12 (12.6)</p>
                         </entry>
                      </row>
                      <row valign="top">
                         <entry colname="c1">
                            <p>PhD</p>
                         </entry>
                         <entry colname="c2">
                            <p>2 (2.1)</p>
                         </entry>
                      </row>
                      <row valign="top">
                         <entry colname="c1">
                            <p>*Other</p>
                         </entry>
                         <entry colname="c2">
                            <p>13 (13.7)</p>
                         </entry>
                      </row>
                      <row valign="top">
                         <entry colname="c1">
                            <p>Missing</p>
                         </entry>
                         <entry colname="c2">
                            <p>1(1.1)</p>
                         </entry>
                      </row>
                      <row valign="top">
                         <entry nameend="c2" namest="c1">
                            <p>
                               <b>Current training</b>
                            </p>
                         </entry>
                      </row>
                      <row valign="top">
                         <entry colname="c1">
                            <p>Postgraduate training/MMED</p>
                         </entry>
                         <entry colname="c2">
                            <p>17 (18.9)</p>
                         </entry>
                      </row>
                      <row valign="top">
                         <entry colname="c1">
                            <p>MS/MPH</p>
                         </entry>
                         <entry colname="c2">
                            <p>16 (16.8)</p>
                         </entry>
                      </row>
                      <row valign="top">
                         <entry colname="c1">
                            <p>PhD in a health related field (e.g. epidemiology or Health Services Research)</p>
                         </entry>
                         <entry colname="c2">
                            <p>23 (24.2)</p>
                         </entry>
                      </row>
                      <row valign="top">
                         <entry colname="c1">
                            <p>**Other</p>
                         </entry>
                         <entry colname="c2">
                            <p>38 (40.0)</p>
                         </entry>
                      </row>
                      <row valign="top">
                         <entry colname="c1">
                            <p>Missing</p>
                         </entry>
                         <entry colname="c2">
                            <p>1 (1.1)</p>
                         </entry>
                      </row>
                   </tbody>
                </tgroup>
             </table>
          
          <p>Seventy eight percent (74/95) of the respondents had no exposure; the remaining 22% (21/95) only had some exposure to cost effectiveness analysis. Nobody had a lot of exposure. Among those with a bachelor of medicine degree, only 19% (11/59) had some level of exposure to cost effectiveness analysis compared to 81% (48/59) who had no exposure to CEA. None (0/8) of those with master of medicine degree (MMED) had exposure to CEA and only 25% (3/12) of those with MS or MPH had some exposure to CEA (Table&#160;<tblr tid="T2">2</tblr>).</p>
          
             <table id="T2">
                <title>
                   <p>Table 2</p>
                </title>
                <caption>
                   <p>
                      <b>Respondents</b>&#8217; <b>exposure to cost effectiveness analysis by their current level of training and work</b>-<b>place</b> (<b>N</b> = <b>94</b>)</p>
                </caption>
                <tgroup align="left" cols="3">
                   <colspec align="left" colname="c1" colnum="1" colwidth="*"/>
                   <colspec align="left" colname="c2" colnum="2" colwidth="*"/>
                   <colspec align="left" colname="c3" colnum="3" colwidth="*"/>
                   <thead>
                      <row valign="top">
                         <entry colname="c1" morerows="1">
                            <p>
                               <b>Training completed</b>
                            </p>
                         </entry>
                         <entry nameend="c3" namest="c2" rowsep="1">
                            <p>
                               <b>Level of exposure</b>
                            </p>
                         </entry>
                      </row>
                      <row valign="top">
                         <entry colname="c2">
                            <p>
                               <b>No exposure n (%)</b>
                            </p>
                         </entry>
                         <entry colname="c3">
                            <p>
                               <b>Some exposure n (%)</b>
                            </p>
                         </entry>
                      </row>
                   </thead>
                   <tfoot>
                      <p>*&#8216;Other&#8217; included master of business administration (MBA) and masters in human resource management.</p>
                   </tfoot>
                   <tbody>
                      <row valign="top">
                         <entry colname="c1">
                            <p>Bachelor of Medicine (MBChB) or MD</p>
                         </entry>
                         <entry colname="c2">
                            <p>48 (81.4)</p>
                         </entry>
                         <entry colname="c3">
                            <p>11 (18.7)</p>
                         </entry>
                      </row>
                      <row valign="top">
                         <entry colname="c1">
                            <p>Post graduate (MMED)</p>
                         </entry>
                         <entry colname="c2">
                            <p>8 (100.0)</p>
                         </entry>
                         <entry colname="c3">
                            <p>0 (0.0)</p>
                         </entry>
                      </row>
                      <row valign="top">
                         <entry colname="c1">
                            <p>MS/MPH</p>
                         </entry>
                         <entry colname="c2">
                            <p>9 (75.0)</p>
                         </entry>
                         <entry colname="c3">
                            <p>3 (25.0)</p>
                         </entry>
                      </row>
                      <row valign="top">
                         <entry colname="c1">
                            <p>PhD</p>
                         </entry>
                         <entry colname="c2">
                            <p>2 (100.0)</p>
                         </entry>
                         <entry colname="c3">
                            <p>0 (0.0)</p>
                         </entry>
                      </row>
                      <row valign="top">
                         <entry colname="c1">
                            <p>*Other</p>
                         </entry>
                         <entry colname="c2">
                            <p>7 (53.9)</p>
                         </entry>
                         <entry colname="c3">
                            <p>6 (46.2)</p>
                         </entry>
                      </row>
                      <row valign="top">
                         <entry colname="c1">
                            <p>
                               <b>Work-</b>
                               <b>place</b>
                            </p>
                         </entry>
                         <entry nameend="c3" namest="c2"/>
                      </row>
                      <row valign="top">
                         <entry colname="c1">
                            <p>Ministry of Health</p>
                         </entry>
                         <entry colname="c2">
                            <p>12 (80.0)</p>
                         </entry>
                         <entry colname="c3">
                            <p>3 (20.0)</p>
                         </entry>
                      </row>
                      <row valign="top">
                         <entry colname="c1">
                            <p>Tertiary/referral hospital</p>
                         </entry>
                         <entry colname="c2">
                            <p>21 (65.6)</p>
                         </entry>
                         <entry colname="c3">
                            <p>11 (34.4)</p>
                         </entry>
                      </row>
                      <row valign="top">
                         <entry colname="c1">
                            <p>University</p>
                         </entry>
                         <entry colname="c2">
                            <p>21 (77.8)</p>
                         </entry>
                         <entry colname="c3">
                            <p>6 (22.2)</p>
                         </entry>
                      </row>
                      <row valign="top">
                         <entry colname="c1">
                            <p>Non Governmental Organization</p>
                         </entry>
                         <entry colname="c2">
                            <p>20 (100.0)</p>
                         </entry>
                         <entry colname="c3">
                            <p>0 (0.0)</p>
                         </entry>
                      </row>
                      <row valign="top">
                         <entry nameend="c2" namest="c1">
                            <p>
                               <b>Current training</b>
                            </p>
                         </entry>
                         <entry colname="c3"/>
                      </row>
                      <row valign="top">
                         <entry colname="c1">
                            <p>Postgraduate training/MMED</p>
                         </entry>
                         <entry colname="c2">
                            <p>14 (82.4)</p>
                         </entry>
                         <entry colname="c3">
                            <p>3 (17.6)</p>
                         </entry>
                      </row>
                      <row valign="top">
                         <entry colname="c1">
                            <p>MS/MPH</p>
                         </entry>
                         <entry colname="c2">
                            <p>12 (75.0)</p>
                         </entry>
                         <entry colname="c3">
                            <p>4 (25.0)</p>
                         </entry>
                      </row>
                      <row valign="top">
                         <entry colname="c1">
                            <p>PhD in a health related field (e.g. epidemiology or Health Services Research)</p>
                         </entry>
                         <entry colname="c2">
                            <p>17 (73.9)</p>
                         </entry>
                         <entry colname="c3">
                            <p>6 (26.1)</p>
                         </entry>
                      </row>
                      <row valign="top">
                         <entry colname="c1">
                            <p>*Other</p>
                         </entry>
                         <entry colname="c2">
                            <p>31 (81.6)</p>
                         </entry>
                         <entry colname="c3">
                            <p>7 (18.4)</p>
                         </entry>
                      </row>
                      <row valign="top">
                         <entry colname="c1">
                            <p>Missing</p>
                         </entry>
                         <entry colname="c2">
                            <p>0 (0.0)</p>
                         </entry>
                         <entry colname="c3">
                            <p>1 (100.0)</p>
                         </entry>
                      </row>
                   </tbody>
                </tgroup>
             </table>
          
          <p>Looking at exposure to CEA by work place also showed interesting findings. Among those working for the ministry of health, 12/15 (80%) had no CEA exposure. For tertiary/referral hospitals workers and university faculty, only 11/32 (34%) and 6/27 (22%) respectively, had some exposure to CEA. None (0/20) of those working for a non-governmental organization had any exposure to CEA.</p>
          <p>Barriers to CEA identified by more than 50% of the participants were: lack of local experts in the field of CEA; lack of or limited local data; limited CEA training in schools; equity or ethical issues; lack of training grants incorporating CEA and lack of IT infrastructure. This meant the actual lack of or much limited supply of hardware such as computers and lack of or limited licenses to software packages such as TreeAge, which are used in economic evaluations such as CEA.</p>
          <p>There was no statistical difference as to whether these were more of barriers in relation to policy or clinical practice. Participants also overwhelmingly agreed that improving these barriers will go a long way in increasing the use of CEA in policy and clinical practice (Table&#160;<tblr tid="T3">3</tblr>).</p>
          
             <table id="T3">
                <title>
                   <p>Table 3</p>
                </title>
                <caption>
                   <p>
                      <b>Barriers to CEA identified by the study</b>
                   </p>
                </caption>
                <tgroup align="left" cols="5">
                   <colspec align="left" colname="c1" colnum="1" colwidth="*"/>
                   <colspec align="left" colname="c2" colnum="2" colwidth="*"/>
                   <colspec align="left" colname="c3" colnum="3" colwidth="*"/>
                   <colspec align="left" colname="c4" colnum="4" colwidth="*"/>
                   <colspec align="left" colname="c5" colnum="5" colwidth="*"/>
                   <thead>
                      <row valign="top">
                         <entry colname="c1">
                            <p>
                               <b>Barrier</b>
                            </p>
                         </entry>
                         <entry colname="c2">
                            <p>
                               <b>Clinical practice n (%)</b>
                            </p>
                         </entry>
                         <entry colname="c3">
                            <p>
                               <b>Policy formulation n (%)</b>
                            </p>
                         </entry>
                         <entry colname="c4">
                            <p>
                               <b>Solving enhances use of CEA in clinical practice n (%)</b>
                            </p>
                         </entry>
                         <entry colname="c5">
                            <p>
                               <b>Solving enhances use of CEA in policy formulation n (%)</b>
                            </p>
                         </entry>
                      </row>
                   </thead>
                   <tfoot>
                      <p>N.S<it>:</it> Chi<it>-</it>square goodness of fit test showed that the observed proportions of agreeing to a given barrier were not statistically different whether the barrier concerned policy or clinical practice<it>.</it>
                      </p>
                      <p>N<it>/</it>A<it>:</it> Not applicable<it>.</it>
                      </p>
                      <p>
                         <it>**</it>Is based on N <it>=</it>94<it>,</it> all the other proportions in the table are based on N <it>=</it>93. These are less than 95 because of missing data resulting from participants not responding to certain questions<it>.</it>
                      </p>
                   </tfoot>
                   <tbody>
                      <row valign="top">
                         <entry colname="c1" morerows="1">
                            <p>Lack of IT infrastructure e.g. hardware and software</p>
                         </entry>
                         <entry colname="c2">
                            <p>72** (76.6)</p>
                         </entry>
                         <entry colname="c3">
                            <p>65(69.9)</p>
                         </entry>
                         <entry colname="c4">
                            <p>75 (80.7)</p>
                         </entry>
                         <entry colname="c5">
                            <p>79 (85)</p>
                         </entry>
                      </row>
                      <row valign="top">
                         <entry nameend="c3" namest="c2">
                            <p>N.S</p>
                         </entry>
                         <entry nameend="c5" namest="c4">
                            <p>N.S</p>
                         </entry>
                      </row>
                      <row valign="top">
                         <entry colname="c1" morerows="1">
                            <p>Lack of experts in the field of cost effectiveness analysis</p>
                         </entry>
                         <entry colname="c2">
                            <p>81 (87.1)</p>
                         </entry>
                         <entry colname="c3">
                            <p>76 (81.7)</p>
                         </entry>
                         <entry colname="c4">
                            <p>89 (95.7)</p>
                         </entry>
                         <entry colname="c5">
                            <p>89 (95.7)</p>
                         </entry>
                      </row>
                      <row valign="top">
                         <entry nameend="c3" namest="c2">
                            <p>N.S</p>
                         </entry>
                         <entry nameend="c5" namest="c4">
                            <p>N.S</p>
                         </entry>
                      </row>
                      <row valign="top">
                         <entry colname="c1" morerows="1">
                            <p>Lack of or limited local data</p>
                         </entry>
                         <entry colname="c2">
                            <p>85 (91.4)</p>
                         </entry>
                         <entry colname="c3">
                            <p>82 (88.2)</p>
                         </entry>
                         <entry colname="c4">
                            <p>88 (94.6)</p>
                         </entry>
                         <entry colname="c5">
                            <p>90 (96.8)</p>
                         </entry>
                      </row>
                      <row valign="top">
                         <entry nameend="c3" namest="c2">
                            <p>N.S</p>
                         </entry>
                         <entry nameend="c5" namest="c4">
                            <p>N.S</p>
                         </entry>
                      </row>
                      <row valign="top">
                         <entry colname="c1" morerows="1">
                            <p>Limited CEA training in schools</p>
                         </entry>
                         <entry colname="c2">
                            <p>89 (95.7)</p>
                         </entry>
                         <entry colname="c3">
                            <p>86 (92.5)</p>
                         </entry>
                         <entry colname="c4">
                            <p>89 (95.7)</p>
                         </entry>
                         <entry colname="c5">
                            <p>89 (95.7)</p>
                         </entry>
                      </row>
                      <row valign="top">
                         <entry nameend="c3" namest="c2">
                            <p>N.S</p>
                         </entry>
                         <entry nameend="c5" namest="c4">
                            <p>N.S</p>
                         </entry>
                      </row>
                      <row valign="top">
                         <entry colname="c1" morerows="1">
                            <p>Fairness and ethical concerns</p>
                         </entry>
                         <entry colname="c2">
                            <p>47 (50.5)</p>
                         </entry>
                         <entry colname="c3">
                            <p>49 (54.1)</p>
                         </entry>
                         <entry colname="c4">
                            <p>N/A</p>
                         </entry>
                         <entry colname="c5">
                            <p>N/A</p>
                         </entry>
                      </row>
                      <row valign="top">
                         <entry nameend="c3" namest="c2">
                            <p>N.S</p>
                         </entry>
                         <entry nameend="c5" namest="c4">
                            <p>N/A</p>
                         </entry>
                      </row>
                      <row valign="top">
                         <entry colname="c1" morerows="1">
                            <p>Lack of training grants incorporating CEA</p>
                         </entry>
                         <entry colname="c2">
                            <p>61 (65.6)</p>
                         </entry>
                         <entry colname="c3">
                            <p>63 (67.7)</p>
                         </entry>
                         <entry colname="c4">
                            <p>73 (78.5)</p>
                         </entry>
                         <entry colname="c5">
                            <p>74 (79.6)</p>
                         </entry>
                      </row>
                      <row valign="top">
                         <entry nameend="c3" namest="c2">
                            <p>N.S</p>
                         </entry>
                         <entry nameend="c5" namest="c4">
                            <p>N.S</p>
                         </entry>
                      </row>
                   </tbody>
                </tgroup>
             </table>
          
          <p>Majority of the respondents overwhelmingly agreed that CEA should play an important role in policy and clinical practice. Again there was no statistical difference as to whether perception of the importance of CEA was in relation to policy or clinical practice (Table&#160;<tblr tid="T4">4</tblr>).</p>
          
             <table id="T4">
                <title>
                   <p>Table 4</p>
                </title>
                <caption>
                   <p>
                      <b>Respondents</b>&#8217; <b>perceived importance of cost effectiveness analyses in policy and clinical practice</b>
                   </p>
                </caption>
                <tgroup align="left" cols="3">
                   <colspec align="left" colname="c1" colnum="1" colwidth="*"/>
                   <colspec align="left" colname="c2" colnum="2" colwidth="*"/>
                   <colspec align="left" colname="c3" colnum="3" colwidth="*"/>
                   <thead>
                      <row valign="top">
                         <entry colname="c1">
                            <p>
                               <b>Respondent&#8217;</b>
                               <b>s perception of importance of CEA</b>
                            </p>
                         </entry>
                         <entry colname="c2">
                            <p>
                               <b>In clinical practice n (%)</b>
                            </p>
                         </entry>
                         <entry colname="c3">
                            <p>
                               <b>In policy formulation n (%)</b>
                            </p>
                         </entry>
                      </row>
                   </thead>
                   <tfoot>
                      <p>N.S<it>:</it> Chi<it>-</it>square goodness of fit test showed that the observed proportions of agreeing to the importance of CEA were not statistically different whether the importance was in relation to policy or clinical practice<it>.</it>
                      </p>
                      <p>
                         <it>**</it>Is based on N <it>= </it>94 because of a missing data point<it>,</it> all the other proportions in the table are based on N <it>= </it>95<it>.</it>
                      </p>
                   </tfoot>
                   <tbody>
                      <row valign="top">
                         <entry colname="c1" morerows="1">
                            <p>CEA should play an important role</p>
                         </entry>
                         <entry colname="c2">
                            <p>92 (96.8)</p>
                         </entry>
                         <entry colname="c3">
                            <p>91 (95.8)</p>
                         </entry>
                      </row>
                      <row valign="top">
                         <entry nameend="c3" namest="c2">
                            <p>N.S</p>
                         </entry>
                      </row>
                      <row valign="top">
                         <entry colname="c1" morerows="1">
                            <p>Your colleagues think that CEA should play an important role</p>
                         </entry>
                         <entry colname="c2">
                            <p>69 (72.6)</p>
                         </entry>
                         <entry colname="c3">
                            <p>74** (78.7)</p>
                         </entry>
                      </row>
                      <row valign="top">
                         <entry nameend="c3" namest="c2">
                            <p>N.S</p>
                         </entry>
                      </row>
                   </tbody>
                </tgroup>
             </table>
          
          <p>Among those who had no exposure to CEA, 43% (32/74) had a lot of interest in conducting CEA compared to 57% (42/74) who did not have a lot of interest in conducting CEA. Among those who had some exposure to CEA, 30% (6/20) had a lot of interest in conducting CEA compared to 70% (14/20) who did not have a lot of interest in conducting CEA.</p>
          <p>The picture was slightly different when we looked at CEA exposure versus interest in learning to conduct CEA. Although not statistically significant, respondents who had no exposure to CEA compared to those who had some exposure were slightly less likely to be interested in learning to conduct CEA, 58% (43/74) vs. 65% (13/20), p = 0.08.</p>
          <p>In general, most of the respondents frequency of using CEA in making clinical or policy decisions ranged between sometimes to rarely or never (Table&#160;<tblr tid="T5">5</tblr>).</p>
          
             <table id="T5">
                <title>
                   <p>Table 5</p>
                </title>
                <caption>
                   <p>
                      <b>Respondents</b>&#8217; <b>frequency of use of cost effectiveness analysis</b>
                   </p>
                </caption>
                <tgroup align="left" cols="4">
                   <colspec align="left" colname="c1" colnum="1" colwidth="*"/>
                   <colspec align="left" colname="c2" colnum="2" colwidth="*"/>
                   <colspec align="left" colname="c3" colnum="3" colwidth="*"/>
                   <colspec align="left" colname="c4" colnum="4" colwidth="*"/>
                   <thead>
                      <row valign="top">
                         <entry colname="c1"/>
                         <entry colname="c2">
                            <p>
                               <b>Always n (%)</b>
                            </p>
                         </entry>
                         <entry colname="c3">
                            <p>
                               <b>Sometimes n (%)</b>
                            </p>
                         </entry>
                         <entry colname="c4">
                            <p>
                               <b>Rarely or never n (%)</b>
                            </p>
                         </entry>
                      </row>
                   </thead>
                   <tfoot>
                      <p>**Proportions based on N <it>=</it>95<it>,</it> due to one missing data value all the other proportions in the table are based on N <it>= </it>94<it>.</it>
                      </p>
                   </tfoot>
                   <tbody>
                      <row valign="top">
                         <entry colname="c1">
                            <p>How often have you been involved in doing CEA?**</p>
                         </entry>
                         <entry colname="c2">
                            <p>3 (3.2)</p>
                         </entry>
                         <entry colname="c3">
                            <p>24 (25.3)</p>
                         </entry>
                         <entry colname="c4">
                            <p>68 (71.6)</p>
                         </entry>
                      </row>
                      <row valign="top">
                         <entry colname="c1">
                            <p>How often have you (personally) had to interpret CEA during your practice or decision making?</p>
                         </entry>
                         <entry colname="c2">
                            <p>6 (6.4)</p>
                         </entry>
                         <entry colname="c3">
                            <p>41 (43.6)</p>
                         </entry>
                         <entry colname="c4">
                            <p>47 (50.0)</p>
                         </entry>
                      </row>
                      <row valign="top">
                         <entry colname="c1">
                            <p>How frequently do you read an article (s) that compares the cost effectiveness of two or more interventions?</p>
                         </entry>
                         <entry colname="c2">
                            <p>2 (2.1)</p>
                         </entry>
                         <entry colname="c3">
                            <p>50 (53.2)</p>
                         </entry>
                         <entry colname="c4">
                            <p>42 (44.7)</p>
                         </entry>
                      </row>
                      <row valign="top">
                         <entry colname="c1">
                            <p>In the past 12&#160;months, have you considered cost effectiveness analysis results when making decisions during your clinical practice?</p>
                         </entry>
                         <entry colname="c2">
                            <p>10 (10.6)</p>
                         </entry>
                         <entry colname="c3">
                            <p>39 (41.5)</p>
                         </entry>
                         <entry colname="c4">
                            <p>45 (47.9)</p>
                         </entry>
                      </row>
                      <row valign="top">
                         <entry colname="c1">
                            <p>In the past 12&#160;months, have you considered cost effectiveness analysis results when formulating any policies?</p>
                         </entry>
                         <entry colname="c2">
                            <p>10 (10.7)</p>
                         </entry>
                         <entry colname="c3">
                            <p>32 (34)</p>
                         </entry>
                         <entry colname="c4">
                            <p>52 (53.3)</p>
                         </entry>
                      </row>
                      <row valign="top">
                         <entry colname="c1">
                            <p>How often do you involve CEA in discussing policy or practice at your school or place of work?</p>
                         </entry>
                         <entry colname="c2">
                            <p>8 (8.5)</p>
                         </entry>
                         <entry colname="c3">
                            <p>50 (53.2)</p>
                         </entry>
                         <entry colname="c4">
                            <p>36 (38.3)</p>
                         </entry>
                      </row>
                      <row valign="top">
                         <entry colname="c1">
                            <p>How often have you been involved in reviewing CEA?</p>
                         </entry>
                         <entry colname="c2">
                            <p>2 (2.1)</p>
                         </entry>
                         <entry colname="c3">
                            <p>26 (27.7)</p>
                         </entry>
                         <entry colname="c4">
                            <p>66 (70.2)</p>
                         </entry>
                      </row>
                   </tbody>
                </tgroup>
             </table>
          
       </sec>
       <sec>
          <st>
             <p>Discussion</p>
          </st>
          <p>In the resource-constrained countries of Sub-Saharan Africa (SSA), where policy and decision makers are frequently faced with tough decisions regarding resource allocation, cost effectiveness analysis (CEA) can be a useful tool for optimal allocation of scarce resources. This study shows that the health care actors in Uganda perceive cost effectiveness analysis as an important part of the decision making process.</p>
          <p>This study identified the lack of exposure to CEA and the lack of trained individuals to conduct CEA as the two main barriers to CEA playing a substantial role in health care decision making in Uganda. Just like in Thailand and other developing countries <abbrgrp>
                <abbr bid="B8">8</abbr>
             </abbrgrp>, the majority of the health policy decision makers in Uganda are medically trained. Systemic introduction of CEA methods into medical training is necessary, and also requires the creation of training grants for CEA.</p>
          <p>Lessons learned from the approaches that developed nations have used to increase the knowledge and skills to carry out CEA should be applied to developing countries. Noteworthy is the fact that the approaches adopted should be modified in ways which make them appropriate in the local context. This will enhance the impact of CEA in the decision making process. A review by Alan Stewart, Jordana K. Schmier, &amp; Bryan R. Luce, 1999 <abbrgrp>
                <abbr bid="B9">9</abbr>
             </abbrgrp> has documented some of these strategies.</p>
          <p>Jauregui et al., 2011, describes the Pan-American Health Organization (PAHO) ProVac Initiative&#8217;s approach. This initiative was in response to the request by country managers of vaccine programs for additional technical support in the use of cost-effectiveness analysis and other forms of economic evaluations of competing interventions. Its implementation inter-alia resulted into new models for cost-effectiveness analysis; innovative data collection tools; CEA trainings at regional levels; technical support to individual nations that ask for it and development of web-based based technical support systems <abbrgrp>
                <abbr bid="B10">10</abbr>
             </abbrgrp>. These lessons can be applied to SSA.</p>
          <p>In addition, the WHO-CHOICE(CHOosing Interventions that are Cost-Effective) project provides key information needed to standardize CEA methods, and also takes a sectoral perspective where the costs and effectiveness of a wide range of interventions are compared in order to identify those that maximize health from a given set of resources. The WHO-CHOICE project also assembles regional databases on the costs, and impact on population health. It also provides cost-effectiveness of key health interventions, as well as a contextualization tool, enabling adaption of regional results to the country level <abbrgrp>
                <abbr bid="B3">3</abbr>
             </abbrgrp>.</p>
          <p>In this study, less than one in four had any exposure to CEA, including the subset of Ministry of Health employees. Furthermore, more than 80% identified lack of local experts as a barrier to the use of CEA. Similar findings have been observed among policy makers in Thailand, where only 29% were able to define the concept of economic evaluations <abbrgrp>
                <abbr bid="B8">8</abbr>
             </abbrgrp>. Following these findings, interventions such as capacity building using various approaches like short-term trainings, workshops, and conferences about CEA methodologies and approaches have been widely implemented in Thailand <abbrgrp>
                <abbr bid="B5">5</abbr>
             </abbrgrp>. With necessary modifications to make them locally appropriate, these should be adopted in Uganda and other developing or poorest countries.</p>
          <p>This study identified other barriers similar to those identified by a range of policymakers in a Thailand study <abbrgrp>
                <abbr bid="B5">5</abbr>
             </abbrgrp>. Among these is the lack of infrastructure and physical tools like computers and associated software.</p>
          <p>In addition, there is limited local data and policy makers are routinely using clinical data from other countries.</p>
          <p>In Thailand, the Health Intervention and Technology Assessment Program has adopted certain principles, such as technical excellence and policy relevance to enhance the utilization of its research findings by policy makers and other stakeholders <abbrgrp>
                <abbr bid="B5">5</abbr>
             </abbrgrp>.</p>
          <p>There is a need for establishing cost effectiveness analysis institutes in SSA to guide research involving CEA and also carry out capacity building activities. While some developing nations like Thailand have been able to do this on their own, for the extremely impoverished countries of Sub-Saharan Africa, it may be necessary to establish a regional body. This may start by establishing a think tank comprised of key actors in health care decision making and experts in local institutions such as the economic policy research center in Uganda, the Kenya Medical Research Institute, and the Botswana institute of social policy to guide capacity building for CEA in SSA. This approach should be part of an overall strategy and can help define a better, sustainable process for increasing awareness and capacity to conduct the analysis.</p>
          <p>Furthermore, fairness and ethical concerns were also cited as significant barriers to CEA. Societal values such as equity may sometimes conflict with the conclusions of CEA evaluations. For example, providing universal access to second-line antiretroviral therapy (ART) for treating HIV/AIDS patients may not prove to be as cost-effective, but may be preferable to society <abbrgrp>
                <abbr bid="B11">11</abbr>
             </abbrgrp>.</p>
          <p>On the other hand, the fact stands that affordability of an otherwise cost effective intervention can be a barrier to wide spread use of knowledge gained from CEA. The additional cost of the program (affordability) when fully implemented may be prohibitive for a given country <abbrgrp>
                <abbr bid="B12">12</abbr>
             </abbrgrp>,<abbrgrp>
                <abbr bid="B13">13</abbr>
             </abbrgrp> despite a favorable ICER per outcome for one person.</p>
          <p>A high proportion of those who had no CEA exposure had a lot of interest in learning to conduct it, yet only 35% of those who had some exposure had a lot of interest in learning to conduct CEA. This may be because people who have had some exposure to CEA may better realize how complex CEA can be, and may prefer not to make the investment of time to learn to do it themselves. They still found it important to do CEA. Indeed, developing capacity to conduct CEAs will likely require the teaching of these methods in quantitative health-related disciplines such as epidemiology and biostatistics and might be augmented by the Ministry of Health requiring staff be knowledgeable and skilled in CEA.</p>
          <p>Also noteworthy was the finding that none of the twenty individuals employed by NGOs reported any exposure to CEA. This may be because many NGOs have specific well-funded missions, and are not conducting CEA and formulating policy.</p>
          <p>It is worth noting that although CEA may be essential for guiding resource allocation, its use might be limited in countries like Uganda, where resource allocation for health care is governed by a number of stakeholders including government and development partners such as Global fund, that may be interested in funding specific programs, e.g., Malaria, HIV/AIDS, medicines and diagnostics etc. <abbrgrp>
                <abbr bid="B14">14</abbr>
             </abbrgrp>.</p>
          <p>In such settings, the lack of a single unitary agency e.g., the ministry of health that governs resource allocation limits the use of CEA tools to inform resource allocation at a sector level. This creates inefficiencies. However, within a sector program e.g., HIV/AIDS Anti-retro-viral drugs, there might be circumstances where CEA tools might be applicable.</p>
          <p>The biggest limitation of this study is the small sample size, with limited power to detect significant differences between subgroups. However, the sample size was adequate to support the exploratory aims of our study which will guide future studies and interventions. Having mentioned that however, participants in this study belonged to categories that were identified as the main health care actors in Uganda <abbrgrp>
                <abbr bid="B6">6</abbr>
             </abbrgrp> and elsewhere <abbrgrp>
                <abbr bid="B15">15</abbr>
             </abbrgrp>, therefore the information they provide is assumed to be both relevant and reliable. As with any self-administered questionnaire, we also cannot rule out the possibility of poor question interpretation <abbrgrp>
                <abbr bid="B16">16</abbr>
             </abbrgrp>. Nevertheless, systematic analysis of our questionnaire results did not identify any specific questions that appeared to be interpreted illogically.</p>
       </sec>
       <sec>
          <st>
             <p>Conclusions</p>
          </st>
          <p>This study demonstrates that despite substantial interest, significant barriers have to be dealt with if cost effectiveness analysis is to have a significant impact on policy and practice in Sub-Saharan Africa. More locally generated data is needed, as is improved infrastructure, and increased local expertise. The study also highlights the unfortunate reality that despite acknowledgement of the importance of CEA and interest in learning to conduct it, very few health care actors in Uganda have sufficient exposure to CEA for these methods to impact policy. If cost effectiveness analysis is to take root in Sub-Saharan African countries like Uganda, there must be concerted effort to increase exposure to CEA at all levels of training.</p>
          <p>Since political pressure also plays a role in decision making <abbrgrp>
                <abbr bid="B8">8</abbr>
             </abbrgrp>, there is a need for effective dialogue with all the involved stakeholders, particularly political representatives so that they understand the appropriate role for CEA in policy making.</p>
       </sec>
       <sec>
          <st>
             <p>Competing interests</p>
          </st>
          <p>Other than the normal scholarly gains, there are no other gains investigators might receive from taking part in this study. The authors declare that they have no competing interests.</p>
       </sec>
       <sec>
          <st>
             <p>Authors&#8217; contributions</p>
          </st>
          <p>JSM participated in the study development, developed data collection tools, analyzed the data, and was involved in manuscript development. MES participated in the study development, supervised data analysis, and contributed to manuscript writing. AM participated in study development and participated in manuscript writing. AK Participated in the study development supervised data collection in Uganda and contributed to manuscript writing. All authors read and approved the final manuscript.</p>
       </sec>
    </bdy>
    <bm>
       <ack>
          <sec>
             <st>
                <p>Acknowledgements</p>
             </st>
             <p>We acknowledge all the individuals that participated in the study; Dr. Godfrey Kayita and Mr. Julius Ssendiwala of the Ugandan Ministry of Health (MOH) for helping with logistics at the MOH; Ms. Harriet Nambooze, Ms. Aidah Kisekka and Mr. Edward Kakooza of Makerere University Medical School for co-ordinating data collection and entry; Dr. Esther Mirembe Musuuza for offering her time to carefully read the manuscript. We also acknowledge the Clinical and Translational Science Collaborative of Case Western Reserve University for providing access to the REDCap Survey Software through a grant support (1 UL1 RR024989 from NCRR/NIH). The research was further supported under NIH awards UL1TR000427 and TL1TR000429. The content is solely the responsibility of the authors and does not necessarily represent the official views of the National Institutes of Health.</p>
          </sec>
       </ack>
       <refgrp>
          
          <bibl id="B1">
             <title>
                <p>Cost-Effectiveness Analysis: Developing Nations Left Behind</p>
             </title>
             <aug>
                <au>
                   <snm>Singer</snm>
                   <fnm>ME</fnm>
                </au>
             </aug>
             <source>Pharmacoeconomics</source>
             <pubdate>2008</pubdate>
             <volume>26</volume>
             <issue>5</issue>
             <fpage>359</fpage>
             <lpage>361</lpage>
             <xrefbib>
                <pubidlist>
                   <pubid idtype="doi">10.2165/00019053-200826050-00001</pubid>
                   <pubid idtype="pmpid" link="fulltext">18429653</pubid>
                </pubidlist>
             </xrefbib>
          </bibl>
          <bibl id="B2">
             
                <url>http://go.worldbank.org/X6PO5E1410</url>
             
<note>The World Bank: <b>Africa&#8217;s Population Set to Double by 2036.</b> 2010. [cited 2014 June 15]; Available from: .</note>
          </bibl>
          <bibl id="B3">
             <title>
                <p>WHO-CHOICE. Generalized cost-effectiveness analysis for national-level priority-setting in the health sector</p>
             </title>
             <aug>
                <au>
                   <snm>Hutubessy</snm>
                   <fnm>R</fnm>
                </au>
                <au>
                   <snm>Chisholm</snm>
                   <fnm>D</fnm>
                </au>
                <au>
                   <snm>Edejer</snm>
                   <fnm>T</fnm>
                </au>
             </aug>
             <source>Cost Effectiveness and Resour Allocation</source>
             <pubdate>2003</pubdate>
             <volume>1</volume>
             <issue>1</issue>
             <fpage>8</fpage>
             <xrefbib>
                <pubidlist>
                   <pubid idtype="doi">10.1186/1478-7547-1-8</pubid>
                </pubidlist>
             </xrefbib>
          </bibl>
          <bibl id="B4">
             <title>
                <p>The evidence base on the cost-effectiveness of malaria control measures in Africa</p>
             </title>
             <aug>
                <au>
                   <snm>Goodman</snm>
                   <fnm>CA</fnm>
                </au>
                <au>
                   <snm>Mills</snm>
                   <fnm>AJ</fnm>
                </au>
             </aug>
             <source>Health Policy Plan</source>
             <pubdate>1999</pubdate>
             <volume>14</volume>
             <issue>4</issue>
             <fpage>301</fpage>
             <lpage>312</lpage>
             <xrefbib>
                <pubidlist>
                   <pubid idtype="doi">10.1093/heapol/14.4.301</pubid>
                   <pubid idtype="pmpid" link="fulltext">10787646</pubid>
                </pubidlist>
             </xrefbib>
          </bibl>
          <bibl id="B5">
             <title>
                <p>Strengthening Cost-Effectiveness Analysis in Thailand through the Establishment of the Health Intervention and Technology Assessment Program</p>
             </title>
             <aug>
                <au>
                   <snm>Tantivess</snm>
                   <fnm>S</fnm>
                </au>
                <au>
                   <snm>Teerawattananon</snm>
                   <fnm>Y</fnm>
                </au>
                <au>
                   <snm>Mills</snm>
                   <fnm>A</fnm>
                </au>
             </aug>
             <source>Pharmacoeconomics</source>
             <pubdate>2009</pubdate>
             <volume>27</volume>
             <issue>11</issue>
             <fpage>931</fpage>
             <lpage>945</lpage>
             <note>doi:10.2165/11314710-000000000-00000</note>
             <xrefbib>
                <pubidlist>
                   <pubid idtype="doi">10.2165/11314710-000000000-00000</pubid>
                   <pubid idtype="pmpid" link="fulltext">19888793</pubid>
                </pubidlist>
             </xrefbib>
          </bibl>
          <bibl id="B6">
             <title>
                <p>Is cost-effectiveness analysis preferred to severity of disease as the main guiding principle in priority setting in resource poor settings? The case of Uganda</p>
             </title>
             <aug>
                <au>
                   <snm>Kapiriri</snm>
                   <fnm>L</fnm>
                </au>
                <au>
                   <snm>Arnesen</snm>
                   <fnm>T</fnm>
                </au>
                <au>
                   <snm>Norheim</snm>
                   <fnm>OF</fnm>
                </au>
             </aug>
             <source>Cost Eff Resour Alloc</source>
             <pubdate>2004</pubdate>
             <volume>2</volume>
             <issue>1</issue>
             <fpage>1</fpage>
             <xrefbib>
                <pubidlist>
                   <pubid idtype="doi">10.1186/1478-7547-2-1</pubid>
                   <pubid idtype="pmpid" link="fulltext">14711374</pubid>
                </pubidlist>
             </xrefbib>
          </bibl>
          <bibl id="B7">
             <title>
                <p>Is there a role for pharmacoeconomics in developing countries?</p>
             </title>
             <aug>
                <au>
                   <snm>Babar</snm>
                   <fnm>Z-U-D</fnm>
                </au>
                <au>
                   <snm>Scahill</snm>
                   <fnm>S</fnm>
                </au>
             </aug>
             <source>Pharmacoeconomics</source>
             <pubdate>2010</pubdate>
             <volume>28</volume>
             <issue>12</issue>
             <fpage>1069</fpage>
             <lpage>1074</lpage>
             <xrefbib>
                <pubidlist>
                   <pubid idtype="doi">10.2165/11584890-000000000-00000</pubid>
                   <pubid idtype="pmpid" link="fulltext">21080732</pubid>
                </pubidlist>
             </xrefbib>
          </bibl>
          <bibl id="B8">
             <title>
                <p>A Difficult Balancing Act: Policy Actors&#8217; Perspectives on Using Economic Evaluation to Inform Health-Care Coverage Decisions under the Universal Health Insurance Coverage Scheme in Thailand</p>
             </title>
             <aug>
                <au>
                   <snm>Teerawattananon</snm>
                   <fnm>Y</fnm>
                </au>
                <au>
                   <snm>Russell</snm>
                   <fnm>S</fnm>
                </au>
             </aug>
             <source>Value Health</source>
             <pubdate>2008</pubdate>
             <volume>11</volume>
             <fpage>S52</fpage>
             <lpage>S60</lpage>
             <xrefbib>
                <pubidlist>
                   <pubid idtype="doi">10.1111/j.1524-4733.2008.00367.x</pubid>
                   <pubid idtype="pmpid" link="fulltext">18387068</pubid>
                </pubidlist>
             </xrefbib>
          </bibl>
          <bibl id="B9">
             <title>
                <p>Economics and cost-effectiveness in evaluating the value of cardiovascular therapies. A survey of standards and guidelines for cost-effectiveness analysis in health care</p>
             </title>
             <aug>
                <au>
                   <snm>Stewart</snm>
                   <fnm>A</fnm>
                </au>
                <au>
                   <snm>Schmier</snm>
                   <fnm>JK</fnm>
                </au>
                <au>
                   <snm>Luce</snm>
                   <fnm>BR</fnm>
                </au>
             </aug>
             <source>Am Heart J</source>
             <pubdate>1999</pubdate>
             <volume>137</volume>
             <issue>5</issue>
             <fpage>S53</fpage>
             <lpage>S61</lpage>
             <xrefbib>
                <pubidlist>
                   <pubid idtype="doi">10.1016/S0002-8703(99)70430-8</pubid>
                   <pubid idtype="pmpid" link="fulltext">10220598</pubid>
                </pubidlist>
             </xrefbib>
          </bibl>
          <bibl id="B10">
             <title>
                <p>Strengthening the technical capacity at country-level to make informed policy decisions on new vaccine introduction: Lessons learned by PAHO&#8217;s ProVac Initiative</p>
             </title>
             <aug>
                <au>
                   <snm>Jauregui</snm>
                   <fnm>B</fnm>
                </au>
                <au>
                   <snm>Sinha</snm>
                   <fnm>A</fnm>
                </au>
                <au>
                   <snm>Clark</snm>
                   <fnm>AD</fnm>
                </au>
                <au>
                   <snm>Bolanos</snm>
                   <fnm>BM</fnm>
                </au>
                <au>
                   <snm>Resch</snm>
                   <fnm>S</fnm>
                </au>
                <au>
                   <snm>Toscano</snm>
                   <fnm>CM</fnm>
                </au>
                <au>
                   <snm>Matus</snm>
                   <fnm>CR</fnm>
                </au>
                <au>
                   <snm>Andrus</snm>
                   <fnm>JK</fnm>
                </au>
             </aug>
             <source>Vaccine</source>
             <pubdate>2011</pubdate>
             <volume>29</volume>
             <issue>5</issue>
             <fpage>1099</fpage>
             <lpage>1106</lpage>
             <xrefbib>
                <pubidlist>
                   <pubid idtype="doi">10.1016/j.vaccine.2010.11.075</pubid>
                   <pubid idtype="pmpid" link="fulltext">21144916</pubid>
                </pubidlist>
             </xrefbib>
          </bibl>
          <bibl id="B11">
             <title>
                <p>Assessing efficiency and costs of scaling up HIV treatment</p>
             </title>
             <aug>
                <au>
                   <snm>Cleary</snm>
                   <fnm>SM</fnm>
                </au>
                <au>
                   <snm>McIntyre</snm>
                   <fnm>D</fnm>
                </au>
                <au>
                   <snm>Boulle</snm>
                   <fnm>AM</fnm>
                </au>
             </aug>
             <source>AIDS</source>
             <pubdate>2008</pubdate>
             <volume>22</volume>
             <issue>Suppl 1</issue>
             <fpage>S35</fpage>
             <lpage>S42</lpage>
             <xrefbib>
                <pubidlist>
                   <pubid idtype="doi">10.1097/01.aids.0000327621.24232.71</pubid>
                   <pubid idtype="pmpid" link="fulltext">18664951</pubid>
                </pubidlist>
             </xrefbib>
          </bibl>
          <bibl id="B12">
             <title>
                <p>The Limits of Cost-Effectiveness Analysis</p>
             </title>
             <aug>
                <au>
                   <snm>Weintraub</snm>
                   <fnm>WS</fnm>
                </au>
                <au>
                   <snm>Cohen</snm>
                   <fnm>DJ</fnm>
                </au>
             </aug>
             <source>Circ Cardiovasc Qual Outcomes</source>
             <pubdate>2009</pubdate>
             <volume>2</volume>
             <issue>1</issue>
             <fpage>55</fpage>
             <lpage>58</lpage>
             <xrefbib>
                <pubidlist>
                   <pubid idtype="doi">10.1161/CIRCOUTCOMES.108.812321</pubid>
                   <pubid idtype="pmpid" link="fulltext">20031813</pubid>
                </pubidlist>
             </xrefbib>
          </bibl>
          <bibl id="B13">
             <title>
                <p>Assessing the Cost-Effectiveness of Measles Elimination in Uganda: Local Impact of a Global Eradication Program</p>
             </title>
             <aug>
                <au>
                   <snm>Babigumira</snm>
                   <fnm>JB</fnm>
                </au>
                <au>
                   <snm>Levin</snm>
                   <fnm>A</fnm>
                </au>
                <au>
                   <snm>Burgess</snm>
                   <fnm>C</fnm>
                </au>
                <au>
                   <snm>Garrison</snm>
                   <fnm>LP</fnm>
                   <suf>Jr</suf>
                </au>
                <au>
                   <snm>Bauch</snm>
                   <fnm>CT</fnm>
                </au>
                <au>
                   <snm>Braka</snm>
                   <fnm>F</fnm>
                </au>
                <au>
                   <snm>Mbabazi</snm>
                   <fnm>WB</fnm>
                </au>
                <au>
                   <snm>Nabyonga</snm>
                   <fnm>JO</fnm>
                </au>
                <au>
                   <snm>Simons</snm>
                   <fnm>E</fnm>
                </au>
                <au>
                   <snm>Dabbagh</snm>
                   <fnm>A</fnm>
                </au>
             </aug>
             <source>J Infect Dis</source>
             <pubdate>2011</pubdate>
             <volume>204</volume>
             <issue>suppl 1</issue>
             <fpage>S116</fpage>
             <lpage>S123</lpage>
             <xrefbib>
                <pubidlist>
                   <pubid idtype="doi">10.1093/infdis/jir132</pubid>
                   <pubid idtype="pmpid" link="fulltext">21666152</pubid>
                </pubidlist>
             </xrefbib>
          </bibl>
          <bibl id="B14">
             <title>
                <p>Assessing the Impact of Economic Evidence on Policymakers in Health Care&#8212;A Systematic Review</p>
             </title>
             <aug>
                <au>
                   <snm>Niessen</snm>
                   <fnm>LW</fnm>
                </au>
                <au>
                   <snm>Bridges</snm>
                   <fnm>J</fnm>
                </au>
                <au>
                   <snm>Lau</snm>
                   <fnm>BD</fnm>
                </au>
                <au>
                   <snm>Wilson</snm>
                   <fnm>RF</fnm>
                </au>
                <au>
                   <snm>Sharma</snm>
                   <fnm>R</fnm>
                </au>
                <au>
                   <snm>Walker</snm>
                   <fnm>DG</fnm>
                </au>
                <au>
                   <snm>Frick</snm>
                   <fnm>KD</fnm>
                </au>
                <au>
                   <snm>Bass</snm>
                   <fnm>EB</fnm>
                </au>
             </aug>
             <source>In &#4447;</source>
             <publisher>Agency for Healthcare Research and Quality (US) 2012 Oct Systematic Review, Rockville (MD)</publisher>
             <pubdate>2012</pubdate>
          </bibl>
          <bibl id="B15">
             <title>
                <p>Actors in priority setting: Intended roles and actual behaviour</p>
             </title>
             <aug>
                <au>
                   <snm>Grinten</snm>
                   <fnm>V</fnm>
                </au>
             </aug>
             <source>In &#4447;</source>
             <publisher>3rd International conference on priorities in health care, Amsterdam</publisher>
             <pubdate>2000</pubdate>
          </bibl>
          <bibl id="B16">
             <title>
                <p>Mode of questionnaire administration can have serious effects on data quality</p>
             </title>
             <aug>
                <au>
                   <snm>Bowling</snm>
                   <fnm>A</fnm>
                </au>
             </aug>
             <source>J Public Health (Oxf)</source>
             <pubdate>2005</pubdate>
             <volume>27</volume>
             <issue>3</issue>
             <fpage>281</fpage>
             <lpage>291</lpage>
             <xrefbib>
                <pubidlist>
                   <pubid idtype="doi">10.1093/pubmed/fdi031</pubid>
                </pubidlist>
             </xrefbib>
          </bibl>
       </refgrp>
    </bm>
 </art>
