<art>
    <ui>s12916-014-0166-6</ui>
    <ji>1741-7015</ji>
    <fm>
       <dochead>Commentary</dochead>
       <bibl>
          <title>
             <p>Molecular mimicry, inflammatory bowel disease, and the vaccine safety debate</p>
          </title>
          <aug>
             <au ca="yes" id="A1">
                <snm>Yusung</snm>
                <fnm>Susy</fnm>
                <insr iid="I1"/>
                <email>syusung@labiomed.org</email>
             </au>
             <au id="A2">
                <snm>Braun</snm>
                <fnm>Jonathan</fnm>
                <insr iid="I2"/>
                <email>jbraun@mednet.ucla.edu</email>
             </au>
          </aug>
          <insg>
             <ins id="I1">
                <p>Department of Pediatrics, Harbor-UCLA Medical Center, 1000 W Carson St, Torrance 90502, CA, USA</p>
             </ins>
             <ins id="I2">
                <p>Department of Pathology and Laboratory Medicine, UCLA, 10833 Le Conte Ave, Los Angeles 90095, CA, USA</p>
             </ins>
          </insg>
          <source>BMC Medicine</source>
          <issn>1741-7015</issn>
          <pubdate>2014</pubdate>
          <volume>12</volume>
          <issue>1</issue>
          <fpage>166</fpage>
          <url>http://www.biomedcentral.com/1741-7015/12/166</url>
          <xrefbib>
             <pubidlist>
                <pubid idtype="doi">10.1186/s12916-014-0166-6</pubid>
                <pubid idtype="pmpid">25238056</pubid>
             </pubidlist>
          </xrefbib>
       </bibl>
       <history>
          <rec>
             <date>
                <day>29</day>
                <month>8</month>
                <year>2014</year>
             </date>
          </rec>
          <acc>
             <date>
                <day>29</day>
                <month>8</month>
                <year>2014</year>
             </date>
          </acc>
          <pub>
             <date>
                <day>18</day>
                <month>9</month>
                <year>2014</year>
             </date>
          </pub>
       </history>
       <cpyrt>
          <year>2014</year>
          <collab>Yusung and Braun; licensee BioMed Central Ltd.</collab>
          <note>This is an Open Access article distributed under the terms of the Creative Commons Attribution License (<url>http://creativecommons.org/licenses/by/4.0</url>), which permits unrestricted use, distribution, and reproduction in any medium, provided the original work is properly credited. The Creative Commons Public Domain Dedication waiver (<url>http://creativecommons.org/publicdomain/zero/1.0/</url>) applies to the data made available in this article, unless otherwise stated.</note>
       </cpyrt>
       <kwdg>
          <kwd>Crohn&#8217;s Disease</kwd>
          <kwd>Ulcerative Colitis</kwd>
          <kwd>humoral immunity</kwd>
          <kwd>epitope spreading</kwd>
       </kwdg>
       <abs>
          <sec>
             <st>
                <p>Abstract</p>
             </st>
             <p>Preventive immunization has provided one of the major advances in population health during the past century. However, a surprising cultural phenomenon is the emergence of concerns about immunization safety, in part due to prominently controversial biomedical studies. One ongoing theoretical safety concern is the possibility of human molecular mimicry by measles, mumps, rubella (MMR) antigens. The study of Polymeros <it>et al</it>. in this <it>BMC Medicine</it> presents a systematic evaluation and refutation of this safety concern. This provides significant new scientific evidence in support of the safety of pediatric vaccines, which will inform the ongoing policy and cultural understanding of this important public health measure.</p>
             <p>Please see related research article: <url>http://www.biomedcentral.com/1741-7015/12/139/abstract</url>.</p>
          </sec>
       </abs>
    </fm>
    <bdy>
       <sec>
          <st>
             <p>Background</p>
          </st>
          <p>Measles virus is a highly contagious organism that can cause multiple organ system complications and even death. Introduction of the measles, mumps, rubella (MMR) vaccine in the 1970s has saved innumerable lives and attenuated severe morbidities globally. Despite these remarkable gains, a claim emerged in the 1990s which associated MMR vaccine with colitis and autism spectrum disorders <abbrgrp>
                <abbr bid="B1">1</abbr>
             </abbrgrp>-<abbrgrp>
                <abbr bid="B4">4</abbr>
             </abbrgrp>. These association studies have been recognized as methodologically flawed and in some instances factually erroneous by the scientific and medical communities <abbrgrp>
                <abbr bid="B5">5</abbr>
             </abbrgrp>. However, doubt and even outright rejection of the vaccine&#8217;s safety still linger in various niches of our society. These concerns have also reverberated in the inflammatory bowel disease (IBD) community, in part related to the publication of a study series implying measles infection or vaccination with the live attenuated virus mediate pathogenesis of Crohn&#8217;s disease (CD) <abbrgrp>
                <abbr bid="B3">3</abbr>
             </abbrgrp>,<abbrgrp>
                <abbr bid="B4">4</abbr>
             </abbrgrp>,<abbrgrp>
                <abbr bid="B6">6</abbr>
             </abbrgrp>. Despite recognition that these studies were flawed in methodology and hypothesis, they continue to provoke much debate and inquiry into the role of measles virus in the pathogenesis of IBD.</p>
          <sec>
             <st>
                <p>Biologic context</p>
             </st>
             <p>Exposure to environmental antigens has long been suspected to induce development of IBD in genetically susceptible individuals. The ease of transmission and pervasiveness of certain infectious organisms makes the possibility of micro-organisms as antigenic triggers of IBD into a tantalizing hypothesis. The discovery that certain bacterial communities instigate inflammation of the gut mucosa further intensified research of the microbiome and simultaneously heightened awareness of elegant mechanisms by which viruses may serve as potential regulators of gut mucosal inflammation <abbrgrp>
                   <abbr bid="B7">7</abbr>
                </abbrgrp>. In this context, a number of viruses have been studied in association with human CD - measles virus being one of the most commonly studied, preceded by cytomegalovirus and Epstein-Barr virus <abbrgrp>
                   <abbr bid="B8">8</abbr>
                </abbrgrp>.</p>
             <p>Several groups have investigated the plausible link between measles and IBD either through epidemiological studies or biological analysis of tissue specimens. A study published in 1995 first suggested that recipients of measles vaccination had a three-fold increased risk of developing CD and ulcerative colitis (UC) compared to unvaccinated controls; however, this study was found to be limited by methodological flaws and could not be validated <abbrgrp>
                   <abbr bid="B6">6</abbr>
                </abbrgrp>,<abbrgrp>
                   <abbr bid="B9">9</abbr>
                </abbrgrp>. Carefully designed studies thereafter demonstrated no increased risk of CD in children vaccinated with MMR <abbrgrp>
                   <abbr bid="B10">10</abbr>
                </abbrgrp>,<abbrgrp>
                   <abbr bid="B11">11</abbr>
                </abbrgrp>. Studies also comparing the frequency of measles seropositivity in CD, UC and healthy populations found no significant differences between all three groups <abbrgrp>
                   <abbr bid="B12">12</abbr>
                </abbrgrp>,<abbrgrp>
                   <abbr bid="B13">13</abbr>
                </abbrgrp>. In addition to these epidemiological studies, efforts have been made to detect the presence of persistent measles virus in tissue or serum samples from IBD patients using PCR and immunohistochemical techniques. Results of those immunohistochemical studies have been discordant and contradictory <abbrgrp>
                   <abbr bid="B2">2</abbr>
                </abbrgrp>,<abbrgrp>
                   <abbr bid="B14">14</abbr>
                </abbrgrp>, while the highly sensitive reverse PCR method failed to detect any measles virus genome in the intestinal tissues of CD patients <abbrgrp>
                   <abbr bid="B15">15</abbr>
                </abbrgrp>-<abbrgrp>
                   <abbr bid="B17">17</abbr>
                </abbrgrp>. In light of these studies, several investigators have proposed a &#8216;measles related antigen&#8217; in the human intestine which shares identical epitopes with the measles virus and induces immune reactivity through mechanisms of molecular mimicry <abbrgrp>
                   <abbr bid="B18">18</abbr>
                </abbrgrp>-<abbrgrp>
                   <abbr bid="B20">20</abbr>
                </abbrgrp>.</p>
             <p>In a study published in <it>BMC Medicine</it>, Polymeros <it>et al</it>. <abbrgrp>
                   <abbr bid="B21">21</abbr>
                </abbrgrp> revisit the issue of measles-induced molecular mimicry as a mechanism which directs immune dysregulation in CD. Firstly, this study is distinguishable from prior studies by virtue of combined employment of experimental immunologic data, bioinformatics, and detailed molecular analysis of measles virus and human antigens. Results from prior immunological studies have demonstrated the development of antibodies against HEMA and VGLF antigens following vaccination, isolating these viral proteins as candidates for intestinal antigen mimicry. The antigenic potential of HEMA and VGLF epitopes are verified using prediction algorithms and, subsequently, human intestinal proteins which share these antigenic epitopes are identified and analyzed as potential viral mimic candidates. Thus, the utilization of technically validated methods and algorithms serve as platforms for identification of candidate mimic proteins.</p>
             <p>The paper identifies several candidate intestinal peptides as potential measles virus antigen mimics. Changes in the expression of some of the peptides, such as intestinal fatty acid binding protein and sucrase isomaltase, have been previously associated with intestinal inflammation in CD patients. Another protein TOG, had been previously identified as sharing sequence analogue with <it>Mycobacterium avium paratuberculosis</it> (MAP), and antibodies reactive to this protein were found in both CD and healthy controls <abbrgrp>
                   <abbr bid="B22">22</abbr>
                </abbrgrp>. Although these intestinal proteins appear to be viable measles mimic candidates, no significant differences in reactivity to any of these antigens were found among CD, UC and healthy controls. Moreover, there were no significant differences in reactivity to highly antigenic epitopes of HEMA or VGLF among CD, UC and healthy individuals. These results are in contrast to previous studies by the present investigators, which found cross-reactivity between two sets of MAP and human intestinal peptides although the observed cross reactivity was well within the random rates predicted for heterologous peptides. In comparison, the lack of any cross reactivity between measles and human intestinal peptides reinforces the high unlikelihood of the measles virus having a role in CD pathogenicity via the mechanism of molecular mimicry.</p>
          </sec>
       </sec>
       <sec>
          <st>
             <p>Conclusions</p>
          </st>
          <p>At a biologic level, the present study of Polymeros <it>et al</it>. thus is a fresh test of the hypothesis of microbial molecular mimicry in the pathogenesis of IBD, and provides thoughtful and fastidious evidence against this hypothesis. As we have noted, molecular mimicry is the putative link of concern between MMR vaccine and IBD risk. Accordingly, at the level of public safety and policy, this paper provides important new evidence against this link. This carefully performed study should be an important new reassurance to concerned families and medical caregivers on the safety of the MMR vaccine with respect to IBD susceptibility.</p>
       </sec>
       <sec>
          <st>
             <p>Competing interests</p>
          </st>
          <p>The authors declare that they have no competing interests.</p>
       </sec>
       <sec>
          <st>
             <p>Authors' contributions</p>
          </st>
          <p>SY and JB equally contributed to the conception, literature review, and composition of this paper. Both authors read and approved the final manuscript.</p>
       </sec>
    </bdy>
    <bm>
       <ack>
          <sec>
             <st>
                <p>Acknowledgements</p>
             </st>
             <p>The study was supported by NIH DK46763 (JB), UCLA Clinical and Translational Science Institute (UL1 TR000124), and NIH T32 DK07180-37(SY).</p>
          </sec>
       </ack>
       <refgrp>
          
          <bibl id="B1">
             <title>
                <p>Crohn's disease: Pathogenesis and persistent measles virus infection</p>
             </title>
             <aug>
                <au>
                   <snm>Wakefield</snm>
                   <fnm>AJ</fnm>
                </au>
                <au>
                   <snm>Ekbom</snm>
                   <fnm>A</fnm>
                </au>
                <au>
                   <snm>Dhillon</snm>
                   <fnm>AP</fnm>
                </au>
                <au>
                   <snm>Pittilo</snm>
                   <fnm>RM</fnm>
                </au>
                <au>
                   <snm>Pounder</snm>
                   <fnm>RE</fnm>
                </au>
             </aug>
             <source>Gasteroenterology</source>
             <pubdate>1995</pubdate>
             <volume>108</volume>
             <fpage>911</fpage>
             <lpage>916</lpage>
             <xrefbib>
                <pubidlist>
                   <pubid idtype="doi">10.1016/0016-5085(95)90467-0</pubid>
                </pubidlist>
             </xrefbib>
          </bibl>
          <bibl id="B2">
             <title>
                <p>Measles IgM immunoreactivity in patients with inflammatory bowel disease</p>
             </title>
             <aug>
                <au>
                   <snm>Balzola</snm>
                   <fnm>FA</fnm>
                </au>
                <au>
                   <snm>Kahn</snm>
                   <fnm>K</fnm>
                </au>
                <au>
                   <snm>Pera</snm>
                   <fnm>A</fnm>
                </au>
                <au>
                   <snm>Bonino</snm>
                   <fnm>F</fnm>
                </au>
                <au>
                   <snm>Pounder</snm>
                   <fnm>RE</fnm>
                </au>
                <au>
                   <snm>Wakefield</snm>
                   <fnm>AJ</fnm>
                </au>
             </aug>
             <source>Ital J Gastroenterol Hepatol</source>
             <pubdate>1998</pubdate>
             <volume>30</volume>
             <fpage>378</fpage>
             <lpage>382</lpage>
             <xrefbib>
                <pubidlist>
                   <pubid idtype="pmpid" link="fulltext">9789132</pubid>
                </pubidlist>
             </xrefbib>
          </bibl>
          <bibl id="B3">
             <title>
                <p>Persistent measles virus infection of the intestine: confirmation by immunogold electron microscopy</p>
             </title>
             <aug>
                <au>
                   <snm>Lewin</snm>
                   <fnm>J</fnm>
                </au>
                <au>
                   <snm>Dhillon</snm>
                   <fnm>AP</fnm>
                </au>
                <au>
                   <snm>Sim</snm>
                   <fnm>R</fnm>
                </au>
                <au>
                   <snm>Mazure</snm>
                   <fnm>G</fnm>
                </au>
                <au>
                   <snm>Pounder</snm>
                   <fnm>RE</fnm>
                </au>
                <au>
                   <snm>Wakefield</snm>
                   <fnm>AJ</fnm>
                </au>
             </aug>
             <source>Gut</source>
             <pubdate>1995</pubdate>
             <volume>36</volume>
             <fpage>564</fpage>
             <lpage>569</lpage>
             <xrefbib>
                <pubidlist>
                   <pubid idtype="doi">10.1136/gut.36.4.564</pubid>
                   <pubid idtype="pmpid" link="fulltext">7737565</pubid>
                </pubidlist>
             </xrefbib>
          </bibl>
          <bibl id="B4">
             <title>
                <p>Ileal-lymphoid-nodular hyperplasia, non-specific colitis, and pervasive developmental disorder in children</p>
             </title>
             <aug>
                <au>
                   <snm>Wakefield</snm>
                   <fnm>AJ</fnm>
                </au>
                <au>
                   <snm>Murch</snm>
                   <fnm>SH</fnm>
                </au>
                <au>
                   <snm>Anthony</snm>
                   <fnm>A</fnm>
                </au>
                <au>
                   <snm>Malik</snm>
                   <fnm>JLDMCM</fnm>
                </au>
                <au>
                   <snm>Berelowitz</snm>
                   <fnm>M</fnm>
                </au>
                <au>
                   <snm>Dhillon</snm>
                   <fnm>AP</fnm>
                </au>
                <au>
                   <snm>Thomson</snm>
                   <fnm>MA</fnm>
                </au>
                <au>
                   <snm>Harvey</snm>
                   <fnm>P</fnm>
                </au>
                <au>
                   <snm>Valentine</snm>
                   <fnm>A</fnm>
                </au>
                <au>
                   <snm>Davies</snm>
                   <fnm>SE</fnm>
                </au>
                <au>
                   <snm>Walker-Smith</snm>
                   <fnm>JA</fnm>
                </au>
             </aug>
             <source>Lancet</source>
             <pubdate>1998</pubdate>
             <volume>351</volume>
             <fpage>637</fpage>
             <lpage>641</lpage>
             <note>Retraction in: <it>Lancet</it> 2010, 375:445</note>
             <xrefbib>
                <pubidlist>
                   <pubid idtype="doi">10.1016/S0140-6736(97)11096-0</pubid>
                   <pubid idtype="pmpid" link="fulltext">9500320</pubid>
                </pubidlist>
             </xrefbib>
          </bibl>
          <bibl id="B5">
             <title>
                <p>The vaccine-autism connection: a public health crisis caused by unethical medical practices and fraudulent science</p>
             </title>
             <aug>
                <au>
                   <snm>Flaherty</snm>
                   <fnm>DK</fnm>
                </au>
             </aug>
             <source>Ann Pharmacother</source>
             <pubdate>2011</pubdate>
             <volume>45</volume>
             <fpage>1302</fpage>
             <lpage>1304</lpage>
             <xrefbib>
                <pubidlist>
                   <pubid idtype="doi">10.1345/aph.1Q318</pubid>
                   <pubid idtype="pmpid" link="fulltext">21917556</pubid>
                </pubidlist>
             </xrefbib>
          </bibl>
          <bibl id="B6">
             <title>
                <p>Is measles vaccination a risk factor for inflammatory bowel disease?</p>
             </title>
             <aug>
                <au>
                   <snm>Thompson</snm>
                   <fnm>NP</fnm>
                </au>
                <au>
                   <snm>Montgomery</snm>
                   <fnm>SM</fnm>
                </au>
                <au>
                   <snm>Pounder</snm>
                   <fnm>RE</fnm>
                </au>
                <au>
                   <snm>Wakefield</snm>
                   <fnm>AJ</fnm>
                </au>
             </aug>
             <source>Lancet</source>
             <pubdate>1995</pubdate>
             <volume>345</volume>
             <fpage>1071</fpage>
             <lpage>1074</lpage>
             <xrefbib>
                <pubidlist>
                   <pubid idtype="doi">10.1016/S0140-6736(95)90816-1</pubid>
                   <pubid idtype="pmpid" link="fulltext">7715338</pubid>
                </pubidlist>
             </xrefbib>
          </bibl>
          <bibl id="B7">
             <title>
                <p>Virus-plus-susceptibility gene interaction determines Crohn's disease gene Atg16L1 phenotypes in intestine</p>
             </title>
             <aug>
                <au>
                   <snm>Cadwell</snm>
                   <fnm>K</fnm>
                </au>
                <au>
                   <snm>Patel</snm>
                   <fnm>KK</fnm>
                </au>
                <au>
                   <snm>Maloney</snm>
                   <fnm>NS</fnm>
                </au>
                <au>
                   <snm>Liu</snm>
                   <fnm>TC</fnm>
                </au>
                <au>
                   <snm>Ng</snm>
                   <fnm>AC</fnm>
                </au>
                <au>
                   <snm>Storer</snm>
                   <fnm>CE</fnm>
                </au>
                <au>
                   <snm>Head</snm>
                   <fnm>RD</fnm>
                </au>
                <au>
                   <snm>Xavier</snm>
                   <fnm>R</fnm>
                </au>
                <au>
                   <snm>Stappenbeck</snm>
                   <fnm>TS</fnm>
                </au>
                <au>
                   <snm>Virgin</snm>
                   <fnm>HW</fnm>
                </au>
             </aug>
             <source>Cell</source>
             <pubdate>2010</pubdate>
             <volume>141</volume>
             <fpage>1135</fpage>
             <lpage>1142</lpage>
             <xrefbib>
                <pubidlist>
                   <pubid idtype="doi">10.1016/j.cell.2010.05.009</pubid>
                   <pubid idtype="pmpid" link="fulltext">20602997</pubid>
                </pubidlist>
             </xrefbib>
          </bibl>
          <bibl id="B8">
             <title>
                <p>Current knowledge and systematic review of viruses associated with Crohn's disease</p>
             </title>
             <aug>
                <au>
                   <snm>Wagner</snm>
                   <fnm>J</fnm>
                </au>
                <au>
                   <snm>Sim</snm>
                   <fnm>WH</fnm>
                </au>
                <au>
                   <snm>Lee</snm>
                   <fnm>KJ</fnm>
                </au>
                <au>
                   <snm>Kirkwood</snm>
                   <fnm>CD</fnm>
                </au>
             </aug>
             <source>Rev Med Virol</source>
             <pubdate>2013</pubdate>
             <volume>23</volume>
             <fpage>145</fpage>
             <lpage>171</lpage>
             <xrefbib>
                <pubidlist>
                   <pubid idtype="doi">10.1002/rmv.1720</pubid>
                   <pubid idtype="pmpid" link="fulltext">22674582</pubid>
                </pubidlist>
             </xrefbib>
          </bibl>
          <bibl id="B9">
             <title>
                <p>Measles vaccination and inflammatory bowel disease: a national British Cohort Study</p>
             </title>
             <aug>
                <au>
                   <snm>Morris</snm>
                   <fnm>DL</fnm>
                </au>
                <au>
                   <snm>Montgomery</snm>
                   <fnm>SM</fnm>
                </au>
                <au>
                   <snm>Thompson</snm>
                   <fnm>NP</fnm>
                </au>
                <au>
                   <snm>Ebrahim</snm>
                   <fnm>S</fnm>
                </au>
                <au>
                   <snm>Pounder</snm>
                   <fnm>RE</fnm>
                </au>
                <au>
                   <snm>Wakefield</snm>
                   <fnm>AJ</fnm>
                </au>
             </aug>
             <source>Am J Gastroenterol</source>
             <pubdate>2000</pubdate>
             <volume>95</volume>
             <fpage>3507</fpage>
             <lpage>3512</lpage>
             <xrefbib>
                <pubidlist>
                   <pubid idtype="doi">10.1111/j.1572-0241.2000.03288.x</pubid>
                   <pubid idtype="pmpid" link="fulltext">11151885</pubid>
                </pubidlist>
             </xrefbib>
          </bibl>
          <bibl id="B10">
             <title>
                <p>Measles-mumps-rubella and other measles-containing vaccines do not increase the risk for inflammatory bowel disease: a case&#8211;control study from the Vaccine Safety Datalink project</p>
             </title>
             <aug>
                <au>
                   <snm>Davis</snm>
                   <fnm>RL</fnm>
                </au>
                <au>
                   <snm>Kramarz</snm>
                   <fnm>P</fnm>
                </au>
                <au>
                   <snm>Bohlke</snm>
                   <fnm>K</fnm>
                </au>
                <au>
                   <snm>Benson</snm>
                   <fnm>P</fnm>
                </au>
                <au>
                   <snm>Thompson</snm>
                   <fnm>RS</fnm>
                </au>
                <au>
                   <snm>Mullooly</snm>
                   <fnm>J</fnm>
                </au>
                <au>
                   <snm>Black</snm>
                   <fnm>S</fnm>
                </au>
                <au>
                   <snm>Shinefield</snm>
                   <fnm>H</fnm>
                </au>
                <au>
                   <snm>Lewis</snm>
                   <fnm>E</fnm>
                </au>
                <au>
                   <snm>Ward</snm>
                   <fnm>J</fnm>
                </au>
                <au>
                   <snm>Marcy</snm>
                   <fnm>SM</fnm>
                </au>
                <au>
                   <snm>Eriksen</snm>
                   <fnm>E</fnm>
                </au>
                <au>
                   <snm>Destefano</snm>
                   <fnm>F</fnm>
                </au>
                <au>
                   <snm>Chen</snm>
                   <fnm>R</fnm>
                </au>
             </aug>
             <source>Arch Pediatr Adolesc Med</source>
             <pubdate>2001</pubdate>
             <volume>155</volume>
             <fpage>354</fpage>
             <lpage>359</lpage>
             <xrefbib>
                <pubidlist>
                   <pubid idtype="doi">10.1001/archpedi.155.3.354</pubid>
                   <pubid idtype="pmpid" link="fulltext">11231801</pubid>
                </pubidlist>
             </xrefbib>
          </bibl>
          <bibl id="B11">
             <title>
                <p>MMR vaccine and Crohn&#8217;s disease: ecological study of hospital admissions in England, 1991 to 2002</p>
             </title>
             <aug>
                <au>
                   <snm>Seagroatt</snm>
                   <fnm>V</fnm>
                </au>
             </aug>
             <source>BMJ</source>
             <pubdate>2005</pubdate>
             <volume>330</volume>
             <fpage>1120</fpage>
             <lpage>1121</lpage>
             <xrefbib>
                <pubidlist>
                   <pubid idtype="doi">10.1136/bmj.38449.476759.AE</pubid>
                   <pubid idtype="pmpid" link="fulltext">15837703</pubid>
                </pubidlist>
             </xrefbib>
          </bibl>
          <bibl id="B12">
             <title>
                <p>A case&#8211;control study of measles vaccination and inflammatory bowel disease</p>
             </title>
             <aug>
                <au>
                   <snm>Feeney</snm>
                   <fnm>M</fnm>
                </au>
                <au>
                   <snm>Clegg</snm>
                   <fnm>A</fnm>
                </au>
                <au>
                   <snm>Winwood</snm>
                   <fnm>P</fnm>
                </au>
                <au>
                   <snm>Snook</snm>
                   <fnm>J</fnm>
                </au>
             </aug>
             <source>Lancet</source>
             <pubdate>1997</pubdate>
             <volume>350</volume>
             <fpage>764</fpage>
             <lpage>769</lpage>
             <xrefbib>
                <pubidlist>
                   <pubid idtype="doi">10.1016/S0140-6736(97)03192-9</pubid>
                   <pubid idtype="pmpid" link="fulltext">9297995</pubid>
                </pubidlist>
             </xrefbib>
          </bibl>
          <bibl id="B13">
             <title>
                <p>Population-based case&#8211;control study of measles, mumps, and rubella and inflammatory bowel disease</p>
             </title>
             <aug>
                <au>
                   <snm>Bernstein</snm>
                   <fnm>CN</fnm>
                </au>
                <au>
                   <snm>Rawsthorne</snm>
                   <fnm>P</fnm>
                </au>
                <au>
                   <snm>Blanchard</snm>
                   <fnm>JF</fnm>
                </au>
             </aug>
             <source>Inflamm Bowel Dis</source>
             <pubdate>2007</pubdate>
             <volume>13</volume>
             <fpage>759</fpage>
             <lpage>762</lpage>
             <xrefbib>
                <pubidlist>
                   <pubid idtype="doi">10.1002/ibd.20089</pubid>
                   <pubid idtype="pmpid" link="fulltext">17230540</pubid>
                </pubidlist>
             </xrefbib>
          </bibl>
          <bibl id="B14">
             <title>
                <p>Immunohistochemical analysis of the distribution of measles related antigen in the intestinal mucosa in inflammatory bowel disease</p>
             </title>
             <aug>
                <au>
                   <snm>Iizuka</snm>
                   <fnm>M</fnm>
                </au>
                <au>
                   <snm>Chiba</snm>
                   <fnm>M</fnm>
                </au>
                <au>
                   <snm>Yukawa</snm>
                   <fnm>M</fnm>
                </au>
                <au>
                   <snm>Nakagomi</snm>
                   <fnm>T</fnm>
                </au>
                <au>
                   <snm>Fukushima</snm>
                   <fnm>T</fnm>
                </au>
                <au>
                   <snm>Watanabe</snm>
                   <fnm>S</fnm>
                </au>
                <au>
                   <snm>Nakagomi</snm>
                   <fnm>O</fnm>
                </au>
             </aug>
             <source>Gut</source>
             <pubdate>2000</pubdate>
             <volume>46</volume>
             <fpage>163</fpage>
             <lpage>169</lpage>
             <xrefbib>
                <pubidlist>
                   <pubid idtype="doi">10.1136/gut.46.2.163</pubid>
                   <pubid idtype="pmpid" link="fulltext">10644308</pubid>
                </pubidlist>
             </xrefbib>
          </bibl>
          <bibl id="B15">
             <title>
                <p>Absence of measles viral genomic sequence in intestinal tissues from Crohn's disease by nested polymerase chain reaction</p>
             </title>
             <aug>
                <au>
                   <snm>Haga</snm>
                   <fnm>Y</fnm>
                </au>
                <au>
                   <snm>Funakoshi</snm>
                   <fnm>O</fnm>
                </au>
                <au>
                   <snm>Kuroe</snm>
                   <fnm>K</fnm>
                </au>
                <au>
                   <snm>Kanazawa</snm>
                   <fnm>K</fnm>
                </au>
                <au>
                   <snm>Nakajima</snm>
                   <fnm>H</fnm>
                </au>
                <au>
                   <snm>Saito</snm>
                   <fnm>H</fnm>
                </au>
                <au>
                   <snm>Murata</snm>
                   <fnm>Y</fnm>
                </au>
                <au>
                   <snm>Munakata</snm>
                   <fnm>A</fnm>
                </au>
                <au>
                   <snm>Yoshida</snm>
                   <fnm>Y</fnm>
                </au>
             </aug>
             <source>Gut</source>
             <pubdate>1996</pubdate>
             <volume>38</volume>
             <fpage>211</fpage>
             <lpage>215</lpage>
             <xrefbib>
                <pubidlist>
                   <pubid idtype="doi">10.1136/gut.38.2.211</pubid>
                   <pubid idtype="pmpid" link="fulltext">8801199</pubid>
                </pubidlist>
             </xrefbib>
          </bibl>
          <bibl id="B16">
             <title>
                <p>Measles virus RNA is not detected in inflammatory bowel disease using hybrid capture and reverse transcription followed by the polymerase chain reaction</p>
             </title>
             <aug>
                <au>
                   <snm>Chadwick</snm>
                   <fnm>N</fnm>
                </au>
                <au>
                   <snm>Bruce</snm>
                   <fnm>IJ</fnm>
                </au>
                <au>
                   <snm>Schepelmann</snm>
                   <fnm>S</fnm>
                </au>
                <au>
                   <snm>Pounder</snm>
                   <fnm>RE</fnm>
                </au>
                <au>
                   <snm>Wakefield</snm>
                   <fnm>AJ</fnm>
                </au>
             </aug>
             <source>J Med Virol</source>
             <pubdate>1998</pubdate>
             <volume>55</volume>
             <fpage>305</fpage>
             <lpage>311</lpage>
             <xrefbib>
                <pubidlist>
                   <pubid idtype="doi">10.1002/(SICI)1096-9071(199808)55:4&lt;305::AID-JMV9&gt;3.0.CO;2-4</pubid>
                   <pubid idtype="pmpid" link="fulltext">9661840</pubid>
                </pubidlist>
             </xrefbib>
          </bibl>
          <bibl id="B17">
             <title>
                <p>Absence of detectable measles virus genome sequence in inflammatory bowel disease tissue and peripheral blood lymphocytes</p>
             </title>
             <aug>
                <au>
                   <snm>Afzal</snm>
                   <fnm>MA</fnm>
                </au>
                <au>
                   <snm>Armitage</snm>
                   <fnm>E</fnm>
                </au>
                <au>
                   <snm>Begley</snm>
                   <fnm>J</fnm>
                </au>
                <au>
                   <snm>Bentley</snm>
                   <fnm>ML</fnm>
                </au>
                <au>
                   <snm>Minor</snm>
                   <fnm>PD</fnm>
                </au>
                <au>
                   <snm>Ghosh</snm>
                   <fnm>S</fnm>
                </au>
                <au>
                   <snm>Ferguson</snm>
                   <fnm>A</fnm>
                </au>
             </aug>
             <source>J Med Virol</source>
             <pubdate>1998</pubdate>
             <volume>55</volume>
             <fpage>243</fpage>
             <lpage>249</lpage>
             <xrefbib>
                <pubidlist>
                   <pubid idtype="doi">10.1002/(SICI)1096-9071(199807)55:3&lt;243::AID-JMV11&gt;3.0.CO;2-H</pubid>
                   <pubid idtype="pmpid" link="fulltext">9624614</pubid>
                </pubidlist>
             </xrefbib>
          </bibl>
          <bibl id="B18">
             <title>
                <p>Identification of a cross-reactive self ligand in virus-mediated autoimmunity</p>
             </title>
             <aug>
                <au>
                   <snm>Ohteki</snm>
                   <fnm>T</fnm>
                </au>
                <au>
                   <snm>Hessel</snm>
                   <fnm>A</fnm>
                </au>
                <au>
                   <snm>Bachmann</snm>
                   <fnm>MF</fnm>
                </au>
                <au>
                   <snm>Zakarian</snm>
                   <fnm>A</fnm>
                </au>
                <au>
                   <snm>Sebzda</snm>
                   <fnm>E</fnm>
                </au>
                <au>
                   <snm>Tsao</snm>
                   <fnm>MS</fnm>
                </au>
                <au>
                   <snm>McKall-Faienza</snm>
                   <fnm>K</fnm>
                </au>
                <au>
                   <snm>Odermatt</snm>
                   <fnm>B</fnm>
                </au>
                <au>
                   <snm>Ohashi</snm>
                   <fnm>PS</fnm>
                </au>
             </aug>
             <source>Eur J Immunol</source>
             <pubdate>1999</pubdate>
             <volume>29</volume>
             <fpage>2886</fpage>
             <lpage>2896</lpage>
             <xrefbib>
                <pubidlist>
                   <pubid idtype="doi">10.1002/(SICI)1521-4141(199909)29:09&lt;2886::AID-IMMU2886&gt;3.0.CO;2-A</pubid>
                   <pubid idtype="pmpid" link="fulltext">10508263</pubid>
                </pubidlist>
             </xrefbib>
          </bibl>
          <bibl id="B19">
             <title>
                <p>The pathogen connection</p>
             </title>
             <aug>
                <au>
                   <snm>Benoist</snm>
                   <fnm>C</fnm>
                </au>
                <au>
                   <snm>Mathis</snm>
                   <fnm>D</fnm>
                </au>
             </aug>
             <source>Nature</source>
             <pubdate>1998</pubdate>
             <volume>394</volume>
             <fpage>227</fpage>
             <lpage>228</lpage>
             <xrefbib>
                <pubidlist>
                   <pubid idtype="doi">10.1038/28282</pubid>
                   <pubid idtype="pmpid" link="fulltext">9685154</pubid>
                </pubidlist>
             </xrefbib>
          </bibl>
          <bibl id="B20">
             <title>
                <p>Molecular mimicry: basis for autoimmunity</p>
             </title>
             <aug>
                <au>
                   <snm>Narayanan</snm>
                   <fnm>S</fnm>
                </au>
             </aug>
             <source>Indian J Clin Biochem</source>
             <pubdate>2000</pubdate>
             <volume>15</volume>
             <fpage>78</fpage>
             <lpage>82</lpage>
             <xrefbib>
                <pubidlist>
                   <pubid idtype="doi">10.1007/BF02867547</pubid>
                   <pubid idtype="pmpid" link="fulltext">23105271</pubid>
                </pubidlist>
             </xrefbib>
          </bibl>
          <bibl id="B21">
             <title>
                <p>Bioinformatic and immunological analysis reveals lack of support for measles virus related mimicry in Crohn's disease</p>
             </title>
             <aug>
                <au>
                   <snm>Polymeros</snm>
                   <fnm>D</fnm>
                </au>
                <au>
                   <snm>Tsiamoulos</snm>
                   <fnm>ZP</fnm>
                </au>
                <au>
                   <snm>Koutsoumpas</snm>
                   <fnm>AL</fnm>
                </au>
                <au>
                   <snm>Smyk</snm>
                   <fnm>DS</fnm>
                </au>
                <au>
                   <snm>Mytilinaiou</snm>
                   <fnm>MG</fnm>
                </au>
                <au>
                   <snm>Triantafyllou</snm>
                   <fnm>K</fnm>
                </au>
                <au>
                   <snm>Bogdanos</snm>
                   <fnm>DP</fnm>
                </au>
                <au>
                   <snm>Ladas</snm>
                   <fnm>SP</fnm>
                </au>
             </aug>
             <source>BMC Med</source>
             <pubdate>2014</pubdate>
             <volume>12</volume>
             <fpage>139</fpage>
             <xrefbib>
                <pubidlist>
                   <pubid idtype="pmpid" link="fulltext">25168804</pubid>
                </pubidlist>
             </xrefbib>
          </bibl>
          <bibl id="B22">
             <title>
                <p>Does cross-reactivity between <it>Mycobacterium avium paratuberculosis</it> and human intestinal antigens characterize Crohn&#8217;s disease?</p>
             </title>
             <aug>
                <au>
                   <snm>Polymeros</snm>
                   <fnm>D</fnm>
                </au>
                <au>
                   <snm>Bogdanos</snm>
                   <fnm>DP</fnm>
                </au>
                <au>
                   <snm>Day</snm>
                   <fnm>R</fnm>
                </au>
                <au>
                   <snm>Arioli</snm>
                   <fnm>D</fnm>
                </au>
                <au>
                   <snm>Vergani</snm>
                   <fnm>D</fnm>
                </au>
                <au>
                   <snm>Forbes</snm>
                   <fnm>A</fnm>
                </au>
             </aug>
             <source>Gastroenterology</source>
             <pubdate>2006</pubdate>
             <volume>131</volume>
             <fpage>85</fpage>
             <lpage>96</lpage>
             <xrefbib>
                <pubidlist>
                   <pubid idtype="doi">10.1053/j.gastro.2006.04.021</pubid>
                   <pubid idtype="pmpid" link="fulltext">16831593</pubid>
                </pubidlist>
             </xrefbib>
          </bibl>
       </refgrp>
    </bm>
 </art>