<art>
    <ui>s12913-014-0520-6</ui>
    <ji>1472-6963</ji>
    <fm>
       <dochead>Research article</dochead>
       <bibl>
          <title>
             <p>Frontline health workers as brokers: provider perceptions, experiences and mitigating strategies to improve access to essential medicines in South Africa</p>
          </title>
          <aug>
             <au id="A1" ca="yes">
                <snm>Magadzire</snm>
                <mnm>Priscilla</mnm>
                <fnm>Bvudzai</fnm>
                <insr iid="I1"/>
                <email>bmagadzire@gmail.com</email>
             </au>
             <au id="A2">
                <snm>Budden</snm>
                <fnm>Ashwin</fnm>
                <insr iid="I2"/>
                <email>ashwinbudden@gmail.com</email>
             </au>
             <au id="A3">
                <snm>Ward</snm>
                <fnm>Kim</fnm>
                <insr iid="I1"/>
                <insr iid="I3"/>
                <email>kward@uwc.ac.za</email>
             </au>
             <au id="A4">
                <snm>Jeffery</snm>
                <fnm>Roger</fnm>
                <insr iid="I4"/>
                <email>r.jeffery@ed.ac.uk</email>
             </au>
             <au id="A5">
                <snm>Sanders</snm>
                <fnm>David</fnm>
                <insr iid="I1"/>
                <email>sandersdav5845@gmail.com</email>
             </au>
          </aug>
          <insg>
             <ins id="I1">
                <p>University of the Western Cape, School of Public Health, Private Bag X17, Bellville 7535, South Africa</p>
             </ins>
             <ins id="I2">
                <p>University of Basel, Swiss Tropical and Public Health Institute, Basel, Switzerland</p>
             </ins>
             <ins id="I3">
                <p>University of the Western Cape, School of Pharmacy, Bellville, South Africa</p>
             </ins>
             <ins id="I4">
                <p>University of Edinburgh, School of Social and Political Science, Edinburgh, Scotland</p>
             </ins>
          </insg>
          <source>BMC Health Services Research</source>
          <issn>1472-6963</issn>
          <pubdate>2014</pubdate>
          <volume>14</volume>
          <issue>1</issue>
          <fpage>520</fpage>
          <url>http://www.biomedcentral.com/1472-6963/14/520</url>
          <xrefbib>
             <pubidlist>
                <pubid idtype="doi">10.1186/s12913-014-0520-6</pubid>
             </pubidlist>
          </xrefbib>
       </bibl>
       <history>
          <rec>
             <date>
                <day>6</day>
                <month>5</month>
                <year>2014</year>
             </date>
          </rec>
          <acc>
             <date>
                <day>13</day>
                <month>10</month>
                <year>2014</year>
             </date>
          </acc>
          <pub>
             <date>
                <day>5</day>
                <month>11</month>
                <year>2014</year>
             </date>
          </pub>
       </history>
       <cpyrt>
          <year>2014</year>
          <collab>Magadzire et al.; licensee BioMed Central Ltd.</collab>
          <note>This is an Open Access article distributed under the terms of the Creative Commons Attribution License (<url>http://creativecommons.org/licenses/by/4.0</url>), which permits unrestricted use, distribution, and reproduction in any medium, provided the original work is properly credited. The Creative Commons Public Domain Dedication waiver (<url>http://creativecommons.org/publicdomain/zero/1.0/</url>) applies to the data made available in this article, unless otherwise stated.</note>
       </cpyrt>
       <kwdg>
          <kwd>Access to medicines</kwd>
          <kwd>Provider perceptions</kwd>
          <kwd>Health services</kwd>
          <kwd>Broker</kwd>
          <kwd>Empathy</kwd>
          <kwd>HIV</kwd>
          <kwd>Diabetes</kwd>
          <kwd>Depression</kwd>
          <kwd>TB</kwd>
          <kwd>South Africa</kwd>
       </kwdg>
       <abs>
          <sec>
             <st>
                <p>Abstract</p>
             </st>
             <sec>
                <st>
                   <p>Background</p>
                </st>
                <p>Front-line health providers have a unique role as brokers (patient advocates) between the health system and patients in ensuring access to medicines (ATM). ATM is a fundamental component of health systems. This paper examines in a South African context supply- and demand- ATM barriers from the provider perspective using a five dimensional framework: <it>availability</it> (fit between existing resources and clients&#8217; needs); <it>accessibility</it> (fit between physical location of healthcare and location of clients); a<it>ccommodation</it> (fit between the organisation of services and clients&#8217; practical circumstances); <it>acceptability</it> (fit between clients&#8217; and providers&#8217; mutual expectations and appropriateness of care) and <it>affordability</it> (fit between cost of care and ability to pay).</p>
             </sec>
             <sec>
                <st>
                   <p>Methods</p>
                </st>
                <p>This cross-sectional, qualitative study uses semi-structured interviews with nurses, pharmacy personnel and doctors. Thirty-six providers were purposively recruited from six public sector Community Health Centres in two districts in the Eastern Cape Province representing both rural and urban settings. Content analysis combined structured coding and grounded theory approaches. Finally, the five dimensional framework was applied to illustrate the interconnected facets of the issue.</p>
             </sec>
             <sec>
                <st>
                   <p>Results</p>
                </st>
                <p>Factors perceived to affect ATM were identified. Availability of medicines was hampered by logistical bottlenecks in the medicines supply chain; poor public transport networks affected accessibility. Organization of disease programmes meshed poorly with the needs of patients with comorbidities and circular migrants who move between provinces searching for economic opportunities, proximity to services such as social grants and shopping centres influenced where patients obtain medicines. Acceptability was affected by, for example, HIV related stigma leading patients to seek distant services. Travel costs exacerbated by the interplay of several ATM barriers influenced affordability. Providers play a brokerage role by adopting flexible prescribing and dispensing for &#8216;stable&#8217; patients and aligning clinic and social grant appointments to minimise clients&#8217; routine costs. Occasionally they reported assisting patients with transport money.</p>
             </sec>
             <sec>
                <st>
                   <p>Conclusion</p>
                </st>
                <p>All five ATM barriers are important and they interact in complex ways. Context-sensitive responses which minimise treatment interruption are needed. While broad-based changes encompassing all disease programmes to improve ATM are needed, a beginning could be to assess the appropriateness, feasibility and sustainability of existing brokerage mechanisms.</p>
             </sec>
          </sec>
       </abs>
    </fm>
    <bdy>
       <sec>
          <st>
             <p>Background</p>
          </st>
          <p>South Africa is in the midst of a profound health transition that is characterised by a multiple burden of disease that includes communicable and non-communicable diseases <abbrgrp>
                <abbr bid="B1">1</abbr>
             </abbrgrp>. This has increased demand for essential medicines in the public health system which caters for almost 70% of the country&#8217;s population <abbrgrp>
                <abbr bid="B2">2</abbr>
             </abbrgrp>. The South African health system is plagued by a human resources crisis and the primary health care system is a mainly nurse-driven service <abbrgrp>
                <abbr bid="B3">3</abbr>
             </abbrgrp>. Nurses together with other frontline health providers (hereinafter referred to as providers) i.e. pharmacy personnel (pharmacist or pharmacist assistant) and doctors where present, play a strategic and key role as brokers (usually as patient advocates) between patients and the health system at the point of care. Thus, understanding their perspectives and actions can strengthen planning and provision of future services <abbrgrp>
                <abbr bid="B4">4</abbr>
             </abbrgrp>. We draw on the work of Long et al. in analysing the role of brokers and their capacity to link disparate groups in the provision of health care <abbrgrp>
                <abbr bid="B5">5</abbr>
             </abbrgrp>.</p>
          <p>We explore the brokerage aspect in ATM, a fundamental component of health systems. Although no universal definition of access exists <abbrgrp>
                <abbr bid="B6">6</abbr>
             </abbrgrp>, for our purposes, we adopt a definition which describes access as the fit between supply and demand of healthcare along five dimensions: <it>availability</it> (fit between existing resources and clients&#8217; needs); <it>accessibility</it> (fit between physical location of healthcare and location of clients); a<it>ccommodation</it> (fit between the organisation of services and clients&#8217; practical circumstances); <it>acceptability</it> (fit between clients&#8217; and providers&#8217; mutual expectations and appropriateness of care) and <it>affordability</it> (fit between cost of care and ability to pay) <abbrgrp>
                <abbr bid="B7">7</abbr>
             </abbrgrp>.</p>
          <p>Many studies in South Africa highlight supply- and demand-side barriers to ATM such as treatment-related costs <abbrgrp>
                <abbr bid="B8">8</abbr>
             </abbrgrp>-<abbrgrp>
                <abbr bid="B10">10</abbr>
             </abbrgrp>, waiting times at health sites <abbrgrp>
                <abbr bid="B11">11</abbr>
             </abbrgrp>, poor provider-patient interaction <abbrgrp>
                <abbr bid="B12">12</abbr>
             </abbrgrp>,<abbrgrp>
                <abbr bid="B13">13</abbr>
             </abbrgrp>, and structural inequities, particularly among rural populations <abbrgrp>
                <abbr bid="B14">14</abbr>
             </abbrgrp>. Most of these findings derive from patient reports. In this study, however, we explore provider perspectives, within the same framework commonly utilised to understand patient perspectives, to ascertain their perceptions of these barriers to accessing essential medicines, i.e. those medicines that satisfy the priority health care needs of the population <abbrgrp>
                <abbr bid="B15">15</abbr>
             </abbrgrp>. The literature on providers and their interactions with patients tends to cast them in a negative light <abbrgrp>
                <abbr bid="B16">16</abbr>
             </abbrgrp>-<abbrgrp>
                <abbr bid="B19">19</abbr>
             </abbrgrp>. However, little attempt has been made to investigate how providers view and attempt to mitigate the daily challenges they encounter in patient care. The objective of this paper is to address this gap by highlighting the views of primary health care providers on supply- and demand-related ATM barriers in the Eastern Cape Province. A second objective is to highlight the ad hoc, empathic responses that providers in their broker capacity employ in their day-to-day practise to mitigate challenges faced by patients.</p>
       </sec>
       <sec>
          <st>
             <p>Methods</p>
          </st>
          <sec>
             <st>
                <p>Study setting</p>
             </st>
             <p>The Eastern Cape Province has an estimated population of 6.8 million, contributing about 13.5% of the country&#8217;s population <abbrgrp>
                   <abbr bid="B20">20</abbr>
                </abbrgrp>. 62% of its population is rural and highly deprived, contributing significantly to poor health outcomes <abbrgrp>
                   <abbr bid="B14">14</abbr>
                </abbrgrp>. At the time of the study, primary level facilities were managed by two local authorities, the Provincial Department of Health (responsible for the majority of sites) and municipalities in urban areas. However our sample consisted of only the Provincial Department of Health sites.</p>
          </sec>
          <sec>
             <st>
                <p>Design</p>
             </st>
             <p>This research is a component of a larger research project on Accessing Medicines in Africa and South Asia (AMASA), which investigated supply and access to essential medicines for TB, HIV, Type-2 diabetes and unipolar depression. The present cross-sectional, qualitative study is based on key informant interviews with nurses (health centre managers also commonly known as facility managers and disease programme managers), doctors and pharmacy personnel (pharmacists or pharmacist assistants or dispensing nurses). Thirty-six providers were purposively recruited from six public sector Community Health Centres (CHCs) in two districts (one rural and one urban) in the Eastern Cape Province. CHCs were selected because they are the first level of care in the health system and provide a broad range of essential medicines and primary health care services in the public system. Recruitment of respondents from rural and urban settings aimed to consider varying conditions of access in different geographic locations. Four of the sites were rural and two were urban. Key informant interviews addressed themes regarding access to selected essential medicines which are available in the public sector: lamivudine (3-TC), part of the first line anti-retroviral therapy (ART) for adults infected by Human Immunodeficiency Virus (HIV); rifampicin, an antimycobaterial drug for tuberculosis (TB); metformin, a blood glucose lowering drug for type 2 diabetes; and two antidepressants, fluoxetine and amitriptyline. At each CHC, the facility manager, pharmacy personnel and one or more representatives per essential medicine (nurse and/or doctor) were recruited. Unlike in towns where providers manage a single disease programme, in rural areas, they manage multiple disease programmes because of human resource shortages. Sufficiency of sample size was determined by saturation, i.e., when the collection of new data did not shed any further light on the issue under investigation.</p>
             <p>Interviews were conducted during the months of March and April of 2012. This study protocol was approved by the University of the Western Cape Ethics Committee and both the National and Provincial Department of Health Committees. Each participant gave both verbal and written consent to participate in the research and was given information leaflets with a brief description of the study and contact details of the responsible institution and contact person.</p>
          </sec>
          <sec>
             <st>
                <p>Instruments</p>
             </st>
             <p>Key informant interviews with providers were conducted using a semi-structured interview guide. Interview guides for each stakeholder group contained a set of broader themes with corresponding questions and probes as informed by the study objectives. However, the common lines of enquiry among all stakeholder groups that were relevant for this paper focussed on identifying the most significant health system and patient level barriers to accessing essential medicines and how these differ or are similar across settings (rural and urban); type of medicine (or disease condition); and the strategies that exist within the health system to overcome these barriers, including the availability of alternative medicines access points such as mobile clinics. Key informant interviews were digitally recorded and transcribed.</p>
          </sec>
          <sec>
             <st>
                <p>Data analysis</p>
             </st>
             <p>The transcripts were imported to a computer programme, MAXQDA version 10 for organisation and content analysis. Content analysis is a standard approach to analysing qualitative data to identify patterns, themes and biases in that material <abbrgrp>
                   <abbr bid="B21">21</abbr>
                </abbrgrp>. The analysis applied structured coding and grounded theory approaches to the narratives. Coded segments of transcripts were then retrieved and further analysed for recurrent or conflicting response patterns. Finally, coded segments were categorised according to the five dimensional framework. The coding frameworks were discussed with the authorship team at both stages.</p>
          </sec>
       </sec>
       <sec>
          <st>
             <p>Results</p>
          </st>
          <p>The sample and background characteristics of respondents are shown in Table&#160;<tblr tid="T1">1</tblr> below.</p>
          
             <table id="T1">
                <title>
                   <p>Table 1</p>
                </title>
                <caption>
                   <p>
                      <b>Characteristics of respondents N(36)</b>
                   </p>
                </caption>
                <tgroup align="left" cols="2">
                   <colspec align="left" colname="c1" colnum="1" colwidth="*"/>
                   <colspec align="center" colname="c2" colnum="2" colwidth="*"/>
                   <tbody>
                      <row valign="top">
                         <entry colname="c1">
                            <p>Antiretroviral Therapy (ART) programme nurses</p>
                         </entry>
                         <entry align="center" colname="c2">
                            <p>
                               <b>7</b>
                            </p>
                         </entry>
                      </row>
                      <row valign="top">
                         <entry colname="c1">
                            <p>Tuberculosis (TB) programme nurses</p>
                         </entry>
                         <entry align="center" colname="c2">
                            <p>6</p>
                         </entry>
                      </row>
                      <row valign="top">
                         <entry colname="c1">
                            <p>Chronic care nurses (responsible for management of diabetes and/or mental health programmes)</p>
                         </entry>
                         <entry align="center" colname="c2">
                            <p>8</p>
                         </entry>
                      </row>
                      <row valign="top">
                         <entry colname="c1">
                            <p>Doctors</p>
                         </entry>
                         <entry align="center" colname="c2">
                            <p>3</p>
                         </entry>
                      </row>
                      <row valign="top">
                         <entry colname="c1">
                            <p>Pharmacist/pharmacist assistant/dispensing nurses</p>
                         </entry>
                         <entry align="center" colname="c2">
                            <p>6</p>
                         </entry>
                      </row>
                      <row valign="top">
                         <entry colname="c1">
                            <p>Facility/health centre managers (nurses)</p>
                         </entry>
                         <entry align="center" colname="c2">
                            <p>6</p>
                         </entry>
                      </row>
                      <row valign="top">
                         <entry colname="c1">
                            <p>
                               <b>Sex</b>
                            </p>
                         </entry>
                         <entry align="center" colname="c2"/>
                      </row>
                      <row valign="top">
                         <entry colname="c1">
                            <p>Male</p>
                         </entry>
                         <entry align="center" colname="c2">
                            <p>6</p>
                         </entry>
                      </row>
                      <row valign="top">
                         <entry colname="c1">
                            <p>Female</p>
                         </entry>
                         <entry align="center" colname="c2">
                            <p>30</p>
                         </entry>
                      </row>
                      <row valign="top">
                         <entry colname="c1" morerows="1">
                            <p>Age (years)</p>
                         </entry>
                         <entry align="center" colname="c2">
                            <p>Range: 24-63</p>
                         </entry>
                      </row>
                      <row valign="top">
                         <entry align="center" colname="c2">
                            <p>Median: 52</p>
                         </entry>
                      </row>
                      <row valign="top">
                         <entry colname="c1" morerows="1">
                            <p>
                               <b>Number of years working at the facility</b>
                            </p>
                         </entry>
                         <entry align="center" colname="c2">
                            <p>Range: &lt;1-29</p>
                         </entry>
                      </row>
                      <row valign="top">
                         <entry align="center" colname="c2">
                            <p>Median: 8</p>
                         </entry>
                      </row>
                      <row valign="top">
                         <entry colname="c1" morerows="1">
                            <p>
                               <b>Number of years working in the health profession</b>
                            </p>
                         </entry>
                         <entry align="center" colname="c2">
                            <p>Range: &lt;1-30</p>
                         </entry>
                      </row>
                      <row valign="top">
                         <entry align="center" colname="c2">
                            <p>Median: 26</p>
                         </entry>
                      </row>
                   </tbody>
                </tgroup>
             </table>
          
          <p>Various supply- and demand-side barriers to essential medicine access were identified.</p>
          <p>Providers also discussed the ad hoc strategies that they employ to address these challenges. Notably, although the investigation aimed to consider essential medicines for HIV, TB, diabetes and depression, we found minimal prescribing of antidepressants in this context. When prescribed, it is usually on a short term basis. However, we still included the findings with regard to antidepressants in the analysis. Below we elaborate provider perspectives with reference to the five dimensional framework and their mitigating strategies and recommendations.</p>
          <sec>
             <st>
                <p>Availability</p>
             </st>
             <p>Stock outs (i.e. when health centres run out of medicines) were viewed, as a major challenge particularly in rural clinics. Providers in rural CHCs highlighted the lack of dedicated vehicles to transport medicines from CHCs that act as temporary storage for rural clinics as a hindrance to efficient distribution. Each of the four rural CHCs visited provided temporary medicine storage for more than 20 peripheral clinics located in the deep rural areas. However, at the time of the research there were no dedicated vehicles for transportation of medicines from the CHCs to the clinics. Vehicles allocated for other tasks were also expected to deliver medicines. In the past, medicines delivery was outsourced to a private company by the Provincial Department of Health, however, the contract with the service provider had expired (reportedly a couple of months before our research) and no other strategy had been put in place to address delivery of medicines more sustainably. As one health centre manager explained,</p>
             <p>&#8220;<it>There is no challenge getting the drugs from the depot to here, the challenge is getting the drugs from here to the clinics because we have shortage of transport. All our vans are attached to programmes. They are used by mobile clinics, school health, circumcision so when there is a need for the clinics to get some drugs we have to borrow a van from that person. And the clinics are so many. We are having 18 clinics at the moment and they will soon be 22. We are short of vehicles because even the clinic supervisors don&#8217;t have a dedicated vehicle. The one that they are using, we used to take it when there is gas, it&#8217;s the only long base van so when we have to deliver gas to the clinics we need that van and when we need to deliver medication then you have to borrow&#8221;.</it>
                <b>(Facility manager, CHC 1, rural)</b>
             </p>
             <p>In the event of stock outs, providers reported that they either referred patients to alternative facilities or gave them another appointment date to return to the facility. Erratic supplies were reportedly one of the main factors leading to patients&#8217; loss of confidence in local clinics. At one of the urban CHCs, it was reported that pharmacy personnel had conducted a study to determine the amount of money spent on travel to facilities and the number of taxis taken per trip. Their investigation found that 60% of patients on ART lived outside the catchment area and generally took up to two taxis to reach the CHC. Among the reasons for not attending the nearest clinic, stock outs and perceived quality of service ranked highly. Accounts from TB and ART programme nurses corroborate this finding:</p>
             <p>
                <it>&#8220;We refer them to the local clinics but they come back because there is a shortage of treatment in the local clinics&#8230;we cannot chase them away because we know they need to take this treatment&#8221;.</it>
                <b>(TB nurse, CHC6, urban)</b>
             </p>
             <p>
                <it>&#8220;We have got so many facilities around here and they (patients) don&#8217;t want to go to those clinics even though they are only walking distance&#8230;Sometimes they say there are no drugs there&#8230;we are still trying to investigate because we are always told that drugs are being taken to the clinic, how come the patients say there are no drugs?&#8221;</it>
                <b>(ART nurse, CHC 2, rural)</b>
             </p>
          </sec>
          <sec>
             <st>
                <p>Accessibility</p>
             </st>
             <p>Key informants agreed that public transport to peripheral clinics, which public sector patients rely on heavily, is either absent or limited. According to providers, the district boundaries in rural locations, in particular, are out of sync with public transport networks. As a result patients opt for CHCs in town which are more accessible and safer to visit. The following accounts illustrate this point:</p>
             <p>
                <it>&#8220;There is a challenge because this CHC is very far from other clients. Now the problem is there are residential clinics (small, rural clinics) and the client will give the report that there is no transport from my area to the clinic so I only get the transport from my area to town so in the morning it&#8217;s better to come to town, whereas they don&#8217;t belong to this catchment area, they belong to residential clinics&#8230;in the morning transport is going to town, maybe a bus or a van and you will find that they will be short of money and they will come after their old age pension grant and miss their appointment. We are having that problem with clients far away from us but we do register them because we don&#8217;t know what to do. We do accept them with their problem we give them the return date three&#160;days before the treatment is finished so that there is a buffer in case they are late&#8221;.</it>
                <b>(ART nurse, CHC1, rural)</b>
             </p>
             <p>
                <it>&#8220;&#8230;we are not only serving this area, our so called catchment, they (patients) say to us it&#8217;s better to take a taxi to come here than to go to the rural clinics because in the morning, transport wise it&#8217;s not very easy and with other localities they don&#8217;t have transport. They are afraid of being raped, so they prefer taking a taxi for twenty rand (approximately two United States dollars at time of research) to come to East London, and mind that is dependent maybe on the mother to get the money to come here&#8221;.</it>
                <b>(Chronic care nurse, CHC5, urban)</b>
             </p>
             <p>Lack of transport is largely attributed to poor infrastructure and is the reason for transport operators avoiding certain routes. The following sentiments were captured regarding difficulties for patients in the Transkei region, a former homeland and a deeply deprived area in the province:</p>
             <p>
                <it>&#8220;&#8230; our roads are still not tarred, so some patients have to travel more than 50&#160;km. You know 50&#160;km in the rural areas is a lot, they can even take up to two hours because of the gravel roads&#8230;and in the rural areas by 5&#160;p.m. the transport gets finished, so these people won&#8217;t have transport to go back home. Some of the patients have to wake up at 3&#160;a.m. when they come to visit the clinic, like for reviews&#8230;it&#8217;s not fair&#8221;.</it>
                <b>(Chief medical officer, CHC3, rural)</b>
             </p>
          </sec>
          <sec>
             <st>
                <p>Accommodation</p>
             </st>
             <p>The down referral program which transfers patients to facilities nearest to their homes was implemented as a national strategy to improve ATM. There were mixed opinions about the success of down referral but there was consensus that uptake of services at the lower levels of care could increase if the quality of services, including the availability of medicines improved. Here accommodation of patient perceptions play a key role in the uptake of the intervention as illustrated below:</p>
             <p>&#8220;<it>People want to go to a place where there is a doctor, where there is availability of medicines. Even if they are not going to be seen by that doctor&#8230;as long as they know that in the event that a condition warrants you to be seen by the doctor, the doctor will be there. There are people who don&#8217;t want to go to clinics on that basis; they know there are nurses only&#8221;.</it>
                <b>(Pharmacist, CHC6, urban)</b>
             </p>
             <p>
                <it>&#8220;&#8230;with the municipal clinics for example, they don&#8217;t have a doctor every day, they don&#8217;t have an x-ray machine, and they have certain days for immunization, for minor ailments, for chronics for example. Now here&#8230;you can come any day for immunization, you can come any time&#8230;and I think that is one of the reasons why they flock here. We&#8217;ve got many doctors, we&#8217;ve got six permanent doctors&#8230;they want a doctor, they want an x-ray, they want to come whenever they want to come&#8221;.</it>
                <b>(TB nurse, CHC5, urban)</b>
             </p>
             <p>
                <it>&#8220;We do transfer them (patients) to the local nearest clinic, but sometimes they don&#8217;t want to go there, they prefer to come here, they don&#8217;t get the treatment at the nearest clinic, they say the treatment was out of stock so they decided to come here, but we are trying to take (refer) them back to the nearest clinic so they can afford money-wise&#8221;.</it>
                <b>(Facility manager, CHC1, rural)</b>
             </p>
             <p>
                <it>&#8220;We are doing down referrals to the near sites but it&#8217;s not proper because patients are going there in those clinics and they say they didn&#8217;t get their medication&#8221;.</it>
                <b>(ART nurse, CHC4, rural)</b>
             </p>
             <p>In the context of working with the poor, proximity of health services to social services emerged as important because social grants are central to poor people&#8217;s livelihoods. Many informants associated patients&#8217; choice of a health care facility with its closeness to other services such as social grant collection points and shopping centres. Providers reported that many patients rely on their or a family member&#8217;s social grant to cover transport expenses. This was confirmed by the research team when a particular facility waiting area was relatively empty on the day of grant collection compared to other days. The ability to combine medicine collection appointments with other personal business made it more appealing as indicated by the following accounts:</p>
             <p>&#8220;<it>There are some clinics in other rural areas, but they say this is their town, Home Affairs is here, Social Development is here, Shoprite</it> [supermarket] <it>is here, so they say they will rather come to town, so they do everything and then come to the clinic&#8221;.</it>
                <b>(TB nurse, CHC4, rural)</b>
             </p>
             <p>&#8220;<it>We have got eleven communities that we are serving. They are very far from here, it&#8217;s more than 30&#160;km&#8230;they are rural and they are struggling to come here, others are not getting any grant and they don&#8217;t have any money to come&#8221;.</it>
                <b>(Chronic care nurse, CHC4, rural)</b>
             </p>
             <p>Another important aspect in the organisation of disease control programmes is their inability to recognise that circular migration is a key feature among patients. Circular migrants are people who move between their places of origin to nearby urban centres or to other provinces in search of economic opportunities or for social reasons. For example, many people from the Eastern Cape Province move to the Western Cape Province seeking for economic opportunities and they travel between those provinces regularly. The provinces in some cases use different treatment protocols and this confuses not only the patients, most of whom recognise their medication by its physical appearance rather than generic names, but also providers, who feel overwhelmed by such scenarios as indicated by two nurses in rural settings.</p>
             <p>
                <it>&#8220;In the Western Cape they have their own regimen, which is not the same as ours here because even for transfers, we always have that problem because we many not know that regimen. You will find that the drug that is in our regimen two, they are using it for regimen one. Now that is confusing&#8221;.</it>
                <b>(TB nurse, CHC2, rural)</b>
             </p>
             <p>
                <it>&#8220;Our concern is for people coming from KZN (Kwa-Zulu Natal province) who are on ATRIPLA (fixed-dose ART), that is one tablet and we are still using three separate drugs&#8221;.</it>
                <b>(ART nurse, CHC1, rural)</b>
             </p>
             <p>In some cases, patients travel without referral letters and as a result default on their treatment because they are apprehensive about going to the health centre without a referral letter. They delay seeking medical attention until they become seriously ill. The following narratives echo this point.</p>
             <p>&#8220;<it>With diabetes and hypertension, patients will say I was in Cape Town to see my sick child, and we will ask them but why didn&#8217;t you carry your own clinic card, what about your own health?&#8221;</it>
                <b>(Chief medical officer, CHC3 rural)</b>
             </p>
             <p>
                <it>&#8220;&#8230;we tell them if you have to go somewhere come and report so that we provide extra medicine supply and if you are staying for a longer period then take the transfer letter. They don&#8217;t come and report and they don&#8217;t take their transfer letters. When they reach KZN, they are expecting the client to have the transfer letter so that they know exactly what is going on with him or her. Even if you trace by phone she says oh I am taking the medication here. How? Because you didn&#8217;t come to collect your medication and your transfer letter but they say no they are giving me. But then when she comes in two months later the card is still with that last date when she came here&#8221;.</it>
                <b>(TB nurse, CHC2, rural)</b>
             </p>
             <p>
                <it>&#8220;&#8230;they will tell you they have been to Cape Town but they don&#8217;t come with a card from Cape Town so we don&#8217;t know if they have taken the treatment or not&#8221;.</it>
                <b>(Chronic care nurse, CHC3 rural)</b>
             </p>
             <p>
                <it>&#8220;The patients are moving up and down that is why they are not adhering&#8221;.</it>
                <b>(ART nurse, CHC2, rural)</b>
             </p>
          </sec>
          <sec>
             <st>
                <p>Acceptability</p>
             </st>
             <p>Socio-cultural influences were also highlighted as fuelling stigma and the reason for some ART patients choosing to go to facilities that are further away from their homes, rather than nearer facilities. This was common among HIV patients and was not reported for other conditions. These three illustrations highlight this situation:</p>
             <p>
                <it>&#8220;&#8230;they (ART patients) are not happy about being seen taking HIV treatment in their clinics&#8230;if one persists, you observe and if you find out that they might end up not taking the treatment, we admit that one&#8221;.</it>
                <b>(Facility manager, CHC4, rural)</b>
             </p>
             <p>
                <it>&#8220;They stigmatise this condition (HIV) and we need to educate the people. I have got a brother who is HIV positive. I didn&#8217;t know he was HIV positive until today&#8230;he has been getting treatment from an NGO in town. Now that NGO has closed because of financial issues, now they are referred to the hospital. I don&#8217;t know whether he is running away from me or the centre itself&#8221;.</it>
                <b>(Facility manager, CHC6, urban)</b>
             </p>
             <p>
                <it>&#8220;We have a patient that comes once a month; she&#8217;s an HIV positive lady and had TB also. She comes here &#8230; for her treatment. So patients will go where they want to go even if you made hundred packs to leave at the (local) clinic, they won&#8217;t go there. She spends five hundred rand (approximately 56 United States dollars at the time of research) to come here when it&#8217;s time for her checkup. When it&#8217;s not her checkup, her son comes but because she had TB she had to come two weekly you know but with the ARV, her son collects her ARVs. ARV&#8217;s are expiring in other clinics because they don&#8217;t want to go to there&#8230; That&#8217;s why we have an overflow of patients here&#8221;.</it>
                <b>(TB nurse, CHC5, urban)</b>
             </p>
          </sec>
          <sec>
             <st>
                <p>Affordability</p>
             </st>
             <p>Although essential medicines are available free of charge in the public sector, unaffordable transport costs were identified as a cross-cutting theme. In some instances patients could not afford to pay for transport to the nearest facility because of poverty. However, many other times, their circumstances were exacerbated by barriers identified under other dimensions of availability, accessibility, accommodation and acceptability. Differences in how medicines are distributed within various disease control programmes were viewed as an influence on the cost of accessing medicines i.e. ART availability in strictly accredited facilities poses a challenge for patients who have to travel longer distances because the nearest clinic does not offer ART. TB patients are among those who face the biggest transport challenges during their treatment period as they are required to make daily or weekly visits to the facility for their medicines. A TB nurse in East London estimated that some patients coming from afar pay approximately R60 (approximately seven United States dollars at the time of research) a day on transport and this was contributing to the defaulting rates.</p>
          </sec>
          <sec>
             <st>
                <p>Empathic provider responses to address ATM barriers</p>
             </st>
             <p>The providers&#8217; perspectives highlight the inadequacy of the existing formal responses in addressing many of the circumstances that impinge on equitable ATM. In confronting these challenges in their daily provision of care, providers adopt ad hoc decisions to meet the needs of their patients. There was agreement that because of patients&#8217; low incomes and dependence on social grants, household savings are almost depleted before their next clinic appointment. Some providers attempted to align clinic appointments with social grant collection dates so that patients can collect their medicines and social grants on the same day. Others highlighted that this was helpful for the patients but it was impractical with large numbers of patients as it would create an imbalance in patient load and insufficient health personnel to deal with patients on the busier days.</p>
             <p>In other cases, providers reported that they assessed the patient profile and provided what they termed &#8216;buffer&#8217; stock for a few additional days (usually less than one week) in case patients come late for their appointment. In most cases, however, providers dispensed medicines for longer than the stipulated policy to patients they deemed stable, but cautioned them to return to the facility if they felt the need for medical attention before their next scheduled appointment. This was at the discretion of the prescriber, usually the nurse. There were variations in terms of how much stock patients received but between two weeks and a month were common for TB treatment that would otherwise be collected daily and two to three months for HIV and diabetes treatment which would otherwise be collected monthly. Although the decisions were made by prescribers, facility managers and pharmacy personnel were aware of this practice and supported it as highlighted below:</p>
             <p>
                <it>&#8220;The sister in the chronic[care department] has now developed a system of giving the treatment to those that are stable&#8230;she must give them for three months &#8230;and then the fourth month they come for observations but those who are unreliable they must come monthly&#8221;.</it>
                <b>(Facility manager, CHC4, rural)</b>
             </p>
             <p>
                <it>&#8220;We do have those that are adhering so we give them their monthly supply. And because &#8230;they don&#8217;t want to use their (local) clinics, they come here and it is very far&#8221;.</it>
                <b>(TB nurse, CHC2, rural)</b>
             </p>
             <p>Occasionally, providers reported assisting desperate patients with their personal finances to enable them to return to their homes. An illustration that was given by a nurse in an urban facility:</p>
             <p>&#8220;<it>&#8230;really we are stuck at times here with the patient, you will have to take your money, give patients to take taxis to their respective areas, because they are stuck here, maybe they are taken by the ambulance at night&#8230;there&#8217;s no money, there&#8217;s no escort, so you have to see to the finish. It is not easy to be a nurse, and when you look at us here, we are in an urban setting, think about the nurse who is working in the rural area; it is very much more difficult&#8221;.</it>
                <b>(Chronic care nurse, CHC5, urban)</b>
             </p>
          </sec>
          <sec>
             <st>
                <p>Provider views on future strategies to improve ATM</p>
             </st>
             <p>Providers described strategies that could be employed in the future to address poor quality of services in rural clinics, for example, having more sites accredited for ART or use of non-accredited sites merely as medicine collection sites and incentivizing doctors to work in rural sites so that staffing levels can be improved. One doctor indicated that she was the only doctor working at 27 clinics and this gave her an unreasonable work load. At the time of the research there was anticipation of a shift toward having all sites in the province managed by the Provincial Department of Health including those previously managed by the municipality. There was agreement that this move would improve coordination in the delivery of services and even resource sharing as indicated by one respondent:</p>
             <p>
                <it>&#8220;&#8230;there was no cooperation between us and the municipality; it is going to be better now. Even if there is a shortage in a particular clinic, if I am here as a manager, I could allocate my nurses to that clinic&#8221;.</it>
                <b>(Facility manager, CHC6, urban)</b>
             </p>
             <p>We enquired about the potential role of mobile clinics in improving distribution of medicines although none of our tracer medicines had been distributed through the mobile clinics. Providers felt that mobile services have been geared toward dealing with minor ailments and as a result patients with comorbidities collect part of their medication from the mobile clinic and additionally, have to travel to the facility to collect their chronic medicines. This results in patients abandoning the mobile clinic completely and going to the facility where they can collect all their medicines simultaneously.</p>
             <p>At an operational level, mobile clinics have been plagued by many challenges such as unavailability of vehicles committed to this service, bad roads and weather conditions which hinder physical accessibility and shortages of staff at the facility level which results in community appointments being cancelled as highlighted by these respondents:</p>
             <p>
                <it>&#8220;Our staff shortages mainly affect the mobile services where we only have two professional nurses and one nursing assistant. According to the organogram, we are supposed to have two teams with five professional nurses&#8221;.</it> (<b>Facility manager, CHC2, rural</b>)</p>
             <p>
                <it>&#8220;&#8230;at times they (service providers) have transport challenges so they will be disappointing those patients. They used to wait a long time, so they decided not to wait for the mobile clinic, they decided to come and get their treatment here. So if the mobile is not coming if that appointment date is cut, they wait there because of the transport problems&#8221;. In addition, &#8220;&#8230;sometimes they (patients) used to say we are not getting all the treatment, others are out of stock, so they do come (to the CHC) for other treatment&#8221;.</it>
                <b>(Chronic care nurse, CHC3, rural)</b>
             </p>
             <p>Issues pertaining to resources might be easier to address but addressing the needs of patients with comorbidities remains a challenge in areas where mobile clinics are not a supplementary service to the local clinic but are the only available means of service nearest to the people. While it is acknowledged that mobile clinics have the potential to address access barriers in hard to reach areas, some providers were sceptical about providing medicines such as ART through the mobile clinic citing intense administrative procedures associated with ART programmes, potential lack of privacy and limited contact time between patients and providers as the mobile vans move to different locations.</p>
          </sec>
       </sec>
       <sec>
          <st>
             <p>Discussion</p>
          </st>
          <p>Our findings emphasize the role of providers as healthcare brokers with respect to their creative responses in addressing patient needs and mitigating health system shortfall. A key benefit of this study was the ability to draw experiences across different essential medicines in both urban and rural settings and with providers who have different roles in the care pathway. The reported perspectives were largely shared across providers of different essential medicines. Our key informant interviews highlight important bottlenecks and system failures that correspond to the multiple dimensions of access <abbrgrp>
                <abbr bid="B7">7</abbr>
             </abbrgrp> and the practical dilemmas that providers face in dealing with them. Providers are directly impacted by these challenges on the frontline of care and this study highlights the proactive strategies that they employ to ensure that patients obtain and remain on treatment. How providers enact the role of broker between the system and their patients is critical to consider in terms of the broader problem of medicine accessibility and health services in general. There is a need for broad-based changes encompassing all disease areas to improve ATM. In doing so, however, there is a need to take into account three tiers of brokerage: (i) ATM barriers with no solutions offered yet (e.g. bottlenecks in the medicines supply chain and socio-economic and cultural factors), (ii) ATM barriers with potential solutions outside the health providers&#8217; power (e.g. building improved transport networks) and (iii) ATM barriers with solutions already being implemented (e.g. flexibilities in prescribing and dispensing to suit patient needs). Implications for practice are discussed through presentation of a number of mechanisms with a set of critical questions to ask when addressing ATM.</p>
          <p>First, the medicines supply chain is undermined by severe resource constraints and structural weaknesses often leading to stock outs and provision of inferior services. Patients respond to system barriers by &#8216;shopping&#8217; for better services within the system or with alternative providers if they can afford the associated costs. Otherwise, they give up <abbrgrp>
                <abbr bid="B12">12</abbr>
             </abbrgrp>. Similar to another study in South Africa <abbrgrp>
                <abbr bid="B22">22</abbr>
             </abbrgrp>, providers highlighted haphazard movement of patients within the health system as one of the threats to the down referral program. This emerged as a key factor that prohibits efficient planning related to medicines supply at primary level facilities. The supply chain needs to be equipped to deal with the growing demand for consistent supply of medicines, especially chronic medicines and this involves proper planning at all levels.</p>
          <p>Second, context and patient characteristics play an important role in provision of medicines. For example, circular migration emerged as a key feature of the patient population yet health services tend to assume that patients are permanently situated in a particular locus. As a result, many patients are lost to follow up or default on treatment when they temporarily migrate from one place to the other. Also, relative to urban patients, rural patients face more access barriers as a result of poverty and underdeveloped transport infrastructure. Peters and colleagues found that the poor in low and middle income countries (LMICs) are consistently at a disadvantage in each of the dimensions of access and their determinants <abbrgrp>
                <abbr bid="B23">23</abbr>
             </abbrgrp>. Another South African study also highlighted the financial burden of costs associated with health care on patients <abbrgrp>
                <abbr bid="B8">8</abbr>
             </abbrgrp>. Both supply- and demand-side barriers carry a financial consequence for patients, particularly with respect to transportation. For example, patients incur costs for greater distances travelled in dealing with underdeveloped transport infrastructure or medicine stock outs in more proximate clinics. Patients&#8217; ability to afford health related costs depend, among other things on any earnings, the composition of the social grants that a household receives, the size of the household and the household priorities. In light of this, improving access to medicines requires engaging in intersectoral actions between health, welfare and infrastructural development. Organization of &#8220;circular&#8221; public transport, instead of only &#8220;centripetal&#8221; transport, which gives users incentives to travel to town, instead of to the local health centre, is required.</p>
          <sec>
             <st>
                <p>Implications for policy and practice</p>
             </st>
             <p>Findings from this study suggest that many providers are aware of the existing barriers to accessing medicines. They are taking advantage of the flexibilities within the health system, which enables them to make critical, responsible and responsive decisions in practice. They are attempting to address these challenges in creative and empathic ways. Indeed, clinical empathy is a quality that is deemed critical in determining patients&#8217; ability to cope with both illness and quality of care and to improve health outcomes <abbrgrp>
                   <abbr bid="B24">24</abbr>
                </abbrgrp>,<abbrgrp>
                   <abbr bid="B25">25</abbr>
                </abbrgrp>. Our findings allude to the commitment of providers and the important role that they are playing in discovering the needs of the populations they serve and the efforts to address them. This draws attention to the social reality of relationships and interactions occurring at the patient and provider level and offers a different view to previous studies which found this relationship to be largely negative <abbrgrp>
                   <abbr bid="B12">12</abbr>
                </abbrgrp>,<abbrgrp>
                   <abbr bid="B26">26</abbr>
                </abbrgrp>. It is plausible that continuous patient-provider interaction, as evidenced by the average of eight years that health providers work in the same facility, promotes nurturing of positive relationships wherein providers better understand the challenges that patients face.</p>
             <p>However, the practice of prescribing and dispensing for periods beyond what is lawfully allowed deserves careful attention, given the consequent impact of less frequent monitoring and patient follow-up. Providers however, suggest that dispensing medicines to stable patients with chronic conditions for up to six months would help reduce travel costs and de-congest health centres. They do not view this strategy as a threat to public health because patients are free to return to the facility as needed. Although prescribers have devised ways of evaluating patient stability through assessing health outcomes over time, the standard differs from place to place. The current variation in dispensing practices in order to address patient concerns raises important questions for policy and suggests a need to look into whether there is merit in institutionalising the informal strategies currently employed from an evidence-based point of view. Recent studies report that with the right kind of community support, it is feasible to provide treatment for longer periods <abbrgrp>
                   <abbr bid="B11">11</abbr>
                </abbrgrp>. Also, a recent program in South Africa has piloted provision of ART for longer periods with good results <abbrgrp>
                   <abbr bid="B27">27</abbr>
                </abbrgrp>. In the absence of standardised and evidence-based dispensing practices in order to address patient monitoring, the informal strategies reported in this paper may not produce optimum patient therapeutic outcomes.</p>
             <p>It is also worth noting, that the current strategies employed by providers favour patients who are deemed stable and might further discriminate against patients who are unable to visit health centres because of multiple barriers. Diversification of strategies to improve ATM is absolutely critical. Diversification involves looking beyond the conventional facility-based approach by considering, among others, community based models which maintain identifiable links with the health system to increase the trust of the users.</p>
             <p>Finally, the emergence of chronic non-communicable diseases and multiple morbidities is fast becoming the rule rather than the exception and efforts to pre-engineer the system towards a comprehensive, integrated, horizontal primary health care system should be considered. For instance, a recent analysis of mortality causes in South Africa has highlighted more deaths resulting from non-communicable diseases such as diabetes than from HIV <abbrgrp>
                   <abbr bid="B28">28</abbr>
                </abbrgrp>. A responsive system takes into account the limitations of a vertical system while at the same time ensuring that medicines for priority conditions are not compromised <abbrgrp>
                   <abbr bid="B29">29</abbr>
                </abbrgrp>. Responsiveness also requires taking into account characteristics of the population served to ensure that circular migrants have continuous ATM and to address other social, cultural and economic barriers more appropriately. Ultimately, addressing these ATM barriers creates a healthier working environment for providers and protects them from situations where, for example, they occasionally feel obligated to assist stranded patients.</p>
          </sec>
       </sec>
       <sec>
          <st>
             <p>Conclusion</p>
          </st>
          <p>Effective ATM to minimise treatment interruption requires addressing supply- and demand- barriers concurrently with a consideration for context. The evidence presented in this paper shows the importance of all five access barriers (availability, accessibility, accommodation, acceptability and affordability) and the complex ways in which they interact with each other. Issues that require further research include diversifying methods for distributing medicines in rural settings, understanding whether the brokerage mechanisms adopted by providers actually improve ATM, and determining whether such practices are appropriate, feasible and sustainable. It is also critical to understand the characteristics of the population served to ensure that circular migrants have continuous ATM. Finally, the brokerage role of providers is underutilised and we recommend that as ongoing practice, they should be actively engaged in intersectoral discussions aimed at improving the health care response.</p>
       </sec>
       <sec>
          <st>
             <p>Abbreviations</p>
          </st>
          <p>CHC: Community Health Centre</p>
          <p>AMASA: Accessing Medicines in Africa and South Asia</p>
          <p>TB: Tuberculosis</p>
          <p>ART: Anti-retroviral treatment</p>
          <p>KZN: Kwa-Zulu Natal</p>
          <p>WHO: World Health Organisation</p>
          <p>LMICs: Low-and-middle income countries</p>
       </sec>
       <sec>
          <st>
             <p>Competing interests</p>
          </st>
          <p>The authors declare that they have no competing interests.</p>
       </sec>
       <sec>
          <st>
             <p>Authors&#8217; contributions</p>
          </st>
          <p>All authors contributed to the conceptualisation of the research. BM conducted the field research. BM, KW and DS contributed to the conceptualisation of the manuscript. BM undertook qualitative data analysis and drafted the first draft of the article. All authors contributed to the intellectual content of the article. BM finalised the article. All authors read and approved the final manuscript.</p>
       </sec>
    </bdy>
    <bm>
       <ack>
          <sec>
             <st>
                <p>Acknowledgements</p>
             </st>
             <p>This paper results from research funded by the European Union Seventh Framework Programme Theme: Health-2009-4.3.2-2 (Grant no. 242262) under the title &#8216;Accessing Medicines in Africa and South Asia [AMASA]&#8217;. The project team includes partners at the Swiss Tropical and Public Health Institute at the University of Basel (Switzerland), University of Edinburgh (UK), Queen Mary University of London (UK), University of Ghent (Belgium), Makerere University (Uganda) Mbarara University of Science and Technology (Uganda), University of the Western Cape (South Africa) and the Foundation for Research in Community Health (India).</p>
          </sec>
       </ack>
       <refgrp>
          
          <bibl id="B1">
             <title>
                <p>The burden of non-communicable diseases in South Africa</p>
             </title>
             <aug>
                <au>
                   <snm>Mayosi</snm>
                   <fnm>BM</fnm>
                </au>
                <au>
                   <snm>Flisher</snm>
                   <fnm>AJ</fnm>
                </au>
                <au>
                   <snm>Lalloo</snm>
                   <fnm>UG</fnm>
                </au>
                <au>
                   <snm>Sitas</snm>
                   <fnm>F</fnm>
                </au>
                <au>
                   <snm>Tollman</snm>
                   <fnm>SM</fnm>
                </au>
                <au>
                   <snm>Bradshaw</snm>
                   <fnm>D</fnm>
                </au>
             </aug>
             <source>Lancet</source>
             <pubdate>2009</pubdate>
             <volume>374</volume>
             <fpage>934</fpage>
             <lpage>947</lpage>
             <xrefbib>
                <pubidlist>
                   <pubid idtype="doi">10.1016/S0140-6736(09)61087-4</pubid>
                   <pubid idtype="pmpid" link="fulltext">19709736</pubid>
                </pubidlist>
             </xrefbib>
          </bibl>
          <bibl id="B2">
             <title>
                <p>Bridging the gap in South Africa</p>
             </title>
             <source>Bull World Health Organ</source>
             <pubdate>2010</pubdate>
             <volume>88</volume>
             <issue>11</issue>
             <fpage>797</fpage>
             <lpage>876</lpage>
             <note>[http://www.who.int/bulletin/volumes/88/11/10-021110/en/]</note>
          </bibl>
          <bibl id="B3">
             <title>
                <p>The health and health system of South Africa: historical roots of current public health challenges</p>
             </title>
             <aug>
                <au>
                   <snm>Coovadia</snm>
                   <fnm>H</fnm>
                </au>
                <au>
                   <snm>Jewkes</snm>
                   <fnm>R</fnm>
                </au>
                <au>
                   <snm>Barron</snm>
                   <fnm>P</fnm>
                </au>
                <au>
                   <snm>Sanders</snm>
                   <fnm>D</fnm>
                </au>
                <au>
                   <snm>McIntyre</snm>
                   <fnm>D</fnm>
                </au>
             </aug>
             <source>Lancet</source>
             <pubdate>2009</pubdate>
             <volume>374</volume>
             <fpage>817</fpage>
             <lpage>834</lpage>
             <xrefbib>
                <pubidlist>
                   <pubid idtype="doi">10.1016/S0140-6736(09)60951-X</pubid>
                   <pubid idtype="pmpid" link="fulltext">19709728</pubid>
                </pubidlist>
             </xrefbib>
          </bibl>
          <bibl id="B4">
             <title>
                <p>Health care providers&#8217; attitudes towards termination of pregnancy: a qualitative study in South Africa</p>
             </title>
             <aug>
                <au>
                   <snm>Harries</snm>
                   <fnm>J</fnm>
                </au>
                <au>
                   <snm>Stinson</snm>
                   <fnm>K</fnm>
                </au>
                <au>
                   <snm>Orner</snm>
                   <fnm>P</fnm>
                </au>
             </aug>
             <source>BMC Public Health</source>
             <pubdate>2009</pubdate>
             <volume>9</volume>
             <fpage>296</fpage>
             <xrefbib>
                <pubidlist>
                   <pubid idtype="doi">10.1186/1471-2458-9-296</pubid>
                   <pubid idtype="pmpid" link="fulltext">19689791</pubid>
                </pubidlist>
             </xrefbib>
          </bibl>
          <bibl id="B5">
             <title>
                <p>Bridges, brokers and boundary spanners in collaborative networks: a systematic review</p>
             </title>
             <aug>
                <au>
                   <snm>Long</snm>
                   <fnm>JC</fnm>
                </au>
                <au>
                   <snm>Cunningham</snm>
                   <fnm>FC</fnm>
                </au>
                <au>
                   <snm>Braithwaite</snm>
                   <fnm>J</fnm>
                </au>
             </aug>
             <source>BMC Health Serv Res</source>
             <pubdate>2013</pubdate>
             <volume>13</volume>
             <fpage>158</fpage>
             <xrefbib>
                <pubidlist>
                   <pubid idtype="doi">10.1186/1472-6963-13-158</pubid>
                   <pubid idtype="pmpid" link="fulltext">23631517</pubid>
                </pubidlist>
             </xrefbib>
          </bibl>
          <bibl id="B6">
             <title>
                <p>Addressing access barriers to health services: an analytical framework for selecting appropriate interventions in low-income Asian countries</p>
             </title>
             <aug>
                <au>
                   <snm>Jacobs</snm>
                   <fnm>B</fnm>
                </au>
                <au>
                   <snm>Ir</snm>
                   <fnm>P</fnm>
                </au>
                <au>
                   <snm>Bigdeli</snm>
                   <fnm>M</fnm>
                </au>
                <au>
                   <snm>Annear</snm>
                   <fnm>PL</fnm>
                </au>
                <au>
                   <snm>Van Damme</snm>
                   <fnm>W</fnm>
                </au>
             </aug>
             <source>Health Policy Plan</source>
             <pubdate>2012</pubdate>
             <volume>27</volume>
             <fpage>288</fpage>
             <lpage>300</lpage>
             <xrefbib>
                <pubidlist>
                   <pubid idtype="doi">10.1093/heapol/czr038</pubid>
                   <pubid idtype="pmpid" link="fulltext">21565939</pubid>
                </pubidlist>
             </xrefbib>
          </bibl>
          <bibl id="B7">
             <title>
                <p>The concept of access: definition and relationship to consumer satisfaction</p>
             </title>
             <aug>
                <au>
                   <snm>Penchansky</snm>
                   <fnm>R</fnm>
                </au>
                <au>
                   <snm>Thomas</snm>
                   <fnm>JW</fnm>
                </au>
             </aug>
             <source>Med Care</source>
             <pubdate>1981</pubdate>
             <volume>19</volume>
             <fpage>127</fpage>
             <lpage>140</lpage>
             <xrefbib>
                <pubidlist>
                   <pubid idtype="doi">10.1097/00005650-198102000-00001</pubid>
                   <pubid idtype="pmpid" link="fulltext">7206846</pubid>
                </pubidlist>
             </xrefbib>
          </bibl>
          <bibl id="B8">
             <title>
                <p>Investigating the affordability of key health services in South Africa</p>
             </title>
             <aug>
                <au>
                   <snm>Cleary</snm>
                   <fnm>S</fnm>
                </au>
                <au>
                   <snm>Birch</snm>
                   <fnm>S</fnm>
                </au>
                <au>
                   <snm>Chimbindi</snm>
                   <fnm>N</fnm>
                </au>
                <au>
                   <snm>Silal</snm>
                   <fnm>S</fnm>
                </au>
                <au>
                   <snm>McIntyre</snm>
                   <fnm>D</fnm>
                </au>
             </aug>
             <source>Soc Sci Med</source>
             <pubdate>2013</pubdate>
             <volume>80</volume>
             <fpage>37</fpage>
             <lpage>46</lpage>
             <xrefbib>
                <pubidlist>
                   <pubid idtype="doi">10.1016/j.socscimed.2012.11.035</pubid>
                   <pubid idtype="pmpid" link="fulltext">23415590</pubid>
                </pubidlist>
             </xrefbib>
          </bibl>
          <bibl id="B9">
             <title>
                <p>Transportation costs impede sustained adherence and access to HAART in a clinic population in south western Uganda: a qualitative study</p>
             </title>
             <aug>
                <au>
                   <snm>Tuller</snm>
                   <fnm>DM</fnm>
                </au>
                <au>
                   <snm>Bangsberg</snm>
                   <fnm>DR</fnm>
                </au>
                <au>
                   <snm>Senkungu</snm>
                   <fnm>J</fnm>
                </au>
                <au>
                   <snm>Ware</snm>
                   <fnm>NC</fnm>
                </au>
                <au>
                   <snm>Emenyonu</snm>
                   <fnm>N</fnm>
                </au>
                <au>
                   <snm>Weiser</snm>
                   <fnm>SD</fnm>
                </au>
             </aug>
             <source>AIDS Behav</source>
             <pubdate>2010</pubdate>
             <volume>14</volume>
             <issue>4</issue>
             <fpage>778</fpage>
             <lpage>784</lpage>
             <xrefbib>
                <pubidlist>
                   <pubid idtype="doi">10.1007/s10461-009-9533-2</pubid>
                   <pubid idtype="pmpid" link="fulltext">19283464</pubid>
                </pubidlist>
             </xrefbib>
          </bibl>
          <bibl id="B10">
             <title>
                <p>Coping with the cost burdens of illness: combining qualitative and quantitative methods in longitudinal, household research</p>
             </title>
             <aug>
                <au>
                   <snm>Goudge</snm>
                   <fnm>J</fnm>
                </au>
                <au>
                   <snm>Gumede</snm>
                   <fnm>T</fnm>
                </au>
                <au>
                   <snm>Gilson</snm>
                   <fnm>L</fnm>
                </au>
                <au>
                   <snm>Russell</snm>
                   <fnm>S</fnm>
                </au>
                <au>
                   <snm>Tollman</snm>
                   <fnm>SM</fnm>
                </au>
                <au>
                   <snm>Mills</snm>
                   <fnm>A</fnm>
                </au>
             </aug>
             <source>Scand J Public Health Suppl</source>
             <pubdate>2007</pubdate>
             <volume>69</volume>
             <fpage>181</fpage>
             <lpage>185</lpage>
             <xrefbib>
                <pubidlist>
                   <pubid idtype="doi">10.1080/14034950701355551</pubid>
                   <pubid idtype="pmpid" link="fulltext">17676521</pubid>
                </pubidlist>
             </xrefbib>
          </bibl>
          <bibl id="B11">
             <title>
                <p>Hunger, waiting time and transport costs: time to confront challenges to ART adherence in Africa</p>
             </title>
             <aug>
                <au>
                   <snm>Hardon</snm>
                   <fnm>AP</fnm>
                </au>
                <au>
                   <snm>Akurut</snm>
                   <fnm>D</fnm>
                </au>
                <au>
                   <snm>Comoro</snm>
                   <fnm>C</fnm>
                </au>
                <au>
                   <snm>Ekezie</snm>
                   <fnm>C</fnm>
                </au>
                <au>
                   <snm>Irunde</snm>
                   <fnm>HF</fnm>
                </au>
                <au>
                   <snm>Gerrits</snm>
                   <fnm>T</fnm>
                </au>
                <au>
                   <snm>Kglatwane</snm>
                   <fnm>J</fnm>
                </au>
                <au>
                   <snm>Kinsman</snm>
                   <fnm>J</fnm>
                </au>
                <au>
                   <snm>Kwasa</snm>
                   <fnm>R</fnm>
                </au>
                <au>
                   <snm>Maridadi</snm>
                   <fnm>J</fnm>
                </au>
                <au>
                   <snm>Moroka</snm>
                   <fnm>TM</fnm>
                </au>
                <au>
                   <snm>Moyo</snm>
                   <fnm>S</fnm>
                </au>
                <au>
                   <snm>Nakiyemba</snm>
                   <fnm>A</fnm>
                </au>
                <au>
                   <snm>Nsimba</snm>
                   <fnm>S</fnm>
                </au>
                <au>
                   <snm>Ogenyi</snm>
                   <fnm>R</fnm>
                </au>
                <au>
                   <snm>Oyabba</snm>
                   <fnm>T</fnm>
                </au>
                <au>
                   <snm>Temu</snm>
                   <fnm>F</fnm>
                </au>
                <au>
                   <snm>Laing</snm>
                   <fnm>R</fnm>
                </au>
             </aug>
             <source>AIDS Care</source>
             <pubdate>2007</pubdate>
             <volume>19</volume>
             <issue>5</issue>
             <fpage>658</fpage>
             <lpage>665</lpage>
             <xrefbib>
                <pubidlist>
                   <pubid idtype="doi">10.1080/09540120701244943</pubid>
                   <pubid idtype="pmpid" link="fulltext">17505927</pubid>
                </pubidlist>
             </xrefbib>
          </bibl>
          <bibl id="B12">
             <title>
                <p>Affordability, availability and acceptability barriers to health care for the chronically ill: Longitudinal case studies from South Africa</p>
             </title>
             <aug>
                <au>
                   <snm>Goudge</snm>
                   <fnm>J</fnm>
                </au>
                <au>
                   <snm>Gilson</snm>
                   <fnm>L</fnm>
                </au>
                <au>
                   <snm>Russell</snm>
                   <fnm>S</fnm>
                </au>
                <au>
                   <snm>Gumede</snm>
                   <fnm>T</fnm>
                </au>
                <au>
                   <snm>Mills</snm>
                   <fnm>A</fnm>
                </au>
             </aug>
             <source>BMC Health Serv Res</source>
             <pubdate>2009</pubdate>
             <volume>9</volume>
             <fpage>75</fpage>
             <note>doi:10.1186/1472-6963-9-75</note>
             <xrefbib>
                <pubidlist>
                   <pubid idtype="doi">10.1186/1472-6963-9-75</pubid>
                   <pubid idtype="pmpid" link="fulltext">19426533</pubid>
                </pubidlist>
             </xrefbib>
          </bibl>
          <bibl id="B13">
             <title>
                <p>Exploring inequalities in access to and use of maternal health services in South Africa</p>
             </title>
             <aug>
                <au>
                   <snm>Silal</snm>
                   <fnm>SP</fnm>
                </au>
                <au>
                   <snm>Penn-Kekana</snm>
                   <fnm>L</fnm>
                </au>
                <au>
                   <snm>Harris</snm>
                   <fnm>B</fnm>
                </au>
                <au>
                   <snm>Birch</snm>
                   <fnm>S</fnm>
                </au>
                <au>
                   <snm>McIntyre</snm>
                   <fnm>D</fnm>
                </au>
             </aug>
             <source>BMC Health Serv Res</source>
             <pubdate>2012</pubdate>
             <volume>12</volume>
             <fpage>120</fpage>
             <note>doi:10.1186/1472-6963-12-120</note>
             <xrefbib>
                <pubidlist>
                   <pubid idtype="doi">10.1186/1472-6963-12-120</pubid>
                   <pubid idtype="pmpid" link="fulltext">22613037</pubid>
                </pubidlist>
             </xrefbib>
          </bibl>
          <bibl id="B14">
             <title>
                <p>The state of the right to health in rural South Africa</p>
             </title>
             <aug>
                <au>
                   <snm>Gaede</snm>
                   <fnm>B</fnm>
                </au>
                <au>
                   <snm>Versteeg</snm>
                   <fnm>M</fnm>
                </au>
             </aug>
             <source>South African Health Review 2011</source>
             <publisher>Health Systems Trust, Durban</publisher>
             <editor>Padarath A, English R</editor>
             <pubdate>2011</pubdate>
             <fpage>99</fpage>
             <lpage>106</lpage>
             <url>http://www.hst.org.za/publications/south-african-health-review-2011</url>
             <note>[http://www.hst.org.za/publications/south-african-health-review-2011]</note>
          </bibl>
          <bibl id="B15">
             
                <url>http://www.who.int/medicines/services/essmedicines_def/en/</url>
             
<note>WHO: <b>Medicines.</b> []</note>
          </bibl>
          <bibl id="B16">
             <title>
                <p>Why do nurses abuse patients? Reflections from South African obstetric services</p>
             </title>
             <aug>
                <au>
                   <snm>Jewkes</snm>
                   <fnm>R</fnm>
                </au>
                <au>
                   <snm>Abrahams</snm>
                   <fnm>N</fnm>
                </au>
                <au>
                   <snm>Mvo</snm>
                   <fnm>Z</fnm>
                </au>
             </aug>
             <source>Soc Sci Med</source>
             <pubdate>1998</pubdate>
             <volume>47</volume>
             <issue>11</issue>
             <fpage>1781</fpage>
             <lpage>1795</lpage>
             <xrefbib>
                <pubidlist>
                   <pubid idtype="doi">10.1016/S0277-9536(98)00240-8</pubid>
                   <pubid idtype="pmpid" link="fulltext">9877348</pubid>
                </pubidlist>
             </xrefbib>
          </bibl>
          <bibl id="B17">
             <title>
                <p>Patients&#8217; beliefs: do they affect tuberculosis control? A study in a rural district of South Africa</p>
             </title>
             <aug>
                <au>
                   <snm>Edgington</snm>
                   <fnm>ME</fnm>
                </au>
                <au>
                   <snm>Sekatane</snm>
                   <fnm>CS</fnm>
                </au>
                <au>
                   <snm>Goldstein</snm>
                   <fnm>SJ</fnm>
                </au>
             </aug>
             <source>Int J Tuberc Lung Dis</source>
             <pubdate>2002</pubdate>
             <volume>6</volume>
             <issue>12</issue>
             <fpage>1075</fpage>
             <lpage>1082</lpage>
          </bibl>
          <bibl id="B18">
             <title>
                <p>Blood blockages and scolding nurses: barriers to adolescent contraceptive use in South Africa</p>
             </title>
             <aug>
                <au>
                   <snm>Wood</snm>
                   <fnm>K</fnm>
                </au>
                <au>
                   <snm>Jewkes</snm>
                   <fnm>R</fnm>
                </au>
             </aug>
             <source>Reprod Health Matters</source>
             <pubdate>2006</pubdate>
             <volume>14</volume>
             <issue>27</issue>
             <fpage>109</fpage>
             <lpage>118</lpage>
             <xrefbib>
                <pubidlist>
                   <pubid idtype="doi">10.1016/S0968-8080(06)27231-8</pubid>
                   <pubid idtype="pmpid" link="fulltext">16713885</pubid>
                </pubidlist>
             </xrefbib>
          </bibl>
          <bibl id="B19">
             <title>
                <p>Routine checks for HIV in children attending primary health care facilities in South Africa: Attitudes of nurses and child caregivers</p>
             </title>
             <aug>
                <au>
                   <snm>Horwood</snm>
                   <fnm>C</fnm>
                </au>
                <au>
                   <snm>Voce</snm>
                   <fnm>A</fnm>
                </au>
                <au>
                   <snm>Vermaak</snm>
                   <fnm>K</fnm>
                </au>
                <au>
                   <snm>Rollins</snm>
                   <fnm>N</fnm>
                </au>
                <au>
                   <snm>Qazi</snm>
                   <fnm>S</fnm>
                </au>
             </aug>
             <source>Soc Sci Med</source>
             <pubdate>2010</pubdate>
             <volume>70</volume>
             <issue>2</issue>
             <fpage>313</fpage>
             <lpage>320</lpage>
             <xrefbib>
                <pubidlist>
                   <pubid idtype="doi">10.1016/j.socscimed.2009.10.002</pubid>
                   <pubid idtype="pmpid" link="fulltext">19853339</pubid>
                </pubidlist>
             </xrefbib>
          </bibl>
          <bibl id="B20">
             
                <url>http://www.statssa.gov.za/publications/P0302/P03022011.pdf</url>
             
<note>Statistics South Africa: <b>Mid-year population estimates, statistical release P0302.</b> []</note>
          </bibl>
          <bibl id="B21">
             <aug>
                <au>
                   <snm>Leedy</snm>
                   <fnm>PD</fnm>
                </au>
                <au>
                   <snm>Ormrod</snm>
                   <fnm>JE</fnm>
                </au>
             </aug>
             <source>Practical Research: Planning and Design</source>
             <publisher>Merrill, NJ</publisher>
             <pubdate>2010</pubdate>
          </bibl>
          <bibl id="B22">
             <title>
                <p>Does accessibility to antiretroviral care improve after down-referral of patients from hospitals to health centres in rural South Africa?</p>
             </title>
             <aug>
                <au>
                   <snm>Moshabela</snm>
                   <fnm>M</fnm>
                </au>
                <au>
                   <snm>Schneider</snm>
                   <fnm>H</fnm>
                </au>
                <au>
                   <snm>Cleary</snm>
                   <fnm>SM</fnm>
                </au>
                <au>
                   <snm>Pronyk</snm>
                   <fnm>PM</fnm>
                </au>
                <au>
                   <snm>Eyles</snm>
                   <fnm>J</fnm>
                </au>
             </aug>
             <source>Afr J AIDS Res</source>
             <pubdate>2011</pubdate>
             <volume>10</volume>
             <issue>4</issue>
             <fpage>393</fpage>
             <lpage>401</lpage>
             <note>doi:10.2989/16085906.2011.646654</note>
             <xrefbib>
                <pubidlist>
                   <pubid idtype="doi">10.2989/16085906.2011.646654</pubid>
                </pubidlist>
             </xrefbib>
          </bibl>
          <bibl id="B23">
             <title>
                <p>Poverty and access to health care in developing countries</p>
             </title>
             <aug>
                <au>
                   <snm>Peters</snm>
                   <fnm>DH</fnm>
                </au>
                <au>
                   <snm>Garg</snm>
                   <fnm>A</fnm>
                </au>
                <au>
                   <snm>Bloom</snm>
                   <fnm>G</fnm>
                </au>
                <au>
                   <snm>Walker</snm>
                   <fnm>DG</fnm>
                </au>
                <au>
                   <snm>Brieger</snm>
                   <fnm>WR</fnm>
                </au>
                <au>
                   <snm>Rahman</snm>
                   <fnm>MH</fnm>
                </au>
             </aug>
             <source>Ann N Y Acad Sci</source>
             <pubdate>2008</pubdate>
             <volume>1136</volume>
             <fpage>161</fpage>
             <lpage>171</lpage>
             <note>doi:10.1196/annals.1425.011</note>
             <xrefbib>
                <pubidlist>
                   <pubid idtype="doi">10.1196/annals.1425.011</pubid>
                   <pubid idtype="pmpid" link="fulltext">17954679</pubid>
                </pubidlist>
             </xrefbib>
          </bibl>
          <bibl id="B24">
             <title>
                <p>Predictors of perceived empathy among patients visiting primary health-care centers in central Ethiopia</p>
             </title>
             <aug>
                <au>
                   <snm>Birhanu</snm>
                   <fnm>Z</fnm>
                </au>
                <au>
                   <snm>Assefa</snm>
                   <fnm>T</fnm>
                </au>
                <au>
                   <snm>Woldie</snm>
                   <fnm>M</fnm>
                </au>
                <au>
                   <snm>Morankar</snm>
                   <fnm>S</fnm>
                </au>
             </aug>
             <source>Int J Qual Health Care</source>
             <pubdate>2012</pubdate>
             <volume>24</volume>
             <issue>2</issue>
             <fpage>161</fpage>
             <lpage>168</lpage>
             <xrefbib>
                <pubidlist>
                   <pubid idtype="doi">10.1093/intqhc/mzs001</pubid>
                   <pubid idtype="pmpid" link="fulltext">22302068</pubid>
                </pubidlist>
             </xrefbib>
          </bibl>
          <bibl id="B25">
             <title>
                <p>Empathy and quality of care</p>
             </title>
             <aug>
                <au>
                   <snm>Mercer</snm>
                   <fnm>SW</fnm>
                </au>
                <au>
                   <snm>Reynolds</snm>
                   <fnm>WJ</fnm>
                </au>
             </aug>
             <source>Br J Gen Pract</source>
             <pubdate>2002</pubdate>
             <volume>52</volume>
             <fpage>S9</fpage>
             <lpage>S13</lpage>
             <xrefbib>
                <pubidlist>
                   <pubid idtype="pmpid" link="fulltext">12389763</pubid>
                </pubidlist>
             </xrefbib>
          </bibl>
          <bibl id="B26">
             
                <url>http://www.mrc.ac.za/gender/sexualassault.pdf</url>
             
<note>Christofides N, Webster N, Jewkes R, Penn-Kekana L, Martin L, Abrahams N, Kim J: <b>The State of Sexual Assault Services: Findings from a Situation Analysis of Services in South Africa.</b> SAGBVHI report, 2003. []</note>
          </bibl>
          <bibl id="B27">
             
                <url>http://www.ev4gh.net/wp-content/uploads/2013/09/Anna_Grimsrud_abstracts3.pdf</url>
             
<note>Grimsrud A, Sharp J, Kalombo C, Bekker LG, Myer L. <b>Outcomes of patients on antiretroviral therapy managed through community-based &#8220;Adherence Clubs&#8221; in South Africa [abstract].</b> []</note>
          </bibl>
          <bibl id="B28">
             
                <url>http://www.statssa.gov.za/publications/p03093/p030932010.pdf</url>
             
<note>Statistics South Africa: <b>Mortality and causes of death in South Africa, 2010: Findings from death notification. Statistical release P0309.3.</b> []</note>
          </bibl>
          <bibl id="B29">
             <note>Odeny T, Penner J, Lewis-Kulzer J, Leslie HH, Shade SB, Adero W, Kioko J, Cohen CR, Bukusi EA: <b>Integration of HIV Care with Primary Health Care Services: Effect on Patient Satisfaction and Stigma in Rural Kenya.</b>
                <it>AIDS Res Treat</it> 2013, http://dx.doi.org/10.1155/2013/485715.</note>
          </bibl>
       </refgrp>
    </bm>
 </art>
