<art>
    <ui>s12913-014-0554-9</ui>
    <ji>1472-6963</ji>
    <fm>
       <dochead>Research article</dochead>
       <bibl>
          <title>
             <p>Impact of population ageing on the costs of hospitalisations for cardiovascular disease: a population-based data linkage study</p>
          </title>
          <aug>
             <au id="A1" ca="yes">
                <snm>Ha</snm>
                <mnm>Thi</mnm>
                <fnm>Ninh</fnm>
                <insr iid="I1"/>
                <email>ninh.ha05@gmail.com</email>
             </au>
             <au id="A2">
                <snm>Hendrie</snm>
                <fnm>Delia</fnm>
                <insr iid="I2"/>
                <email>d.v.hendrie@curtin.edu.au</email>
             </au>
             <au id="A3">
                <snm>Moorin</snm>
                <fnm>Rachael</fnm>
                <insr iid="I3"/>
                <email>R.moorin@curtin.edu.au</email>
             </au>
          </aug>
          <insg>
             <ins id="I1">
                <p>Department of Community Health, Institute of Public Health at Ho Chi Minh City, 159 Hung Phu street, District 8, Ho Chi Minh City, Vietnam</p>
             </ins>
             <ins id="I2">
                <p>School of Public Health, Curtin University, Bentley, Perth, Western Australia</p>
             </ins>
             <ins id="I3">
                <p>Faculty of Health Science, Curtin University, Bentley, Perth, Western Australia</p>
             </ins>
          </insg>
          <source>BMC Health Services Research</source>
          <issn>1472-6963</issn>
          <pubdate>2014</pubdate>
          <volume>14</volume>
          <issue>1</issue>
          <fpage>554</fpage>
          <url>http://www.biomedcentral.com/1472-6963/14/554</url>
          <xrefbib>
             <pubidlist>
                <pubid idtype="doi">10.1186/s12913-014-0554-9</pubid>
             </pubidlist>
          </xrefbib>
       </bibl>
       <history>
          <rec>
             <date>
                <day>19</day>
                <month>3</month>
                <year>2014</year>
             </date>
          </rec>
          <acc>
             <date>
                <day>24</day>
                <month>10</month>
                <year>2014</year>
             </date>
          </acc>
          <pub>
             <date>
                <day>13</day>
                <month>11</month>
                <year>2014</year>
             </date>
          </pub>
       </history>
       <cpyrt>
          <year>2014</year>
          <collab>Ha et al.; licensee BioMed Central Ltd.</collab>
          <note>This is an Open Access article distributed under the terms of the Creative Commons Attribution License (<url>http://creativecommons.org/licenses/by/4.0</url>), which permits unrestricted use, distribution, and reproduction in any medium, provided the original work is properly credited. The Creative Commons Public Domain Dedication waiver (<url>http://creativecommons.org/publicdomain/zero/1.0/</url>) applies to the data made available in this article, unless otherwise stated.</note>
       </cpyrt>
       <kwdg>
          <kwd>Cardiovascular disease</kwd>
          <kwd>Health expenditures</kwd>
          <kwd>Population ageing</kwd>
          <kwd>Data linkage</kwd>
       </kwdg>
       <abs>
          <sec>
             <st>
                <p>Abstract</p>
             </st>
             <sec>
                <st>
                   <p>Background</p>
                </st>
                <p>Cardiovascular disease (CVD) is the most costly disease in Australia. Measuring the impact of ageing on its costs is needed for planning future healthcare budget. The aim of this study was to measure the impact of changes in population age structure in Western Australia (WA) on the costs of hospitalisation for CVD.</p>
             </sec>
             <sec>
                <st>
                   <p>Methods</p>
                </st>
                <p>All hospitalisation records for CVD occurring in WA in 1993/94 and 2003/04 inclusive were extracted from the WA Hospital Morbidity Data System (HMDS) via the WA Data Linkage System. Inflation adjusted hospitalisation costs using 2012 as the base year was assigned to all episodes of care using Australian Refined Diagnosis Related Group (AR-DRG) costing information. The component decomposition method was used to measure the contribution of ageing and other factors to the increase of hospitalisation costs for CVD.</p>
             </sec>
             <sec>
                <st>
                   <p>Results</p>
                </st>
                <p>Between 1993/94 and 2003/04, population ageing contributed 23% and 30% respectively of the increase in CVD hospitalisation costs for men and women. The impact of ageing on hospitalisation costs was far greater for chronic conditions than acute coronary syndrome (ACS) and stroke.</p>
             </sec>
             <sec>
                <st>
                   <p>Conclusions</p>
                </st>
                <p>Given the impact of ageing on hospitalisation costs, and the disparity between chronic and acute conditions, disease-specific factors should be considered in planning for future healthcare expenditure.</p>
             </sec>
          </sec>
       </abs>
    </fm>
    <bdy>
       <sec>
          <st>
             <p>Background</p>
          </st>
          <p>The population in developed countries is ageing as a result of the increase in life expectancy and low fertility <abbrgrp>
                <abbr bid="B1">1</abbr>
             </abbrgrp>. It is generally agreed that these ageing populations will cause a considerable socioeconomic impact for the community as a whole and healthcare systems in particular <abbrgrp>
                <abbr bid="B2">2</abbr>
             </abbrgrp>. However, an explanation for the link between healthcare expenditure and ageing is still a &#8216;black box&#8217; <abbrgrp>
                <abbr bid="B1">1</abbr>
             </abbrgrp>. To guide health policy, it is important to examine closely the influence of ageing on healthcare expenditure within a particular country.</p>
          <p>In Australia, the proportion of those aged 65&#160;years and older has increased from 11.1% in 1990 to 13.6% in 2010 <abbrgrp>
                <abbr bid="B3">3</abbr>
             </abbrgrp>. It is projected that the proportion will increase to 16% by 2016 and 25% by 2051 <abbrgrp>
                <abbr bid="B2">2</abbr>
             </abbrgrp>. Simultaneously, over the past decade, healthcare expenditure has increased at a rate higher than that of other goods and services <abbrgrp>
                <abbr bid="B4">4</abbr>
             </abbrgrp>. The age-expenditure profile shows that higher costs are spent on the older population, for example, expenditure on healthcare for those aged 65&#160;years and older was four times higher than those under 65&#160;years <abbrgrp>
                <abbr bid="B2">2</abbr>
             </abbrgrp>,<abbrgrp>
                <abbr bid="B5">5</abbr>
             </abbrgrp>. Coupled with this, the life span living with disability has also been found to be increasing in many studies <abbrgrp>
                <abbr bid="B6">6</abbr>
             </abbrgrp>,<abbrgrp>
                <abbr bid="B7">7</abbr>
             </abbrgrp>. Due to this expansion in morbidity, the demand for healthcare services is likely to increase, in turn escalating healthcare expenditure <abbrgrp>
                <abbr bid="B2">2</abbr>
             </abbrgrp>,<abbrgrp>
                <abbr bid="B8">8</abbr>
             </abbrgrp>.</p>
          <p>While the relationship between ageing and healthcare expenditure in Australian and other developed countries has been examined in the literature <abbrgrp>
                <abbr bid="B1">1</abbr>
             </abbrgrp>,<abbrgrp>
                <abbr bid="B5">5</abbr>
             </abbrgrp>,<abbrgrp>
                <abbr bid="B9">9</abbr>
             </abbrgrp>-<abbrgrp>
                <abbr bid="B12">12</abbr>
             </abbrgrp>, there is a discordance regarding the magnitude of the impact of ageing on healthcare expenditure. For instance, studies in France have found that only 3.4% of the rise in healthcare expenditure was attributable to ageing while in Korea it was approximately 10% <abbrgrp>
                <abbr bid="B9">9</abbr>
             </abbrgrp>,<abbrgrp>
                <abbr bid="B13">13</abbr>
             </abbrgrp>. In contrast, a study in Australia projected that the ageing population would contribute to almost 50% of the increase in healthcare expenditure between 2002/03 and 2044/45 <abbrgrp>
                <abbr bid="B5">5</abbr>
             </abbrgrp>. Although those studies examined the impact of ageing on healthcare expenditure, each study were focused on different type of expenditure. The study in France were looked at a combination of ambulatory, pharmaceutical and hospitalisation costs while costs of health insurance in Korean, and government healthcare expenditure in Australia were examined. Country specific factors may be the cause of differences in the impact of ageing on healthcare expenditure <abbrgrp>
                <abbr bid="B14">14</abbr>
             </abbrgrp>,<abbrgrp>
                <abbr bid="B15">15</abbr>
             </abbrgrp>.</p>
          <p>Currently, cardiovascular disease (CVD) is a leading cause of death in Australia and the most costly disease, accounting for 11% of total healthcare expenditure in 2005/06 <abbrgrp>
                <abbr bid="B16">16</abbr>
             </abbrgrp>, with hospital services comprising the largest component of CVD total expenditure <abbrgrp>
                <abbr bid="B17">17</abbr>
             </abbrgrp>. Ageing is an unmodifiable risk factor of all disease, including CVD. Thus, the ageing population may cause a considerable burden for costs of CVD. However, there is limited literature about the impact of the ageing population on the costs of CVD-related hospitalisation. Considering the rise in healthcare costs and the relative burden of CVD, an understanding of the magnitude of the impact of ageing on costs of treatment for CVD in Western Australia (WA) will provide a useful evidence base for planning and budgetary purposes and future policy formulation. The aim of the study was to measure the contribution of population ageing to the hospitalisation costs for CVD in WA, using the component decomposition method. Through the method, the hospitalisation costs were decomposed into subcomponents and subsequently costs attributable to ageing of the population in each component over a period of time were isolated.</p>
       </sec>
       <sec>
          <st>
             <p>Methods</p>
          </st>
          <sec>
             <st>
                <p>Study population and data source</p>
             </st>
             <p>All hospitalisations occurring in Western Australia pertaining to patients aged 18&#160;years and older with a principal or co-diagnosis CVD code from 1 July 1993 to 30 June 2004 were extracted from the Hospital Morbidity Data System (HMDS) using the Western Australian Data Linkage System (WADLS) described elsewhere <abbrgrp>
                   <abbr bid="B18">18</abbr>
                </abbrgrp>,<abbrgrp>
                   <abbr bid="B19">19</abbr>
                </abbrgrp>. The HMDC captures records of separations from all public, private acute care and psychiatric hospitals and private freestanding day hospital facilities in Western Australia <abbrgrp>
                   <abbr bid="B20">20</abbr>
                </abbrgrp>. The relevant CVD codes of hospitalisations were identified using the International Classification of Disease (ICD) codes version current at the time of separation from hospital and are detailed in the following sub section. Prior to data extraction, ethics approval for this study was obtained from the Human Research Ethics Committee at the University of Western Australia and Curtin University.</p>
          </sec>
          <sec>
             <st>
                <p>Case selection and classification</p>
             </st>
             <p>Common types of CVD in Australia were included in this study. Relevant ICD codes to identify hospitalisations with CVD were obtained from publications produced by the Australian Institute of Health and Welfare (AIHW <abbrgrp>
                   <abbr bid="B17">17</abbr>
                </abbrgrp> and L Nedkoff, TG Briffa, DB Preen, FM Sanfilippo, J Hung, SC Ridout, M Knuiman and M Hobbs <abbrgrp>
                   <abbr bid="B21">21</abbr>
                </abbrgrp>. Events were defined as CVD when they were recorded as either heart failure, or angina pectoris, or acute myocardial infarction, or unstable angina or stroke. All records were subsequently grouped into three subgroups, namely chronic conditions (ICD 9_CM 428, and 413, ICD 10-AM I50, and I20), acute coronary syndromes (ACS) (ICD 9_CM 410, and 411.1, ICD 10-AM I21, and I20.0) and stroke (ICD 9_CM 430&#8211;432 and 436, ICD 10-AM I60-I64).</p>
             <p>The individual records of hospitalisation were aggregated into episodes of care, defined as a period of continuous hospitalisation. Inter-hospital transfers were periods of in-patient hospitalisation that overlapped with each other or where separation (discharge) and admission dates were on sequential days. Capture of transfers between hospitals is required in order to avoid over counting of the number of hospitalisation events. In our study periods of contiguous in-patient hospitalisation were classified as episodes of care. The episode of care was assigned to one of 17 age groups (18&#8211;19, 20&#8211;24 to 90&#8211;94 in five-year age groups and 95+ years) determined by the age in years at admission time of each individual. The first age group comprised only two years (18&#8211;19 years) since data extraction was restricted to hospitalisation records for individuals from 18&#160;years and over.</p>
          </sec>
          <sec>
             <st>
                <p>Assigning cost to episodes of care</p>
             </st>
             <p>The Australian Refined Diagnosis Related Group is an Australian admitted patient classification system, which provides a way of relating the number and type of patients treated in a hospital to the resources required by the hospital. Acute admitted patient episodes of care are categorised into groups with similar conditions and similar usage of hospital resources, using information in the hospital morbidity record such as the diagnoses, procedures and demographic characteristics of patient.</p>
             <p>The cost of each episode of care was assigned based on AR-DRG code recorded in the HMDS record for each record of hospitalisation included within an episode of care (where there were inter-hospital transfers). The cost attributed to each AR-DRG was that reported for that AR-DRG in the National Hospital Cost Data Collection Report relevant to the year of each separation <abbrgrp>
                   <abbr bid="B22">22</abbr>
                </abbrgrp>. The cost was assigned inclusive for all hospitalisation events in database before adjusting for the inter-hospital transfers and therefore included multiple records in the case of inter-hospital transfer. Thus, the costs of the inter-hospital transfer episodes were a sum of any records which formed the episode of care. The hospitalisation costs included medications, investigation undertaken whole admitted, physicians, nursing staff, operating theatre, emergency department and &#8220;hotel&#8221; costs but not included rehabilitation costs. All dollar values were adjusted to 2012 price levels, using health price indices calculated from the Health and Welfare expenditure series of the AIHW <abbrgrp>
                   <abbr bid="B23">23</abbr>
                </abbrgrp>,<abbrgrp>
                   <abbr bid="B24">24</abbr>
                </abbrgrp>.</p>
          </sec>
          <sec>
             <st>
                <p>Statistical analysis</p>
             </st>
             <p>The total number of episodes (E) and cost per episode (CPE) were calculated in five-year age groups by sex and diagnosis subgroup at two points of time, 1993/94 and 2003/04. Number of episodes per capita (NEC) for gender <it>x</it> and age-specific group <it>j</it> was calculated separately for chronic conditions, ACS, stroke and overall CVD:</p>
             <p>
                <inline-formula>
                   <m:math xmlns:m="http://www.w3.org/1998/Math/MathML" name="s12913-014-0554-9-i1">
                      <m:mi>N</m:mi>
                      <m:mi>E</m:mi>
                      <m:msub>
                         <m:mi>C</m:mi>
                         <m:mrow>
                            <m:mi>x</m:mi>
                            <m:mi>j</m:mi>
                         </m:mrow>
                      </m:msub>
                      <m:mo>=</m:mo>
                      <m:mfrac>
                         <m:mrow>
                            <m:mi mathvariant="italic">Ex</m:mi>
                            <m:mo>,</m:mo>
                            <m:mi>j</m:mi>
                         </m:mrow>
                         <m:mrow>
                            <m:mi>P</m:mi>
                            <m:mi>x</m:mi>
                            <m:mo>,</m:mo>
                            <m:mi>j</m:mi>
                         </m:mrow>
                      </m:mfrac>
                   </m:math>
                </inline-formula>, where <it>Ex,j</it> is the number episodes for gender <it>x</it> and age-specific group <it>j</it>; <it>Px,j</it> is the WA population in gender x and age group j for that year (obtained from the Australian Bureau of Statistic Time Series Workbook Table 55 (ABS 3101.0)) as the denominator <abbrgrp>
                   <abbr bid="B25">25</abbr>
                </abbrgrp>. The rates were calculated per 100,000 population.</p>
             <p>The cost per episode (CPE) for gender x and age specific group j was calculated for chronic conditions, ACS, stroke and overall CVD as following: <inline-formula>
                   <m:math xmlns:m="http://www.w3.org/1998/Math/MathML" name="s12913-014-0554-9-i2">
                      <m:mi mathvariant="normal">C</m:mi>
                      <m:mi mathvariant="normal">P</m:mi>
                      <m:mi mathvariant="normal">E</m:mi>
                      <m:mo>=</m:mo>
                      <m:mfrac>
                         <m:mrow>
                            <m:mi>C</m:mi>
                            <m:mi>x</m:mi>
                            <m:mo>,</m:mo>
                            <m:mi>j</m:mi>
                         </m:mrow>
                         <m:mrow>
                            <m:mi mathvariant="italic">Ex</m:mi>
                            <m:mo>,</m:mo>
                            <m:mi>j</m:mi>
                         </m:mrow>
                      </m:mfrac>
                   </m:math>
                </inline-formula>, where <it>Cx,j</it> is total cost in gender <it>x</it> and age group <it>j</it>; <it>Ex,j</it> is the number of episodes in gender <it>x</it> and age group <it>j</it>.</p>
             <p>In our study, the impact of population ageing on the hospitalisation costs for CVD was measured using the method that was adapted from the principles of the component decomposition method used in studies in Australia and Korea <abbrgrp>
                   <abbr bid="B12">12</abbr>
                </abbrgrp>,<abbrgrp>
                   <abbr bid="B13">13</abbr>
                </abbrgrp>. The previous studies, the change in healthcare expenditure was attributable to the impact of ageing, the growth of population over time, change in proportion of people using healthcare services and change in average cost per episode <abbrgrp>
                   <abbr bid="B12">12</abbr>
                </abbrgrp>,<abbrgrp>
                   <abbr bid="B13">13</abbr>
                </abbrgrp>. Similar to the studies, the change in total costs of hospitalisation for CVD over a period of time were attributable to following components: population growth, ageing of the population, the increase in total number of episodes of hospitalisations and the increase in average cost per episode. Steps to calculate proportion of contribution of each component to the change in total costs of hospitalisation for CVD between 1993/94 and 2004/05 were described in detail below.</p>
             <p>The total costs of hospitalisations for disease <it>d</it> in each year was decomposed by the following equation:</p><p><display-formula id="M1">
                   <m:math xmlns:m="http://www.w3.org/1998/Math/MathML" name="s12913-014-0554-9-i3">
                      <m:mtable columnalign="left">
                         <m:mtr>
                            <m:mtd>
                               <m:mi mathvariant="italic">Total</m:mi>
                               <m:mspace width="0.25em"/>
                               <m:mi mathvariant="italic">hospitalisation</m:mi>
                               <m:mspace width="0.25em"/>
                               <m:mi mathvariant="italic">cost</m:mi>
                               <m:msub>
                                  <m:mi>s</m:mi>
                                  <m:mi>d</m:mi>
                               </m:msub>
                               <m:mspace width="0.25em"/>
                               <m:mo>=</m:mo>
                               <m:mspace width="0.25em"/>
                            </m:mtd>
                         </m:mtr>
                         <m:mtr>
                            <m:mtd>
                               <m:mo stretchy="true">&#8721;</m:mo>
                               <m:mrow>
                                  <m:mspace width="0.25em"/>
                               </m:mrow>
                               <m:mi>W</m:mi>
                               <m:mi>A</m:mi>
                               <m:mspace width="0.25em"/>
                               <m:mi mathvariant="italic">populatio</m:mi>
                               <m:msub>
                                  <m:mi>n</m:mi>
                                  <m:mi>j</m:mi>
                               </m:msub>
                               <m:mo>*</m:mo>
                               <m:mspace width="0.25em"/>
                               <m:mi mathvariant="italic">number</m:mi>
                               <m:mspace width="0.25em"/>
                               <m:mi mathvariant="italic">of</m:mi>
                               <m:mspace width="0.25em"/>
                               <m:mi mathvariant="italic">episode</m:mi>
                               <m:mspace width="0.25em"/>
                               <m:mi mathvariant="italic">per</m:mi>
                               <m:mspace width="0.25em"/>
                               <m:mi mathvariant="italic">capit</m:mi>
                               <m:msub>
                                  <m:mi>a</m:mi>
                                  <m:mrow>
                                     <m:mi>d</m:mi>
                                     <m:mo>,</m:mo>
                                     <m:mi>j</m:mi>
                                  </m:mrow>
                               </m:msub>
                               <m:mo>*</m:mo>
                               <m:mspace width="0.25em"/>
                            </m:mtd>
                         </m:mtr>
                         <m:mtr>
                            <m:mtd>
                               <m:mi mathvariant="italic">cost</m:mi>
                               <m:mspace width="0.25em"/>
                               <m:mi mathvariant="italic">per</m:mi>
                               <m:mspace width="0.25em"/>
                               <m:mi mathvariant="italic">episod</m:mi>
                               <m:msub>
                                  <m:mi>e</m:mi>
                                  <m:mrow>
                                     <m:mi>d</m:mi>
                                     <m:mo>,</m:mo>
                                     <m:mi>j</m:mi>
                                  </m:mrow>
                               </m:msub>
                               <m:mi mathvariant="italic">;where</m:mi>
                               <m:mspace width="0.25em"/>
                               <m:mi>j</m:mi>
                               <m:mspace width="0.25em"/>
                               <m:mi mathvariant="italic">denotes</m:mi>
                               <m:mspace width="0.25em"/>
                               <m:mi mathvariant="italic">five</m:mi>
                               <m:mo>&#8722;</m:mo>
                               <m:mi mathvariant="italic">year</m:mi>
                               <m:mspace width="0.25em"/>
                               <m:mi mathvariant="italic">age</m:mi>
                               <m:mspace width="0.25em"/>
                               <m:mi mathvariant="italic">groups</m:mi>
                            </m:mtd>
                         </m:mtr>
                      </m:mtable>
                   </m:math>
                </display-formula></p><p>
             </p>
             <p>From equation (<formr mid="M1">1</formr>), the change in the WA population over the study period can be decomposed into a change in the total population and a change in the age distribution of population. Similarly, the change in the number of hospital episodes per capita can be decomposed into a change in the total number of episodes and a change in the age distribution of episodes. Thus, a difference in the total hospitalisation costs between 1993/94 and 2003/04 (DHC) was attributable to the change in total population (CPOP), the change in the age distribution of population (CDEM1), the change in the total number of episodes (CTNE), the change in the age distribution of episodes (CDEM2) and a change in cost per episode (CCPE).</p>
             <p>A change in total hospitalisation costs for a disease <it>d</it> for the time period <it>t</it> (1993/93 and 2003/04) was</p><p><display-formula>
                   <m:math xmlns:m="http://www.w3.org/1998/Math/MathML" name="s12913-014-0554-9-i4">
                      <m:mi mathvariant="normal">D</m:mi>
                      <m:mi mathvariant="normal">H</m:mi>
                      <m:msub>
                         <m:mi mathvariant="normal">C</m:mi>
                         <m:mi mathvariant="normal">d</m:mi>
                      </m:msub>
                      <m:mspace width="0.25em"/>
                      <m:mo>=</m:mo>
                      <m:mspace width="0.25em"/>
                      <m:mi mathvariant="normal">C</m:mi>
                      <m:mi mathvariant="normal">P</m:mi>
                      <m:mi mathvariant="normal">O</m:mi>
                      <m:msub>
                         <m:mi mathvariant="normal">P</m:mi>
                         <m:mi mathvariant="normal">d</m:mi>
                      </m:msub>
                      <m:mspace width="0.25em"/>
                      <m:mo>+</m:mo>
                      <m:mspace width="0.25em"/>
                      <m:mi mathvariant="normal">CDEM</m:mi>
                      <m:msub>
                         <m:mn>1</m:mn>
                         <m:mi mathvariant="normal">d</m:mi>
                      </m:msub>
                      <m:mspace width="0.25em"/>
                      <m:mo>+</m:mo>
                      <m:mspace width="0.25em"/>
                      <m:mi mathvariant="normal">CDEM</m:mi>
                      <m:msub>
                         <m:mn>2</m:mn>
                         <m:mi mathvariant="normal">d</m:mi>
                      </m:msub>
                      <m:mspace width="0.25em"/>
                      <m:mo>+</m:mo>
                      <m:mspace width="0.25em"/>
                      <m:mi mathvariant="normal">C</m:mi>
                      <m:mi mathvariant="normal">T</m:mi>
                      <m:mi mathvariant="normal">N</m:mi>
                      <m:msub>
                         <m:mi mathvariant="normal">E</m:mi>
                         <m:mi mathvariant="normal">d</m:mi>
                      </m:msub>
                      <m:mspace width="0.25em"/>
                      <m:mo>+</m:mo>
                      <m:mspace width="0.25em"/>
                      <m:mi mathvariant="normal">C</m:mi>
                      <m:mi mathvariant="normal">C</m:mi>
                      <m:mi mathvariant="normal">P</m:mi>
                      <m:msub>
                         <m:mi mathvariant="normal">E</m:mi>
                         <m:mi mathvariant="normal">d</m:mi>
                      </m:msub>
                   </m:math>
                </display-formula></p><p>
             </p>
             <p>The total of changes attributable to the change in the age structure of the population (CDEM1<sub>
                   <it>d</it>
                </sub>) and to the distribution of hospitalisation between age groups CDEM2<sub>
                   <it>d</it>
                </sub> reflect the impact of ageing on total costs, thus impact of ageing&#8201;=&#8201;CDEM1<sub>
                   <it>d</it>
                </sub>&#8201;+&#8201;CDEM2<sub>
                   <it>d</it>
                </sub>. Through this analysis the impact of the ageing of the population on the cost of hospitalisation for CVD was isolated from the respective costs of the increase in the general population and the total number of hospitalisations.</p>
             <p>In order to calculate the proportion of contribution of each component, an age-specific cost profile, represents the per capita healthcare cost of a specific age group, was applied <abbrgrp>
                   <abbr bid="B26">26</abbr>
                </abbrgrp>. By holding age-specific cost profiles constant, this approach has an assumption that the impact of other variables with potential influence on healthcare cost does not change <abbrgrp>
                   <abbr bid="B26">26</abbr>
                </abbrgrp>. Although the assumption is unrealistic, it is useful for the purpose of isolating the impact of demographic changes (ageing population). The method has been used in many studies <abbrgrp>
                   <abbr bid="B12">12</abbr>
                </abbrgrp>,<abbrgrp>
                   <abbr bid="B26">26</abbr>
                </abbrgrp>,<abbrgrp>
                   <abbr bid="B27">27</abbr>
                </abbrgrp>.</p>
             <p>In our study, to capture the proportion of each component contributing to the difference in total cost of hospitalisation in the period, each component in initial year (1993/94) was moved to actual value in 2003/04 in sequence. As each component in the assumption was changed, the difference in total cost of hospitalisation between initial year (1993/94) and the assumed final year (2003/04) was attributable to whichever component was affected by the change in assumption. Each assumption using the actual value in 2003/04, the sum of the change in individual components is equal to the change in total cost between the two points of time. Details of the calculations are presented in Additional file <supplr sid="S1">1</supplr>.</p><p>While it is common practice that sensitivity analysis is conducted on health economic analyses to evaluate the effect of various assumptions and the averaging of values have on the magnitude of the final outcome, in this study there were no assumptions made since the data were not a sample and the number of hospitalisations and costs were those recorded directly in the data set. Thus there were no values that could be varied for use in a sensitivity analysis. Descriptive analysis was conducted using SPSS version 18. Calculations for the decomposition analysis were done in Microsoft Excel 2010.</p>
          </sec>
       </sec>
       <sec>
          <st>
             <p>Results</p>
          </st>
          <p>The dataset consisted of 25,126 episodes of care for any discharged diagnosis with CVD reported in the WADLS in 1993/94 and 2003/04, of which almost 90% were for chronic conditions and ACS and only 11.7% for stroke (Table&#160;<tblr tid="T1">1</tblr>). Patients admitted for chronic conditions tended to be older, and those admitted with ACS younger, than the mean age across all CVD patients of 70.3&#160;years (SD 12.9 years) in 1993/94 and to 69.7&#160;years (SD 13.8&#160;years) in 2003/04. The proportion of men was higher than women in all hospitalisations for CVD and subgroups. Compared with 1993/94, the number of episode per 100,000 population and mean cost per episode in 2003/04 were higher for CVD and all subgroups (Table&#160;<tblr tid="T1">1</tblr>).</p>
          
             <table id="T1">
                <title>
                   <p>Table 1</p>
                </title>
                <caption>
                   <p>
                      <b>Characteristics of hospitalisations for cardiovascular disease and subgroups</b>
                   </p>
                </caption>
                <tgroup align="left" cols="5">
                   <colspec align="left" colname="c1" colnum="1" colwidth="*"/>
                   <colspec align="left" colname="c2" colnum="2" colwidth="*"/>
                   <colspec align="left" colname="c3" colnum="3" colwidth="*"/>
                   <colspec align="left" colname="c4" colnum="4" colwidth="*"/>
                   <colspec align="left" colname="c5" colnum="5" colwidth="*"/>
                   <thead>
                      <row valign="top">
                         <entry colname="c1"/>
                         <entry colname="c2">
                            <p>
                               <b>CVD</b>
                            </p>
                         </entry>
                         <entry colname="c3">
                            <p>
                               <b>Chronic conditions</b>
                            </p>
                         </entry>
                         <entry colname="c4">
                            <p>
                               <b>ACS</b>
                            </p>
                         </entry>
                         <entry colname="c5">
                            <p>
                               <b>Stroke</b>
                            </p>
                         </entry>
                      </row>
                   </thead>
                   <tbody>
                      <row valign="top">
                         <entry colname="c1">
                            <p>
                               <b>Total episodes</b>
                            </p>
                         </entry>
                         <entry colname="c2">
                            <p>25,126 (100.0)</p>
                         </entry>
                         <entry colname="c3">
                            <p>11,334 (45.1)</p>
                         </entry>
                         <entry colname="c4">
                            <p>10,845 (43.5)</p>
                         </entry>
                         <entry colname="c5">
                            <p>2,947 (11.7)</p>
                         </entry>
                      </row>
                      <row valign="top">
                         <entry colname="c1">
                            <p>1993/94</p>
                         </entry>
                         <entry colname="c2">
                            <p>10,592 (100.0)</p>
                         </entry>
                         <entry colname="c3">
                            <p>4,645 (43.9)</p>
                         </entry>
                         <entry colname="c4">
                            <p>4,669 (44.1)</p>
                         </entry>
                         <entry colname="c5">
                            <p>1,278 (12.1)</p>
                         </entry>
                      </row>
                      <row valign="top">
                         <entry colname="c1">
                            <p>2003/04</p>
                         </entry>
                         <entry colname="c2">
                            <p>14,534 (100.0)</p>
                         </entry>
                         <entry colname="c3">
                            <p>6,689 (46.0)</p>
                         </entry>
                         <entry colname="c4">
                            <p>6,176 (42.5)</p>
                         </entry>
                         <entry colname="c5">
                            <p>1,669 (11.5)</p>
                         </entry>
                      </row>
                      <row valign="top">
                         <entry colname="c1">
                            <p>
                               <b>Age (mean (SD))</b>
                            </p>
                         </entry>
                         <entry colname="c2"/>
                         <entry colname="c3"/>
                         <entry colname="c4"/>
                         <entry colname="c5"/>
                      </row>
                      <row valign="top">
                         <entry colname="c1">
                            <p>1993/94</p>
                         </entry>
                         <entry colname="c2">
                            <p>70.3 (12.9)</p>
                         </entry>
                         <entry colname="c3">
                            <p>73.2 (12.5)</p>
                         </entry>
                         <entry colname="c4">
                            <p>67.4 (12.9)</p>
                         </entry>
                         <entry colname="c5">
                            <p>69.9 (12.2)</p>
                         </entry>
                      </row>
                      <row valign="top">
                         <entry colname="c1">
                            <p>2003/04</p>
                         </entry>
                         <entry colname="c2">
                            <p>69.7 (13.8)</p>
                         </entry>
                         <entry colname="c3">
                            <p>71.3 (13.4)</p>
                         </entry>
                         <entry colname="c4">
                            <p>67.8 (13.6)</p>
                         </entry>
                         <entry colname="c5">
                            <p>70.5 (15.2)</p>
                         </entry>
                      </row>
                      <row valign="top">
                         <entry colname="c1">
                            <p>
                               <b>Sex</b>
                            </p>
                         </entry>
                         <entry colname="c2"/>
                         <entry colname="c3"/>
                         <entry colname="c4"/>
                         <entry colname="c5"/>
                      </row>
                      <row valign="top">
                         <entry colname="c1">
                            <p>1993/94</p>
                         </entry>
                         <entry colname="c2"/>
                         <entry colname="c3"/>
                         <entry colname="c4"/>
                         <entry colname="c5"/>
                      </row>
                      <row valign="top">
                         <entry colname="c1">
                            <p>Men</p>
                         </entry>
                         <entry colname="c2">
                            <p>6,064 (57.3)</p>
                         </entry>
                         <entry colname="c3">
                            <p>2,354 (50.7)</p>
                         </entry>
                         <entry colname="c4">
                            <p>2,903 (62.2)</p>
                         </entry>
                         <entry colname="c5">
                            <p>807 (63.1)</p>
                         </entry>
                      </row>
                      <row valign="top">
                         <entry colname="c1">
                            <p>Women</p>
                         </entry>
                         <entry colname="c2">
                            <p>4,528 (42.7)</p>
                         </entry>
                         <entry colname="c3">
                            <p>2,291 (49.3)</p>
                         </entry>
                         <entry colname="c4">
                            <p>1,766 (37.8)</p>
                         </entry>
                         <entry colname="c5">
                            <p>471 (36.9)</p>
                         </entry>
                      </row>
                      <row valign="top">
                         <entry colname="c1">
                            <p>2003/04</p>
                         </entry>
                         <entry colname="c2"/>
                         <entry colname="c3"/>
                         <entry colname="c4"/>
                         <entry colname="c5"/>
                      </row>
                      <row valign="top">
                         <entry colname="c1">
                            <p>Men</p>
                         </entry>
                         <entry colname="c2">
                            <p>8,760 (60.3)</p>
                         </entry>
                         <entry colname="c3">
                            <p>3,991 (59.7)</p>
                         </entry>
                         <entry colname="c4">
                            <p>3,927 (63.6)</p>
                         </entry>
                         <entry colname="c5">
                            <p>842 (50.4)</p>
                         </entry>
                      </row>
                      <row valign="top">
                         <entry colname="c1">
                            <p>Women</p>
                         </entry>
                         <entry colname="c2">
                            <p>5,774 (39.7)</p>
                         </entry>
                         <entry colname="c3">
                            <p>2,698 (40.3)</p>
                         </entry>
                         <entry colname="c4">
                            <p>2,249 (36.4)</p>
                         </entry>
                         <entry colname="c5">
                            <p>827 (49.6)</p>
                         </entry>
                      </row>
                      <row valign="top">
                         <entry nameend="c3" namest="c1">
                            <p>
                               <b>Number of episode per capita (per 100,000)</b>
                            </p>
                         </entry>
                         <entry colname="c4"/>
                         <entry colname="c5"/>
                      </row>
                      <row valign="top">
                         <entry colname="c1">
                            <p>1993/94</p>
                         </entry>
                         <entry colname="c2">
                            <p>852.6</p>
                         </entry>
                         <entry colname="c3">
                            <p>373.9</p>
                         </entry>
                         <entry colname="c4">
                            <p>375.8</p>
                         </entry>
                         <entry colname="c5">
                            <p>102.9</p>
                         </entry>
                      </row>
                      <row valign="top">
                         <entry colname="c1">
                            <p>2003/04</p>
                         </entry>
                         <entry colname="c2">
                            <p>972.4</p>
                         </entry>
                         <entry colname="c3">
                            <p>447.5</p>
                         </entry>
                         <entry colname="c4">
                            <p>413.2</p>
                         </entry>
                         <entry colname="c5">
                            <p>111.7</p>
                         </entry>
                      </row>
                      <row valign="top">
                         <entry nameend="c2" namest="c1">
                            <p>
                               <b>Mean cost per episode (A$)</b>
                            </p>
                         </entry>
                         <entry colname="c3"/>
                         <entry colname="c4"/>
                         <entry colname="c5"/>
                      </row>
                      <row valign="top">
                         <entry colname="c1">
                            <p>1993/94</p>
                         </entry>
                         <entry colname="c2">
                            <p>6,013.5 (4,134.4)</p>
                         </entry>
                         <entry colname="c3">
                            <p>5,280.7 (2,441.1)</p>
                         </entry>
                         <entry colname="c4">
                            <p>6,482.8 (5,126.7)</p>
                         </entry>
                         <entry colname="c5">
                            <p>6,962.8 (4,512.5)</p>
                         </entry>
                      </row>
                      <row valign="top">
                         <entry colname="c1">
                            <p>2003/04</p>
                         </entry>
                         <entry colname="c2">
                            <p>8,040.3 (8,957.9)</p>
                         </entry>
                         <entry colname="c3">
                            <p>6,428.8 (7,002.4)</p>
                         </entry>
                         <entry colname="c4">
                            <p>8,548.1 (8,276.1)</p>
                         </entry>
                         <entry colname="c5">
                            <p>12,619.4 (14,718.5)</p>
                         </entry>
                      </row>
                   </tbody>
                </tgroup>
             </table>
          
          <p>The results of the component decomposition analysis are presented in Figure&#160;<figr fid="F1">1</figr>. For overall CVD, the contribution of population ageing to the increase in the total cost of hospitalisation was 22.9% in men and 22.7% in women. If only total population had grown, but the age distribution remained constant as in 1993/94, the total costs of hospitalisation for CVD would have increased by 21.5% in men and 30.1% in women. More than half of the increase the total hospitalisation costs was attributable to the increase in average cost per episode. In contrast, if only the change in the number of episodes was considered, total cost would have reduced by 12.6% in women and increased by only 2.7% in men.</p>
          
             <fig id="F1">
                <title>
                   <p>Figure 1</p>
                </title>
                <caption>
                   <p>Decomposition of increasing total costs of hospitalisation for CVD and sub-groups by components among men and women in 1993/94 to 2003/04.</p>
                </caption>
                <text>
                   <p>
                      <b>Decomposition of increasing total costs of hospitalisation for CVD and sub-groups by components among men and women in 1993/94 to 2003/04.</b>
                   </p>
                </text>
                <graphic file="s12913-014-0554-9-1"/>
             </fig>
          
          <p>As shown in Figure&#160;<figr fid="F1">1</figr>, the contribution of the ageing population to the increase in the total costs of hospitalisation varied according to the subgroups, especially among women. For chronic conditions, ageing of the population accounted for over 50% of the rise in total costs among women, but only 23.5% in women with ACS and 1.7% in women with stroke. If only the change in the mean cost per episode was taken into account, this component would contribute to nearly 50% of the rise in the total costs of hospitalisation for chronic conditions and ACS in both men and women. In contrast, the change in the mean cost per episode accounted for 96.2% and 70.9% in men and women respectively of the increase in the total costs of hospitalisation for stroke.</p>
          <p>The contribution of the ageing population to the rise in the total costs of hospitalisation distinctly differed between men and women (Figure&#160;<figr fid="F1">1</figr>). For example, the contribution of ageing to the rise of the total costs of hospitalisation was almost three times higher in women than men for chronic conditions, 53.9% compared with 19.1%. In contrast, the impact of the ageing population on the costs of hospitalisation for stroke was far greater in men than in women (23.6% vs. 1.7%). Thus, ageing had a higher impact on the rise of total cost for chronic conditions compared with ACS and stroke and the impact was different between men and women.</p>
       </sec>
       <sec>
          <st>
             <p>Discussion</p>
          </st>
          <p>This study has examined the impact of ageing on the increase in hospitalisation costs for CVD and subgroups using the component decomposition method. The impact of ageing was separated out from other components including population growth, growth in the number of hospitalisations and the increase in mean cost per episode. The study showed that between 1993/94 and 2003/04 ageing contributed a considerable proportion to the increase in hospitalisation costs for CVD, 22.9% in men and 30% in women, although it was not the major component. The impact of ageing also varied across CVD conditions and was much higher for chronic conditions than acute conditions (ACS and stroke).</p>
          <p>The findings of this study are consistent with other studies&#8217; findings that ageing has an impact on healthcare expenditure but is not a major contributor <abbrgrp>
                <abbr bid="B9">9</abbr>
             </abbrgrp>,<abbrgrp>
                <abbr bid="B13">13</abbr>
             </abbrgrp>,<abbrgrp>
                <abbr bid="B28">28</abbr>
             </abbrgrp>. However, in other studies the impact of ageing was found to be lower (less than 10%) <abbrgrp>
                <abbr bid="B13">13</abbr>
             </abbrgrp>,<abbrgrp>
                <abbr bid="B28">28</abbr>
             </abbrgrp>. The differences in the magnitude of impact could be due to differences in the type of expenditure. Other studies were conducted in the US and were based on Medicare fees <abbrgrp>
                <abbr bid="B28">28</abbr>
             </abbrgrp>, and in Korea using health insurance expenditure <abbrgrp>
                <abbr bid="B13">13</abbr>
             </abbrgrp>, and included a wide range of diseases. This study focused on CVD hospitalisation costs, which constitute the largest share of CVD costs in Australia, and ageing is a major risk factor for CVD <abbrgrp>
                <abbr bid="B29">29</abbr>
             </abbrgrp>,<abbrgrp>
                <abbr bid="B30">30</abbr>
             </abbrgrp>. The result of the study may imply that a higher impact of ageing population on CVD costs than general healthcare expenditure. The findings are also in agreement with other studies about the impact of ageing in Australia <abbrgrp>
                <abbr bid="B6">6</abbr>
             </abbrgrp>,<abbrgrp>
                <abbr bid="B7">7</abbr>
             </abbrgrp>. Although these other studies did not directly measure the magnitude of the change in the age structure on the hospitalisation costs for CVD, their results implied a potential burden of healthcare services due to ageing. Lynch, Holman and Moorin <abbrgrp>
                <abbr bid="B7">7</abbr>
             </abbrgrp> found that the average age for first time hospitalisations declined over the period between 1980 and 2003, together with an increase in life expectancy. Thus, the life span living with chronic conditions increased, inducing higher demand and cost for healthcare.</p>
          <p>Although the impact of ageing on healthcare expenditure has been measured in many studies, little is known about gender disparity <abbrgrp>
                <abbr bid="B10">10</abbr>
             </abbrgrp>,<abbrgrp>
                <abbr bid="B13">13</abbr>
             </abbrgrp>,<abbrgrp>
                <abbr bid="B31">31</abbr>
             </abbrgrp>. Our results show a higher impact of ageing on hospitalisation costs for CVD in women than in men. This is explained by the finding that lifetime healthcare expenditure in women was higher than in men <abbrgrp>
                <abbr bid="B32">32</abbr>
             </abbrgrp>,<abbrgrp>
                <abbr bid="B33">33</abbr>
             </abbrgrp>. It is also a consequence of a higher life expectancy and higher prevalence of chronic disease among women compared with men <abbrgrp>
                <abbr bid="B31">31</abbr>
             </abbrgrp>.</p>
          <p>Of interest is that the magnitude of the impact of ageing on hospitalisation costs varied widely between subgroups in women. Ageing was a main driver of the rise in the total cost of hospitalisation for chronic conditions, but not for ACS and stroke. For ACS and stroke, the main driver of the rise in total costs of hospitalisation was the growth in average cost per hospitalisation. This result is consistent with a cross sectional study conducted on stroke, which found that ageing had a relatively small impact on healthcare expenditure <abbrgrp>
                <abbr bid="B34">34</abbr>
             </abbrgrp>. The strong effect of ageing on the cost of hospitalisations for chronic conditions may reflect the expansion of morbidity associated with chronic disease in Australia <abbrgrp>
                <abbr bid="B7">7</abbr>
             </abbrgrp>. Coupled with this, the mortality rate for heart failure, a main component of chronic conditions, was found to have declined in patients aged 75&#160;years and older between 1997 and 2003 <abbrgrp>
                <abbr bid="B35">35</abbr>
             </abbrgrp>. In addition, the proportion of people aged 65&#160;years and older increased while the younger age groups remained stable <abbrgrp>
                <abbr bid="B3">3</abbr>
             </abbrgrp>. All these factors may help explain the higher impact of ageing on hospitalisation costs for chronic conditions. In Australia, the &#8220;baby boomers&#8221; population cohort, who was born in the 20-year period after World War II, would have been reaching middle age in this study period between 1990 and 2004. As these results only reflect the impact of ageing before the period of the baby boomer cohort reaching older age, it is likely that the impact of ageing on hospitalization costs for chronic conditions may accelerate in coming years.</p>
          <sec>
             <st>
                <p>Strengths and limitations of this study</p>
             </st>
             <p>The study used a validated and well respected source of data and linkage mechanism which has been shown to produce accurate (99% accuracy) individual level linked data <abbrgrp>
                   <abbr bid="B18">18</abbr>
                </abbrgrp>. The data included all hospitalisation occurring in the state (both private public and private) providing highly generalizable population level information. Thus, bias due to selection or sampling error is not present in this study, leading to an increase in study power due to the comprehensive population coverage. For the decomposition of the increase in healthcare costs, although major components contributing to the increase in total costs of hospitalisation were taken into account, the components could have been be broken down into more detail. Average cost per hospitalisation, for example, can be separated into number and type of services used within each episode and cost per service. However, the available costing data in the Hospital Morbidity Data System were not sufficient to allow further decomposition. Since the focus of the study was to evaluate the contribution of the ageing component to CVD hospitalisation costs, this limitation did not affect our ability to fulfil this aim. Another limitation is that the time period for the analysis was 1993/94 to 2003/04. Since 2004, many changes in medical management and advances in diagnosis have taken place. Nevertheless, the findings of this study on the impact of ageing on the costs of hospitalisation for CVD and subgroups provides a useful basis for projecting corresponding costs in future time periods. Despite its limitations, the study has shown the extent to which ageing has impacted on costs of hospitalisation for CVD.</p>
          </sec>
       </sec>
       <sec>
          <st>
             <p>Conclusions</p>
          </st>
          <p>This study has demonstrated that population ageing was a considerable factor, contributing to more than 20% of the rise in the total hospitalisation costs for CVD. The magnitude of the impact of ageing varied across CVD conditions, particularly among women. It was the main driver in the rise of total hospitalisation costs for chronic condition in women but only a minor factor for ACS and stroke. These results suggest that disease-specific factors should be considered when measuring the impact of ageing on healthcare expenditure and planning for healthcare budgets, as the magnitude of the impact was different between acute and chronic conditions. Additional studies using current data are needed to evaluate the impact of more recent technological/clinical advancement on hospitalisation costs of CVD.</p>
       </sec>
       <sec>
          <st>
             <p>Competing interests</p>
          </st>
          <p>The authors declare that they have no competing interests.</p>
       </sec>
       <sec>
          <st>
             <p>Authors&#8217; contributions</p>
          </st>
          <p>NTH, DH, RM were involved in designing study, statistical analyses. NTH interpreted analysis and wrote the manuscript. DH and RM supervised the project. DH and RM contributed in data analysis, interpretation of findings and writing manuscripts. All authors contributed in revision and approved the final version of submitted manuscript.</p>
       </sec>
       <sec>
          <st>
             <p>Additional file</p>
          </st>
          <suppl id="S1">
             <title>
                <p>Additional file 1</p>
             </title>
             <text>
                <p>
                   <b>Equations for decompose component analysis.</b>
                </p>
             </text>
             <file name="s12913-014-0554-9-S1.docx">
                <p>Click here for file</p>
             </file>
          </suppl>
          
       </sec>
    </bdy>
    <bm>
       <ack>
          <sec>
             <st>
                <p>Acknowledgements</p>
             </st>
             <p>We gratefully thank the WA Department of Health, the data custodians who provided data, the Data Linkage Branch staff of Hospital Morbidity Data Collection and DOHWA HREC for approval.</p>
          </sec>
       </ack>
       <refgrp>
          
          <bibl id="B1">
             <title>
                <p>Ageing, health, and health care</p>
             </title>
             <aug>
                <au>
                   <snm>Breyer</snm>
                   <fnm>F</fnm>
                </au>
                <au>
                   <snm>Costa-Font</snm>
                   <fnm>J</fnm>
                </au>
                <au>
                   <snm>Felder</snm>
                   <fnm>S</fnm>
                </au>
             </aug>
             <source>Oxf Rev Econ Policy</source>
             <pubdate>2010</pubdate>
             <volume>26</volume>
             <issue>4</issue>
             <fpage>674</fpage>
             <lpage>690</lpage>
             <xrefbib>
                <pubidlist>
                   <pubid idtype="doi">10.1093/oxrep/grq032</pubid>
                </pubidlist>
             </xrefbib>
          </bibl>
          <bibl id="B2">
             <source>Economic Implications of an Ageing Australia, Research Report</source>
             <publisher>The Productivity Commission, Canberra</publisher>
             <pubdate>2005</pubdate>
          </bibl>
          <bibl id="B3">
             
                <url>http://www.abs.gov.au/AUSSTATS/abs@.nsf/Lookup/3201.0Main+Features1Jun2010?OpenDocument</url>
             
<note>
                <b>Population by age and sex, Austrlian States and Territories, June 2010</b> []</note>
          </bibl>
          <bibl id="B4">
             
                <url>http://www.aihw.gov.au/australias-health/2012/spending-on-health/</url>
             
<note>
                <b>How much do we spend on health?</b> []</note>
          </bibl>
          <bibl id="B5">
             
                <url>http://www.pc.gov.au/__data/assets/pdf_file/0011/81758/cs20080701-agedhealthpolicy.pdf</url>
             
<note>
                <b>Health costs and policy in an Ageing Australia</b> []</note>
          </bibl>
          <bibl id="B6">
             <note>Banham D, Woollacott T, Lynch J: <b>Healthy life gains in South Australia 1999&#8211;2008: analysis of a local Burden of Disease series.</b>
                <it>Popul Health Metrics</it> 2011, <b>9:</b>13.</note>
          </bibl>
          <bibl id="B7">
             <title>
                <p>Use of Western Australian linked hospital morbidity and mortality data to explore theories of compression, expansion and dynamic equilibrium</p>
             </title>
             <aug>
                <au>
                   <snm>Lynch</snm>
                   <fnm>C</fnm>
                </au>
                <au>
                   <snm>Holman</snm>
                   <fnm>CD</fnm>
                </au>
                <au>
                   <snm>Moorin</snm>
                   <fnm>RE</fnm>
                </au>
             </aug>
             <source>Aust Health Rev: Publ Aust Hosp Assoc</source>
             <pubdate>2007</pubdate>
             <volume>31</volume>
             <issue>4</issue>
             <fpage>571</fpage>
             <lpage>581</lpage>
             <xrefbib>
                <pubidlist>
                   <pubid idtype="doi">10.1071/AH070571</pubid>
                </pubidlist>
             </xrefbib>
          </bibl>
          <bibl id="B8">
             <title>
                <p>Demographic change and the future demand for public hospital care in Australia, 2005&amp;nbsp;to 2050</p>
             </title>
             <aug>
                <au>
                   <snm>Schofield</snm>
                   <fnm>DJ</fnm>
                </au>
                <au>
                   <snm>Earnest</snm>
                   <fnm>A</fnm>
                </au>
             </aug>
             <source>Aust Health Rev</source>
             <pubdate>2006</pubdate>
             <volume>30</volume>
             <issue>4</issue>
             <fpage>507</fpage>
             <lpage>515</lpage>
             <xrefbib>
                <pubidlist>
                   <pubid idtype="doi">10.1071/AH060507</pubid>
                   <pubid idtype="pmpid" link="fulltext">17073546</pubid>
                </pubidlist>
             </xrefbib>
          </bibl>
          <bibl id="B9">
             <title>
                <p>Health expenditure growth: reassessing the threat of ageing</p>
             </title>
             <aug>
                <au>
                   <snm>Dormont</snm>
                   <fnm>B</fnm>
                </au>
                <au>
                   <snm>Grignon</snm>
                   <fnm>M</fnm>
                </au>
                <au>
                   <snm>Huber</snm>
                   <fnm>H</fnm>
                </au>
             </aug>
             <source>Health Econ</source>
             <pubdate>2006</pubdate>
             <volume>15</volume>
             <issue>9</issue>
             <fpage>947</fpage>
             <lpage>963</lpage>
             <xrefbib>
                <pubidlist>
                   <pubid idtype="doi">10.1002/hec.1165</pubid>
                   <pubid idtype="pmpid" link="fulltext">16958079</pubid>
                </pubidlist>
             </xrefbib>
          </bibl>
          <bibl id="B10">
             <note>Gray A: <b>Population ageing and health care expenditure.</b>
                <it>Oxford Inst Ageing</it> 2005, (Ageing Horizons Issues No. 2):15&#8211;20.</note>
          </bibl>
          <bibl id="B11">
             <title>
                <p>The impact of population ageing on future Danish drug expenditure</p>
             </title>
             <aug>
                <au>
                   <snm>Kildemoes</snm>
                   <fnm>HW</fnm>
                </au>
                <au>
                   <snm>Christiansen</snm>
                   <fnm>T</fnm>
                </au>
                <au>
                   <snm>Gyrd-Hansen</snm>
                   <fnm>D</fnm>
                </au>
                <au>
                   <snm>Kristiansen</snm>
                   <fnm>IS</fnm>
                </au>
                <au>
                   <snm>Andersen</snm>
                   <fnm>M</fnm>
                </au>
             </aug>
             <source>Health Policy</source>
             <pubdate>2006</pubdate>
             <volume>75</volume>
             <issue>3</issue>
             <fpage>298</fpage>
             <lpage>311</lpage>
             <xrefbib>
                <pubidlist>
                   <pubid idtype="doi">10.1016/j.healthpol.2005.03.013</pubid>
                   <pubid idtype="pmpid" link="fulltext">16399170</pubid>
                </pubidlist>
             </xrefbib>
          </bibl>
          <bibl id="B12">
             <note>Cooper C, Hagan P: <b>The ageing Australian population and future health costs: 1996&#8211;2051.</b>
                <it>Depart Health Aged Care Occas Papers: New Series</it> 1999, (No. 7).</note>
          </bibl>
          <bibl id="B13">
             <title>
                <p>Aging risk and health care expenditure in Korea</p>
             </title>
             <aug>
                <au>
                   <snm>Tchoe</snm>
                   <fnm>B</fnm>
                </au>
                <au>
                   <snm>Nam</snm>
                   <fnm>SH</fnm>
                </au>
             </aug>
             <source>Int J Environ Res Publ Health</source>
             <pubdate>2010</pubdate>
             <volume>7</volume>
             <issue>8</issue>
             <fpage>3235</fpage>
             <lpage>3254</lpage>
             <xrefbib>
                <pubidlist>
                   <pubid idtype="doi">10.3390/ijerph7083235</pubid>
                </pubidlist>
             </xrefbib>
          </bibl>
          <bibl id="B14">
             <title>
                <p>The relationship between health expenditures and the age structure of the population in OECD countries</p>
             </title>
             <aug>
                <au>
                   <snm>O&#8217;Connell</snm>
                   <fnm>JM</fnm>
                </au>
             </aug>
             <source>Health Econ</source>
             <pubdate>1996</pubdate>
             <volume>5</volume>
             <issue>6</issue>
             <fpage>573</fpage>
             <lpage>578</lpage>
             <xrefbib>
                <pubidlist>
                   <pubid idtype="doi">10.1002/(SICI)1099-1050(199611)5:6&lt;573::AID-HEC231&gt;3.0.CO;2-L</pubid>
                   <pubid idtype="pmpid" link="fulltext">9003943</pubid>
                </pubidlist>
             </xrefbib>
          </bibl>
          <bibl id="B15">
             <title>
                <p>The determinants of health care expenditure: testing pooling restrictions in small samples</p>
             </title>
             <aug>
                <au>
                   <snm>Herwartz</snm>
                   <fnm>H</fnm>
                </au>
                <au>
                   <snm>Theilen</snm>
                   <fnm>B</fnm>
                </au>
             </aug>
             <source>Health Econ</source>
             <pubdate>2003</pubdate>
             <volume>12</volume>
             <issue>2</issue>
             <fpage>113</fpage>
             <lpage>124</lpage>
             <xrefbib>
                <pubidlist>
                   <pubid idtype="doi">10.1002/hec.700</pubid>
                   <pubid idtype="pmpid" link="fulltext">12563659</pubid>
                </pubidlist>
             </xrefbib>
          </bibl>
          <bibl id="B16">
             <note>Woodall J, Senes S: <b>Health care expenditure on cardiovascular diseases 2004&#8211;05.</b> In Canberra: AIHW; 2008.</note>
          </bibl>
          <bibl id="B17">
             <note>AIHW: <b>Cardiovascular disease: Australian facts 2011.</b> In Cardiovascular disease series, Volume CVD 53. Canberra: AIHW; 2011.</note>
          </bibl>
          <bibl id="B18">
             <title>
                <p>Population-based linkage of health records in Western Australia: development of a health services research linked database</p>
             </title>
             <aug>
                <au>
                   <snm>Holman</snm>
                   <fnm>CD</fnm>
                </au>
                <au>
                   <snm>Bass</snm>
                   <fnm>AJ</fnm>
                </au>
                <au>
                   <snm>Rouse</snm>
                   <fnm>IL</fnm>
                </au>
                <au>
                   <snm>Hobbs</snm>
                   <fnm>MST</fnm>
                </au>
             </aug>
             <source>Aust N Z J Public Health</source>
             <pubdate>1999</pubdate>
             <volume>23</volume>
             <issue>5</issue>
             <fpage>453</fpage>
             <lpage>459</lpage>
             <xrefbib>
                <pubidlist>
                   <pubid idtype="doi">10.1111/j.1467-842X.1999.tb01297.x</pubid>
                   <pubid idtype="pmpid" link="fulltext">10575763</pubid>
                </pubidlist>
             </xrefbib>
          </bibl>
          <bibl id="B19">
             
                <url>http://www.datalinkage-wa.org/data-linkage/data-collections</url>
             
<note>In <it>Data Linkage - Data collections</it>; .</note>
          </bibl>
          <bibl id="B20">
             
                <url>http://www.aihw.gov.au/hospitals-data/national-hospital-morbidity-database/</url>
             
<note>
                <b>National hospital morbidity database</b> []</note>
          </bibl>
          <bibl id="B21">
             <title>
                <p>Age- and sex-specific trends in the incidence of hospitalized acute coronary syndromes in Western Australia</p>
             </title>
             <aug>
                <au>
                   <snm>Nedkoff</snm>
                   <fnm>L</fnm>
                </au>
                <au>
                   <snm>Briffa</snm>
                   <fnm>TG</fnm>
                </au>
                <au>
                   <snm>Preen</snm>
                   <fnm>DB</fnm>
                </au>
                <au>
                   <snm>Sanfilippo</snm>
                   <fnm>FM</fnm>
                </au>
                <au>
                   <snm>Hung</snm>
                   <fnm>J</fnm>
                </au>
                <au>
                   <snm>Ridout</snm>
                   <fnm>SC</fnm>
                </au>
                <au>
                   <snm>Knuiman</snm>
                   <fnm>M</fnm>
                </au>
                <au>
                   <snm>Hobbs</snm>
                   <fnm>M</fnm>
                </au>
             </aug>
             <source>Circ Cardiovasc Qual Outcome</source>
             <pubdate>2011</pubdate>
             <volume>4</volume>
             <issue>5</issue>
             <fpage>557</fpage>
             <lpage>564</lpage>
             <xrefbib>
                <pubidlist>
                   <pubid idtype="doi">10.1161/CIRCOUTCOMES.110.960005</pubid>
                </pubidlist>
             </xrefbib>
          </bibl>
          <bibl id="B22">
             <note>Commonwealth Department of Health and Ageing: <it>National Hospital Cost Data Collection Hospital Reference Manual: Western Australia.</it> Canberra: Commonwealth Department of Health and Ageing.</note>
          </bibl>
          <bibl id="B23">
             
                <url>http://www.abs.gov.au/AUSSTATS/abs@.nsf/Lookup/6401.0Main+Features1Mar%202013</url>
             
<note>
                <b>Consumer Price Index, Australia, Mar 2013 (6401.0)</b> []</note>
          </bibl>
          <bibl id="B24">
             <title>
                <p>Health expenditure Australia 2010&#8211;11</p>
             </title>
             <source>Health and welfare expenditure series no 47</source>
             <publisher>AIHW, Canberra</publisher>
             <pubdate>2012</pubdate>
             <fpage>10</fpage>
             <lpage>15</lpage>
          </bibl>
          <bibl id="B25">
             
                <url>http://www.abs.gov.au/AUSSTATS/abs@.nsf/DetailsPage/3101.0Dec2012?OpenDocument</url>
             
<note>
                <b>Australian Demographic Statistics (No.3101.0)</b> []</note>
          </bibl>
          <bibl id="B26">
             <title>
                <p>Impact of demographic changes on healthcare expenditures and funding in the EU</p>
             </title>
             <aug>
                <au>
                   <snm>Gandjour</snm>
                   <fnm>A</fnm>
                </au>
                <au>
                   <snm>Greb</snm>
                   <fnm>J</fnm>
                </au>
                <au>
                   <snm>Bomsdorf</snm>
                   <fnm>E</fnm>
                </au>
                <au>
                   <snm>Wilhelm Lauterbach</snm>
                   <fnm>K</fnm>
                </au>
             </aug>
             <source>Appl Health Econ Health Pol</source>
             <pubdate>2005</pubdate>
             <volume>4</volume>
             <issue>1</issue>
             <fpage>1</fpage>
             <lpage>4</lpage>
             <xrefbib>
                <pubidlist>
                   <pubid idtype="doi">10.2165/00148365-200504010-00001</pubid>
                </pubidlist>
             </xrefbib>
          </bibl>
          <bibl id="B27">
             <title>
                <p>The effects of aging and population growth on health care costs</p>
             </title>
             <aug>
                <au>
                   <snm>Mendelson</snm>
                   <fnm>DN</fnm>
                </au>
                <au>
                   <snm>Schwartz</snm>
                   <fnm>WB</fnm>
                </au>
             </aug>
             <source>Health Aff</source>
             <pubdate>1993</pubdate>
             <volume>12</volume>
             <issue>1</issue>
             <fpage>119</fpage>
             <lpage>125</lpage>
             <xrefbib>
                <pubidlist>
                   <pubid idtype="doi">10.1377/hlthaff.12.1.119</pubid>
                </pubidlist>
             </xrefbib>
          </bibl>
          <bibl id="B28">
             <title>
                <p>Health Care Costs&#8212;From Birth to Death</p>
             </title>
             <aug>
                <au>
                   <snm>Yamamoto</snm>
                   <fnm>DH</fnm>
                </au>
             </aug>
             <source>Health Care Cost Institute&#8217;s Independent Report Series &#8211; Report 2013&#8211;1</source>
             <pubdate>2013</pubdate>
             <fpage>i</fpage>
             <lpage>iii</lpage>
          </bibl>
          <bibl id="B29">
             <title>
                <p>Aging and the Cardiovascular System</p>
             </title>
             <aug>
                <au>
                   <snm>Karavidas</snm>
                   <fnm>A</fnm>
                </au>
                <au>
                   <snm>Lazaros</snm>
                   <fnm>G</fnm>
                </au>
                <au>
                   <snm>Tsiachris</snm>
                   <fnm>D</fnm>
                </au>
                <au>
                   <snm>Pyrgakis</snm>
                   <fnm>V</fnm>
                </au>
             </aug>
             <source>Hellenic J Cardiol</source>
             <pubdate>2010</pubdate>
             <volume>51</volume>
             <issue>5</issue>
             <fpage>421</fpage>
             <lpage>427</lpage>
             <xrefbib>
                <pubidlist>
                   <pubid idtype="pmpid" link="fulltext">20876055</pubid>
                </pubidlist>
             </xrefbib>
          </bibl>
          <bibl id="B30">
             <note>Dao-Fu D, Chen T, Johnson SC, Szeto H, Rabinovitch PC: <b>Cardiac aging: from molecular mechanisms to significance in human health and disease.(Report).</b>
                <it>Antioxid Redox Signal</it> 2012, <b>16</b>(12):1492.</note>
          </bibl>
          <bibl id="B31">
             <title>
                <p>The boomers are coming: a total cost of care model of the impact of population aging on health care costs in the United States by Major Practice Category</p>
             </title>
             <aug>
                <au>
                   <snm>Martini</snm>
                   <fnm>EM</fnm>
                </au>
                <au>
                   <snm>Garrett</snm>
                   <fnm>N</fnm>
                </au>
                <au>
                   <snm>Lindquist</snm>
                   <fnm>T</fnm>
                </au>
                <au>
                   <snm>Isham</snm>
                   <fnm>GJ</fnm>
                </au>
             </aug>
             <source>Health Serv Res</source>
             <pubdate>2007</pubdate>
             <volume>42</volume>
             <issue>1 Pt 1</issue>
             <fpage>201</fpage>
             <lpage>218</lpage>
             <xrefbib>
                <pubidlist>
                   <pubid idtype="doi">10.1111/j.1475-6773.2006.00607.x</pubid>
                   <pubid idtype="pmpid" link="fulltext">17355589</pubid>
                </pubidlist>
             </xrefbib>
          </bibl>
          <bibl id="B32">
             <title>
                <p>The lifetime distribution of health care costs</p>
             </title>
             <aug>
                <au>
                   <snm>Alemayehu</snm>
                   <fnm>B</fnm>
                </au>
                <au>
                   <snm>Warner</snm>
                   <fnm>KE</fnm>
                </au>
             </aug>
             <source>Health Serv Res</source>
             <pubdate>2004</pubdate>
             <volume>39</volume>
             <issue>3</issue>
             <fpage>627</fpage>
             <lpage>642</lpage>
             <xrefbib>
                <pubidlist>
                   <pubid idtype="doi">10.1111/j.1475-6773.2004.00248.x</pubid>
                   <pubid idtype="pmpid" link="fulltext">15149482</pubid>
                </pubidlist>
             </xrefbib>
          </bibl>
          <bibl id="B33">
             <note>Carreras M, Ibern P, Coderch J, Sanchez I, Inoriza JM: <b>Estimating lifetime healthcare costs with morbidity data.</b>
                <it>BMC Health Serv Res</it> 2013, <b>13:</b>440.</note>
          </bibl>
          <bibl id="B34">
             <title>
                <p>The effect of age and procedure on resource use for patients with cerebrovascular disease</p>
             </title>
             <aug>
                <au>
                   <snm>Kuwabara</snm>
                   <fnm>K</fnm>
                </au>
                <au>
                   <snm>Matsuda</snm>
                   <fnm>S</fnm>
                </au>
                <au>
                   <snm>Imanaka</snm>
                   <fnm>Y</fnm>
                </au>
                <au>
                   <snm>Fushimi</snm>
                   <fnm>K</fnm>
                </au>
                <au>
                   <snm>Hashimoto</snm>
                   <fnm>H</fnm>
                </au>
                <au>
                   <snm>Ishikawa</snm>
                   <fnm>K</fnm>
                </au>
             </aug>
             <source>J Health Serv Res Pol</source>
             <pubdate>2008</pubdate>
             <volume>13</volume>
             <issue>1</issue>
             <fpage>26</fpage>
             <lpage>32</lpage>
             <xrefbib>
                <pubidlist>
                   <pubid idtype="doi">10.1258/jhsrp.2007.007009</pubid>
                </pubidlist>
             </xrefbib>
          </bibl>
          <bibl id="B35">
             <title>
                <p>Is mortality from heart failure increasing in Australia? An analysis of official data on mortality for 1997&#8211;2003</p>
             </title>
             <aug>
                <au>
                   <snm>Najafi</snm>
                   <fnm>F</fnm>
                </au>
                <au>
                   <snm>Dobson</snm>
                   <fnm>AJ</fnm>
                </au>
                <au>
                   <snm>Jamrozik</snm>
                   <fnm>K</fnm>
                </au>
             </aug>
             <source>Bull World Health Organ</source>
             <pubdate>2006</pubdate>
             <volume>84</volume>
             <issue>9</issue>
             <fpage>722</fpage>
             <lpage>728</lpage>
             <xrefbib>
                <pubidlist>
                   <pubid idtype="doi">10.2471/BLT.06.031286</pubid>
                   <pubid idtype="pmpid" link="fulltext">17128342</pubid>
                </pubidlist>
             </xrefbib>
          </bibl>
       </refgrp>
    </bm>
 </art>
