<art>
    <ui>s12913-014-0575-4</ui>
    <ji>1472-6963</ji>
    <fm>
       <dochead>Research article</dochead>
       <bibl>
          <title>
             <p>Facilitators of health systems change for tobacco dependence treatment: a qualitative study of stakeholders&#8217; perceptions</p>
          </title>
          <aug>
             <au id="A1" ca="yes">
                <snm>Jansen</snm>
                <mi>L</mi>
                <fnm>Amanda</fnm>
                <insr iid="I1"/>
                <email>ajansen@clearwaymn.org</email>
             </au>
             <au id="A2">
                <snm>Capesius</snm>
                <mi>R</mi>
                <fnm>Traci</fnm>
                <insr iid="I2"/>
                <email>traci@pdastats.com</email>
             </au>
             <au id="A3">
                <snm>Lachter</snm>
                <fnm>Randi</fnm>
                <insr iid="I1"/>
                <email>rlachter@clearwaymn.org</email>
             </au>
             <au id="A4">
                <snm>Greenseid</snm>
                <mi>O</mi>
                <fnm>Lija</fnm>
                <insr iid="I2"/>
                <email>lija@pdastats.com</email>
             </au>
             <au id="A5">
                <snm>Keller</snm>
                <mi>A</mi>
                <fnm>Paula</fnm>
                <insr iid="I1"/>
                <email>pkeller@clearwaymn.org</email>
             </au>
          </aug>
          <insg>
             <ins id="I1">
                <p>ClearWay MinnesotaSM, Minneapolis, USA</p>
             </ins>
             <ins id="I2">
                <p>Professional Data Analysts, Inc., Minneapolis, USA</p>
             </ins>
          </insg>
          <source>BMC Health Services Research</source>
          <issn>1472-6963</issn>
          <pubdate>2014</pubdate>
          <volume>14</volume>
          <issue>1</issue>
          <fpage>575</fpage>
          <url>http://www.biomedcentral.com/1472-6963/14/575</url>
          <xrefbib>
             <pubidlist>
                <pubid idtype="doi">10.1186/s12913-014-0575-4</pubid>
             </pubidlist>
          </xrefbib>
       </bibl>
       <history>
          <rec>
             <date>
                <day>18</day>
                <month>2</month>
                <year>2014</year>
             </date>
          </rec>
          <acc>
             <date>
                <day>3</day>
                <month>11</month>
                <year>2014</year>
             </date>
          </acc>
          <pub>
             <date>
                <day>19</day>
                <month>11</month>
                <year>2014</year>
             </date>
          </pub>
       </history>
       <cpyrt>
          <year>2014</year>
          <collab>Jansen et al.; licensee BioMed Central Ltd.</collab>
          <note>This is an Open Access article distributed under the terms of the Creative Commons Attribution License (<url>http://creativecommons.org/licenses/by/4.0</url>), which permits unrestricted use, distribution, and reproduction in any medium, provided the original work is properly credited. The Creative Commons Public Domain Dedication waiver (<url>http://creativecommons.org/publicdomain/zero/1.0/</url>) applies to the data made available in this article, unless otherwise stated.</note>
       </cpyrt>
       <kwdg>
          <kwd>Tobacco</kwd>
          <kwd>Systems change</kwd>
          <kwd>Quality improvement</kwd>
          <kwd>Electronic health records</kwd>
          <kwd>Process evaluation</kwd>
       </kwdg>
       <abs>
          <sec>
             <st>
                <p>Abstract</p>
             </st>
             <sec>
                <st>
                   <p>Background</p>
                </st>
                <p>Health systems play key roles in identifying tobacco users and providing evidence-based care to help them quit. Health systems change &#8211; changes to health care processes, policies and financing &#8211; has potential to build capacity within these systems to address tobacco use. In 2010, ClearWay Minnesota<sup>SM</sup> piloted a health systems change funding initiative, providing resources and technical assistance to four health care systems. This paper presents findings from a process evaluation, describing key stakeholders&#8217; views on whether changes to how health systems treat tobacco use resulted from this initiative and what may have facilitated those changes.</p>
             </sec>
             <sec>
                <st>
                   <p>Methods</p>
                </st>
                <p>A process evaluation was conducted by an independent evaluation firm. A qualitative case study approach provided understanding of systems change efforts. Interviews were conducted with key informants representing the health systems, funder and technical assistance providers. Core documents were reviewed and compared to thematic analysis from the interviews. Results were triangulated with existing literature to check for convergence or divergence. A cross-case analysis of the findings was conducted in which themes were compared and contrasted.</p>
             </sec>
             <sec>
                <st>
                   <p>Results</p>
                </st>
                <p>All systems created and implemented well-defined written tobacco use screening, documentation and treatment referral protocols for every patient at every visit. Three implemented systematic follow-up procedures for patients referred to treatment, and three also implemented changes to electronic health records systems to facilitate screening, referral and reporting. Fax referral to quitline services was implemented or enhanced by two systems. Elements that facilitated successful systems changes included capitalizing on environmental changes, ensuring participation and support at all organizational levels, using technology, establishing ongoing training and continuous quality improvement mechanisms and leveraging external funding and technical assistance.</p>
             </sec>
             <sec>
                <st>
                   <p>Conclusions</p>
                </st>
                <p>This evaluation demonstrates that health systems can implement substantial changes to facilitate routine treatment of tobacco dependence in a relatively short timeframe. Implementing best practices like these, including increased emphasis on the implementation and use of electronic health record systems and healthcare quality measures, is increasingly important given the changing health care environment. Lessons learned from this project can be resources for states and health systems likely to implement similar systems changes.</p>
             </sec>
          </sec>
       </abs>
    </fm>
    <bdy>
       <sec>
          <st>
             <p>Background</p>
          </st>
          <p>Tobacco dependence is recognized as a chronic, relapsing condition that requires ongoing evaluation and, as appropriate, intervention to support quitting and abstinence <abbrgrp>
                <abbr bid="B1">1</abbr>
             </abbrgrp>. The most recent report of the Surgeon General states that &#8220;the current rate of progress in tobacco control is not fast enough, and much more needs to be done to end the tobacco epidemic <abbrgrp>
                <abbr bid="B2">2</abbr>
             </abbrgrp>&#8221;. Since 70 percent of smokers see a clinician in a given year, health systems can play a key role in identifying tobacco users and providing and referring them to evidence-based quitting help <abbrgrp>
                <abbr bid="B1">1</abbr>
             </abbrgrp>. However, research shows substantial room for improvement in integrating comprehensive tobacco dependence treatment into routine health care. For example, data from Minnesota show that while 94 percent of smokers seen by providers in the past 12&#160;months reported they were asked about smoking, fewer than half reported receiving treatment or referrals to quitting assistance <abbrgrp>
                <abbr bid="B3">3</abbr>
             </abbrgrp>. Moreover, data demonstrate that treating tobacco use leads to higher patient satisfaction <abbrgrp>
                <abbr bid="B4">4</abbr>
             </abbrgrp>, improved patient health <abbrgrp>
                <abbr bid="B5">5</abbr>
             </abbrgrp> and a positive return on investment <abbrgrp>
                <abbr bid="B6">6</abbr>
             </abbrgrp>, making treating tobacco use an ideal target for health care systems change efforts.</p>
          <p>Health care systems changes &#8211; changes to health care processes, policies and financing &#8211; can result in tobacco use being addressed routinely with all patients in an ongoing, sustainable manner <abbrgrp>
                <abbr bid="B7">7</abbr>
             </abbrgrp>. The U.S. Centers for Disease Control and Prevention (CDC) has recommended the implementation of health systems change in its recent update of Best Practices for Comprehensive Tobacco Control Programs <abbrgrp>
                <abbr bid="B8">8</abbr>
             </abbrgrp>.</p>
          <p>There is a robust body of research detailing the effectiveness of systems change strategies, including tobacco user identification systems, provider training and feedback <abbrgrp>
                <abbr bid="B1">1</abbr>
             </abbrgrp>,<abbrgrp>
                <abbr bid="B9">9</abbr>
             </abbrgrp>-<abbrgrp>
                <abbr bid="B11">11</abbr>
             </abbrgrp>. Using electronic health records (EHRs) for tobacco user identification and subsequent interventions also increases delivery of evidence-based care <abbrgrp>
                <abbr bid="B12">12</abbr>
             </abbrgrp>,<abbrgrp>
                <abbr bid="B13">13</abbr>
             </abbrgrp>. Additionally, linking EHR documentation or tobacco user identification systems to quality improvement and provider feedback mechanisms improves adherence to best practices, including documentation of tobacco use status and cessation service referral <abbrgrp>
                <abbr bid="B14">14</abbr>
             </abbrgrp>-<abbrgrp>
                <abbr bid="B17">17</abbr>
             </abbrgrp>. However, success requires more than just implementation of these strategies; leadership and process improvement support are also required to help create a culture where routinely addressing tobacco use is the norm <abbrgrp>
                <abbr bid="B18">18</abbr>
             </abbrgrp>,<abbrgrp>
                <abbr bid="B19">19</abbr>
             </abbrgrp>. As the health care environment moves toward widespread adoption of EHRs, and payers are providing financial incentives for their adoption and use (e.g., Meaningful Use), there is a growing potential to integrate evidence-based tobacco dependence treatment into existing health care. There is also increased visibility of health systems change, with its incorporation by the CDC as a best practice <abbrgrp>
                <abbr bid="B8">8</abbr>
             </abbrgrp>. In this paper, we examine factors that influenced health systems&#8217; ability to implement systems changes, including making changes with their EHRs.</p>
          <p>ClearWay Minnesota<sup>SM</sup>, an independent nonprofit funded with 3 percent of Minnesota&#8217;s settlement with the tobacco industry, has a longstanding interest in identifying sustainable approaches to reducing the harm that tobacco causes Minnesotans. In 2010, ClearWay Minnesota funded a 21-month health systems change initiative, providing resources and technical assistance to four health care systems that had previously been funded to provide intensive cessation services.</p>
          <sec>
             <st>
                <p>Setting</p>
             </st>
             <p>Four Minnesota health systems were funded to implement health systems changes. Health System 1 was a large, primarily rural, integrated health system that included hospitals, clinics, long-term care facilities, assisted living facilities, independent living facilities and a research institute. Their systems change initiative was focused on a few primary care clinics within this larger health system. Health System 2, also a large, integrated health system, focused on six rural primary care clinic sites for this initiative. Health System 3 was a multi-specialty, teaching-focused outpatient care facility located in an urban area. This initiative was focused on four residency clinic sites within this larger system. Health System 4 was an urban, federally-funded community health center that provides primary care, dental care, behavioral health care, and chiropractic and eye care via its two clinic sites. Both clinics were the focus of this systems change initiative. Each system was required to choose systems change strategies from a provided list to guide their work (see Table&#160;<tblr tid="T1">1</tblr>, Systems Change Strategies Chosen by Each System). The list of strategies was derived from the published literature <abbrgrp>
                   <abbr bid="B1">1</abbr>
                </abbrgrp> and from health systems change experts. Health systems were deemed successful if they were able to make operational changes positioning them to address tobacco dependence more consistently and effectively.
                  </p>
             
                <table id="T1">
                   <title>
                      <p>Table 1</p>
                   </title>
                   <caption>
                      <p>
                            <b>Systems change strategies chosen by each system</b>                          
                      </p>
                   </caption>
                   <tgroup align="left" cols="5">
                      <colspec align="left" colname="c1" colnum="1" colwidth="*"/>
                      <colspec align="center" colname="c2" colnum="2" colwidth="*"/>
                      <colspec align="center" colname="c3" colnum="3" colwidth="*"/>
                      <colspec align="center" colname="c4" colnum="4" colwidth="*"/>
                      <colspec align="center" colname="c5" colnum="5" colwidth="*"/>
                      <thead>
                         <row valign="top">
                            <entry colname="c1">
                               <p>
                                  <b>Systems change strategies</b>                              
                               </p>
                            </entry>
                            <entry colname="c2">
                               <p>
                                  <b>System 1</b>                              
                               </p>
                            </entry>
                            <entry colname="c3">
                               <p>
                                  <b>System 2</b>                              
                               </p>
                            </entry>
                            <entry colname="c4">
                               <p>
                                  <b>System 3</b>                              
                               </p>
                            </entry>
                            <entry colname="c5">
                               <p>
                                  <b>System 4</b>                              
                               </p>
                            </entry>
                         </row>
                      </thead>
                      <tbody>
                         <row valign="top">
                            <entry colname="c1">
                               <p>Identification and documentation (required): Implement a clinic-wide system that ensures for every patient at every clinic visit, tobacco-use status is queried and documented.</p>
                            </entry>
                            <entry align="center" colname="c2">
                               <p>X</p>
                            </entry>
                            <entry align="center" colname="c3">
                               <p>X</p>
                            </entry>
                            <entry align="center" colname="c4">
                               <p>X</p>
                            </entry>
                            <entry align="center" colname="c5">
                               <p>X</p>
                            </entry>
                         </row>
                         <row valign="top">
                            <entry colname="c1">
                               <p>Training and education: provide adequate training, resources and education to motivate clinic personnel to address tobacco and increase tobacco treatment knowledge and skills.</p>
                            </entry>
                            <entry align="center" colname="c2">
                               <p>X</p>
                            </entry>
                            <entry align="center" colname="c3"/>
                            <entry align="center" colname="c4">
                               <p>X</p>
                            </entry>
                            <entry align="center" colname="c5">
                               <p>X</p>
                            </entry>
                         </row>
                         <row valign="top">
                            <entry colname="c1">
                               <p>Referrals: establish a referral system for tobacco users interested in counseling. Referrals can be internal and/or to external, evidence-based cessation services as is most appropriate for the patient population being served by the system.</p>
                            </entry>
                            <entry align="center" colname="c2">
                               <p>X</p>
                            </entry>
                            <entry align="center" colname="c3">
                               <p>X</p>
                            </entry>
                            <entry align="center" colname="c4">
                               <p>X</p>
                            </entry>
                            <entry align="center" colname="c5">
                               <p>X</p>
                            </entry>
                         </row>
                         <row valign="top">
                            <entry colname="c1">
                               <p>Brief interventions: Institutionalize brief tobacco cessation interventions into clinic protocols.</p>
                            </entry>
                            <entry align="center" colname="c2"/>
                            <entry align="center" colname="c3"/>
                            <entry align="center" colname="c4"/>
                            <entry align="center" colname="c5"/>
                         </row>
                         <row valign="top">
                            <entry colname="c1">
                               <p>Reporting and feedback: Establish a reporting and feedback system that facilitates regular retrieval of and consistent feedback on tobacco use and treatment data to clinic personnel and that can be used to track tobacco-related performance measures and quality improvement initiatives.</p>
                            </entry>
                            <entry align="center" colname="c2">
                               <p>X</p>
                            </entry>
                            <entry align="center" colname="c3"/>
                            <entry align="center" colname="c4">
                               <p>X</p>
                            </entry>
                            <entry align="center" colname="c5"/>
                         </row>
                         <row valign="top">
                            <entry colname="c1">
                               <p>Follow up care: systematically follow up with patients who receive brief tobacco cessation interventions or referral to cessation services to determine actual provision of services and ongoing needs.</p>
                            </entry>
                            <entry align="center" colname="c2">
                               <p>X</p>
                            </entry>
                            <entry align="center" colname="c3"/>
                            <entry align="center" colname="c4">
                               <p>X</p>
                            </entry>
                            <entry align="center" colname="c5"/>
                         </row>
                         <row valign="top">
                            <entry colname="c1">
                               <p>System integration: Integrate tobacco cessation approaches into disease management protocols.</p>
                            </entry>
                            <entry align="center" colname="c2">
                               <p>X</p>
                            </entry>
                            <entry align="center" colname="c3"/>
                            <entry align="center" colname="c4">
                               <p>X</p>
                            </entry>
                            <entry align="center" colname="c5"/>
                         </row>
                         <row valign="top">
                            <entry colname="c1">
                               <p>Quality improvement, Accreditation and Standards: Systematically integrate tobacco cessation strategies into existing programs or initiatives that address quality improvement, accreditation and evaluative standards in a way that will lead to improvements in the use of selected cessation strategies.</p>
                            </entry>
                            <entry align="center" colname="c2"/>
                            <entry align="center" colname="c3"/>
                            <entry align="center" colname="c4">
                               <p>X</p>
                            </entry>
                            <entry align="center" colname="c5"/>
                         </row>
                         <row valign="top">
                            <entry colname="c1">
                               <p>Organizational goals and policies: Ensure that organizational goals and policies related to tobacco cessation are consistent and supportive of systems change strategies and activities.</p>
                            </entry>
                            <entry align="center" colname="c2"/>
                            <entry align="center" colname="c3">
                               <p>X</p>
                            </entry>
                            <entry align="center" colname="c4"/>
                            <entry align="center" colname="c5"/>
                         </row>
                         <row valign="top">
                            <entry colname="c1">
                               <p>Hospital policies and services: Implement hospital policies that support and facilitate inpatient tobacco dependence services.</p>
                            </entry>
                            <entry align="center" colname="c2"/>
                            <entry align="center" colname="c3"/>
                            <entry align="center" colname="c4"/>
                            <entry align="center" colname="c5"/>
                         </row>
                         <row valign="top">
                            <entry colname="c1">
                               <p>Performance measures and follow up: provide regular feedback to clinic personnel to ensure providers consistently deliver effective tobacco cessation treatment or referrals as per the established protocol.</p>
                            </entry>
                            <entry align="center" colname="c2">
                               <p>X</p>
                            </entry>
                            <entry align="center" colname="c3">
                               <p>X</p>
                            </entry>
                            <entry align="center" colname="c4">
                               <p>X</p>
                            </entry>
                            <entry align="center" colname="c5"/>
                         </row>
                         <row valign="top">
                            <entry colname="c1">
                               <p>Reimbursement: if relevant, establish a system to consistently seek and obtain reimbursement for tobacco cessation services.</p>
                            </entry>
                            <entry align="center" colname="c2">
                               <p>X</p>
                            </entry>
                            <entry align="center" colname="c3"/>
                            <entry align="center" colname="c4"/>
                            <entry align="center" colname="c5"/>
                         </row>
                         <row valign="top">
                            <entry colname="c1">
                               <p>Tobacco cessation coverage: Improve patient education about and use of existing cessation benefits (counseling and medication).</p>
                            </entry>
                            <entry align="center" colname="c2"/>
                            <entry align="center" colname="c3">
                               <p>X</p>
                            </entry>
                            <entry align="center" colname="c4"/>
                            <entry align="center" colname="c5"/>
                         </row>
                      </tbody>
                   </tgroup>
                </table>
             
             <p>As part of the funding opportunity, health systems were also provided with technical assistance (from program staff and a contracted technical assistance provider) to support them in implementing their systems change strategies. Technical assistance was funded by ClearWay Minnesota and included, but was not limited to, implementing an effective tobacco-user identification system, educating about effective uses of an electronic health record (EHR) to enhance tobacco cessation interventions, and training and educating providers. Technical assistance was provided to each project by phone, by email and in person.</p>
             <p>This work was evaluated to gauge whether such an initiative could result in changes that impact how health systems treat tobacco use. Moreover, this evaluation sought to identify factors that facilitated implementation of health systems change, and to better understand whether and how EHRs could be used to drive or support these types of change. This paper summarizes findings from this evaluation.</p>
          </sec>
       </sec>
       <sec>
          <st>
             <p>Methods</p>
          </st>
          <p>An independent process evaluation, funded by ClearWay Minnesota, was conducted by Professional Data Analysts, Inc., a research and evaluation firm specializing in tobacco control evaluation. A qualitative case study approach was used to gain an in-depth perspective <abbrgrp>
                <abbr bid="B20">20</abbr>
             </abbrgrp> on the successes, challenges, lessons learned and potential sustainability of the tobacco-related systems changes implemented by each health system. Qualitative research methods, such as those employed in this evaluation, are appropriate for studies seeking deep understanding of complex issues that cannot be measured by existing standardized metrics <abbrgrp>
                <abbr bid="B21">21</abbr>
             </abbrgrp>. Two complementary data methods were used: a core document review and key informant interviews. Results from the document analysis and key informant interviews were triangulated with existing literature to check for convergence or divergence from existing findings in the field of tobacco cessation systems change research. A cross-case analysis of the findings was then conducted, in which themes were compared and contrasted across cases. This study uses information from an administratively driven process evaluation; therefore, human subjects review was not sought.</p>
          <sec>
             <st>
                <p>Core document review data sources and analysis methods</p>
             </st>
             <p>ClearWay Minnesota provided the evaluators with a set of core documents for each health system. These included quarterly and final progress reports, notes from technical assistance sessions and meetings with ClearWay Minnesota staff, and standardized assessments of capacity to address tobacco use (completed by each health system prior to and at the end of the funding period).</p>
             <p>The evaluators reviewed all of the documents to verify progress reported by the grantees during interviews and to assess reported changes pre- and post-initiative. Two evaluators independently documented changes reported by each system and compared the findings to reach agreement on systems changes made during the funding period, as well as to compare and contrast themes that emerged in the analysis of key informant interview data.</p>
          </sec>
          <sec>
             <st>
                <p>Key informant interview methods and analyses</p>
             </st>
             <p>The evaluators conducted 12 in-depth interviews with a total of 18 key informants representing the health systems, ClearWay Minnesota and technical assistance providers toward the end of the grant cycle. All interviewees consented to have their interviews recorded.</p>
             <p>Interview protocols were developed based on an analytic framework suggested by a tobacco systems change literature review and by interviews of experts in the field. The evaluators reviewed documentation received from ClearWay Minnesota to refine interview protocols. The interviews were used to gather additional information on the current state of systems change activities and to document how and the extent to which each site was able to implement chosen strategies.</p>
             <sec>
                <st>
                   <p>Health system interviews</p>
                </st>
                <p>The evaluators, technical assistance providers and ClearWay Minnesota staff worked together to identify a sample of individuals from each of the health systems who were most knowledgeable about the initiative (e.g., project managers) as well as other key stakeholders who might have different perspectives on the project. Recruitment of interviewees was conducted by email and telephone. Semi-structured interviews with key informants were conducted, toward the end of the 21-month grant funding period. All but one of the interviews were conducted face to face by two evaluators. A minimum of two key informants from each system were interviewed (see Table&#160;<tblr tid="T2">2</tblr>, Health System Key Informants) for a total of 13 health system interviewees. Interviewees from the health systems were asked about key project successes, implementation barriers, lessons learned and advice for other health systems, as well as their perspectives on the potential sustainability of the systems changes they implemented. Additionally, interviewees were asked to provide feedback on the technical assistance they received, as well as to reflect on how the grant helped facilitate systems changes.
                    </p>
                
                   <table id="T2">
                      <title>
                         <p>Table 2</p>
                      </title>
                      <caption>
                         <p>
                              <b>Health system key informants</b>                            
                         </p>
                      </caption>
                      <tgroup align="left" cols="3">
                         <colspec align="left" colname="c1" colnum="1" colwidth="*"/>
                         <colspec align="left" colname="c2" colnum="2" colwidth="*"/>
                         <colspec align="left" colname="c3" colnum="3" colwidth="*"/>
                         <thead>
                            <row valign="top">
                               <entry colname="c1">
                                  <p>
                                     <b>Health system</b>                                
                                  </p>
                               </entry>
                               <entry colname="c2">
                                  <p>
                                     <b>Interviewee description</b>                                
                                  </p>
                               </entry>
                               <entry colname="c3">
                                  <p>
                                     <b>Background/discipline</b>                                
                                  </p>
                               </entry>
                            </row>
                         </thead>
                         <tfoot>
                            <p>*This was the only grantee interview conducted with only one evaluator present. All other interviews were conducted by two evaluators.</p>
                         </tfoot>
                         <tbody>
                            <row valign="top">
                               <entry colname="c1" morerows="2">
                                  <p>#1: Part of a large, integrated health system; rural and urban populations</p>
                               </entry>
                               <entry colname="c2">
                                  <p>Systems change grant project manager</p>
                               </entry>
                               <entry colname="c3">
                                  <p>Registered Nurse (RN)</p>
                               </entry>
                            </row>
                            <row valign="top">
                               <entry colname="c2">
                                  <p>Tobacco cessation program manager</p>
                               </entry>
                               <entry colname="c3">
                                  <p>Nurse practitioner, tobacco treatment specialist (TTS)</p>
                               </entry>
                            </row>
                            <row valign="top">
                               <entry colname="c2">
                                  <p>Leadership, champion</p>
                               </entry>
                               <entry colname="c3">
                                  <p>Department director</p>
                               </entry>
                            </row>
                            <row valign="top">
                               <entry colname="c1" morerows="4">
                                  <p>#2: Part of a large, integrated health system; rural and urban populations</p>
                               </entry>
                               <entry colname="c2">
                                  <p>Systems change grant project manager</p>
                               </entry>
                               <entry colname="c3">
                                  <p>Quality improvement</p>
                               </entry>
                            </row>
                            <row valign="top">
                               <entry colname="c2">
                                  <p>Electronic medical records specialist</p>
                               </entry>
                               <entry colname="c3">
                                  <p>EMR builder/Information technology</p>
                               </entry>
                            </row>
                            <row valign="top">
                               <entry colname="c2">
                                  <p>TTS</p>
                               </entry>
                               <entry colname="c3">
                                  <p>Staff member at affiliated hospital</p>
                               </entry>
                            </row>
                            <row valign="top">
                               <entry colname="c2">
                                  <p>Physician champion, tobacco cessation</p>
                               </entry>
                               <entry colname="c3">
                                  <p>Psychiatry</p>
                               </entry>
                            </row>
                            <row valign="top">
                               <entry colname="c2">
                                  <p>TTS</p>
                               </entry>
                               <entry colname="c3">
                                  <p>RN</p>
                               </entry>
                            </row>
                            <row valign="top">
                               <entry colname="c1" morerows="1">
                                  <p>#3: Multi-specialty, teaching-focused out-patient care facilities (four clinic sites); mostly urban population</p>
                               </entry>
                               <entry colname="c2">
                                  <p>Systems change grant project manager, clinic project manager</p>
                               </entry>
                               <entry colname="c3">
                                  <p>Psychology</p>
                               </entry>
                            </row>
                            <row valign="top">
                               <entry colname="c2">
                                  <p>Clinic Project Manager*</p>
                               </entry>
                               <entry colname="c3">
                                  <p>Psychology</p>
                               </entry>
                            </row>
                            <row valign="top">
                               <entry colname="c1" morerows="2">
                                  <p>#4: Federally-qualified health center (two clinic sites); mostly urban population</p>
                               </entry>
                               <entry colname="c2">
                                  <p>Systems change grant project manager</p>
                               </entry>
                               <entry colname="c3">
                                  <p>Health programs manager</p>
                               </entry>
                            </row>
                            <row valign="top">
                               <entry colname="c2">
                                  <p>CEO</p>
                               </entry>
                               <entry colname="c3">
                                  <p>Management, quality assurance</p>
                               </entry>
                            </row>
                            <row valign="top">
                               <entry colname="c2">
                                  <p>Medical director</p>
                               </entry>
                               <entry colname="c3">
                                  <p>Medical provider (MD)</p>
                               </entry>
                            </row>
                         </tbody>
                      </tgroup>
                   </table>
                
             </sec>
             <sec>
                <st>
                   <p>ClearWay Minnesota</p>
                </st>
                <p>Two ClearWay Minnesota staff members and an independent contractor hired by ClearWay Minnesota to assist with the project were chosen to participate in the interviews. These interviewees were chosen based on their management and oversight of the grantees as well as on their knowledge of how and why the funding initiative was originally conceived. Semi-structured interviews were conducted face to face by two evaluators immediately after the grant period ended. All three interviewees were asked about key initiative accomplishments; perceptions of critical elements for success, challenges and barriers; and lessons learned and advice for funders considering similar initiatives.</p>
             </sec>
             <sec>
                <st>
                   <p>Technical assistance providers</p>
                </st>
                <p>Two members of the technical assistance provider team were interviewed by both evaluators &#8211; one face to face and the other by telephone immediately after the grant period ended. They were asked about key initiative accomplishments; perceptions of critical elements for success, challenges and barriers; and lessons learned and advice for other technical assistance providers.</p>
             </sec>
          </sec>
          <sec>
             <st>
                <p>Interview analyses</p>
             </st>
             <p>Summaries of each interview were created by the two evaluators who conducted them. Each summary was provided to interviewees to ensure completeness and accuracy. Corrections or additions from interviewees were incorporated into the final summaries. Evaluators used both deductive and inductive approaches to identify themes. Previous literature provided an initial framework for themes that might arise during cross-case qualitative analyses. Evaluators also identified new themes from the data using an inductive approach. The lead evaluator verified and identified themes based on the literature and interview summaries and by comparing and contrasting the experiences of the four systems. These themes were then reviewed by the second evaluator. Any new themes or differences in interpretation were discussed by evaluators until consensus was achieved. Quotations from interview notes and recordings were de-identified to ensure the confidentiality of the individual and the health system.</p>
          </sec>
       </sec>
       <sec>
          <st>
             <p>Results</p>
          </st>
          <p>All four systems created and implemented well-defined written protocols to screen for and document tobacco use status for every patient at every visit and to refer tobacco users for tobacco dependence treatment, which was a key success metric for this initiative. Three systems implemented systematic follow-up procedures for patients referred to treatment and three systems also implemented changes to their electronic health records systems to facilitate screening, referral and reporting. Fax referral to quitline services was implemented or enhanced by two systems. This funding initiative, including technical assistance, also played a role in the successful prioritization and implementation of systems change activities.</p>
          <p>The evaluation identified five elements that successfully facilitated tobacco-related systems change: 1) capitalize on changes in the environment; 2) ensure participation and support for the project at all levels of the organization; 3) use technology; 4) establish ongoing training and continuous quality improvement mechanisms; and 5) leverage external funding and technical assistance.</p>
          <sec>
             <st>
                <p>Capitalize on existing quality improvement initiatives</p>
             </st>
             <p>
                    <it>Respecting competing priorities and taking advantage of existing initiatives can help raise the priority of tobacco dependence treatment.</it> All systems discussed the difficulty of establishing and maintaining momentum for systems change efforts amid competing priorities. However, all were able to link tobacco treatment to internal and external quality improvement initiatives already being implemented, such as Meaningful Use and Minnesota&#8217;s mandatory Statewide Quality Reporting and Measurement System. The existence of tobacco use and treatment components within these measurement systems helped raise the priority of their proposed tobacco-specific systems changes. One system reported, &#8220;Smoking cessation is a metric on every quality [care] profile that we&#8217;re measured by for reimbursement. . . . This is a standard we&#8217;re held to. . . .That [standard] drove us in the beginning and it continues to drive us as we move forward&#8221;. Systems change teams demonstrated to providers and administrators how treatment of tobacco dependence would help improve quality measures of greatest concern to them, such as asthma, diabetes or heart disease, and would ultimately help reduce costs associated with tobacco-related illnesses. Another system integrated tobacco use measures into routinely-monitored clinical dashboards for several chronic diseases.</p>
          </sec>
          <sec>
             <st>
                <p>Ensure participation and support at all levels</p>
             </st>
             <p>
                    <it>Support from health system leadership is essential.</it> All health systems were able to garner support from top-level executives and foster champions in key leadership positions (e.g., medical directors, CEOs). One project manager said, &#8220;Find your champions early and make sure they are committed, especially if it&#8217;s going to involve staff that they supervise&#8221;. This support helped free up staff time and resources to develop, pilot and implement these changes. Within one system, meetings were held monthly during the first year and then quarterly with a team consisting of the clinic manager, director of the center (also a physician) and the vice president of operations. These executives reviewed plans, offered suggestions and gave their full support to their systems change endeavors. When the clinical manager left unexpectedly, the center director assumed this role on the team. The director's commitment to the program provided stability to the committee and helped the project keep to its timelines. Within another system, a clinic medical director participated in outreach and education of staff and providers. The director of psychiatry services was also active in moving sustainability efforts to the highest levels of the system. This included engaging the boards and foundations of which he was a part as well as by speaking with other physician peers to garner their support for the changes.</p>
             <p>
                    <it>Multi-disciplinary teams help increase buy-in for new processes and procedures.</it> All systems established multi-disciplinary teams across departments and functions to ensure system-wide buy-in for new processes. For example, one site had a team that consisted of clinic managers, cessation counselors, a medical director, director of pharmacy, information technology (IT) specialist, marketing specialist, accountant, quality program manager, vice president of operations and center director. Another health system pointed out that &#8220;It&#8217;s not just one person&#8217;s program. It&#8217;s everybody&#8217;s program. Everyone needs to have a say and have their ideas valued and incorporated&#8221;. Three of the health systems asked medical providers and staff to take part in the development and piloting of the processes and procedures they would be charged with implementing. In one system, a medical assistant took the initiative to learn the new workflow and discussed it at staff meetings. She conducted brief trainings with other staff and served as a resource for them if they had questions. This approach proved to be important in gaining buy-in and developing procedures that fit the unique workflows of specific departments, clinics or hospitals. Perhaps more importantly, multi-disciplinary involvement opened the door to additional streamlining of new procedures across &#8220;siloed&#8221; segments of the health system that do not always have compatible systems or procedures. For example, tobacco treatment specialists housed within an outpatient clinic carried beepers so that staff at the affiliated hospital could alert the specialists when a tobacco user was admitted to the hospital and needed cessation assistance. Within this same health system, the director of pharmacy helped push new nicotine replacement therapy (NRT) protocols through to the hospital side and also helped IT staff develop the medication smart set on the clinic side.</p>
             <p>
                    <it>Establishing a minimum standard intervention while allowing for flexibility can facilitate implementation.</it> Implementing standardized workflows or procedures across entire health systems, clinics and departments can be challenging due to differences in how entities operate. One successful technique was to create a minimum standard intervention, based on the <it>United States Public Health Service Guideline, Treating Tobacco Use and Dependence &#8211; 2008 Update</it>, that each department or clinic could implement in a manner best suited to their specific environment. For example, one system formulated a standard minimum intervention that included screening every patient for tobacco use at every visit, assessing willingness to quit and providing treatment referrals. Each clinic within that system established its own standard work processes to provide the minimum intervention as well as any additional elements (e.g., referral to on-site counseling). The project manager for that system explained, &#8220;We had ideas of the definite pieces we wanted in the [workflow], but we left space for each clinic to individualize how it might work best for them&#8221;. More specifically, at all clinics within the system either a medical assistant or nurse (&#8220;roomer&#8221;) would ask about tobacco use and assess willingness to quit at every visit and document both. At this point, a referral was either done by the roomer or by the attending physician. Some physicians preferred to conduct a brief intervention themselves and discuss medications and then refer the client to the state quitline via fax referral. Two of the clinics had on-site counseling available through a clinical pharmacist trained in tobacco cessation and one of these two clinics also had a healthy lifestyle clinic once a week that addressed tobacco use. After the clinics received feedback from the quitline fax referral triage center with a patient&#8217;s documented outcome (e.g., enrolled in quitline service), the patient was sent one of two letters: a congratulatory letter if they chose to enroll or a letter offering further assistance to those that were not reached or elected not to enroll. A standard work document was created for all four clinics to clarify staff roles.</p>
          </sec>
          <sec>
             <st>
                <p>Use technology</p>
             </st>
             <p>
                    <it>Using EHRs can facilitate implementation and documentation of tobacco treatment protocols.</it> EHR systems helped streamline tobacco screening, treatment and referral procedures and improved documentation in three systems. For example, one health system developed and implemented new drop-down lists or &#8220;order sets&#8221; for tobacco cessation within its EHR to allow clinicians to tailor medications to individual tobacco users. The new order sets also allow clinicians to assess and refer patients to internal or external treatment options (e.g., on-site counseling or telephone quitline) and send prescriptions to pharmacies electronically. Integrating these procedures into the EHR also helped facilitate documentation of tobacco treatment efforts. In another system, IT staff constructed a new registration process for patients and created a new ordering procedure for NRT within the EHR. The IT team created a &#8220;smart set&#8221; that allowed counselors to document how tobacco use was addressed during the clinic visit. This smart set was also used to extract data for quality improvement efforts. The IT team also created other data reports that allowed for tracking of provider&#8217;s efforts to identify and intervene with patients who use tobacco (e.g. referrals made, medications prescribed) as well as to look at patient outcomes. Another system modified their EHR so that all departments within their clinics (e.g. medical, ophthalmology, chiropractic, behavioral health) were able to electronically refer patients to on-site tobacco dependence treatment. The remaining systems found fields within their existing EHRs to document tobacco use status. These systems provided training to staff around assessing readiness to quit and providing referrals within the current capabilities of each clinic&#8217;s EHR.</p>
             <p>
                    <it>EHR limitations may exist, but these can be managed to keep systems changes moving forward.</it> While using EHRs helped facilitate implementation of new protocols or workflows, they also presented challenges for some health systems. Some EHRs, for example, did not have the ability to document and track treatment referrals, and therefore were not designed to support evidence-based tobacco dependence treatment. In other instances, new EHR systems were being implemented on a schedule that differed from the funding period. The project manager at that system advised others to, &#8220;respect the limits of the [EHR] but don&#8217;t let the [EHR] keep you from implementing a process&#8221;. When changes to the EHR could not be easily made, processes were created to take advantage of the strengths and to acknowledge limitations of the existing system. One system worked with IT staff and technical assistance providers to influence their future EHR system while simultaneously building new processes for screening, treatment and referral within their current system.</p>
          </sec>
          <sec>
             <st>
                <p>Establish ongoing training and continuous quality improvement mechanisms</p>
             </st>
             <p>
                    <it>Ongoing training helps maintain strong processes for treating tobacco dependence.</it> Implementation of new protocols involves ongoing training of staff and clinicians. All of the health systems reported conducting multiple trainings with staff and providers to ensure correct and consistent implementation of tobacco treatment protocols. Training took multiple forms, from large group to one on one. While the technical assistance providers conducted one or two trainings of staff and providers within each system, the systems change managers, clinic managers and champions conducted much of the training or retraining in groups or one-on-one. In one system, while little training had yet occurred, it appeared that future training on new protocols and EHR elements would be handled by the system&#8217;s professional education department. Another system video-recorded a training conducted by one of the technical assistance providers that was then to be made available on the system&#8217;s intranet for nurses to obtain CEUs. Peer-led training (i.e., clinician champions training other clinicians) was often better received than training provided by external staff. Given the regularity of staff turnover, the systems added tobacco intervention protocols as part of new employee orientation, and some systems included ongoing training as part of continuing quality improvement or performance-monitoring efforts. One project manager shared, &#8220;We wrote in the grant initially that we were going to do one-time trainings. We realized as the process was unfolding that we had to keep going back and re-training&#8221;.</p>
             <p>
                    <it>Using data for continuous quality improvement and performance monitoring can help identify problems and prompt actions to improve consistency of workflow processes.</it> All systems established monitoring procedures to ensure that new protocols were put into practice appropriately. Additionally, three systems built and implemented data extraction and reporting capabilities into their EHR to be able to monitor whether protocols were being followed. These health systems worked with quality improvement and IT staff to establish discrete data points that could be extracted from the EHR to monitor tobacco treatment delivery. This information was shared with staff and clinicians on a monthly or quarterly basis and used to identify where additional training was needed. One system used &#8220;huddle boards&#8221; in the clinic for providers, nursing staff and leaders to review and discuss different metrics such as the number of tobacco users being referred to cessation treatment. During these &#8220;huddles&#8221;, staff would brainstorm solutions to problems, such as a lack of referrals, and occasionally provided refreshers on protocols. The project manager at that clinic explained, &#8220;I can use those [huddle board] meetings as a reminder: &#8216;How&#8217;s the process going? . . . Are there any concerns?&#8217; . . . It was also a place where we could report data and set some goals, such as a goal for the number of referrals per month&#8221;. Data suggest the systems will continue to monitor tobacco use and tobacco treatment protocols, at least until the procedures appear to have become routine practice for staff and providers.</p>
          </sec>
          <sec>
             <st>
                <p>Leverage external funding and technical assistance</p>
             </st>
             <p>
                    <it>External resources and assistance from technical experts can help elevate the priority of systems changes.</it> Almost all systems noted that changes would likely not have occurred without the targeted funding provided in this initiative, as this helped elevate the priority of tobacco-related systems changes. One system found the funding instrumental in making necessary EHR changes: &#8220;Funding really contributed quite a bit. . . . Take, for instance, the EMR changes or report writing we did within EPIC. EPIC and reporting staff have about 100 jobs to do. Without the ability to say &#8216;we have some funding to buy some of your [IT] staff time,&#8217; our project would have been at or near 100. Instead, we were up in the top 10&#8221;. Another project manager shared that &#8220;the grant helped support the process, solidify commitment and helped elevate work to a higher priority&#8221;. Additionally, the availability of technical assistance allowed most systems to identify and address specific assets and gaps within their health system. While one system struggled with defining the role of the technical assistance provider, the other systems found their experiences, resources and recommendations to be instrumental in advancing their individual systems change activities. For example, one project manager reported using the technical experts with their training activities: &#8220;They came here to present an in-service to the cardiology staff. We videotaped it, put it on the learning portal and it can now be accessed by nursing staff to receive continuing education credits&#8221;. Other systems found value in resource sharing, facilitation of dialogues with other health systems undertaking this work and advice on engaging other parts of large health systems.</p>
          </sec>
          <sec>
             <st>
                <p>Challenges and barriers for health systems</p>
             </st>
             <p>While the focus of this article is on positive facilitators of change, the four health systems also had to overcome some challenges and barriers. Some systems were forced to balance multiple system priorities while maintaining momentum and addressing staff turnover. Larger health systems had to address differences in cultures, process and electronic systems among various departments and clinics. When utilizing technology to support systems changes, some were challenged by inadequate reporting and data fields within their current EHR system. Finally, some systems had to overcome clinician reluctance to refer patients to external treatment options (e.g. quitlines). Some clinicians were also less confident in their ability to intervene with tobacco users and were concerned about the amount of time it would take to provide tobacco dependence treatment while also implementing new processes and responsibilities.</p>
          </sec>
       </sec>
       <sec>
          <st>
             <p>Discussion</p>
          </st>
          <p>Findings from this qualitative analysis suggest that health systems can successfully implement substantial changes to facilitate tobacco dependence treatment in a relatively short timeframe. This study demonstrated that health systems could systematize identification and documentation of tobacco users, implement follow-up procedures and use EHR systems to facilitate systems changes. Factors positively impacting their ability to do this were capitalizing on environmental changes, ensuring leadership support, using technology, establishing mechanisms for continuous quality improvement and leveraging external funding and technical assistance.</p>
          <p>These findings are consistent with existing literature, which shows the importance of advocacy from internal champions to successfully complete the work <abbrgrp>
                <abbr bid="B14">14</abbr>
             </abbrgrp> and implementing process improvements with support from leadership <abbrgrp>
                <abbr bid="B18">18</abbr>
             </abbrgrp>,<abbrgrp>
                <abbr bid="B19">19</abbr>
             </abbrgrp>. Additionally, health systems change implementation guides highlight EHRs as tools for achieving meaningful use goals, supporting new processes and newly-trained clinical staff, and enabling efficient tobacco user documentation and intervention via a care coordination model. One new implementation guide is titled &#8220;Help Your Patients Quit Tobacco Use: An Implementation Guide for Community Health Centers <abbrgrp>
                <abbr bid="B22">22</abbr>
             </abbrgrp>&#8221;. Findings from this study are consistent with these recommendations.</p>
          <p>Furthermore, this study builds on the technology literature <abbrgrp>
                <abbr bid="B17">17</abbr>
             </abbrgrp> by demonstrating the importance of using EHRs to fully integrate treatment into ongoing care delivery as well as to improve the delivery of tobacco cessation services. Using EHRs effectively will be essential for many reasons, including using them to improve delivery of care and to comply with meaningful use incentives and other federal requirements.</p>
          <p>Health systems change initiatives in treating tobacco use have increasingly become priorities for national and state level funders. The U.S. Centers for Disease Control and Prevention&#8217;s (CDC&#8217;s) newly updated Best Practices for Comprehensive Tobacco Control Programs identifies health systems change as a key cessation activity. CDC now recommends that the focus of state-level tobacco control programs &#8220;should remain on population-level, strategic efforts to reconfigure policies and systems in ways that normalize quitting and that institutionalize tobacco use screening and intervention within medical care&#8221; <abbrgrp>
                <abbr bid="B8">8</abbr>
             </abbrgrp>. The findings from this study can serve as a resource for both states and health systems likely to implement similar systems changes.</p>
          <sec>
             <st>
                <p>Insights for health systems</p>
             </st>
             <p>Process improvements such as those undertaken within these health systems can be individualized and implemented in a way that works within existing systems and workflows. With technical assistance and examples of best practice protocols, health systems can improve their delivery of tobacco dependence treatment at the systems level. These improvements have potential to decrease tobacco use and improve health for their entire patient population.</p>
             <p>Additionally, these findings highlight factors health systems need to account for in order to quickly design and implement changes for integrating tobacco treatment into routine care. The systems focused on multiple factors, such as ensuring buy-in from organizational leadership, creating a multi-disciplinary project team, using electronic health record systems as change agents and ensuring continuous training and quality improvement feedback for clinicians and staff. Addressing these factors simultaneously allowed systems to efficiently implement new processes and procedures to advance this work.</p>
          </sec>
          <sec>
             <st>
                <p>Insights for funders</p>
             </st>
             <p>Implementing health systems changes for tobacco treatment is likely new work for funders and health systems. In undertaking this funding initiative, ClearWay Minnesota created processes to facilitate information sharing through annual site visits, all-grantee meetings and facilitated conference calls. Flexibility was also built into grant requirements, budgets and workplan design. For example, while ClearWay Minnesota required strategies to identify and document tobacco users, health systems could choose other strategies based on gaps identified during a system-wide standardized assessment (Table&#160;<tblr tid="T2">2</tblr>). This approach allowed ClearWay Minnesota to develop a unique understanding of health systems change that it will use in planning future funding initiatives. Other funders may wish to consider a similar approach.</p>
             <p>Technical assistance was also important. ClearWay Minnesota contracted for technical assistance to support the grantees&#8217; work, which allowed for provision of specific expertise in health systems change that was not available internally. The technical assistance provider and funder worked together to help grantees identify areas where they could potentially benefit from additional support throughout the funding period. It was important for grantees to have a clear understanding of the resources, tools and expertise available to them, as well as how to access those resources.</p>
             <p>There are also possibilities for future inquiry. As health care reforms are implemented in the United States, there will be opportunities to evaluate how new health care delivery models and payment reforms facilitate or hinder integration of tobacco treatment into routine care, and the impact of treatment integration on population health outcomes intended by these new models. Additionally, there may also be interest in evaluating the effects of systems changes on both outcomes (e.g., quit rates) and patients' acceptability of and satisfaction with these types of changes and the associated treatment delivery improvements.</p>
          </sec>
          <sec>
             <st>
                <p>Limitations</p>
             </st>
             <p>This report is subject to several limitations. This study was observational in nature, and therefore we cannot be certain whether changes occurred solely as a result of the funding initiative. This study was primarily designed to gather information that would help ClearWay Minnesota make decisions around funding of similar efforts in the future. It was not designed to measure sustainability of changes in the long term (only the <it>potential for</it> long-term sustainability), nor was it designed to measure impacts on patients as a result of these efforts (e.g., successes in quitting tobacco use). While direct, on-site observation of systems changes (such as following patients through the tobacco use identification and brief intervention processes) would have allowed for monitoring of actual implementation of systems changes, this was not possible given resources, burden on the health systems, and patient privacy and confidentiality concerns. Additionally, the small number of health systems funded, small number of interviewees from each health system, and the fact that all were located in Minnesota limit the generalizability of findings. However, many of the themes identified in this analysis (e.g., need for champions, multi-disciplinary teams, leveraging technology) have been cited both in the United States and elsewhere as necessary for supporting health systems change <abbrgrp>
                   <abbr bid="B23">23</abbr>
                </abbrgrp>-<abbrgrp>
                   <abbr bid="B25">25</abbr>
                </abbrgrp>. The relationship between the health systems, technical assistants, evaluators and funder is a potential source of bias; however, this risk was mitigated by using an independent evaluator and basing the evaluation on the improvement of processes rather than outcomes. Finally, ClearWay Minnesota had a long history of working with these funded projects prior to this initiative. These systems already recognized tobacco use as a priority, which may have led to more rapid implementation of systems-level changes.</p>
          </sec>
       </sec>
       <sec>
          <st>
             <p>Conclusions</p>
          </st>
          <p>Health system change strategies present a significant opportunity to integrate evidence-based practices for treating tobacco dependence into routine health care. Such work is increasingly important given the implementation of Meaningful Use and other healthcare quality measures. Routine delivery of tobacco dependence treatment will become increasingly important as providers, employers, insurers and government entities look to improve the public&#8217;s health and reduce the total cost of health care. Funding for health systems change initiatives elevates the priority of this work in environments with many competing demands. Funders and health systems should consider capitalizing on the changing health care environment by investing in health systems changes for tobacco dependence treatment as one strategy to help drive down the premature morbidity and mortality associated with tobacco use.</p>
       </sec>
       <sec>
          <st>
             <p>Competing interests</p>
          </st>
          <p>This study was funded by ClearWay Minnesota.</p>
       </sec>
       <sec>
          <st>
             <p>Authors&#8217; contributions</p>
          </st>
          <p>AJ, PK, RL, TC &amp; LG designed this study; TC &amp; LG conducted the data analysis; AJ &amp; TC drafted sections of the initial manuscript; all authors participated in the interpretation of the results and were involved in revising the manuscript; all authors read and approved the final manuscript.</p>
       </sec>
    </bdy>
    <bm>
       <ack>
          <sec>
             <st>
                <p>Acknowledgements</p>
             </st>
             <p>The authors would like to acknowledge Barbara Schillo, Ph.D. (ClearWay Minnesota), Robert Adsit, M.A. and Kristine Hayden, B.S. (University of Wisconsin &#8211; Center for Tobacco Research and Intervention), and the systems change grantees for contributing to this work. Funding for this work was supported by ClearWay Minnesota.</p>
          </sec>
       </ack>
       <refgrp>
          
          <bibl id="B1">
             <aug>
                <au>
                   <snm>Fiore</snm>
                   <fnm>M</fnm>
                </au>
                <au>
                   <snm>Jaen</snm>
                   <fnm>C</fnm>
                </au>
                <au>
                   <snm>Baker</snm>
                   <fnm>T</fnm>
                </au>
                <au>
                   <snm>Bailey</snm>
                   <fnm>WC</fnm>
                </au>
                <au>
                   <snm>Benowitze</snm>
                   <fnm>NL</fnm>
                </au>
                <au>
                   <snm>Curry</snm>
                   <fnm>SJ</fnm>
                </au>
             </aug>
             <source>Treating Tobacco Use and Dependence: 2008 Update Clinical Practice Guideline</source>
             <publisher>U.S. Department of Health and Human Services, Public Health Service, Rockville, MD</publisher>
             <pubdate>2008</pubdate>
          </bibl>
          <bibl id="B2">
             <source>The Health Consequences of Smoking-50 Years of Progress</source>
             <publisher>U.S. Department of Health and Human Services, Centers for Disease Control and Prevention, National Center for Chronic Disease Prevention and Health Promotion, Office on Smoking and Health, Rockville, MD</publisher>
             <pubdate>2014</pubdate>
          </bibl>
          <bibl id="B3">
             <title>
                <p>Decrease in smoking prevalence&#8211;Minnesota, 1999&#8211;2010</p>
             </title>
             <source>MMWR Morb Mortal Wkly Rep</source>
             <pubdate>2011</pubdate>
             <volume>60</volume>
             <issue>5</issue>
             <fpage>138</fpage>
             <lpage>141</lpage>
          </bibl>
          <bibl id="B4">
             <title>
                <p>Tobacco-cessation services and patient satisfaction in nine nonprofit HMOs</p>
             </title>
             <aug>
                <au>
                   <snm>Quinn</snm>
                   <fnm>VP</fnm>
                </au>
                <au>
                   <snm>Stevens</snm>
                   <fnm>VJ</fnm>
                </au>
                <au>
                   <snm>Hollis</snm>
                   <fnm>JF</fnm>
                </au>
                <au>
                   <snm>Rigotti</snm>
                   <fnm>NA</fnm>
                </au>
                <au>
                   <snm>Solberg</snm>
                   <fnm>LI</fnm>
                </au>
                <au>
                   <snm>Gordon</snm>
                   <fnm>N</fnm>
                </au>
                <au>
                   <snm>Ritzwoller</snm>
                   <fnm>D</fnm>
                </au>
                <au>
                   <snm>Smith</snm>
                   <fnm>KS</fnm>
                </au>
                <au>
                   <snm>Hu</snm>
                   <fnm>W</fnm>
                </au>
                <au>
                   <snm>Zapka</snm>
                   <fnm>J</fnm>
                </au>
             </aug>
             <source>Am J Prev Med</source>
             <pubdate>2005</pubdate>
             <volume>29</volume>
             <issue>2</issue>
             <fpage>77</fpage>
             <lpage>84</lpage>
             <xrefbib>
                <pubidlist>
                   <pubid idtype="doi">10.1016/j.amepre.2005.04.006</pubid>
                   <pubid idtype="pmpid" link="fulltext">16005802</pubid>
                </pubidlist>
             </xrefbib>
          </bibl>
          <bibl id="B5">
             <source>The Health Consequences of Smoking: A Report of the Surgeon General</source>
             <publisher>U.S. Department of Health and Human Services, Centers for Disease Control and Prevention, National Center for Chronic Disease Prevention and Health Promotion, Office on Smoking and Health, Atlanta, GA</publisher>
             <pubdate>2004</pubdate>
          </bibl>
          <bibl id="B6">
             <title>
                <p>The return on investment of a Medicaid tobacco cessation program in Massachusetts</p>
             </title>
             <aug>
                <au>
                   <snm>Richard</snm>
                   <fnm>P</fnm>
                </au>
                <au>
                   <snm>West</snm>
                   <fnm>K</fnm>
                </au>
                <au>
                   <snm>Ku</snm>
                   <fnm>L</fnm>
                </au>
             </aug>
             <source>PLoS One</source>
             <pubdate>2012</pubdate>
             <volume>7</volume>
             <issue>1</issue>
             <fpage>e29665</fpage>
             <xrefbib>
                <pubidlist>
                   <pubid idtype="doi">10.1371/journal.pone.0029665</pubid>
                   <pubid idtype="pmpid" link="fulltext">22238633</pubid>
                </pubidlist>
             </xrefbib>
          </bibl>
          <bibl id="B7">
             
                <url>www.multistatecessationcollaborative.org/healthsystemschange/definingsystems</url>
             
<note>
                <b>Defining Systems &#8211; The Multi-State Collaborative for Health Systems Change</b> [http:]</note>
          </bibl>
          <bibl id="B8">
             <source>Best Practices for Comprehensive Tobacco Control Programs-2014</source>
             <publisher>U.S. Department of Health and Human Services, Atlanta, GA</publisher>
             <pubdate>2014</pubdate>
          </bibl>
          <bibl id="B9">
             <title>
                <p>Smoking status as the new vital sign: effect on assessment and intervention in patients who smoke</p>
             </title>
             <aug>
                <au>
                   <snm>Fiore</snm>
                   <fnm>MC</fnm>
                </au>
                <au>
                   <snm>Jorenby</snm>
                   <fnm>DE</fnm>
                </au>
                <au>
                   <snm>Schensky</snm>
                   <fnm>AE</fnm>
                </au>
                <au>
                   <snm>Smith</snm>
                   <fnm>SS</fnm>
                </au>
                <au>
                   <snm>Bauer</snm>
                   <fnm>RR</fnm>
                </au>
                <au>
                   <snm>Baker</snm>
                   <fnm>TB</fnm>
                </au>
             </aug>
             <source>Mayo Clin Proc</source>
             <pubdate>1995</pubdate>
             <volume>70</volume>
             <issue>3</issue>
             <fpage>209</fpage>
             <lpage>213</lpage>
             <xrefbib>
                <pubidlist>
                   <pubid idtype="doi">10.4065/70.3.209</pubid>
                   <pubid idtype="pmpid" link="fulltext">7861807</pubid>
                </pubidlist>
             </xrefbib>
          </bibl>
          <bibl id="B10">
             <title>
                <p>Smoking status as a vital sign</p>
             </title>
             <aug>
                <au>
                   <snm>Ahluwalia</snm>
                   <fnm>JS</fnm>
                </au>
                <au>
                   <snm>Gibson</snm>
                   <fnm>CA</fnm>
                </au>
                <au>
                   <snm>Kenney</snm>
                   <fnm>RE</fnm>
                </au>
                <au>
                   <snm>Wallace</snm>
                   <fnm>DD</fnm>
                </au>
                <au>
                   <snm>Resnicow</snm>
                   <fnm>K</fnm>
                </au>
             </aug>
             <source>J Gen Intern Med</source>
             <pubdate>1999</pubdate>
             <volume>14</volume>
             <issue>7</issue>
             <fpage>402</fpage>
             <lpage>408</lpage>
             <xrefbib>
                <pubidlist>
                   <pubid idtype="doi">10.1046/j.1525-1497.1999.09078.x</pubid>
                   <pubid idtype="pmpid" link="fulltext">10417597</pubid>
                </pubidlist>
             </xrefbib>
          </bibl>
          <bibl id="B11">
             <title>
                <p>Use of the vital sign stamp as a systematic screening tool to promote smoking cessation</p>
             </title>
             <aug>
                <au>
                   <snm>Piper</snm>
                   <fnm>ME</fnm>
                </au>
                <au>
                   <snm>Fiore</snm>
                   <fnm>MC</fnm>
                </au>
                <au>
                   <snm>Smith</snm>
                   <fnm>SS</fnm>
                </au>
                <au>
                   <snm>Jorenby</snm>
                   <fnm>DE</fnm>
                </au>
                <au>
                   <snm>Wilson</snm>
                   <fnm>JR</fnm>
                </au>
                <au>
                   <snm>Zehner</snm>
                   <fnm>ME</fnm>
                </au>
                <au>
                   <snm>Baker</snm>
                   <fnm>TB</fnm>
                </au>
             </aug>
             <source>Mayo Clin Proc</source>
             <pubdate>2003</pubdate>
             <volume>78</volume>
             <issue>6</issue>
             <fpage>716</fpage>
             <lpage>722</lpage>
             <xrefbib>
                <pubidlist>
                   <pubid idtype="doi">10.4065/78.6.716</pubid>
                   <pubid idtype="pmpid" link="fulltext">12934781</pubid>
                </pubidlist>
             </xrefbib>
          </bibl>
          <bibl id="B12">
             <title>
                <p>The feasibility of paper-based Tracking Codes and electronic medical record systems to monitor tobacco-use assessment and intervention in an Individual Practice Association (IPA) Model health maintenance organization (HMO)</p>
             </title>
             <aug>
                <au>
                   <snm>Bentz</snm>
                   <fnm>C</fnm>
                </au>
                <au>
                   <snm>Davis</snm>
                   <fnm>N</fnm>
                </au>
                <au>
                   <snm>Bayley</snm>
                   <fnm>B</fnm>
                </au>
             </aug>
             <source>Nicotine Tob Res</source>
             <pubdate>2002</pubdate>
             <volume>4</volume>
             <issue>Suppl 1</issue>
             <fpage>S9</fpage>
             <lpage>17</lpage>
             <xrefbib>
                <pubidlist>
                   <pubid idtype="doi">10.1080/14622200210128036</pubid>
                   <pubid idtype="pmpid" link="fulltext">11945214</pubid>
                </pubidlist>
             </xrefbib>
          </bibl>
          <bibl id="B13">
             <title>
                <p>Systems approaches to tobacco dependence treatment</p>
             </title>
             <aug>
                <au>
                   <snm>McDaniel</snm>
                   <fnm>A</fnm>
                </au>
                <au>
                   <snm>Stratton</snm>
                   <fnm>R</fnm>
                </au>
                <au>
                   <snm>Britain</snm>
                   <fnm>M</fnm>
                </au>
             </aug>
             <source>Annu Rev Nurs Res</source>
             <pubdate>2009</pubdate>
             <volume>27</volume>
             <fpage>345</fpage>
             <lpage>363</lpage>
             <xrefbib>
                <pubidlist>
                   <pubid idtype="doi">10.1891/0739-6686.27.345</pubid>
                   <pubid idtype="pmpid" link="fulltext">20192111</pubid>
                </pubidlist>
             </xrefbib>
          </bibl>
          <bibl id="B14">
             <title>
                <p>Provider feedback to improve 5A's tobacco cessation in primary care: a cluster randomized clinical trial</p>
             </title>
             <aug>
                <au>
                   <snm>Bentz</snm>
                   <fnm>C</fnm>
                </au>
                <au>
                   <snm>Bayley</snm>
                   <fnm>K</fnm>
                </au>
                <au>
                   <snm>Bonin</snm>
                   <fnm>K</fnm>
                </au>
                <au>
                   <snm>Fleming</snm>
                   <fnm>L</fnm>
                </au>
                <au>
                   <snm>Hollis</snm>
                   <fnm>J</fnm>
                </au>
                <au>
                   <snm>Hunt</snm>
                   <fnm>J</fnm>
                </au>
                <au>
                   <snm>LeBlanc</snm>
                   <fnm>B</fnm>
                </au>
                <au>
                   <snm>McAfee</snm>
                   <fnm>T</fnm>
                </au>
                <au>
                   <snm>Payne</snm>
                   <fnm>N</fnm>
                </au>
                <au>
                   <snm>Siemienczuk</snm>
                   <fnm>J</fnm>
                </au>
             </aug>
             <source>Nicotine Tob Res</source>
             <pubdate>2007</pubdate>
             <volume>9</volume>
             <issue>3</issue>
             <fpage>341</fpage>
             <lpage>349</lpage>
             <xrefbib>
                <pubidlist>
                   <pubid idtype="doi">10.1080/14622200701188828</pubid>
                   <pubid idtype="pmpid" link="fulltext">17365766</pubid>
                </pubidlist>
             </xrefbib>
          </bibl>
          <bibl id="B15">
             <title>
                <p>Capturing tobacco status using an automated billing system: steps toward a tobacco registry</p>
             </title>
             <aug>
                <au>
                   <snm>McAfee</snm>
                   <fnm>T</fnm>
                </au>
                <au>
                   <snm>Grossman</snm>
                   <fnm>R</fnm>
                </au>
                <au>
                   <snm>Dacey</snm>
                   <fnm>S</fnm>
                </au>
                <au>
                   <snm>McClure</snm>
                   <fnm>J</fnm>
                </au>
             </aug>
             <source>Nicotine Tob Res</source>
             <pubdate>2002</pubdate>
             <volume>4</volume>
             <issue>Suppl 1</issue>
             <fpage>S31</fpage>
             <lpage>37</lpage>
             <xrefbib>
                <pubidlist>
                   <pubid idtype="doi">10.1080/14622200210128009</pubid>
                   <pubid idtype="pmpid" link="fulltext">11945217</pubid>
                </pubidlist>
             </xrefbib>
          </bibl>
          <bibl id="B16">
             <title>
                <p>Provider feedback improves adherence with AHCPR Smoking Cessation Guideline</p>
             </title>
             <aug>
                <au>
                   <snm>Andrews</snm>
                   <fnm>JO</fnm>
                </au>
                <au>
                   <snm>Tingen</snm>
                   <fnm>MS</fnm>
                </au>
                <au>
                   <snm>Waller</snm>
                   <fnm>JL</fnm>
                </au>
                <au>
                   <snm>Harper</snm>
                   <fnm>RJ</fnm>
                </au>
             </aug>
             <source>Prev Med</source>
             <pubdate>2001</pubdate>
             <volume>33</volume>
             <issue>5</issue>
             <fpage>415</fpage>
             <lpage>421</lpage>
             <xrefbib>
                <pubidlist>
                   <pubid idtype="doi">10.1006/pmed.2001.0907</pubid>
                   <pubid idtype="pmpid" link="fulltext">11676582</pubid>
                </pubidlist>
             </xrefbib>
          </bibl>
          <bibl id="B17">
             <title>
                <p>Use of electronic health records to support smoking cessation</p>
             </title>
             <aug>
                <au>
                   <snm>Boyle</snm>
                   <fnm>R</fnm>
                </au>
                <au>
                   <snm>Solberg</snm>
                   <fnm>L</fnm>
                </au>
                <au>
                   <snm>Fiore</snm>
                   <fnm>M</fnm>
                </au>
             </aug>
             <source>Cochrane Database Syst Rev</source>
             <pubdate>2011</pubdate>
             <volume>12</volume>
             <fpage>CD008743</fpage>
             <xrefbib>
                <pubidlist>
                   <pubid idtype="pmpid" link="fulltext">22161436</pubid>
                </pubidlist>
             </xrefbib>
          </bibl>
          <bibl id="B18">
             <title>
                <p>Is Making Smoking Status a Vital Sign Sufficient to Increase Cessation Support Actions in Clinical Practice?</p>
             </title>
             <aug>
                <au>
                   <snm>Boyle</snm>
                   <fnm>R</fnm>
                </au>
                <au>
                   <snm>Solberg</snm>
                   <fnm>L</fnm>
                </au>
             </aug>
             <source>Ann Fam Med</source>
             <pubdate>2004</pubdate>
             <volume>2</volume>
             <fpage>3</fpage>
             <xrefbib>
                <pubidlist>
                   <pubid idtype="doi">10.1370/afm.38</pubid>
                </pubidlist>
             </xrefbib>
          </bibl>
          <bibl id="B19">
             <title>
                <p>Simplicity matters: using system-level changes to encourage clinician intervention in helping tobacco users quit</p>
             </title>
             <aug>
                <au>
                   <snm>Revell</snm>
                   <fnm>CC</fnm>
                </au>
                <au>
                   <snm>Schroeder</snm>
                   <fnm>SA</fnm>
                </au>
             </aug>
             <source>Nicotine Tob Res</source>
             <pubdate>2005</pubdate>
             <volume>7</volume>
             <issue>Suppl 1</issue>
             <fpage>S67</fpage>
             <lpage>69</lpage>
             <xrefbib>
                <pubidlist>
                   <pubid idtype="doi">10.1080/14622200500078162</pubid>
                   <pubid idtype="pmpid" link="fulltext">16036272</pubid>
                </pubidlist>
             </xrefbib>
          </bibl>
          <bibl id="B20">
             <aug>
                <au>
                   <snm>Yin</snm>
                   <fnm>RK</fnm>
                </au>
             </aug>
             <source>Applications of Case Study Research: Third Edition</source>
             <publisher>Sage Publications, Inc., Thousand Oaks, CA</publisher>
             <pubdate>2012</pubdate>
          </bibl>
          <bibl id="B21">
             <aug>
                <au>
                   <snm>Patton</snm>
                   <fnm>MQ</fnm>
                </au>
             </aug>
             <source>Qualitative Research and Evaluation Methods: Third Edition</source>
             <publisher>Sage Publications, Inc., Thousand Oaks, CA</publisher>
             <pubdate>2001</pubdate>
          </bibl>
          <bibl id="B22">
             
                <url>http://www.prevent.org/data/files/actiontoquit/leg-community_health_report_inside_final_web_101013.pdf</url>
             
<note>Legacy, Partnership for Prevention: <b>Help Your Patients Quit Tobacco Use: An Implementation Guide for Community Health Centers</b>. []</note>
          </bibl>
          <bibl id="B23">
             <title>
                <p>The role of health care systems in increased tobacco cessation</p>
             </title>
             <aug>
                <au>
                   <snm>Curry</snm>
                   <fnm>SJ</fnm>
                </au>
                <au>
                   <snm>Keller</snm>
                   <fnm>PA</fnm>
                </au>
                <au>
                   <snm>Orleans</snm>
                   <fnm>CT</fnm>
                </au>
                <au>
                   <snm>Fiore</snm>
                   <fnm>MC</fnm>
                </au>
             </aug>
             <source>Annu Rev Public Health</source>
             <pubdate>2008</pubdate>
             <volume>29</volume>
             <fpage>411</fpage>
             <lpage>428</lpage>
             <xrefbib>
                <pubidlist>
                   <pubid idtype="doi">10.1146/annurev.publhealth.29.020907.090934</pubid>
                   <pubid idtype="pmpid" link="fulltext">18173387</pubid>
                </pubidlist>
             </xrefbib>
          </bibl>
          <bibl id="B24">
             <title>
                <p>Smoking cessation for hospitalized smokers: an evaluation of the "Ottawa Model"</p>
             </title>
             <aug>
                <au>
                   <snm>Reid</snm>
                   <fnm>RD</fnm>
                </au>
                <au>
                   <snm>Mullen</snm>
                   <fnm>KA</fnm>
                </au>
                <au>
                   <snm>Slovinec D'Angelo</snm>
                   <fnm>ME</fnm>
                </au>
                <au>
                   <snm>Aitken</snm>
                   <fnm>DA</fnm>
                </au>
                <au>
                   <snm>Papadakis</snm>
                   <fnm>S</fnm>
                </au>
                <au>
                   <snm>Haley</snm>
                   <fnm>PM</fnm>
                </au>
                <au>
                   <snm>McLaughlin</snm>
                   <fnm>CA</fnm>
                </au>
                <au>
                   <snm>Pipe</snm>
                   <fnm>AL</fnm>
                </au>
             </aug>
             <source>Nicotine Tob Res</source>
             <pubdate>2010</pubdate>
             <volume>12</volume>
             <issue>1</issue>
             <fpage>11</fpage>
             <lpage>18</lpage>
             <xrefbib>
                <pubidlist>
                   <pubid idtype="doi">10.1093/ntr/ntp165</pubid>
                   <pubid idtype="pmpid" link="fulltext">19903737</pubid>
                </pubidlist>
             </xrefbib>
          </bibl>
          <bibl id="B25">
             <title>
                <p>Strategies to increase the delivery of smoking cessation treatments in primary care settings: a systematic review and meta-analysis</p>
             </title>
             <aug>
                <au>
                   <snm>Papadakis</snm>
                   <fnm>S</fnm>
                </au>
                <au>
                   <snm>Mullen</snm>
                   <fnm>KA</fnm>
                </au>
                <au>
                   <snm>Reid</snm>
                   <fnm>R</fnm>
                </au>
                <au>
                   <snm>Skulsky</snm>
                   <fnm>K</fnm>
                </au>
                <au>
                   <snm>Pipe</snm>
                   <fnm>A</fnm>
                </au>
             </aug>
             <source>Prev Med</source>
             <pubdate>2010</pubdate>
             <volume>51</volume>
             <issue>3&#8211;4</issue>
             <fpage>199</fpage>
             <lpage>213</lpage>
             <xrefbib>
                <pubidlist>
                   <pubid idtype="doi">10.1016/j.ypmed.2010.06.007</pubid>
                   <pubid idtype="pmpid" link="fulltext">20600264</pubid>
                </pubidlist>
             </xrefbib>
          </bibl>
       </refgrp>
    </bm>
 </art>
