<art>
    <ui>s13068-014-0159-x</ui>
    <ji>1754-6834</ji>
    <fm>
       <dochead>Research article</dochead>
       <bibl>
          <title>
             <p>Correlating the ability of lignocellulosic polymers to constrain water with the potential to inhibit cellulose saccharification</p>
          </title>
          <aug>
             <au ca="yes" id="A1">
                <snm>Selig</snm>
                <mi>J</mi>
                <fnm>Michael</fnm>
                <insr iid="I1"/>
                <email>mjs@life.ku.dk</email>
             </au>
             <au id="A2">
                <snm>Thygesen</snm>
                <mi>G</mi>
                <fnm>Lisbeth</fnm>
                <insr iid="I1"/>
                <email>lgt@ign.ku.dk</email>
             </au>
             <au id="A3">
                <snm>Felby</snm>
                <fnm>Claus</fnm>
                <insr iid="I1"/>
                <email>cf@ign.ku.dk</email>
             </au>
          </aug>
          <insg>
             <ins id="I1">
                <p>IGN, Faculty of Science, University of Copenhagen, Rolighedsvej 23, Frederiksberg, 1958, Denmark</p>
             </ins>
          </insg>
          <source>Biotechnology for Biofuels</source>
          <issn>1754-6834</issn>
          <pubdate>2014</pubdate>
          <volume>7</volume>
          <issue>1</issue>
          <fpage>159</fpage>
          <url>http://www.biotechnologyforbiofuels.com/content/7/1/159</url>
          <xrefbib>
             <pubidlist>
                <pubid idtype="doi">10.1186/s13068-014-0159-x</pubid>
             <pubid idtype="pmpid">25426165</pubid></pubidlist>
          </xrefbib>
       </bibl>
       <history>
          <rec>
             <date>
                <day>19</day>
                <month>6</month>
                <year>2014</year>
             </date>
          </rec>
          <acc>
             <date>
                <day>8</day>
                <month>10</month>
                <year>2014</year>
             </date>
          </acc>
          <pub>
             <date>
                <day>19</day>
                <month>11</month>
                <year>2014</year>
             </date>
          </pub>
       </history>
       <cpyrt>
          <year>2014</year>
          <collab>Selig et al.; licensee BioMed Central Ltd.</collab>
          <note>This is an Open Access article distributed under the terms of the Creative Commons Attribution License (<url>http://creativecommons.org/licenses/by/4.0</url>), which permits unrestricted use, distribution, and reproduction in any medium, provided the original work is properly credited. The Creative Commons Public Domain Dedication waiver (<url>http://creativecommons.org/publicdomain/zero/1.0/</url>) applies to the data made available in this article, unless otherwise stated.</note>
       </cpyrt>
       <kwdg>
          <kwd>Cellulose</kwd>
          <kwd>Biomass recalcitrance</kwd>
          <kwd>Entropy</kwd>
          <kwd>Hemicelluloses</kwd>
          <kwd>Water</kwd>
       </kwdg>
       <abs>
          <sec>
             <st>
                <p>Abstract</p>
             </st>
             <sec>
                <st>
                   <p>Background</p>
                </st>
                <p>Studies in bioconversions have continuously sought the development of processing strategies to overcome the &#8220;close physical association&#8221; between plant cell wall polymers thought to significantly contribute to biomass recalcitrance [Adv Space Res 18<b>:</b>251&#8211;265, 1996],[ Science 315<b>:</b>804&#8211;807, 2007]. To a lesser extent, studies have sought to understand biophysical factors responsible for the resistance of lignocelluloses to enzymatic degradation. Provided here are data supporting our hypothesis that the inhibitory potential of different cell wall polymers towards enzymatic cellulose hydrolysis is related to how much these polymers constrain the water surrounding them. We believe the entropy-reducing constraint imparted to polymer associated water plays a negative role by increasing the probability of detrimental interactions such as junction zone formation and the non-productive binding of enzymes.</p>
             </sec>
             <sec>
                <st>
                   <p>Results</p>
                </st>
                <p>Selected commercial lignocellulose-derived polymers, including hemicelluloses, pectins, and lignin, showed varied potential to inhibit 24-h cellulose conversion by a mix of purified cellobiohydrolase I and &#946;-glucosidase. At low dry matter loadings (0.5% w/w), insoluble hemicelluloses were most inhibitory (reducing conversion relative to cellulose-only controls by about 80%) followed by soluble xyloglucan and wheat arabinoxylan (reductions of about 70% and 55%, respectively), while the lignin and pectins tested were the least inhibitory (approximately 20% reduction). Low field nuclear magnetic resonance (LF-NMR) relaxometry used to observe water-related proton relaxation in saturated polymer suspensions (10% dry solids, w/w) showed spin-spin, T<sub>2,</sub> relaxation time curves generally approached zero faster for the most inhibitory polymer preparations. The manner of this decline varied between polymers, indicating different biophysical aspects may differentially contribute to overall water constraint in each case. To better compare the LF-NMR data to inhibitory potential, T<sub>2</sub> values from monocomponent exponential fits of relaxation curves were used as a measure of overall water constraint. These values generally correlated faster relaxation times (greater water constraint) with greater inhibition of the model cellulase system by the polymers.</p>
             </sec>
             <sec>
                <st>
                   <p>Conclusions</p>
                </st>
                <p>The presented correlation of cellulase inhibition and proton relaxation data provides support for our water constraint-biomass recalcitrance hypothesis. Deeper investigation into polymer-cellulose-cellulase interactions should help elucidate the types of interactions that may be propagating this correlation. If these observations can be verified to be more than correlative, the hypothesis and data presented suggest that a focus on water-polymer interactions and ways to alter them may help resolve key biological lignocellulose processing bottlenecks.</p>
             </sec>
          </sec>
       </abs>
    </fm>
    <bdy>
       <sec>
          <st>
             <p>Introduction</p>
          </st>
          <p>The plant cell wall is a highly complex matrix of polymeric substances which predominantly includes crystalline cellulose, cross-linking glycans (hemicelluloses), pectins, and lignins <abbrgrp>
                <abbr bid="B1">1</abbr>
             </abbrgrp>&#8211;<abbrgrp>
                <abbr bid="B3">3</abbr>
             </abbrgrp>. In nature, these components are intertwined, providing structural support, osmotic control, and defense against pathogens aiming to utilize the same building blocks that industries target as second generation bioresources. Cellulose, hemicelluloses, pectins, and lignins are all differentially reactive, all adding their own biophysical barriers to their own degradation; furthermore, they all occlude access to each other <abbrgrp>
                <abbr bid="B4">4</abbr>
             </abbrgrp>&#8211;<abbrgrp>
                <abbr bid="B7">7</abbr>
             </abbrgrp>. In recent years this collective resistance and barrier to the plant cell wall as a resource has been aptly coined &#8220;biomass recalcitrance&#8221; <abbrgrp>
                <abbr bid="B2">2</abbr>
             </abbrgrp>,<abbrgrp>
                <abbr bid="B8">8</abbr>
             </abbrgrp>.</p>
          <p>Since 2005, the phrase &#8220;biomass recalcitrance&#8221; has been increasingly bestowed to describe the resistance of plant cell wall materials to enzymatic degradation processes utilized in current second generation bioconversion efforts. In research, most of this focus has strategized towards processes that overcome the tight association between cell wall polymers believed to significantly contribute to process bottlenecks. Despite much success in this area, only in recent years have bioconversion research efforts seen a gained interest in the elucidation of underlying biophysical mechanisms responsible for complicating substrate access and conversion rates. Along these lines, we have previously reported studies highlighting the organization of water in lignocellulosic systems and its contribution to processing bottlenecks such as the negative effects observed when operating at high dry matter loadings <abbrgrp>
                <abbr bid="B9">9</abbr>
             </abbrgrp>&#8211;<abbrgrp>
                <abbr bid="B11">11</abbr>
             </abbrgrp>. Here we transition from this work with a diversion into the biophysical aspects of polymer hydration, with the hypothesis that this may relate to the detrimental roles different plant cell wall polymers play with respect to the enzymatic conversion of cellulose by cellulases.</p>
          <p>In an aqueous system, water molecules will associate with surfaces and become constrained as they form some level of organization at interfaces with non-water species, soluble or insoluble. Defining constraint, we imply here that associating water molecules become localized, more structured, and comparatively limited in available degrees of freedom, kinetic motion, and their ability to exchange with other water molecules as compared with water molecules in the bulk. When associating with polymers, water molecules can engage in weak (single or partial) or strong (double; bound to two groups) hydrogen bonding with polar groups on surfaces and localize in non-polar regions into unfavorable low-entropy states <abbrgrp>
                <abbr bid="B12">12</abbr>
             </abbrgrp>,<abbrgrp>
                <abbr bid="B13">13</abbr>
             </abbrgrp>. In addition, water molecules associated with surface bound/constrained water are generally thought to be at a greater level of organization or constraint than molecules in the bulk, although the extent to which this occurs is highly debated and often depends on the flexibility and static nature of the hydrated surface <abbrgrp>
                <abbr bid="B9">9</abbr>
             </abbrgrp>,<abbrgrp>
                <abbr bid="B14">14</abbr>
             </abbrgrp>,<abbrgrp>
                <abbr bid="B15">15</abbr>
             </abbrgrp>. In all cases, this increased organization of water leads to lower states of entropy for the associated portions of the system&#8217;s water <abbrgrp>
                <abbr bid="B16">16</abbr>
             </abbrgrp>. This becomes energetically unfavorable when the entropy change associated is not properly compensated by enthalpic components of interactions.</p>
          <p>Where unfavorable states of water exist, there will be a tendency (or increased probability) for the system to change in order to reduce the presence of unfavorable (low-entropy) water and free it to the bulk. This is a basic component of hydrophobic interactions, which are key in events such as the binding of proteins to surfaces (productive or non-productive) and the formation of junction zones between like or dissimilar polymers <abbrgrp>
                <abbr bid="B17">17</abbr>
             </abbrgrp>. In the plant cell wall, such interactions motivate the aggregation of amphiphilic glycan chains upon production that are then stabilized into crystalline cellulose by van der Waals interactions resulting in the energetically favorable formation of intermolecular carbohydrate-carbohydrate hydrogen bonds between neighboring chains <abbrgrp>
                <abbr bid="B13">13</abbr>
             </abbrgrp>. Recent molecular dynamics studies indicate that such interactions play both non-productive and productive roles in enzymatic cellulose degradation processes. Examples include the energetically favorable binding of soluble gluco-oligosaccharides (greater than dimer) to crystalline cellullose and the potentially beneficial aggregation of oligomeric glycosylation sugars on the processive cellobiohydrolase I onto the hydrophobic face of cellulose <abbrgrp>
                <abbr bid="B18">18</abbr>
             </abbrgrp>,<abbrgrp>
                <abbr bid="B19">19</abbr>
             </abbrgrp>.</p>
          <p>Considering non-target substrates, numerous studies have reported the non-productive binding of enzymes to lignins as a contributor to stifled lignocellulose conversion rates <abbrgrp>
                <abbr bid="B20">20</abbr>
             </abbrgrp>,<abbrgrp>
                <abbr bid="B21">21</abbr>
             </abbrgrp>. Pareek and co-workers <abbrgrp>
                <abbr bid="B22">22</abbr>
             </abbrgrp> have further shown that both xylan and glucomannan can also bind key cellulose-hydrolyzing enzymes. Additionally, xylooligomeric compounds are known to significantly inhibit cellulose hydrolysis <abbrgrp>
                <abbr bid="B23">23</abbr>
             </abbrgrp>, and Baumann and co-workers have even shown calorimetrically that long chain xylooligomers can non-productively bind key cellulase enzymes <abbrgrp>
                <abbr bid="B24">24</abbr>
             </abbrgrp>. Can these polymers, other hemicelluloses, and even pectins bind in a similar manner to cellulose and other targets, occluding access to enzymes? Do they simultaneously interact non-productively with and sequester enzymes away from their target surfaces? If so, are there fundamental determinants for the potential for these detrimental interactions to occur with respect to each polymer?</p>
          <p>In consideration of these questions, we believe that a key fundamental determinant for the tendency of such interactions to occur may be related to the association of polymers with water that we have discussed above. Here we hypothesize that <it>the tendency for plant cell wall polymers to be inhibitory to enzymatic lignocellulose conversion is mechanistically related to the per-unit mass level of entropy-reducing constraint polymers put on the surrounding water which acts to increase the probability of said polymers to engage in detrimental binding interactions such as junction zone formation and the non-productive binding of enzymes</it>. This has been cartooned in Figure&#160;<figr fid="F1">1</figr>. In this context, the level of &#8220;constraint&#8221; per unit mass is simultaneously related to the degree to which water is constrained per unit of exposed surface area and the amount of exposed surface area per unit mass that a polymer presents to the surrounding water. Starting with these basic factors, the overall level of constraint will then be compounded or relieved by the overall flexibility of the polymer, and further compounded by pore spaces and structural features which physically confine water to partially enclosed spaces <abbrgrp>
                <abbr bid="B15">15</abbr>
             </abbrgrp>,<abbrgrp>
                <abbr bid="B25">25</abbr>
             </abbrgrp>.
                </p>
          
             <fig id="F1">
                <title>
                   <p>Figure 1</p>
                </title>
                <caption>
                   <p>Water constraint-biomass recalcitrance hypothesis. </p>
                </caption>
                <text>
                   <p>
                          <b>Water constraint-biomass recalcitrance hypothesis.</b> Cartoon depiction of hypothesis stating that <it>the tendency for different plant cell wall polymers to be inhibitory to enzymatic lignocellulose conversion has a strong relation to the overall degree of constraint (or increased order, that is, lower entropy) these polymers put on water in a system by increasing the probability of detrimental interactions such as junction zone formation and the non-productive binding of key enzymes.</it> Structures shown are merely crude representations and do not accurately depict specific structures.</p>
                </text>
                <graphic file="s13068-014-0159-x-1"/>
             </fig>
          
          <p>In this manuscript, we provide experimental support for our hypothesis by looking at the potential for a range of commercially available plant cell wall polymers to inhibit the saccharification of cellulose by a simplified cellulase system. We then relate this information to low field nuclear magnetic resonance (LF-NMR) relaxometry data (spin-spin, T<sub>2</sub>, relaxation time) used to observe the distribution and constraint of water in equally hydrated polymer preparations. In this data, free water molecules exhibit the longest relaxation times (about 3,000&#160;ms), while water molecules that are more constrained by the lignocellulosic polymers exhibit shorter relaxation times. Relating this data to cellulase inhibition data, we have observed a general trend between the water-constraining and inhibitory nature of different cell wall polymers. The origins of this correlation do not appear to be specific to certain types of constrained water, since the distributions of constrained water pools vary considerably from polymer to polymer.</p>
       </sec>
       <sec>
          <st>
             <p>Results and discussion</p>
          </st>
          <p>In this study we compare water-constraining (entropy-reducing) aspects of hydration to the inhibitory potential towards cellulose hydrolysis for a range of lignocellulosic polymers. Here, water constraint is assessed using LF-NMR, and it is operationally defined via spin-spin relaxation times. The polymers tested, with the exception of the lignin, are all complex carbohydrates. Typically lignins are thought of as being hydrophobic and carbohydrates hydrophilic, but in reality these macromolecular structures contain both hydrophilic and hydrophobic regions repeating to varying degrees across the polymer-water interface, and we would be better to think of them as existing along an amphiphilic spectrum. Furthermore, the placement on that spectrum can be a product of a number of chemical and conformational issues.</p>
          <p>The association of carbohydrates with water will, for instance, be strongly affected by the orientation of polar hydroxyl groups on constituent sugars. This affects the level of intramolecular hydrogen bonding that occurs. Greater intramolecular bonding will reduce the total quantity of hydrogen bonded water molecules while simultaneously increasing the rigidity, static nature, and non-polar (hydrophobic) nature of the surface. These latter characteristics contribute to greater ordering of the surrounding water, a greater fraction of hydrogen bonded water molecules being strongly bound, and an increased prevalence of low-entropy low-density water zones along surfaces. Likewise, the absence of intramolecular hydrogen bonding leads to greater molecular flexibility and a greater abundance of weakly hydrogen bonded (less constrained single or partially bound) water molecules, which increases solubility but limits the ordering of the surrounding water <abbrgrp>
                <abbr bid="B15">15</abbr>
             </abbrgrp>,<abbrgrp>
                <abbr bid="B26">26</abbr>
             </abbrgrp>,<abbrgrp>
                <abbr bid="B27">27</abbr>
             </abbrgrp>. It is important to keep in mind the complexity of issues such as this as we continue to investigate how the constrained nature of surface water influences binding interactions in simple and complex enzyme-plant polymer systems.</p>
          <p>Prior to investigating two-polymer systems of plant cell wall polymers (cellulose plus an alternate polymer), we considered the case of a single-polymer system. Per unit surface area, the chemical character of a material will affect the degree to which individual surfaces constrain water, resulting in stronger or weaker binding interactions with other species in a system. Despite this, the simplest way that a material&#8217;s ability to constrain water can vary is through variations in accessible surface area. Holding the molecular structure constant, the larger the amount of surface area per unit mass, the greater the amount of water that is going to be associated with and constrained per unit mass of the polymer. This increased constraint is characterized in LF-NMR data by faster relaxing T<sub>2</sub> relaxation curves.</p>
          <p>In Figure&#160;<figr fid="F2">2</figr> we show this by comparing relaxation curves for different commercial cellulose I preparations. From the literature both Avicel PH 101 and Sigmacell 50 have larger particle sizes and considerably higher crystallinity indices than the cellulose in the Sigmacell 101 preparation <abbrgrp>
                <abbr bid="B28">28</abbr>
             </abbrgrp>,<abbrgrp>
                <abbr bid="B29">29</abbr>
             </abbrgrp>. Both factors contribute to a greater surface area per unit mass for the Sigmacell 101, and hence more surface area to constrain associating water, which translates into the faster relaxing T<sub>2</sub> curves in Figure&#160;<figr fid="F2">2</figr> compared to the other celluloses. Furthermore, with accessible surface being a key factor in the efficiency of enzymatic cellulose degradation, it is not surprising that we observe (Figure&#160;<figr fid="F3">3</figr>) considerably higher 24-h extents of conversion for Sigmacell 101 by a set loading of commercial cellulase. However, we need to be aware that plant cell walls are more complex than these cellulose substrates and that the simple concept of surface area does not apply directly in systems with multiple lignocellulosic polymers that all differentially interact with water and each other.
                  
                </p>
          
             <fig id="F2">
                <title>
                   <p>Figure 2</p>
                </title>
                <caption>
                   <p>LF-NMR of commercial celluloses. </p>
                </caption>
                <text>
                   <p>
                          <b>LF-NMR of commercial celluloses.</b> Spin-spin, T<sub>2,</sub> relaxation Carr-Purcell-Meiboom-Gill (CPMG) profiles for 10% (w/w) slurries of the commercial cellulose I preparations Avicel PH 101, Sigmacell 50, and Sigmacell 101.</p>
                </text>
                <graphic file="s13068-014-0159-x-2"/>
             </fig>
          
          
             <fig id="F3">
                <title>
                   <p>Figure 3</p>
                </title>
                <caption>
                   <p>Commercial cellulose saccharification. </p>
                </caption>
                <text>
                   <p>
                          <b>Commercial cellulose saccharification.</b> 24-h enzymatic conversion of commercial cellulose preparations by a 10-mg/g cellulose loading of Novozymes Cellic CTec2 commercial cellulase.</p>
                </text>
                <graphic file="s13068-014-0159-x-3"/>
             </fig>
          
          <p>Next, if we consider systems that include two cell wall polymers, the most obvious to study are cellulose-xylan systems. These two components have long been thought to be closely associated with one another despite not sharing covalent bonds, and recent studies have already pointed to the inhibitory potential of xylans and xylooligomers to both pure cellulases and cellulase cocktails <abbrgrp>
                <abbr bid="B6">6</abbr>
             </abbrgrp>,<abbrgrp>
                <abbr bid="B23">23</abbr>
             </abbrgrp>,<abbrgrp>
                <abbr bid="B24">24</abbr>
             </abbrgrp>. In Figure&#160;<figr fid="F4">4</figr>, the inhibitory effects of xylan on cellulose hydrolysis are demonstrated even when small amounts relative to the cellulose (a 1-to-10 ratio) are present. This is particularly drastic with the cellobiohydrolase-only system where no xylanases are present to dismantle the interfering xylans. Furthermore, the inhibition of commercial cellulase here, which contains a modest xylan-degrading system, is in line with reports on the inhibitory effects of xylooligomeric compounds, which are often produced during the partial hydrolysis and solubilization of the less recalcitrant xylan fractions <abbrgrp>
                <abbr bid="B30">30</abbr>
             </abbrgrp>.
                </p>
          
             <fig id="F4">
                <title>
                   <p>Figure 4</p>
                </title>
                <caption>
                   <p>Cellulase inhibition by oat spelt xylan. </p>
                </caption>
                <text>
                   <p>
                          <b>Cellulase inhibition by oat spelt xylan.</b> Inhibition of cellulose hydrolysis by increasing addition of oat spelt xylan. Data is presented as a fraction of the maximum conversion achieved in the control cellulose-only hydrolysis.</p>
                </text>
                <graphic file="s13068-014-0159-x-4"/>
             </fig>
          
          <p>With respect to our water-constraint hypothesis, one might expect that dismantling large xylans (increasing the surface area) into small monomer and dimer sugars would drastically increase the constraint of water on the system and increase their inhibitory nature. In reality, the impact of hydrophobic aspects of the individual xylose units is much different at such a reduced degree of polymerization. Even for highly hydrophobic molecules there is a size breakpoint where the non-polar surface area is small enough to allow water molecules to circumvent the hydrophobic space and avoid the order-increasing (reduced entropy) disruption of the bulk-water hydrogen bond network that typically occurs in water surrounding larger hydrophobic molecules <abbrgrp>
                <abbr bid="B17">17</abbr>
             </abbrgrp>. This point is reflected in LF-NMR data from our 2012 study on water availability in high dry matter lignocellulose conversion processes <abbrgrp>
                <abbr bid="B11">11</abbr>
             </abbrgrp>, which shows near order of magnitude faster relaxation times for similar concentrations of oat spelt xylan compared to monomer xylose.</p>
          <p>Continuing, while cellulose in the plant cell wall exists in a compact crystalline form, xylans are often heterogeneous and do not aggregate in an organized manner. This means that much more surface area on xylans is available for non-productive interactions than on crystalline cellulose for productive interactions. This translates into a greater ability for xylans to constrain water on a per-unit mass basis. The data in Figure&#160;<figr fid="F5">5</figr>A highlight this fact by comparing T<sub>2</sub> relaxation curves for 10% (w/w) slurries of Avicel, soluble wheat arabinoxylan, and insoluble oat spelt xylan. The faster declining T<sub>2</sub> relaxation curves associated with the xylans represent the fact that they constrain water to a greater degree than cellulose. Furthermore, we observed insoluble oat spelt xylan to be the most constraining; this is likely due to a greater level of branching in the arabinoxylan, particularly the highly flexible alpha-L-arabinofuranosyl side chains. These side groups, due to the flexible and fluid nature of their furanose ring structure and their inability to form intramolecular hydrogen bonds, bind more water but in a much weaker fashion compared to the unbranched xylan backbone. Unbranched xylan backbones tend to be more rigid due to the increased level of intramolecular hydrogen bonding among the xylose residues, and hence less soluble. The increased rigidity and exposure of both hydrophobic faces on the backbone more greatly constrain the surrounding water molecules and lead to a greater degree of disorganized binding interactions working to exclude this water and can lead to polymer precipitation <abbrgrp>
                <abbr bid="B26">26</abbr>
             </abbrgrp>,<abbrgrp>
                <abbr bid="B27">27</abbr>
             </abbrgrp>,<abbrgrp>
                <abbr bid="B31">31</abbr>
             </abbrgrp>.
                </p>
          
             <fig id="F5">
                <title>
                   <p>Figure 5</p>
                </title>
                <caption>
                   <p>Cellulose-xylan LF-NMR comparison. </p>
                </caption>
                <text>
                   <p>
                          <b>Cellulose-xylan LF-NMR comparison.</b> T<sub>2</sub> relaxation time data from low field NMR for Avicel, wheat arabinoxylan, and oat spelt xylan: <b>(A)</b> CPMG T<sub>2</sub> relaxation curves; <b>(B)</b> CONTIN T<sub>2</sub> distribution profiles. CPMG profiles are averaged profiles from triplicate experimental runs, and CONTIN distributions are single data sets representative of triplicate run data.</p>
                </text>
                <graphic file="s13068-014-0159-x-5"/>
             </fig>
          
          <p>To better visualize the differences in the distribution of water constraint among the different polymers, we look to previous studies on water organization by Felby and co-workers <abbrgrp>
                <abbr bid="B9">9</abbr>
             </abbrgrp>,<abbrgrp>
                <abbr bid="B11">11</abbr>
             </abbrgrp>. In these studies the CONTIN distribution of exponentials that contribute to the T<sub>2</sub> relaxation curves (previously described by Provencher and co-workers <abbrgrp>
                <abbr bid="B32">32</abbr>
             </abbrgrp>) were used to look at different pools of water in a system. These pools were used to generally categorize various states of constrained surface bound water, water constrained in pores and capillaries, and non-associated &#8220;free&#8221; water <abbrgrp>
                <abbr bid="B9">9</abbr>
             </abbrgrp>,<abbrgrp>
                <abbr bid="B33">33</abbr>
             </abbrgrp>. In Figure&#160;<figr fid="F5">5</figr>B these pools (associated CONTIN peaks) are shown to be drastically different between cellulose and the xylans discussed above, and likewise the xylan solubility appears to create even greater disparity. The profile for the Avicel 101 system shows a large pool around 3,000&#160;ms, which would typically be designated as &#8220;free&#8221; water, while the profiles for the xylans indicate that all of the water is more constrained by the xylans in one form or another with little &#8220;free&#8221; water present.</p>
          <p>Following this we investigated the potential for these xylans to inhibit the hydrolysis of cellulose by a simple cellulase mix and found that the insoluble oat spelt xylan was more inhibitory than the soluble wheat arabinoxylan. In Figure&#160;<figr fid="F6">6</figr>, it is shown that the oat spelt xylan reduced the effectiveness of the cellobiohydrolase-&#946;-glucosidase mix by approximately 80% over 24&#160;h compared to the cellulose-only control, while the wheat arabinoxylan reduced conversion extents by just over 50%. In line with our hypothesis, we believe the greater inhibitory potential is related to the greater amount of water constraint imparted by the oat spelt xylan as discussed above, as well as the resultant binding interactions that lead to the xylan&#8217;s insolubility. Furthermore, expanding the inhibition study to include other commercial plant cell wall polymer preparations we found that all of the insoluble hemicelluloses tested were the most inhibitory, while the soluble carbohydrates were less so; the &#945;-linked pectins being less inhibitory than the soluble hemicelluloses (wheat arabinoxylan and tamarind xyloglucan). Furthermore, the organosolv lignin preparation, despite reducing conversion by about 20%, was the least inhibitory.
                </p>
          
             <fig id="F6">
                <title>
                   <p>Figure 6</p>
                </title>
                <caption>
                   <p>Cellulase inhibition by lignocellulosic polymers. </p>
                </caption>
                <text>
                   <p>
                          <b>Cellulase inhibition by lignocellulosic polymers.</b> Extent of maximum Avicel 101 control conversion achieved in the presence of 5-mg/mL loadings of each commercial plant cell wall component preparation.</p>
                </text>
                <graphic file="s13068-014-0159-x-6"/>
             </fig>
          
          <p>To investigate our initial hypothesis, the inhibition experimental data presented in Figure&#160;<figr fid="F6">6</figr> were then followed up with a series of LF-NMR runs on 10% (w/w) slurries of the same commercial cell wall polymer preparations. The spin-spin T<sub>2</sub> relaxation time data was used to compare the constraint the preparations put on the water to the inhibition data. In general, the relaxation curves correlated well with the inhibition data. The more inhibitory compounds produced faster relaxing curves and the less inhibitory compounds displayed slower relaxing curves. A comparison of all relaxation curves on a single plot proved quite cumbersome, with curves crossing one another at different points due to the different mechanisms with which each compound may constrain water. To discombobulate the matter, T<sub>2</sub> relaxation times from monocomponent exponential fits of each curve were used to provide a single measure of the total water constraint in the water-polymer systems; here, the lowest relaxation times represent the greatest constraint. The average relaxation times from these exponential fits are presented in Figure&#160;<figr fid="F7">7</figr> and generally decline in line with the inhibitory potential of the polymer preparations presented in Figure&#160;<figr fid="F6">6</figr>.
                </p>
          
             <fig id="F7">
                <title>
                   <p>Figure 7</p>
                </title>
                <caption>
                   <p>Comparative LF-NMR for commercial lignocellulosic polymers. </p>
                </caption>
                <text>
                   <p>
                          <b>Comparative LF-NMR for commercial lignocellulosic polymers.</b> Data T<sub>2</sub> relaxation times from monocomponent exponential fit of CPMG profiles. Data represent averages of triplicate analyses.</p>
                </text>
                <graphic file="s13068-014-0159-x-7"/>
             </fig>
          
          <p>In Figure&#160;<figr fid="F8">8</figr> a plot comparing the inhibition data and the averaged T<sub>2</sub> data is presented to better visualize the general relationship. The data appear to correlate well, but there is not a perfect direct relationship between the two factors. This was not expected either, as there are many aspects of polymer hydration that potentially contribute to either data point for this broad array of amphiphiles. This notion is well illustrated in Figure&#160;<figr fid="F9">9</figr>, which includes the CONTIN T<sub>2</sub> distribution profiles on a handful of the tested polymers. From this figure it is clear that all carbohydrates tested constrain all of the slurry water to some degree, since none have significant peaks at the 3,000&#160;ms relaxation time indicative of free water. Despite this, all four carbohydrates (and the xylans in Figure&#160;<figr fid="F5">5</figr>) clearly constrain the water in different ways, as the peak distributions for all samples shown here are entirely different, even when some of the samples produced identical monocomponent T<sub>2</sub> values. Meanwhile, for the organosolv lignin sample a considerable free-water peak exists, which we speculate suggests that this lignin sample presents a significantly reduced surface area-to-mass ratio compared to the carbohydrates. We further suggest that the limited available lignin surface area that can constrain water may limit its ability to engage in negative hydrophobically driven binding interactions, despite the highly hydrophobic nature of the material.
                  
                </p>
          
             <fig id="F8">
                <title>
                   <p>Figure 8</p>
                </title>
                <caption>
                   <p>Cellulase inhibition versus T </p>
                </caption>
                <text>
                   <p>
                          <b>Cellulase inhibition versus T</b>                          
                      <sub>
                         <b>2</b> 
                      </sub>
                          <b>relaxation time.</b> Fraction of achieved control conversion extent versus T<sub>2</sub> relaxation time from monoexponential decay for cellulose hydrolyses inhibited by various lignocellulosic polymers.</p>
                </text>
                <graphic file="s13068-014-0159-x-8"/>
             </fig>
          
          
             <fig id="F9">
                <title>
                   <p>Figure 9</p>
                </title>
                <caption>
                   <p>CONTIN T </p>
                </caption>
                <text>
                   <p>
                          <b>CONTIN T</b>                          
                      <sub>
                         <b>2</b> 
                      </sub>
                          <b>distribution profiles.</b> For 10% (w/w) slurries of organosolv lignin, citrus pectin, tamarind xyloglucan, ivory nut mannan, and beechwood xylan. CONTIN distributions are single data sets representative of triplicate run data.</p>
                </text>
                <graphic file="s13068-014-0159-x-9"/>
             </fig>
          
          <p>Of the polymer set studied, the data do highlight the critical nature of hemicellulose removal from lignocelluloses if cellulose is the primary conversion target. Also, the fact that the most water-constraining hemicelluloses were all insoluble hemicelluloses does a nice job of displaying how changes increasing the static nature of polymers can do a lot to increase the organization of water surrounding them. Furthermore, the minor effects of the lignin observed here add weight to the debate on the detriment lignin poses in lignocellulose conversion processes. It gives favor to arguments that lignin, while it may be inhibitory, is less problematic when considering all of the polymers present in the plant cell wall <abbrgrp>
                <abbr bid="B34">34</abbr>
             </abbrgrp>. However, it is worth noting that we have only canvassed a small pool of specific isolated variants of common cell wall polymers. Since lignins, pectins, and hemicelluloses can occur or be isolated into a range of sizes and chemical and structural conformations, our data here should not dictate a concrete order with respect to the inhibitory nature or water-constraining nature of plant cell wall polymer classes in all situations (that is, all xylan forms may not always be more inhibitory than all lignin forms).</p>
       </sec>
       <sec>
          <st>
             <p>Conclusions</p>
          </st>
          <p>We have put forth a hypothesis that the inhibitory potential of polymers within the plant cell wall to cellulose hydrolysis is related to the degree to which the polymers constrain the surrounding water per unit mass. This hypothesis is supported with data correlating the inhibition of a simple cellulase system by different cell wall polymers to low field NMR T<sub>2</sub> relaxation time data that has been used to gauge overall water constraint in prepared polymer slurries. If the observed relationship between water constraint and polymer inhibitory potential proves to be more than a correlation, then investigation into methods altering water polymer organization may lead to breakthroughs regarding problematic bottlenecks in lignocellulose processing. Investigation into whether the inhibitory effects related to this correlation are dominated by enzyme-polymer non-productive binding events or steric hindrances resulting from polymer-polymer junction zone formation should provide insight on the matter. Overall, the study highlights the need to properly understand water-polymer interactions in lignocellulose processing. Continued work in this area has the potential to paint a clearer picture of the fundamental mechanisms driving key industrial bottlenecks and may lead to cost-effective methods for circumventing them.</p>
       </sec>
       <sec>
          <st>
             <p>Materials and methods</p>
          </st>
          <sec>
             <st>
                <p>Plant cell wall carbohydrates</p>
             </st>
             <p>The primary cellulose preparation used for all inhibition studies was Avicel PH 101 (11365 FLUKA; Sigma-Aldrich, St. Louis, MO); other cellulose preparations used included Sigmacell 50 (S5504) and Sigmacell 101 (S6790; Sigma-Aldrich). Hemicellulose preparations used included oat spelt, birchwood, and beechwood xylans from Sigma-Aldrich, as well as wheat arabinoxylan (low-viscosity; P-WAXYL), tamarind xyloglucan (P-XYGLN), and ivory nut mannan (P-MANIV) from Megazyme International (Wicklow, Ireland). Pectins included in this study were citrus pectin (Sigma-P9135) from Sigma-Aldrich and GENU Pectin (citrus) from CP Kelco (Atlanta, GA). The lignin source for this study was organosolv lignin (371017 ALDRICH) obtained from Sigma-Aldrich.</p>
          </sec>
          <sec>
             <st>
                <p>Enzymatic saccharifications</p>
             </st>
             <p>Enzymatic saccharifications were performed at 48&#176;C in 50&#160;mM sodium citrate buffer, pH&#160;4.8, with initial dry cellulose concentration solids set at 1.0% (w/w) in 2.0-mL Eppendorf tubes. All hydrolyses were run for 24&#160;h. In the initial experimentations where commercial cellulase was used, Novozymes&#8217; (Bagsv&#230;rd, Denmark) Cellic CTec2 cellulase was loaded at 10&#160;mg protein/g cellulose. All remaining inhibition studies utilized a simple cellulase mix consisting of cellobiohydrolase I (<it>Trichoderma longibrachiatum;</it> Megazyme International; E-CBHI) and &#946;-glucosidase (<it>Aspergillus niger</it>; Megazyme International; E-BGLUC) loaded at 4 and 1&#160;mg protein/g cellulose, respectively. All inhibition study saccharifications were run with Avicel PH 101 loaded at 1% (w/w) initial dry solids and the additional cell wall component loaded at 0.5 % (w/w) initial dry solids. Control digestions of the added cell wall components (without cellulose) showed no significant release of glucose from the substrates. All conversion extents for the inhibition runs were normalized to the conversion extent of the cellulose-only control for ease of comparison (glucose release from inhibited cellulose hydrolysis/average glucose release from cellulose-only control; percent reduction in conversion is calculated as 100&#8201;&#215;&#8201;[control conversion-inhibited conversion]/control conversion). All saccharifications were replicated in triplicate.</p>
          </sec>
          <sec>
             <st>
                <p>Low field nuclear magnetic resonance (LF-NMR) relaxometry</p>
             </st>
             <p>Low field nuclear magnetic resonance (LF-NMR) relaxometry was performed on a Bruker (Billerica, MA) mq20 minispec with a 0.47-T permanent magnet equivalent to a 20-MHz proton resonance frequency held at a constant 40&#176;C. Spin-spin, T<sub>2</sub>, relaxation times were determined using the Carr-Purcell-Meiboom-Gill (CPMG) sequence for all runs. Thirty-two scans were acquired on a 5-s recycle delay; for each scan 8,000 echoes were collected with pulse separations of 0.7&#160;ms for scans at respective initial dry solids loadings of 30 and 10% (w/w). The CONTIN Laplace transformation method outlined previously <abbrgrp>
                   <abbr bid="B32">32</abbr>
                </abbrgrp> was used to determine T<sub>2</sub> relaxation time distributions from the CPMG data. All NMR data presented are for 10% (w/w) dry solids suspensions of selected commercial plant cell wall polymer preparations; triplicate suspensions of each preparation were prepared and pre-equilibrated for 30&#160;min at 40&#176;C prior to NMR analysis. All CPMG and CONTIN profiles presented are average data sets obtained from these triplicate runs.</p>
          </sec>
          <sec>
             <st>
                <p>HPLC</p>
             </st>
             <p>Glucose concentration was used as a measure of saccharification efficiency in all enzymatic experiments. Concentrations of glucose in all hydrolysates were determined on an UltiMate 3000 system from Dionex (Sunnyvale, CA) with a Rezex ROA-Organic Acid H&#8201;+&#8201;column (Phenomenex; Torrance, CA) running 0.5% sulfuric acid at 0.6&#160;mL/min as the eluent.</p>
          </sec>
       </sec>
       <sec>
          <st>
             <p>Abbreviations</p>
          </st>
          <p>CPMG: Carr-Purcell-Meiboom-Gill</p>
          <p>LF-NMR: Low field nuclear magnetic resonance</p>
       </sec>
       <sec>
          <st>
             <p>Competing interests</p>
          </st>
          <p>The authors declare that they have no competing interests.</p>
       </sec>
       <sec>
          <st>
             <p>Authors&#8217; contributions</p>
          </st>
          <p>MJS conceived the study, designed and performed all experiments presented, and drafted the manuscript for submission. LGT provided oversight and numerical analysis of the LF-NMR data and contributed to the drafting and editing of the final manuscript. CF provided oversight, participated in analyzing the data, and assisted in the editing and preparation of the final manuscript for submission. All authors read and approved the final manuscript.</p>
       </sec>
    </bdy>
    <bm>
       <ack>
          <sec>
             <st>
                <p>Acknowledgments</p>
             </st>
             <p>We would like to thank Steve Decker, Gregg Beckham, and James Matthews for informative discussions on the hypothesis presented.</p>
          </sec>
       </ack>
       <refgrp>
          
          <bibl id="B1">
             <title>
                <p>Enzyme conversion of lignocellulosic plant materials for resource recovery in a controlled ecological life support system</p>
             </title>
             <aug>
                <au>
                   <snm>Kohlmann</snm>
                   <fnm>KL</fnm>
                </au>
                <au>
                   <snm>Westgate</snm>
                   <fnm>P</fnm>
                </au>
                <au>
                   <snm>Velayudhan</snm>
                   <fnm>A</fnm>
                </au>
                <au>
                   <snm>Weil</snm>
                   <fnm>J</fnm>
                </au>
                <au>
                   <snm>Sarikaya</snm>
                   <fnm>A</fnm>
                </au>
                <au>
                   <snm>Brewer</snm>
                   <fnm>MA</fnm>
                </au>
                <au>
                   <snm>Hendrickson</snm>
                   <fnm>RL</fnm>
                </au>
                <au>
                   <snm>Ladisch</snm>
                   <fnm>MR</fnm>
                </au>
             </aug>
             <source>Adv Space Res</source>
             <pubdate>1996</pubdate>
             <volume>18</volume>
             <fpage>251</fpage>
             <lpage>265</lpage>
             <note>doi:10.1016/0273-1177(95) 00815-V</note>
          </bibl>
          <bibl id="B2">
             <title>
                <p>Biomass recalcitrance: engineering plants and enzymes for biofuels production</p>
             </title>
             <aug>
                <au>
                   <snm>Himmel</snm>
                   <fnm>ME</fnm>
                </au>
                <au>
                   <snm>Ding</snm>
                   <fnm>SY</fnm>
                </au>
                <au>
                   <snm>Johnson</snm>
                   <fnm>DK</fnm>
                </au>
                <au>
                   <snm>Adney</snm>
                   <fnm>WS</fnm>
                </au>
                <au>
                   <snm>Nimlos</snm>
                   <fnm>MR</fnm>
                </au>
                <au>
                   <snm>Brady</snm>
                   <fnm>JW</fnm>
                </au>
                <au>
                   <snm>Foust</snm>
                   <fnm>TD</fnm>
                </au>
             </aug>
             <source>Science</source>
             <pubdate>2007</pubdate>
             <volume>315</volume>
             <fpage>804</fpage>
             <lpage>807</lpage>
          </bibl>
          <bibl id="B3">
             <title>
                <p>Formation of plant cell wall supramolecular structure</p>
             </title>
             <aug>
                <au>
                   <snm>Gorshkova</snm>
                   <fnm>TA</fnm>
                </au>
                <au>
                   <snm>Mikshina</snm>
                   <fnm>TV</fnm>
                </au>
                <au>
                   <snm>Gurjanov</snm>
                   <fnm>OP</fnm>
                </au>
                <au>
                   <snm>Chemikosova</snm>
                   <fnm>SB</fnm>
                </au>
             </aug>
             <source>Biochemistry (Mosc)</source>
             <pubdate>2010</pubdate>
             <volume>75</volume>
             <issue>2</issue>
             <fpage>159</fpage>
             <lpage>172</lpage>
          </bibl>
          <bibl id="B4">
             <title>
                <p>Cellulase digestibility of pretreated biomass is limited by cellulose accessibility</p>
             </title>
             <aug>
                <au>
                   <snm>Jeoh</snm>
                   <fnm>T</fnm>
                </au>
                <au>
                   <snm>Ishizawa</snm>
                   <fnm>CI</fnm>
                </au>
                <au>
                   <snm>Davis</snm>
                   <fnm>MF</fnm>
                </au>
                <au>
                   <snm>Himmel</snm>
                   <fnm>ME</fnm>
                </au>
                <au>
                   <snm>Adney</snm>
                   <fnm>WS</fnm>
                </au>
                <au>
                   <snm>Johnson</snm>
                   <fnm>DK</fnm>
                </au>
             </aug>
             <source>Biotechnol Bioeng</source>
             <pubdate>2007</pubdate>
             <volume>98</volume>
             <issue>1</issue>
             <fpage>112</fpage>
             <lpage>122</lpage>
          </bibl>
          <bibl id="B5">
             <title>
                <p>Cellulase adsorption and relationship to features of corn stover solids produced by leading pretreatments</p>
             </title>
             <aug>
                <au>
                   <snm>Kumar</snm>
                   <fnm>R</fnm>
                </au>
                <au>
                   <snm>Wyman</snm>
                   <fnm>CE</fnm>
                </au>
             </aug>
             <source>Biotechnol Bioeng</source>
             <pubdate>2009</pubdate>
             <volume>103</volume>
             <issue>2</issue>
             <fpage>252</fpage>
             <lpage>267</lpage>
          </bibl>
          <bibl id="B6">
             <title>
                <p>The effect of lignin removal by alkaline peroxide pretreatment on the susceptibility of corn stover to cellulolytic and hemicellulolytic enzymes</p>
             </title>
             <aug>
                <au>
                   <snm>Selig</snm>
                   <fnm>MJ</fnm>
                </au>
                <au>
                   <snm>Vinzant</snm>
                   <fnm>TB</fnm>
                </au>
                <au>
                   <snm>Himmel</snm>
                   <fnm>ME</fnm>
                </au>
                <au>
                   <snm>Decker</snm>
                   <fnm>SR</fnm>
                </au>
             </aug>
             <source>App Biochem Biotechnol</source>
             <pubdate>2009</pubdate>
             <volume>155</volume>
             <issue>1&#8211;3</issue>
             <fpage>397</fpage>
             <lpage>406</lpage>
          </bibl>
          <bibl id="B7">
             <title>
                <p>Increasing cellulose accessibility is more important than removing lignin: a comparison of cellulose solvent-based lignocellulose fractionation and soaking in aqueous ammonia</p>
             </title>
             <aug>
                <au>
                   <snm>Rollin</snm>
                   <fnm>JA</fnm>
                </au>
                <au>
                   <snm>Zhu</snm>
                   <fnm>Z</fnm>
                </au>
                <au>
                   <snm>Sathitsuksanoh</snm>
                   <fnm>N</fnm>
                </au>
                <au>
                   <snm>Zhang</snm>
                   <fnm>YHP</fnm>
                </au>
             </aug>
             <source>Biotechnol Bioeng</source>
             <pubdate>2011</pubdate>
             <volume>108</volume>
             <issue>1</issue>
             <fpage>22</fpage>
             <lpage>30</lpage>
          </bibl>
          <bibl id="B8">
             <title>
                <p>Biocommodity engineering</p>
             </title>
             <aug>
                <au>
                   <snm>Lynd</snm>
                   <fnm>LR</fnm>
                </au>
                <au>
                   <snm>Wyman</snm>
                   <fnm>CE</fnm>
                </au>
                <au>
                   <snm>Gerngross</snm>
                   <fnm>TU</fnm>
                </au>
             </aug>
             <source>Biotechnol Prog</source>
             <pubdate>1999</pubdate>
             <volume>15</volume>
             <issue>5</issue>
             <fpage>777</fpage>
             <lpage>793</lpage>
          </bibl>
          <bibl id="B9">
             <title>
                <p>Cellulose-water interactions during enzymatic hydrolysis as studied by time domain NMR</p>
             </title>
             <aug>
                <au>
                   <snm>Felby</snm>
                   <fnm>C</fnm>
                </au>
                <au>
                   <snm>Thygesen</snm>
                   <fnm>LG</fnm>
                </au>
                <au>
                   <snm>Kristensen</snm>
                   <fnm>JB</fnm>
                </au>
                <au>
                   <snm>Jorgensen</snm>
                   <fnm>H</fnm>
                </au>
                <au>
                   <snm>Elder</snm>
                   <fnm>T</fnm>
                </au>
             </aug>
             <source>Cellulose</source>
             <pubdate>2008</pubdate>
             <volume>15</volume>
             <issue>5</issue>
             <fpage>703</fpage>
             <lpage>710</lpage>
          </bibl>
          <bibl id="B10">
             <title>
                <p>Yield-determining factors in high-solids enzymatic hydrolysis of lignocellulose</p>
             </title>
             <aug>
                <au>
                   <snm>Kristensen</snm>
                   <fnm>J</fnm>
                </au>
                <au>
                   <snm>Felby</snm>
                   <fnm>C</fnm>
                </au>
                <au>
                   <snm>Jorgensen</snm>
                   <fnm>H</fnm>
                </au>
             </aug>
             <source>Biotechnol Biofuels</source>
             <pubdate>2009</pubdate>
             <volume>2</volume>
             <issue>1</issue>
             <fpage>11</fpage>
          </bibl>
          <bibl id="B11">
             <title>
                <p>Considering water availability and the effect of solute concentration on high solids saccharification of lignocellulosic biomass</p>
             </title>
             <aug>
                <au>
                   <snm>Selig</snm>
                   <fnm>MJ</fnm>
                </au>
                <au>
                   <snm>Hsieh</snm>
                   <fnm>CC</fnm>
                </au>
                <au>
                   <snm>Thygesen</snm>
                   <fnm>L</fnm>
                </au>
                <au>
                   <snm>Himmel</snm>
                   <fnm>ME</fnm>
                </au>
                <au>
                   <snm>Felby</snm>
                   <fnm>C</fnm>
                </au>
                <au>
                   <snm>Decker</snm>
                   <fnm>SR</fnm>
                </au>
             </aug>
             <source>Biotechnol Prog</source>
             <pubdate>2012</pubdate>
             <volume>28</volume>
             <issue>6</issue>
             <fpage>1478</fpage>
             <lpage>1490</lpage>
          </bibl>
          <bibl id="B12">
             <title>
                <p>Towards understanding the interaction between oligosaccharides and water molecules</p>
             </title>
             <aug>
                <au>
                   <snm>Almond</snm>
                   <fnm>A</fnm>
                </au>
             </aug>
             <source>Carbohydr Res</source>
             <pubdate>2005</pubdate>
             <volume>340</volume>
             <fpage>907</fpage>
             <lpage>920</lpage>
          </bibl>
          <bibl id="B13">
             <title>
                <p>Computer simulation studies of microcrystalline cellulose Ib</p>
             </title>
             <aug>
                <au>
                   <snm>Matthews</snm>
                   <fnm>JF</fnm>
                </au>
                <au>
                   <snm>Skopec</snm>
                   <fnm>CE</fnm>
                </au>
                <au>
                   <snm>Mason</snm>
                   <fnm>PE</fnm>
                </au>
                <au>
                   <snm>Zuccato</snm>
                   <fnm>P</fnm>
                </au>
                <au>
                   <snm>Torget</snm>
                   <fnm>RW</fnm>
                </au>
                <au>
                   <snm>Sugiyama</snm>
                   <fnm>J</fnm>
                </au>
                <au>
                   <snm>Himmel</snm>
                   <fnm>ME</fnm>
                </au>
                <au>
                   <snm>Brady</snm>
                   <fnm>JW</fnm>
                </au>
             </aug>
             <source>Carbohydrate Res</source>
             <pubdate>2006</pubdate>
             <volume>341</volume>
             <fpage>138</fpage>
             <lpage>152</lpage>
          </bibl>
          <bibl id="B14">
             <title>
                <p>Raman studies of the solution structure of univalent electrolytes in water</p>
             </title>
             <aug>
                <au>
                   <snm>Dillon</snm>
                   <fnm>SR</fnm>
                </au>
                <au>
                   <snm>Dougherty</snm>
                   <fnm>RC</fnm>
                </au>
             </aug>
             <source>J Phys Chem A</source>
             <pubdate>2002</pubdate>
             <volume>106</volume>
             <fpage>7647</fpage>
             <lpage>7650</lpage>
          </bibl>
          <bibl id="B15">
             <title>
                <p>Water structuring at colloidal surfaces</p>
             </title>
             <aug>
                <au>
                   <snm>Chaplin</snm>
                   <fnm>MF</fnm>
                </au>
             </aug>
             <source>Surface Chemistry in Biomedical and Environmental Science. In NATO Security Through Science Series</source>
             <publisher>Springer, Berlin</publisher>
             <editor>Blitz J, Gun&#8217;ko V</editor>
             <pubdate>2006</pubdate>
             <fpage>1</fpage>
             <lpage>10</lpage>
          </bibl>
          <bibl id="B16">
             <title>
                <p>Low-temperature heat capacity of biomacromolecules and the entropic cost of bound water in proteins and nucleic acids</p>
             </title>
             <aug>
                <au>
                   <snm>Mrevlishvili</snm>
                   <fnm>GM</fnm>
                </au>
             </aug>
             <source>Thermochim Acta</source>
             <pubdate>1998</pubdate>
             <volume>308</volume>
             <fpage>49</fpage>
             <lpage>54</lpage>
          </bibl>
          <bibl id="B17">
             <title>
                <p>Interfaces and the driving force of hydrophobic assembly</p>
             </title>
             <aug>
                <au>
                   <snm>Chandler</snm>
                   <fnm>D</fnm>
                </au>
             </aug>
             <source>Nature</source>
             <pubdate>2005</pubdate>
             <volume>437</volume>
             <fpage>640</fpage>
             <lpage>647</lpage>
          </bibl>
          <bibl id="B18">
             <title>
                <p>Decrystallization of oligosaccharides from the cellulose I&#946; surface with molecular simulation</p>
             </title>
             <aug>
                <au>
                   <snm>Payne</snm>
                   <fnm>CM</fnm>
                </au>
                <au>
                   <snm>Himmel</snm>
                   <fnm>ME</fnm>
                </au>
                <au>
                   <snm>Crowley</snm>
                   <fnm>MF</fnm>
                </au>
                <au>
                   <snm>Beckham</snm>
                   <fnm>GT</fnm>
                </au>
             </aug>
             <source>J Phys Chem Lett</source>
             <pubdate>2011</pubdate>
             <volume>2</volume>
             <issue>13</issue>
             <fpage>1546</fpage>
             <lpage>1550</lpage>
          </bibl>
          <bibl id="B19">
             <title>
                <p>Glycosylated linkers in multimodular lignocellulose-degrading enzymes dynamically bind to cellulose</p>
             </title>
             <aug>
                <au>
                   <snm>Payne</snm>
                   <fnm>CM</fnm>
                </au>
                <au>
                   <snm>Resch</snm>
                   <fnm>MG</fnm>
                </au>
                <au>
                   <snm>Chen</snm>
                   <fnm>L</fnm>
                </au>
                <au>
                   <snm>Crowley</snm>
                   <fnm>MF</fnm>
                </au>
                <au>
                   <snm>Himmel</snm>
                   <fnm>ME</fnm>
                </au>
                <au>
                   <snm>Taylor</snm>
                   <fnm>LE</fnm>
                </au>
                <au>
                   <snm>Sandgrend</snm>
                   <fnm>M</fnm>
                </au>
                <au>
                   <snm>St&#229;hlberg</snm>
                   <fnm>J</fnm>
                </au>
                <au>
                   <snm>Stals</snm>
                   <fnm>I</fnm>
                </au>
                <au>
                   <snm>Tan</snm>
                   <fnm>Z</fnm>
                </au>
                <au>
                   <snm>Beckham</snm>
                   <fnm>GT</fnm>
                </au>
             </aug>
             <source>Proc Acad Nat Sci</source>
             <pubdate>2013</pubdate>
             <volume>110</volume>
             <issue>36</issue>
             <fpage>14646</fpage>
             <lpage>14651</lpage>
          </bibl>
          <bibl id="B20">
             <title>
                <p>Weak lingin-binding enzymes</p>
             </title>
             <aug>
                <au>
                   <snm>Berlin</snm>
                   <fnm>A</fnm>
                </au>
                <au>
                   <snm>Gilkes</snm>
                   <fnm>N</fnm>
                </au>
                <au>
                   <snm>Kurabi</snm>
                   <fnm>A</fnm>
                </au>
                <au>
                   <snm>Bura</snm>
                   <fnm>R</fnm>
                </au>
                <au>
                   <snm>Tu</snm>
                   <fnm>M</fnm>
                </au>
                <au>
                   <snm>Kilborn</snm>
                   <fnm>D</fnm>
                </au>
                <au>
                   <snm>Saddler</snm>
                   <fnm>J</fnm>
                </au>
             </aug>
             <source>Appl Biochem Biotechnol</source>
             <pubdate>2005</pubdate>
             <volume>121&#8211;123</volume>
             <fpage>163</fpage>
             <lpage>170</lpage>
          </bibl>
          <bibl id="B21">
             <title>
                <p>Adsorption of cellulase on cellulolytic enzyme lignin from lodgepole pine</p>
             </title>
             <aug>
                <au>
                   <snm>Tu</snm>
                   <fnm>MB</fnm>
                </au>
                <au>
                   <snm>Pan</snm>
                   <fnm>XJ</fnm>
                </au>
                <au>
                   <snm>Saddler</snm>
                   <fnm>JN</fnm>
                </au>
             </aug>
             <source>J Ag Food Chem</source>
             <pubdate>2009</pubdate>
             <volume>57</volume>
             <issue>17</issue>
             <fpage>7771</fpage>
             <lpage>7778</lpage>
          </bibl>
          <bibl id="B22">
             <title>
                <p>Adsorption of proteins involved in hydrolysis of lignocellulose on lignins and hemicelluloses</p>
             </title>
             <aug>
                <au>
                   <snm>Pareek</snm>
                   <fnm>N</fnm>
                </au>
                <au>
                   <snm>Gillgren</snm>
                   <fnm>T</fnm>
                </au>
                <au>
                   <snm>J&#246;nsson</snm>
                   <fnm>LJ</fnm>
                </au>
             </aug>
             <source>Bioresour Technol</source>
             <pubdate>2013</pubdate>
             <volume>148</volume>
             <fpage>70</fpage>
             <lpage>77</lpage>
          </bibl>
          <bibl id="B23">
             <title>
                <p>Xylooligomers are strong inhibitors of cellulose hydrolysis by enzymes</p>
             </title>
             <aug>
                <au>
                   <snm>Qing</snm>
                   <fnm>Q</fnm>
                </au>
                <au>
                   <snm>Yang</snm>
                   <fnm>B</fnm>
                </au>
                <au>
                   <snm>Wyman</snm>
                   <fnm>CE</fnm>
                </au>
             </aug>
             <source>Biores Technol</source>
             <pubdate>2010</pubdate>
             <volume>101</volume>
             <issue>24</issue>
             <fpage>9624</fpage>
             <lpage>9630</lpage>
          </bibl>
          <bibl id="B24">
             <title>
                <p>Xylan oligosaccharides and cellobiohydrolase I (TrCel7A) interaction and effect on activity</p>
             </title>
             <aug>
                <au>
                   <snm>Baumann</snm>
                   <fnm>MJ</fnm>
                </au>
                <au>
                   <snm>Borch</snm>
                   <fnm>K</fnm>
                </au>
                <au>
                   <snm>Westh</snm>
                   <fnm>P</fnm>
                </au>
             </aug>
             <source>Biotechnol Biofuels</source>
             <pubdate>2011</pubdate>
             <volume>4</volume>
             <fpage>45</fpage>
          </bibl>
          <bibl id="B25">
             <title>
                <p>Structuring and behaviour of water in nanochannels and confined spaces</p>
             </title>
             <aug>
                <au>
                   <snm>Chaplin</snm>
                   <fnm>MF</fnm>
                </au>
             </aug>
             <source>Adsorption and Phase Behaviour in Nanochannels and Nanotubes</source>
             <publisher>Springer, Dordrecht</publisher>
             <editor>Dunne L, Manos G</editor>
             <pubdate>2010</pubdate>
             <fpage>241</fpage>
             <lpage>255</lpage>
          </bibl>
          <bibl id="B26">
             <title>
                <p>Carbohydrate intramolecular hydrogen bonding cooperativity and its effect on water structure</p>
             </title>
             <aug>
                <au>
                   <snm>Dashnau</snm>
                   <fnm>JL</fnm>
                </au>
                <au>
                   <snm>Sharp</snm>
                   <fnm>KA</fnm>
                </au>
                <au>
                   <snm>Vanderkooi</snm>
                   <fnm>JM</fnm>
                </au>
             </aug>
             <source>J Phys Chem B</source>
             <pubdate>2005</pubdate>
             <volume>109</volume>
             <fpage>24152</fpage>
             <lpage>24159</lpage>
          </bibl>
          <bibl id="B27">
             <title>
                <p>Effect of arabinose substitution on the material properties of arabinoxylan films</p>
             </title>
             <aug>
                <au>
                   <snm>Sternemalm</snm>
                   <fnm>E</fnm>
                </au>
                <au>
                   <snm>H&#246;ije</snm>
                   <fnm>A</fnm>
                </au>
                <au>
                   <snm>Gatenholm</snm>
                   <fnm>P</fnm>
                </au>
             </aug>
             <source>Carbohydr Res</source>
             <pubdate>2008</pubdate>
             <volume>343</volume>
             <fpage>753</fpage>
             <lpage>757</lpage>
          </bibl>
          <bibl id="B28">
             <title>
                <p>Characterization of cellulose surface free energy</p>
             </title>
             <aug>
                <au>
                   <snm>Dourado</snm>
                   <fnm>F</fnm>
                </au>
                <au>
                   <snm>Gama</snm>
                   <fnm>FM</fnm>
                </au>
                <au>
                   <snm>Chibowski</snm>
                   <fnm>E</fnm>
                </au>
                <au>
                   <snm>Mota</snm>
                   <fnm>M</fnm>
                </au>
             </aug>
             <source>J Adhesion Sci Technol</source>
             <pubdate>1998</pubdate>
             <volume>12</volume>
             <issue>10</issue>
             <fpage>1081</fpage>
             <lpage>1090</lpage>
          </bibl>
          <bibl id="B29">
             <title>
                <p>Cellulose crystallinity index: measurement techniques and their impact on interpreting cellulase performance</p>
             </title>
             <aug>
                <au>
                   <snm>Park</snm>
                   <fnm>S</fnm>
                </au>
                <au>
                   <snm>Baker</snm>
                   <fnm>JO</fnm>
                </au>
                <au>
                   <snm>Himmel</snm>
                   <fnm>ME</fnm>
                </au>
                <au>
                   <snm>Johnson</snm>
                   <fnm>DK</fnm>
                </au>
             </aug>
             <source>Biotechnol Biofuels</source>
             <pubdate>2010</pubdate>
             <volume>3</volume>
             <issue>10</issue>
             <fpage>1</fpage>
             <lpage>11</lpage>
          </bibl>
          <bibl id="B30">
             <title>
                <p>Effect of enzyme supplementation at moderate cellulase loadings on initial glucose and xylose release from corn stover solids pretreated by leading technologies</p>
             </title>
             <aug>
                <au>
                   <snm>Kumar</snm>
                   <fnm>R</fnm>
                </au>
                <au>
                   <snm>Wyman</snm>
                   <fnm>CE</fnm>
                </au>
             </aug>
             <source>Biotechnol Bioeng</source>
             <pubdate>2009</pubdate>
             <volume>102</volume>
             <issue>2</issue>
             <fpage>457</fpage>
             <lpage>467</lpage>
          </bibl>
          <bibl id="B31">
             <title>
                <p>Structural differences of xylans affect their interaction with cellulose</p>
             </title>
             <aug>
                <au>
                   <snm>Kabel</snm>
                   <fnm>M</fnm>
                </au>
                <au>
                   <snm>Van den Borne</snm>
                   <fnm>H</fnm>
                </au>
                <au>
                   <snm>Vincken</snm>
                   <fnm>JP</fnm>
                </au>
                <au>
                   <snm>Voragen</snm>
                   <fnm>AGJ</fnm>
                </au>
                <au>
                   <snm>Schols</snm>
                   <fnm>HA</fnm>
                </au>
             </aug>
             <source>Carb Poly</source>
             <pubdate>2007</pubdate>
             <volume>69</volume>
             <fpage>94</fpage>
             <lpage>105</lpage>
          </bibl>
          <bibl id="B32">
             <title>
                <p>CONTIN: a general purpose constrained regularization program for inverting noisy linear algebraic and integral equations</p>
             </title>
             <aug>
                <au>
                   <snm>Provencher</snm>
                   <fnm>SW</fnm>
                </au>
             </aug>
             <source>Comput Phys Commun</source>
             <pubdate>1982</pubdate>
             <volume>27</volume>
             <fpage>229</fpage>
             <lpage>242</lpage>
          </bibl>
          <bibl id="B33">
             <title>
                <p>The effects of water interactions in cellulose suspensions on mass transfer and saccharification efficiency at high solids loadings</p>
             </title>
             <aug>
                <au>
                   <snm>Roberts</snm>
                   <fnm>KM</fnm>
                </au>
                <au>
                   <snm>Lavenson</snm>
                   <fnm>DM</fnm>
                </au>
                <au>
                   <snm>Tozzi</snm>
                   <fnm>EJ</fnm>
                </au>
                <au>
                   <snm>McCarthy</snm>
                   <fnm>MJ</fnm>
                </au>
                <au>
                   <snm>Jeoh</snm>
                   <fnm>T</fnm>
                </au>
             </aug>
             <source>Cellulose</source>
             <pubdate>2011</pubdate>
             <volume>18</volume>
             <fpage>759</fpage>
             <lpage>773</lpage>
          </bibl>
          <bibl id="B34">
             <title>
                <p>Can delignification decrease cellulose digestibility in acid pretreated corn stover?</p>
             </title>
             <aug>
                <au>
                   <snm>Ishizawa</snm>
                   <fnm>CI</fnm>
                </au>
                <au>
                   <snm>Jeoh</snm>
                   <fnm>T</fnm>
                </au>
                <au>
                   <snm>Adney</snm>
                   <fnm>WS</fnm>
                </au>
                <au>
                   <snm>Himmel</snm>
                   <fnm>ME</fnm>
                </au>
                <au>
                   <snm>Johnson</snm>
                   <fnm>DK</fnm>
                </au>
                <au>
                   <snm>Davis</snm>
                   <fnm>MF</fnm>
                </au>
             </aug>
             <source>Cellulose</source>
             <pubdate>2009</pubdate>
             <volume>16</volume>
             <issue>4</issue>
             <fpage>677</fpage>
             <lpage>686</lpage>
          </bibl>
       </refgrp>
    </bm>
 </art>