<art>
    <ui>s13054-014-0621-y</ui>
    <ji>1364-8535</ji>
    <fm>
       <dochead>Letter</dochead>
       <bibl>
          <title>
             <p>Effectiveness of inhaled furosemide for acute asthma exacerbation: a meta-analysis</p>
          </title>
          <aug>
             <au ca="yes" id="A1">
                <snm>Inokuchi</snm>
                <fnm>Ryota</fnm>
                <insr iid="I1"/>
                <insr iid="I2"/>
                <email>inokuchi-icu@h.u-tokyo.ac.jp</email>
             </au>
             <au id="A2">
                <snm>Aoki</snm>
                <fnm>Ai</fnm>
                <insr iid="I1"/>
                <insr iid="I3"/>
                <insr iid="I4"/>
                <email>sayran.n@gmail.com</email>
             </au>
             <au id="A3">
                <snm>Aoki</snm>
                <fnm>Yuta</fnm>
                <insr iid="I1"/>
                <insr iid="I4"/>
                <email>youyouryuta@gmail.com</email>
             </au>
             <au id="A4">
                <snm>Yahagi</snm>
                <fnm>Naoki</fnm>
                <insr iid="I1"/>
                <email>yahagin-eme@h.u-tokyo.ac.jp</email>
             </au>
          </aug>
          <insg>
             <ins id="I1">
                <p>Department of Emergency and Critical Care Medicine, The University of Tokyo Hospital, 7-3-1 Hongo, Bunkyo-ku 113-8655, Tokyo, Japan</p>
             </ins>
             <ins id="I2">
                <p>Department of Emergency Medicine, JR General Hospital, Yoyogi, Shibuya-ku 151-8528, Tokyo, Japan</p>
             </ins>
             <ins id="I3">
                <p>Department of Psychiatry, Tokyo Metropolitan Health and Medical Treatment Corporation, Ebara Hospital, Ota-ku 145-0065, Tokyo, Japan</p>
             </ins>
             <ins id="I4">
                <p>Department of Neuropsychiatry, Graduate School of Medicine, The University of Tokyo, Bunkyo-ku 113-8655, Tokyo, Japan</p>
             </ins>
          </insg>
          <source>Critical Care</source>
          <issn>1364-8535</issn>
          <pubdate>2014</pubdate>
          <volume>18</volume>
          <issue>6</issue>
          <fpage>621</fpage>
          <url>http://ccforum.com/content/18/6/621</url>
          <xrefbib>
             <pubidlist>
                <pubid idtype="doi">10.1186/s13054-014-0621-y</pubid>
             <pubid idtype="pmpid">25673428</pubid></pubidlist>
          </xrefbib>
       </bibl>
       <history>
          <pub>
             <date>
                <day>24</day>
                <month>11</month>
                <year>2014</year>
             </date>
          </pub>
       </history>
       <cpyrt>
          <year>2014</year>
          <collab>Inokuchi et al.; licensee BioMed Central Ltd.</collab>
          <note>This is an Open Access article distributed under the terms of the Creative Commons Attribution License (<url>http://creativecommons.org/licenses/by/4.0</url>), which permits unrestricted use, distribution, and reproduction in any medium, provided the original work is properly credited. The Creative Commons Public Domain Dedication waiver (<url>http://creativecommons.org/publicdomain/zero/1.0/</url>) applies to the data made available in this article, unless otherwise stated.</note>
       </cpyrt>
	   <abs>
   <sec>
    <st>
     <p>Abstract</p>
    </st>
     <p>No abstract</p>
    </sec>
  </abs>
    </fm>
    <bdy><sec><st><p/></st><p>As the effectiveness of beta-agonists for treating asthma attacks has been established, numerous other supportive treatments for asthma attacks have also been investigated, such as systemic glucocorticoids and magnesium. Among these additional therapies, inhaled furosemide is of particular interest; several studies have evaluated the effects of prophylactic inhaled furosemide in attenuating bronchoconstriction and asthma attacks. To determine the efficacy of inhaled furosemide during asthma attacks, we performed a systematic review using the MEDLINE, EMBASE, Web of Science, and Cochrane Library databases from their inception through 14 March 2014. A meta-analysis was conducted by calculating the standardized mean difference from each study and integrating these means using a random effects model. In addition, subanalyses were performed in the studies that evaluated the peak expiratory flow rate and the forced expiratory volume in 1&#160;second.</p>
       <p>We identified six studies using double-blinded, randomized control trial designs that evaluated inhaled furosemide in conjunction with standard treatments in patients experiencing asthma attacks <abbrgrp>
             <abbr bid="B1">1</abbr>
          </abbrgrp>-<abbrgrp>
             <abbr bid="B6">6</abbr>
          </abbrgrp> (Figure&#160;<figr fid="F1">1</figr>); a total of 78 patients received inhaled furosemide and 79 patients received a placebo (Tables&#160;<tblr tid="T1">1</tblr> and <tblr tid="T2">2</tblr>). The mean age of patients ranged from 8.4 to 47&#160;years <abbrgrp>
             <abbr bid="B3">3</abbr>
          </abbrgrp>,<abbrgrp>
             <abbr bid="B6">6</abbr>
          </abbrgrp>. In two studies, patients were administered 40&#160;mg inhaled furosemide <abbrgrp>
             <abbr bid="B1">1</abbr>
          </abbrgrp>,<abbrgrp>
             <abbr bid="B2">2</abbr>
          </abbrgrp>; in one study, patients were administered 20&#160;mg inhaled furosemide <abbrgrp>
             <abbr bid="B6">6</abbr>
          </abbrgrp>; and in the three studies that recruited children, patients were administered either 1.0&#160;mg/kg <abbrgrp>
             <abbr bid="B4">4</abbr>
          </abbrgrp>,<abbrgrp>
             <abbr bid="B5">5</abbr>
          </abbrgrp> or 10&#160;mg/m<sup>2</sup> 
          <abbrgrp>
             <abbr bid="B3">3</abbr>
          </abbrgrp> inhaled furosemide.
                
                
              </p>
       
          <fig id="F1">
             <title>
                <p>Figure 1</p>
             </title>
             <caption>
                <p>Study selection procedure. </p>
             </caption>
             <text>
                <p>
                        <b>Study selection procedure.</b>                      
                </p>
             </text>
             <graphic file="s13054-014-0621-y-1"/>
          </fig>
       
       
          <table id="T1">
             <title>
                <p>Table 1</p>
             </title>
             <caption>
                <p>
                        <b>Trial characteristics</b>                      
                </p>
             </caption>
             <tgroup align="left" cols="15">
                <colspec align="left" colname="c1" colnum="1" colwidth="*"/>
                <colspec align="left" colname="c2" colnum="2" colwidth="*"/>
                <colspec align="left" colname="c3" colnum="3" colwidth="*"/>
                <colspec align="left" colname="c4" colnum="4" colwidth="*"/>
                <colspec align="left" colname="c5" colnum="5" colwidth="*"/>
                <colspec align="left" colname="c6" colnum="6" colwidth="*"/>
                <colspec align="left" colname="c7" colnum="7" colwidth="*"/>
                <colspec align="left" colname="c8" colnum="8" colwidth="*"/>
                <colspec align="left" colname="c9" colnum="9" colwidth="*"/>
                <colspec align="left" colname="c10" colnum="10" colwidth="*"/>
                <colspec align="left" colname="c11" colnum="11" colwidth="*"/>
                <colspec align="left" colname="c12" colnum="12" colwidth="*"/>
                <colspec align="left" colname="c13" colnum="13" colwidth="*"/>
                <colspec align="left" colname="c14" colnum="14" colwidth="*"/>
                <colspec align="left" colname="c15" colnum="15" colwidth="*"/>
                <thead>
                   <row valign="top">
                      <entry colname="c1"/>
                      <entry colname="c2"/>
                      <entry colname="c3"/>
                      <entry nameend="c5" namest="c4" rowsep="1">
                         <p>
                            <b>Furosemide group</b>                          
                         </p>
                      </entry>
                      <entry nameend="c7" namest="c6" rowsep="1">
                         <p>
                            <b>Placebo group</b>                          
                         </p>
                      </entry>
                      <entry colname="c8"/>
                      <entry colname="c9"/>
                      <entry colname="c10"/>
                      <entry colname="c11"/>
                      <entry colname="c12"/>
                      <entry colname="c13"/>
                      <entry colname="c14"/>
                      <entry colname="c15"/>
                   </row>
                   <row valign="top">
                      <entry colname="c1">
                         <p>
                            <b>Study (year)</b>                          
                         </p>
                      </entry>
                      <entry colname="c2">
                         <p>
                            <b>Number of randomized patients</b>                          
                         </p>
                      </entry>
                      <entry colname="c3">
                         <p>
                            <b>Number of patients completing study</b>                          
                         </p>
                      </entry>
                      <entry colname="c4">
                         <p>
                            <b>Mean patient age (years)</b>                          
                         </p>
                      </entry>
                      <entry colname="c5">
                         <p>
                            <b>Number of patients (male)</b>                          
                         </p>
                      </entry>
                      <entry colname="c6">
                         <p>
                            <b>Mean patient age (years)</b>                          
                         </p>
                      </entry>
                      <entry colname="c7">
                         <p>
                            <b>Number of patients (male)</b>                          
                         </p>
                      </entry>
                      <entry colname="c8">
                         <p>
                            <b>Smoking</b>                          
                         </p>
                      </entry>
                      <entry colname="c9">
                         <p>
                            <b>COPD</b>                          
                         </p>
                      </entry>
                      <entry colname="c10">
                         <p>
                            <b>&#946;-agonist dose</b>                          
                         </p>
                      </entry>
                      <entry colname="c11">
                         <p>
                            <b>Inhaled furosemide dose</b>                          
                         </p>
                      </entry>
                      <entry colname="c12">
                         <p>
                            <b>Expiratory airflow assessment time (minutes)</b>                          
                         </p>
                      </entry>
                      <entry colname="c13">
                         <p>
                            <b>Spirometry measurement used</b>                          
                         </p>
                      </entry>
                      <entry colname="c14">
                         <p>
                            <b>Severity</b>                          
                         </p>
                      </entry>
                      <entry colname="c15">
                         <p>
                            <b>Hydrocortisone (mg)</b>                          
                         </p>
                      </entry>
                   </row>
                </thead>
                <tfoot>
                   <p>COPD, chronic obstructive pulmonary disease; FEV1.0, forced expiratory volume in 1&#160;second; N/A, not available; PEFR, peak expiratory flow rate. <sup>a</sup>Smoking and COPD histories were not available, although no smoking or COPD history was assumed because patients were children. <sup>b</sup>Combination treatment in all trials was simultaneous administration of a beta-agonist plus furosemide, except for Ono and colleagues, in which patients in both groups received hydrocortisone succinate and aminophylline, followed 30&#160;minutes later by either furosemide or placebo. <sup>c</sup>Only subgroup data (pertaining to patients whose exacerbations lasted &lt;8&#160;hours) were available.</p>
                </tfoot>
                <tbody>
                   <row valign="top">
                      <entry colname="c1">
                         <p>Alshehri and colleagues, 2005 <abbrgrp>
                               <abbr bid="B5">5</abbr>
                            </abbrgrp>
                         </p>
                      </entry>
                      <entry colname="c2">
                         <p>39</p>
                      </entry>
                      <entry colname="c3">
                         <p>39</p>
                      </entry>
                      <entry colname="c4">
                         <p>8.4</p>
                      </entry>
                      <entry colname="c5">
                         <p>19 (11)</p>
                      </entry>
                      <entry colname="c6">
                         <p>8.5</p>
                      </entry>
                      <entry colname="c7">
                         <p>20 (9)</p>
                      </entry>
                      <entry colname="c8">
                         <p>N/A<sup>a</sup>
                          </p>
                      </entry>
                      <entry colname="c9">
                         <p>N/A<sup>a</sup>
                          </p>
                      </entry>
                      <entry colname="c10">
                         <p>0.15&#160;mg/kg</p>
                      </entry>
                      <entry colname="c11">
                         <p>1.0&#160;mg/kg</p>
                      </entry>
                      <entry colname="c12">
                         <p>30</p>
                      </entry>
                      <entry colname="c13">
                         <p>PEFR, FEV1.0</p>
                      </entry>
                      <entry colname="c14">
                         <p>Moderate</p>
                      </entry>
                      <entry colname="c15">
                         <p>N/A</p>
                      </entry>
                   </row>
                   <row valign="top">
                      <entry colname="c1">
                         <p>Gonz&#225;lez-S&#225;nchez and colleagues, 2002 <abbrgrp>
                               <abbr bid="B4">4</abbr>
                            </abbrgrp>
                         </p>
                      </entry>
                      <entry colname="c2">
                         <p>20</p>
                      </entry>
                      <entry colname="c3">
                         <p>20</p>
                      </entry>
                      <entry colname="c4">
                         <p>9.8</p>
                      </entry>
                      <entry colname="c5">
                         <p>10 (7)</p>
                      </entry>
                      <entry colname="c6">
                         <p>10</p>
                      </entry>
                      <entry colname="c7">
                         <p>10 (5)</p>
                      </entry>
                      <entry colname="c8">
                         <p>N/A<sup>a</sup>
                          </p>
                      </entry>
                      <entry colname="c9">
                         <p>N/A<sup>a</sup>
                          </p>
                      </entry>
                      <entry colname="c10">
                         <p>0.15&#160;mg/kg</p>
                      </entry>
                      <entry colname="c11">
                         <p>1.0&#160;mg/kg</p>
                      </entry>
                      <entry colname="c12">
                         <p>30, 60</p>
                      </entry>
                      <entry colname="c13">
                         <p>FEV1.0</p>
                      </entry>
                      <entry colname="c14">
                         <p>Mild or moderate</p>
                      </entry>
                      <entry colname="c15">
                         <p>N/A</p>
                      </entry>
                   </row>
                   <row valign="top">
                      <entry colname="c1">
                         <p>Nannini and colleagues, 1992 <abbrgrp>
                               <abbr bid="B1">1</abbr>
                            </abbrgrp>
                         </p>
                      </entry>
                      <entry colname="c2">
                         <p>20</p>
                      </entry>
                      <entry colname="c3">
                         <p>16</p>
                      </entry>
                      <entry colname="c4">
                         <p>31</p>
                      </entry>
                      <entry colname="c5">
                         <p>7 (N/A)</p>
                      </entry>
                      <entry colname="c6">
                         <p>41</p>
                      </entry>
                      <entry colname="c7">
                         <p>9 (N/A)</p>
                      </entry>
                      <entry colname="c8">
                         <p>N/A</p>
                      </entry>
                      <entry colname="c9">
                         <p>N/A</p>
                      </entry>
                      <entry colname="c10">
                         <p>2.5&#160;mg</p>
                      </entry>
                      <entry colname="c11">
                         <p>40&#160;mg</p>
                      </entry>
                      <entry colname="c12">
                         <p>15, 30</p>
                      </entry>
                      <entry colname="c13">
                         <p>PEFR</p>
                      </entry>
                      <entry colname="c14">
                         <p>N/A</p>
                      </entry>
                      <entry colname="c15">
                         <p>N/A</p>
                      </entry>
                   </row>
                   <row valign="top">
                      <entry colname="c1">
                         <p>Nuho&#287;lu and colleagues, 2006 <abbrgrp>
                               <abbr bid="B3">3</abbr>
                            </abbrgrp>
                         </p>
                      </entry>
                      <entry colname="c2">
                         <p>32</p>
                      </entry>
                      <entry colname="c3">
                         <p>32</p>
                      </entry>
                      <entry colname="c4">
                         <p>8.6</p>
                      </entry>
                      <entry colname="c5">
                         <p>16 (8)</p>
                      </entry>
                      <entry colname="c6">
                         <p>8.4</p>
                      </entry>
                      <entry colname="c7">
                         <p>16 (12)</p>
                      </entry>
                      <entry colname="c8">
                         <p>N/A<sup>a</sup>
                          </p>
                      </entry>
                      <entry colname="c9">
                         <p>N/A<sup>a</sup>
                          </p>
                      </entry>
                      <entry colname="c10">
                         <p>0.15&#160;mg/kg</p>
                      </entry>
                      <entry colname="c11">
                         <p>10&#160;mg/m<sup>2</sup>
                          </p>
                      </entry>
                      <entry colname="c12">
                         <p>N/A</p>
                      </entry>
                      <entry colname="c13">
                         <p>PEFR</p>
                      </entry>
                      <entry colname="c14">
                         <p>Mild or moderate</p>
                      </entry>
                      <entry colname="c15">
                         <p>N/A</p>
                      </entry>
                   </row>
                   <row valign="top">
                      <entry colname="c1">
                         <p>Ono and colleagues, 1997<sup>b</sup> 
                            <abbrgrp>
                               <abbr bid="B6">6</abbr>
                            </abbrgrp>
                         </p>
                      </entry>
                      <entry colname="c2">
                         <p>37</p>
                      </entry>
                      <entry colname="c3">
                         <p>37</p>
                      </entry>
                      <entry colname="c4">
                         <p>47</p>
                      </entry>
                      <entry colname="c5">
                         <p>20 (7)</p>
                      </entry>
                      <entry colname="c6">
                         <p>41</p>
                      </entry>
                      <entry colname="c7">
                         <p>17 (8)</p>
                      </entry>
                      <entry colname="c8">
                         <p>N/A</p>
                      </entry>
                      <entry colname="c9">
                         <p>Exclude</p>
                      </entry>
                      <entry colname="c10">
                         <p>N/A</p>
                      </entry>
                      <entry colname="c11">
                         <p>20&#160;mg</p>
                      </entry>
                      <entry colname="c12">
                         <p>30, 60</p>
                      </entry>
                      <entry colname="c13">
                         <p>PEFR, FEV1.0</p>
                      </entry>
                      <entry colname="c14">
                         <p>Mild to severe</p>
                      </entry>
                      <entry colname="c15">
                         <p>100</p>
                      </entry>
                   </row>
                   <row valign="top">
                      <entry colname="c1">
                         <p>Pendino and colleagues, 1998<sup>c</sup> 
                            <abbrgrp>
                               <abbr bid="B2">2</abbr>
                            </abbrgrp>
                         </p>
                      </entry>
                      <entry colname="c2">
                         <p>42</p>
                      </entry>
                      <entry colname="c3">
                         <p>42</p>
                      </entry>
                      <entry colname="c4">
                         <p>38</p>
                      </entry>
                      <entry colname="c5">
                         <p>6 (N/A)</p>
                      </entry>
                      <entry colname="c6">
                         <p>34</p>
                      </entry>
                      <entry colname="c7">
                         <p>8 (N/A)</p>
                      </entry>
                      <entry colname="c8">
                         <p>Not &gt;10 pack-years</p>
                      </entry>
                      <entry colname="c9">
                         <p>Exclude</p>
                      </entry>
                      <entry colname="c10">
                         <p>2.5&#160;mg</p>
                      </entry>
                      <entry colname="c11">
                         <p>40&#160;mg</p>
                      </entry>
                      <entry colname="c12">
                         <p>15, 30</p>
                      </entry>
                      <entry colname="c13">
                         <p>PEFR</p>
                      </entry>
                      <entry colname="c14">
                         <p>Mild or moderate</p>
                      </entry>
                      <entry colname="c15">
                         <p>300</p>
                      </entry>
                   </row>
                </tbody>
             </tgroup>
          </table>
       
       
          <table id="T2">
             <title>
                <p>Table 2</p>
             </title>
             <caption>
                <p>
                        <b>Trial results</b>                      
                </p>
             </caption>
             <tgroup align="left" cols="17">
                <colspec align="left" colname="c1" colnum="1" colwidth="*"/>
                <colspec align="left" colname="c2" colnum="2" colwidth="*"/>
                <colspec align="left" colname="c3" colnum="3" colwidth="*"/>
                <colspec align="left" colname="c4" colnum="4" colwidth="*"/>
                <colspec align="left" colname="c5" colnum="5" colwidth="*"/>
                <colspec align="left" colname="c6" colnum="6" colwidth="*"/>
                <colspec align="left" colname="c7" colnum="7" colwidth="*"/>
                <colspec align="left" colname="c8" colnum="8" colwidth="*"/>
                <colspec align="left" colname="c9" colnum="9" colwidth="*"/>
                <colspec align="left" colname="c10" colnum="10" colwidth="*"/>
                <colspec align="left" colname="c11" colnum="11" colwidth="*"/>
                <colspec align="left" colname="c12" colnum="12" colwidth="*"/>
                <colspec align="left" colname="c13" colnum="13" colwidth="*"/>
                <colspec align="left" colname="c14" colnum="14" colwidth="*"/>
                <colspec align="left" colname="c15" colnum="15" colwidth="*"/>
                <colspec align="left" colname="c16" colnum="16" colwidth="*"/>
                <colspec align="left" colname="c17" colnum="17" colwidth="*"/>
                <thead>
                   <row valign="top">
                      <entry colname="c1"/>
                      <entry nameend="c9" namest="c2" rowsep="1">
                         <p>
                            <b>Furosemide</b>                          
                         </p>
                      </entry>
                      <entry nameend="c17" namest="c10" rowsep="1">
                         <p>
                            <b>Placebo</b>                          
                         </p>
                      </entry>
                   </row>
                   <row valign="top">
                      <entry colname="c1"/>
                      <entry nameend="c5" namest="c2" rowsep="1">
                         <p>
                            <b>PEFR</b>                          
                         </p>
                      </entry>
                      <entry nameend="c9" namest="c6" rowsep="1">
                         <p>
                            <b>FEV1.0</b>                          
                         </p>
                      </entry>
                      <entry nameend="c13" namest="c10" rowsep="1">
                         <p>
                            <b>PEFR</b>                          
                         </p>
                      </entry>
                      <entry nameend="c17" namest="c14" rowsep="1">
                         <p>
                            <b>FEV 1.0</b>                          
                         </p>
                      </entry>
                   </row>
                   <row valign="top">
                      <entry colname="c1">
                         <p>
                            <b>Study (year)</b>                          
                         </p>
                      </entry>
                      <entry colname="c2">
                         <p>
                            <b>Baseline airflow</b>                          
                         </p>
                      </entry>
                      <entry colname="c3">
                         <p>
                            <b>SD</b>                          
                         </p>
                      </entry>
                      <entry colname="c4">
                         <p>
                            <b>Post-treatment airflow</b>                          
                         </p>
                      </entry>
                      <entry colname="c5">
                         <p>
                            <b>SD</b>                          
                         </p>
                      </entry>
                      <entry colname="c6">
                         <p>
                            <b>Baseline airflow</b>                          
                         </p>
                      </entry>
                      <entry colname="c7">
                         <p>
                            <b>SD</b>                          
                         </p>
                      </entry>
                      <entry colname="c8">
                         <p>
                            <b>Post-treatment airflow</b>                          
                         </p>
                      </entry>
                      <entry colname="c9">
                         <p>
                            <b>SD</b>                          
                         </p>
                      </entry>
                      <entry colname="c10">
                         <p>
                            <b>Baseline airflow</b>                          
                         </p>
                      </entry>
                      <entry colname="c11">
                         <p>
                            <b>SD</b>                          
                         </p>
                      </entry>
                      <entry colname="c12">
                         <p>
                            <b>Post-treatment airflow</b>                          
                         </p>
                      </entry>
                      <entry colname="c13">
                         <p>
                            <b>SD</b>                          
                         </p>
                      </entry>
                      <entry colname="c14">
                         <p>
                            <b>Baseline airflow</b>                          
                         </p>
                      </entry>
                      <entry colname="c15">
                         <p>
                            <b>SD</b>                          
                         </p>
                      </entry>
                      <entry colname="c16">
                         <p>
                            <b>Post-treatment airflow</b>                          
                         </p>
                      </entry>
                      <entry colname="c17">
                         <p>
                            <b>SD</b>                          
                         </p>
                      </entry>
                   </row>
                </thead>
                <tfoot>
                   <p>FEV1.0, forced expiratory volume in 1&#160;second; N/A, not available; PEFR, peak expiratory flow rate; SD, standard deviation.</p>
                </tfoot>
                <tbody>
                   <row valign="top">
                      <entry colname="c1">
                         <p>Alshehri and colleagues, 2005 <abbrgrp>
                               <abbr bid="B5">5</abbr>
                            </abbrgrp>
                         </p>
                      </entry>
                      <entry colname="c2">
                         <p>59.0</p>
                      </entry>
                      <entry colname="c3">
                         <p>22.0</p>
                      </entry>
                      <entry colname="c4">
                         <p>84.9</p>
                      </entry>
                      <entry colname="c5">
                         <p>14.0</p>
                      </entry>
                      <entry colname="c6">
                         <p>58.5</p>
                      </entry>
                      <entry colname="c7">
                         <p>14.5</p>
                      </entry>
                      <entry colname="c8">
                         <p>80.2</p>
                      </entry>
                      <entry colname="c9">
                         <p>13.9</p>
                      </entry>
                      <entry colname="c10">
                         <p>57.2</p>
                      </entry>
                      <entry colname="c11">
                         <p>25.4</p>
                      </entry>
                      <entry colname="c12">
                         <p>80.7</p>
                      </entry>
                      <entry colname="c13">
                         <p>17.4</p>
                      </entry>
                      <entry colname="c14">
                         <p>56.7</p>
                      </entry>
                      <entry colname="c15">
                         <p>17.3</p>
                      </entry>
                      <entry colname="c16">
                         <p>77.8</p>
                      </entry>
                      <entry colname="c17">
                         <p>19.1</p>
                      </entry>
                   </row>
                   <row valign="top">
                      <entry colname="c1">
                         <p>Nuho&#287;lu and colleagues, 2006 <abbrgrp>
                               <abbr bid="B3">3</abbr>
                            </abbrgrp>
                         </p>
                      </entry>
                      <entry colname="c2">
                         <p>178</p>
                      </entry>
                      <entry colname="c3">
                         <p>65.9</p>
                      </entry>
                      <entry colname="c4">
                         <p>222</p>
                      </entry>
                      <entry colname="c5">
                         <p>66.1</p>
                      </entry>
                      <entry colname="c6">
                         <p>N/A</p>
                      </entry>
                      <entry colname="c7">
                         <p>N/A</p>
                      </entry>
                      <entry colname="c8">
                         <p>183</p>
                      </entry>
                      <entry colname="c9">
                         <p>51.7</p>
                      </entry>
                      <entry colname="c10">
                         <p>218</p>
                      </entry>
                      <entry colname="c11">
                         <p>60.3</p>
                      </entry>
                      <entry colname="c12">
                         <p>N/A</p>
                      </entry>
                      <entry colname="c13">
                         <p>N/A</p>
                      </entry>
                      <entry colname="c14"/>
                      <entry colname="c15"/>
                      <entry colname="c16"/>
                      <entry colname="c17"/>
                   </row>
                   <row valign="top">
                      <entry colname="c1"/>
                      <entry colname="c2">
                         <p>
                            <b>Baseline airflow</b>                          
                         </p>
                      </entry>
                      <entry colname="c3">
                         <p>
                            <b>SD</b>                          
                         </p>
                      </entry>
                      <entry colname="c4">
                         <p>
                            <b>Net airflow improvement above baseline</b>                          
                         </p>
                      </entry>
                      <entry colname="c5">
                         <p>
                            <b>SD</b>                          
                         </p>
                      </entry>
                      <entry colname="c6">
                         <p>
                            <b>Baseline airflow</b>                          
                         </p>
                      </entry>
                      <entry colname="c7">
                         <p>
                            <b>SD</b>                          
                         </p>
                      </entry>
                      <entry colname="c8">
                         <p>
                            <b>Net airflow improvement above baseline</b>                          
                         </p>
                      </entry>
                      <entry colname="c9">
                         <p>
                            <b>SD</b>                          
                         </p>
                      </entry>
                      <entry colname="c10">
                         <p>
                            <b>Baseline airflow</b>                          
                         </p>
                      </entry>
                      <entry colname="c11">
                         <p>
                            <b>SD</b>                          
                         </p>
                      </entry>
                      <entry colname="c12">
                         <p>
                            <b>Net airflow improvement above baseline</b>                          
                         </p>
                      </entry>
                      <entry colname="c13">
                         <p>
                            <b>SD</b>                          
                         </p>
                      </entry>
                      <entry colname="c14">
                         <p>
                            <b>Baseline airflow</b>                          
                         </p>
                      </entry>
                      <entry colname="c15">
                         <p>
                            <b>SD</b>                          
                         </p>
                      </entry>
                      <entry colname="c16">
                         <p>
                            <b>Net airflow improvement above baseline</b>                          
                         </p>
                      </entry>
                      <entry colname="c17">
                         <p>
                            <b>SD</b>                          
                         </p>
                      </entry>
                   </row>
                   <row valign="top">
                      <entry colname="c1">
                         <p>Gonz&#225;lez-S&#225;nchez and colleagues, 2002 <abbrgrp>
                               <abbr bid="B4">4</abbr>
                            </abbrgrp>
                         </p>
                      </entry>
                      <entry colname="c2">
                         <p>N/A</p>
                      </entry>
                      <entry colname="c3">
                         <p>N/A</p>
                      </entry>
                      <entry colname="c4">
                         <p>0.820</p>
                      </entry>
                      <entry colname="c5">
                         <p>0.460</p>
                      </entry>
                      <entry colname="c6">
                         <p>0.910</p>
                      </entry>
                      <entry colname="c7">
                         <p>0.067</p>
                      </entry>
                      <entry colname="c8">
                         <p>N/A</p>
                      </entry>
                      <entry colname="c9">
                         <p>N/A</p>
                      </entry>
                      <entry colname="c10">
                         <p>0.850</p>
                      </entry>
                      <entry colname="c11">
                         <p>0.340</p>
                      </entry>
                      <entry colname="c12">
                         <p>0.980</p>
                      </entry>
                      <entry colname="c13">
                         <p>0.078</p>
                      </entry>
                      <entry colname="c14"/>
                      <entry colname="c15"/>
                      <entry colname="c16"/>
                      <entry colname="c17"/>
                   </row>
                   <row valign="top">
                      <entry colname="c1">
                         <p>Nannini and colleagues, 1992 <abbrgrp>
                               <abbr bid="B1">1</abbr>
                            </abbrgrp>
                         </p>
                      </entry>
                      <entry colname="c2">
                         <p>147</p>
                      </entry>
                      <entry colname="c3">
                         <p>68.0</p>
                      </entry>
                      <entry colname="c4">
                         <p>269</p>
                      </entry>
                      <entry colname="c5">
                         <p>89.7</p>
                      </entry>
                      <entry colname="c6">
                         <p>N/A</p>
                      </entry>
                      <entry colname="c7">
                         <p>N/A</p>
                      </entry>
                      <entry colname="c8">
                         <p>234</p>
                      </entry>
                      <entry colname="c9">
                         <p>82.0</p>
                      </entry>
                      <entry colname="c10">
                         <p>316</p>
                      </entry>
                      <entry colname="c11">
                         <p>56.2</p>
                      </entry>
                      <entry colname="c12">
                         <p>N/A</p>
                      </entry>
                      <entry colname="c13">
                         <p>N/A</p>
                      </entry>
                      <entry colname="c14"/>
                      <entry colname="c15"/>
                      <entry colname="c16"/>
                      <entry colname="c17"/>
                   </row>
                   <row valign="top">
                      <entry colname="c1">
                         <p>Ono and colleagues, 1997 <abbrgrp>
                               <abbr bid="B6">6</abbr>
                            </abbrgrp>
                         </p>
                      </entry>
                      <entry colname="c2">
                         <p>171</p>
                      </entry>
                      <entry colname="c3">
                         <p>20.0</p>
                      </entry>
                      <entry colname="c4">
                         <p>205</p>
                      </entry>
                      <entry colname="c5">
                         <p>45.1</p>
                      </entry>
                      <entry colname="c6">
                         <p>1.18</p>
                      </entry>
                      <entry colname="c7">
                         <p>0.13</p>
                      </entry>
                      <entry colname="c8"/>
                      <entry colname="c9">
                         <p>178</p>
                      </entry>
                      <entry colname="c10">
                         <p>25.0</p>
                      </entry>
                      <entry colname="c11">
                         <p>198</p>
                      </entry>
                      <entry colname="c12">
                         <p>21.3</p>
                      </entry>
                      <entry colname="c13">
                         <p>1.32</p>
                      </entry>
                      <entry colname="c14">
                         <p>0.74</p>
                      </entry>
                      <entry colname="c15">
                         <p>N/A</p>
                      </entry>
                      <entry colname="c16"/>
                      <entry colname="c17"/>
                   </row>
                   <row valign="top">
                      <entry colname="c1">
                         <p>Pendino and colleagues, 1998 <abbrgrp>
                               <abbr bid="B2">2</abbr>
                            </abbrgrp>
                         </p>
                      </entry>
                      <entry colname="c2">
                         <p>200</p>
                      </entry>
                      <entry colname="c3">
                         <p>71.0</p>
                      </entry>
                      <entry colname="c4">
                         <p>426</p>
                      </entry>
                      <entry colname="c5">
                         <p>98.0</p>
                      </entry>
                      <entry colname="c6">
                         <p>N/A</p>
                      </entry>
                      <entry colname="c7">
                         <p>N/A</p>
                      </entry>
                      <entry colname="c8">
                         <p>209</p>
                      </entry>
                      <entry colname="c9">
                         <p>68.0</p>
                      </entry>
                      <entry colname="c10">
                         <p>337</p>
                      </entry>
                      <entry colname="c11">
                         <p>73.2</p>
                      </entry>
                      <entry colname="c12">
                         <p>N/A</p>
                      </entry>
                      <entry colname="c13">
                         <p>N/A</p>
                      </entry>
                      <entry colname="c14"/>
                      <entry colname="c15"/>
                      <entry colname="c16"/>
                      <entry colname="c17"/>
                   </row>
                </tbody>
             </tgroup>
          </table>
       
       <p>Integrating the standardized mean difference in each study, a random effects model showed that inhaled furosemide had a significant positive effect on asthma attacks (<it>Z</it> = 2.70; 95% confidence interval, 0.14 to 0.85; <it>P</it> = 0.007) with a negligible heterogeneity (<it>I</it>                
          <sup>2</sup>&#8201;=&#8201;16.82) (Figure&#160;<figr fid="F2">2</figr> and Table&#160;<tblr tid="T3">3</tblr>). Subanalyses of the studies reporting the peak expiratory flow rate (<it>Z</it> = 2.23; <it>P</it> = 0.026; <it>n</it> = 68/70, inhaled furosemide/placebo) and the forced expiratory flow in 1&#160;second (<it>Z</it> = 1.84; <it>P</it> = 0.066; <it>n</it> = 49/46, inhaled furosemide/placebo) values confirmed the significant effectiveness of inhaled furosemide for asthma attacks (Table&#160;<tblr tid="T3">3</tblr>). Jackknife sensitivity analyses confirmed the replicability of these findings (<it>P</it> &lt;0.028) (Figure&#160;<figr fid="F3">3</figr>). No adverse events associated with furosemide inhalation were reported.
                
                
              </p>
       
          <fig id="F2">
             <title>
                <p>Figure 2</p>
             </title>
             <caption>
                <p>Meta-analysis of randomized clinical trial studies. </p>
             </caption>
             <text>
                <p>
                        <b>Meta-analysis of randomized clinical trial studies.</b> A random effects model demonstrated significant effectiveness of inhaled furosemide for asthma attacks <abbrgrp>
                      <abbr bid="B1">1</abbr>
                   </abbrgrp>-<abbrgrp>
                      <abbr bid="B6">6</abbr>
                   </abbrgrp>. CI, confidence interval; Std, standard.</p>
             </text>
             <graphic file="s13054-014-0621-y-2"/>
          </fig>
       
       
          <table id="T3">
             <title>
                <p>Table 3</p>
             </title>
             <caption>
                <p>
                        <b>Meta-analyses of randomized controlled trials</b>                      
                </p>
             </caption>
             <tgroup align="left" cols="9">
                <colspec align="left" colname="c1" colnum="1" colwidth="*"/>
                <colspec align="left" colname="c2" colnum="2" colwidth="*"/>
                <colspec align="left" colname="c3" colnum="3" colwidth="*"/>
                <colspec align="left" colname="c4" colnum="4" colwidth="*"/>
                <colspec align="left" colname="c5" colnum="5" colwidth="*"/>
                <colspec align="left" colname="c6" colnum="6" colwidth="*"/>
                <colspec align="left" colname="c7" colnum="7" colwidth="*"/>
                <colspec align="left" colname="c8" colnum="8" colwidth="*"/>
                <colspec align="left" colname="c9" colnum="9" colwidth="*"/>
                <thead>
                   <row valign="top">
                      <entry colname="c1"/>
                      <entry colname="c2">
                         <p>
                            <b>Number of studies</b>                          
                         </p>
                      </entry>
                      <entry colname="c3">
                         <p>
                            <b>Furosemide group (</b>                            
                            <b>
                               <it>n</it> 
                           </b>                            
                            <b>)</b>                          
                         </p>
                      </entry>
                      <entry colname="c4">
                         <p>
                            <b>Placebo group (</b>                            
                            <b>
                               <it>n</it> 
                           </b>                            
                            <b>)</b>                          
                         </p>
                      </entry>
                      <entry colname="c5">
                         <p>
                            <b>Lower 95% CI</b>                          
                         </p>
                      </entry>
                      <entry colname="c6">
                         <p>
                            <b>Upper 95% CI</b>                          
                         </p>
                      </entry>
                      <entry colname="c7">
                         <p>
                            <b>
                               <it>Z</it> 
                           </b>                            
                            <b>value</b>                          
                         </p>
                      </entry>
                      <entry colname="c8">
                         <p>
                            <b>
                               <it>P</it> 
                           </b>                            
                            <b>value</b>                          
                         </p>
                      </entry>
                      <entry colname="c9">
                         <p>
                            <b>
                               <it>I</it> 
                           </b>                            
                            <sup>
                               <b>
                                  <it>2</it> 
                              </b> 
                            </sup>
                          </p>
                      </entry>
                   </row>
                </thead>
                <tfoot>
                   <p>CI, confidence interval; FEV1.0, forced expiratory volume in 1&#160;second; PEFR, peak expiratory flow rate.</p>
                </tfoot>
                <tbody>
                   <row valign="top">
                      <entry colname="c1">
                         <p>Whole studies</p>
                      </entry>
                      <entry colname="c2">
                         <p>6</p>
                      </entry>
                      <entry colname="c3">
                         <p>78</p>
                      </entry>
                      <entry colname="c4">
                         <p>79</p>
                      </entry>
                      <entry colname="c5">
                         <p>0.14</p>
                      </entry>
                      <entry colname="c6">
                         <p>0.85</p>
                      </entry>
                      <entry colname="c7">
                         <p>2.70</p>
                      </entry>
                      <entry colname="c8">
                         <p>0.007</p>
                      </entry>
                      <entry colname="c9">
                         <p>16.8</p>
                      </entry>
                   </row>
                   <row valign="top">
                      <entry colname="c1">
                         <p>PEFR</p>
                      </entry>
                      <entry colname="c2">
                         <p>5</p>
                      </entry>
                      <entry colname="c3">
                         <p>68</p>
                      </entry>
                      <entry colname="c4">
                         <p>70</p>
                      </entry>
                      <entry colname="c5">
                         <p>0.058</p>
                      </entry>
                      <entry colname="c6">
                         <p>0.90</p>
                      </entry>
                      <entry colname="c7">
                         <p>2.23</p>
                      </entry>
                      <entry colname="c8">
                         <p>0.026</p>
                      </entry>
                      <entry colname="c9">
                         <p>30.4</p>
                      </entry>
                   </row>
                   <row valign="top">
                      <entry colname="c1">
                         <p>FEV1.0</p>
                      </entry>
                      <entry colname="c2">
                         <p>3</p>
                      </entry>
                      <entry colname="c3">
                         <p>49</p>
                      </entry>
                      <entry colname="c4">
                         <p>46</p>
                      </entry>
                      <entry colname="c5">
                         <p>&#8211;0.027</p>
                      </entry>
                      <entry colname="c6">
                         <p>0.83</p>
                      </entry>
                      <entry colname="c7">
                         <p>1.84</p>
                      </entry>
                      <entry colname="c8">
                         <p>0.066</p>
                      </entry>
                      <entry colname="c9">
                         <p>8.16</p>
                      </entry>
                   </row>
                </tbody>
             </tgroup>
          </table>
       
       
          <fig id="F3">
             <title>
                <p>Figure 3</p>
             </title>
             <caption>
                <p>Jackknife sensitivity analysis, excluding one study at a time. </p>
             </caption>
             <text>
                <p>
                        <b>Jackknife sensitivity analysis, excluding one study at a time.</b> All sensitivity analyses preserved the significant effectiveness of inhaled furosemide for asthma attacks <abbrgrp>
                      <abbr bid="B1">1</abbr>
                   </abbrgrp>-<abbrgrp>
                      <abbr bid="B6">6</abbr>
                   </abbrgrp>. CI, confidence interval; Std, standard.</p>
             </text>
             <graphic file="s13054-014-0621-y-3"/>
          </fig>
       
       <p>These results thus reveal a statistically significant improvement in airflow obstruction with no evident adverse events when inhaled furosemide was used as an adjunctive treatment for acute asthma exacerbation. The present study provides evidence supporting the addition of inhaled furosemide to conventional treatment in clinical situations.</p></sec><sec>
          <st>
             <p>Competing interests</p>
          </st>
          <p>The authors declare that they have no competing interests.</p>
       </sec>
       <sec>
          <st>
             <p>Authors&#8217; contributions</p>
          </st>
          <p>RI and AA drafted the initial manuscript. YA contributed to the manuscript composition. RI and AA both independently screened the studies. YA performed the statistical analyses. NY critically reviewed the manuscript. All authors provided written consent for publication. All authors read and approved the final manuscript.</p>
       </sec>
    </bdy>
    <bm>
       <ack>
          <sec>
             <st>
                <p>Acknowledgements</p>
             </st>
             <p>The authors are grateful to Dr Masao Iwagami (The London School of Hygiene &amp; Tropical Medicine, London, UK) for his assistance.</p>
          </sec>
       </ack>
       <refgrp>
          
          <bibl id="B1">
             <title>
                <p>Inhaled furosemide and salbutamol in acute asthma</p>
             </title>
             <aug>
                <au>
                   <snm>Nannini</snm>
                   <fnm>L</fnm>
                </au>
                <au>
                   <snm>Pendino</snm>
                   <fnm>J</fnm>
                </au>
                <au>
                   <snm>Molfino</snm>
                   <fnm>N</fnm>
                </au>
                <au>
                   <snm>Slutsky</snm>
                   <fnm>A</fnm>
                </au>
             </aug>
             <source>Am Rev Respir Dis</source>
             <pubdate>1992</pubdate>
             <volume>145</volume>
             <fpage>422</fpage>
          </bibl>
          <bibl id="B2">
             <title>
                <p>Effect of inhaled furosemide in acute asthma</p>
             </title>
             <aug>
                <au>
                   <snm>Pendino</snm>
                   <fnm>JC</fnm>
                </au>
                <au>
                   <snm>Nannini</snm>
                   <fnm>LJ</fnm>
                </au>
                <au>
                   <snm>Chapman</snm>
                   <fnm>KR</fnm>
                </au>
                <au>
                   <snm>Slutsky</snm>
                   <fnm>A</fnm>
                </au>
                <au>
                   <snm>Molfino</snm>
                   <fnm>NA</fnm>
                </au>
             </aug>
             <source>J Asthma</source>
             <pubdate>1998</pubdate>
             <volume>35</volume>
             <fpage>89</fpage>
             <lpage>93</lpage>
             <xrefbib>
                <pubidlist>
                   <pubid idtype="doi">10.3109/02770909809055409</pubid>
                   <pubid idtype="pmpid" link="fulltext">9513587</pubid>
                </pubidlist>
             </xrefbib>
          </bibl>
          <bibl id="B3">
             <title>
                <p>Effectiveness of nebulized furosemide added to nebulized salbutamol in children with acute asthma</p>
             </title>
             <aug>
                <au>
                   <snm>Nuho&#287;lu</snm>
                   <fnm>C</fnm>
                </au>
                <au>
                   <snm>Ya&#351;ar Kili&#231;</snm>
                   <fnm>M</fnm>
                </au>
                <au>
                   <snm>Ceran</snm>
                   <fnm>O</fnm>
                </au>
             </aug>
             <source>Allergol Immunopathol (Madr)</source>
             <pubdate>2006</pubdate>
             <volume>34</volume>
             <fpage>54</fpage>
             <lpage>58</lpage>
             <xrefbib>
                <pubidlist>
                   <pubid idtype="doi">10.1157/13086747</pubid>
                </pubidlist>
             </xrefbib>
          </bibl>
          <bibl id="B4">
             <title>
                <p>Furosemide plus albuterol compared with albuterol alone in children with acute asthma</p>
             </title>
             <aug>
                <au>
                   <snm>Gonz&#225;lez-S&#225;nchez</snm>
                   <fnm>R</fnm>
                </au>
                <au>
                   <snm>Trujillo-Hern&#225;ndez</snm>
                   <fnm>B</fnm>
                </au>
                <au>
                   <snm>Huerta</snm>
                   <fnm>M</fnm>
                </au>
                <au>
                   <snm>V&#225;squez</snm>
                   <fnm>C</fnm>
                </au>
                <au>
                   <snm>Trujillo</snm>
                   <fnm>X</fnm>
                </au>
             </aug>
             <source>Allergy Asthma Proc</source>
             <pubdate>2002</pubdate>
             <volume>23</volume>
             <fpage>181</fpage>
             <lpage>184</lpage>
             <xrefbib>
                <pubidlist>
                   <pubid idtype="pmpid" link="fulltext">12125505</pubid>
                </pubidlist>
             </xrefbib>
          </bibl>
          <bibl id="B5">
             <title>
                <p>Efficacy of nebulized furosemide in children with moderate attack of asthma</p>
             </title>
             <aug>
                <au>
                   <snm>Alshehri</snm>
                   <fnm>M</fnm>
                </au>
                <au>
                   <snm>Almegamesi</snm>
                   <fnm>T</fnm>
                </au>
                <au>
                   <snm>Alfrayh</snm>
                   <fnm>A</fnm>
                </au>
             </aug>
             <source>West Afr J Med</source>
             <pubdate>2005</pubdate>
             <volume>24</volume>
             <fpage>246</fpage>
             <lpage>251</lpage>
             <xrefbib>
                <pubidlist>
                   <pubid idtype="pmpid" link="fulltext">16276705</pubid>
                </pubidlist>
             </xrefbib>
          </bibl>
          <bibl id="B6">
             <title>
                <p>Furosemide given by inhalation ameliorates acute exacerbation of asthma</p>
             </title>
             <aug>
                <au>
                   <snm>Ono</snm>
                   <fnm>Y</fnm>
                </au>
                <au>
                   <snm>Kondo</snm>
                   <fnm>T</fnm>
                </au>
                <au>
                   <snm>Tanigaki</snm>
                   <fnm>T</fnm>
                </au>
                <au>
                   <snm>Ohta</snm>
                   <fnm>Y</fnm>
                </au>
             </aug>
             <source>J Asthma</source>
             <pubdate>1997</pubdate>
             <volume>34</volume>
             <fpage>283</fpage>
             <lpage>289</lpage>
             <xrefbib>
                <pubidlist>
                   <pubid idtype="doi">10.3109/02770909709067218</pubid>
                   <pubid idtype="pmpid" link="fulltext">9250252</pubid>
                </pubidlist>
             </xrefbib>
          </bibl>
       </refgrp>
    </bm>
 </art>