<art>
    <ui>s13054-014-0530-0</ui>
    <ji>1364-8535</ji>
    <fm>
       <dochead>Journal club critique</dochead>
       <bibl>
          <title>
             <p>Benefits of lung-protective ventilation: looking beyond the ICU</p>
          </title>
          <aug>
             <au id="A1">
                <snm>Gupta</snm>
                <fnm>Namita</fnm>
                <insr iid="I1"/>
                <email>guptan2@upmc.edu</email>
             </au>
             <au ca="yes" id="A2">
                <snm>Yende</snm>
                <fnm>Sachin</fnm>
                <insr iid="I1"/>
                <insr iid="I2"/>
                <email>yendes@upmc.edu</email>
             </au>
          </aug>
          <insg>
             <ins id="I1">
                <p>CRISMA Center, Department of Critical Care Medicine, University of Pittsburgh, 606D Scaife Hall, 3550 Terrace Street, Pittsburgh 15261, PA, USA</p>
             </ins>
             <ins id="I2">
                <p>The Clinical Research, Investigation, and Systems Modeling of Acute Illness (CRISMA) Center, University of Pittsburgh, Pittsburgh 15210, PA, USA</p>
             </ins>
          </insg>
          <source>Critical Care</source>
          <issn>1364-8535</issn>
          <pubdate>2014</pubdate>
          <volume>18</volume>
          <issue>5</issue>
          <fpage>530</fpage>
          <url>http://ccforum.com/content/18/5/530</url>
          <xrefbib>
             <pubidlist>
                <pubid idtype="doi">10.1186/s13054-014-0530-0</pubid>
                <pubid idtype="pmpid">25672507</pubid>
             </pubidlist>
          </xrefbib>
       </bibl>
       <history>
          <pub>
             <date>
                <day>25</day>
                <month>9</month>
                <year>2014</year>
             </date>
          </pub>
       </history>
       <cpyrt>
          <year>2014</year>
          <collab>Gupta and Yende; licensee BioMed Central Ltd.</collab>
          <note>This is an Open Access article distributed under the terms of the Creative Commons Attribution License (<url>http://creativecommons.org/licenses/by/4.0</url>), which permits unrestricted use, distribution, and reproduction in any medium, provided the original work is properly credited. The Creative Commons Public Domain Dedication waiver (<url>http://creativecommons.org/publicdomain/zero/1.0/</url>) applies to the data made available in this article, unless otherwise stated.</note>
       </cpyrt><abs><sec><st>
 <p>Abstract</p>
 </st>
 <p>No abstract.</p></sec></abs>
    </fm>
    <bdy>
       <sec>
          <st>
             <p>Expanded abstract</p>
          </st>
          <sec>
             <st>
                <p>Citations</p>
             </st>
             <p>Futier E, Constantin JM, Paugam-Burtz C, Pascal J, Eurin M, Neuschwander A, Marret E, Beaussier M, Gutton C, Lefrant JY, Allaouchiche B, Verzilli D, Leone M, De Jong A, Bazin JE, Pereira B, Jaber S; IMPROVE Study Group: <b>A trial of intraoperative low-tidal-volume ventilation in abdominal surgery.</b>
                <it>N Engl J Med</it> 2013, <b>369:</b>428&#8211;437.</p>
          </sec>
          <sec>
             <st>
                <p>Background</p>
             </st>
             <p>Lung-protective ventilation with the use of low tidal volumes and positive end-expiratory pressure is considered best practice in the care of many critically ill patients. However, its role in anesthetized patients undergoing major surgery is not known.</p>
          </sec>
          <sec>
             <st>
                <p>Methods</p>
             </st>
             <p>
                <it>Objective:</it> The aim of the study was to determine whether lung-protective ventilation improves outcomes in anesthetized patients undergoing major abdominal surgery.</p>
             <p>
                <it>Design:</it> The Intraoperative Protective Ventilation (IMPROVE) trial is a multicenter, open-label double-blind, parallel-group randomized control trial in seven French university hospitals.</p>
             <p>
                <it>Setting:</it> The IMPROVE study enrolled 400 adults at intermediate to high risk of pulmonary complications undergoing major abdominal surgeries between 31 January 2011 and 10 August 2012.</p>
             <p>
                <it>Intervention:</it> Patients were randomly assigned to receive volume-controlled ventilation in one of two strategies: nonprotective ventilation with a tidal volume of 10 to 12 ml/kg predicted body weight with no positive end-expiratory pressure and no scheduled recruitment maneuver, or lung-protective ventilation with a tidal volume of 6 to 8 ml/kg predicted body weight, a positive end-expiratory pressure of 6 to 8 cmH<sub>2</sub>O, and recruitment maneuvers every 30 minutes after intubation. Recruitment maneuvers were also standardized and applied as continuous positive airway pressure of 30 cmH<sub>2</sub>O for 30 seconds.</p>
             <p>
                <it>Outcomes:</it> The primary outcome was a composite of major pulmonary and extrapulmonary complications within the first 7 days after surgery. Major pulmonary complications were defined as pneumonia or the need for invasive or noninvasive ventilation for acute respiratory failure. Major extrapulmonary complications were defined as sepsis, severe sepsis, septic shock, and death. Secondary outcomes included components of primary outcome, surgical complications, and healthcare utilization endpoints such as the duration of stay in the ICU and hospital at the end of a 30-day follow-up period.</p>
          </sec>
          <sec>
             <st>
                <p>Results</p>
             </st>
             <p>The two intervention groups had similar characteristics at baseline. In the intention-to-treat analysis, the primary outcome occurred in 21 of 200 patients (10.5%) assigned to lung-protective ventilation, as compared with 55 of 200 patients (27.5%) assigned to nonprotective ventilation (relative risk, 0.40; 95% confidence interval, 0.24 to 0.68; P = 0.001). Over the 7-day postoperative period, 10 patients (5.0%) assigned to lung-protective ventilation required noninvasive ventilation or intubation for acute respiratory failure, as compared with 34 patients (17.0%) assigned to nonprotective ventilation (relative risk, 0.29; 95% confidence interval, 0.14 to 0.61; P = 0.001). The length of the hospital stay was shorter among patients receiving lung-protective ventilation than among those receiving nonprotective ventilation (mean difference, &#8722;2.45 days; 95% confidence interval, 4.17 to &#8722;0.72; P = 0.006).</p>
          </sec>
          <sec>
             <st>
                <p>Conclusions</p>
             </st>
             <p>As compared with a practice of nonprotective mechanical ventilation, the use of a lung-protective ventilation strategy in intermediate-risk and high-risk patients undergoing major abdominal surgery was associated with improved clinical outcomes and reduced healthcare utilization.</p>
          </sec>
       </sec>
       <sec>
          <st>
             <p>Commentary</p>
          </st>
          <p>Postoperative pulmonary complications after surgery are common (2 to 19%), serious, and expensive <abbrgrp>
                <abbr bid="B1">1</abbr>
             </abbrgrp>-<abbrgrp>
                <abbr bid="B3">3</abbr>
             </abbrgrp>. The effect of intraoperative mechanical ventilation on postoperative pulmonary complications in patients undergoing general anesthesia is poorly understood. Most patients are ventilated for a brief duration in the operating room. Thus, little attention has been focused on ventilation strategies in the operating room. Lung-protective ventilation using low tidal volumes (TV) and low plateau pressure has shown clinical benefit in critically ill patients, both with and without acute respiratory distress syndrome <abbrgrp>
                <abbr bid="B4">4</abbr>
             </abbrgrp>,<abbrgrp>
                <abbr bid="B5">5</abbr>
             </abbrgrp>, but its role in the operating room is unclear.</p>
          <p>To date, several trials testing lung-protective ventilation during surgery have shown conflicting results. Most of these trials were small and used surrogate endpoints, such as biomarkers of pulmonary and systemic inflammation <abbrgrp>
                <abbr bid="B6">6</abbr>
             </abbrgrp>-<abbrgrp>
                <abbr bid="B11">11</abbr>
             </abbrgrp>. A recent meta-analysis by Hemmes and colleagues examined the role of perioperative use of lower TV, higher levels of positive end-expiratory pressure (PEEP), and recruitment maneuvers (RM) in noncardiac surgical patients since 1966 <abbrgrp>
                <abbr bid="B12">12</abbr>
             </abbrgrp>. The included trials used varying levels of PEEP, and RM were used inconsistently. The authors concluded that intraoperative use of low TV may reduce postoperative lung injury, pneumonia, and atelectasis. Whether higher levels of PEEP with or without RM added to the beneficial effects remained uncertain, however, underscoring the need for large randomized controlled trials to rigorously test the effect of lung-protective ventilation.</p>
          <p>The Intraoperative Protective Ventilation (IMPROVE) trial addressed this need by comparing a lung-protective ventilation strategy, combining low TV, PEEP, and RM, with conventional ventilation. This study was a prospective, randomized, open-label, double-blind trial. The authors chose to focus on patients undergoing elective abdominal surgery with a longer duration because these patients are at high risk for postoperative pulmonary complications. The intervention arm of the study used TV of 6 to 8&#160;ml/kg predicted body weight, PEEP of 6 to 8 cmH<sub>2</sub>O, and RM repeated every 30&#160;minutes after tracheal intubation. The control group used TV of 10 to 12&#160;ml/kg and no PEEP, and RM were performed at the physician&#8217;s discretion. The primary outcome assessed at 7&#160;days was a composite of major pulmonary and nonpulmonary complications, occurring in 10.5% of patients assigned to lung-protective ventilation compared with 27.5% assigned to the control arm (<it>P</it>&#8201;=&#8201;0.001). These differences were largely driven by differences in the risk of pneumonia (1.5% versus 8%), need for non-invasive ventilation (4.5% versus 14.5%), and sepsis (6.5% versus 14.5%). These differences persisted at 30&#160;days, as evidenced by higher risks for pneumonia, need for invasive and non-invasive mechanical ventilation, and sepsis. Additionally, patients receiving lung-protective ventilation had fewer surgical complications, including anastamotic leakage (12% versus 22%) and shorter hospital stay (mean difference &#8722;2.45&#160;days; <it>P</it>&#8201;=&#8201;0.006). There were no differences in intervention-related adverse events such as intraoperative hypotension, in pneumothorax, or in 30-day mortality. The authors thus concluded that the use of a lung-protective ventilation strategy in intermediate-risk and high-risk patients undergoing major abdominal surgery was associated with improved clinical outcomes and reduced healthcare utilization.</p>
          <p>The rationale behind this study rests on unequivocal evidence that mechanical ventilation has the potential to precipitate ventilator-induced lung injury mainly via volutrauma, atelectrauma, barotrauma, and biotrauma in both healthy and injured lungs <abbrgrp>
                <abbr bid="B13">13</abbr>
             </abbrgrp>. Although perioperative use of mechanical ventilation is for shorter duration followed by a rapid wean, the potential for ventilator-induced lung injury exists. Induction of general anesthesia, especially use of muscle relaxants, promotes atelectasis in 90% of patients <abbrgrp>
                <abbr bid="B14">14</abbr>
             </abbrgrp>. These changes occur within minutes after induction, and often persist for several days after surgery. Furthermore, experimental work and some clinical studies suggest that atelectasis of the lung increases bacterial growth and may lead to pneumonia <abbrgrp>
                <abbr bid="B15">15</abbr>
             </abbrgrp>. To reduce atelectasis, anesthesiologists have historically applied large TV. This strategy, however, can overdistend nondependent lung tissue and cause volutrauma. Zero PEEP or PEEP less than 5 cmH<sub>2</sub>O are used in about 80% of intraoperatively ventilated patients and RM are used in less than 10% of patients <abbrgrp>
                <abbr bid="B16">16</abbr>
             </abbrgrp>. Repeated opening and closing of alveoli in the presence of low PEEP and the absence of RM can potentially lead to shear stress causing atelectrauma. Several findings of this trial suggest that atelectrauma, volutrauma, and biotrauma may be minimized by lung-protective ventilation. For example, the respiratory system compliance at the end of surgery was higher in the intervention arm (55.2&#8201;&#177;&#8201;26.7 versus 45.1&#8201;&#177;&#8201;12.9&#160;ml/cmH<sub>2</sub>O). Invasive or non-invasive ventilation postoperatively is often required for atelectasis and was used less frequently in the intervention group.</p>
          <p>The main limitation of the study is the use of TV greater than 10&#160;ml/kg with zero PEEP in the control arm, which may not represent common practices in the operating room around the world. Almost a decade after the Acute Respiratory Distress Syndrome Network results, several observational studies have shown a decline in average TV <abbrgrp>
                <abbr bid="B17">17</abbr>
             </abbrgrp>. Whether the positive outcome in the study is as a result of their intervention or is secondary to a control arm that does not represent the best known practices remains uncertain. The study also excluded obese patients with a body mass index greater than 35&#160;kg/m<sup>2</sup> who in observational studies are at a risk of receiving higher TV and are more prone to developing atelectasis, and in whom a protective strategy of ventilation may be more useful.</p>
       </sec>
       <sec>
          <st>
             <p>Recommendation</p>
          </st>
          <p>The findings of the IMPROVE study emphasize the importance of intraoperative lung-protective ventilation on perioperative morbidity, and even transient exposure can show significant improvement of outcomes. The results also further add to a strong body of evidence that ventilating at high TV has clinically meaningful deleterious effects and that conscience efforts should be taken to abandon the one-tidal-volume fits-all approach.</p>
       </sec>
       <sec>
          <st>
             <p>Abbreviations</p>
          </st>
          <p>IMPROVE: Intraoperative Protective ventilation</p>
          <p>PEEP: Positive end-expiratory pressure</p>
          <p>RM: Recruitment maneuvers</p>
          <p>TV: Tidal volumes</p>
       </sec>
       <sec>
          <st>
             <p>Competing interests</p>
          </st>
          <p>The authors declare they have no competing interests.</p>
       </sec>
    </bdy>
    <bm>
       <refgrp>
          
          <bibl id="B1">
             <title>
                <p>Multivariable predictors of postoperative respiratory failure after general and vascular surgery: results from the patient safety in surgery study</p>
             </title>
             <aug>
                <au>
                   <snm>Johnson</snm>
                   <fnm>RG</fnm>
                </au>
                <au>
                   <snm>Arozullah</snm>
                   <fnm>AM</fnm>
                </au>
                <au>
                   <snm>Neumayer</snm>
                   <fnm>L</fnm>
                </au>
                <au>
                   <snm>Henderson</snm>
                   <fnm>WG</fnm>
                </au>
                <au>
                   <snm>Hosokawa</snm>
                   <fnm>P</fnm>
                </au>
                <au>
                   <snm>Khuri</snm>
                   <fnm>SF</fnm>
                </au>
             </aug>
             <source>J Am Coll Surg</source>
             <pubdate>2007</pubdate>
             <volume>204</volume>
             <fpage>1188</fpage>
             <lpage>1198</lpage>
             <xrefbib>
                <pubidlist>
                   <pubid idtype="doi">10.1016/j.jamcollsurg.2007.02.070</pubid>
                   <pubid idtype="pmpid" link="fulltext">17544077</pubid>
                </pubidlist>
             </xrefbib>
          </bibl>
          <bibl id="B2">
             <title>
                <p>Trends in hospital volume and operative mortality for high-risk surgery</p>
             </title>
             <aug>
                <au>
                   <snm>Finks</snm>
                   <fnm>JF</fnm>
                </au>
                <au>
                   <snm>Osborne</snm>
                   <fnm>NH</fnm>
                </au>
                <au>
                   <snm>Birkmeyer</snm>
                   <fnm>JD</fnm>
                </au>
             </aug>
             <source>N Engl J Med</source>
             <pubdate>2011</pubdate>
             <volume>364</volume>
             <fpage>2128</fpage>
             <lpage>2137</lpage>
             <xrefbib>
                <pubidlist>
                   <pubid idtype="doi">10.1056/NEJMsa1010705</pubid>
                   <pubid idtype="pmpid" link="fulltext">21631325</pubid>
                </pubidlist>
             </xrefbib>
          </bibl>
          <bibl id="B3">
             <title>
                <p>Hospital costs associated with surgical complications: a report from the private-sector National Surgical Quality Improvement Program</p>
             </title>
             <aug>
                <au>
                   <snm>Dimick</snm>
                   <fnm>JB</fnm>
                </au>
                <au>
                   <snm>Chen</snm>
                   <fnm>SL</fnm>
                </au>
                <au>
                   <snm>Taheri</snm>
                   <fnm>PA</fnm>
                </au>
                <au>
                   <snm>Henderson</snm>
                   <fnm>WG</fnm>
                </au>
                <au>
                   <snm>Khuri</snm>
                   <fnm>SF</fnm>
                </au>
                <au>
                   <snm>Campbell</snm>
                   <fnm>DA</fnm>
                   <suf>Jr</suf>
                </au>
             </aug>
             <source>J Am Coll Surg</source>
             <pubdate>2004</pubdate>
             <volume>199</volume>
             <fpage>531</fpage>
             <lpage>537</lpage>
             <xrefbib>
                <pubidlist>
                   <pubid idtype="doi">10.1016/j.jamcollsurg.2004.05.276</pubid>
                   <pubid idtype="pmpid" link="fulltext">15454134</pubid>
                </pubidlist>
             </xrefbib>
          </bibl>
          <bibl id="B4">
             <title>
                <p>Ventilation with lower tidal volumes as compared with traditional tidal volumes for acute lung injury and the acute respiratory distress syndrome</p>
             </title>
             <source>N Engl J Med</source>
             <pubdate>2000</pubdate>
             <volume>342</volume>
             <fpage>1301</fpage>
             <lpage>1308</lpage>
             <xrefbib>
                <pubidlist>
                   <pubid idtype="doi">10.1056/NEJM200005043421801</pubid>
                </pubidlist>
             </xrefbib>
          </bibl>
          <bibl id="B5">
             <title>
                <p>Association between use of lung-protective ventilation with lower tidal volumes and clinical outcomes among patients without acute respiratory distress syndrome: a meta-analysis</p>
             </title>
             <aug>
                <au>
                   <snm>Serpa</snm>
                   <fnm>NA</fnm>
                </au>
                <au>
                   <snm>Cardoso</snm>
                   <fnm>SO</fnm>
                </au>
                <au>
                   <snm>Manetta</snm>
                   <fnm>JA</fnm>
                </au>
                <au>
                   <snm>Pereira</snm>
                   <fnm>VG</fnm>
                </au>
                <au>
                   <snm>Esp&#243;sito</snm>
                   <fnm>DC</fnm>
                </au>
                <au>
                   <snm>Pasqualucci Mde</snm>
                   <fnm>O</fnm>
                </au>
                <au>
                   <snm>Damesceno</snm>
                   <fnm>MC</fnm>
                </au>
                <au>
                   <snm>Schultz</snm>
                   <fnm>MJ</fnm>
                </au>
             </aug>
             <source>JAMA</source>
             <pubdate>2012</pubdate>
             <volume>308</volume>
             <fpage>1651</fpage>
             <lpage>1659</lpage>
             <xrefbib>
                <pubidlist>
                   <pubid idtype="doi">10.1001/jama.2012.13730</pubid>
                </pubidlist>
             </xrefbib>
          </bibl>
          <bibl id="B6">
             <title>
                <p>Effects of mechanical ventilation on release of cytokines into systemic circulation in patients with normal pulmonary function</p>
             </title>
             <aug>
                <au>
                   <snm>Wrigge</snm>
                   <fnm>H</fnm>
                </au>
                <au>
                   <snm>Zinserling</snm>
                   <fnm>J</fnm>
                </au>
                <au>
                   <snm>Stuber</snm>
                   <fnm>F</fnm>
                </au>
                <au>
                   <snm>von Spiegel</snm>
                   <fnm>T</fnm>
                </au>
                <au>
                   <snm>Hering</snm>
                   <fnm>R</fnm>
                </au>
                <au>
                   <snm>Wetegrove</snm>
                   <fnm>S</fnm>
                </au>
                <au>
                   <snm>Hoeft</snm>
                   <fnm>A</fnm>
                </au>
                <au>
                   <snm>Putensen</snm>
                   <fnm>C</fnm>
                </au>
             </aug>
             <source>Anesthesiology</source>
             <pubdate>2000</pubdate>
             <volume>93</volume>
             <fpage>1413</fpage>
             <lpage>1417</lpage>
             <xrefbib>
                <pubidlist>
                   <pubid idtype="doi">10.1097/00000542-200012000-00012</pubid>
                   <pubid idtype="pmpid" link="fulltext">11149435</pubid>
                </pubidlist>
             </xrefbib>
          </bibl>
          <bibl id="B7">
             <title>
                <p>The effects of different ventilatory settings on pulmonary and systemic inflammatory responses during major surgery</p>
             </title>
             <aug>
                <au>
                   <snm>Wrigge</snm>
                   <fnm>H</fnm>
                </au>
                <au>
                   <snm>Uhlig</snm>
                   <fnm>U</fnm>
                </au>
                <au>
                   <snm>Zinserling</snm>
                   <fnm>J</fnm>
                </au>
                <au>
                   <snm>Behrends-Callsen</snm>
                   <fnm>E</fnm>
                </au>
                <au>
                   <snm>Ottersbach</snm>
                   <fnm>G</fnm>
                </au>
                <au>
                   <snm>Fischer</snm>
                   <fnm>M</fnm>
                </au>
                <au>
                   <snm>Uhlig</snm>
                   <fnm>S</fnm>
                </au>
                <au>
                   <snm>Putensen</snm>
                   <fnm>C</fnm>
                </au>
             </aug>
             <source>Anesth Analg</source>
             <pubdate>2004</pubdate>
             <volume>98</volume>
             <fpage>775</fpage>
             <lpage>781</lpage>
             <xrefbib>
                <pubidlist>
                   <pubid idtype="doi">10.1213/01.ANE.0000100663.11852.BF</pubid>
                   <pubid idtype="pmpid" link="fulltext">14980936</pubid>
                </pubidlist>
             </xrefbib>
          </bibl>
          <bibl id="B8">
             <title>
                <p>Mechanical ventilation with lower tidal volumes and positive end-expiratory pressure prevents pulmonary inflammation in patients without preexisting lung injury</p>
             </title>
             <aug>
                <au>
                   <snm>Wolthuis</snm>
                   <fnm>EK</fnm>
                </au>
                <au>
                   <snm>Choi</snm>
                   <fnm>G</fnm>
                </au>
                <au>
                   <snm>Dessing</snm>
                   <fnm>MC</fnm>
                </au>
                <au>
                   <snm>Bresser</snm>
                   <fnm>P</fnm>
                </au>
                <au>
                   <snm>Lutter</snm>
                   <fnm>R</fnm>
                </au>
                <au>
                   <snm>Dzoljic</snm>
                   <fnm>M</fnm>
                </au>
                <au>
                   <snm>van der Poll</snm>
                   <fnm>T</fnm>
                </au>
                <au>
                   <snm>Vroom</snm>
                   <fnm>MB</fnm>
                </au>
                <au>
                   <snm>Hollmann</snm>
                   <fnm>M</fnm>
                </au>
                <au>
                   <snm>Schultz</snm>
                   <fnm>MJ</fnm>
                </au>
             </aug>
             <source>Anesthesiology</source>
             <pubdate>2008</pubdate>
             <volume>108</volume>
             <fpage>46</fpage>
             <lpage>54</lpage>
             <xrefbib>
                <pubidlist>
                   <pubid idtype="doi">10.1097/01.anes.0000296068.80921.10</pubid>
                   <pubid idtype="pmpid" link="fulltext">18156881</pubid>
                </pubidlist>
             </xrefbib>
          </bibl>
          <bibl id="B9">
             <title>
                <p>Ventilation with low tidal volumes during upper abdominal surgery does not improve postoperative lung function</p>
             </title>
             <aug>
                <au>
                   <snm>Treschan</snm>
                   <fnm>TA</fnm>
                </au>
                <au>
                   <snm>Kaisers</snm>
                   <fnm>W</fnm>
                </au>
                <au>
                   <snm>Schaefer</snm>
                   <fnm>MS</fnm>
                </au>
                <au>
                   <snm>Bastin</snm>
                   <fnm>B</fnm>
                </au>
                <au>
                   <snm>Schmalz</snm>
                   <fnm>U</fnm>
                </au>
                <au>
                   <snm>Wania</snm>
                   <fnm>V</fnm>
                </au>
                <au>
                   <snm>Eisenberger</snm>
                   <fnm>CF</fnm>
                </au>
                <au>
                   <snm>Saleh</snm>
                   <fnm>A</fnm>
                </au>
                <au>
                   <snm>Weiss</snm>
                   <fnm>M</fnm>
                </au>
                <au>
                   <snm>Schmitz</snm>
                   <fnm>A</fnm>
                </au>
                <au>
                   <snm>Kienbaum</snm>
                   <fnm>P</fnm>
                </au>
                <au>
                   <snm>Sessler</snm>
                   <fnm>DI</fnm>
                </au>
                <au>
                   <snm>Pannen</snm>
                   <fnm>B</fnm>
                </au>
                <au>
                   <snm>Beiderlinden</snm>
                   <fnm>M</fnm>
                </au>
             </aug>
             <source>Br J Anaesth</source>
             <pubdate>2012</pubdate>
             <volume>109</volume>
             <fpage>263</fpage>
             <lpage>271</lpage>
             <xrefbib>
                <pubidlist>
                   <pubid idtype="doi">10.1093/bja/aes140</pubid>
                   <pubid idtype="pmpid" link="fulltext">22661750</pubid>
                </pubidlist>
             </xrefbib>
          </bibl>
          <bibl id="B10">
             <title>
                <p>Comparison of two ventilatory strategies in elderly patients undergoing major abdominal surgery</p>
             </title>
             <aug>
                <au>
                   <snm>Weingarten</snm>
                   <fnm>TN</fnm>
                </au>
                <au>
                   <snm>Whalen</snm>
                   <fnm>FX</fnm>
                </au>
                <au>
                   <snm>Warner</snm>
                   <fnm>DO</fnm>
                </au>
                <au>
                   <snm>Gajic</snm>
                   <fnm>O</fnm>
                </au>
                <au>
                   <snm>Schears</snm>
                   <fnm>GJ</fnm>
                </au>
                <au>
                   <snm>Snyder</snm>
                   <fnm>MR</fnm>
                </au>
                <au>
                   <snm>Schroeder</snm>
                   <fnm>DR</fnm>
                </au>
                <au>
                   <snm>Sprung</snm>
                   <fnm>J</fnm>
                </au>
             </aug>
             <source>Br J Anaesth</source>
             <pubdate>2010</pubdate>
             <volume>104</volume>
             <fpage>16</fpage>
             <lpage>22</lpage>
             <xrefbib>
                <pubidlist>
                   <pubid idtype="doi">10.1093/bja/aep319</pubid>
                   <pubid idtype="pmpid" link="fulltext">19933173</pubid>
                </pubidlist>
             </xrefbib>
          </bibl>
          <bibl id="B11">
             <title>
                <p>Protective mechanical ventilation during general anesthesia for open abdominal surgery improves postoperative pulmonary function</p>
             </title>
             <aug>
                <au>
                   <snm>Severgnini</snm>
                   <fnm>P</fnm>
                </au>
                <au>
                   <snm>Selmo</snm>
                   <fnm>G</fnm>
                </au>
                <au>
                   <snm>Lanza</snm>
                   <fnm>C</fnm>
                </au>
                <au>
                   <snm>Chiesa</snm>
                   <fnm>A</fnm>
                </au>
                <au>
                   <snm>Friegerio</snm>
                   <fnm>A</fnm>
                </au>
                <au>
                   <snm>Bacuzzi</snm>
                   <fnm>A</fnm>
                </au>
                <au>
                   <snm>Dionigi</snm>
                   <fnm>G</fnm>
                </au>
                <au>
                   <snm>Novario</snm>
                   <fnm>R</fnm>
                </au>
                <au>
                   <snm>Geroretti</snm>
                   <fnm>C</fnm>
                </au>
                <au>
                   <snm>de Abreu</snm>
                   <fnm>MG</fnm>
                </au>
                <au>
                   <snm>Schultz</snm>
                   <fnm>MJ</fnm>
                </au>
                <au>
                   <snm>Jaber</snm>
                   <fnm>S</fnm>
                </au>
                <au>
                   <snm>Futier</snm>
                   <fnm>E</fnm>
                </au>
                <au>
                   <snm>Chiaranda</snm>
                   <fnm>M</fnm>
                </au>
                <au>
                   <snm>Pelosi</snm>
                   <fnm>P</fnm>
                </au>
             </aug>
             <source>Anesthesiology</source>
             <pubdate>2013</pubdate>
             <volume>118</volume>
             <fpage>1307</fpage>
             <lpage>1321</lpage>
             <xrefbib>
                <pubidlist>
                   <pubid idtype="doi">10.1097/ALN.0b013e31829102de</pubid>
                   <pubid idtype="pmpid" link="fulltext">23542800</pubid>
                </pubidlist>
             </xrefbib>
          </bibl>
          <bibl id="B12">
             <title>
                <p>Intra operative ventilatory strategies to prevent postoperative pulmonary complications: a meta-analysis</p>
             </title>
             <aug>
                <au>
                   <snm>Hemmes</snm>
                   <fnm>SN</fnm>
                </au>
                <au>
                   <snm>Serpa</snm>
                   <fnm>NA</fnm>
                </au>
                <au>
                   <snm>Schultz</snm>
                   <fnm>MJ</fnm>
                </au>
             </aug>
             <source>Curr Opin Anaesthesiol</source>
             <pubdate>2013</pubdate>
             <volume>26</volume>
             <fpage>126</fpage>
             <lpage>133</lpage>
             <xrefbib>
                <pubidlist>
                   <pubid idtype="doi">10.1097/ACO.0b013e32835e1242</pubid>
                   <pubid idtype="pmpid" link="fulltext">23385321</pubid>
                </pubidlist>
             </xrefbib>
          </bibl>
          <bibl id="B13">
             <title>
                <p>Ventilator-induced lung injury</p>
             </title>
             <aug>
                <au>
                   <snm>Slutsky</snm>
                   <fnm>AS</fnm>
                </au>
                <au>
                   <snm>Ranieri</snm>
                   <fnm>VM</fnm>
                </au>
             </aug>
             <source>N Engl J Med</source>
             <pubdate>2013</pubdate>
             <volume>369</volume>
             <fpage>2126</fpage>
             <lpage>2136</lpage>
             <xrefbib>
                <pubidlist>
                   <pubid idtype="doi">10.1056/NEJMra1208707</pubid>
                   <pubid idtype="pmpid" link="fulltext">24283226</pubid>
                </pubidlist>
             </xrefbib>
          </bibl>
          <bibl id="B14">
             <title>
                <p>Atelectasis and perioperative pulmonary complications in high-risk patients</p>
             </title>
             <aug>
                <au>
                   <snm>Tusman</snm>
                   <fnm>G</fnm>
                </au>
                <au>
                   <snm>Bohm</snm>
                   <fnm>SH</fnm>
                </au>
                <au>
                   <snm>Warner</snm>
                   <fnm>DO</fnm>
                </au>
                <au>
                   <snm>Sprung</snm>
                   <fnm>J</fnm>
                </au>
             </aug>
             <source>Curr Opin Anaesthesiol</source>
             <pubdate>2012</pubdate>
             <volume>25</volume>
             <fpage>1</fpage>
             <lpage>10</lpage>
             <xrefbib>
                <pubidlist>
                   <pubid idtype="doi">10.1097/ACO.0b013e32834dd1eb</pubid>
                   <pubid idtype="pmpid" link="fulltext">22113182</pubid>
                </pubidlist>
             </xrefbib>
          </bibl>
          <bibl id="B15">
             <title>
                <p>Effect of ventilation strategy and surfactant on inflammation in experimental pneumonia</p>
             </title>
             <aug>
                <au>
                   <snm>van Kaam</snm>
                   <fnm>AHLC</fnm>
                </au>
                <au>
                   <snm>Lutter</snm>
                   <fnm>R</fnm>
                </au>
                <au>
                   <snm>Lachmann</snm>
                   <fnm>RA</fnm>
                </au>
                <au>
                   <snm>Haitsma</snm>
                   <fnm>JJ</fnm>
                </au>
                <au>
                   <snm>Herting</snm>
                   <fnm>E</fnm>
                </au>
                <au>
                   <snm>Snoek</snm>
                   <fnm>M</fnm>
                </au>
                <au>
                   <snm>De Jaegere</snm>
                   <fnm>A</fnm>
                </au>
                <au>
                   <snm>Kok</snm>
                   <fnm>JH</fnm>
                </au>
                <au>
                   <snm>Lachmann</snm>
                   <fnm>B</fnm>
                </au>
             </aug>
             <source>Eur Respir J</source>
             <pubdate>2005</pubdate>
             <volume>26</volume>
             <fpage>112</fpage>
             <lpage>117</lpage>
             <xrefbib>
                <pubidlist>
                   <pubid idtype="doi">10.1183/09031936.05.00144504</pubid>
                   <pubid idtype="pmpid" link="fulltext">15994397</pubid>
                </pubidlist>
             </xrefbib>
          </bibl>
          <bibl id="B16">
             <title>
                <p>A multicentre observational study of intra-operative ventilatory management during general anaesthesia: tidal volumes and relation to body weight</p>
             </title>
             <aug>
                <au>
                   <snm>Jaber</snm>
                   <fnm>S</fnm>
                </au>
                <au>
                   <snm>Coisel</snm>
                   <fnm>Y</fnm>
                </au>
                <au>
                   <snm>Chanques</snm>
                   <fnm>G</fnm>
                </au>
                <au>
                   <snm>Futier</snm>
                   <fnm>E</fnm>
                </au>
                <au>
                   <snm>Constantin</snm>
                   <fnm>JM</fnm>
                </au>
                <au>
                   <snm>Michelet</snm>
                   <fnm>P</fnm>
                </au>
                <au>
                   <snm>Beaussier</snm>
                   <fnm>M</fnm>
                </au>
                <au>
                   <snm>Lefrant</snm>
                   <fnm>JY</fnm>
                </au>
                <au>
                   <snm>Allaouchiche</snm>
                   <fnm>B</fnm>
                </au>
                <au>
                   <snm>Capdevila</snm>
                   <fnm>X</fnm>
                </au>
                <au>
                   <snm>Marret</snm>
                   <fnm>E</fnm>
                </au>
             </aug>
             <source>Anaesthesia</source>
             <pubdate>2012</pubdate>
             <volume>67</volume>
             <fpage>999</fpage>
             <lpage>1008</lpage>
             <xrefbib>
                <pubidlist>
                   <pubid idtype="doi">10.1111/j.1365-2044.2012.07218.x</pubid>
                   <pubid idtype="pmpid" link="fulltext">22708696</pubid>
                </pubidlist>
             </xrefbib>
          </bibl>
          <bibl id="B17">
             <title>
                <p>Evolution of mortality over time in patients receiving mechanical ventilation</p>
             </title>
             <aug>
                <au>
                   <snm>Esteban</snm>
                   <fnm>A</fnm>
                </au>
                <au>
                   <snm>Frutos-Vivar</snm>
                   <fnm>F</fnm>
                </au>
                <au>
                   <snm>Muriel</snm>
                   <fnm>A</fnm>
                </au>
                <au>
                   <snm>Ferguson</snm>
                   <fnm>ND</fnm>
                </au>
                <au>
                   <snm>Pe&#241;yelas</snm>
                   <fnm>O</fnm>
                </au>
                <au>
                   <snm>Abraira</snm>
                   <fnm>V</fnm>
                </au>
                <au>
                   <snm>Raymondos</snm>
                   <fnm>K</fnm>
                </au>
                <au>
                   <snm>Rios</snm>
                   <fnm>F</fnm>
                </au>
                <au>
                   <snm>Nin</snm>
                   <fnm>N</fnm>
                </au>
                <au>
                   <snm>Apeztequ&#237;a</snm>
                   <fnm>C</fnm>
                </au>
                <au>
                   <snm>Violi</snm>
                   <fnm>DA</fnm>
                </au>
                <au>
                   <snm>Thille</snm>
                   <fnm>AW</fnm>
                </au>
                <au>
                   <snm>Brochard</snm>
                   <fnm>L</fnm>
                </au>
                <au>
                   <snm>Gonz&#225;lez</snm>
                   <fnm>M</fnm>
                </au>
                <au>
                   <snm>Villagomez</snm>
                   <fnm>AJ</fnm>
                </au>
                <au>
                   <snm>Hurtado</snm>
                   <fnm>J</fnm>
                </au>
                <au>
                   <snm>Davies</snm>
                   <fnm>AR</fnm>
                </au>
                <au>
                   <snm>Du</snm>
                   <fnm>B</fnm>
                </au>
                <au>
                   <snm>Maggiore</snm>
                   <fnm>SM</fnm>
                </au>
                <au>
                   <snm>Pelosi</snm>
                   <fnm>P</fnm>
                </au>
                <au>
                   <snm>Soto</snm>
                   <fnm>L</fnm>
                </au>
                <au>
                   <snm>Tomicic</snm>
                   <fnm>C</fnm>
                </au>
                <au>
                   <snm>D&#8217;Empaire</snm>
                   <fnm>G</fnm>
                </au>
                <au>
                   <snm>Matamis</snm>
                   <fnm>D</fnm>
                </au>
                <au>
                   <snm>Abroug</snm>
                   <fnm>F</fnm>
                </au>
                <au>
                   <snm>Moreno</snm>
                   <fnm>RP</fnm>
                </au>
                <au>
                   <snm>Soares</snm>
                   <fnm>MA</fnm>
                </au>
                <au>
                   <snm>Arabi</snm>
                   <fnm>Y</fnm>
                </au>
                <au>
                   <snm>Sandi</snm>
                   <fnm>F</fnm>
                </au>
                <au>
                   <snm>Jibaja</snm>
                   <fnm>M</fnm>
                </au>
                <etal/>
             </aug>
             <source>Am J Respir Crit Care Med</source>
             <pubdate>2013</pubdate>
             <volume>188</volume>
             <fpage>220</fpage>
             <lpage>230</lpage>
             <xrefbib>
                <pubidlist>
                   <pubid idtype="doi">10.1164/rccm.201212-2169OC</pubid>
                   <pubid idtype="pmpid" link="fulltext">23631814</pubid>
                </pubidlist>
             </xrefbib>
          </bibl>
       </refgrp>
    </bm>
 </art>