<art>
    <ui>s13099-014-0035-z</ui>
    <ji>1757-4749</ji>
    <fm>
       <dochead>Research</dochead>
       <bibl>
          <title>
             <p>Phase-variable restriction/modification systems are required for <it>Helicobacter pylori</it> colonization</p>
          </title>
          <aug>
             <au id="A1">
                <snm>Gauntlett</snm>
                <mi>C</mi>
                <fnm>Jonathan</fnm>
                <insr iid="I1"/>
                <email>jgauntlett@hotmail.com</email>
             </au>
             <au id="A2">
                <snm>Nilsson</snm>
                <fnm>Hans-Olof</fnm>
                <insr iid="I1"/>
                <email>hnilsson@ondek.com</email>
             </au>
             <au id="A3">
                <snm>Fulurija</snm>
                <fnm>Alma</fnm>
                <insr iid="I1"/>
                <email>afulurija@ondek.com</email>
             </au>
             <au id="A4">
                <snm>Marshall</snm>
                <mi>J</mi>
                <fnm>Barry</fnm>
                <insr iid="I1"/>
                <email>bmarshall@ondek.com</email>
             </au>
             <au ca="yes" id="A5">
                <snm>Benghezal</snm>
                <fnm>Mohammed</fnm>
                <insr iid="I1"/>
                <email>mohammed.benghezal@uwa.edu.au</email>
             </au>
          </aug>
          <insg>
             <ins id="I1">
                <p>Ondek Pty Ltd and Helicobacter pylori Research Laboratory, School of Pathology and Laboratory Medicine, Marshall Centre for Infectious Disease Research and Training, University of Western Australia, Nedlands 6009, Western Australia, Australia</p>
             </ins>
          </insg>
          <source>Gut Pathogens</source>
          <issn>1757-4749</issn>
          <pubdate>2014</pubdate>
          <volume>6</volume>
          <issue>1</issue>
          <fpage>35</fpage>
          <url>http://www.gutpathogens.com/content/6/1/35</url>
          <xrefbib>
             <pubidlist>
                <pubid idtype="doi">10.1186/s13099-014-0035-z</pubid>
                <pubid idtype="pmpid">25349630</pubid>
             </pubidlist>
          </xrefbib>
       </bibl>
       <history>
          <rec>
             <date>
                <day>10</day>
                <month>7</month>
                <year>2014</year>
             </date>
          </rec>
          <acc>
             <date>
                <day>16</day>
                <month>8</month>
                <year>2014</year>
             </date>
          </acc>
          <pub>
             <date>
                <day>5</day>
                <month>9</month>
                <year>2014</year>
             </date>
          </pub>
       </history>
       <cpyrt>
          <year>2014</year>
          <collab>Gauntlett et al.; licensee BioMed Central Ltd.</collab>
          <note>This is an Open Access article distributed under the terms of the Creative Commons Attribution License (<url>http://creativecommons.org/licenses/by/4.0</url>), which permits unrestricted use, distribution, and reproduction in any medium, provided the original work is properly credited. The Creative Commons Public Domain Dedication waiver (<url>http://creativecommons.org/publicdomain/zero/1.0/</url>) applies to the data made available in this article, unless otherwise stated.</note>
       </cpyrt>
       <kwdg>
          <kwd>Phase variation</kwd>
          <kwd>Restriction</kwd>
          <kwd>Modification</kwd>
          <kwd>Phasevarion</kwd>
          <kwd>Helicobacter pylori</kwd>
       </kwdg>
       <abs>
          <sec>
             <st>
                <p>Abstract</p>
             </st>
             <sec>
                <st>
                   <p>Background</p>
                </st>
                <p>One mechanism utilized by bacterial pathogens for host adaptation and immune evasion is the generation of phenotypic diversity by the phasevarion that results from the differential expression of a suite of genes regulated by the activity of a phase-variable methyltransferase within a restriction modification (RM) system. Phasevarions are active in <it>Helicobacter pylori,</it> however there have been no studies investigating the significance of phase-variable RM systems on host colonization.</p>
             </sec>
             <sec>
                <st>
                   <p>Methods</p>
                </st>
                <p>Two mutant types incapable of phase variation were constructed; a clean deletion mutant (&#8216;DEL&#8217;) and a mutant (&#8216;ON&#8217;) where the homopolymeric repeat was replaced with a non-repeat synonymous sequence, resulting in expression of the full-length protein. The resulting mutants were assessed for their colonisation ability in the mouse model.</p>
             </sec>
             <sec>
                <st>
                   <p>Results</p>
                </st>
                <p>Five phase-variable genes encoding either methyltransferases or members of RM systems were found in <it>H. pylori</it> OND79. Our mutants fell into three categories; 1, those with little effect on colonization, 2, those where expression of the full-length protein was detrimental, 3, those where both mutations were detrimental.</p>
             </sec>
             <sec>
                <st>
                   <p>Conclusions</p>
                </st>
                <p>Our results demonstrated that phase-variable methyltransferases are critical to <it>H. pylori</it> colonization, suggesting that genome methylation and generation of epigenetic diversity is important for colonization and pathogenesis. The third category of mutants suggests that differential genome methylation status of <it>H. pylori</it> cell populations, achieved by the phasevarion, is essential for host adaptation. Studies of phase-variable RM mutants falling in the two other categories, not strictly required for colonization, represent a future perspective to investigate the role of phasevarion in persistence of <it>H. pylori</it>.</p>
             </sec>
          </sec>
       </abs>
    </fm>
    <bdy>
       <sec>
          <st>
             <p>1 Background</p>
          </st>
          <p>Phase variation is high-frequency, reversible ON/OFF switching of gene expression that results from slipped-strand mispairing at homopolymeric repeats present within alleles. Alteration of repeat length often leads to the insertion/removal of STOP codon within the phase variable gene <abbrgrp>
                <abbr bid="B1">1</abbr>
             </abbrgrp>. This strategy is utilized by pathogenic bacteria as a mechanism to generate phenotypic diversity to adapt to their host <abbrgrp>
                <abbr bid="B2">2</abbr>
             </abbrgrp>. Additional diversity is generated when the modification component (mod) of a restriction modification (RM) system phase varies. In RM systems the restriction (res) component cleaves unmethylated DNA at specific recognition sequences and the mod component methylates the same sequence to prevent restriction <abbrgrp>
                <abbr bid="B3">3</abbr>
             </abbrgrp>. When this sequence occurs within a gene promoter, expression can be altered by the promoter&#8217;s differing methylation status <abbrgrp>
                <abbr bid="B4">4</abbr>
             </abbrgrp>. Consequently, phase variation (ON/OFF) of a mod gene can lead to differential expression of a suite of genes, termed the phasevarion <abbrgrp>
                <abbr bid="B5">5</abbr>
             </abbrgrp>, enabling a population of cells to be differentiated based on multiple phenotypic characteristics <abbrgrp>
                <abbr bid="B6">6</abbr>
             </abbrgrp>.</p>
          <p>
             <it>Helicobacter pylori</it> is a Gram-negative spiral-shaped bacterium that inhabits the human gastric mucosa of more than half of the world&#8217;s population <abbrgrp>
                <abbr bid="B7">7</abbr>
             </abbrgrp> and is the causative agent of chronic gastritis and peptic ulcer. <it>H. pylori</it> has also been recognized as a risk factor for gastric cancer <abbrgrp>
                <abbr bid="B8">8</abbr>
             </abbrgrp>. The <it>H. pylori</it> genome is replete with RM systems, with each strain containing its own unique complement <abbrgrp>
                <abbr bid="B9">9</abbr>
             </abbrgrp>, and its DNA is widely methylated by these systems <abbrgrp>
                <abbr bid="B10">10</abbr>
             </abbrgrp>.</p>
          <p>We have previously reviewed the occurrence of phase variable genes and their role in generating phenotypic diversity in <it>H. pylori</it>
             <abbrgrp>
                <abbr bid="B11">11</abbr>
             </abbrgrp>. Studies have identified potential phase-variable genes in <it>H. pylori</it>, including members of RM systems, and experimental evidence exists to demonstrate the presence of functional phasevarions <abbrgrp>
                <abbr bid="B6">6</abbr>
             </abbrgrp>,<abbrgrp>
                <abbr bid="B12">12</abbr>
             </abbrgrp>,<abbrgrp>
                <abbr bid="B13">13</abbr>
             </abbrgrp>. However, there have been few studies demonstrating the significance of the phasevarion for colonization, persistence and adaptation <it>in vivo</it>. In one study, changes in the repeat length of 31 phase variable genes following murine gastric colonization were determined. Whilst changes were noted in many genes, indicating a role for phase variation in persistence, no temporal pattern could be determined for phase-varying restriction modification genes <abbrgrp>
                <abbr bid="B14">14</abbr>
             </abbrgrp>. Here we construct a series of mutants in RM systems of <it>H. pylori</it> OND79 in order to investigate the significance of phase-variable RM systems on host colonization.</p>
       </sec>
       <sec>
          <st>
             <p>2 Results and discussion</p>
          </st>
          <p>Previous analysis of <it>H. pylori</it> genomes revealed 46 candidate phase-variable genes, with nine in the RM category <abbrgrp>
                <abbr bid="B12">12</abbr>
             </abbrgrp>. We confirmed the presence of six of these genes in the genome of <it>H. pylori</it> strain OND79 (Table&#160;<tblr tid="T1">1</tblr>). The first gene, HP0585, is not a member of an RM system and does not contain homopolymeric repeats common to phase variable genes.</p>
          
             <table id="T1">
                <title>
                   <p>Table 1</p>
                </title>
                <caption>
                   <p>
                      <b>Presence of predicted phase variable DNA restriction/modification genes identified by Sala&#252;n</b>
                      <b>
                         <it>et al</it>
                      </b>
                      <b>. [</b>
                      <abbrgrp>
                         <abbr bid="B12">12</abbr>
                      </abbrgrp>
                      <b>] in the genome of OND79</b>
                   </p>
                </caption>
                <tgroup align="left" cols="5">
                   <colspec align="left" colname="c1" colnum="1" colwidth="*"/>
                   <colspec align="left" colname="c2" colnum="2" colwidth="*"/>
                   <colspec align="left" colname="c3" colnum="3" colwidth="*"/>
                   <colspec align="left" colname="c4" colnum="4" colwidth="*"/>
                   <colspec align="left" colname="c5" colnum="5" colwidth="*"/>
                   <thead>
                      <row valign="top">
                         <entry colname="c1">
                            <p>
                               <b>ORF</b>
                            </p>
                         </entry>
                         <entry colname="c2">
                            <p>
                               <b>26695 ORF</b>
                            </p>
                         </entry>
                         <entry colname="c3">
                            <p>
                               <b>Present in OND79</b>
                            </p>
                         </entry>
                         <entry colname="c4">
                            <p>
                               <b>OND79 phase</b>
                            </p>
                         </entry>
                         <entry colname="c5">
                            <p>
                               <b>Repeat</b>
                            </p>
                         </entry>
                      </row>
                   </thead>
                   <tbody>
                      <row valign="top">
                         <entry colname="c1">
                            <p>Nth (endonuclease III)</p>
                         </entry>
                         <entry colname="c2">
                            <p>HP0585</p>
                         </entry>
                         <entry colname="c3">
                            <p>Yes</p>
                         </entry>
                         <entry colname="c4">
                            <p>On</p>
                         </entry>
                         <entry colname="c5">
                            <p>none</p>
                         </entry>
                      </row>
                      <row valign="top">
                         <entry colname="c1">
                            <p>Adenine-specific methyltransferase</p>
                         </entry>
                         <entry colname="c2">
                            <p>HP1353-4</p>
                         </entry>
                         <entry colname="c3">
                            <p>No</p>
                         </entry>
                         <entry colname="c4"/>
                         <entry colname="c5"/>
                      </row>
                      <row valign="top">
                         <entry colname="c1">
                            <p>Type III RM system M protein</p>
                         </entry>
                         <entry colname="c2">
                            <p>HP1369-70</p>
                         </entry>
                         <entry colname="c3">
                            <p>Yes</p>
                         </entry>
                         <entry colname="c4">
                            <p>Off</p>
                         </entry>
                         <entry colname="c5"/>
                      </row>
                      <row valign="top">
                         <entry colname="c1">
                            <p>Type II RM system &#946;-subunit</p>
                         </entry>
                         <entry colname="c2">
                            <p>HP1471</p>
                         </entry>
                         <entry colname="c3">
                            <p>Yes</p>
                         </entry>
                         <entry colname="c4">
                            <p>Off</p>
                         </entry>
                         <entry colname="c5">
                            <p>G13</p>
                         </entry>
                      </row>
                      <row valign="top">
                         <entry colname="c1">
                            <p>Type II RM system M protein</p>
                         </entry>
                         <entry colname="c2">
                            <p>HP1522</p>
                         </entry>
                         <entry colname="c3">
                            <p>Yes</p>
                         </entry>
                         <entry colname="c4">
                            <p>Off</p>
                         </entry>
                         <entry colname="c5">
                            <p>G10</p>
                         </entry>
                      </row>
                      <row valign="top">
                         <entry colname="c1">
                            <p>HsdR (type I restriction enzyme)</p>
                         </entry>
                         <entry colname="c2">
                            <p>HP0464</p>
                         </entry>
                         <entry colname="c3">
                            <p>Yes</p>
                         </entry>
                         <entry colname="c4">
                            <p>Off</p>
                         </entry>
                         <entry colname="c5">
                            <p>C9</p>
                         </entry>
                      </row>
                      <row valign="top">
                         <entry colname="c1">
                            <p>Cytosine-specific methyltransferase</p>
                         </entry>
                         <entry colname="c2">
                            <p>HP0051</p>
                         </entry>
                         <entry colname="c3">
                            <p>No</p>
                         </entry>
                         <entry colname="c4"/>
                         <entry colname="c5"/>
                      </row>
                      <row valign="top">
                         <entry colname="c1">
                            <p>MboIIR (type II restriction protein)</p>
                         </entry>
                         <entry colname="c2">
                            <p>HP1366</p>
                         </entry>
                         <entry colname="c3">
                            <p>No</p>
                         </entry>
                         <entry colname="c4"/>
                         <entry colname="c5">
                            <p>G9</p>
                         </entry>
                      </row>
                      <row valign="top">
                         <entry colname="c1">
                            <p>HemK or HemG (methyltransferase)</p>
                         </entry>
                         <entry colname="c2">
                            <p>HP0381</p>
                         </entry>
                         <entry colname="c3">
                            <p>Yes</p>
                         </entry>
                         <entry colname="c4">
                            <p>On</p>
                         </entry>
                         <entry colname="c5">
                            <p>G7, G7</p>
                         </entry>
                      </row>
                   </tbody>
                </tgroup>
             </table>
          
          <p>The remaining five genes were either methyltransferases or members of RM systems. For each gene we constructed both a clean deletion mutant (&#8216;DEL&#8217;) and a mutant (&#8216;ON&#8217;) where the homopolymeric repeat was replaced with a non-repeat synonymous sequence. This corrected the reading frame for expression of the full-length protein. Both mutant types are hence incapable of phase variation; one mutant is incapable of expressing the gene and the other produces only the full-length protein. Of note, none of the mutations in the 5 RM systems led to a growth defect of the corresponding mutants compared to wild-type, as observed during repeated passage on blood agar Petri dishes. Mice were orally challenged with the mutant strains and the bacterial load was determined following two weeks colonization (Figure&#160;<figr fid="F1">1</figr>).</p>
          
             <fig id="F1">
                <title>
                   <p>Figure 1</p>
                </title>
                <text>
                   <p>
                      <b>
                         <it>H. pylori</it>
                      </b>
                      <b>and isogenic mutants were used to inoculate five eight-week old C57BL/6&#160;J mice.</b> 2&#160;weeks after challenge colonisation levels in stomachs were measured based on colony forming unit (CFU). Data is presented as a scatter plot with each point representing the CFU count of one mouse stomach, and the solid line the geometric mean for each group. Clean deletion mutants (filled symbols); homopolymeric repeat mutants (open symbols).</p>
                </text>
                <graphic file="s13099-014-0035-z-1"/>
             </fig>
          
          <p>Mutation of two genes, HP0381 and HP1369, had little effect on mouse colonization. HP0381 belongs to the HemK family of methyltransferases that methylate glutamine residues on release factors required for termination of translation and does not methylate DNA <abbrgrp>
                <abbr bid="B15">15</abbr>
             </abbrgrp>. The type III adenine-specific methyltransferase, HP1369, is well conserved across sequenced <it>H. pylori</it> strains and correction of the frame-shift in the repeat has been shown to activate the enzyme <abbrgrp>
                <abbr bid="B10">10</abbr>
             </abbrgrp>. The function of HP1369 does not appear to be significant for murine colonization. It is possible that correction of the frame-shift in HP1369 does not restore expression nor function in OND79.</p>
          <p>Replacement of the repeat in HP1522 and HP0464 had a detrimental effect on the ability of OND79 to colonize mice. In <it>H. pylori</it> strain P12, deletion of the <it>modH5</it> allele (HP1522) led to differential regulation of six genes with the adhesin, HopG, significantly upregulated <abbrgrp>
                <abbr bid="B6">6</abbr>
             </abbrgrp>. The expression of HP1522 in OND79 may reduce levels of HopG, resulting in the observed colonization defect. The res encoded by HP0464 is a member of an Hsd-family type I RM system. The homologous system of <it>H. pylori</it> J99-R3 appears to be functional but silenced, possibly due to the frame-shift in res preventing transcription or translation <abbrgrp>
                <abbr bid="B10">10</abbr>
             </abbrgrp>. Our results may verify this hypothesis, as deletion of the HP0464 res had no effect on colonization, but repair of the frame-shift in HP0464 had a very pronounced effect, indicating that the system had been activated and that its function is detrimental to colonization. Interestingly, in 31&#8201;<it>H. pylori</it> genomes the status of gene HP0464 was found to be almost equally distributed between ON/OFF state (Additional file <supplr sid="S1">1</supplr>: Table S3). This observation suggests a metastable expression for gene HP0464.</p>
          <suppl id="S1">
             <title>
                <p>Additional file 1: Table S1.</p>
             </title>
             <text>
                <p>Bacterial strains and plasmids used in this study. <b>Table S2.</b> Oligonucleotides used in this study. <b>Table S3.</b> HP0464 on/off status in 31 <it>H. pylori</it> strains.</p>
             </text>
             <file name="s13099-014-0035-z-S1.docx">
                <p>Click here for file</p>
             </file>
          </suppl><p>Compared to WT both mutants (&#8216;DEL&#8217; and &#8216;ON&#8217;) of HP1471 had difficulty establishing colonization. The HP1471-HP1472 region is highly variable among <it>Helicobacter</it> strains. HP1471 encodes target recognition domains (TRDs) that determine DNA sequence specificity of the RM system and HP1472 encodes the mod. The homopolymeric repeat in HP1471 occurs directly between the two TRDs. We hypothesize that the TRDs can be considered as modules, with each module responsible for the recognition of a specific DNA sequence (Figure&#160;<figr fid="F2">2</figr>). The protein phase varies by alteration of the length of the homopolymeric repeat between the two modules, determining if only a single module or both modules of the protein are translated. In the wild-type strain only the first module is translated. In the &#8216;ON&#8217; mutant both specificity modules of HP1471 are expressed and the specificity of the mod is altered to a different DNA motif. In the clean deletion mutant there is no DNA methylation. The fact that only WT and not the &#8216;DEL&#8217; or &#8216;ON&#8217; HP1471 mutants colonized mice suggests that expression of both target DNA recognition domains (TRD1 and TRD2) are required during colonization. This highlights a temporal role of phasevarions and DNA methylation in adaptation to the host. Movement of TRDs leading to differential genome methylation has been postulated to be a target for &#8220;epigenetic-driven adaptive evolution&#8221; <abbrgrp>
                <abbr bid="B16">16</abbr>
             </abbrgrp>. Experimental evidence for a similar system, the type-I RM system encoded by JHP1422, has been obtained by Krebes <it>et al</it>. <abbrgrp>
                <abbr bid="B10">10</abbr>
             </abbrgrp>. However, their analysis of HP1471/HP1472 could not detect methyltransferase activity in 26695 and could only detect activity in the homologous JHP1364/1365 when both TRDs of JHP1364 were expressed upon correction of the frame-shift <abbrgrp>
                <abbr bid="B10">10</abbr>
             </abbrgrp>. These differences could reflect allelic diversity at this locus in different strains of <it>H. pylori</it>.</p>
          
             <fig id="F2">
                <title>
                   <p>Figure 2</p>
                </title>
                <caption>
                   <p>Model for the function of phase variation in HP1471.</p>
                </caption>
                <text>
                   <p>
                      <b>Model for the function of phase variation in HP1471.</b> Expression of the target recognition domain TRD1 in OND79 leads to specific methylation of DNA sequence recognized by TRD1 (WT), indicated in red. In OND79 HP1471::ON the homopolymeric repeat (G13) is removed allowing expression of TRD1 and TRD2 resulting in specific methylation at DNA sequence recognized by TRD1/TRD2 (ON), indicated in red and blue. In OND79 &#916;HP1471 neither TRD1 nor TRD2 are expressed leading to absence of methylation due to the non-functional methyltransferase (DEL).</p>
                </text>
                <graphic file="s13099-014-0035-z-2"/>
             </fig>
          
       </sec>
       <sec>
          <st>
             <p>3 Conclusions</p>
          </st>
          <p>Despite the increasing understanding of the role of DNA methylation in host-pathogen interaction, we are unaware of any study where the <it>in vivo</it> significance of phasevarions to <it>H. pylori</it> has been investigated. Our results demonstrated that phase-variable methyltransferases are critical to <it>H. pylori</it> colonization, suggesting that genome methylation and generation of epigenetic diversity is important for colonization and pathogenesis of this gastric human pathogen. Our mutants fell into three categories; 1, those with little effect on colonization, 2, those where expression of the full-length protein was detrimental, 3, those where both mutations were detrimental. The last category suggests that differential genome methylation status of <it>H. pylori</it> cell populations, achieved by the phasevarion, is essential for host adaptation. Of note, the presence of the homopolymeric tract between the two DNA recognition domains TRD1 and TRD2 in HP1471-HP1472 RM system (Figure&#160;<figr fid="F2">2</figr>) is likely to change the specificity of the methyltransferase upon phase-variation and to alter <it>H. pylori</it> methylome. Thus differential genome methylation is one mechanism <it>H. pylori</it> may have evolved to colonize the host. Studies of phase-variable RM mutants falling in category 1 and 2, not strictly required for colonization, represent a future perspective to investigate the role of phasevarion in persistence of <it>H. pylori</it>.</p>
       </sec>
       <sec>
          <st>
             <p>4 Methods</p>
          </st>
          <p>Bacterial strains and primers used in this study are listed in the Additional file <supplr sid="S1">1</supplr>
             <it>. H. pylori</it> was routinely grown on Columbia blood agar (CBA) plates containing Columbia blood agar base (Oxoid) with 5% (v/v) horse blood and 5% (v/v) new-born calf serum supplemented with chloramphenicol (10&#160;&#956;g/ml) or streptomycin (10&#160;&#956;g/ml) where appropriate. Plates were incubated at 37&#176;C for 24 &#8211; 48&#160;h within sealed jars in a microaerobic atmosphere obtained using the Anoxomat&#8482; MarkII system (Mart Microbiology B.V., The Netherlands) and the microaerophilic gas replacement protocol based on a gas mixture containing N<sub>2</sub>:H<sub>2</sub>:CO<sub>2</sub> (85:5:10). <it>E. coli</it> DH10beta was used for routine cloning. <it>E. coli</it> strains were grown on Luria-Bertani broth with shaking (200&#160;rpm), or on Luria-Bertani plates supplemented with ampicillin (100&#160;&#956;g/ml) or chloramphenicol (10&#160;&#956;g/ml) where appropriate at 37&#176;C for 18&#160;h.</p><p>Homologous genes to those of <it>H. pylori</it> 26695 were located within the unpublished genome sequence of OND79 (Ondek Pty. Ltd.) by BLAST (bl2seq). Gene sequences were annotated and homopolymeric tracts of greater than or equal to G7 or C7, and to A9 or T9 were located using Vector NTI Advance&#174; 11.5.1 (Invitrogen).</p>
          <p>Clean deletions of target genes were constructed using Xer-cise <abbrgrp>
                <abbr bid="B17">17</abbr>
             </abbrgrp>. Briefly, the flanking regions of target genes were amplified by SOE-PCR <abbrgrp>
                <abbr bid="B18">18</abbr>
             </abbrgrp> from OND79 genomic DNA with Phusion DNA polymerase (NEB) with primer pairs JG379/JG380 and JG381/JG382 for HP1369, JG385/386 and JG387/JG388 for HP1471, JG391/JG392 and JG393/JG394 for HP1522, JG397/JG398 and JG399/JG400 for HP0464, and JG403/404 and JG405/406 for HP0381. The resulting amplicons were digested with <it>EcoR</it>I (HP1369, HP1471, HP1522) or <it>Nco</it>I/<it>Sal</it>I (HP0464, HP0381) and ligated with the pGEMT fragment of pComB4-prep (pOND873) that had been digested with the same enzymes. The resulting vectors were digested with <it>BamH</it>I to allow the introduction of either a <it>BamH</it>I <it>rpsL-cat</it> fragment <abbrgrp>
                <abbr bid="B19">19</abbr>
             </abbrgrp> between the flanking region of the target genes, generating pOND1467, pOND1468, pOND1469, pOND1470, and pOND1471 or the <it>BamH</it>I <it>difH-rpsL-cat-difH</it> fragment of pDifWT-RC, between the flanking region of the target genes, generating plasmids pOND1462, pOND1463, pOND1464, pOND1465, and pOND1466. OND79 was transformed with pOND1462, pOND1463, pOND1464, pOND1465, and pOND1466 by natural transformation and transformants were obtained on CBA plates containing 10&#160;&#956;g/ml chloramphenicol. Transformant colonies were patched onto CBA containing 10&#160;&#956;g/ml chloramphenicol prior to being transferred to CBA plates containing 10&#160;&#956;g/ml streptomycin. Genomic DNA was isolated from the clones and used as a template for PCR with primers JG402/JG407 for HP0381, JG378/JG383 for HP1369, JG384/389 for HP1471, JG390/JG395 for HP1522, and JG396/JG401 for HP0464 to screen for deletion of the target gene.</p>
          <p>To construct mutants in which the homopolymeric tract had been replaced a strategy using replacement of the wild-type allele with <it>rpsL-cat</it> with a PCR amplicon encoding the mutant allele was pursued. OND79 was transformed with plasmid DNA of pOND1467, pOND1468, pOND1469, pOND1470, and pOND1471 by natural transformation and transformants were obtained on CBA containing 10&#160;&#956;g/ml chloramphenicol. Genomic DNA of transformant clones that were chloramphenicol sensitive and streptomycin resistant was used as a template for PCR to screen for replacement of the target gene with <it>rpsL-cat</it> with primers JG402/JG407 fzor HP0381, JG378/JG383 for HP1369, JG384/JG389 for HP1471, JG390/JG395 for HP1522, and JG396/JG401 SOE-PCR was used to amplify the target gene from OND79 genomic DNA using primers in which the homopolymeric tract sequence had been altered. Briefly, HP0381 was amplified with primer pairs JG403/409, JG410/JG412 and JG411/JG406, HP1369 was amplified with primer pairs JG379/JG414 and JG413/JG382, HP1471 was amplified with primer pairs JG385/JG416 and JG415/JG388, HP1522 was amplified with primer pairs JG391/JG418 and JG394/JG471, and HP0464 was amplified with primer pairs JG397/JG420 and JG400/JG419. Strains of OND79 in which the wild-type allele has been replaced with <it>rpsL-cat</it>
             <abbrgrp>
                <abbr bid="B19">19</abbr>
             </abbrgrp> were transformed with the resulting amplicons and transformants were obtained on CBA containing 10&#160;&#956;g/ml streptomycin. Genomic DNA isolated from streptomycin resistant and chloramphenicol sensitive clones were used as a template to screen for replacement of <it>rpsL-cat</it> with the mutant allele with primers JG402/JG407 for HP0381, JG378/JG383 for HP1369, JG384/JG389 for HP1471, JG390/JG395 for HP1522, and JG396/JG401.</p>
          <p>To perform colonization assays <it>Helicobacter</it> free C57BL/6&#160;J mice were purchased from the Animal Resource Centre (Perth, Western Australia). Studies were performed with approval from the UWA Animal Ethics Committee (approval no. 07/100/598). Each eight-week-old mouse was orogastrically inoculated with approximately 10<sup>9</sup>&#160;CFUs of <it>H. pylori</it> harvested from an overnight agar plate culture into BHI broth. Colonisation of mice inoculated with OND79 wild-type or mutant strains was evaluated 2&#160;weeks after challenge as described <abbrgrp>
                <abbr bid="B20">20</abbr>
             </abbrgrp>.</p>
       </sec>
       <sec>
          <st>
             <p>Competing interests</p>
          </st>
          <p>JCG, HN, AF, BJM and MB report grants from Ondek Pty Ltd, grants from Vice-Chancellor's Fund at The University of Western Australia, a NHMRC Sir McFarlane Burnett Fellowship grant (572723) to BJM and ownership of Ondek shares/share options during the conduct of the study; JCG, HN, AF and MB are employees of Ondek Pty Ltd.</p>
       </sec>
       <sec>
          <st>
             <p>Authors&#8217; contributions</p>
          </st>
          <p>JCG, study concept and design; acquisition of data; analysis and interpretation of data; drafting of the manuscript; HN, critical revision of the manuscript for important intellectual content; technical support; AF, animal ethics and experimentation; BJM, study critical revision of the manuscript for important intellectual content; obtained funding; MB, study concept and design; analysis and interpretation of data; drafting of the manuscript; critical revision of the manuscript for important intellectual content; obtained funding; study supervision. All authors read and approved the final manuscript.</p>
       </sec>
       <sec>
          <st>
             <p>Additional file</p>
          </st>
          
       </sec>
    </bdy>
    <bm>
       <refgrp>
          
          <bibl id="B1">
             <title>
                <p>Characterization of repetitive sequences controlling phase variation of Haemophilus influenzae lipopolysaccharide</p>
             </title>
             <aug>
                <au>
                   <snm>Weiser</snm>
                   <fnm>JN</fnm>
                </au>
                <au>
                   <snm>Maskell</snm>
                   <fnm>DJ</fnm>
                </au>
                <au>
                   <snm>Butler</snm>
                   <fnm>PD</fnm>
                </au>
                <au>
                   <snm>Lindberg</snm>
                   <fnm>AA</fnm>
                </au>
                <au>
                   <snm>Moxon</snm>
                   <fnm>ER</fnm>
                </au>
             </aug>
             <source>J Bacteriol</source>
             <pubdate>1990</pubdate>
             <volume>172</volume>
             <fpage>3304</fpage>
             <lpage>3309</lpage>
             <xrefbib>
                <pubidlist>
                   <pubid idtype="pmpid" link="fulltext">1693145</pubid>
                </pubidlist>
             </xrefbib>
          </bibl>
          <bibl id="B2">
             <title>
                <p>Adaptation by phase variation in pathogenic bacteria</p>
             </title>
             <aug>
                <au>
                   <snm>Salaun</snm>
                   <fnm>L</fnm>
                </au>
                <au>
                   <snm>Snyder</snm>
                   <fnm>LA</fnm>
                </au>
                <au>
                   <snm>Saunders</snm>
                   <fnm>NJ</fnm>
                </au>
             </aug>
             <source>Adv Appl Microbiol</source>
             <pubdate>2003</pubdate>
             <volume>52</volume>
             <fpage>263</fpage>
             <lpage>301</lpage>
             <xrefbib>
                <pubidlist>
                   <pubid idtype="doi">10.1016/S0065-2164(03)01011-6</pubid>
                   <pubid idtype="pmpid" link="fulltext">12964248</pubid>
                </pubidlist>
             </xrefbib>
          </bibl>
          <bibl id="B3">
             <title>
                <p>Restriction and modification systems</p>
             </title>
             <aug>
                <au>
                   <snm>Wilson</snm>
                   <fnm>GG</fnm>
                </au>
                <au>
                   <snm>Murray</snm>
                   <fnm>NE</fnm>
                </au>
             </aug>
             <source>Annu Rev Genet</source>
             <pubdate>1991</pubdate>
             <volume>25</volume>
             <fpage>585</fpage>
             <lpage>627</lpage>
             <xrefbib>
                <pubidlist>
                   <pubid idtype="doi">10.1146/annurev.ge.25.120191.003101</pubid>
                   <pubid idtype="pmpid" link="fulltext">1812816</pubid>
                </pubidlist>
             </xrefbib>
          </bibl>
          <bibl id="B4">
             <title>
                <p>Roles of DNA adenine methylation in regulating bacterial gene expression and virulence</p>
             </title>
             <aug>
                <au>
                   <snm>Low</snm>
                   <fnm>DA</fnm>
                </au>
                <au>
                   <snm>Weyand</snm>
                   <fnm>NJ</fnm>
                </au>
                <au>
                   <snm>Mahan</snm>
                   <fnm>MJ</fnm>
                </au>
             </aug>
             <source>Infect Immun</source>
             <pubdate>2001</pubdate>
             <volume>69</volume>
             <fpage>7197</fpage>
             <lpage>7204</lpage>
             <xrefbib>
                <pubidlist>
                   <pubid idtype="doi">10.1128/IAI.69.12.7197-7204.2001</pubid>
                   <pubid idtype="pmpid" link="fulltext">11705888</pubid>
                </pubidlist>
             </xrefbib>
          </bibl>
          <bibl id="B5">
             <title>
                <p>The phasevarion: a genetic system controlling coordinated, random switching of expression of multiple genes</p>
             </title>
             <aug>
                <au>
                   <snm>Srikhanta</snm>
                   <fnm>YN</fnm>
                </au>
                <au>
                   <snm>Maguire</snm>
                   <fnm>TL</fnm>
                </au>
                <au>
                   <snm>Stacey</snm>
                   <fnm>KJ</fnm>
                </au>
                <au>
                   <snm>Grimmond</snm>
                   <fnm>SM</fnm>
                </au>
                <au>
                   <snm>Jennings</snm>
                   <fnm>MP</fnm>
                </au>
             </aug>
             <source>Proc Natl Acad Sci U S A</source>
             <pubdate>2005</pubdate>
             <volume>102</volume>
             <fpage>5547</fpage>
             <lpage>5551</lpage>
             <xrefbib>
                <pubidlist>
                   <pubid idtype="doi">10.1073/pnas.0501169102</pubid>
                   <pubid idtype="pmpid" link="fulltext">15802471</pubid>
                </pubidlist>
             </xrefbib>
          </bibl>
          <bibl id="B6">
             <note>Srikhanta YN, Gorrell RJ, Steen JA, Gawthorne JA, Kwok T, Grimmond SM, Robins-Browne RM, Jennings MP: <b>Phasevarion mediated epigenetic gene regulation in Helicobacter pylori.</b>
                <it>PLoS One</it> 2011, <b>6:</b>e27569.</note>
          </bibl>
          <bibl id="B7">
             <title>
                <p>The incidence of Helicobacter pylori infection</p>
             </title>
             <aug>
                <au>
                   <snm>Parsonnet</snm>
                   <fnm>J</fnm>
                </au>
             </aug>
             <source>Aliment Pharmacol Ther</source>
             <pubdate>1995</pubdate>
             <volume>9</volume>
             <issue>Suppl 2</issue>
             <fpage>45</fpage>
             <lpage>51</lpage>
             <xrefbib>
                <pubidlist>
                   <pubid idtype="pmpid" link="fulltext">8547528</pubid>
                </pubidlist>
             </xrefbib>
          </bibl>
          <bibl id="B8">
             <title>
                <p>Helicobacter pylori and gastrointestinal tract adenocarcinomas</p>
             </title>
             <aug>
                <au>
                   <snm>Peek</snm>
                   <fnm>JRM</fnm>
                </au>
                <au>
                   <snm>Blaser</snm>
                   <fnm>MJ</fnm>
                </au>
             </aug>
             <source>Nat Rev Cancer</source>
             <pubdate>2002</pubdate>
             <volume>2</volume>
             <fpage>28</fpage>
             <lpage>37</lpage>
             <xrefbib>
                <pubidlist>
                   <pubid idtype="doi">10.1038/nrc703</pubid>
                   <pubid idtype="pmpid" link="fulltext">11902583</pubid>
                </pubidlist>
             </xrefbib>
          </bibl>
          <bibl id="B9">
             <title>
                <p>Comparative genomics of the restriction-modification systems in Helicobacter pylori</p>
             </title>
             <aug>
                <au>
                   <snm>Lin</snm>
                   <fnm>LF</fnm>
                </au>
                <au>
                   <snm>Posfai</snm>
                   <fnm>J</fnm>
                </au>
                <au>
                   <snm>Roberts</snm>
                   <fnm>RJ</fnm>
                </au>
                <au>
                   <snm>Kong</snm>
                   <fnm>H</fnm>
                </au>
             </aug>
             <source>Proc Natl Acad Sci U S A</source>
             <pubdate>2001</pubdate>
             <volume>98</volume>
             <fpage>2740</fpage>
             <lpage>2745</lpage>
             <xrefbib>
                <pubidlist>
                   <pubid idtype="doi">10.1073/pnas.051612298</pubid>
                   <pubid idtype="pmpid" link="fulltext">11226310</pubid>
                </pubidlist>
             </xrefbib>
          </bibl>
          <bibl id="B10">
             <title>
                <p>The complex methylome of the human gastric pathogen Helicobacter pylori</p>
             </title>
             <aug>
                <au>
                   <snm>Krebes</snm>
                   <fnm>J</fnm>
                </au>
                <au>
                   <snm>Morgan</snm>
                   <fnm>RD</fnm>
                </au>
                <au>
                   <snm>Bunk</snm>
                   <fnm>B</fnm>
                </au>
                <au>
                   <snm>Sproer</snm>
                   <fnm>C</fnm>
                </au>
                <au>
                   <snm>Luong</snm>
                   <fnm>K</fnm>
                </au>
                <au>
                   <snm>Parusel</snm>
                   <fnm>R</fnm>
                </au>
                <au>
                   <snm>Anton</snm>
                   <fnm>BP</fnm>
                </au>
                <au>
                   <snm>Konig</snm>
                   <fnm>C</fnm>
                </au>
                <au>
                   <snm>Josenhans</snm>
                   <fnm>C</fnm>
                </au>
                <au>
                   <snm>Overmann</snm>
                   <fnm>J</fnm>
                </au>
                <au>
                   <snm>Roberts</snm>
                   <fnm>RJ</fnm>
                </au>
                <au>
                   <snm>Korlach</snm>
                   <fnm>J</fnm>
                </au>
                <au>
                   <snm>Suerbaum</snm>
                   <fnm>S</fnm>
                </au>
             </aug>
             <source>Nucleic Acids Res</source>
             <pubdate>2014</pubdate>
             <volume>42</volume>
             <fpage>2415</fpage>
             <lpage>2432</lpage>
             <xrefbib>
                <pubidlist>
                   <pubid idtype="doi">10.1093/nar/gkt1201</pubid>
                   <pubid idtype="pmpid" link="fulltext">24302578</pubid>
                </pubidlist>
             </xrefbib>
          </bibl>
          <bibl id="B11">
             <title>
                <p>Persistence of <it>Helicobacter pylori</it> infection: Genetic and epigenetic diversity</p>
             </title>
             <aug>
                <au>
                   <snm>Benghezal</snm>
                   <fnm>M</fnm>
                </au>
                <au>
                   <snm>Gauntlett</snm>
                   <fnm>JC</fnm>
                </au>
                <au>
                   <snm>Debowski</snm>
                   <fnm>AW</fnm>
                </au>
                <au>
                   <snm>Fulurija</snm>
                   <fnm>A</fnm>
                </au>
                <au>
                   <snm>Nilsson</snm>
                   <fnm>HO</fnm>
                </au>
                <au>
                   <snm>Marshall</snm>
                   <fnm>BJ</fnm>
                </au>
             </aug>
             <source>Helicobacter pylori Infection</source>
             <editor>Bruna R</editor>
             <pubdate>2014</pubdate>
             <note>InTech, DOI: 10.5772/57428</note>
          </bibl>
          <bibl id="B12">
             <title>
                <p>The diversity within an expanded and redefined repertoire of phase-variable genes in Helicobacter pylori</p>
             </title>
             <aug>
                <au>
                   <snm>Salaun</snm>
                   <fnm>L</fnm>
                </au>
                <au>
                   <snm>Linz</snm>
                   <fnm>B</fnm>
                </au>
                <au>
                   <snm>Suerbaum</snm>
                   <fnm>S</fnm>
                </au>
                <au>
                   <snm>Saunders</snm>
                   <fnm>NJ</fnm>
                </au>
             </aug>
             <source>Microbiology</source>
             <pubdate>2004</pubdate>
             <volume>150</volume>
             <fpage>817</fpage>
             <lpage>830</lpage>
             <xrefbib>
                <pubidlist>
                   <pubid idtype="doi">10.1099/mic.0.26993-0</pubid>
                   <pubid idtype="pmpid" link="fulltext">15073292</pubid>
                </pubidlist>
             </xrefbib>
          </bibl>
          <bibl id="B13">
             <title>
                <p>Functional analysis of the M.HpyAIV DNA methyltransferase of Helicobacter pylori</p>
             </title>
             <aug>
                <au>
                   <snm>Skoglund</snm>
                   <fnm>A</fnm>
                </au>
                <au>
                   <snm>Bjorkholm</snm>
                   <fnm>B</fnm>
                </au>
                <au>
                   <snm>Nilsson</snm>
                   <fnm>C</fnm>
                </au>
                <au>
                   <snm>Andersson</snm>
                   <fnm>AF</fnm>
                </au>
                <au>
                   <snm>Jernberg</snm>
                   <fnm>C</fnm>
                </au>
                <au>
                   <snm>Schirwitz</snm>
                   <fnm>K</fnm>
                </au>
                <au>
                   <snm>Enroth</snm>
                   <fnm>C</fnm>
                </au>
                <au>
                   <snm>Krabbe</snm>
                   <fnm>M</fnm>
                </au>
                <au>
                   <snm>Engstrand</snm>
                   <fnm>L</fnm>
                </au>
             </aug>
             <source>J Bacteriol</source>
             <pubdate>2007</pubdate>
             <volume>189</volume>
             <fpage>8914</fpage>
             <lpage>8921</lpage>
             <xrefbib>
                <pubidlist>
                   <pubid idtype="doi">10.1128/JB.00108-07</pubid>
                   <pubid idtype="pmpid" link="fulltext">17921292</pubid>
                </pubidlist>
             </xrefbib>
          </bibl>
          <bibl id="B14">
             <title>
                <p>Phase variation mediated niche adaptation during prolonged experimental murine infection with Helicobacter pylori</p>
             </title>
             <aug>
                <au>
                   <snm>Salaun</snm>
                   <fnm>L</fnm>
                </au>
                <au>
                   <snm>Ayraud</snm>
                   <fnm>S</fnm>
                </au>
                <au>
                   <snm>Saunders</snm>
                   <fnm>NJ</fnm>
                </au>
             </aug>
             <source>Microbiology</source>
             <pubdate>2005</pubdate>
             <volume>151</volume>
             <fpage>917</fpage>
             <lpage>923</lpage>
             <xrefbib>
                <pubidlist>
                   <pubid idtype="doi">10.1099/mic.0.27379-0</pubid>
                   <pubid idtype="pmpid" link="fulltext">15758236</pubid>
                </pubidlist>
             </xrefbib>
          </bibl>
          <bibl id="B15">
             <title>
                <p>The hemK gene in Escherichia coli encodes the N(5)-glutamine methyltransferase that modifies peptide release factors</p>
             </title>
             <aug>
                <au>
                   <snm>Heurgue-Hamard</snm>
                   <fnm>V</fnm>
                </au>
                <au>
                   <snm>Champ</snm>
                   <fnm>S</fnm>
                </au>
                <au>
                   <snm>Engstrom</snm>
                   <fnm>A</fnm>
                </au>
                <au>
                   <snm>Ehrenberg</snm>
                   <fnm>M</fnm>
                </au>
                <au>
                   <snm>Buckingham</snm>
                   <fnm>RH</fnm>
                </au>
             </aug>
             <source>EMBO J</source>
             <pubdate>2002</pubdate>
             <volume>21</volume>
             <fpage>769</fpage>
             <lpage>778</lpage>
             <xrefbib>
                <pubidlist>
                   <pubid idtype="doi">10.1093/emboj/21.4.769</pubid>
                   <pubid idtype="pmpid" link="fulltext">11847124</pubid>
                </pubidlist>
             </xrefbib>
          </bibl>
          <bibl id="B16">
             <title>
                <p>Mobility of DNA sequence recognition domains in DNA methyltransferases suggests epigenetics-driven adaptive evolution</p>
             </title>
             <aug>
                <au>
                   <snm>Furuta</snm>
                   <fnm>Y</fnm>
                </au>
                <au>
                   <snm>Kobayashi</snm>
                   <fnm>I</fnm>
                </au>
             </aug>
             <source>Mob Genet Elements</source>
             <pubdate>2012</pubdate>
             <volume>2</volume>
             <fpage>292</fpage>
             <lpage>296</lpage>
             <xrefbib>
                <pubidlist>
                   <pubid idtype="doi">10.4161/mge.23371</pubid>
                   <pubid idtype="pmpid" link="fulltext">23481556</pubid>
                </pubidlist>
             </xrefbib>
          </bibl>
          <bibl id="B17">
             <title>
                <p>Xer-cise in Helicobacter pylori: one-step transformation for the construction of markerless gene deletions</p>
             </title>
             <aug>
                <au>
                   <snm>Debowski</snm>
                   <fnm>AW</fnm>
                </au>
                <au>
                   <snm>Gauntlett</snm>
                   <fnm>JC</fnm>
                </au>
                <au>
                   <snm>Li</snm>
                   <fnm>H</fnm>
                </au>
                <au>
                   <snm>Liao</snm>
                   <fnm>T</fnm>
                </au>
                <au>
                   <snm>Sehnal</snm>
                   <fnm>M</fnm>
                </au>
                <au>
                   <snm>Nilsson</snm>
                   <fnm>HO</fnm>
                </au>
                <au>
                   <snm>Marshall</snm>
                   <fnm>BJ</fnm>
                </au>
                <au>
                   <snm>Benghezal</snm>
                   <fnm>M</fnm>
                </au>
             </aug>
             <source>Helicobacter</source>
             <pubdate>2012</pubdate>
             <volume>17</volume>
             <fpage>435</fpage>
             <lpage>443</lpage>
             <xrefbib>
                <pubidlist>
                   <pubid idtype="doi">10.1111/j.1523-5378.2012.00969.x</pubid>
                   <pubid idtype="pmpid" link="fulltext">23066820</pubid>
                </pubidlist>
             </xrefbib>
          </bibl>
          <bibl id="B18">
             <note>Shevchuk NA, Bryksin AV, Nusinovich YA, Cabello FC, Sutherland M, Ladisch S: <b>Construction of long DNA molecules using long PCR-based fusion of several fragments simultaneously.</b>
                <it>Nucleic Acids Res</it> 2004, <b>32:</b>e19.</note>
          </bibl>
          <bibl id="B19">
             <title>
                <p>Contraselectable streptomycin susceptibility determinant for genetic manipulation and analysis of Helicobacter pylori</p>
             </title>
             <aug>
                <au>
                   <snm>Dailidiene</snm>
                   <fnm>D</fnm>
                </au>
                <au>
                   <snm>Dailide</snm>
                   <fnm>G</fnm>
                </au>
                <au>
                   <snm>Kersulyte</snm>
                   <fnm>D</fnm>
                </au>
                <au>
                   <snm>Berg</snm>
                   <fnm>DE</fnm>
                </au>
             </aug>
             <source>Appl Environ Microbiol</source>
             <pubdate>2006</pubdate>
             <volume>72</volume>
             <fpage>5908</fpage>
             <lpage>5914</lpage>
             <xrefbib>
                <pubidlist>
                   <pubid idtype="doi">10.1128/AEM.01135-06</pubid>
                   <pubid idtype="pmpid" link="fulltext">16957210</pubid>
                </pubidlist>
             </xrefbib>
          </bibl>
          <bibl id="B20">
             <note>Schoep TD, Fulurija A, Good F, Lu W, Himbeck RP, Schwan C, Choi SS, Berg DE, Mittl PR, Benghezal M, Marshall BJ: <b>Surface properties of Helicobacter pylori urease complex are essential for persistence.</b>
                <it>PLoS One</it> 2010, <b>5:</b>e15042.</note>
          </bibl>
       </refgrp>
    </bm>
 </art>