<art>
    <ui>s13054-014-0543-8</ui>
    <ji>1364-8535</ji>
    <fm>
       <dochead>Research</dochead>
       <bibl>
          <title>
             <p>Impact of plasma histones in human sepsis and their contribution to cellular injury and inflammation</p>
          </title>
          <aug>
             <au id="A1">
                <snm>Ekaney</snm>
                <mnm>Liembo</mnm>
                <fnm>Michael</fnm>
                <insr iid="I1"/>
                <email>michael.ekaney@med.uni-jena.de</email>
             </au>
             <au id="A2">
                <snm>Otto</snm>
                <mnm>Philipp</mnm>
                <fnm>Gordon</fnm>
                <insr iid="I1"/>
                <insr iid="I2"/>
                <email>gordon.otto@med.uni-jena.de</email>
             </au>
             <au id="A3">
                <snm>Sossdorf</snm>
                <fnm>Maik</fnm>
                <insr iid="I1"/>
                <insr iid="I2"/>
                <email>maik.sossdorf@gmail.com</email>
             </au>
             <au id="A4">
                <snm>Sponholz</snm>
                <fnm>Christoph</fnm>
                <insr iid="I1"/>
                <insr iid="I2"/>
                <email>christoph.sponholz@med.uni-jena.de</email>
             </au>
             <au id="A5">
                <snm>Boehringer</snm>
                <fnm>Michael</fnm>
                <insr iid="I1"/>
                <insr iid="I3"/>
                <email>michael.boehringer@hki-jena.de</email>
             </au>
             <au id="A6">
                <snm>Loesche</snm>
                <fnm>Wolfgang</fnm>
                <insr iid="I1"/>
                <insr iid="I2"/>
                <email>wolfgang.loesche@me.com</email>
             </au>
             <au id="A7">
                <snm>Rittirsch</snm>
                <fnm>Daniel</fnm>
                <insr iid="I4"/>
                <email>daniel.rittirsch@usz.ch</email>
             </au>
             <au id="A8">
                <snm>Wilharm</snm>
                <fnm>Arne</fnm>
                <insr iid="I5"/>
                <email>arne.wilharm@med.uni-jena.de</email>
             </au>
             <au id="A9">
                <snm>Kurzai</snm>
                <fnm>Oliver</fnm>
                <insr iid="I1"/>
                <insr iid="I3"/>
                <email>oliver.kurzai@hki-jena.de</email>
             </au>
             <au id="A10">
                <snm>Bauer</snm>
                <fnm>Michael</fnm>
                <insr iid="I1"/>
                <insr iid="I2"/>
                <email>michael.bauer@med.uni-jena.de</email>
             </au>
             <au id="A11" ca="yes">
                <snm>Claus</snm>
                <mnm>Alexander</mnm>
                <fnm>Ralf</fnm>
                <insr iid="I1"/>
                <insr iid="I2"/>
                <email>ralf.claus@med.uni-jena.de</email>
             </au>
          </aug>
          <insg>
             <ins id="I1">
                <p>Center for Sepsis Control and Care (CSCC), Jena University Hospital, Erlanger Allee 101, Jena, Germany</p>
             </ins>
             <ins id="I2">
                <p>Clinic for Anesthesiology and Intensive Care, Jena University Hospital, Erlanger Allee 101, Jena, Germany</p>
             </ins>
             <ins id="I3">
                <p>Septomics Research Centre, Leibniz Institute for Natural Product Research and Infection Biology - Hans Knoell Institute, Beutenbergstrasse 11a, Jena, 07745, Germany</p>
             </ins>
             <ins id="I4">
                <p>Division of Trauma Surgery, University Hospital of Zurich, Raemistra&#223;e 100, Zurich, CH-8091, Switzerland</p>
             </ins>
             <ins id="I5">
                <p>Department of Trauma, Hand and Reconstructive Surgery, Jena University Hospital, Erlanger Allee 101, D-07743, Jena 07747, Germany</p>
             </ins>
          </insg>
          <source>Critical Care</source>
          <issn>1364-8535</issn>
          <pubdate>2014</pubdate>
          <volume>18</volume>
          <issue>5</issue>
          <fpage>543</fpage>
          <url>http://ccforum.com/content/18/5/543</url>
          <xrefbib>
             <pubidlist>
                <pubid idtype="doi">10.1186/s13054-014-0543-8</pubid>
                <pubid idtype="pmpid"><!-- Need to check source for data--></pubid>
             </pubidlist>
          </xrefbib>
       </bibl>
       <history>
          <rec>
             <date>
                <day>10</day>
                <month>6</month>
                <year>2014</year>
             </date>
          </rec>
          <acc>
             <date>
                <day>11</day>
                <month>9</month>
                <year>2014</year>
             </date>
          </acc>
          <pub>
             <date>
                <day>24</day>
                <month>9</month>
                <year>2014</year>
             </date>
          </pub>
       </history>
       <cpyrt>
          <year>2014</year>
          <collab>Ekaney et al.; licensee BioMed Central Ltd.</collab>
          <note>This is an Open Access article distributed under the terms of the Creative Commons Attribution License (<url>http://creativecommons.org/licenses/by/4.0</url>), which permits unrestricted use, distribution, and reproduction in any medium, provided the original work is properly credited. The Creative Commons Public Domain Dedication waiver (<url>http://creativecommons.org/publicdomain/zero/1.0/</url>) applies to the data made available in this article, unless otherwise stated.</note>
       </cpyrt>
       <abs>
          <sec>
             <st>
                <p>Abstract</p>
             </st>
             <sec>
                <st>
                   <p>Introduction</p>
                </st>
                <p>Circulating histones have been identified as mediators of damage in animal models of sepsis and in patients with trauma-associated lung injury. Despite existing controversies on actual histone concentrations, clinical implications and mechanism of action in various disease conditions, histone levels in human sepsis, association with disease progression and mediated effects on endothelial and immune cells remain unreported. This study aimed to determine histone levels and its clinical implication in septic patients and to elucidate histone-mediated effects <it>ex-vivo</it>.</p>
             </sec>
             <sec>
                <st>
                   <p>Methods</p>
                </st>
                <p>Histone levels, endogenous activated protein C (APC) levels and clinical data from two independent cohorts of septic patients were obtained. Histone levels were compared with various control groups including healthy individuals, intensive care unit (ICU) patients without sepsis, ICU patients with multiple organ failure and patients with minor or multiple trauma, all without infection. Endothelial and monocytic cells were stimulated with histones. Cellular integrity and sepsis prototypical cytokines were evaluated. The mechanism of action of histones via Toll-like receptor 4 (TLR4) was evaluated using a function blocking antibody. Histone degradation in plasma was studied by immunoblotting.</p>
             </sec>
             <sec>
                <st>
                   <p>Results</p>
                </st>
                <p>Histone H4 levels were significantly elevated in patients with sepsis (cohort I; <it>n</it>&#8201;=&#8201;15 and cohort II; <it>n</it>&#8201;=&#8201;19) versus ICU controls (<it>n</it>&#8201;=&#8201;12), patients with multiple organ failure (<it>n</it>&#8201;=&#8201;12) or minor trauma (<it>n</it>&#8201;=&#8201;7), associated with need for renal replacement therapy and decrease in platelet count during disease progression, and remarkably were significantly associated with increased mortality rates in septic patients (ICU-, 28&#160;day- and 90&#160;day mortality rates). There was an inverse correlation between plasma histones and endogenous APC levels. Histone stimulation induced the release of sepsis prototypic cytokines and decreased cell integrity indicated by a significant increase of lactate dehydrogenase (LDH) and propidium iodide (PI) staining. Blocking of TLR4 decreased cellular cytotoxicity on endothelial cells. The calculated half-life of histones in spiked plasma was 4.6&#160;minutes.</p>
             </sec>
             <sec>
                <st>
                   <p>Conclusions</p>
                </st>
                <p>Histone levels in septic patients are significantly increased and might mediate disease aggravation by cellular injury and inflammation via TLR4 signaling, which potentially results in multiple organ failure and fatal outcome.</p>
             </sec>
          </sec>
       </abs>
    </fm>
    <bdy>
       <sec>
          <st>
             <p>1
 						Introduction</p>
          </st>
          <p>Sepsis is a multifactorial life-threatening syndrome arising from the immune response to invading microorganisms, resulting in excessive cell activation and tissue damage <abbrgrp>
                <abbr bid="B1">1</abbr>
             </abbrgrp>,<abbrgrp>
                <abbr bid="B2">2</abbr>
             </abbrgrp>. Based on current understanding of the pathophysiology of the host response, endothelial activation and dysfunction <abbrgrp>
                <abbr bid="B3">3</abbr>
             </abbrgrp>, as well as culminating multiple organ failure, are known hallmarks of the clinical course, which determines the prognosis of patients <abbrgrp>
                <abbr bid="B4">4</abbr>
             </abbrgrp>-<abbrgrp>
                <abbr bid="B6">6</abbr>
             </abbrgrp>. Multiple immune activators during systemic inflammation known as pathogen-associated molecular pattern (PAMPs) <abbrgrp>
                <abbr bid="B7">7</abbr>
             </abbrgrp> and damage-associated molecular patterns (DAMPs) <abbrgrp>
                <abbr bid="B8">8</abbr>
             </abbrgrp> have been reported to be involved in the aggravation of host response.</p>
          <p>Recently reported is a concept implicating extracellular histone isoforms, mainly histone H4 (H4), as a result of host response, which aggravates maladaptive mechanisms through a direct action on endothelial cells <abbrgrp>
                <abbr bid="B9">9</abbr>
             </abbrgrp> and platelets <abbrgrp>
                <abbr bid="B10">10</abbr>
             </abbrgrp>. Furthermore, free histones in circulation mediate extensive cellular damage, hemostatic imbalance and amplification of the inflammatory response by inducing cytokine production as reported in an animal model of sepsis. Intravenous injection of purified histones in mice elicited thrombocytopenia, neutrophil migration, and organ failure mimicking the pathophysiological signature of sepsis <abbrgrp>
                <abbr bid="B9">9</abbr>
             </abbrgrp>. Interestingly, co-infusion of histones with APC <abbrgrp>
                <abbr bid="B9">9</abbr>
             </abbrgrp> or intravenous injection of histones in toll-like receptor (TLR)4-null mice abrogates histone induced effects <abbrgrp>
                <abbr bid="B11">11</abbr>
             </abbrgrp>. Additionally, histones have been reported to mediate fatal liver injury in mice <abbrgrp>
                <abbr bid="B11">11</abbr>
             </abbrgrp>, and have recently been identified as essential effectors of C5aR- and C5L2-mediated tissue damage and inflammation in acute lung injury <abbrgrp>
                <abbr bid="B12">12</abbr>
             </abbrgrp> and in trauma-associated lung injury in humans, with concentrations ranging between 10 and 280 &#956;g/ml as measured using immunoblotting <abbrgrp>
                <abbr bid="B13">13</abbr>
             </abbrgrp>.</p>
          <p>In this study, we sought to investigate histone levels in septic patients and associations with clinical data and activated protein C (APC). <it>In vitro</it>, we investigated the role of histones in cellular damage, inflammatory response and their interaction with TLR4, using functional blocking antibody.</p>
       </sec>
       <sec>
          <st>
             <p>2
 						Materials and methods</p>
          </st>
          <sec>
             <st>
                <p>2.1 Clinical study</p>
             </st>
             <p>Institutional ethical approval was given by the local ethics committee of the medical faculty of Friedrich-Schiller University Hospital in Jena (2160-11/07, 2712-12/09) and the local ethics committee Zurich (<it>kantonale Ethikkommission Z&#252;rich</it>, KEK: StV26-2007), and written informed consent of each patient was obtained.</p>
             <p>ICU controls and patients with severe sepsis or septic shock according to the American College of Chest Physicians and the Society of Critical Care Medicine (ACCP/SCCM) <abbrgrp>
                   <abbr bid="B14">14</abbr>
                </abbrgrp> were prospectively enrolled. Cohort I included 15 patients with sepsis from various origins during disease progression. Cohort II included 19 patients suffering from postoperative anastomosis insufficiency after major abdominal surgery (Table&#160;<tblr tid="T1">1</tblr>). Blood samples were collected in citrated anticoagulant tubes within 24 hours at onset of sepsis (day 1) in cohort I and at onset of sepsis, and on day 3 and day 5 in cohort II. Plasma was separated by centrifugation at 2000 &#215; g for 10 minutes. Patient characteristics from both cohorts were obtained (Table&#160;<tblr tid="T1">1</tblr>). Additionally, various clinical scores and laboratory findings including age, sex, International classification of Disease 10<sup>th</sup> revision (ICD-10) diagnosis, length of stay (LOS), outcome, acute physiology and chronic health evaluation II score (APACHE II), simplified acute physiology score (SAPS), sequential organ failure assessment score (SOFA), ventilator assistance, vasopressor treatment, creatinine levels and requirement for renal replacement therapy (RRT), bilirubin, C-reactive protein (CRP), partial thromboplastin time (PTT), platelet count, leukocyte count and procalcitonin levels were obtained from the patient data monitoring system. Platelet increase was defined as an increase in platelet count &gt;30% on day 5 of sepsis progression as compared to platelet count on day 1, while platelet decrease was defined as a fall in platelet count &gt; 30% on day 5 of sepsis as compared to platelet count at onset of sepsis.</p>
             
                <table id="T1">
                   <title>
                      <p>Table 1</p>
                   </title>
                   <caption>
                      <p>
                         <b>Clinical characteristics of patients at study enrollment</b>
                      </p>
                   </caption>
                   <tgroup align="left" cols="3">
                      <colspec align="left" colname="c1" colnum="1" colwidth="*"/>
                      <colspec align="left" colname="c2" colnum="2" colwidth="*"/>
                      <colspec align="left" colname="c3" colnum="3" colwidth="*"/>
                      <thead>
                         <row>
                            <entry colname="c1">
                               <p>
                                  <b>Patient characteristics</b>
                               </p>
                            </entry>
                            <entry colname="c2">
                               <p>
                                  <b>Cohort I</b>
                               </p>
                            </entry>
                            <entry colname="c3">
                               <p>
                                  <b>Cohort II</b>
                               </p>
                            </entry>
                         </row>
                      </thead>
                      <tfoot>
                         <p>APACHE II, acute physiology and chronic health evaluation II; SAPS, simplified acute physiology score; SOFA, sequential organ failure assessment score.</p>
                         <p>n.d. not determined.</p>
                      </tfoot>
                      <tbody>
                         <row>
                            <entry colname="c1">
                               <p>Number of patients (n)</p>
                            </entry>
                            <entry colname="c2">
                               <p>15</p>
                            </entry>
                            <entry colname="c3">
                               <p>19</p>
                            </entry>
                         </row>
                         <row valign="top">
                            <entry colname="c1">
                               <p>Age, years, median (IQR)</p>
                            </entry>
                            <entry colname="c2">
                               <p>72 (48 to 77)</p>
                            </entry>
                            <entry colname="c3">
                               <p>69 (45 to 73)</p>
                            </entry>
                         </row>
                         <row valign="top">
                            <entry colname="c1">
                               <p>Gender male, n (%)</p>
                            </entry>
                            <entry colname="c2">
                               <p>8 (53.3)</p>
                            </entry>
                            <entry colname="c3">
                               <p>13 (68.4)</p>
                            </entry>
                         </row>
                         <row valign="top">
                            <entry colname="c1">
                               <p>ICU survivor, n (%)</p>
                            </entry>
                            <entry colname="c2">
                               <p>10 (66.7)</p>
                            </entry>
                            <entry colname="c3">
                               <p>12 (63.2)</p>
                            </entry>
                         </row>
                         <row valign="top">
                            <entry colname="c1">
                               <p>28-day survivors, n (%)</p>
                            </entry>
                            <entry colname="c2">
                               <p>n.d.</p>
                            </entry>
                            <entry colname="c3">
                               <p>14 (73.7)</p>
                            </entry>
                         </row>
                         <row valign="top">
                            <entry colname="c1">
                               <p>90-day survivors, n (%)</p>
                            </entry>
                            <entry colname="c2">
                               <p>n.d.</p>
                            </entry>
                            <entry colname="c3">
                               <p>7 (36.8)</p>
                            </entry>
                         </row>
                         <row valign="top">
                            <entry colname="c1">
                               <p>APACHE-II, median (IQR)</p>
                            </entry>
                            <entry colname="c2">
                               <p>24 (18 to 30)</p>
                            </entry>
                            <entry colname="c3">
                               <p>19 (15 to 26)</p>
                            </entry>
                         </row>
                         <row valign="top">
                            <entry colname="c1">
                               <p>SAPS-II, median (IQR)</p>
                            </entry>
                            <entry colname="c2">
                               <p>44 (33 to 73)</p>
                            </entry>
                            <entry colname="c3">
                               <p>44 (34 to 52)</p>
                            </entry>
                         </row>
                         <row valign="top">
                            <entry colname="c1">
                               <p>SOFA, median (IQR)</p>
                            </entry>
                            <entry colname="c2">
                               <p>10 (6 to 13)</p>
                            </entry>
                            <entry colname="c3">
                               <p>10 (6 to 11)</p>
                            </entry>
                         </row>
                      </tbody>
                   </tgroup>
                </table>
             
             <p>For comparison of histone concentrations, we included various control groups, which included; 5 healthy individuals, 12 ICU patients without sepsis, 12 ICU patients with multiple organ failure (MOF), 7 patients with distal radius fracture (minor trauma), and 12 patients with multiple trauma (nonconsecutive patients with thoracic injury; age: median 73 years, range 42 to 92 years; injury severity score (ISS): median 34, range 17 to 66; with blunt chest trauma; male/female: 8/3; lethality 27.3% [3/11]). The control groups showed no signs of acute infection. Collection of trauma samples was performed following completion of other groups.</p>
          </sec>
          <sec>
             <st>
                <p>2.2 Enzyme-linked immunosorbent assay (ELISA)</p>
             </st>
             <p>Human histone H4 and APC ELISA kits were obtained from USCN Life Science (Wuhan, China). Standards and patient samples were run in duplicates according to manufacturer&#8217;s instructions.</p>
          </sec>
          <sec>
             <st>
                <p>2.3 Stimulation assays</p>
             </st>
             <p>Commercially available calf thymus histones (Sigma, Deisenhofen, Germany) were passed through a high affinity endotoxin detoxi-gel (Thermo Fisher Scientific, Waltham, Massachusetts, USA) before use in all stimulation assays to remove potential endotoxin contamination. Purified calf thymus histones were used for stimulatory experiments on immortalized human microvascular endothelial cells (HMEC) and human monocytic cells (MM6). For <it>in vitro</it> assays, 500,000 cells per well seeded in six-well plates were stimulated with 10 ng/ml and 50 &#956;g/ml of histones in cell culture media supplemented with 1% fecal calf serum. Unstimulated cells were used as negative control. Experiments were performed at least in triplicates.</p>
          </sec>
          <sec>
             <st>
                <p>2.4 Human TLR4 neutralization</p>
             </st>
             <p>Functional antibody against human TLR4 (PAb hTLR4) and control antibody (PAb Control) were obtained from Invivogen (San Diego, CA, USA). A total of 25,000 cells were seeded in 96-well plates. Antibodies were diluted to a final concentration of 5 &#956;g/ml and incubated at 37&#176;C for 10 minutes. A 50 &#956;g/ml histone concentration was used for stimulation and cells were incubated overnight for 24 hours. Supernatant was collected for lactate dehydrogenase (LDH) measurements and cells were stained with propidium iodide (PI).</p>
          </sec>
          <sec>
             <st>
                <p>2.5 Fluorescent staining (Propidium iodide staining)</p>
             </st>
             <p>Cells were detached with 1X trypsin and washed three times with 1X sterile PBS. Cells were resuspended in 1&#160;ml of 1X PBS and incubated with 10&#160;&#956;g/ml PI dye solution (Sigma, St. Louis, USA) in the dark for 5&#160;minutes at room temperature. Fluorescent intensity was measured by flow cytometry.</p>
          </sec>
          <sec>
             <st>
                <p>2.6 Lactate dehydrogenase measurement</p>
             </st>
             <p>LDH levels in cell culture supernatant were measured at 0 hours and 24 hours after histone stimulation with a commercially available kit (Roche, Germany) according to manufacturer&#8217;s instructions. Absorbance was read at 490 nm using a spectrophotometer.</p>
          </sec>
          <sec>
             <st>
                <p>2.7 Cytokine measurements</p>
             </st>
             <p>For quantification of cytokines in cell culture supernatant after histone stimulation, a cytometric bead assay (CBA) was performed according to the manufacturer&#8217;s instructions (human inflammation kit; BD Biosciences, Germany) and measured by flow cytometry using a FACS calibur.</p>
          </sec>
          <sec>
             <st>
                <p>2.8 Determination of histone stability</p>
             </st>
             <p>Blood from three healthy volunteers was drawn into citrated anticoagulant tubes and plasma was separated by centrifugation at 2000 &#215; g for 10 minutes. Plasma was spiked with calf thymus histones to a concentration of 100 &#956;g/ml and incubated at 37&#176;C with mild shaking for 5, 10, 15 and 30 minutes. Plasma was separated by western blotting and detection of histones was performed using anti-histone H3 antibodies (Cell signalling, USA). Determination of half-life was performed by approximation of the degradation process reaching a plateau phase.</p>
          </sec>
          <sec>
             <st>
                <p>2.9 Statistical analysis</p>
             </st>
             <p>Levels of histone measurements are given as median including the 25<sup>th</sup> and 75<sup>th</sup> IQR. Analysis of variance (ANOVA) on ranks was used to determine differences between histone concentrations at onset of sepsis, day 3 and day 5. The Student <it>t</it>-test or Mann-Whitney test was used to compare independent variables where applicable. Multivariate linear regression analysis was used to predict clinical characteristics that were independently associated with histone levels. Spearman correlation coefficient (<it>r</it>) was used to determine the correlations between independent parameters and histone levels. Statistical significance was set at <it>P</it> &lt;0.05. Densitometry analysis was performed using AIDA software and a single-phase decay analysis for calculation of half-life was performed using Graph Pad Prism 5.0.</p>
          </sec>
       </sec>
       <sec>
          <st>
             <p>3
 						Results</p>
          </st>
          <sec>
             <st>
                <p>3.1 Histone levels in septic patients correlate with disease progression and mortality</p>
             </st>
             <p>In cohort I, histone H4 levels were significantly elevated compared to ICU controls (sepsis cohort I: median 0.35, IQR 0.2 to 0.46) versus ICU controls: median 0.06 (0.05 to 0.07) ng/ml, <it>P</it> &lt;0.05; Figure&#160;<figr fid="F1">1</figr>A). In cohort II, histone H4 levels were significantly elevated during the course of sepsis on day 1, day 3 and day 5 as compared to the ICU control group (sepsis cohort II, day 1: median 0.37 (0.16 to 0.61), day 3: median 0.28 (0.08 to 0.53), day 5: median 0.41 (0.22 to 0.62) versus ICU controls: median 0.06 (0.05 to 0.07) ng/ml, <it>P</it> &lt;0.05; Figure&#160;<figr fid="F1">1</figr>A). Histone concentrations in both cohorts ranged from 0.01 to 1.08 ng/ml with an inter-assay coefficient of variation (CV) &lt;10%. However, detection of histones in plasma of patients by immunoblotting was not possible because the observed concentrations were far below the limit of detection by this method (approximately 500 ng/ml). Histone levels on day 1 in both cohorts of septic patients were also significantly elevated compared to patients with MOF (sepsis cohort I: median 0.35 (IQR 0.2 to 0.46), sepsis cohort II: median 0.37 (0.16 to 0.62) versus MOF: median 0.08 (IQR 0.05 to 0.11) ng/ml, <it>P</it> &lt;0.05) and minor trauma patients (sepsis cohort I: median 0.35 (IQR 0.2 to 0.46), sepsis cohort II: median 0.37 (0.16 to 0.62) versus minor trauma: median 0.11 (IQR 0.07 to 0.13) ng/ml, <it>P</it> &lt;0.05). However, histone levels in multiple trauma patients were 3-fold higher than levels measured in septic patients with concentrations up to 3 ng/ml (multiple trauma: median 0.98 (IQR 0.46 to 1.46) versus sepsis cohort I: median 0.35 (IQR 0.2 to 0.46), sepsis cohort II: median 0.37 (0.16 to 0.62) ng/ml, <it>P</it> &lt;0.05, Figure&#160;<figr fid="F1">1</figr>A).</p>
             
                <fig id="F1">
                   <title>
                      <p>Figure 1</p>
                   </title>
                   <caption>
                      <p>Plasma histone H4 concentration in two independent cohorts of septic patients (Cohorts I and II) and associations with disease progression and mortality. (A)</p>
                   </caption>
                   <text>
                      <p>
                         <b>Plasma histone H4 concentration in two independent cohorts of septic patients (Cohorts I and II) and associations with disease progression and mortality. (A)</b> Plasma histone concentration in sepsis cohort I (n = 15) and sepsis cohort II (n = 19) on day 1, day 3, day 5, ICU controls (n = 12), patients with multiple organ failure (MOF) (n = 12), minor trauma (n = 7) and multiple trauma (n = 12) patients. All controls were without signs of infection. *Mann-Whitney test (<it>P</it> &lt;0.05) to compare independent groups. <b>(B)</b> Plasma histone H4 at day 1 associated with platelet count at day 5, requirement for renal replacement at day 5, and outcome at day 90. *Mann-Whitney test, <it>P</it> &lt;0.05. RRT<sup>
                            <b>+</b>
                         </sup> indicates the requirement of renal replacement therapy; RRT<sup>
                            <b>&#8722;</b>
                         </sup> indicates no requirement for renal replacement therapy.</p>
                   </text>
                   <graphic file="s13054-014-0543-8-1"/>
                </fig>
             
             <p>Analyses of the clinical data from cohort II revealed that patients with a decline in platelet count &gt;30% on day 5 of sepsis progression demonstrated significantly elevated histone levels on day 1 compared to patients with an increase in platelet count &gt;30% (decreased platelets: median 0.23 (0.16 to 0.32) versus increased platelets: median 0.06 (0.02 to 0.12) ng/ml, <it>P</it> &lt;0.05; Figure&#160;<figr fid="F1">1</figr>B). Due to unvaried platelet count over time, two patients were not included in this subgroup analysis. Furthermore, patients who required RRT until day 5 presented significantly elevated histone levels on day 1 as compared to patients without subsequent need for RRT (need for RRT: median 0.23 (0.11 to 0.38) versus without need for RRT: median 0.09 (0.02 to 0.19) ng/ml, <it>P</it> &lt;0.05; Figure&#160;<figr fid="F1">1</figr>B). With respect to ICU- and 28-day mortality, on day 1 non-survivors presented with significantly elevated concentrations compared to survivors (ICU mortality, non survivors: median 0.54 (0.34 to 0.71) versus survivors: median 0.21 (0.06 to 0.4) ng/ml, <it>P</it> &lt;0.05; 28-day mortality, non survivors: median 0.67 (0.25 to 0.75) versus survivors: median 0.25 (0.07 to 0.45) ng/ml, <it>P</it> &lt;0.05). Remarkably, this was also evident for 90-day mortality (non-survivors: median 0.48 (0.36 to 0.68) versus survivors: median 0.19 (0.06 to 0.28) ng/ml, <it>P</it> &lt;0.05; Figure&#160;<figr fid="F1">1</figr>B). Multivariate linear regression analysis including APACHE-II score, SOFA score, CRP, white blood cells (WBC), creatinine, and platelet count as independent variables identified WBC (<it>P</it> &lt;0.05, <it>R</it>
                <sup>2</sup> = 0.64) and SOFA score (<it>P</it> &lt;0.05, <it>R</it>
                <sup>2</sup> = 0.64) as predictors for histone levels at onset of sepsis (day 1).</p>
          </sec>
          <sec>
             <st>
                <p>3.2 Histone levels negatively correlate with endogenous APC</p>
             </st>
             <p>Endogenous APC levels in cohort II at day 1, day 3 and day 5 were analyzed. APC levels were significantly elevated as compared to healthy controls (day 1: median 6.14 (IQR 5.8 to 6.9), day 3: median 6.49 (6.06 to 8.10), day 5: median 7.15 (5.21 to 7.68) ng/ml versus controls: median 4.69 (4.16 to 5.51) ng/ml; <it>P</it> &lt;0.05; Figure&#160;<figr fid="F2">2</figr>A). APC levels were inversely correlated with histone levels (<it>r</it> = &#8722;0.584, <it>P</it> &lt;0.05; Figure&#160;<figr fid="F2">2</figr>B). Furthermore, elevated APC levels were identified as an independent predictor of decreased histone levels when included in the multivariate linear regression model (<it>P</it> &lt;0.001, <it>R</it>
                <sup>2</sup> = 0.723).</p>
             
                <fig id="F2">
                   <title>
                      <p>Figure 2</p>
                   </title>
                   <caption>
                      <p>Endogenous APC levels in patients with sepsis and correlation with plasma histone levels. (A)</p>
                   </caption>
                   <text>
                      <p>
                         <b>Endogenous APC levels in patients with sepsis and correlation with plasma histone levels. (A)</b> Endogenous activated protein C (APC) levels in patients at onset of sepsis (day 1), day 3 and day 5. *Analysis of variance on ranks test (<it>P</it> &lt;0.05) to compare difference between APC levels on day 1, day 3 and day 5. <b>(B)</b> Endogenous APC levels negatively correlated with plasma histone levels. *Spearman correlation (<it>P</it> &lt;0.05).</p>
                   </text>
                   <graphic file="s13054-014-0543-8-2"/>
                </fig>
             
          </sec>
          <sec>
             <st>
                <p>3.3 Histones mediate cellular damage and induced the cytokines production</p>
             </st>
             <p>The cytotoxic effects of histones on endothelial cells and monocytes using 10 ng/ml and 50 &#956;g/ml histone concentration were evaluated. There was no change in LDH release or PI fluorescence of the nuclei after stimulation with 10 ng/ml. Histone concentration of 50 &#956;g/ml led to cell death indicated by significant high levels of LDH and PI positive cells (<it>P</it> &lt;0.001) (Figure&#160;<figr fid="F3">3</figr>A-D). The stimulation of monocytes with 10 ng/ml histone concentration led to a significant increase in TNF-&#945; at 6 hours and IL-8 (6 hours, 24 hours, <it>P</it> &lt;0.05) while 50 &#956;g/ml histones led to a marked increase in sepsis-associated cytokines such as TNF-&#945;, IL-6, IL-8, and IL-1&#223; at 6 hours and IL-6, IL-8, and IL-1&#223; at 24 hours (Figure&#160;<figr fid="F4">4</figr>A-D).</p>
             
                <fig id="F3">
                   <title>
                      <p>Figure 3</p>
                   </title>
                   <caption>
                      <p>Evaluation of cellular integrity and viability after histone stimulation of endothelial and monocytic cells. (A)</p>
                   </caption>
                   <text>
                      <p>
                         <b>Evaluation of cellular integrity and viability after histone stimulation of endothelial and monocytic cells. (A)</b> Lactate dehydrogenase (LDH) levels significantly increased in supernatant of human microvascular endothelial cells (HMEC) after 50 &#956;g/ml histones stimulation for 24 h. ***Student&#8217;s <it>t</it>-test, <it>P</it> &lt;0.001. <b>(B)</b> LDH levels significantly increased in supernatant of mono mac 6 (MM6) cells after 50 &#956;g/ml histones stimulation for 24 h. ***Student&#8217;s <it>t</it>-test, <it>P</it> &lt;0.001. <b>(C)</b> Percentage of propidium iodide (PI)-positive HMEC cells significantly increased after 24 hours stimulation with 50 &#956;g/ml histones. *Student&#8217;s <it>t</it>-test, <it>P</it> &lt;0.05. <b>(D)</b> Percentage of PI-positive MM6 cells significantly increased after 24 hours stimulation with 50 &#956;g/ml histones. ***Student&#8217;s <it>t</it>-test, <it>P</it> &lt;0.001.</p>
                   </text>
                   <graphic file="s13054-014-0543-8-3"/>
                </fig>
             
             
                <fig id="F4">
                   <title>
                      <p>Figure 4</p>
                   </title>
                   <caption>
                      <p>Cytokine production after histone stimulation. (A)</p>
                   </caption>
                   <text>
                      <p>
                         <b>Cytokine production after histone stimulation. (A)</b> IL-8 levels in supernatant from mono mac 6 (MM6) significantly increased after 10 ng/ml (<it>P</it> &lt; 0.05) and 50 &#956;g/ml stimulation for 6 and 24 hours. ***Student&#8217;s <it>t</it>-test, <it>P</it> &lt;0.001. <b>(B)</b> IL-1&#223; levels in supernatant from MM6 significantly increased after 50 &#956;g/ml stimulation for 24 hours. **Student&#8217;s <it>t</it>-test, <it>P</it> &lt;0.05. <b>(C)</b> IL-6 levels in supernatant from MM6 significantly increased after 50 &#956;g/ml stimulation for 6 and 24 hours. ***Student&#8217;s <it>t</it>-test, <it>P</it> &lt;0.001. <b>(D)</b> TNF-&#945; levels in supernatant from MM6 increased after 6 hours with 10 ng/ml and 50 &#956;g/ml histone stimulation and 50 &#956;g/ml stimulation after 24 hours. *Student&#8217;s <it>t</it>-test, <it>P</it> &lt;0.05.</p>
                   </text>
                   <graphic file="s13054-014-0543-8-4"/>
                </fig>
             
          </sec>
          <sec>
             <st>
                <p>3.4 Blocking anti-TLR4 antibodies inhibits histone-induced cytotoxicity</p>
             </st>
             <p>To evaluate the mode of action of histones, TLR4 signaling via receptor neutralization was targeted. Pre-treatment of endothelial cells with a specific TLR4 blocking antibody abrogated histone-induced increase of cellular cytotoxicity as shown by both PI staining and measurement of LDH release (<it>P</it> &lt;0.05) after stimulation with 50 &#956;g/ml histones (Figure&#160;<figr fid="F5">5</figr>A-B).</p>
             
                <fig id="F5">
                   <title>
                      <p>Figure 5</p>
                   </title>
                   <caption>
                      <p>Histone effects after toll-like receptor 4 (TLR4) blockade.</p>
                   </caption>
                   <text>
                      <p>
                         <b>Histone effects after toll-like receptor 4 (TLR4) blockade.</b> Blocking antibody control was obtained from animals housed under the same condition as immunized animals to produce TLR4 antibody. <b>(A)</b> Percentage of propidium iodide (PI)-positive human microvascular endothelial cells (HMEC) after 24 hours stimulation with 50 &#956;g/ml histones with and without blocking of TLR4. ***Student&#8217;s <it>t</it>-test, <it>P</it> &lt;0.001. <b>(B)</b> Lactate dehydrogenase (LDH) release significantly decreased after blocking with specific TLR4 antibody compared to histone-stimulated cells. **Student&#8217;s <it>t</it>-test, <it>P</it> &lt;0.001.</p>
                   </text>
                   <graphic file="s13054-014-0543-8-5"/>
                </fig>
             
          </sec>
          <sec>
             <st>
                <p>3.5 Determination of histone stability</p>
             </st>
             <p>In histone-spiked plasma, histone degradation over time was measured by western blotting. We found a single nonlinear regression exponential decay of histones in plasma between 0 to 30 minutes. The half-life of histones in three independent plasma samples was 4.6 minutes with an <it>R</it>
                <sup>2</sup> of 0.9159 (Figure&#160;<figr fid="F6">6</figr>A-B). Interestingly, after 30 minutes, degradation reached a plateau and no further decline was observed up to 6 hours (data not shown).</p>
             
                <fig id="F6">
                   <title>
                      <p>Figure 6</p>
                   </title>
                   <caption>
                      <p>Estimated degradation kinetics of histones in plasma. (A)</p>
                   </caption>
                   <text>
                      <p>
                         <b>Estimated degradation kinetics of histones in plasma. (A)</b> Single-phase exponential decay fit of three healthy individuals and the margin of error between samples. The half-life of histones (k) was 4.6 minutes with an <it>R</it>
                         <sup>2</sup> = 0.9159. <b>(B)</b> Western blotting showed decrease in histone protein in plasma over time.</p>
                   </text>
                   <graphic file="s13054-014-0543-8-6"/>
                </fig>
             
          </sec>
       </sec>
       <sec>
          <st>
             <p>4
 						Discussion</p>
          </st>
          <p>The study demonstrated for the first time and in two independent cohorts of septic patients that plasma concentrations of extracellular histones are elevated during human sepsis as compared to ICU controls. Interestingly, the observed concentrations are similar in both cohorts with low inter-assay variation. Histones were also significantly increased during the course of disease progression until day 5 of sepsis. This is in line with previous reports of an increase in histone concentration in baboons after endotoxin challenge <abbrgrp>
                <abbr bid="B9">9</abbr>
             </abbrgrp>. Interestingly, histone levels were higher in septic patients compared to patients with multiple organ failure without infection, potentially indicating that the source of histones in circulation could be strongly associated with the underlying infection and the release of neutrophil extracellular traps by neutrophils as demonstrated by others <abbrgrp>
                <abbr bid="B15">15</abbr>
             </abbrgrp>,<abbrgrp>
                <abbr bid="B16">16</abbr>
             </abbrgrp>. In addition, we found lower levels of histones in patients with minor trauma. This might be related to the limited tissue damage representing a lower release of histones into circulation, possible clearance of small quantities of histones in circulation by macrophages or complete eradication through active cleavage by proteases in plasma such as endogenous activated protein C. Most interestingly, we observed that in our cohort of patients with multiple trauma, histone concentrations were higher than levels found in septic patients. This supports previous reports of elevated levels of histones found in patients with blunt traumatic lung injury. Nevertheless, there was a clear disparity in the concentrations of histones measured in our multiple trauma patient cohort in the nanogram range compared to the levels reported in traumatic lung injury in the microgram range <abbrgrp>
                <abbr bid="B13">13</abbr>
             </abbrgrp>. However, we could not confirm histone concentrations by mass spectrometry due to high abundance plasma proteins, which interfere with the detection of low abundance proteins despite the existence of high abundance protein depletion protocols. Our efforts to quantify histones by immunoblotting also failed because levels of histones found in patients were far below the lower limit of detection for immunoblotting (&gt;500 ng/ml). Nevertheless, our investigation using two independent cohorts of sepsis patients demonstrates and justifies consistency and reproducibility of plasma histone measurements in septic patients. In addition, the inclusion of a second cohort enabled us to determine plasma histones not only at onset of sepsis but also during disease progression.</p>
          <p>A hallmark of sepsis is the occurrence of renal failure requiring renal replacement therapy <abbrgrp>
                <abbr bid="B17">17</abbr>
             </abbrgrp>. Consistently, our data suggested that higher levels of histones correlated with the need for RRT. In addition, histones have been shown to bind to platelets recruiting plasma adhesion molecules, thereby promoting platelet aggregation <abbrgrp>
                <abbr bid="B10">10</abbr>
             </abbrgrp>. In our study, increased histone levels were associated with a decrease in platelet count corroborating this concept. Interestingly, the occurrence of renal failure in sepsis and thrombocytopenia is often associated with high mortality <abbrgrp>
                <abbr bid="B18">18</abbr>
             </abbrgrp>,<abbrgrp>
                <abbr bid="B19">19</abbr>
             </abbrgrp>. The observed increase of plasma histone levels in patients undergoing RRT also implies that this increase might be a consequence of impaired renal excretion of the protein. However, to the best of our knowledge, there is no evidence that histones are excreted and become present in urine, either in healthy or pathophysiological conditions. On the other hand, microvascular permeability is increased when renal microvasculature is exposed to extracellular histones, released from dying tubular epithelial cells <abbrgrp>
                <abbr bid="B20">20</abbr>
             </abbrgrp>. In lipopolysaccharide (LPS)-induced endotoxemia, neutralization of released histones reduced tubular injury and an improved renal function as measured by creatinine levels was obvious <abbrgrp>
                <abbr bid="B20">20</abbr>
             </abbrgrp>, identifying histones as mediators of acute kidney injury. Strikingly, higher histone levels correlated with ICU-, 28- and 90-day mortality. Interestingly, thrombocytopenia and organ dysfunction following histone administration have also been demonstrated in mice <abbrgrp>
                <abbr bid="B8">8</abbr>
             </abbrgrp>,<abbrgrp>
                <abbr bid="B10">10</abbr>
             </abbrgrp>. Based on this concept, it could be hypothesized that the interaction of histones with the endothelium will result in endothelial impairment. This damage leads to endothelial dysfunction promoting platelet activation and aggregation, which impairs microcirculation and results in organ dysfunction, which is associated with an increased risk of death <abbrgrp>
                <abbr bid="B21">21</abbr>
             </abbrgrp>. In line with this, our <it>ex-vivo</it> findings further demonstrate that histone mediated cytotoxicity on endothelium cells and underline the results of Fuchs <it>et al</it>. demonstrating direct platelet activation and aggregation <abbrgrp>
                <abbr bid="B10">10</abbr>
             </abbrgrp>. Besides the direct effects on platelets and cytotoxicity, we were able to show an activation of immune cells which led to an increase in sepsis prototypic cytokines in both low and high concentrations of histone stimulation. From a pathomechanistic perspective, histone mediated effects might be initiated by TLR4 signaling as neutralization or blocking of the TLR4 receptor in our study completely abrogated histone-mediated cytotoxicity in our <it>in vitro</it> model. This underlines a report by Xu <it>et al</it>. who showed that TLR4 knock-out mice are protected from the fatal effects of histone infusion <abbrgrp>
                <abbr bid="B11">11</abbr>
             </abbrgrp> and also, at least in part, is in line with results from Abrams <it>et al</it>. showing that TLR4 blocking results in a decrease in cytokine production but not cytotoxicity.</p>
          <p>We report lower concentrations of histones in the nanogram range during sepsis which contradicts reports on the levels of histones measured in various species and diseases (baboons after gram-negative challenge, approximately 15 &#956;g/ml <abbrgrp>
                <abbr bid="B9">9</abbr>
             </abbrgrp>, in patients with blunt traumatic lung injury, approximately 10 to 280 &#956;g/ml <abbrgrp>
                <abbr bid="B13">13</abbr>
             </abbrgrp>, 200 &#956;g/ml in mice models of acute lung injury <abbrgrp>
                <abbr bid="B12">12</abbr>
             </abbrgrp>) and reported concentration used in all histone stimulation studies so far (approximately 10 to 1000 &#956;g/ml) <abbrgrp>
                <abbr bid="B9">9</abbr>
             </abbrgrp>,<abbrgrp>
                <abbr bid="B11">11</abbr>
             </abbrgrp>-<abbrgrp>
                <abbr bid="B13">13</abbr>
             </abbrgrp>,<abbrgrp>
                <abbr bid="B22">22</abbr>
             </abbrgrp>. It could also be speculated that the discrepancy in histone levels released in animal (mice and baboons) sepsis and the actual concentration measured in plasma of our septic patients might be due to the treatment with heparin in our septic ICU patients. Heparin is highly negatively charged and was recently shown to bind to positively charged histones reducing their cytotoxic effect <abbrgrp>
                <abbr bid="B22">22</abbr>
             </abbrgrp>. In line with other reports, the observed histone levels in multiple trauma patients might be related to a higher degree of tissue damage as represented by the injury severity score <abbrgrp>
                <abbr bid="B13">13</abbr>
             </abbrgrp>. In our cohort stratified according to need for RRT on day 5 (cohort II), all of the patients underwent anticoagulation either with heparin (2/3 of all our ICU patients) or citrate (1/3 of all our ICU patients). However, measurements of histones to associate the level with the clinical endpoint  of need for RRT were performed prior to initiation of anticoagulation for supportive treatment. From the low number of samples with different anticoagulants, from which one might interact with the readout, no comparison between these was performed.</p>
          <p>We demonstrate also for the first time the ability of plasma to degrade histones. As plasma was used for these experiments, a potential binding of positively charged histones to negatively charged membranes of erythrocytes could be excluded. The observed fast initial degradation of histones might be related to free proteases within the plasma such as endogenous APC and might explain why co-injection of histones with APC abrogated the lethal effects of histone injection in mice <abbrgrp>
                <abbr bid="B9">9</abbr>
             </abbrgrp>. This might also support our finding of a negative correlation between histone levels and APC in our septic patients. Unclear, however, is the decline to a steady state of histones in plasma after 30 minutes. However, we speculate that the biological half-life of histones in plasma could be affected by active metabolites, binding of fragments to other proteins as well as receptor interactions and therefore will not follow the first order kinetics with a fixed rate constant, because the generated fragments were also detected by the cited polyclonal antibodies. Nevertheless, this finding indicates the need for early centrifugation and measuring or freezing of the samples. Finally, further studies should elucidate the origin and sources of circulating histones in plasma during sepsis.</p>
       </sec>
       <sec>
          <st>
             <p>5
 						Conclusions</p>
          </st>
          <p>In conclusion, our data provides evidence that plasma histones are not only elevated in human sepsis but are associated with sepsis-related organ dysfunction, mediating cellular damage and severe inflammation responses. The observed effects might be mediated via the TLR4 receptor.</p>
       </sec>
       <sec>
          <st>
             <p>6
 						Key messages</p>
          </st>
          <p> We analyzed histone concentrations in two independent cohorts of septic patients. Histone levels were significantly elevated in septic patients as compared to ICU controls but lower in patients with multiple trauma.</p>
             <p> Higher concentrations of histones associated significantly with lower endogenous APC levels, with the requirement for RRT, a decrease in platelet count and were found to be higher in 28- and 90-day non-survivors.</p>
             <p> 
                <it>In vitro</it>, histone stimulation of cultured endothelial and monocytic cells decreased cellular integrity and resulted in an increase in septic prototypic cytokines.</p>
             <p> Histone-mediated action might be through TLR4. The half-life of histone degradation in plasma was 4.6 minutes.</p>
       </sec>
       <sec>
          <st>
             <p>Abbreviations</p>
          </st>
          <p>ACCP: American College of Chest Physicians</p>
          <p>ANOVA: analysis of variance</p>
          <p>APACHE: II acute physiology and chronic health evaluation II</p>
          <p>APC: activated protein C</p>
          <p>CBA: cytometric bead array</p>
          <p>CRP: C-reactive protein</p>
          <p>CV: coefficient of variation</p>
          <p>DAMP: damage-associated molecular pattern</p>
          <p>ELISA: enzyme linked immunosorbent assay</p>
          <p>H4: histone 4</p>
          <p>HMEC: human microvascular endothelial cells</p>
          <p>ICD-10: International Classification of Disease 10th revision</p>
          <p>IL: interleukin</p>
          <p>LDH: lactate dehydrogenase</p>
          <p>LOS: length of stay</p>
          <p>MM6: mono mac 6</p>
          <p>MOF: multiple organ failure</p>
          <p>PAMP: pathogen-associated molecular pattern</p>
          <p>PBS: phosphate buffered saline</p>
          <p>PI: propidium iodide</p>
          <p>PTT: partial thromboplastin time</p>
          <p>RRT: renal replacement therapy</p>
          <p>SAPS: simplified acute physiology score</p>
          <p>SCCM: Society of Critical Care</p>
          <p>SOFA: sequential organ failure assessment score</p>
          <p>TLR4: toll-like receptor 4</p>
          <p>TNF: tumor necrosis factor</p>
          <p>WBC: white blood cells</p>
       </sec>
       <sec>
          <st>
             <p>Competing interests</p>
          </st>
          <p>The authors declare that they have no competing interests.</p>
       </sec>
       <sec>
          <st>
             <p>Authors&#8217; contributions</p>
          </st>
          <p>MLE designed and performed experiments, analyzed data and wrote the first draft of the manuscript. GPO contributed to experimental design, interpreted data and reviewed the manuscript. MS contributed to the study concept and data acquisition. CS contributed to clinical study design and characterization of septic patients. AW characterized and collected samples from minor trauma patients. DR provided clinical samples from multiple trauma patients and contributed to the preparation of the manuscript. MB&#246; contributed to the development of the study design and drafting of the manuscript. OK made critical contributions to the study and revised the manuscript. WL performed multivariate analyses and interpreted the data. MBa supervised the study and critically revised the manuscript. RAC supervised the study, revised and approved the final version of the manuscript. All authors read and approved the final manuscript. This study was supported by grants from the German Federal Ministry of Education and Research within the Center for Sepsis Control and Care (grant 01 EO 1002, Project D1.9; PhD fellowship to MLE.</p>
       </sec>
    </bdy>
    <bm>
       <ack>
          <sec>
             <st>
                <p>Acknowledgements</p>
             </st>
             <p>We are grateful to Edith Walther and Brigitte Specht for excellent technical assistance and Jorge Hurtado for helpful discussion and recommendations.</p>
          </sec>
       </ack>
       <refgrp>
          
          <bibl id="B1">
             <title>
                <p>Novel strategies for the treatment of sepsis</p>
             </title>
             <aug>
                <au>
                   <snm>Riedemann</snm>
                   <fnm>NC</fnm>
                </au>
                <au>
                   <snm>Guo</snm>
                   <fnm>RF</fnm>
                </au>
                <au>
                   <snm>Ward</snm>
                   <fnm>PA</fnm>
                </au>
             </aug>
             <source>Nat Med</source>
             <pubdate>2003</pubdate>
             <volume>9</volume>
             <fpage>517</fpage>
             <lpage>524</lpage>
             <xrefbib>
                <pubidlist>
                   <pubid idtype="doi">10.1038/nm0503-517</pubid>
                   <pubid idtype="pmpid" link="fulltext">12724763</pubid>
                </pubidlist>
             </xrefbib>
          </bibl>
          <bibl id="B2">
             <title>
                <p>The systemic pro-inflammatory response in sepsis</p>
             </title>
             <aug>
                <au>
                   <snm>de Jong</snm>
                   <fnm>HK</fnm>
                </au>
                <au>
                   <snm>van der Poll</snm>
                   <fnm>T</fnm>
                </au>
                <au>
                   <snm>Wiersinga</snm>
                   <fnm>WJ</fnm>
                </au>
             </aug>
             <source>J Innate Immun</source>
             <pubdate>2010</pubdate>
             <volume>2</volume>
             <fpage>422</fpage>
             <lpage>430</lpage>
             <xrefbib>
                <pubidlist>
                   <pubid idtype="doi">10.1159/000316286</pubid>
                   <pubid idtype="pmpid" link="fulltext">20530955</pubid>
                </pubidlist>
             </xrefbib>
          </bibl>
          <bibl id="B3">
             <title>
                <p>The role of the endothelium in severe sepsis and multiple organ dysfunction syndrome</p>
             </title>
             <aug>
                <au>
                   <snm>Aird</snm>
                   <fnm>WC</fnm>
                </au>
             </aug>
             <source>Blood</source>
             <pubdate>2003</pubdate>
             <volume>101</volume>
             <fpage>3765</fpage>
             <lpage>3777</lpage>
             <xrefbib>
                <pubidlist>
                   <pubid idtype="doi">10.1182/blood-2002-06-1887</pubid>
                   <pubid idtype="pmpid" link="fulltext">12543869</pubid>
                </pubidlist>
             </xrefbib>
          </bibl>
          <bibl id="B4">
             <title>
                <p>Inflammation and coagulation</p>
             </title>
             <aug>
                <au>
                   <snm>Levi</snm>
                   <fnm>M</fnm>
                </au>
                <au>
                   <snm>van der Poll</snm>
                   <fnm>T</fnm>
                </au>
             </aug>
             <source>Crit Care Med</source>
             <pubdate>2010</pubdate>
             <volume>38</volume>
             <fpage>S26</fpage>
             <lpage>S34</lpage>
             <xrefbib>
                <pubidlist>
                   <pubid idtype="doi">10.1097/CCM.0b013e3181c98d21</pubid>
                   <pubid idtype="pmpid" link="fulltext">20083910</pubid>
                </pubidlist>
             </xrefbib>
          </bibl>
          <bibl id="B5">
             <title>
                <p>Acute kidney injury, acute lung injury and septic shock: how does mortality compare?</p>
             </title>
             <aug>
                <au>
                   <snm>Vincent</snm>
                   <fnm>JL</fnm>
                </au>
             </aug>
             <source>Contrib Nephrol</source>
             <pubdate>2011</pubdate>
             <volume>174</volume>
             <fpage>71</fpage>
             <lpage>77</lpage>
             <xrefbib>
                <pubidlist>
                   <pubid idtype="doi">10.1159/000329238</pubid>
                   <pubid idtype="pmpid" link="fulltext">21921611</pubid>
                </pubidlist>
             </xrefbib>
          </bibl>
          <bibl id="B6">
             <title>
                <p>Multiple organ failure in sepsis: prognosis and role of systemic inflammatory response</p>
             </title>
             <aug>
                <au>
                   <snm>Gustot</snm>
                   <fnm>T</fnm>
                </au>
             </aug>
             <source>Curr Opin Crit Care</source>
             <pubdate>2011</pubdate>
             <volume>17</volume>
             <fpage>153</fpage>
             <lpage>159</lpage>
             <xrefbib>
                <pubidlist>
                   <pubid idtype="doi">10.1097/MCC.0b013e328344b446</pubid>
                   <pubid idtype="pmpid" link="fulltext">21346564</pubid>
                </pubidlist>
             </xrefbib>
          </bibl>
          <bibl id="B7">
             <title>
                <p>The role of pattern-recognition receptors in innate immunity: update on Toll-like receptors</p>
             </title>
             <aug>
                <au>
                   <snm>Kawai</snm>
                   <fnm>T</fnm>
                </au>
                <au>
                   <snm>Akira</snm>
                   <fnm>S</fnm>
                </au>
             </aug>
             <source>Nat Immunol</source>
             <pubdate>2010</pubdate>
             <volume>11</volume>
             <fpage>373</fpage>
             <lpage>384</lpage>
             <xrefbib>
                <pubidlist>
                   <pubid idtype="doi">10.1038/ni.1863</pubid>
                   <pubid idtype="pmpid" link="fulltext">20404851</pubid>
                </pubidlist>
             </xrefbib>
          </bibl>
          <bibl id="B8">
             <title>
                <p>Alarmins: awaiting a clinical response</p>
             </title>
             <aug>
                <au>
                   <snm>Chan</snm>
                   <fnm>JK</fnm>
                </au>
                <au>
                   <snm>Roth</snm>
                   <fnm>J</fnm>
                </au>
                <au>
                   <snm>Oppenheim</snm>
                   <fnm>JJ</fnm>
                </au>
                <au>
                   <snm>Tracey</snm>
                   <fnm>KJ</fnm>
                </au>
                <au>
                   <snm>Vogl</snm>
                   <fnm>T</fnm>
                </au>
                <au>
                   <snm>Feldmann</snm>
                   <fnm>M</fnm>
                </au>
                <au>
                   <snm>Horwood</snm>
                   <fnm>N</fnm>
                </au>
                <au>
                   <snm>Nanchahal</snm>
                   <fnm>J</fnm>
                </au>
             </aug>
             <source>J Clin Invest</source>
             <pubdate>2012</pubdate>
             <volume>122</volume>
             <fpage>2711</fpage>
             <lpage>2719</lpage>
             <xrefbib>
                <pubidlist>
                   <pubid idtype="doi">10.1172/JCI62423</pubid>
                   <pubid idtype="pmpid" link="fulltext">22850880</pubid>
                </pubidlist>
             </xrefbib>
          </bibl>
          <bibl id="B9">
             <title>
                <p>Extracellular histones are major mediators of death in sepsis</p>
             </title>
             <aug>
                <au>
                   <snm>Xu</snm>
                   <fnm>J</fnm>
                </au>
                <au>
                   <snm>Zhang</snm>
                   <fnm>X</fnm>
                </au>
                <au>
                   <snm>Pelayo</snm>
                   <fnm>R</fnm>
                </au>
                <au>
                   <snm>Monestier</snm>
                   <fnm>M</fnm>
                </au>
                <au>
                   <snm>Ammollo</snm>
                   <fnm>CT</fnm>
                </au>
                <au>
                   <snm>Semeraro</snm>
                   <fnm>F</fnm>
                </au>
                <au>
                   <snm>Taylor</snm>
                   <fnm>FB</fnm>
                </au>
                <au>
                   <snm>Esmon</snm>
                   <fnm>NL</fnm>
                </au>
                <au>
                   <snm>Lupu</snm>
                   <fnm>F</fnm>
                </au>
                <au>
                   <snm>Esmon</snm>
                   <fnm>CT</fnm>
                </au>
             </aug>
             <source>Nat Med</source>
             <pubdate>2009</pubdate>
             <volume>15</volume>
             <fpage>1318</fpage>
             <lpage>1321</lpage>
             <xrefbib>
                <pubidlist>
                   <pubid idtype="doi">10.1038/nm.2053</pubid>
                   <pubid idtype="pmpid" link="fulltext">19855397</pubid>
                </pubidlist>
             </xrefbib>
          </bibl>
          <bibl id="B10">
             <title>
                <p>Histones induce rapid and profound thrombocytopenia in mice</p>
             </title>
             <aug>
                <au>
                   <snm>Fuchs</snm>
                   <fnm>TA</fnm>
                </au>
                <au>
                   <snm>Bhandari</snm>
                   <fnm>AA</fnm>
                </au>
                <au>
                   <snm>Wagner</snm>
                   <fnm>DD</fnm>
                </au>
             </aug>
             <source>Blood</source>
             <pubdate>2011</pubdate>
             <volume>118</volume>
             <fpage>3708</fpage>
             <lpage>3714</lpage>
             <xrefbib>
                <pubidlist>
                   <pubid idtype="doi">10.1182/blood-2011-01-332676</pubid>
                   <pubid idtype="pmpid" link="fulltext">21700775</pubid>
                </pubidlist>
             </xrefbib>
          </bibl>
          <bibl id="B11">
             <title>
                <p>Extracellular histones are mediators of death through TLR2 and TLR4 in mouse fatal liver injury</p>
             </title>
             <aug>
                <au>
                   <snm>Xu</snm>
                   <fnm>J</fnm>
                </au>
                <au>
                   <snm>Zhang</snm>
                   <fnm>X</fnm>
                </au>
                <au>
                   <snm>Monestier</snm>
                   <fnm>M</fnm>
                </au>
                <au>
                   <snm>Esmon</snm>
                   <fnm>NL</fnm>
                </au>
                <au>
                   <snm>Esmon</snm>
                   <fnm>CT</fnm>
                </au>
             </aug>
             <source>J Immunol</source>
             <pubdate>2011</pubdate>
             <volume>187</volume>
             <fpage>2626</fpage>
             <lpage>2631</lpage>
             <xrefbib>
                <pubidlist>
                   <pubid idtype="doi">10.4049/jimmunol.1003930</pubid>
                   <pubid idtype="pmpid" link="fulltext">21784973</pubid>
                </pubidlist>
             </xrefbib>
          </bibl>
          <bibl id="B12">
             <title>
                <p>Extracellular histones are essential effectors of C5aR- and C5L2-mediated tissue damage and inflammation in acute lung injury</p>
             </title>
             <aug>
                <au>
                   <snm>Bosmann</snm>
                   <fnm>M</fnm>
                </au>
                <au>
                   <snm>Grailer</snm>
                   <fnm>JJ</fnm>
                </au>
                <au>
                   <snm>Ruemmler</snm>
                   <fnm>R</fnm>
                </au>
                <au>
                   <snm>Russkamp</snm>
                   <fnm>NF</fnm>
                </au>
                <au>
                   <snm>Zetoune</snm>
                   <fnm>FS</fnm>
                </au>
                <au>
                   <snm>Sarma</snm>
                   <fnm>JV</fnm>
                </au>
                <au>
                   <snm>Standiford</snm>
                   <fnm>TJ</fnm>
                </au>
                <au>
                   <snm>Ward</snm>
                   <fnm>PA</fnm>
                </au>
             </aug>
             <source>FASEB J</source>
             <pubdate>2013</pubdate>
             <volume>27</volume>
             <fpage>5010</fpage>
             <lpage>5021</lpage>
             <xrefbib>
                <pubidlist>
                   <pubid idtype="doi">10.1096/fj.13-236380</pubid>
                   <pubid idtype="pmpid" link="fulltext">23982144</pubid>
                </pubidlist>
             </xrefbib>
          </bibl>
          <bibl id="B13">
             <title>
                <p>Circulating histones are mediators of trauma-associated lung injury</p>
             </title>
             <aug>
                <au>
                   <snm>Abrams</snm>
                   <fnm>ST</fnm>
                </au>
                <au>
                   <snm>Zhang</snm>
                   <fnm>N</fnm>
                </au>
                <au>
                   <snm>Manson</snm>
                   <fnm>J</fnm>
                </au>
                <au>
                   <snm>Liu</snm>
                   <fnm>T</fnm>
                </au>
                <au>
                   <snm>Dart</snm>
                   <fnm>C</fnm>
                </au>
                <au>
                   <snm>Baluwa</snm>
                   <fnm>F</fnm>
                </au>
                <au>
                   <snm>Wang</snm>
                   <fnm>SS</fnm>
                </au>
                <au>
                   <snm>Brohi</snm>
                   <fnm>K</fnm>
                </au>
                <au>
                   <snm>Kipar</snm>
                   <fnm>A</fnm>
                </au>
                <au>
                   <snm>Yu</snm>
                   <fnm>W</fnm>
                </au>
                <au>
                   <snm>Wang</snm>
                   <fnm>G</fnm>
                </au>
                <au>
                   <snm>Toh</snm>
                   <fnm>CH</fnm>
                </au>
             </aug>
             <source>Am J Respir Crit Care Med</source>
             <pubdate>2013</pubdate>
             <volume>187</volume>
             <fpage>160</fpage>
             <lpage>169</lpage>
             <xrefbib>
                <pubidlist>
                   <pubid idtype="doi">10.1164/rccm.201206-1037OC</pubid>
                   <pubid idtype="pmpid" link="fulltext">23220920</pubid>
                </pubidlist>
             </xrefbib>
          </bibl>
          <bibl id="B14">
             <title>
                <p>Definitions for sepsis and organ failure and guidelines for the use of innovative therapies in sepsis: the ACCP/SCCM Consensus Conference Committee. American College of Chest Physicians/Society of Critical Care Medicine. 1992</p>
             </title>
             <aug>
                <au>
                   <snm>Bone</snm>
                   <fnm>RC</fnm>
                </au>
                <au>
                   <snm>Balk</snm>
                   <fnm>RA</fnm>
                </au>
                <au>
                   <snm>Cerra</snm>
                   <fnm>FB</fnm>
                </au>
                <au>
                   <snm>Dellinger</snm>
                   <fnm>RP</fnm>
                </au>
                <au>
                   <snm>Fein</snm>
                   <fnm>AM</fnm>
                </au>
                <au>
                   <snm>Knaus</snm>
                   <fnm>WA</fnm>
                </au>
                <au>
                   <snm>Schein</snm>
                   <fnm>RM</fnm>
                </au>
                <au>
                   <snm>Sibbald</snm>
                   <fnm>WJ</fnm>
                </au>
             </aug>
             <source>Chest</source>
             <pubdate>2009</pubdate>
             <volume>136(5 Suppl)</volume>
             <fpage>:e28</fpage>
          </bibl>
          <bibl id="B15">
             <title>
                <p>Histone deimination as a response to inflammatory stimuli in neutrophils</p>
             </title>
             <aug>
                <au>
                   <snm>Neeli</snm>
                   <fnm>I</fnm>
                </au>
                <au>
                   <snm>Khan</snm>
                   <fnm>SN</fnm>
                </au>
                <au>
                   <snm>Radic</snm>
                   <fnm>M</fnm>
                </au>
             </aug>
             <source>J Immunol</source>
             <pubdate>2008</pubdate>
             <volume>180</volume>
             <fpage>1895</fpage>
             <lpage>1902</lpage>
             <xrefbib>
                <pubidlist>
                   <pubid idtype="doi">10.4049/jimmunol.180.3.1895</pubid>
                   <pubid idtype="pmpid" link="fulltext">18209087</pubid>
                </pubidlist>
             </xrefbib>
          </bibl>
          <bibl id="B16">
             <title>
                <p>Neutrophil extracellular traps promote deep vein thrombosis in mice</p>
             </title>
             <aug>
                <au>
                   <snm>Brill</snm>
                   <fnm>A</fnm>
                </au>
                <au>
                   <snm>Fuchs</snm>
                   <fnm>TA</fnm>
                </au>
                <au>
                   <snm>Savchenko</snm>
                   <fnm>AS</fnm>
                </au>
                <au>
                   <snm>Thomas</snm>
                   <fnm>GM</fnm>
                </au>
                <au>
                   <snm>Martinod</snm>
                   <fnm>K</fnm>
                </au>
                <au>
                   <snm>De Meyer</snm>
                   <fnm>SF</fnm>
                </au>
                <au>
                   <snm>Bhandari</snm>
                   <fnm>AA</fnm>
                </au>
                <au>
                   <snm>Wagner</snm>
                   <fnm>DD</fnm>
                </au>
             </aug>
             <source>J Thromb Haemost</source>
             <pubdate>2012</pubdate>
             <volume>10</volume>
             <fpage>136</fpage>
             <lpage>144</lpage>
             <xrefbib>
                <pubidlist>
                   <pubid idtype="doi">10.1111/j.1538-7836.2011.04544.x</pubid>
                   <pubid idtype="pmpid" link="fulltext">22044575</pubid>
                </pubidlist>
             </xrefbib>
          </bibl>
          <bibl id="B17">
             <title>
                <p>How to choose the ideal renal replacement therapy in sepsis?</p>
             </title>
             <aug>
                <au>
                   <snm>Filiponi</snm>
                   <fnm>TC</fnm>
                </au>
                <au>
                   <snm>de Souza Durao</snm>
                   <fnm>M</fnm>
                   <suf>Jr</suf>
                </au>
             </aug>
             <source>Shock</source>
             <pubdate>2013</pubdate>
             <volume>39</volume>
             <fpage>50</fpage>
             <lpage>53</lpage>
             <xrefbib>
                <pubidlist>
                   <pubid idtype="doi">10.1097/SHK.0b013e31828fafa6</pubid>
                   <pubid idtype="pmpid" link="fulltext">23481503</pubid>
                </pubidlist>
             </xrefbib>
          </bibl>
          <bibl id="B18">
             <title>
                <p>Thrombocytopenia and prognosis in intensive care</p>
             </title>
             <aug>
                <au>
                   <snm>Vanderschueren</snm>
                   <fnm>S</fnm>
                </au>
                <au>
                   <snm>De Weerdt</snm>
                   <fnm>A</fnm>
                </au>
                <au>
                   <snm>Malbrain</snm>
                   <fnm>M</fnm>
                </au>
                <au>
                   <snm>Vankersschaever</snm>
                   <fnm>D</fnm>
                </au>
                <au>
                   <snm>Frans</snm>
                   <fnm>E</fnm>
                </au>
                <au>
                   <snm>Wilmer</snm>
                   <fnm>A</fnm>
                </au>
                <au>
                   <snm>Bobbaers</snm>
                   <fnm>H</fnm>
                </au>
             </aug>
             <source>Crit Care Med</source>
             <pubdate>2000</pubdate>
             <volume>28</volume>
             <fpage>1871</fpage>
             <lpage>1876</lpage>
             <xrefbib>
                <pubidlist>
                   <pubid idtype="doi">10.1097/00003246-200006000-00031</pubid>
                   <pubid idtype="pmpid" link="fulltext">10890635</pubid>
                </pubidlist>
             </xrefbib>
          </bibl>
          <bibl id="B19">
             <title>
                <p>Multiple organ dysfunction score: a reliable descriptor of a complex clinical outcome</p>
             </title>
             <aug>
                <au>
                   <snm>Marshall</snm>
                   <fnm>JC</fnm>
                </au>
                <au>
                   <snm>Cook</snm>
                   <fnm>DJ</fnm>
                </au>
                <au>
                   <snm>Christou</snm>
                   <fnm>NV</fnm>
                </au>
                <au>
                   <snm>Bernard</snm>
                   <fnm>GR</fnm>
                </au>
                <au>
                   <snm>Sprung</snm>
                   <fnm>CL</fnm>
                </au>
                <au>
                   <snm>Sibbald</snm>
                   <fnm>WJ</fnm>
                </au>
             </aug>
             <source>Crit Care Med</source>
             <pubdate>1995</pubdate>
             <volume>23</volume>
             <fpage>1638</fpage>
             <lpage>1652</lpage>
             <xrefbib>
                <pubidlist>
                   <pubid idtype="doi">10.1097/00003246-199510000-00007</pubid>
                   <pubid idtype="pmpid" link="fulltext">7587228</pubid>
                </pubidlist>
             </xrefbib>
          </bibl>
          <bibl id="B20">
             <title>
                <p>Histones from dying renal cells aggravate kidney injury via TLR2 and TLR4</p>
             </title>
             <aug>
                <au>
                   <snm>Allam</snm>
                   <fnm>R</fnm>
                </au>
                <au>
                   <snm>Scherbaum</snm>
                   <fnm>CR</fnm>
                </au>
                <au>
                   <snm>Darisipudi</snm>
                   <fnm>MN</fnm>
                </au>
                <au>
                   <snm>Mulay</snm>
                   <fnm>SR</fnm>
                </au>
                <au>
                   <snm>Hagele</snm>
                   <fnm>H</fnm>
                </au>
                <au>
                   <snm>Lichtnekert</snm>
                   <fnm>J</fnm>
                </au>
                <au>
                   <snm>Hagemann</snm>
                   <fnm>JH</fnm>
                </au>
                <au>
                   <snm>Rupanagudi</snm>
                   <fnm>KV</fnm>
                </au>
                <au>
                   <snm>Ryu</snm>
                   <fnm>M</fnm>
                </au>
                <au>
                   <snm>Schwarzenberger</snm>
                   <fnm>C</fnm>
                </au>
                <au>
                   <snm>Hohenstein</snm>
                   <fnm>B</fnm>
                </au>
                <au>
                   <snm>Hugo</snm>
                   <fnm>C</fnm>
                </au>
                <au>
                   <snm>Uhl</snm>
                   <fnm>B</fnm>
                </au>
                <au>
                   <snm>Reichel</snm>
                   <fnm>CA</fnm>
                </au>
                <au>
                   <snm>Krombach</snm>
                   <fnm>F</fnm>
                </au>
                <au>
                   <snm>Monestier</snm>
                   <fnm>M</fnm>
                </au>
                <au>
                   <snm>Liapis</snm>
                   <fnm>H</fnm>
                </au>
                <au>
                   <snm>Moreth</snm>
                   <fnm>K</fnm>
                </au>
                <au>
                   <snm>Schaefer</snm>
                   <fnm>L</fnm>
                </au>
                <au>
                   <snm>Anders</snm>
                   <fnm>HJ</fnm>
                </au>
             </aug>
             <source>J Am Soc Nephrol</source>
             <pubdate>2012</pubdate>
             <volume>23</volume>
             <fpage>1375</fpage>
             <lpage>1388</lpage>
             <xrefbib>
                <pubidlist>
                   <pubid idtype="doi">10.1681/ASN.2011111077</pubid>
                   <pubid idtype="pmpid" link="fulltext">22677551</pubid>
                </pubidlist>
             </xrefbib>
          </bibl>
          <bibl id="B21">
             <title>
                <p>Epidemiology of severe sepsis occurring in the first 24&#160;hrs in intensive care units in England, Wales, and Northern Ireland</p>
             </title>
             <aug>
                <au>
                   <snm>Padkin</snm>
                   <fnm>A</fnm>
                </au>
                <au>
                   <snm>Goldfrad</snm>
                   <fnm>C</fnm>
                </au>
                <au>
                   <snm>Brady</snm>
                   <fnm>AR</fnm>
                </au>
                <au>
                   <snm>Young</snm>
                   <fnm>D</fnm>
                </au>
                <au>
                   <snm>Black</snm>
                   <fnm>N</fnm>
                </au>
                <au>
                   <snm>Rowan</snm>
                   <fnm>K</fnm>
                </au>
             </aug>
             <source>Crit Care Med</source>
             <pubdate>2003</pubdate>
             <volume>31</volume>
             <fpage>2332</fpage>
             <lpage>2338</lpage>
             <xrefbib>
                <pubidlist>
                   <pubid idtype="doi">10.1097/01.CCM.0000085141.75513.2B</pubid>
                   <pubid idtype="pmpid" link="fulltext">14501964</pubid>
                </pubidlist>
             </xrefbib>
          </bibl>
          <bibl id="B22">
             <title>
                <p>Non-anticoagulant heparin prevents histone-mediated cytotoxicity in vitro and improves survival in sepsis</p>
             </title>
             <aug>
                <au>
                   <snm>Wildhagen</snm>
                   <fnm>KC</fnm>
                </au>
                <au>
                   <snm>Garcia de Frutos</snm>
                   <fnm>P</fnm>
                </au>
                <au>
                   <snm>Reutelingsperger</snm>
                   <fnm>CP</fnm>
                </au>
                <au>
                   <snm>Schrijver</snm>
                   <fnm>R</fnm>
                </au>
                <au>
                   <snm>Areste</snm>
                   <fnm>C</fnm>
                </au>
                <au>
                   <snm>Ortega-Gomez</snm>
                   <fnm>A</fnm>
                </au>
                <au>
                   <snm>Deckers</snm>
                   <fnm>NM</fnm>
                </au>
                <au>
                   <snm>Hemker</snm>
                   <fnm>HC</fnm>
                </au>
                <au>
                   <snm>Soehnlein</snm>
                   <fnm>O</fnm>
                </au>
                <au>
                   <snm>Nicolaes</snm>
                   <fnm>GA</fnm>
                </au>
             </aug>
             <source>Blood</source>
             <pubdate>2013</pubdate>
             <volume>21</volume>
             <fpage>21</fpage>
          </bibl>
       </refgrp>
    </bm>
 </art>
