<art>
    <ui>s13071-014-0477-7</ui>
    <ji>1756-3305</ji>
    <fm>
       <dochead>Short report</dochead>
       <bibl>
          <title>
             <p>The first German map of georeferenced ixodid tick locations</p>
          </title>
          <aug>
             <au ca="yes" id="A1">
                <snm>Rubel</snm>
                <fnm>Franz</fnm>
                <insr iid="I1"/>
                <email>franz.rubel@vetmeduni.ac.at</email>
             </au>
             <au id="A2">
                <snm>Brugger</snm>
                <fnm>Katharina</fnm>
                <insr iid="I1"/>
                <email>katharina.brugger@vetmeduni.ac.at</email>
             </au>
             <au id="A3">
                <snm>Monazahian</snm>
                <fnm>Masyar</fnm>
                <insr iid="I2"/>
                <email>masyar.monazahian@nlga.niedersachsen.de</email>
             </au>
             <au id="A4">
                <snm>Habedank</snm>
                <fnm>Birgit</fnm>
                <insr iid="I3"/>
                <email>birgit.habedank@uba.de</email>
             </au>
             <au id="A5">
                <snm>Dautel</snm>
                <fnm>Hans</fnm>
                <insr iid="I4"/>
                <email>dautel@tick-radar.de</email>
             </au>
             <au id="A6">
                <snm>Leverenz</snm>
                <fnm>Sandra</fnm>
                <insr iid="I4"/>
                <email>leverenz@tick-radar.de</email>
             </au>
             <au id="A7">
                <snm>Kahl</snm>
                <fnm>Olaf</fnm>
                <insr iid="I4"/>
                <email>kahl@tick-radar.de</email>
             </au>
          </aug>
          <insg>
             <ins id="I1">
                <p>Institute for Veterinary Public Health, University of Veterinary Medicine Vienna, Veterin&#228;rplatz 1, Vienna, A-1210, Austria</p>
             </ins>
             <ins id="I2">
                <p>Governmental Institute of Public Health of Lower Saxony, Hannover, Germany</p>
             </ins>
             <ins id="I3">
                <p>Section IV 1.4 - Public Health Pest and their Control, Federal Environment Agency, Berlin, Germany</p>
             </ins>
             <ins id="I4">
                <p>tick-radar GmbH, Berlin, Germany</p>
             </ins>
          </insg>
          <source>Parasites &amp; Vectors</source>
          <issn>1756-3305</issn>
          <pubdate>2014</pubdate>
          <volume>7</volume>
          <issue>1</issue>
          <fpage>477</fpage>
          <url>http://www.parasitesandvectors.com/content/7/1/477</url>
          <xrefbib>
             <pubidlist>
                <pubid idtype="doi">10.1186/s13071-014-0477-7</pubid>
             <pubid idtype="pmpid">25301245</pubid></pubidlist>
          </xrefbib>
       </bibl>
       <history>
          <rec>
             <date>
                <day>21</day>
                <month>8</month>
                <year>2014</year>
             </date>
          </rec>
          <acc>
             <date>
                <day>4</day>
                <month>10</month>
                <year>2014</year>
             </date>
          </acc>
          <pub>
             <date>
                <day>10</day>
                <month>10</month>
                <year>2014</year>
             </date>
          </pub>
       </history>
       <cpyrt>
          <year>2014</year>
          <collab>Rubel et al.; licensee BioMed Central Ltd.</collab>
          <note>This is an Open Access article distributed under the terms of the Creative Commons Attribution License (<url>http://creativecommons.org/licenses/by/4.0</url>), which permits unrestricted use, distribution, and reproduction in any medium, provided the original work is properly credited. The Creative Commons Public Domain Dedication waiver (<url>http://creativecommons.org/publicdomain/zero/1.0/</url>) applies to the data made available in this article, unless otherwise stated.</note>
       </cpyrt>
       <kwdg>
          <kwd>Ixodid ticks </kwd>
          <kwd>Ixodes </kwd>
          <kwd>Dermacentor </kwd>
          <kwd>Haemaphysalis </kwd>
          <kwd>Hyalomma </kwd>
          <kwd>Distribution map</kwd>
          <kwd>Dataset</kwd>
       </kwdg>
       <abs>
          <sec>
             <st>
                <p>Abstract</p>
             </st>
             <sec>
                <st>
                   <p>Background</p>
                </st>
                <p>Georeferenced locations of ixodid ticks are required to depict the observed distribution of species. Further, they are used as input data for species distribution models also known as niche models. The latter were applied to describe current and future (projected) tick distributions. Beside model assumptions and selected climate parameters, the number of georeferenced tick locations available as a digital dataset is of fundamental importance for the reliability of such models. For Germany, however, no comprehensive dataset of ixodid tick species exists. The goal of this study was to put together all the available information on ixodid tick locations in Germany to produce such a digital dataset and to visualize it in a map.</p>
             </sec>
             <sec>
                <st>
                   <p>Findings</p>
                </st>
                <p>A total of 2,044 georeferenced locations of ixodid ticks in Germany were compiled from two existing datasets (altogether 993 locations) and an extensive literature study (1,051 locations). The resulting digital dataset comprises the following tick species: <it>Ixodes ricinus</it> (1,855 locations), <it>Ixodes apronophorus</it> (1), <it>Ixodes frontalis</it> (1), <it>Ixodes hexagonus</it> (1), <it>Ixodes trianguliceps</it> (4), <it>Dermacentor marginatus</it> (77), <it>Dermacentor reticulatus</it> (96), <it>Haemaphysalis concinna</it> (8) and <it>Hyalomma marginatum</it> (1). The data were used to draw a tick map for Germany, showing <it>I. ricinus</it> occurring in the whole federal territory, while <it>D. marginatus</it> has been restricted to the climatically favoured region of the Rhine valley. Clustered locations of <it>D. reticulatus</it> were also documented in the Rhine valley as well as in Berlin and its vicinity.</p>
             </sec>
             <sec>
                <st>
                   <p>Conclusions</p>
                </st>
                <p>The introduced map depicts for the first time the available geographical coordinates of ixodid tick locations in Germany. The digital dataset used to draw the map is provided to the scientific community as a basis for further investigations such as species distribution modelling.</p>
             </sec>
          </sec>
       </abs>
    </fm>
    <bdy>
       <sec>
          <st>
             <p>Background</p>
          </st>
          <p>Tick species distribution changes according to climate, land use patterns and forest management <abbrgrp>
                <abbr bid="B1">1</abbr>
             </abbrgrp>. Therefore, it is of particular interest to develop scenarios on future distributions of ticks and tick-borne diseases based on climate models and the available knowledge of tick ecology and physiology. Among other methods, species distribution models reconstructing the climatic niche were applied. They describe the potential distribution of a given species, which may be projected into the future by using climate model predictions. For example, the current and future distribution of <it>Ixodes ricinus</it> in Europe was investigated <abbrgrp>
                <abbr bid="B2">2</abbr>
             </abbrgrp>, using the geographical coordinates of <it>I. ricinus</it> locations from another study <abbrgrp>
                <abbr bid="B3">3</abbr>
             </abbrgrp>. Beside model assumptions and selected climate parameters, the number of georeferenced tick locations available as a digital dataset is of fundamental importance for the reliability of modelling results. They comprise distributions of tick species as well as the distribution patterns of tick-borne diseases such as tick-borne encephalitis, Lyme borreliosis <abbrgrp>
                <abbr bid="B4">4</abbr>
             </abbrgrp>, babesiosis <abbrgrp>
                <abbr bid="B5">5</abbr>
             </abbrgrp>,<abbrgrp>
                <abbr bid="B6">6</abbr>
             </abbrgrp>, rickettsiosis <abbrgrp>
                <abbr bid="B7">7</abbr>
             </abbrgrp> and others <abbrgrp>
                <abbr bid="B8">8</abbr>
             </abbrgrp>.</p>
          <p>Digital datasets covering Europe were provided by Estrada-Pe&#241;a et al. <abbrgrp>
                <abbr bid="B3">3</abbr>
             </abbrgrp> and GBIF, the Global Biodiversity Information Facility <abbrgrp>
                <abbr bid="B9">9</abbr>
             </abbrgrp>. Both datasets feature major data gaps especially for Germany. The same is true for Belgium, where a recently published study on the distribution of ixodid tick species <abbrgrp>
                <abbr bid="B10">10</abbr>
             </abbrgrp> is not included in those two datasets so far. The provision of exact geographical coordinates of all the described locations of ticks and tick-borne pathogens should be standard in all modern papers. Georeferences may be included in digital datasets and used in subsequent studies, especially in those investigating the spatio-temporal distributions of ticks on a continental scale. For Germany, however, such comprehensive data as presented for Belgium <abbrgrp>
                <abbr bid="B10">10</abbr>
             </abbrgrp> are missing so far. To reduce these shortcomings a literature study on georeferenced tick locations was performed. Results comprise of coordinates extracted from recent papers, extracted from restricted papers mainly published in German language, digitized from historical hand-drawn maps and added from unpublished material, i.e. kindly provided by colleagues.</p>
          <p>Digitized locations, of course, are of lower accuracy than locations described by geographical coordinates determined by GPS in the field. Thus, accuracy measures were given for all data referenced in Table&#160;<tblr tid="T1">1</tblr>. It is distinguished between high (h), medium (m), low (l) and unknown (u) accuracy. A high accuracy (&#177;30&#160;m) was allocated to coordinates given in degrees, minutes and seconds or in decimal degrees with at least 4&#8211;5 relevant decimal places. A medium accuracy (&#177;1&#160;km) was assumed for coordinates given in degrees and minutes or in decimal degrees with at least 2&#8211;3 relevant decimal places. A medium accuracy was also assumed for ticks collected from animals (e.g. deer, dogs) or humans and for coordinates digitized from local maps. Coordinates digitized from regional maps were classified as low-accuracy data (&#177;10&#160;km).
                </p>
          
             <table id="T1">
                <title>
                   <p>Table 1</p>
                </title>
                <caption>
                   <p>
                          <b>Number of georeferenced ixodid tick sampling sites in Germany compiled in this study</b>                        
                   </p>
                </caption>
                <tgroup align="left" cols="4">
                   <colspec align="left" colname="c1" colnum="1" colwidth="*"/>
                   <colspec align="left" colname="c2" colnum="2" colwidth="*"/>
                   <colspec align="left" colname="c3" colnum="3" colwidth="*"/>
                   <colspec align="left" colname="c4" colnum="4" colwidth="*"/>
                   <thead>
                      <row valign="top">
                         <entry colname="c1">
                            <p>
                              <b>No. Sites</b>                            
                            </p>
                         </entry>
                         <entry colname="c2">
                            <p>
                              <b>Species</b>                            
                            </p>
                         </entry>
                         <entry colname="c3">
                            <p>
                              <b>Accuracy</b>                            
                            </p>
                         </entry>
                         <entry colname="c4">
                            <p>
                              <b>References</b>                            
                            </p>
                         </entry>
                      </row>
                   </thead>
                   <tfoot>
                      <p>Sampling sites not referenced were contributed by the authors MM (639 sites in Lower Saxony), HD and OK (31 sites in Berlin and in the federal state of Brandenburg).</p>
                   </tfoot>
                   <tbody>
                      <row valign="top">
                         <entry colname="c1">
                            <p>661</p>
                         </entry>
                         <entry colname="c2">
                            <p>
                              <it>I. ricinus</it>                            
                            </p>
                         </entry>
                         <entry colname="c3">
                            <p>h</p>
                         </entry>
                         <entry colname="c4">
                            <p>MM, OK</p>
                         </entry>
                      </row>
                      <row valign="top">
                         <entry colname="c1">
                            <p>1</p>
                         </entry>
                         <entry colname="c2">
                            <p>
                              <it>I. ricinus</it>                            
                            </p>
                         </entry>
                         <entry colname="c3">
                            <p>h</p>
                         </entry>
                         <entry colname="c4">
                            <p>
                               <abbrgrp>
                                  <abbr bid="B4">4</abbr>
                               </abbrgrp>
                            </p>
                         </entry>
                      </row>
                      <row valign="top">
                         <entry colname="c1">
                            <p>13</p>
                         </entry>
                         <entry colname="c2">
                            <p>
                              <it>I. ricinus</it>                            
                            </p>
                         </entry>
                         <entry colname="c3">
                            <p>h</p>
                         </entry>
                         <entry colname="c4">
                            <p>
                               <abbrgrp>
                                  <abbr bid="B11">11</abbr>
                               </abbrgrp>
                            </p>
                         </entry>
                      </row>
                      <row valign="top">
                         <entry colname="c1">
                            <p>217</p>
                         </entry>
                         <entry colname="c2">
                            <p>
                              <it>I. ricinus</it>                            
                            </p>
                         </entry>
                         <entry colname="c3">
                            <p>u</p>
                         </entry>
                         <entry colname="c4">
                            <p>
                               <abbrgrp>
                                  <abbr bid="B9">9</abbr>
                               </abbrgrp>,<abbrgrp>
                                  <abbr bid="B12">12</abbr>
                               </abbrgrp>
                            </p>
                         </entry>
                      </row>
                      <row valign="top">
                         <entry colname="c1">
                            <p>8</p>
                         </entry>
                         <entry colname="c2">
                            <p>
                              <it>I. ricinus</it>                            
                            </p>
                         </entry>
                         <entry colname="c3">
                            <p>h</p>
                         </entry>
                         <entry colname="c4">
                            <p>
                               <abbrgrp>
                                  <abbr bid="B13">13</abbr>
                               </abbrgrp>
                            </p>
                         </entry>
                      </row>
                      <row valign="top">
                         <entry colname="c1">
                            <p>10</p>
                         </entry>
                         <entry colname="c2">
                            <p>
                              <it>I. ricinus</it>                            
                            </p>
                         </entry>
                         <entry colname="c3">
                            <p>h</p>
                         </entry>
                         <entry colname="c4">
                            <p>
                               <abbrgrp>
                                  <abbr bid="B14">14</abbr>
                               </abbrgrp>
                            </p>
                         </entry>
                      </row>
                      <row valign="top">
                         <entry colname="c1">
                            <p>776</p>
                         </entry>
                         <entry colname="c2">
                            <p>
                              <it>I. ricinus</it>                            
                            </p>
                         </entry>
                         <entry colname="c3">
                            <p>u</p>
                         </entry>
                         <entry colname="c4">
                            <p>
                               <abbrgrp>
                                  <abbr bid="B3">3</abbr>
                               </abbrgrp>
                            </p>
                         </entry>
                      </row>
                      <row valign="top">
                         <entry colname="c1">
                            <p>6</p>
                         </entry>
                         <entry colname="c2">
                            <p>
                              <it>I. ricinus</it>                            
                            </p>
                         </entry>
                         <entry colname="c3">
                            <p>h</p>
                         </entry>
                         <entry colname="c4">
                            <p>
                               <abbrgrp>
                                  <abbr bid="B15">15</abbr>
                               </abbrgrp>
                            </p>
                         </entry>
                      </row>
                      <row valign="top">
                         <entry colname="c1">
                            <p>6</p>
                         </entry>
                         <entry colname="c2">
                            <p>
                              <it>I. ricinus</it>                            
                            </p>
                         </entry>
                         <entry colname="c3">
                            <p>h</p>
                         </entry>
                         <entry colname="c4">
                            <p>
                               <abbrgrp>
                                  <abbr bid="B16">16</abbr>
                               </abbrgrp>,<abbrgrp>
                                  <abbr bid="B17">17</abbr>
                               </abbrgrp>
                            </p>
                         </entry>
                      </row>
                      <row valign="top">
                         <entry colname="c1">
                            <p>20</p>
                         </entry>
                         <entry colname="c2">
                            <p>
                              <it>I. ricinus</it>                            
                            </p>
                         </entry>
                         <entry colname="c3">
                            <p>h</p>
                         </entry>
                         <entry colname="c4">
                            <p>
                               <abbrgrp>
                                  <abbr bid="B18">18</abbr>
                               </abbrgrp>
                            </p>
                         </entry>
                      </row>
                      <row valign="top">
                         <entry colname="c1">
                            <p>9</p>
                         </entry>
                         <entry colname="c2">
                            <p>
                              <it>I. ricinus</it>                            
                            </p>
                         </entry>
                         <entry colname="c3">
                            <p>h</p>
                         </entry>
                         <entry colname="c4">
                            <p>
                               <abbrgrp>
                                  <abbr bid="B19">19</abbr>
                               </abbrgrp>
                            </p>
                         </entry>
                      </row>
                      <row valign="top">
                         <entry colname="c1">
                            <p>5</p>
                         </entry>
                         <entry colname="c2">
                            <p>
                              <it>I. ricinus</it>                            
                            </p>
                         </entry>
                         <entry colname="c3">
                            <p>h</p>
                         </entry>
                         <entry colname="c4">
                            <p>
                               <abbrgrp>
                                  <abbr bid="B20">20</abbr>
                               </abbrgrp>
                            </p>
                         </entry>
                      </row>
                      <row valign="top">
                         <entry colname="c1">
                            <p>58</p>
                         </entry>
                         <entry colname="c2">
                            <p>
                              <it>I. ricinus</it>                            
                            </p>
                         </entry>
                         <entry colname="c3">
                            <p>l</p>
                         </entry>
                         <entry colname="c4">
                            <p>
                               <abbrgrp>
                                  <abbr bid="B21">21</abbr>
                               </abbrgrp>
                            </p>
                         </entry>
                      </row>
                      <row valign="top">
                         <entry colname="c1">
                            <p>64</p>
                         </entry>
                         <entry colname="c2">
                            <p>
                              <it>I. ricinus</it>                            
                            </p>
                         </entry>
                         <entry colname="c3">
                            <p>l</p>
                         </entry>
                         <entry colname="c4">
                            <p>
                               <abbrgrp>
                                  <abbr bid="B22">22</abbr>
                               </abbrgrp>
                            </p>
                         </entry>
                      </row>
                      <row valign="top">
                         <entry colname="c1">
                            <p>1</p>
                         </entry>
                         <entry colname="c2">
                            <p>
                              <it>I. ricinus</it>                            
                            </p>
                         </entry>
                         <entry colname="c3">
                            <p>m</p>
                         </entry>
                         <entry colname="c4">
                            <p>
                               <abbrgrp>
                                  <abbr bid="B23">23</abbr>
                               </abbrgrp>
                            </p>
                         </entry>
                      </row>
                      <row valign="top">
                         <entry colname="c1">
                            <p>1</p>
                         </entry>
                         <entry colname="c2">
                            <p>I.apronophorus</p>
                         </entry>
                         <entry colname="c3">
                            <p>m</p>
                         </entry>
                         <entry colname="c4">
                            <p>
                               <abbrgrp>
                                  <abbr bid="B23">23</abbr>
                               </abbrgrp>
                            </p>
                         </entry>
                      </row>
                      <row valign="top">
                         <entry colname="c1">
                            <p>1</p>
                         </entry>
                         <entry colname="c2">
                            <p>
                              <it>I. frontalis</it>                            
                            </p>
                         </entry>
                         <entry colname="c3">
                            <p>h</p>
                         </entry>
                         <entry colname="c4">
                            <p>
                               <abbrgrp>
                                  <abbr bid="B24">24</abbr>
                               </abbrgrp>
                            </p>
                         </entry>
                      </row>
                      <row valign="top">
                         <entry colname="c1">
                            <p>1</p>
                         </entry>
                         <entry colname="c2">
                            <p>
                              <it>I. hexagonus</it>                            
                            </p>
                         </entry>
                         <entry colname="c3">
                            <p>h</p>
                         </entry>
                         <entry colname="c4">
                            <p>
                               <abbrgrp>
                                  <abbr bid="B4">4</abbr>
                               </abbrgrp>
                            </p>
                         </entry>
                      </row>
                      <row valign="top">
                         <entry colname="c1">
                            <p>3</p>
                         </entry>
                         <entry colname="c2">
                            <p>
                              <it>I. trianguliceps</it>                            
                            </p>
                         </entry>
                         <entry colname="c3">
                            <p>h</p>
                         </entry>
                         <entry colname="c4">
                            <p>
                               <abbrgrp>
                                  <abbr bid="B16">16</abbr>
                               </abbrgrp>,<abbrgrp>
                                  <abbr bid="B17">17</abbr>
                               </abbrgrp>
                            </p>
                         </entry>
                      </row>
                      <row valign="top">
                         <entry colname="c1">
                            <p>1</p>
                         </entry>
                         <entry colname="c2">
                            <p>
                              <it>I. trianguliceps</it>                            
                            </p>
                         </entry>
                         <entry colname="c3">
                            <p>m</p>
                         </entry>
                         <entry colname="c4">
                            <p>
                               <abbrgrp>
                                  <abbr bid="B23">23</abbr>
                               </abbrgrp>
                            </p>
                         </entry>
                      </row>
                      <row valign="top">
                         <entry colname="c1">
                            <p>2</p>
                         </entry>
                         <entry colname="c2">
                            <p>
                              <it>D. marginatus</it>                            
                            </p>
                         </entry>
                         <entry colname="c3">
                            <p>h</p>
                         </entry>
                         <entry colname="c4">
                            <p>
                               <abbrgrp>
                                  <abbr bid="B25">25</abbr>
                               </abbrgrp>
                            </p>
                         </entry>
                      </row>
                      <row valign="top">
                         <entry colname="c1">
                            <p>75</p>
                         </entry>
                         <entry colname="c2">
                            <p>
                              <it>D. marginatus</it>                            
                            </p>
                         </entry>
                         <entry colname="c3">
                            <p>l</p>
                         </entry>
                         <entry colname="c4">
                            <p>
                               <abbrgrp>
                                  <abbr bid="B26">26</abbr>
                               </abbrgrp>
                            </p>
                         </entry>
                      </row>
                      <row valign="top">
                         <entry colname="c1">
                            <p>6</p>
                         </entry>
                         <entry colname="c2">
                            <p>
                              <it>D. reticulatus</it>                            
                            </p>
                         </entry>
                         <entry colname="c3">
                            <p>h</p>
                         </entry>
                         <entry colname="c4">
                            <p>HD, MM</p>
                         </entry>
                      </row>
                      <row valign="top">
                         <entry colname="c1">
                            <p>2</p>
                         </entry>
                         <entry colname="c2">
                            <p>
                              <it>D. reticulatus</it>                            
                            </p>
                         </entry>
                         <entry colname="c3">
                            <p>h</p>
                         </entry>
                         <entry colname="c4">
                            <p>
                               <abbrgrp>
                                  <abbr bid="B11">11</abbr>
                               </abbrgrp>
                            </p>
                         </entry>
                      </row>
                      <row valign="top">
                         <entry colname="c1">
                            <p>4</p>
                         </entry>
                         <entry colname="c2">
                            <p>
                              <it>D. reticulatus</it>                            
                            </p>
                         </entry>
                         <entry colname="c3">
                            <p>h</p>
                         </entry>
                         <entry colname="c4">
                            <p>
                               <abbrgrp>
                                  <abbr bid="B13">13</abbr>
                               </abbrgrp>
                            </p>
                         </entry>
                      </row>
                      <row valign="top">
                         <entry colname="c1">
                            <p>6</p>
                         </entry>
                         <entry colname="c2">
                            <p>
                              <it>D. reticulatus</it>                            
                            </p>
                         </entry>
                         <entry colname="c3">
                            <p>h</p>
                         </entry>
                         <entry colname="c4">
                            <p>
                               <abbrgrp>
                                  <abbr bid="B27">27</abbr>
                               </abbrgrp>
                            </p>
                         </entry>
                      </row>
                      <row valign="top">
                         <entry colname="c1">
                            <p>10</p>
                         </entry>
                         <entry colname="c2">
                            <p>
                              <it>D. reticulatus</it>                            
                            </p>
                         </entry>
                         <entry colname="c3">
                            <p>m</p>
                         </entry>
                         <entry colname="c4">
                            <p>
                               <abbrgrp>
                                  <abbr bid="B28">28</abbr>
                               </abbrgrp>
                            </p>
                         </entry>
                      </row>
                      <row valign="top">
                         <entry colname="c1">
                            <p>2</p>
                         </entry>
                         <entry colname="c2">
                            <p>
                              <it>D. reticulatus</it>                            
                            </p>
                         </entry>
                         <entry colname="c3">
                            <p>h</p>
                         </entry>
                         <entry colname="c4">
                            <p>
                               <abbrgrp>
                                  <abbr bid="B16">16</abbr>
                               </abbrgrp>,<abbrgrp>
                                  <abbr bid="B17">17</abbr>
                               </abbrgrp>
                            </p>
                         </entry>
                      </row>
                      <row valign="top">
                         <entry colname="c1">
                            <p>28</p>
                         </entry>
                         <entry colname="c2">
                            <p>
                              <it>D. reticulatus</it>                            
                            </p>
                         </entry>
                         <entry colname="c3">
                            <p>h</p>
                         </entry>
                         <entry colname="c4">
                            <p>
                               <abbrgrp>
                                  <abbr bid="B7">7</abbr>
                               </abbrgrp>
                            </p>
                         </entry>
                      </row>
                      <row valign="top">
                         <entry colname="c1">
                            <p>242</p>
                         </entry>
                         <entry colname="c2">
                            <p>
                              <it>D. reticulatus</it>                            
                            </p>
                         </entry>
                         <entry colname="c3">
                            <p>h</p>
                         </entry>
                         <entry colname="c4">
                            <p>
                               <abbrgrp>
                                  <abbr bid="B25">25</abbr>
                               </abbrgrp>
                            </p>
                         </entry>
                      </row>
                      <row valign="top">
                         <entry colname="c1">
                            <p>2</p>
                         </entry>
                         <entry colname="c2">
                            <p>
                              <it>D. reticulatus</it>                            
                            </p>
                         </entry>
                         <entry colname="c3">
                            <p>m</p>
                         </entry>
                         <entry colname="c4">
                            <p>
                               <abbrgrp>
                                  <abbr bid="B5">5</abbr>
                               </abbrgrp>,<abbrgrp>
                                  <abbr bid="B6">6</abbr>
                               </abbrgrp>
                            </p>
                         </entry>
                      </row>
                      <row valign="top">
                         <entry colname="c1">
                            <p>9</p>
                         </entry>
                         <entry colname="c2">
                            <p>
                              <it>D. reticulatus</it>                            
                            </p>
                         </entry>
                         <entry colname="c3">
                            <p>l</p>
                         </entry>
                         <entry colname="c4">
                            <p>
                               <abbrgrp>
                                  <abbr bid="B29">29</abbr>
                               </abbrgrp>
                            </p>
                         </entry>
                      </row>
                      <row valign="top">
                         <entry colname="c1">
                            <p>2</p>
                         </entry>
                         <entry colname="c2">
                            <p>
                              <it>D. reticulatus</it>                            
                            </p>
                         </entry>
                         <entry colname="c3">
                            <p>l</p>
                         </entry>
                         <entry colname="c4">
                            <p>
                               <abbrgrp>
                                  <abbr bid="B22">22</abbr>
                               </abbrgrp>
                            </p>
                         </entry>
                      </row>
                      <row valign="top">
                         <entry colname="c1">
                            <p>1</p>
                         </entry>
                         <entry colname="c2">
                            <p>
                              <it>D. reticulatus</it>                            
                            </p>
                         </entry>
                         <entry colname="c3">
                            <p>l</p>
                         </entry>
                         <entry colname="c4">
                            <p>
                               <abbrgrp>
                                  <abbr bid="B30">30</abbr>
                               </abbrgrp>
                            </p>
                         </entry>
                      </row>
                      <row valign="top">
                         <entry colname="c1">
                            <p>3</p>
                         </entry>
                         <entry colname="c2">
                            <p>
                              <it>Ha. concinna</it>                            
                            </p>
                         </entry>
                         <entry colname="c3">
                            <p>h</p>
                         </entry>
                         <entry colname="c4">
                            <p>HD, MM</p>
                         </entry>
                      </row>
                      <row valign="top">
                         <entry colname="c1">
                            <p>1</p>
                         </entry>
                         <entry colname="c2">
                            <p>
                              <it>Ha. concinna</it>                            
                            </p>
                         </entry>
                         <entry colname="c3">
                            <p>h</p>
                         </entry>
                         <entry colname="c4">
                            <p>
                               <abbrgrp>
                                  <abbr bid="B4">4</abbr>
                               </abbrgrp>
                            </p>
                         </entry>
                      </row>
                      <row valign="top">
                         <entry colname="c1">
                            <p>1</p>
                         </entry>
                         <entry colname="c2">
                            <p>
                              <it>Ha. concinna</it>                            
                            </p>
                         </entry>
                         <entry colname="c3">
                            <p>h</p>
                         </entry>
                         <entry colname="c4">
                            <p>
                               <abbrgrp>
                                  <abbr bid="B13">13</abbr>
                               </abbrgrp>
                            </p>
                         </entry>
                      </row>
                      <row valign="top">
                         <entry colname="c1">
                            <p>3</p>
                         </entry>
                         <entry colname="c2">
                            <p>
                              <it>Ha. concinna</it>                            
                            </p>
                         </entry>
                         <entry colname="c3">
                            <p>l</p>
                         </entry>
                         <entry colname="c4">
                            <p>
                               <abbrgrp>
                                  <abbr bid="B22">22</abbr>
                               </abbrgrp>
                            </p>
                         </entry>
                      </row>
                      <row valign="top">
                         <entry colname="c1">
                            <p>1</p>
                         </entry>
                         <entry colname="c2">
                            <p>
                              <it>Hy. marginatum</it>                            
                            </p>
                         </entry>
                         <entry colname="c3">
                            <p>h</p>
                         </entry>
                         <entry colname="c4">
                            <p>
                               <abbrgrp>
                                  <abbr bid="B31">31</abbr>
                               </abbrgrp>
                            </p>
                         </entry>
                      </row>
                      <row valign="top">
                         <entry colname="c1">
                            <p>2,044</p>
                         </entry>
                         <entry colname="c2">
                            <p>Total</p>
                         </entry>
                         <entry colname="c3"/>
                         <entry colname="c4"/>
                      </row>
                   </tbody>
                </tgroup>
             </table>
          
       </sec>
       <sec>
          <st>
             <p>Findings</p>
          </st>
          <p>A total of 2,044 geographical coordinates for <it>Ixodes</it>, Dermacentor, <it>Haemaphysalis</it> and <it>Hyalomma</it> tick locations was included (Table&#160;<tblr tid="T1">1</tblr>) and depicted in a map (Figure&#160;<figr fid="F1">1</figr>). These coordinates include 1,855 <it>I. ricinus</it> locations, by far the most widespread and abundant ixodid tick species in Germany, occurring in the whole federal territory. A large number of georeferenced locations were taken from two already existing datasets. The first dataset, the free open access to biodiversity data collection of the <it>Global Biodiversity Information Facility</it> 
             <abbrgrp>
                <abbr bid="B9">9</abbr>
             </abbrgrp>,<abbrgrp>
                <abbr bid="B12">12</abbr>
             </abbrgrp>, lists 217 <it>I. ricinus</it> locations. The second dataset <abbrgrp>
                <abbr bid="B3">3</abbr>
             </abbrgrp> comprises 776 <it>I. ricinus</it> locations. These datasets complement one another very well. Duplicates (exact matches) within and between the datasets were eliminated. Further, 661 <it>I. ricinus</it> locations were added from recent tick monitoring projects, 79 locations were extracted from the literature and 122 locations were digitized from a hand-drawn map <abbrgrp>
                <abbr bid="B22">22</abbr>
             </abbrgrp>. Finally, 8 locations of rare <it>Ixodes</it> species were included, among them the first record of <it>I. frontalis</it> in Germany <abbrgrp>
                <abbr bid="B24">24</abbr>
             </abbrgrp>. The number of findings of rare <it>Ixodes</it> species is low because in most tick monitoring programs they were not explicitly determined.
                </p>
          
             <fig id="F1">
                <title>
                   <p>Figure 1</p>
                </title>
                <caption>
                   <p>Map of georeferenced hard tick locations in Germany. </p>
                </caption>
                <text>
                   <p>
                          <b>Map of georeferenced hard tick locations in Germany.</b>                        
                   </p>
                </text>
                <graphic file="s13071-014-0477-7-1"/>
             </fig>
          
          <p>Two further at least regionally abundant tick species in Germany are <it>Dermacentor marginatus</it> and <it>Dermacentor reticulatus</it>. For <it>D. marginatus</it>, however, only two locations specified by geographical coordinates were provided <abbrgrp>
                <abbr bid="B25">25</abbr>
             </abbrgrp>. Therefore, a historical hand-drawn map <abbrgrp>
                <abbr bid="B26">26</abbr>
             </abbrgrp> was digitized to depict the well-known sources in the Rhine Valley. The latter is characterized by a warmer and dryer climate than usually found in Germany. It may be described as an extension of the Mediterranean climate to the north, a suitable habitat for the more thermophilic <it>D. marginatus</it>. The locations of <it>D. marginatus</it> were confirmed in 1990 by two of the authors, O. Kahl and H. Dautel, who found high numbers of <it>D. marginatus</it> in the region of Hammelburg (50.1&#176; N, 9.9&#176; O), unfortunately without documenting coordinates of the sampling sites. <it>D. reticulatus</it>, in Germany known as the marsh tick, was found in various habitats such as wastelands and meadows in many parts of Germany, except for most parts of northern Germany. It is particularly widespread and common in the federal states of Brandenburg and Berlin <abbrgrp>
                <abbr bid="B7">7</abbr>
             </abbrgrp>,<abbrgrp>
                <abbr bid="B25">25</abbr>
             </abbrgrp>. Further locations cluster in the Rhine Valley <abbrgrp>
                <abbr bid="B25">25</abbr>
             </abbrgrp> and in the Saarland <abbrgrp>
                <abbr bid="B28">28</abbr>
             </abbrgrp>.</p>
          <p>Additionally, 8 georeferenced locations of the relict tick <it>Haemaphysalis concinna</it> and 1 location of <it>Hyalomma marginatum</it>, the first report of an adult individual of that species in Germany <abbrgrp>
                <abbr bid="B31">31</abbr>
             </abbrgrp>, were included in the data collection. Further ixodid tick species listed for the fauna of Germany comprise <it>Ixodes arboricola</it>, <it>I. canisuga, I. lividus, I. uriae, I. vespertilionis</it> and <it>Haemaphysalis punctata</it> 
             <abbrgrp>
                <abbr bid="B8">8</abbr>
             </abbrgrp>. No georeferenced data were available for these species.</p>
       </sec>
       <sec>
          <st>
             <p>Conclusions</p>
          </st>
          <p>A new map of ixodid tick distributions in Germany is presented. The map was exclusively compiled from georeferenced locations, which are provided to the scientific community via a digital dataset (see Additional file <supplr sid="S1">1</supplr>). The most abundant species are <it>I. ricinus, D. marginatus</it> and <it>D. reticulatus</it>. The first record of a questing adult <it>Hy. marginatum</it>, a tick frequently transported by migratory birds into Germany as a larva or nymph <abbrgrp>
                <abbr bid="B32">32</abbr>
             </abbrgrp>, is noteworthy <abbrgrp>
                <abbr bid="B31">31</abbr>
             </abbrgrp>. This unfed female of <it>Hy. marginatum</it> was found on the leg of an ornithologist living in the vicinity of Lake Constance, a well-known resting place for migratory birds at the German-Swiss border. Note that this finding of <it>Hy. marginatum</it> in Germany is not an isolated case. A second adult individual was found in the neighbouring Switzerland <abbrgrp>
                <abbr bid="B3">3</abbr>
             </abbrgrp>.</p><p>The brown dog tick <it>Rhipicephalus sanguineus</it>, a species complex endemic in the Mediterranean and other warm areas worldwide, was not considered here, although it is frequently introduced to Germany by traveling dogs. Various studies on <it>R. sanguineus</it> in Germany are available. For example, 60 tick-infested dogs, 17 of which had never left Germany, were investigated <abbrgrp>
                <abbr bid="B33">33</abbr>
             </abbrgrp>. The study confirmed 16 small endemic foci in private homes and animal shelters. Nevertheless, no outdoor locations of <it>R. sanguineus</it> have been documented in Germany and in other central or north European countries so far <abbrgrp>
                <abbr bid="B34">34</abbr>
             </abbrgrp>.</p>
          <p>We know that there are many more non-georeferenced ixodid tick sites described in Germany in the literature and also more ixodid tick species than listed in this study <abbrgrp>
                <abbr bid="B8">8</abbr>
             </abbrgrp>,<abbrgrp>
                <abbr bid="B35">35</abbr>
             </abbrgrp>. It is an ongoing project to fill our tick map with old and new georeferenced data to make it even more useful. To document the existing knowledge about past and current tick distributions is an important basis to project current potential distributions and to model future distributions especially of prominent vector tick species.</p>
       </sec>
       <sec>
          <st>
             <p>Competing interests</p>
          </st>
          <p>The authors declare that they have no competing interests.</p>
       </sec>
       <sec>
          <st>
             <p>Authors&#8217; contributions</p>
          </st>
          <p>The study was designed by FR, the data collected and analyzed by FR, SL, BH and KB, the map compiled by KB and the paper written by FR and OK. MM, BH, OK and HD placed their own data. All authors read and approved the final version of the manuscript.</p>
       </sec>
       <sec>
          <st>
             <p>Additional file</p>
          </st>
          <suppl id="S1">
             <title>
                <p>Additional file 1:</p>
             </title>
             <text>
                <p>
                              <b>Georeferenced locations of ixodid ticks.</b> Digital data compiled for this study comprising geographical longitude, latitude, species, accuracy and source.</p>
             </text>
             <file name="s13071-014-0477-7-S1.xlsx">
                <p>Click here for file</p>
             </file>
          </suppl>
          <p>
                    
                  </p>
       </sec>
    </bdy>
    <bm>
       <ack>
          <sec>
             <st>
                <p>Acknowledgements</p>
             </st>
             <p>We are grateful to Peter Hagedorn, Martin Pfeffer, Kurt Pfister, Michaela Schulz and Jochen S&#252;ss for providing information on their tick sampling sites. The study was performed on behalf of the Federal Environment Agency within the UFOPLAN (FKZ 3713 48 402) and financed by the Federal Ministry for the Environment, Nature Conservation, Building and Nuclear Safety. Digital data will be archived, supplemented and provided by the Federal Environment Agency.</p>
          </sec>
       </ack>
       <refgrp>
          
          <bibl id="B1">
             <title>
                <p>Driving forces for changes in geographical distribution of Ixodes ricinus ticks in Europe</p>
             </title>
             <aug>
                <au>
                   <snm>Medlock</snm>
                   <fnm>JM</fnm>
                </au>
                <au>
                   <snm>Hansford</snm>
                   <fnm>KM</fnm>
                </au>
                <au>
                   <snm>Bormane</snm>
                   <fnm>A</fnm>
                </au>
             </aug>
             <source>Parasit Vectors</source>
             <pubdate>2013</pubdate>
             <volume>6</volume>
             <fpage>1</fpage>
             <xrefbib>
                <pubidlist>
                   <pubid idtype="doi">10.1186/1756-3305-6-1</pubid>
                   <pubid idtype="pmpid" link="fulltext">23281838</pubid>
                </pubidlist>
             </xrefbib>
          </bibl>
          <bibl id="B2">
             <title>
                <p>Effects of global changes on the climatic niche of the tick Ixodes ricinus inferred by species distribution modelling</p>
             </title>
             <aug>
                <au>
                   <snm>Porretta</snm>
                   <fnm>D</fnm>
                </au>
                <au>
                   <snm>Mastrantonio</snm>
                   <fnm>V</fnm>
                </au>
                <au>
                   <snm>Amendolia</snm>
                   <fnm>S</fnm>
                </au>
                <au>
                   <snm>Gaiarsa</snm>
                   <fnm>S</fnm>
                </au>
                <au>
                   <snm>Epis</snm>
                   <fnm>S</fnm>
                </au>
                <au>
                   <snm>Genchi</snm>
                   <fnm>C</fnm>
                </au>
                <au>
                   <snm>Bandi</snm>
                   <fnm>C</fnm>
                </au>
                <au>
                   <snm>Otranto</snm>
                   <fnm>D</fnm>
                </au>
                <au>
                   <snm>Urbanelli</snm>
                   <fnm>S</fnm>
                </au>
             </aug>
             <source>Parasit Vectors</source>
             <pubdate>2013</pubdate>
             <volume>6</volume>
             <fpage>217</fpage>
             <xrefbib>
                <pubidlist>
                   <pubid idtype="doi">10.1186/1756-3305-6-217</pubid>
                </pubidlist>
             </xrefbib>
          </bibl>
          <bibl id="B3">
             <title>
                <p>Association of environmental traits with the geographic ranges of ticks (Acari: Ixodidae) of medical and veterinary importance in the western Palearctic. A digital data set</p>
             </title>
             <aug>
                <au>
                   <snm>Estrada-Pe&#241;a</snm>
                   <fnm>A</fnm>
                </au>
                <au>
                   <snm>Farkas</snm>
                   <fnm>R</fnm>
                </au>
                <au>
                   <snm>Jaenson</snm>
                   <fnm>TGT</fnm>
                </au>
                <au>
                   <snm>Koenen</snm>
                   <fnm>F</fnm>
                </au>
                <au>
                   <snm>Madder</snm>
                   <fnm>M</fnm>
                </au>
                <au>
                   <snm>Pascucci</snm>
                   <fnm>I</fnm>
                </au>
                <au>
                   <snm>Salman</snm>
                   <fnm>M</fnm>
                </au>
                <au>
                   <snm>Tarr&#233;s-Call</snm>
                   <fnm>J</fnm>
                </au>
                <au>
                   <snm>Jongejan</snm>
                   <fnm>F</fnm>
                </au>
             </aug>
             <source>Exp Appl Acaro</source>
             <pubdate>2013</pubdate>
             <volume>59</volume>
             <fpage>351</fpage>
             <lpage>366</lpage>
             <xrefbib>
                <pubidlist>
                   <pubid idtype="doi">10.1007/s10493-012-9600-7</pubid>
                </pubidlist>
             </xrefbib>
          </bibl>
          <bibl id="B4">
             <title>
                <p>Human tick infestation pattern, tick-bite rate, and associated Borrelia burgdorferi s.l. infection risk during occupational tick exposure at the Seedorf military training area, northwestern Germany</p>
             </title>
             <aug>
                <au>
                   <snm>Faulde</snm>
                   <fnm>MK</fnm>
                </au>
                <au>
                   <snm>Rutenfranz</snm>
                   <fnm>M</fnm>
                </au>
                <au>
                   <snm>Hepke</snm>
                   <fnm>J</fnm>
                </au>
                <au>
                   <snm>Rogge</snm>
                   <fnm>M</fnm>
                </au>
                <au>
                   <snm>G&#246;rner</snm>
                   <fnm>A</fnm>
                </au>
                <au>
                   <snm>Keth</snm>
                   <fnm>A</fnm>
                </au>
             </aug>
             <source>Ticks and Tick-borne Dis</source>
             <pubdate>2014</pubdate>
             <volume>5</volume>
             <fpage>594</fpage>
             <lpage>599</lpage>
             <xrefbib>
                <pubidlist>
                   <pubid idtype="doi">10.1016/j.ttbdis.2014.04.009</pubid>
                </pubidlist>
             </xrefbib>
          </bibl>
          <bibl id="B5">
             <title>
                <p>Risk of infection for dogs in Regensburg - A new endemic focus for Babesia canis and Dermacentor reticulatus in Germany (in German)</p>
             </title>
             <aug>
                <au>
                   <snm>Zahler</snm>
                   <fnm>M</fnm>
                </au>
                <au>
                   <snm>Loster</snm>
                   <fnm>F</fnm>
                </au>
                <au>
                   <snm>Merkle</snm>
                   <fnm>C</fnm>
                </au>
                <au>
                   <snm>Rinder</snm>
                   <fnm>H</fnm>
                </au>
                <au>
                   <snm>Gothe</snm>
                   <fnm>R</fnm>
                </au>
             </aug>
             <source>Tierarztl Prax</source>
             <pubdate>2000</pubdate>
             <volume>28</volume>
             <fpage>395</fpage>
             <lpage>398</lpage>
          </bibl>
          <bibl id="B6">
             <title>
                <p>Babesia canis and Dermacentor reticulatus in Munich - A new endemic focus in Germany (in German)</p>
             </title>
             <aug>
                <au>
                   <snm>Zahler</snm>
                   <fnm>M</fnm>
                </au>
                <au>
                   <snm>Steffenz</snm>
                   <fnm>T</fnm>
                </au>
                <au>
                   <snm>Lutz</snm>
                   <fnm>S</fnm>
                </au>
                <au>
                   <snm>H&#228;hnel</snm>
                   <fnm>W</fnm>
                </au>
                <au>
                   <snm>Rinder</snm>
                   <fnm>H</fnm>
                </au>
                <au>
                   <snm>Gothe</snm>
                   <fnm>R</fnm>
                </au>
             </aug>
             <source>Tierarztl Prax</source>
             <pubdate>2000</pubdate>
             <volume>28</volume>
             <fpage>116</fpage>
             <lpage>120</lpage>
          </bibl>
          <bibl id="B7">
             <title>
                <p>Evidence for an increased geographical distribution of Dermacentor reticulatus in Germany and detection of Rickettsia sp. RpA4</p>
             </title>
             <aug>
                <au>
                   <snm>Dautel</snm>
                   <fnm>H</fnm>
                </au>
                <au>
                   <snm>Dippel</snm>
                   <fnm>C</fnm>
                </au>
                <au>
                   <snm>Oehme</snm>
                   <fnm>R</fnm>
                </au>
                <au>
                   <snm>Hartelt</snm>
                   <fnm>K</fnm>
                </au>
                <au>
                   <snm>Schettler</snm>
                   <fnm>E</fnm>
                </au>
             </aug>
             <source>Int J Med Microbiol</source>
             <pubdate>2006</pubdate>
             <volume>296</volume>
             <issue>S1</issue>
             <fpage>149</fpage>
             <lpage>156</lpage>
             <xrefbib>
                <pubidlist>
                   <pubid idtype="doi">10.1016/j.ijmm.2006.01.013</pubid>
                   <pubid idtype="pmpid" link="fulltext">16524777</pubid>
                </pubidlist>
             </xrefbib>
          </bibl>
          <bibl id="B8">
             <title>
                <p>An annotated checklist of the ticks (Acari: Ixodida) of Germany</p>
             </title>
             <aug>
                <au>
                   <snm>Petney</snm>
                   <fnm>TN</fnm>
                </au>
                <au>
                   <snm>Pf&#228;ffle</snm>
                   <fnm>MP</fnm>
                </au>
                <au>
                   <snm>Skuballa</snm>
                   <fnm>JD</fnm>
                </au>
             </aug>
             <source>System Appl Acarol</source>
             <pubdate>2012</pubdate>
             <volume>17</volume>
             <fpage>115</fpage>
             <lpage>170</lpage>
             <xrefbib>
                <pubidlist>
                   <pubid idtype="doi">10.11158/saa.17.2.2</pubid>
                </pubidlist>
             </xrefbib>
          </bibl>
          <bibl id="B9">
             <title>
                <p>Global Biodiversity Information Facility</p>
             </title>
             <source>&#4447;</source>
             <pubdate>2014</pubdate>
             <volume>&#4447;</volume>
             <fpage>&#4447;</fpage>
             <note>[Free and open access to biodiversity data, available at 
                      
                      http://www.gbif.org
                      
                      , accessed 30 Jul 2014]</note>
          </bibl>
          <bibl id="B10">
             <title>
                <p>Spatial disaggregation of tick occurrence and ecology at a local scale as a preliminary step for spatial surveillance of tick-borne diseases: general framework and health implications in Belgium</p>
             </title>
             <aug>
                <au>
                   <snm>Obsomer</snm>
                   <fnm>V</fnm>
                </au>
                <au>
                   <snm>Wirtgen</snm>
                   <fnm>M</fnm>
                </au>
                <au>
                   <snm>Linden</snm>
                   <fnm>A</fnm>
                </au>
                <au>
                   <snm>Claerebout</snm>
                   <fnm>E</fnm>
                </au>
                <au>
                   <snm>Heyman</snm>
                   <fnm>P</fnm>
                </au>
                <au>
                   <snm>Heylen</snm>
                   <fnm>D</fnm>
                </au>
                <au>
                   <snm>Madder</snm>
                   <fnm>M</fnm>
                </au>
                <au>
                   <snm>Maris</snm>
                   <fnm>J</fnm>
                </au>
                <au>
                   <snm>Lebrun</snm>
                   <fnm>M</fnm>
                </au>
                <au>
                   <snm>Tack</snm>
                   <fnm>W</fnm>
                </au>
                <au>
                   <snm>Lempereur</snm>
                   <fnm>L</fnm>
                </au>
                <au>
                   <snm>Hance</snm>
                   <fnm>T</fnm>
                </au>
                <au>
                   <snm>Van Impe</snm>
                   <fnm>G</fnm>
                </au>
             </aug>
             <source>Parasit Vectors</source>
             <pubdate>2013</pubdate>
             <volume>6</volume>
             <fpage>190</fpage>
             <xrefbib>
                <pubidlist>
                   <pubid idtype="doi">10.1186/1756-3305-6-190</pubid>
                   <pubid idtype="pmpid" link="fulltext">23800283</pubid>
                </pubidlist>
             </xrefbib>
          </bibl>
          <bibl id="B11">
             <title>
                <p>Abundance and seasonal activity of questing Ixodes ricinus ticks in their natural habitats in southern Germany in 2011</p>
             </title>
             <aug>
                <au>
                   <snm>Schulz</snm>
                   <fnm>M</fnm>
                </au>
                <au>
                   <snm>Mahling</snm>
                   <fnm>M</fnm>
                </au>
                <au>
                   <snm>Pfister</snm>
                   <fnm>K</fnm>
                </au>
             </aug>
             <source>J Vector Ecol</source>
             <pubdate>2014</pubdate>
             <volume>39</volume>
             <fpage>56</fpage>
             <lpage>65</lpage>
             <xrefbib>
                <pubidlist>
                   <pubid idtype="doi">10.1111/j.1948-7134.2014.12070.x</pubid>
                   <pubid idtype="pmpid" link="fulltext">24820556</pubid>
                </pubidlist>
             </xrefbib>
          </bibl>
          <bibl id="B12">
             <title>
                <p>Interoperability of biodiversity databases: biodiversity information on every desktop</p>
             </title>
             <aug>
                <au>
                   <snm>Edwards</snm>
                   <fnm>JL</fnm>
                </au>
                <au>
                   <snm>Lane</snm>
                   <fnm>MA</fnm>
                </au>
                <au>
                   <snm>Nielsen</snm>
                   <fnm>E</fnm>
                </au>
             </aug>
             <source>Science</source>
             <pubdate>2000</pubdate>
             <volume>289</volume>
             <fpage>2312</fpage>
             <lpage>2314</lpage>
             <xrefbib>
                <pubidlist>
                   <pubid idtype="doi">10.1126/science.289.5488.2312</pubid>
                   <pubid idtype="pmpid" link="fulltext">11009409</pubid>
                </pubidlist>
             </xrefbib>
          </bibl>
          <bibl id="B13">
             <aug>
                <au>
                   <snm>Hagedorn</snm>
                   <fnm>P</fnm>
                </au>
             </aug>
             <source>Untersuchung von Zecken als Marker f&#252;r die Gef&#228;hrdung Durch von Ihnen &#220;bertragene Krankheiten</source>
             <pubdate>2013</pubdate>
          </bibl>
          <bibl id="B14">
             <title>
                <p>Anaplasma phagocytophilum and rickettsia spp. Infections in hard ticks (ixodes ricinus) in the city of Hanover (Germany): revisited</p>
             </title>
             <aug>
                <au>
                   <snm>Tappe</snm>
                   <fnm>J</fnm>
                </au>
                <au>
                   <snm>Strube</snm>
                   <fnm>C</fnm>
                </au>
             </aug>
             <source>Ticks and Tick-borne Dis</source>
             <pubdate>2013</pubdate>
             <volume>4</volume>
             <fpage>432</fpage>
             <lpage>438</lpage>
             <xrefbib>
                <pubidlist>
                   <pubid idtype="doi">10.1016/j.ttbdis.2013.04.009</pubid>
                </pubidlist>
             </xrefbib>
          </bibl>
          <bibl id="B15">
             <title>
                <p>Anaplasma phagocytophilum in questing Ixodes ricinus ticks: Comparison of prevalences and partial 16S rRNA gene variants in urban, pasture, and natural habitats</p>
             </title>
             <aug>
                <au>
                   <snm>Overzier</snm>
                   <fnm>E</fnm>
                </au>
                <au>
                   <snm>Pfister</snm>
                   <fnm>K</fnm>
                </au>
                <au>
                   <snm>Thiel</snm>
                   <fnm>C</fnm>
                </au>
                <au>
                   <snm>Herb</snm>
                   <fnm>I</fnm>
                </au>
                <au>
                   <snm>Mahling</snm>
                   <fnm>M</fnm>
                </au>
                <au>
                   <snm>Silaghi</snm>
                   <fnm>C</fnm>
                </au>
             </aug>
             <source>Appl Environm Microbiol</source>
             <pubdate>2013</pubdate>
             <volume>79</volume>
             <fpage>1730</fpage>
             <lpage>1734</lpage>
             <xrefbib>
                <pubidlist>
                   <pubid idtype="doi">10.1128/AEM.03300-12</pubid>
                </pubidlist>
             </xrefbib>
          </bibl>
          <bibl id="B16">
             <title>
                <p>Babesia spp. and Anaplasma phagocy tophilum in questing ticks, ticks parasitizing rodents and the parasitized rodents - Analyzing the host-pathogen-vector interface in a metropolitan area</p>
             </title>
             <aug>
                <au>
                   <snm>Silaghi</snm>
                   <fnm>C</fnm>
                </au>
                <au>
                   <snm>Woll</snm>
                   <fnm>D</fnm>
                </au>
                <au>
                   <snm>Hamel</snm>
                   <fnm>D</fnm>
                </au>
                <au>
                   <snm>Pfister</snm>
                   <fnm>K</fnm>
                </au>
                <au>
                   <snm>Mahling</snm>
                   <fnm>M</fnm>
                </au>
                <au>
                   <snm>Pfeffer</snm>
                   <fnm>M</fnm>
                </au>
             </aug>
             <source>Parasit Vectors</source>
             <pubdate>2012</pubdate>
             <volume>5</volume>
             <fpage>191</fpage>
             <xrefbib>
                <pubidlist>
                   <pubid idtype="doi">10.1186/1756-3305-5-191</pubid>
                   <pubid idtype="pmpid" link="fulltext">22950642</pubid>
                </pubidlist>
             </xrefbib>
          </bibl>
          <bibl id="B17">
             <aug>
                <au>
                   <snm>Pfeffer</snm>
                   <fnm>M</fnm>
                </au>
             </aug>
             <source>Personal Communication on Ticks Collected in the Environs of Leipzig, Germany</source>
             <pubdate>2014</pubdate>
          </bibl>
          <bibl id="B18">
             <aug>
                <au>
                   <snm>V&#246;gerl</snm>
                   <fnm>MB</fnm>
                </au>
             </aug>
             <source>Zecken und Zecken-&#220;bertragene Infektionskrankheiten in Niederbayern und der Oberpfalz</source>
             <pubdate>2013</pubdate>
          </bibl>
          <bibl id="B19">
             <title>
                <p>Prevalences of tick-borne encephalitis virus and Borrelia burgdorferi sensu lato in Ixodes ricinus populations of the Rhine-Main region, Germany</p>
             </title>
             <aug>
                <au>
                   <snm>Bingsohn</snm>
                   <fnm>L</fnm>
                </au>
                <au>
                   <snm>Beckert</snm>
                   <fnm>A</fnm>
                </au>
                <au>
                   <snm>Zehner</snm>
                   <fnm>R</fnm>
                </au>
                <au>
                   <snm>Kuch</snm>
                   <fnm>U</fnm>
                </au>
                <au>
                   <snm>Oehme</snm>
                   <fnm>R</fnm>
                </au>
                <au>
                   <snm>Kraiczy</snm>
                   <fnm>P</fnm>
                </au>
                <au>
                   <snm>Amendt</snm>
                   <fnm>J</fnm>
                </au>
             </aug>
             <source>Ticks and Tick-borne Dis</source>
             <pubdate>2013</pubdate>
             <volume>4</volume>
             <fpage>207</fpage>
             <lpage>213</lpage>
             <xrefbib>
                <pubidlist>
                   <pubid idtype="doi">10.1016/j.ttbdis.2012.11.012</pubid>
                </pubidlist>
             </xrefbib>
          </bibl>
          <bibl id="B20">
             <title>
                <p>Analysis of the distribution of the tick Ixodes ricinus L. (Acari:Ixodidae) in a nature reserve of western Germany using Geographic Information Systems</p>
             </title>
             <aug>
                <au>
                   <snm>Schwarz</snm>
                   <fnm>A</fnm>
                </au>
                <au>
                   <snm>Maier</snm>
                   <fnm>WA</fnm>
                </au>
                <au>
                   <snm>Kistemann</snm>
                   <fnm>T</fnm>
                </au>
                <au>
                   <snm>Kampen</snm>
                   <fnm>H</fnm>
                </au>
             </aug>
             <source>Int J Hyg Environ Health</source>
             <pubdate>2009</pubdate>
             <volume>212</volume>
             <fpage>87</fpage>
             <lpage>96</lpage>
             <xrefbib>
                <pubidlist>
                   <pubid idtype="doi">10.1016/j.ijheh.2007.12.001</pubid>
                   <pubid idtype="pmpid" link="fulltext">18262840</pubid>
                </pubidlist>
             </xrefbib>
          </bibl>
          <bibl id="B21">
             <title>
                <p>Prevalence of ticks in relation to their role as vector of Borrelia burgdorferi under autochthone conditions</p>
             </title>
             <aug>
                <au>
                   <snm>Gupta</snm>
                   <fnm>SK</fnm>
                </au>
                <au>
                   <snm>Sch&#246;nberg</snm>
                   <fnm>A</fnm>
                </au>
                <au>
                   <snm>Hiepe</snm>
                   <fnm>T</fnm>
                </au>
             </aug>
             <source>Appl Parasitol</source>
             <pubdate>1995</pubdate>
             <volume>36</volume>
             <fpage>97</fpage>
             <lpage>106</lpage>
             <xrefbib>
                <pubidlist>
                   <pubid idtype="pmpid" link="fulltext">7550446</pubid>
                </pubidlist>
             </xrefbib>
          </bibl>
          <bibl id="B22">
             <title>
                <p>Ixodes ricinus, Haemaphysalis concinna und Dermacentor reticulatus (Ixodida, Ixodidae) im DDR-Bezirk Leipzig</p>
             </title>
             <aug>
                <au>
                   <snm>Bauch</snm>
                   <fnm>R</fnm>
                </au>
             </aug>
             <source>Angew Parasitol</source>
             <pubdate>1990</pubdate>
             <volume>31</volume>
             <fpage>57</fpage>
             <lpage>64</lpage>
             <xrefbib>
                <pubidlist>
                   <pubid idtype="pmpid" link="fulltext">2389828</pubid>
                </pubidlist>
             </xrefbib>
          </bibl>
          <bibl id="B23">
             <title>
                <p>Untersuchungen zur Zeckenfauna der Kleins&#228;uger des Naturschutzgebietes Hagenburger Moor</p>
             </title>
             <aug>
                <au>
                   <snm>Walter</snm>
                   <fnm>G</fnm>
                </au>
             </aug>
             <source>Beitr Naturk Niedersachsen</source>
             <pubdate>1980</pubdate>
             <volume>33</volume>
             <fpage>99</fpage>
             <lpage>103</lpage>
          </bibl>
          <bibl id="B24">
             <title>
                <p>First record of Ixodes frontalis collected by flagging in Germany</p>
             </title>
             <aug>
                <au>
                   <snm>Schorn</snm>
                   <fnm>S</fnm>
                </au>
                <au>
                   <snm>Sch&#246;l</snm>
                   <fnm>H</fnm>
                </au>
                <au>
                   <snm>Pfister</snm>
                   <fnm>K</fnm>
                </au>
                <au>
                   <snm>Silaghi</snm>
                   <fnm>C</fnm>
                </au>
             </aug>
             <source>Ticks and Tick-borne Dis</source>
             <pubdate>2011</pubdate>
             <volume>2</volume>
             <fpage>228</fpage>
             <lpage>230</lpage>
             <xrefbib>
                <pubidlist>
                   <pubid idtype="doi">10.1016/j.ttbdis.2011.07.003</pubid>
                </pubidlist>
             </xrefbib>
          </bibl>
          <bibl id="B25">
             <aug>
                <au>
                   <snm>Menn</snm>
                   <fnm>B</fnm>
                </au>
             </aug>
             <source>Untersuchungen zur Verbreitung und &#214;kologie von Dermacentor Spec. (Ixodidae, Acari) in Deutschland</source>
             <pubdate>2006</pubdate>
          </bibl>
          <bibl id="B26">
             <title>
                <p>Zum Vorkommen und zur vektoriellen Bedeutung der Zecken Dermacentor marginatus (Sulzer, 1776) und Dermacentor reticulatus (Fabricius, 1794) in Deutschland</p>
             </title>
             <aug>
                <au>
                   <snm>Liebisch</snm>
                   <fnm>A</fnm>
                </au>
                <au>
                   <snm>Rahman</snm>
                   <fnm>MS</fnm>
                </au>
             </aug>
             <source>Tropenmed Parasitol</source>
             <pubdate>1976</pubdate>
             <volume>27</volume>
             <fpage>393</fpage>
             <lpage>404</lpage>
             <xrefbib>
                <pubidlist>
                   <pubid idtype="pmpid" link="fulltext">1006797</pubid>
                </pubidlist>
             </xrefbib>
          </bibl>
          <bibl id="B27">
             <aug>
                <au>
                   <snm>Meyer-Kayser</snm>
                   <fnm>E</fnm>
                </au>
             </aug>
             <source>Dynamik des Zeckenbefalls bei F&#252;chsen in Th&#252;ringen</source>
             <pubdate>2013</pubdate>
          </bibl>
          <bibl id="B28">
             <title>
                <p>Studie on the prevalence of Babesia canis canis in marsh ticks (Dermacentor reticulatus) in the Saarland (in German)</p>
             </title>
             <aug>
                <au>
                   <snm>Beelitz</snm>
                   <fnm>P</fnm>
                </au>
                <au>
                   <snm>Schumacher</snm>
                   <fnm>S</fnm>
                </au>
                <au>
                   <snm>Marholdt</snm>
                   <fnm>F</fnm>
                </au>
                <au>
                   <snm>Pfister</snm>
                   <fnm>K</fnm>
                </au>
                <au>
                   <snm>Silaghi</snm>
                   <fnm>C</fnm>
                </au>
             </aug>
             <source>Berl Munch Tierarztl Wochenschr</source>
             <pubdate>2012</pubdate>
             <volume>125</volume>
             <fpage>168</fpage>
             <lpage>171</lpage>
             <xrefbib>
                <pubidlist>
                   <pubid idtype="pmpid" link="fulltext">22515037</pubid>
                </pubidlist>
             </xrefbib>
          </bibl>
          <bibl id="B29">
             <title>
                <p>Zur Zeckenfauna Ostdeutschlands</p>
             </title>
             <aug>
                <au>
                   <snm>Cornely</snm>
                   <fnm>M</fnm>
                </au>
                <au>
                   <snm>Schultz</snm>
                   <fnm>U</fnm>
                </au>
             </aug>
             <source>Angew Parasitol</source>
             <pubdate>1992</pubdate>
             <volume>33</volume>
             <fpage>173</fpage>
             <lpage>183</lpage>
             <xrefbib>
                <pubidlist>
                   <pubid idtype="pmpid" link="fulltext">1416225</pubid>
                </pubidlist>
             </xrefbib>
          </bibl>
          <bibl id="B30">
             <title>
                <p>&#220;ber das Vorkommen von Dermacentor-Zecken (Ixodoidea) in der Schweiz</p>
             </title>
             <aug>
                <au>
                   <snm>Immler</snm>
                   <fnm>R</fnm>
                </au>
                <au>
                   <snm>Aeschlimann</snm>
                   <fnm>A</fnm>
                </au>
                <au>
                   <snm>B&#252;ttiker</snm>
                   <fnm>W</fnm>
                </au>
                <au>
                   <snm>Diehl</snm>
                   <fnm>PA</fnm>
                </au>
                <au>
                   <snm>Eichenberger</snm>
                   <fnm>G</fnm>
                </au>
                <au>
                   <snm>Weiss</snm>
                   <fnm>N</fnm>
                </au>
             </aug>
             <source>Bull Soc Entomol Suisse</source>
             <pubdate>1970</pubdate>
             <volume>43</volume>
             <fpage>99</fpage>
             <lpage>110</lpage>
          </bibl>
          <bibl id="B31">
             <title>
                <p>Detection of a questing Hyalomma marginatum marginatum adult female (Acari, Ixodidae) in southern Germany</p>
             </title>
             <aug>
                <au>
                   <snm>Kampen</snm>
                   <fnm>H</fnm>
                </au>
                <au>
                   <snm>Poltz</snm>
                   <fnm>W</fnm>
                </au>
                <au>
                   <snm>Hartelt</snm>
                   <fnm>K</fnm>
                </au>
                <au>
                   <snm>W&#246;lfel</snm>
                   <fnm>R</fnm>
                </au>
                <au>
                   <snm>Faulde</snm>
                   <fnm>M</fnm>
                </au>
             </aug>
             <source>Exp Appl Acarol</source>
             <pubdate>2007</pubdate>
             <volume>43</volume>
             <fpage>227</fpage>
             <lpage>231</lpage>
             <xrefbib>
                <pubidlist>
                   <pubid idtype="doi">10.1007/s10493-007-9113-y</pubid>
                   <pubid idtype="pmpid" link="fulltext">17952610</pubid>
                </pubidlist>
             </xrefbib>
          </bibl>
          <bibl id="B32">
             <title>
                <p>Ticks of the Hyalomma marginatum complex transported by migratory birds into Central Europe</p>
             </title>
             <aug>
                <au>
                   <snm>Capek</snm>
                   <fnm>M</fnm>
                </au>
                <au>
                   <snm>Literak</snm>
                   <fnm>I</fnm>
                </au>
                <au>
                   <snm>Kocianova</snm>
                   <fnm>E</fnm>
                </au>
                <au>
                   <snm>Sychra</snm>
                   <fnm>O</fnm>
                </au>
                <au>
                   <snm>Najer</snm>
                   <fnm>T</fnm>
                </au>
                <au>
                   <snm>Trnka</snm>
                   <fnm>A</fnm>
                </au>
                <au>
                   <snm>Kverek</snm>
                   <fnm>P</fnm>
                </au>
             </aug>
             <source>Ticks and Tick-borne Dis</source>
             <pubdate>2014</pubdate>
             <volume>5</volume>
             <fpage>489</fpage>
             <lpage>493</lpage>
             <xrefbib>
                <pubidlist>
                   <pubid idtype="doi">10.1016/j.ttbdis.2014.03.002</pubid>
                </pubidlist>
             </xrefbib>
          </bibl>
          <bibl id="B33">
             <title>
                <p>Rhipicephalus sanguineus (Ixodidae): Frequency of infestation and ehrlichial infections transmitted by this tick species in dogs in Germany; an epidemiological study and consideration (in German)</p>
             </title>
             <aug>
                <au>
                   <snm>Gothe</snm>
                   <fnm>R</fnm>
                </au>
             </aug>
             <source>Wien Tier&#228;rztl Mschr</source>
             <pubdate>1999</pubdate>
             <volume>86</volume>
             <fpage>49</fpage>
             <lpage>56</lpage>
          </bibl>
          <bibl id="B34">
             <title>
                <p>Systematics and ecology of the brown dog tick, Rhipicephalus sanguineus</p>
             </title>
             <aug>
                <au>
                   <snm>Gray</snm>
                   <fnm>J</fnm>
                </au>
                <au>
                   <snm>Dantas-Torres</snm>
                   <fnm>F</fnm>
                </au>
                <au>
                   <snm>Estrada-Pe&#241;a</snm>
                   <fnm>A</fnm>
                </au>
                <au>
                   <snm>Levin</snm>
                   <fnm>M</fnm>
                </au>
             </aug>
             <source>Ticks and Tick-borne Dis</source>
             <pubdate>2013</pubdate>
             <volume>4</volume>
             <fpage>171</fpage>
             <lpage>180</lpage>
             <xrefbib>
                <pubidlist>
                   <pubid idtype="doi">10.1016/j.ttbdis.2012.12.003</pubid>
                </pubidlist>
             </xrefbib>
          </bibl>
          <bibl id="B35">
             <title>
                <p>Fauna of Ixodid Ticks of the World (Acari, Ixodidae)</p>
             </title>
             <aug>
                <au>
                   <snm>Kolonin</snm>
                   <fnm>GV</fnm>
                </au>
             </aug>
             <source>&#4447;</source>
             <pubdate>2009</pubdate>
             <volume>&#4447;</volume>
             <fpage>&#4447;</fpage>
             <note>[Online publication available at 
                      
                      http://www.kolonin.org
                      
                      ]</note>
          </bibl>
       </refgrp>
    </bm>
 </art>