<art>
    <ui>s13065-014-0062-3</ui>
    <ji>1752-153X</ji>
    <fm>
       <dochead>Research article</dochead>
       <bibl>
          <title>
             <p>Characterization of the Vitrocell&#174; 24/48 <it>in vitro</it> aerosol exposure system using mainstream cigarette smoke</p>
          </title>
          <aug>
             <au ca="yes" id="A1">
                <snm>Majeed</snm>
                <fnm>Shoaib</fnm>
                <insr iid="I1"/>
                <email>Shoaib.Majeed@pmi.com</email>
             </au>
             <au id="A2">
                <snm>Frentzel</snm>
                <fnm>Stefan</fnm>
                <insr iid="I1"/>
                <email>Stefan.Frentzel@pmi.com</email>
             </au>
             <au id="A3">
                <snm>Wagner</snm>
                <fnm>Sandra</fnm>
                <insr iid="I2"/>
                <email>SandraWagner@eurofins.de</email>
             </au>
             <au id="A4">
                <snm>Kuehn</snm>
                <fnm>Diana</fnm>
                <insr iid="I1"/>
                <email>Diana.Kuehn@pmi.com</email>
             </au>
             <au id="A5">
                <snm>Leroy</snm>
                <fnm>Patrice</fnm>
                <insr iid="I1"/>
                <email>Patrice.Leroy@pmi.com</email>
             </au>
             <au id="A6">
                <snm>Guy</snm>
                <mi>A</mi>
                <fnm>Philippe</fnm>
                <insr iid="I1"/>
                <email>PhilippeAlexandre.Guy@pmi.com</email>
             </au>
             <au id="A7">
                <snm>Knorr</snm>
                <fnm>Arno</fnm>
                <insr iid="I1"/>
                <email>Arno.Knorr@pmi.com</email>
             </au>
             <au id="A8">
                <snm>Hoeng</snm>
                <fnm>Julia</fnm>
                <insr iid="I1"/>
                <email>Julia.Hoeng@pmi.com</email>
             </au>
             <au id="A9">
                <snm>Peitsch</snm>
                <mi>C</mi>
                <fnm>Manuel</fnm>
                <insr iid="I1"/>
                <email>Manuel.Peitsch@pmi.com</email>
             </au>
          </aug>
          <insg>
             <ins id="I1">
                <p>Philip Morris Research and Development, Quai Jeanrenaud 5, Neuch&#226;tel, 2000, Switzerland</p>
             </ins>
             <ins id="I2">
                <p>Eurofins Umwelt West GmbH, Vorgebirgsstra&#223;e 20, Wesseling, D-50389, Germany</p>
             </ins>
          </insg>
          <source>Chemistry Central Journal</source>
          <issn>1752-153X</issn>
          <pubdate>2014</pubdate>
          <volume>8</volume>
          <issue>1</issue>
          <fpage>62</fpage>
          <url>http://journal.chemistrycentral.com/content/8/1/62</url>
          <xrefbib>
             <pubidlist>
                <pubid idtype="doi">10.1186/s13065-014-0062-3</pubid>
             <pubid idtype="pmpid">25411580</pubid></pubidlist>
          </xrefbib>
       </bibl>
       <history>
          <rec>
             <date>
                <day>5</day>
                <month>6</month>
                <year>2014</year>
             </date>
          </rec>
          <acc>
             <date>
                <day>15</day>
                <month>10</month>
                <year>2014</year>
             </date>
          </acc>
          <pub>
             <date>
                <day>12</day>
                <month>11</month>
                <year>2014</year>
             </date>
          </pub>
       </history>
       <cpyrt>
          <year>2014</year>
          <collab>Majeed et al.; licensee Chemistry Central Ltd.</collab>
          <note>This is an Open Access article distributed under the terms of the Creative Commons Attribution License (<url>http://creativecommons.org/licenses/by/4.0</url>), which permits unrestricted use, distribution, and reproduction in any medium, provided the original work is properly credited. The Creative Commons Public Domain Dedication waiver (<url>http://creativecommons.org/publicdomain/zero/1.0/</url>) applies to the data made available in this article, unless otherwise stated.</note>
       </cpyrt>
       <kwdg>
          <kwd>Air&#8211;liquid interface</kwd>
          <kwd>Cigarette smoke</kwd>
          <kwd>Nicotine</kwd>
          <kwd>Carbonyl</kwd>
          <kwd>In vitro exposure system</kwd>
          <kwd>Vitrocell&#174;</kwd>
       </kwdg>
       <abs>
          <sec>
             <st>
                <p>Abstract</p>
             </st>
             <sec>
                <st>
                   <p>Background</p>
                </st>
                <p>Only a few exposure systems are presently available that enable cigarette smoke exposure of living cells at the air&#8211;liquid interface, of which one of the most versatile is the Vitrocell&#174; system (Vitrocell&#174; Systems GmbH). To assess its performance and optimize the exposure conditions, we characterized a Vitrocell&#174; 24/48 system connected to a 30-port carousel smoking machine. The Vitrocell&#174; 24/48 system allows for simultaneous exposure of 48 cell culture inserts using dilution airflow rates of 0&#8211;3.0&#160;L/min and exposes six inserts per dilution. These flow rates represent cigarette smoke concentrations of 7&#8211;100%.</p>
             </sec>
             <sec>
                <st>
                   <p>Results</p>
                </st>
                <p>By characterizing the exposure inside the Vitrocell&#174; 24/48, we verified that (I) the cigarette smoke aerosol distribution is uniform across all inserts, (II) the utility of Vitrocell&#174; crystal quartz microbalances for determining the online deposition of particle mass on the inserts, and (III) the amount of particles deposited per surface area and the amounts of trapped carbonyls and nicotine were concentration dependent. At a fixed dilution airflow of 0.5&#160;L/min, the results showed a coefficient of variation of 12.2% between inserts of the Vitrocell&#174; 24/48 module, excluding variations caused by different runs. Although nicotine and carbonyl concentrations were linear over the tested dilution range, particle mass deposition increased nonlinearly. The observed effect on cell viability was well-correlated with increasing concentration of cigarette smoke.</p>
             </sec>
             <sec>
                <st>
                   <p>Conclusions</p>
                </st>
                <p>Overall, the obtained results highlight the suitability of the Vitrocell&#174; 24/48 system to assess the effect of cigarette smoke on cells under air&#8211;liquid interface exposure conditions, which is closely related to the conditions occurring in human airways.</p>
             </sec>
          </sec>
       </abs>
    </fm>
    <bdy>
       <sec>
          <st>
             <p>Background</p>
          </st>
          <p>Cigarette smoke (CS) is a complex heterogeneous mixture of over 4000 compounds, of which at least 250 have known toxicological effects and are associated with various smoking-related diseases, including respiratory and cardiovascular disorders, and cancer <abbrgrp>
                <abbr bid="B1">1</abbr>
             </abbrgrp>. CS is composed of a gas&#8211;vapor and particulate phases, which contain different constituents. For example, the gas&#8211;vapor phase fraction contains high levels of aldehydes (carbonyls), whereas the particulate phase fraction contains polycyclic aromatic hydrocarbons <abbrgrp>
                <abbr bid="B2">2</abbr>
             </abbrgrp> and tobacco-specific nitrosamines <abbrgrp>
                <abbr bid="B2">2</abbr>
             </abbrgrp>,<abbrgrp>
                <abbr bid="B3">3</abbr>
             </abbrgrp> among other components.</p>
          <p>
             <it>In vitro</it> studies were designed to elucidate the potential adverse effects of individual components, smoke fractions, or whole smoke on exposed cells. Exposure to individual compounds of CS is usually performed in submerged cell culture systems. Furthermore, compound solutions can be easily diluted in culture media, which allows concentration-dependent effects to be determined. The particulate and gas&#8211;vapor phase fractions, trapped by either filter or in solution, are also well-suited for <it>in vitro</it> studies using submerged cell cultures systems. However, exposure to whole smoke aerosols <it>in vitro</it> is technically difficult and only feasible if the cells are located at the air&#8211;liquid interface (ALI). Unlike submerged cell cultures seeded on culture plates, cells growing at the ALI are seeded on porous membranes on culture inserts and are supplied with medium from their basal side, while their apical side is in contact with air. This cell culture system allows exposure to whole smoke, bringing the cells in direct contact with the gas&#8211;vapor as well as the particulate phase. Cell lines that were generally used for <it>in vitro</it> studies of cigarette smoke include A549 <abbrgrp>
                <abbr bid="B4">4</abbr>
             </abbrgrp>, BEAS-2B <abbrgrp>
                <abbr bid="B5">5</abbr>
             </abbrgrp> or 16HBE <abbrgrp>
                <abbr bid="B6">6</abbr>
             </abbrgrp> (at the ALI or as submerged cultures). A549 cells were initially grown from a human alveolar cell carcinoma. Their morphology resembles that of type II alveolar epithelial cells of the lung, and they produce lecithin with a high proportion of saturated fatty acids, similar to pulmonary surfactant <abbrgrp>
                <abbr bid="B4">4</abbr>
             </abbrgrp>. Ke et al. <abbrgrp>
                <abbr bid="B5">5</abbr>
             </abbrgrp> developed a cell line based on human bronchial epithelial cells, which were transfected with the SV40 virus T antigen genes and therefore have an extended culture lifespan. Although cell lines have the advantage that they can be expanded and grow faster to monolayers, three-dimensional (3D)-organotypic cell culture models better mimic the normal structure of the bronchial epithelium with a large ALI, which includes a pseudo-stratified phenotype containing ciliated and non-ciliated cells <abbrgrp>
                <abbr bid="B7">7</abbr>
             </abbrgrp>. However, the production of (3D)-organotypic cell cultures is not straight forward and takes considerable more time. For this reason and since epithelial cell lines can be also grown at ALI condition, we focused in the following work on A549 or BEAS-2B cells, in order to characterize smoke-dependent effects on cell viability.</p>
          <p>Although the particulate and gas&#8211;vapor phases (or CS condensate) are widely used for <it>in vitro</it> studies, they have some important limitations. In particular, the method used for trapping them might alter the chemical composition of each fraction. Some compounds (especially volatile compounds) cannot be trapped quantitatively; the filters or other components of the collection system might leach impurities into the collected material and the solvents used might react with constituents of the smoke fraction. Most importantly, analysis of the individual fractions might underestimate the overall risk attributable to CS through combined exposure to multiple toxicants. For these reasons, researchers are increasingly using culture systems where cells are exposed to CS at the ALI <abbrgrp>
                <abbr bid="B7">7</abbr>
             </abbrgrp>-<abbrgrp>
                <abbr bid="B9">9</abbr>
             </abbrgrp>. Culture inserts, in which cells grow at the ALI, are placed in an exposure chamber and CS is guided through the chamber in a highly controlled manner using a cigarette smoking machine. Several research groups and companies have developed whole smoke exposure systems that enable <it>in vitro</it> exposures of the ALI and submerged cultures. These systems consist of a smoking machine (i.e. Borgwaldt RM20S smoking machine <abbrgrp>
                <abbr bid="B10">10</abbr>
             </abbrgrp>, Burghart MSB-01 Mimic Smoker <abbrgrp>
                <abbr bid="B11">11</abbr>
             </abbrgrp>,<abbrgrp>
                <abbr bid="B12">12</abbr>
             </abbrgrp>, and Vitrocell VC 10 smoking robot <abbrgrp>
                <abbr bid="B13">13</abbr>
             </abbrgrp>,<abbrgrp>
                <abbr bid="B14">14</abbr>
             </abbrgrp>) and cell culture exposure chambers (i.e. Curbridge Engineering/British American Tobacco <abbrgrp>
                <abbr bid="B14">14</abbr>
             </abbrgrp>, Cultex&#174; exposure module, Cultex&#174; radial flow system <abbrgrp>
                <abbr bid="B6">6</abbr>
             </abbrgrp>,<abbrgrp>
                <abbr bid="B15">15</abbr>
             </abbrgrp>, and Vitrocell&#174; modules <abbrgrp>
                <abbr bid="B16">16</abbr>
             </abbrgrp>). Although the overall design and specifications of these systems differ slightly (e.g., the basic principle of the Cultex&#174; and Vitrocell&#174; ALI exposure modules was first described by Aufderheide et al. 2001 <abbrgrp>
                <abbr bid="B17">17</abbr>
             </abbrgrp> and later refined by each company), they all allow the researcher to control the concentration of whole smoke.</p>
          <p>The Vitrocell&#174; 24/48 exposure system used in this study has the following features (Figure&#160;<figr fid="F1">1</figr>). It is supplied with a double inlet dilution/distribution system for up to seven dilution airflows (by turbulent mixing of CS with fresh air, it creates flow rates ranging from 0.1 to 3&#160;L/min) and one fresh air control. Six replicate wells in the cultivation base module can be exposed to each dilution airflow at a time, and single supply of CS to the replicates is accomplished by individual trumpets. The sampling of CS via the trumpets is accomplished by negative pressure applied by a vacuum pump, which is connected to the cultivation base module. The sampling airflows in the Vitrocell&#174; 24/48 can be adjusted from 2 to 5&#160;mL/min. However, in the experiments outlined below, only 2&#160;mL/min was used. For the generation of CS dilution/distribution, a 30-port carousel smoking machine (SM 2000, Philip Morris Intl.) was used, which pumps the aerosol directly into the inlet of the Vitrocell&#174; 24/48 dilution/distribution system. Humidification of CS was performed by a humidification station (Vitrocell&#174; Systems GmbH) connected to the air inlets of the Vitrocell&#174; 24/48. The system also provides an integrated, sensor-controlled heating plate as well as a climatic chamber surrounding the dilution/distribution system and cultivation base module.</p>
          
             <fig id="F1">
                <title>
                   <p>Figure 1</p>
                </title>
                <caption>
                   <p>Schematic representation of the Vitrocell&#174; 24/48 exposure system.</p>
                </caption>
                <text>
                   <p>
                      <b>Schematic representation of the Vitrocell&#174; 24/48 exposure system.</b> A climatic chamber houses an exposure module that consists of a dilution/distribution system located on top of a cultivation base module. In the base module, up to 48 wells can be simultaneously exposed. The base module has a format of 8 rows&#8201;&#215;&#8201;6 columns (i.e. for 7 dilution airflows and 1 fresh air control row). The delivery of whole smoke is achieved by individual trumpets that deliver the smoke from the dilution/distribution system to the wells of the cultivation base module at a flow rate of 2&#160;mL/min. QCMs are connected to each row of the dilution/distribution system and monitor particle deposition.</p>
                </text>
                <graphic file="s13065-014-0062-3-1"/>
             </fig>
          
          <p>It is notable that, although the overall conditions can be controlled in terms of smoke dilution and smoking regimen, it is difficult to measure the actual deposition of CS on culture inserts. Various methods have been used to analyze the concentration of whole smoke inside <it>in vitro</it> exposure systems, although they are specific for the gas&#8211;vapor or the particulate phase. These methods include the measurement of particle concentration (e.g., by photometric analysis <abbrgrp>
                <abbr bid="B18">18</abbr>
             </abbrgrp>) or determining gases in the gas&#8211;vapor phase (e.g., using CO gas analyzers installed in the exposure system <abbrgrp>
                <abbr bid="B19">19</abbr>
             </abbrgrp>). However, none of these methods reveals the aerosol deposition on the culture inserts. The Vitrocell&#174; system provides such a tool as an integral part of its exposure module. Quartz crystal microbalances (QCMs) were originally developed in the 1950s <abbrgrp>
                <abbr bid="B20">20</abbr>
             </abbrgrp> and have been used to measure environmental pollutants. Particles depositing on the quartz crystal surface are detected by a change in its resonance frequency, which is proportional to the deposited mass. The sensitivity of a QCM is related to the intrinsic property of the crystal (in our case 10&#160;ng/cm<sup>2</sup>, according to Vitrocell&#174; product information). QCMs can be connected to individual rows of the dilution/distribution system of the Vitrocell&#174; 24/48, allowing simultaneous exposure of cells. Using a Vitrocell&#174; VC 10 Smoking Robot and a Vitrocell&#174; 6/4 Stainless Steel module, Adamson et al. <abbrgrp>
                <abbr bid="B13">13</abbr>
             </abbrgrp> conducted a number of studies to evaluate and validate the QCM for dosimetric purposes in CS exposure studies. Based on these studies and the convenience of this tool for online process control inside the exposure system, we decided to use QCMs for the characterization of the Vitrocell&#174; 24/48 system. To combine this analysis, we employed an independent method based on chemical reactivity with an indicator dye. It was noticed that WST-1, a commercially available tetrazolium solution used for cell viability tests (Roche Applied Science), is reduced if exposed to CS, presumably because CS contains a high concentration of oxidants in the gas&#8211;vapor and particulate(tar) phases <abbrgrp>
                <abbr bid="B21">21</abbr>
             </abbrgrp>. Reduction of WST-1 leads to the formation of colored formazan, which can be read in a plate reader at an optical density (OD) of 430&#160;nm. WST-1 reduction was therefore used as a simple assay to determine the distribution of CS over the cultivation base module of the Vitrocell&#174; 24/48 system, as well as to characterize the concentration-dependency for increasing concentrations of CS.</p>
          <p>In addition to the aforementioned methods, we also determined the concentration of certain CS constituents. As part of this analysis, nicotine and a range of carbonyls were determined in the dilution/distribution system of the Vitrocell&#174;. Finally, the effect of CS on cells placed in the Vitrocell&#174; 24/48 system was evaluated using A549 and BEAS-2B cells.</p>
       </sec>
       <sec>
          <st>
             <p>Results</p>
          </st>
          <sec>
             <st>
                <p>Mainstream CS distribution inside the Vitrocell&#174; 24/48 exposure chamber</p>
             </st>
             <p>To evaluate the performance of the Vitrocell&#174; 24/48 system, the distribution of CS from reference cigarettes (3R4F) was analyzed using a modified Health Canada smoking protocol <abbrgrp>
                   <abbr bid="B22">22</abbr>
                </abbrgrp>. First, the reduction of WST-1 by CS was monitored by measuring its OD at 430&#160;nm after exposure. At the selected dilution airflow of 0.5&#160;L/min, which corresponds to a concentration of 32% CS, an equal distribution of the CS inside the Vitrocell&#174; 24/48 system was revealed. Figure&#160;<figr fid="F2">2</figr>a shows blank corrected OD values, normalized to 100%, for each insert in the cultivation base module, from three independent CS exposure runs. Overall, the distribution appeared uniform, exhibiting no regional pattern or gradient. The <it>p</it>-values denoted at the bottom of the graph refer to an analysis of means (ANOM) and are descriptively reported as A, B, and C, meaning the <it>p</it>-value was below 0.05, 0.01, and 0.001 respectively (Raw p). Given the number of inserts (total 42) and discarding false positives, raw <it>p</it>-values were adjusted for multiple testing, which resulted in only a single insert position with significant difference and a <it>p</it>-value &lt;0.01 (Adj. p). However, OD values for this particular position contained an extreme data point measured in one of the three exposure runs (i.e. the normalized OD was &gt;140%). The averaged ODs (&#177; standard deviation (SD)) of the six inserts located in each of the rows of the cultivation base module (Figure&#160;<figr fid="F2">2</figr>b), showed a clear difference in the exposed rows (rows 1&#8211;7) compared to the fresh air exposed control row. Three exposure runs were conducted to estimate their effect on total variability. Runs 1 and 2 were performed on the same day, while run 3 was performed on a different day. Overall, the values from run 2 were slightly higher than those from runs 1 and 3. Variance decomposition analysis confirmed that the main source of variability was the exposure run (39.5% of the total variance). However, the variance decomposition analysis for all CS-exposed inserts indicated a relatively low insert-to-insert variation of a coefficient of variation (CV) of 12.2%, (excluding exposure run effects). The total CV including run-to-run differences was 15.6%. Decomposition analysis also indicated that variation because of the position within rows or columns of the cultivation base module was relatively small compared with random error (CV =4.8% (rows) and 1.4% (columns) versus 54.2% random error).</p>
             
                <fig id="F2">
                   <title>
                      <p>Figure 2</p>
                   </title>
                   <caption>
                      <p>Uniform distribution (well-to-well variability) of CS aerosols at a single concentration of 32% (0.5 L/min). (a)</p>
                   </caption>
                   <text>
                      <p>
                         <b>Uniform distribution (well-to-well variability) of CS aerosols at a single concentration of 32% (0.5 L/min). (a)</b> Scatter blot showing the blank corrected OD values for WST-1 reduction, normalized to 100%, for each insert of the cultivation base module, from three independent CS exposure runs. Different insert positions in the respective rows of the cultivation base module (Row 1&#8211;7) are marked with different symbols. Raw p-values according to ANOM (Raw p) and adjusted p-values for multiple testing (Adj. p) are indicated on the bottom of the graph for each insert position (A: p &lt; 0.05; B: p &lt; 0.01 and C: p &lt; 0.001). <b>(b)</b> Average optical density at 430 nm upon WST-1 reduction by CS exposure. Data points represent the mean &#177; SD from six inserts for CS exposed (rows 1&#8211;7) of the cultivation base module, the blank measurement, and exposure to fresh air. Different lines correspond to three different exposure runs, as shown below the graph. <b>(c)</b> Scatter blot for particle mass deposition, normalized to 100%, of different QCMs attached to Row 1&#8211;7. Raw p-values according to ANOM (Raw p) and adjusted p-values for multiple testing (Adj. p) are indicated on the bottom of the graph for each insert position (A: p &lt; 0.05). Different symbols correspond to three different exposure runs, as shown below the graph. <b>(d)</b> The amount of particles measured on QCMs connected to each row of the dilution system (Row 1&#8211;7). Different lines correspond to three different exposure runs, as shown below the graph. (a + c) Lines at P95 and P5 refer to the 95 and 5 percentiles, respectively of all values. Statistics based on variance decomposition are shown in each graph. The respective p-values and n-numbers are also listed.</p>
                   </text>
                   <graphic file="s13065-014-0062-3-2"/>
                </fig>
             
             <p>In addition to our analysis using WST-1 as an indicator, we also applied different dilution airflows corresponding to 7&#8211;69% CS (i.e., 0.1, 0.2, 0.5, 1.0, 1.5, 2.0, and 3.0&#160;L/min) to the Vitrocell&#174; 24/48 system. This experiment revealed a linear correlation between the measured OD at 430&#160;nm and the applied dilution airflow (Figure&#160;<figr fid="F3">3</figr>a).</p>
             
                <fig id="F3">
                   <title>
                      <p>Figure 3</p>
                   </title>
                   <caption>
                      <p>Assessment of concentration-dependent (multi-dilution) CS exposure. (a)</p>
                   </caption>
                   <text>
                      <p>
                         <b>Assessment of concentration-dependent (multi-dilution) CS exposure. (a)</b> The concentration-dependent change in the optical density at 430&#160;nm upon WST-1 oxidation by CS exposure with different dilution flow rates of 0.1&#8211;3.0&#160;L/min (7&#8211;69% CS). Data were obtained in triplicate for all dilutions. <b>(b)</b> The concentration of particles deposited on the QCM after exposure. <b>(c)</b> Linearity of particle deposition at low CS concentrations (7&#8211;19%), see insert in <b>(b)</b>.</p>
                   </text>
                   <graphic file="s13065-014-0062-3-3"/>
                </fig>
             
             <p>Next, the distribution of the particulate phase of CS in the Vitrocell&#174; 24/48 system was studied by measuring particle mass deposition on QCMs at a fixed airflow rate of 0.5&#160;L/min (Figure&#160;<figr fid="F2">2</figr>c and d). QCMs were installed at the end of each row of the dilution/distribution system of the Vitrocell&#174; 24/48 system. In contrast to other Vitrocell&#174; exposure modules, installation of QCMs at specific positions on the cultivation base module is not possible with the Vitrocell&#174; 24/48 system. Similar to what was observed for the whole CS distribution measured by WST-1 reduction, particle mass deposition on QCMs, normalized to 100%, appeared uniform over the seven rows of the dilution/distribution system of the Vitrocell&#174; 24/48 (Figure&#160;<figr fid="F2">2</figr>c). ANOM indicated two row positions with a raw <it>p</it>-value &lt;0.05. However, after adjustment for multiple testing (Adj. p) there was no significant difference detected between different rows of the dilution/distribution system. The mean particle mass from the three independent exposure runs was 75.7&#160;&#956;g/cm<sup>2</sup> (Figure&#160;<figr fid="F2">2</figr>d). Variance decomposition analysis of the three exposure runs revealed that the main source of variance was again the exposure run (66.9% of total variance), leading to a CV of only 6.6% for all QCM values obtained excluding the effects from exposure runs, and 11.5% if all three runs were taken into account. The effect of the position of the QCM connected to the dilution/distribution system was a minor source of variability (8.6% of total variance). Another major source of the total variance was random error (proportionally 24.5%). In contrast to the whole CS tested in the WST-1 analysis, the slope for the deposited mass changed nonlinearly at high CS concentrations (Figure&#160;<figr fid="F3">3</figr>b). However, in the low concentration range (&#8804;20% CS), the increase was linear (Figure&#160;<figr fid="F3">3</figr>c).</p>
          </sec>
          <sec>
             <st>
                <p>Determination of smoke constituents inside the Vitrocell&#174; 24/48 system</p>
             </st>
             <p>To characterize the typical mainstream CS constituents delivered to the exposure system, nicotine and eight different carbonyls were trapped inside the Vitrocell&#174; 24/48 after applying dilution airflows of 0.1, 0.2, 0.5, 1.0, 1.5, 2.0, and 3.0&#160;L/min, followed by liquid chromatography&#8211;mass spectroscopy (LC-MS) analysis of the samples. As shown in Figure&#160;<figr fid="F4">4</figr>a, a linear correlation between trapped nicotine and CS concentration was observed (<it>R</it>
                <sup>2</sup>&#8201;&gt;&#8201;0.95) over the entire CS concentration range (7&#8201;&#8722;&#8201;69%). Similarly, the relationships between the carbonyl concentrations, namely, acetaldehyde, acetone, acrolein, butyraldehyde, crotonaldehyde, formaldehyde, methyl ethyl ketone, and propionaldehyde, were also well-correlated with the applied CS concentration (<it>R</it>
                <sup>2</sup>&#8201;&gt;&#8201;0.96, Figure&#160;<figr fid="F4">4</figr>b, c, d, e, f, g, h and i).</p>
             
                <fig id="F4">
                   <title>
                      <p>Figure 4</p>
                   </title>
                   <caption>
                      <p>CS application (multiple-dilution) and determination of (a) nicotine and (b)&#8211;(i) eight carbonyls inside the Vitrocell&#174; 24/48 exposure chamber.</p>
                   </caption>
                   <text>
                      <p>
                         <b>CS application (multiple-dilution) and determination of (a) nicotine and (b)&#8211;(i) eight carbonyls inside the Vitrocell&#174; 24/48 exposure chamber.</b>
                      </p>
                   </text>
                   <graphic file="s13065-014-0062-3-4"/>
                </fig>
             
          </sec>
          <sec>
             <st>
                <p>Effect of CS on the cell viability of different cells</p>
             </st>
             <p>To assess the effect of CS on cells exposed in the Vitrocell&#174; 24/48 system, the viability of A549 and BEAS-2B cells grown at the ALI were determined after exposure to fixed doses of 10% and 15% CS (dilution airflows of 1.95 and 1.25&#160;L/min, respectively). Various post-exposure times (4, 24 and 72&#160;h) were selected to monitor the acute effects and to account for potential recovery of cells. Figure&#160;<figr fid="F5">5</figr>a and b shows that, compared with fresh air, CS exposure rendered cells less capable of reducing resazurin, a dye commonly used to determine the metabolic activity of cells as a marker for cell viability <abbrgrp>
                   <abbr bid="B23">23</abbr>
                </abbrgrp>. In both cell lines, 15% CS had a consistently higher effect than 10% CS, while the effect was stronger for BEAS-2B compared to A549 cells, at 24-48&#160;h post-exposure. 1% Triton X-100 was used as a positive control to induce a maximum decrease in viability. Overall, BEAS-2B cells were observed to be more sensitive than A549 cells to CS, with the latter showing a trend towards recovery at 24 and 48&#160;h. As an additional control, the viability of cells seeded on membranes, however kept in submerged conditions, were similar to the incubator controls of cells lifted to the ALI.</p>
             
                <fig id="F5">
                   <title>
                      <p>Figure 5</p>
                   </title>
                   <caption>
                      <p>Mainstream CS exposure of cells.</p>
                   </caption>
                   <text>
                      <p>
                         <b>Mainstream CS exposure of cells.</b> The viability based on resazurin assays of <b>(a)</b> BEAS-2B and <b>(b)</b> A549 cells following different post-exposure periods (4, 24, and 48&#160;h). For each post-exposure time point, a different set of three inserts was used. For each treatment group (<it>n</it> =6, two smoke runs and three replicates), comparisons were performed with a mixed design ANOVA model using the exposure run as the error term. The raw <it>p</it>-values are denoted as &#8220;*&#8221; and &#8220;**&#8221; when below 0.05 and 0.01, respectively. RFU: Relative fluorescence units. Triton: Triton X-100 at 1% final concentration was used as a positive control. Incubator control ALI: non-exposed incubator controls of inserts growing at the ALI, Submerged: non-exposed cells seeded on inserts, however kept in submerged conditions. The percentages of CS used are indicated below the bar graph.</p>
                   </text>
                   <graphic file="s13065-014-0062-3-5"/>
                </fig>
             
          </sec>
       </sec>
       <sec>
          <st>
             <p>Discussion</p>
          </st>
          <p>In this study, we evaluated the performance of the Vitrocell&#174; 24/48 <it>in vitro</it> exposure system for the exposure of cells to CS. The system is highly versatile because it allows simultaneous exposure of up to six replica inserts while applying multiple dilution airflows (i.e., testing seven different smoke concentrations). A total of 48 inserts can be tested with CS in a single run, or 42 test inserts and 6 control inserts exposed to fresh air. To determine whether CS was uniformly distributed across all culture inserts if a single CS concentration was applied, we used two independent methods for the whole smoke distribution and the particulate phase. WST-1 was used as a simple indicator for whole smoke, taking advantage of its sensitivity against oxidants. The mechanism and nature of the molecules in CS that are responsible for the observed reduction of WST-1 were not further investigated in this study. Superoxide is one candidate, which is present in CS and has been shown in other <it>in vitro</it> studies to be involved in the reduction of WST-1 <abbrgrp>
                <abbr bid="B24">24</abbr>
             </abbrgrp>. Interestingly, for this reason, WST-1 is used also in other commercially available assays to measure the inhibition of superoxide dismutase, where superoxide is accumulating (vendors such as Sigma-Aldrich, Abcam or RnD Systems). Oxidants are present in the gas&#8211;vapor and particulate phases of smoke <abbrgrp>
                <abbr bid="B21">21</abbr>
             </abbrgrp>. Thus, it was not surprising that filter trapped total particulate matter (TPM) was able to reduce WST-1 (data not shown). Whole CS applied at a single concentration to the Vitrocell&#174; 24/48 system (0.5&#160;L/min) reduced WST-1 in all culture inserts to a similar level, providing the first evidence that the distribution of CS was uniform in the exposure system. Furthermore, the particle mass deposition measured by QCMs attached to different rows of the dilution/distribution system was also found to be similar at the fixed CS concentration. We conducted a statistical analysis (variance decomposition) to evaluate the coefficient of variation (CV) of the Vitrocell&#174; 24/48 system itself compared with the effect of three independent exposure runs. The CVs for different inserts containing WST-1 and for different QCMs were found to be relatively low (12.2% for WST-1 and 6.6% for QCM). With regard to CS distribution, no significant differences according to adjusted <it>p</it>-values (ANOM) could be detected in the cultivation base module (except for a single position in the WST-1 analysis, which was produced by an extreme data point in one of the three runs). Variance decomposition also allowed us to discriminate and quantify the non-random variance owing to the position (row and column) on the Vitrocell&#174; system. Even though these estimates may be rough because of the sample size (<it>z</it>-test not significant), the row and column effect was quantitatively well below the random error, confirming equal exposure of inserts (row effects: 4.8% of total variance for WST-1 and 8.6% for QCM). Overall, the row and column variability were largely dominated by the run effect, which we believe is extraneous to the Vitrocell&#174; 24/48 system. This may be because smoke delivery from the smoking machine is not always the same or it may originate from the assay technology, because WST-1 reduction continues post-exposure and small time differences in sample reading may contribute to run-to-run variability.</p>
          <p>The data we collected cannot be easily compared with studies using other Vitrocell&#174; exposure modules <abbrgrp>
                <abbr bid="B13">13</abbr>
             </abbrgrp>,<abbrgrp>
                <abbr bid="B19">19</abbr>
             </abbrgrp> because the diameters of trumpets/inserts of the exposure module, the smoking regimens, the sampling flow rates and smoking machines used were different. However, the general trends of uniform distributions and concentration-dependency are similar. For example, QCM measurements using a Vitrocell&#174; 6/4 Stainless Steel module with a Vitrocell&#174; VC10 Smoking Robot did not show statistical differences between different positions of the exposure module <abbrgrp>
                <abbr bid="B19">19</abbr>
             </abbrgrp>. However, these researchers used a duplicate version of the same Vitrocell VC10 earlier <abbrgrp>
                <abbr bid="B13">13</abbr>
             </abbrgrp> and in which study they could find statistical significance between different positions of the exposure module. This, together with the notion that the variability seen between different Vitrocell VC10&#8217;s may dependent on the service (maintenance) status of the smoking machine <abbrgrp>
                <abbr bid="B25">25</abbr>
             </abbrgrp>, supports our view that the most significant sources of variability are extraneous to the Vitrocell&#174; exposure system. These studies seem to show a linear concentration-dependency of CS measured by QCM. However, they are not fully comparable in terms of the concentration range. In particular, high CS concentrations are lacking, which clearly contributed most to the non-linearity of our results using the Vitrocell&#174; 24/48 system. It appears that, in contrast to whole smoke distribution (measured by WST-1), deposition of the particulate phase on QCMs in the Vitrocell&#174; is governed by the airflow condition in the dilution/distribution system. In this respect, factors such as particle diffusion, impaction, and interception need to be considered to estimate the deposition rates. These can be altered by evolving aerosol due to additional mechanisms present in the flow (e.g., turbulence and electrical charging), which is a potential drawback of the Vitrocell&#174; system. However, the deposition of particle mass at high airflow rates is still linear, which actually correspond to those flow rates we routinely use in our exposure experiments with cells. Nonetheless, the effect of different airflow rates on particle deposition should be further investigated. We believe that computational fluid dynamics (CFD) modeling will help to determine the effect of flow rate on the deposition efficiency. Our initial investigations using CFD showed that not only flow rate, but also droplet diameter, diffusion, and gravitational settling play a significant role in the process of aerosol deposition in the Vitrocell&#174; exposure module (data not shown). In addition, <it>in situ</it> analysis of CS constituents that deposit on cells, rather than on surrogates such as the QCMs, will complement, or even improve, our understanding of the exposure levels. A different type of exposure system has been reported that provides constant flow rates while varying CS concentrations based on premixing of the smoke with air prior to the delivery to the exposure module <abbrgrp>
                <abbr bid="B12">12</abbr>
             </abbrgrp>. Particle deposition in this system was reported to be linear, however it was accompanied with a considerable loss in the smoke before its delivery to the exposure module <abbrgrp>
                <abbr bid="B10">10</abbr>
             </abbrgrp>,<abbrgrp>
                <abbr bid="B11">11</abbr>
             </abbrgrp>.</p>
          <p>In this study, we also measured the effect of CS on A549 and BEAS-2B cells at the ALI. Because these cell lines resemble those of the human lung epithelium, they are frequently used as models to evaluate toxicity of the lung epithelium <abbrgrp>
                <abbr bid="B26">26</abbr>
             </abbrgrp>. We found that the effects using a cell viability assay were correlated with the smoke concentration for both cell lines. BEAS-2B cells were found more sensitive than A549 cells to aerosol exposure at the ALI, which is a general phenomenon that is observed also in other toxicological studies using these cells in submerged conditions <abbrgrp>
                <abbr bid="B27">27</abbr>
             </abbrgrp>,<abbrgrp>
                <abbr bid="B28">28</abbr>
             </abbrgrp>.</p>
       </sec>
       <sec>
          <st>
             <p>Materials and methods</p>
          </st>
          <sec>
             <st>
                <p>Mainstream CS generation and delivery to the exposure chamber of the Vitrocell&#174; 24/48 system</p>
             </st>
             <p>The reference cigarettes (3R4F) were obtained from the University of Kentucky (Lexington, KY, USA; <url>www.ca.uky.edu/refcig</url>) and were conditioned between 7 and 21&#160;days under controlled conditions of 22&#8201;&#177;&#8201;1&#176;C and relative humidity of 60&#8201;&#177;&#8201;3% according to ISO guidelines. 3R4F reference cigarettes were smoked according to a modified Health Canada regimen <abbrgrp>
                   <abbr bid="B22">22</abbr>
                </abbrgrp> (two 55&#160;mL puffs/min, 2&#160;s aspiration, and 8&#160;s exhaust) on a 30-port carousel smoking machine (SM2000, Philip Morris International). To achieve continuous aerosol delivery to the Vitrocell, a total of 4 puffs/min were taken consecutively from two 3R4F cigarettes placed in the 30-port carousel (puff frequency was every 15&#160;s). For exposures using a single CS concentration, a dilution airflow rate of 0.5&#160;L/min was selected in the Vitrocell&#174; 24/48 system, which corresponded to 32% of the CS.</p>
             <p>Total Particle Matter (TPM) concentration of 100% smoke was determined by trapping undiluted cigarette smoke (3R4F) in a Cambridge-Filter, connected to the smoking machine, which yielded a concentration of 42.4&#160;mg/L. Several dilutions of CS were used to evaluate the effect of different concentrations in the system using dilution airflows of 0.1, 0.2, 0.5, 1.0, 1.5, 2.0, and 3.0&#160;L/min, which corresponded to %CS and TPM concentrations of 69% =29.2&#160;mg/L; 54% =22.2&#160;mg/L; 32% =13.0&#160;mg/L; 19% =7.7&#160;mg/L; 13% =5.4&#160;mg/L, 10% =4.2&#160;mg/L, and 7% =2.9&#160;mg/L respectively. Fresh air exposure was used as the control. For exposures using single or multiple dilution airflows, six 3R4F reference cigarettes (66 total puffs) were smoked, giving rise to a total exposure time of 18&#160;min. For all experiments, dilution air adjusted to 60% relative humidity was used. The temperature of the climate chamber of the Vitrocell system, as well as of the heating plate, was set to 37&#176;C. The height of the trumpets delivering the CS to the inserts was set to 2&#160;mm.</p>
          </sec>
          <sec>
             <st>
                <p>Cells and culture conditions</p>
             </st>
             <p>The human alveolar basal epithelial cell line (A549; ATCC number, CCL-185) and human bronchial epithelial cell line (BEAS-2B; ATCC number, CRL-9609) were used for the exposure. Before adding the cells, 24-well polyethylene terephthalate transparent membrane inserts (ThinCert&#8482;, Greiner Bio One International AG, Kremsm&#252;nster, Austria) (pore size =0.4&#160;&#956;m) were preconditioned (wetted) for 4&#160;h +/&#8722; 15&#160;min with the cell culture medium. For culturing A549 and BEAS-2B cells, F12k (Life Technologies, Zug, Switzerland) and KGM-2 (LONZA, Basel Switzerland) media were used, respectively. Cells were thawed from the stock pool and cultured in 75&#160;cm<sup>2</sup> flasks. Confluent cell cultures were trypsinized after washing twice with phosphate buffered saline (PBS) without Ca<sup>2+</sup> and Mg<sup>2+</sup>. The number of cells was counted using an electronic cell counter (CASY&#174; Scharfe System, Roche Innovatis AG, Reutlingen, Germany). In brief, 50,000 A549 cells/insert and 60,000 BEAS-2B cells/insert were seeded for 24&#160;h. Then, 18&#8201;&#177;&#8201;2&#160;h before exposure, the culture medium was removed from the apical side of each insert, and cell monolayers were washed with PBS with Ca<sup>2+</sup> and Mg<sup>2+</sup>.</p>
          </sec>
          <sec>
             <st>
                <p>Distribution of mainstream CS in the Vitrocell&#174; 24/48 system</p>
             </st>
             <p>The insert-to-insert variability applying a single dilution airflow (0.5&#160;L/min) or multiple dilutions of CS was measured with WST-1 (Roche Applied Science, Rotkreuz, Switzerland). WST-1 (1&#160;mL) was mixed with 4&#160;mL Dulbecco&#8217;s modified Eagle&#8217;s medium supplemented with 0.1% gentamycin. A 75-&#956;L aliquot of this mixture was filled into the cell culture inserts and exposed to six 3R4F reference cigarettes (66 total puffs). The total exposure time was 18&#160;min. After exposure to CS, 50&#160;&#956;L WST-1 mixture was transferred into a 96-well plate, and the optical density was measured at 430&#160;nm. To determine the effect of different runs on the overall variability, OD measurements from three independent smoke exposure runs were analyzed.</p>
             <p>In the same CS exposure runs in which the WST-1 colorimetric assay was applied, particle deposition was monitored by connecting individual Vitrocell&#174; quartz crystal microbalances (Vitrocell&#174; Systems GmbH, Waldkirch, Germany) to each row of the dilution/distribution system. During exposure, deposition of particles was monitored online, and the final mass after the last cigarette was smoked was taken to compare the particle distributions with different CS concentrations.</p>
          </sec>
          <sec>
             <st>
                <p>Viability assay</p>
             </st>
             <p>Cell inserts (<it>n</it>&#8201;=&#8201;3) were exposed in two independent exposure runs with six cigarettes of 3R4F with 15% and 10% mainstream smoke inside the Vitrocell&#174;. The total exposure time was 18&#160;min. The cell viability was measured with a resazurin assay at 4, 24, and 48&#160;h post-exposure. After the post-exposure periods, 150&#160;&#956;L resazurin diluted in culture medium (120&#160;&#956;g/mL) (Sigma-Aldrich, Buchs, Switzerland) was added per insert and incubated for 2&#160;h at 37&#176;C with 5% CO<sub>2</sub> and 95% relative humidity. At the end of the incubation time, samples of 100&#160;&#956;L/insert were removed, and the fluorescence was measured for each well using 560&#160;nm excitation and 590&#160;nm emission wavelengths. A final concentration of 1% Triton has been added to the basal media of ALI inserts, as a positive control to induce maximum loss in cell viability. Non-exposed incubator controls of inserts growing at the ALI were used as negative control. Non-exposed cells seeded on inserts, however kept in submerged conditions, were used as an additional control.</p>
          </sec>
          <sec>
             <st>
                <p>Determination of eight carbonyls by liquid chromatography&#8211;electrospray ionization&#8211;tandem mass spectrometry</p>
             </st>
             <p>Carbonyl compounds were trapped during CS smoke exposure in the Vitrocell&#174; 24/48 system by filling the rows of the cultivation base module with 18.5&#160;mL PBS solution per row. Ten 3R4F cigarettes were smoked for each exposure run. A total of three independent exposure runs were conducted, containing technical triplicates. Multiple dilutions of CS smoke were performed to determine the carbonyl concentration at dilution airflows of 0.1, 0.2, 0.5, 1.0, 1.5, 2.0, and 3.0&#160;L/min. As a blank, we also collected samples from fresh air exposed PBS. The total exposure time was 28&#160;min. After the exposure was completed, an aliquot of 1.2&#160;mL exposed PBS was incubated with 1.8&#160;mL dinitrophenylhydrazine (DNPH) solution (15&#160;mM DNPH in acetonitrile and 25&#160;mM perchloric acid) for 30&#160;min at room temperature, and chemical derivatization was quenched by addition of 150&#160;&#956;L pyridine. A 500&#160;&#956;L aerosol-derivatized sample was introduced in a LC-MS glass vial previously filled with 485&#160;&#956;L acetonitrile and 15&#160;&#956;L internal standard working solution containing acetone-<it>d</it>
                <sub>
                   <it>6</it>
                </sub>-DNPH and methyl-ethyl-ketone-<it>d</it>
                <sub>
                   <it>5</it>
                </sub>-DNPH (24&#160;&#956;g/mL, each).</p>
             <p>Formaldehyde&#8211;DNPH, acetaldehyde&#8211;DNPH, acetone&#8211;DNPH, crotonaldehyde&#8211;DNPH, propionaldehyde&#8211;DNPH, acrolein&#8211;DNPH, methyl-ethyl-ketone&#8211;DNPH, and butyraldehyde-DNPH were analyzed by liquid chromatography (Agilent 1200) coupled to electrospray ionization tandem mass spectrometry (5500 QqQ, AB Sciex). Separation of the aldehyde was performed in isocratic mode on a chromolith speedrod RP-18e HPLC column using water, acetonitrile, tetrahydrofuran, and isopropanol (59:30:10:1, v/v/v/v) at a flow rate of 2.5&#160;mL/min (column set at 40&#176;C equipped with a post-column splitter 1:6 before entrance into the MS). MS detection was realized in multiple reaction monitoring mode, and the carbonyl compound concentration (expressed in &#956;g/cigarette) was calculated using an external calibration curve.</p>
          </sec>
          <sec>
             <st>
                <p>Determination of nicotine</p>
             </st>
             <p>For the determination of the nicotine concentration in diluted CS, smoke was collected using Extrelut 3NT columns (Merck, Zug, Switzerland) impregnated with 2&#160;mL of a 0.5&#160;M H<sub>2</sub>SO<sub>4</sub> solution. The analyzed smoke concentrations were 69%, 54%, 32%, 19%, 13%, 10%, and 7%. The Extrelut 3NT tubes were connected at the exhaust of the dilution system of the Vitrocell&#174; 24/48 system. For each smoke concentration, three samples were analyzed and a total of three independent exposure runs were conducted. After sample collection, the internal standard isoquinoline was added to the top of the column, and the trapped nicotine including the internal standard was eluted with a mixture of 5&#160;vol% triethylamine in <it>N</it>-butylacetate. In brief, 1&#160;&#956;L of the extract was injected into an Agilent 7890A gas chromatograph (Santa Clara, CA, USA)in split mode using a split ratio of 1:20 and injector temperature of 220&#176;C. The separation was performed at an oven temperature of 140&#176;C in isothermal mode using a 15&#160;m DB-5 fused silica capillary column with an internal diameter of 0.25&#160;mm and 0.25&#160;&#956;m film thickness. Helium was used as carrier gas, and the column flow was set to 1.4&#160;mL/min. Compounds were detected using flame ionization detection, and nicotine was quantified according to an internal standard calibration curve.</p>
          </sec>
          <sec>
             <st>
                <p>Statistical analysis</p>
             </st>
             <p>Variance decomposition was performed with SAS 9.2 using the procedure MIXED and the COVTEST option and the restricted maximum likelihood method. Effects such as row, column, and exposure run were added as random effects in the model. For an optical density of 430&#160;nm, the mean value per exposure run for fresh air was subtracted from all individual measurements. The <it>p</it>-values refer to a Wald <it>z</it>-test, which examines if the variance of a random effect is significantly different from zero. ANOM was applied to detect significance between WST-1 reduction of different insert positions or between different QCMs. The raw <it>p</it>-values were adjusted for multiple testing according to Nelson-Hsu. The statistics for the cell viability assays was based on mixed design ANOVA model.</p>
          </sec>
       </sec>
       <sec>
          <st>
             <p>Conclusions</p>
          </st>
          <p>Our characterization of the Vitrocell&#174; 24/48 system demonstrates that the system is well-suited for CS exposure of cells growing at the ALI, based on its overall performance towards the distribution of smoke to inserts of the exposure module. The system did not reveal a major technical bias for low CS concentrations, up to 20%, which however correspond to a concentration range high enough to cause a decrease in cell viability in two different cell lines tested. This range was also sufficient to induce alterations in smoking-related biological networks, verified by results obtained from recent CS exposure experiments we conducted on 3D-organotypic epithelial cells using the Vitrocell&#174; 24/48 system <abbrgrp>
                <abbr bid="B7">7</abbr>
             </abbrgrp>-<abbrgrp>
                <abbr bid="B9">9</abbr>
             </abbrgrp>. Our characterization also revealed that aspects such as particle mass deposition rates in the Vitrocell&#174; 24/48 system need to be further investigated, in order to judge on dose-effects at higher CS concentrations. We believe the WST-1 methodology we used in this study adds a simple tool to measure whole smoke exposure of inserts, beyond particle mass deposition measurements. However more specific tools are still lacking and therefore we have limited understanding concerning the gas&#8211;vapor phase depositing on cell inserts. Analyzing metabolites from CS constituents after exposure of cells maybe one way to address this in future.</p>
       </sec>
       <sec>
          <st>
             <p>Abbreviations</p>
          </st>
          <p>ATCC: American type culture collection</p>
          <p>ALI: Air&#8211;liquid interface</p>
          <p>DNPH: Dinitrophenylhydrazine</p>
          <p>PBS: Phosphate buffered saline</p>
          <p>QCM: Quartz crystal microbalance</p>
          <p>OD: Optical density</p>
          <p>MS: Mass spectroscopy</p>
          <p>CS: Cigarette smoke</p>
          <p>HPLC: High-performance liquid chromatography</p>
          <p>TPM: Total particulate matter</p>
       </sec>
       <sec>
          <st>
             <p>Competing interests</p>
          </st>
          <p>All authors, except SW are employees of Philip Morris International. All research was conducted on the premises of Philip Morris International.</p>
       </sec>
       <sec>
          <st>
             <p>Authors&#8217; contributions</p>
          </st>
          <p>SM and DK conducted the exposure runs, performed the WST-1, resazurin assays and trapping of different smoke components. AK and PAG conducted the chemical analysis of nicotine and carbonyls. PL performed the statistical analysis of the data. SW implemented the Vitrocell&#174; 24/48 system and was instrumental in the idea development process. JH and MCP provided the scientific support and reviewed the manuscript. SF with the help of SM, AK, and PAG wrote the manuscript. All authors read and approved the final manuscript.</p>
       </sec>
    </bdy>
    <bm>
       <ack>
          <sec>
             <st>
                <p>Acknowledgements</p>
             </st>
             <p>We would like to acknowledge Edanz Group Ltd for language editing and assistance with manuscript formatting. We also thank Dr. Arkadiusz Kuczaj for scientific review of the manuscript. This work was funded by Philip Morris International R&amp;D.</p>
          </sec>
       </ack>
       <refgrp>
          
          <bibl id="B1">
             
                <url>http://www.who.int/mediacentre/factsheets/fs339/en/</url>
             
<note>Organization, W.H. <b>
                   <it>Tobacco. Fact sheet No. 339, updated May 2014.</it>
                </b> 2014, Available at  (webcite).</note>
          </bibl>
          <bibl id="B2">
             <title>
                <p>Simultaneous determination of five tobacco-specific nitrosamines in mainstream cigarette smoke by isotope dilution liquid chromatography/electrospray ionization tandem mass spectrometry</p>
             </title>
             <aug>
                <au>
                   <snm>Wu</snm>
                   <fnm>W</fnm>
                </au>
                <au>
                   <snm>Ashley</snm>
                   <fnm>DL</fnm>
                </au>
                <au>
                   <snm>Watson</snm>
                   <fnm>CH</fnm>
                </au>
             </aug>
             <source>Anal Chem</source>
             <pubdate>2003</pubdate>
             <volume>75</volume>
             <fpage>4827</fpage>
             <lpage>4832</lpage>
             <xrefbib>
                <pubidlist>
                   <pubid idtype="doi">10.1021/ac030135y</pubid>
                </pubidlist>
             </xrefbib>
          </bibl>
          <bibl id="B3">
             <title>
                <p>Determination of four tobacco-specific nitrosamines in mainstream cigarette smoke by gas chromatography/ion trap mass spectrometry</p>
             </title>
             <aug>
                <au>
                   <snm>Zhou</snm>
                   <fnm>J</fnm>
                </au>
                <au>
                   <snm>Bai</snm>
                   <fnm>R</fnm>
                </au>
                <au>
                   <snm>Zhu</snm>
                   <fnm>Y</fnm>
                </au>
             </aug>
             <source>Rapid Commun Mass Spectrom</source>
             <pubdate>2007</pubdate>
             <volume>21</volume>
             <fpage>4086</fpage>
             <lpage>4092</lpage>
             <xrefbib>
                <pubidlist>
                   <pubid idtype="doi">10.1002/rcm.3321</pubid>
                </pubidlist>
             </xrefbib>
          </bibl>
          <bibl id="B4">
             <title>
                <p>A continuous tumor-cell line from a human lung carcinoma with properties of type II alveolar epithelial cells</p>
             </title>
             <aug>
                <au>
                   <snm>Lieber</snm>
                   <fnm>M</fnm>
                </au>
                <au>
                   <snm>Smith</snm>
                   <fnm>B</fnm>
                </au>
                <au>
                   <snm>Szakal</snm>
                   <fnm>A</fnm>
                </au>
                <au>
                   <snm>Nelson-Rees</snm>
                   <fnm>W</fnm>
                </au>
                <au>
                   <snm>Todaro</snm>
                   <fnm>G</fnm>
                </au>
             </aug>
             <source>Int J Cancer</source>
             <pubdate>1976</pubdate>
             <volume>17</volume>
             <fpage>62</fpage>
             <lpage>70</lpage>
             <xrefbib>
                <pubidlist>
                   <pubid idtype="doi">10.1002/ijc.2910170110</pubid>
                </pubidlist>
             </xrefbib>
          </bibl>
          <bibl id="B5">
             <title>
                <p>Human bronchial epithelial cells with integrated SV40 virus T antigen genes retain the ability to undergo squamous differentiation</p>
             </title>
             <aug>
                <au>
                   <snm>Ke</snm>
                   <fnm>Y</fnm>
                </au>
                <au>
                   <snm>Reddel</snm>
                   <fnm>RR</fnm>
                </au>
                <au>
                   <snm>Gerwin</snm>
                   <fnm>BI</fnm>
                </au>
                <au>
                   <snm>Miyashita</snm>
                   <fnm>M</fnm>
                </au>
                <au>
                   <snm>McMenamin</snm>
                   <fnm>M</fnm>
                </au>
                <au>
                   <snm>Lechner</snm>
                   <fnm>JF</fnm>
                </au>
                <au>
                   <snm>Harris</snm>
                   <fnm>CC</fnm>
                </au>
             </aug>
             <source>Differentiation</source>
             <pubdate>1988</pubdate>
             <volume>38</volume>
             <fpage>60</fpage>
             <lpage>66</lpage>
             <xrefbib>
                <pubidlist>
                   <pubid idtype="doi">10.1111/j.1432-0436.1988.tb00592.x</pubid>
                </pubidlist>
             </xrefbib>
          </bibl>
          <bibl id="B6">
             <title>
                <p>
                   <it>A</it>
                   <b>nalytical in vitro approach for studying cyto- and genotoxic effects of particulate airborne material</b>
                </p>
             </title>
             <aug>
                <au>
                   <snm>Aufderheide</snm>
                   <fnm>M</fnm>
                </au>
                <au>
                   <snm>Scheffler</snm>
                   <fnm>S</fnm>
                </au>
                <au>
                   <snm>M&#246;hle</snm>
                   <fnm>N</fnm>
                </au>
                <au>
                   <snm>Halter</snm>
                   <fnm>B</fnm>
                </au>
                <au>
                   <snm>Hochrainer</snm>
                   <fnm>D</fnm>
                </au>
             </aug>
             <source>Anal Bioanal Chem</source>
             <pubdate>2011</pubdate>
             <volume>401</volume>
             <fpage>3213</fpage>
             <lpage>3220</lpage>
             <xrefbib>
                <pubidlist>
                   <pubid idtype="doi">10.1007/s00216-011-5163-4</pubid>
                </pubidlist>
             </xrefbib>
          </bibl>
          <bibl id="B7">
             <title>
                <p>Human bronchial epithelial cells exposed in vitro to cigarette smoke at the air-liquid interface resemble bronchial epithelium from human smokers</p>
             </title>
             <aug>
                <au>
                   <snm>Mathis</snm>
                   <fnm>C</fnm>
                </au>
                <au>
                   <snm>Poussin</snm>
                   <fnm>C</fnm>
                </au>
                <au>
                   <snm>Weisensee</snm>
                   <fnm>D</fnm>
                </au>
                <au>
                   <snm>Gebel</snm>
                   <fnm>S</fnm>
                </au>
                <au>
                   <snm>Hengstermann</snm>
                   <fnm>A</fnm>
                </au>
                <au>
                   <snm>Sewer</snm>
                   <fnm>A</fnm>
                </au>
                <au>
                   <snm>Belcastro</snm>
                   <fnm>V</fnm>
                </au>
                <au>
                   <snm>Xiang</snm>
                   <fnm>Y</fnm>
                </au>
                <au>
                   <snm>Ansari</snm>
                   <fnm>S</fnm>
                </au>
                <au>
                   <snm>Wagner</snm>
                   <fnm>S</fnm>
                </au>
                <au>
                   <snm>Hoeng</snm>
                   <fnm>J</fnm>
                </au>
                <au>
                   <snm>Peitsch</snm>
                   <fnm>MC</fnm>
                </au>
             </aug>
             <source>Am J Physiol Lung Cell Mol Physiol</source>
             <pubdate>2013</pubdate>
             <volume>304</volume>
             <fpage>L489</fpage>
             <lpage>L503</lpage>
             <xrefbib>
                <pubidlist>
                   <pubid idtype="doi">10.1152/ajplung.00181.2012</pubid>
                </pubidlist>
             </xrefbib>
          </bibl>
          <bibl id="B8">
             <title>
                <p>Systems approaches evaluating the perturbation of xenobiotic metabolism in response to cigarette smoke exposure in nasal and bronchial tissues</p>
             </title>
             <aug>
                <au>
                   <snm>Iskandar</snm>
                   <fnm>AR</fnm>
                </au>
                <au>
                   <snm>Martin</snm>
                   <fnm>F</fnm>
                </au>
                <au>
                   <snm>Talikka</snm>
                   <fnm>M</fnm>
                </au>
                <au>
                   <snm>Schlage</snm>
                   <fnm>WK</fnm>
                </au>
                <au>
                   <snm>Kostadinova</snm>
                   <fnm>R</fnm>
                </au>
                <au>
                   <snm>Mathis</snm>
                   <fnm>C</fnm>
                </au>
                <au>
                   <snm>Hoeng</snm>
                   <fnm>J</fnm>
                </au>
                <au>
                   <snm>Peitsch</snm>
                   <fnm>MC</fnm>
                </au>
             </aug>
             <source>Biomed Res Int</source>
             <pubdate>2013</pubdate>
             <volume>2013</volume>
             <fpage>512086</fpage>
             <xrefbib>
                <pubidlist>
                   <pubid idtype="doi">10.1155/2013/512086</pubid>
                </pubidlist>
             </xrefbib>
          </bibl>
          <bibl id="B9">
             <title>
                <p>In vitro systems toxicology approach to investigate the effects of repeated cigarette smoke exposure on human buccal and gingival organotypic epithelial tissue cultures</p>
             </title>
             <aug>
                <au>
                   <snm>Schlage</snm>
                   <fnm>WK</fnm>
                </au>
                <au>
                   <snm>Iskandar</snm>
                   <fnm>AR</fnm>
                </au>
                <au>
                   <snm>Kostadinova</snm>
                   <fnm>R</fnm>
                </au>
                <au>
                   <snm>Xiang</snm>
                   <fnm>Y</fnm>
                </au>
                <au>
                   <snm>Sewer</snm>
                   <fnm>A</fnm>
                </au>
                <au>
                   <snm>Majeed</snm>
                   <fnm>S</fnm>
                </au>
                <au>
                   <snm>Kuehn</snm>
                   <fnm>D</fnm>
                </au>
                <au>
                   <snm>Frentzel</snm>
                   <fnm>S</fnm>
                </au>
                <au>
                   <snm>Talikka</snm>
                   <fnm>M</fnm>
                </au>
                <au>
                   <snm>Geertz</snm>
                   <fnm>M</fnm>
                </au>
                <au>
                   <snm>Mathis</snm>
                   <fnm>C</fnm>
                </au>
                <au>
                   <snm>Ivanov</snm>
                   <fnm>N</fnm>
                </au>
                <au>
                   <snm>Hoeng</snm>
                   <fnm>J</fnm>
                </au>
                <au>
                   <snm>Peitsch</snm>
                   <fnm>MC</fnm>
                </au>
             </aug>
             <source>Toxicol Mech Methods</source>
             <pubdate>2014</pubdate>
             <volume>24</volume>
             <issue>7</issue>
             <fpage>470</fpage>
             <lpage>487</lpage>
             <xrefbib>
                <pubidlist>
                   <pubid idtype="doi">10.3109/15376516.2014.943441</pubid>
                </pubidlist>
             </xrefbib>
          </bibl>
          <bibl id="B10">
             <title>
                <p>
                   <it>A</it>
                   <b>ssessment of an in vitro whole cigarette smoke exposure system: The Borgwaldt RM20S 8-syringe smoking machine</b>
                </p>
             </title>
             <aug>
                <au>
                   <snm>Adamson</snm>
                   <fnm>J</fnm>
                </au>
                <au>
                   <snm>Azzopardi</snm>
                   <fnm>D</fnm>
                </au>
                <au>
                   <snm>Errington</snm>
                   <fnm>G</fnm>
                </au>
                <au>
                   <snm>Dickens</snm>
                   <fnm>C</fnm>
                </au>
                <au>
                   <snm>McAughey</snm>
                   <fnm>J</fnm>
                </au>
                <au>
                   <snm>Gaca</snm>
                   <fnm>MD</fnm>
                </au>
             </aug>
             <source>Chem Cent J</source>
             <pubdate>2011</pubdate>
             <volume>5</volume>
             <fpage>50</fpage>
             <xrefbib>
                <pubidlist>
                   <pubid idtype="doi">10.1186/1752-153X-5-50</pubid>
                </pubidlist>
             </xrefbib>
          </bibl>
          <bibl id="B11">
             <title>
                <p>Characterization of a whole smoke in vitro exposure system (Burghart Mimic Smoker-01)</p>
             </title>
             <aug>
                <au>
                   <snm>Scian</snm>
                   <fnm>MJ</fnm>
                </au>
                <au>
                   <snm>Oldham</snm>
                   <fnm>MJ</fnm>
                </au>
                <au>
                   <snm>Kane</snm>
                   <fnm>DB</fnm>
                </au>
                <au>
                   <snm>Edmiston</snm>
                   <fnm>JS</fnm>
                </au>
                <au>
                   <snm>McKinney</snm>
                   <fnm>WJ</fnm>
                </au>
             </aug>
             <source>Inhal Toxicol</source>
             <pubdate>2009</pubdate>
             <volume>21</volume>
             <fpage>234</fpage>
             <lpage>243</lpage>
             <xrefbib>
                <pubidlist>
                   <pubid idtype="doi">10.1080/08958370802482515</pubid>
                </pubidlist>
             </xrefbib>
          </bibl>
          <bibl id="B12">
             <title>
                <p>Chemical analysis of cigarette smoke particulate generated in the MSB-01 in vitro whole smoke exposure system</p>
             </title>
             <aug>
                <au>
                   <snm>Scian</snm>
                   <fnm>MJ</fnm>
                </au>
                <au>
                   <snm>Oldham</snm>
                   <fnm>MJ</fnm>
                </au>
                <au>
                   <snm>Miller</snm>
                   <fnm>JH</fnm>
                </au>
                <au>
                   <snm>Kane</snm>
                   <fnm>DB</fnm>
                </au>
                <au>
                   <snm>Edmiston</snm>
                   <fnm>JS</fnm>
                </au>
                <au>
                   <snm>McKinney</snm>
                   <fnm>WJ</fnm>
                </au>
             </aug>
             <source>Inhal Toxicol</source>
             <pubdate>2009</pubdate>
             <volume>21</volume>
             <fpage>1040</fpage>
             <lpage>1052</lpage>
             <xrefbib>
                <pubidlist>
                   <pubid idtype="doi">10.1080/08958370802712705</pubid>
                </pubidlist>
             </xrefbib>
          </bibl>
          <bibl id="B13">
             <title>
                <p>Assessment of cigarette smoke particle deposition within the Vitrocell(R) exposure module using quartz crystal microbalances</p>
             </title>
             <aug>
                <au>
                   <snm>Adamson</snm>
                   <fnm>J</fnm>
                </au>
                <au>
                   <snm>Thorne</snm>
                   <fnm>D</fnm>
                </au>
                <au>
                   <snm>Dalrymple</snm>
                   <fnm>A</fnm>
                </au>
                <au>
                   <snm>Dillon</snm>
                   <fnm>D</fnm>
                </au>
                <au>
                   <snm>Meredith</snm>
                   <fnm>C</fnm>
                </au>
             </aug>
             <source>Chem Cent J</source>
             <pubdate>2013</pubdate>
             <volume>7</volume>
             <fpage>50</fpage>
             <xrefbib>
                <pubidlist>
                   <pubid idtype="doi">10.1186/1752-153X-7-50</pubid>
                </pubidlist>
             </xrefbib>
          </bibl>
          <bibl id="B14">
             <title>
                <p>Exposure of bronchial epithelial cells to whole cigarette smoke: assessment of cellular responses</p>
             </title>
             <aug>
                <au>
                   <snm>Phillips</snm>
                   <fnm>J</fnm>
                </au>
                <au>
                   <snm>Kluss</snm>
                   <fnm>B</fnm>
                </au>
                <au>
                   <snm>Richter</snm>
                   <fnm>A</fnm>
                </au>
                <au>
                   <snm>Massey</snm>
                   <fnm>E</fnm>
                </au>
             </aug>
             <source>Altern Lab Anim</source>
             <pubdate>2005</pubdate>
             <volume>33</volume>
             <fpage>239</fpage>
             <lpage>248</lpage>
          </bibl>
          <bibl id="B15">
             <title>
                <p>Direct exposure at the air-liquid interface: evaluation of an in vitro approach for simulating inhalation of airborne substances</p>
             </title>
             <aug>
                <au>
                   <snm>Rach</snm>
                   <fnm>J</fnm>
                </au>
                <au>
                   <snm>Budde</snm>
                   <fnm>J</fnm>
                </au>
                <au>
                   <snm>Mohle</snm>
                   <fnm>N</fnm>
                </au>
                <au>
                   <snm>Aufderheide</snm>
                   <fnm>M</fnm>
                </au>
             </aug>
             <source>J Appl Toxicol</source>
             <pubdate>2013</pubdate>
             <volume>34</volume>
             <issue>5</issue>
             <fpage>506</fpage>
             <lpage>515</lpage>
             <xrefbib>
                <pubidlist>
                   <pubid idtype="doi">10.1002/jat.2899</pubid>
                </pubidlist>
             </xrefbib>
          </bibl>
          <bibl id="B16">
             <title>
                <p>Quantification of cigarette smoke particle deposition in vitro using a triplicate quartz crystal microbalance exposure chamber</p>
             </title>
             <aug>
                <au>
                   <snm>Adamson</snm>
                   <fnm>J</fnm>
                </au>
                <au>
                   <snm>Thorne</snm>
                   <fnm>D</fnm>
                </au>
                <au>
                   <snm>McAughey</snm>
                   <fnm>J</fnm>
                </au>
                <au>
                   <snm>Dillon</snm>
                   <fnm>D</fnm>
                </au>
                <au>
                   <snm>Meredith</snm>
                   <fnm>C</fnm>
                </au>
             </aug>
             <source>Biomed Res Int</source>
             <pubdate>2013</pubdate>
             <volume>2013</volume>
             <fpage>685074</fpage>
             <xrefbib>
                <pubidlist>
                   <pubid idtype="doi">10.1155/2013/685074</pubid>
                </pubidlist>
             </xrefbib>
          </bibl>
          <bibl id="B17">
             <title>
                <p>A method for in vitro analysis of the biological activity of complex mixtures such as sidestream cigarette smoke</p>
             </title>
             <aug>
                <au>
                   <snm>Aufderheide</snm>
                   <fnm>M</fnm>
                </au>
                <au>
                   <snm>Ritter</snm>
                   <fnm>D</fnm>
                </au>
                <au>
                   <snm>Knebel</snm>
                   <fnm>JW</fnm>
                </au>
                <au>
                   <snm>Scherer</snm>
                   <fnm>G</fnm>
                </au>
             </aug>
             <source>Exp Toxicol Pathol</source>
             <pubdate>2001</pubdate>
             <volume>53</volume>
             <issue>2&#8211;3</issue>
             <fpage>141</fpage>
             <lpage>152</lpage>
             <xrefbib>
                <pubidlist>
                   <pubid idtype="doi">10.1078/0940-2993-00187</pubid>
                </pubidlist>
             </xrefbib>
          </bibl>
          <bibl id="B18">
             <title>
                <p>In vitro micronucleus assay for cigarette smoke using a whole smoke exposure system: a comparison of smoking regimens</p>
             </title>
             <aug>
                <au>
                   <snm>Okuwa</snm>
                   <fnm>K</fnm>
                </au>
                <au>
                   <snm>Tanaka</snm>
                   <fnm>M</fnm>
                </au>
                <au>
                   <snm>Fukano</snm>
                   <fnm>Y</fnm>
                </au>
                <au>
                   <snm>Nara</snm>
                   <fnm>H</fnm>
                </au>
                <au>
                   <snm>Nishijima</snm>
                   <fnm>Y</fnm>
                </au>
                <au>
                   <snm>Nishino</snm>
                   <fnm>T</fnm>
                </au>
             </aug>
             <source>Exp Toxicol Pathol</source>
             <pubdate>2010</pubdate>
             <volume>62</volume>
             <fpage>433</fpage>
             <lpage>440</lpage>
             <xrefbib>
                <pubidlist>
                   <pubid idtype="doi">10.1016/j.etp.2009.06.002</pubid>
                </pubidlist>
             </xrefbib>
          </bibl>
          <bibl id="B19">
             <title>
                <p>Characterisation of a Vitrocell&#174; VC 10 in vitro smoke exposure system using dose tools and biological analysis</p>
             </title>
             <aug>
                <au>
                   <snm>Thorne</snm>
                   <fnm>D</fnm>
                </au>
                <au>
                   <snm>Kilford</snm>
                   <fnm>J</fnm>
                </au>
                <au>
                   <snm>Payne</snm>
                   <fnm>R</fnm>
                </au>
                <au>
                   <snm>Adamson</snm>
                   <fnm>J</fnm>
                </au>
                <au>
                   <snm>Scott</snm>
                   <fnm>K</fnm>
                </au>
                <au>
                   <snm>Dalrymple</snm>
                   <fnm>A</fnm>
                </au>
                <au>
                   <snm>Meredith</snm>
                   <fnm>C</fnm>
                </au>
                <au>
                   <snm>Dillon</snm>
                   <fnm>D</fnm>
                </au>
             </aug>
             <source>Chem Cent J</source>
             <pubdate>2013</pubdate>
             <volume>7</volume>
             <fpage>146</fpage>
             <xrefbib>
                <pubidlist>
                   <pubid idtype="doi">10.1186/1752-153X-7-146</pubid>
                </pubidlist>
             </xrefbib>
          </bibl>
          <bibl id="B20">
             <title>
                <p>Verwendung von Schwinquarzen zur wagung dunner schicten und zur mikrowagung</p>
             </title>
             <aug>
                <au>
                   <snm>Sauerbrey</snm>
                   <fnm>G</fnm>
                </au>
             </aug>
             <source>Z Phys</source>
             <pubdate>1959</pubdate>
             <volume>155</volume>
             <fpage>206</fpage>
             <lpage>222</lpage>
             <note>[In German]</note>
             <xrefbib>
                <pubidlist>
                   <pubid idtype="doi">10.1007/BF01337937</pubid>
                </pubidlist>
             </xrefbib>
          </bibl>
          <bibl id="B21">
             <title>
                <p>Free-radical chemistry of cigarette smoke and its toxicological implications</p>
             </title>
             <aug>
                <au>
                   <snm>Church</snm>
                   <fnm>DF</fnm>
                </au>
                <au>
                   <snm>Pryor</snm>
                   <fnm>WA</fnm>
                </au>
             </aug>
             <source>Environ Health Perspect</source>
             <pubdate>1985</pubdate>
             <volume>64</volume>
             <fpage>111</fpage>
             <lpage>126</lpage>
             <xrefbib>
                <pubidlist>
                   <pubid idtype="doi">10.1289/ehp.8564111</pubid>
                </pubidlist>
             </xrefbib>
          </bibl>
          <bibl id="B22">
             <note>Health Canada: <it>Determination of Tar, Water, Nicotine and Carbon Monoxide in Mainstream Tobacco Smoke.</it> Health Canada Test Method T-115;1999.</note>
          </bibl>
          <bibl id="B23">
             <title>
                <p>Application and evaluation of the alamarBlue assay for cell growth and survival of fibroblasts</p>
             </title>
             <aug>
                <au>
                   <snm>Voytik-Harbin</snm>
                   <fnm>SL</fnm>
                </au>
                <au>
                   <snm>Brightman</snm>
                   <fnm>AO</fnm>
                </au>
                <au>
                   <snm>Waisner</snm>
                   <fnm>B</fnm>
                </au>
                <au>
                   <snm>Lamar</snm>
                   <fnm>CH</fnm>
                </au>
                <au>
                   <snm>Badylak</snm>
                   <fnm>SF</fnm>
                </au>
             </aug>
             <source>In Vitro Cell Dev Biol Anim</source>
             <pubdate>1998</pubdate>
             <volume>34</volume>
             <issue>3</issue>
             <fpage>239</fpage>
             <lpage>246</lpage>
             <xrefbib>
                <pubidlist>
                   <pubid idtype="doi">10.1007/s11626-998-0130-x</pubid>
                </pubidlist>
             </xrefbib>
          </bibl>
          <bibl id="B24">
             <title>
                <p>Superoxide produced by activated neutrophils efficiently reduces the tetrazolium salt, WST-1 to produce a soluble formazan: a simple colorimetric assay for measuring respiratory burst activation and for screening anti-inflammatory agents</p>
             </title>
             <aug>
                <au>
                   <snm>Tan</snm>
                   <fnm>AS</fnm>
                </au>
                <au>
                   <snm>Berridge</snm>
                   <fnm>MV</fnm>
                </au>
             </aug>
             <source>J Immunol Methods</source>
             <pubdate>2000</pubdate>
             <volume>238</volume>
             <issue>1&#8211;2</issue>
             <fpage>59</fpage>
             <lpage>68</lpage>
             <xrefbib>
                <pubidlist>
                   <pubid idtype="doi">10.1016/S0022-1759(00)00156-3</pubid>
                </pubidlist>
             </xrefbib>
          </bibl>
          <bibl id="B25">
             <title>
                <p>An inter-machine comparison of tobacco smoke particle deposition in vitro from six independent smoke exposure systems</p>
             </title>
             <aug>
                <au>
                   <snm>Adamson</snm>
                   <fnm>J</fnm>
                </au>
                <au>
                   <snm>Thorne</snm>
                   <fnm>D</fnm>
                </au>
                <au>
                   <snm>Errington</snm>
                   <fnm>G</fnm>
                </au>
                <au>
                   <snm>Fields</snm>
                   <fnm>W</fnm>
                </au>
                <au>
                   <snm>Li</snm>
                   <fnm>X</fnm>
                </au>
                <au>
                   <snm>Payne</snm>
                   <fnm>R</fnm>
                </au>
                <au>
                   <snm>Krebs</snm>
                   <fnm>T</fnm>
                </au>
                <au>
                   <snm>Dalrymple</snm>
                   <fnm>A</fnm>
                </au>
                <au>
                   <snm>Fowler</snm>
                   <fnm>K</fnm>
                </au>
                <au>
                   <snm>Dillon</snm>
                   <fnm>D</fnm>
                </au>
                <au>
                   <snm>Xie</snm>
                   <fnm>F</fnm>
                </au>
                <au>
                   <snm>Meredith</snm>
                   <fnm>C</fnm>
                </au>
             </aug>
             <source>Toxicol In Vitro</source>
             <pubdate>2014</pubdate>
             <volume>28</volume>
             <issue>7</issue>
             <fpage>1320</fpage>
             <lpage>1328</lpage>
             <xrefbib>
                <pubidlist>
                   <pubid idtype="doi">10.1016/j.tiv.2014.06.012</pubid>
                </pubidlist>
             </xrefbib>
          </bibl>
          <bibl id="B26">
             <title>
                <p>Cyto-genotoxic effects of smoke from commercial filter and non-filter cigarettes on human bronchial and pulmonary cells</p>
             </title>
             <aug>
                <au>
                   <snm>Cavallo</snm>
                   <fnm>D</fnm>
                </au>
                <au>
                   <snm>Ursini</snm>
                   <fnm>CL</fnm>
                </au>
                <au>
                   <snm>Fresegna</snm>
                   <fnm>AM</fnm>
                </au>
                <au>
                   <snm>Maiello</snm>
                   <fnm>R</fnm>
                </au>
                <au>
                   <snm>Ciervo</snm>
                   <fnm>A</fnm>
                </au>
                <au>
                   <snm>Ferrante</snm>
                   <fnm>R</fnm>
                </au>
                <au>
                   <snm>Buresti</snm>
                   <fnm>G</fnm>
                </au>
                <au>
                   <snm>Iavicoli</snm>
                   <fnm>S</fnm>
                </au>
             </aug>
             <source>Mutat Res</source>
             <pubdate>2013</pubdate>
             <volume>750</volume>
             <issue>1&#8211;2</issue>
             <fpage>1</fpage>
             <lpage>11</lpage>
             <xrefbib>
                <pubidlist>
                   <pubid idtype="doi">10.1016/j.mrgentox.2012.06.013</pubid>
                </pubidlist>
             </xrefbib>
          </bibl>
          <bibl id="B27">
             <title>
                <p>
                   <b>The ability of oxidative stress to mimic quartz-induced chemokine responses is lung cell line-dependen</b>
                   <it>t</it>
                </p>
             </title>
             <aug>
                <au>
                   <snm>Ovrevik</snm>
                   <fnm>J</fnm>
                </au>
                <au>
                   <snm>Refsnes</snm>
                   <fnm>M</fnm>
                </au>
                <au>
                   <snm>Schwarze</snm>
                   <fnm>P</fnm>
                </au>
                <au>
                   <snm>Lag</snm>
                   <fnm>M</fnm>
                </au>
             </aug>
             <source>Toxicol Lett</source>
             <pubdate>2008</pubdate>
             <volume>181</volume>
             <issue>2</issue>
             <fpage>75</fpage>
             <lpage>80</lpage>
             <xrefbib>
                <pubidlist>
                   <pubid idtype="doi">10.1016/j.toxlet.2008.07.001</pubid>
                </pubidlist>
             </xrefbib>
          </bibl>
          <bibl id="B28">
             <title>
                <p>Epilysin (matrix metalloproteinase-28) contributes to airway epithelial cell survival</p>
             </title>
             <aug>
                <au>
                   <snm>Manicone</snm>
                   <fnm>AM</fnm>
                </au>
                <au>
                   <snm>Harju-Baker</snm>
                   <fnm>S</fnm>
                </au>
                <au>
                   <snm>Johnston</snm>
                   <fnm>LK</fnm>
                </au>
                <au>
                   <snm>Chen</snm>
                   <fnm>AJ</fnm>
                </au>
                <au>
                   <snm>Parks</snm>
                   <fnm>WC</fnm>
                </au>
             </aug>
             <source>Respir Res</source>
             <pubdate>2011</pubdate>
             <volume>12</volume>
             <fpage>144</fpage>
             <xrefbib>
                <pubidlist>
                   <pubid idtype="doi">10.1186/1465-9921-12-144</pubid>
                </pubidlist>
             </xrefbib>
          </bibl>
       </refgrp>
    </bm>
 </art>