<art>
   <ui>s13550-014-0058-y</ui>
   <ji>2191-219X</ji>
   <fm>
      <dochead>Original research</dochead>
      <bibl>
         <title>
            <p>Bone Scan Index as a prognostic imaging biomarker during androgen deprivation
               therapy</p>
         </title>
         <aug>
            <au ca="yes" id="A1"><snm>Reza</snm><fnm>Mariana</fnm><insr iid="I1"/><email>mariana.reza@med.lu.se</email></au>
            <au id="A2"><snm>Bjartell</snm><fnm>Anders</fnm><insr iid="I2"/><email>anders.bjartell@med.lu.se</email></au>
            <au id="A3"><snm>Ohlsson</snm><fnm>Mattias</fnm><insr iid="I3"/><email>mattias@thep.lu.se</email></au>
            <au id="A4"><snm>Kaboteh</snm><fnm>Reza</fnm><insr iid="I4"/><email>kaboteh@gmail.com</email></au>
            <au id="A5"><snm>Wollmer</snm><fnm>Per</fnm><insr iid="I1"/><email>per.wollmer@med.lu.se</email></au>
            <au id="A6"><snm>Edenbrandt</snm><fnm>Lars</fnm><insr iid="I1"/><insr iid="I4"/><email>lars.edenbrandt@med.lu.se</email></au>
            <au id="A7"><snm>Tr&#228;g&#229;rdh</snm><fnm>Elin</fnm><insr iid="I1"/><email>elin.tragardh@med.lu.se</email></au>
         </aug>
         <insg>
            <ins id="I1"><p>Division of Clinical Physiology and Nuclear Medicine, Department of Clinical
                  Sciences, Sk&#229;ne University Hospital, Malm&#246;, Lund University, Inga Marie
                  Nilssons gata 49, Malm&#246; SE-205 02, Sweden</p></ins>
            <ins id="I2"><p>Division of Urological Cancers, Department of Clinical Sciences, Sk&#229;ne
                  University Hospital, Malm&#246;, Lund University, Lund 22100, Sweden</p></ins>
            <ins id="I3"><p>Department of Astronomy and Theoretical Physics, Lund University, Lund 22100,
                  Sweden</p></ins>
            <ins id="I4"><p>Department of Molecular and Clinical Medicine, Sahlgrenska University Hospital,
                  Gothenburg 413 45, Sweden</p></ins>
         </insg>
         <source>EJNMMI Research</source>
         <issn>2191-219X</issn>
         <pubdate>2014</pubdate>
         <volume>4</volume>
         <issue>1</issue>
         <fpage>58</fpage>
         <url>http://www.ejnmmires.com/content/4/1/58</url>
         <xrefbib><pubidlist><pubid idtype="doi">10.1186/s13550-014-0058-y</pubid><pubid idtype="pmpid">25386390</pubid></pubidlist></xrefbib>
      </bibl>
      <history><rec><date><day>1</day><month>8</month><year>2014</year></date></rec><acc><date><day>7</day><month>10</month><year>2014</year></date></acc><pub><date><day>17</day><month>10</month><year>2014</year></date></pub></history>
      <cpyrt><year>2014</year><collab>Reza et al.; licensee Springer.</collab><note>This is an Open Access article distributed under the terms of the Creative Commons
            Attribution License (<url>http://creativecommons.org/licenses/by/4.0</url>), which
            permits unrestricted use, distribution, and reproduction in any medium, provided the
            original work is properly credited.</note></cpyrt>
      <kwdg>
         <kwd>Prostate cancer</kwd>
         <kwd>Bone Scan Index</kwd>
         <kwd>Androgen deprivation therapy</kwd>
         <kwd>Bone metastases</kwd>
      </kwdg>
      <abs>
         <sec>
            <st>
               <p>Abstract</p>
            </st>
            <sec>
               <st>
                  <p>Background</p>
               </st>
               <p>Bone Scan Index (BSI) is a quantitative measurement of tumour burden in the
                  skeleton calculated from bone scan images. When analysed at the time of diagnosis,
                  it has been shown to provide prognostic information on survival in men with
                  metastatic prostate cancer (PCa). In this study, we evaluated the prognostic value
                  of BSI during androgen deprivation therapy (ADT).</p>
            </sec>
            <sec>
               <st>
                  <p>Methods</p>
               </st>
               <p>Prostate cancer patients who were at high risk of a poor outcome and who had
                  undergone bone scan at the time of diagnosis and during ADT were recruited from
                  two university hospitals for a retrospective study. BSI at baseline and follow-up
                  were calculated using an automated software package (EXINIbone<sup>bsi</sup>).
                  Associations between BSI, other prognostic biomarkers and overall survival (OS)
                  were evaluated using a Cox proportional hazards regression model.</p>
            </sec>
            <sec>
               <st>
                  <p>Results</p>
               </st>
               <p>One hundred forty-six PCa patients were included in the study. A total of 102
                  patient deaths were registered, with a median survival time after the follow-up
                  bone scan of 2.4 years (interquartile range (IQR) =0.8 to 4.4). Both at baseline
                  and during ADT, BSI was significantly associated with OS in univariate and
                  multivariate analyses. When BSI was added to a prognostic base model including
                  age, prostate-specific antigen, clinical tumour stage and Gleason score, the
                  concordance index increased from 0.73 to 0.77 (<it>p</it> =0.0005) at baseline and
                  from 0.77 to 0.82 (<it>p</it> &lt;0.0001) during ADT.</p>
            </sec>
            <sec>
               <st>
                  <p>Conclusions</p>
               </st>
               <p>Automated BSI during ADT is an independent prognostic indicator of OS in PCa
                  patients with bone metastasis. It represents an emerging imaging biomarker that
                  can be used in a prognostic model for risk stratification of PCa patients at the
                  time of diagnosis and at later stages of the disease. BSI could then help
                  physicians identify patients who could benefit from more aggressive therapies.</p>
            </sec>
         </sec>
      </abs>
   </fm>
   <bdy>
      <sec>
         <st>
            <p> Background</p>
         </st>
         <p>Early diagnosis of prostate cancer (PCa) has increased in recent decades, and the
            mortality rate has decreased in countries where the prostate-specific antigen (PSA)
            blood test was introduced at an early stage <abbrgrp>
               <abbr bid="B1">1</abbr>
            </abbrgrp>. However, in the management of patients at high risk of a poor outcome, there
            is still an urgent need for improved treatment and monitoring of the disease <abbrgrp>
               <abbr bid="B1">1</abbr>
            </abbrgrp>. While newly diagnosed low-risk patients have shown increasing survival in
            various studies, patients at high risk of relapse after treatment still show low
            survival rates, a result strongly associated with metastatic disease <abbrgrp>
               <abbr bid="B2">2</abbr>
            </abbrgrp>. Evaluation of bone metastases is important in risk stratification for
            optimum decision-making, as many patients should be offered multimodality treatment. In
            PCa patients with bone metastases, the current standard primary treatment is androgen
            deprivation therapy (ADT) and careful follow-up involving measurement of serum
            testosterone and PSA <abbrgrp>
               <abbr bid="B3">3</abbr>
            </abbrgrp>. In time, many patients progress to a castration-resistant phase of the
            disease (CRPC) with a subsequent need for second-line therapies such as chemotherapy,
            new androgen-signalling blocking agents and bone-targeting radioisotopes <abbrgrp>
               <abbr bid="B4">4</abbr>
            </abbrgrp>.</p>
         <p>As several new agents have been presented as treatment options for these patients - with
            encouraging results - there is an urgent need for predictive tools before initiation of
            such treatments. It is perhaps even more important to find objective and reproducible
            tools for evaluation of response and to identify when the treatment no longer has a
            desired effect. Despite the increasing availability of advanced imaging modalities such
            as magnetic resonance imaging (MRI) and positron emission tomography/computed tomography
            (PET/CT), bone scan (BS) is still the most commonly used method of assessing metastatic
            spread to the skeleton and monitoring response to treatment <abbrgrp>
               <abbr bid="B5">5</abbr>
            </abbrgrp>,<abbrgrp>
               <abbr bid="B6">6</abbr>
            </abbrgrp>. It has been used for many years, but there is still no standardised way of
            describing the images other than in vague terms, i.e. the presence or absence of tumour
            spread to the skeleton (M1 or M0).</p>
         <p>Quantitative measurement of images can provide useful information of clinical relevance,
            one example being Bone Scan Index (BSI) - an imaging biomarker that more objectively
            quantifies bone metastases as a percentage of the total skeletal mass affected by
            metastatic disease <abbrgrp>
               <abbr bid="B7">7</abbr>
            </abbrgrp>. BSI has been shown to contain prognostic information in PCa patients with
            bone metastases <abbrgrp>
               <abbr bid="B8">8</abbr>
            </abbrgrp>, but it has not yet been introduced in a clinical setting, most probably
            because its calculation is time-consuming and it requires an experienced reader. The
            recent development of an automated method for calculation of BSI has provided us with a
            rapid and highly reproducible method of obtaining information on tumour burden, making
            it more attractive and feasible for routine clinical use <abbrgrp>
               <abbr bid="B9">9</abbr>
            </abbrgrp>. It has been demonstrated that automated BSI correlates well with the manual
            method and is of prognostic value in men with PCa metastases at the time of diagnosis <abbrgrp>
               <abbr bid="B9">9</abbr>
            </abbrgrp>,<abbrgrp>
               <abbr bid="B10">10</abbr>
            </abbrgrp>. The value of a biomarker can vary from one phase of disease to another, as
            with PSA, which is of greater use in a screening situation and during early phases of
            disease than in patients with CRPC <abbrgrp>
               <abbr bid="B11">11</abbr>
            </abbrgrp>. Although automated BSI has been proposed as a prognostic biomarker at the
            time of diagnosis <abbrgrp>
               <abbr bid="B9">9</abbr>
            </abbrgrp>,<abbrgrp>
               <abbr bid="B10">10</abbr>
            </abbrgrp>, no data is available on its possible prognostic value during ADT. In this
            study, we evaluated the value of BSI as a biomarker for treatment response during ADT in
            PCa patients.</p>
      </sec>
      <sec>
         <st>
            <p> Methods</p>
         </st>
         <sec>
            <st>
               <p> Patient cohort</p>
            </st>
            <p>We retrospectively studied a series of consecutive PCa patients who had undergone BS
               as part of the clinical routine at Sk&#229;ne University Hospital in Malm&#246; from
               1996 to 2010 and at Sahlgrenska University Hospital in Gothenburg from 2002 to 2008
               and were considered for inclusion. Baseline bone scans of patients from Sahlgrenska
               University Hospital have also been used in a previous publication <abbrgrp>
                  <abbr bid="B10">10</abbr>
               </abbrgrp>. Patients meeting all the following inclusion criteria were selected for
               the study:</p>
            <p>1. At high risk at the time of diagnosis, i.e. at least one of the following criteria
               in accordance with the European Association of Urology guidelines 2013 was met <abbrgrp>
                  <abbr bid="B6">6</abbr>
               </abbrgrp>: clinical tumour stage (cT) T3/T4, biopsy Gleason score (GS) 8 to 10 or
               PSA concentration in blood &gt;20 ng/mL.</p>
            <p>2. Availability of baseline scan: defined as whole-body BS within 3 months of
               diagnosis and before initiation of ADT.</p>
            <p>3. Availability of follow-up scan: defined as whole-body BS during hormonal treatment
               (&gt;3.0 months after start of treatment).</p>
            <p>4. No treatment for PCa prior to baseline BS.</p>
            <p>The study was performed in accordance with the Declaration of Helsinki and was
               approved by the Regional Ethical Review Boards at Lund University and Gothenburg
               University, Sweden.</p>
         </sec>
         <sec>
            <st>
               <p> Bone scan</p>
            </st>
            <p>At both hospitals, whole-body BS was performed 2 to 4 h after intravenous injection
               of 600 MBq technetium-99m methylene diphosphonate (Tc-99m MDP) (Amersham
               International plc, Amersham, UK). Anterior- and posterior-view whole-body images were
               obtained using a gamma camera equipped with low-energy, high-resolution,
               parallel-hole collimators (MultiSPECT2 (Southern Scientific Ltd., West Sussex, UK) or
               Siemens Symbia T (Siemens Healthcare Diagnostics Inc. Deerfield, IL, USA) or Maxxus
               (General Electric Medical Systems, Milwaukee, WI, USA)), using a scan speed of 15
               cm/min and a matrix of 256&#8201;&#215;&#8201;1024. Energy discrimination was
               provided by a 15% window centred on the 140 keV of Tc-99m.</p>
         </sec>
         <sec>
            <st>
               <p> Bone Scan Index calculation</p>
            </st>
            <p>BSI, the measure of the total skeletal mass affected by metastatic disease, was
               calculated using the software EXINIbone<sup>bsi</sup> version 1.8 (EXINI Diagnostics
               AB, Lund, Sweden). The automated method to calculate BSI, which has been described in
               detail elsewhere <abbrgrp>
                  <abbr bid="B9">9</abbr>
               </abbrgrp>, consists of four steps. First, the different anatomical regions of the
               skeleton such as the skull, ribs, vertebra and pelvis are segmented. Second, hotspots
               are detected and features describing them such as intensity, size, shape and position
               are calculated. Third, artificial neural networks are used to classify each hotspot
               as metastatic lesion or not based on the hotspot features. The neural networks have
               been trained to mimic experienced readers in distinguishing between metastatic
               lesions and benign hotspots due to, for example, degenerative disease or fracture.
               Fourth, the BSI is calculated as the sum of volumetric fraction of the skeleton for
               all hotspots classified as metastatic lesions.</p>
         </sec>
         <sec>
            <st>
               <p> Data collection</p>
            </st>
            <p>Retrospectively, clinical data at diagnosis, including age, cT and GS, was collected
               from the medical records, as well as information on PSA concentration in the blood
               both at diagnosis and at follow-up. Data on survival was collected from the National
               Swedish Population Registry. We defined overall survival (OS) as the time from BS to
               death from any cause. All data collected was anonymised and updated up to 31 December
               2013.</p>
         </sec>
         <sec>
            <st>
               <p> Statistical analysis</p>
            </st>
            <p>The association between clinical stratification data (age, cT, GS and PSA), BSI and
               OS was evaluated using the Cox proportional hazards regression models, using both
               univariate and multivariable modelling. Hazard ratios (HR) together with 95%
               confidence intervals were estimated, and discrimination between the different
               survival models was assessed using the concordance index (C-index). The significance
               of a difference in C-index between different models was calculated using the method
               described by Haibe-Kains et al. <abbrgrp>
                  <abbr bid="B12">12</abbr>
               </abbrgrp>.</p>
            <p>Kaplan-Meier estimates of the survival function and the log-rank test were used to
               indicate a significant difference between groups stratified in accordance with the
               BSI values. In the survival analysis, all data was censored at a follow-up after 5
               years. All analyses were carried out using the R statistical computing
               environment.</p>
         </sec>
      </sec>
      <sec>
         <st>
            <p> Results</p>
         </st>
         <p>A total of 146 PCa patients were included, and their clinical-pathological
            characteristics are presented in Table&#160;<tblr tid="T1">1</tblr>. One hundred two
            patients out of the 146 died during the follow-up, with a median survival time from the
            baseline scan of 6 years (interquartile range (IQR) 3.5 to 8.4). The group of 44 men who
            were still alive had a median follow-up time from baseline BS of 7 years (IQR 6.4 to 11)
            and from the follow-up BS of 4.7 years (IQR 3.5 to 7.1). The median time between
            baseline and follow-up BS in the entire group was 2.9 years (IQR 1.5 to 4.4), and
            patients received ADT at the time of the follow-up scan for a median of 2.2 years (IQR
            1.2 to 4.0).</p>

         <table id="T1">
            <title>
               <p>Table 1</p>
            </title>
            <caption>
               <p>
                  <b>Patient characteristics (</b>
                  <b>
                     <it>N</it>
                  </b>
                  <b>=146)</b>
               </p>
            </caption>
            <tgroup align="left" cols="4">
               <colspec align="left" colname="c1" colnum="1" colwidth="*"/>
               <colspec align="left" colname="c2" colnum="2" colwidth="*"/>
               <colspec align="left" colname="c3" colnum="3" colwidth="*"/>
               <colspec align="left" colname="c4" colnum="4" colwidth="*"/>
               <thead>
                  <row valign="top">
                     <entry colname="c1">
                        <p>
                           <b>Patient characteristics at baseline</b>
                        </p>
                     </entry>
                     <entry colname="c2">
                        <p>
                           <b>Values at baseline</b>
                        </p>
                     </entry>
                     <entry colname="c3">
                        <p>
                           <b>Patient characteristics at follow-up</b>
                        </p>
                     </entry>
                     <entry colname="c4">
                        <p>
                           <b>Values at follow-up</b>
                        </p>
                     </entry>
                  </row>
               </thead>
               <tfoot>
                  <p>
                     <it>N</it>, number of patients; IQR, interquartile range; BSI, Bone Scan Index;
                     PSA, prostate-specific antigen; M0, absence of metastasis; M1, presence of bone
                     metastasis.</p>
               </tfoot>
               <tbody>
                  <row valign="top">
                     <entry colname="c1">
                        <p>Age (years), median (IQR) (<it>N</it> =146)</p>
                     </entry>
                     <entry colname="c2">
                        <p>68 (62 to 74)</p>
                     </entry>
                     <entry colname="c3">
                        <p>Age (years), median (IQR) (<it>N</it> =146)</p>
                     </entry>
                     <entry colname="c4">
                        <p>71 (65 to 77)</p>
                     </entry>
                  </row>
                  <row valign="top">
                     <entry colname="c1">
                        <p>Baseline PSA (ng/mL), median (IQR) (<it>N</it> =146)</p>
                     </entry>
                     <entry colname="c2">
                        <p>72 (20 to 187)</p>
                     </entry>
                     <entry colname="c3">
                        <p>Follow-up PSA (ng/mL), median (IQR) (<it>N</it> =146)</p>
                     </entry>
                     <entry colname="c4">
                        <p>23 (2.6 to 89)</p>
                     </entry>
                  </row>
                  <row valign="top">
                     <entry colname="c1">
                        <p>Baseline BSI (<it>N</it> =146)</p>
                     </entry>
                     <entry colname="c2"/>
                     <entry colname="c3">
                        <p>Follow-up BSI (<it>N</it> =146)</p>
                     </entry>
                     <entry colname="c4"/>
                  </row>
                  <row valign="top">
                     <entry colname="c1">
                        <p>BSI =0 (M0), <it>N</it> (%)</p>
                     </entry>
                     <entry colname="c2">
                        <p>84 (57%)</p>
                     </entry>
                     <entry colname="c3">
                        <p>BSI =0 (M0), <it>N</it> (%)</p>
                     </entry>
                     <entry colname="c4">
                        <p>55 (37%)</p>
                     </entry>
                  </row>
                  <row valign="top">
                     <entry colname="c1">
                        <p>BSI &gt;0 (M1), <it>N</it> (%)</p>
                     </entry>
                     <entry colname="c2">
                        <p>62 (43%)</p>
                     </entry>
                     <entry colname="c3">
                        <p>BSI &gt;0 (M1), <it>N</it> (%)</p>
                     </entry>
                     <entry colname="c4">
                        <p>91 (63%)</p>
                     </entry>
                  </row>
                  <row valign="top">
                     <entry colname="c1">
                        <p>BSI &gt;0, median (IQR)</p>
                     </entry>
                     <entry colname="c2">
                        <p>1.5 (0.2 to 4.2)</p>
                     </entry>
                     <entry colname="c3">
                        <p>BSI &gt;0, median (IQR)</p>
                     </entry>
                     <entry colname="c4">
                        <p>1.7 (0.3 to 4.9)</p>
                     </entry>
                  </row>
                  <row valign="top">
                     <entry colname="c1">
                        <p>Clinical T stage (<it>N</it> =131)</p>
                     </entry>
                     <entry colname="c2"/>
                     <entry colname="c3">
                        <p>BSI change from baseline to follow-up (<it>N</it> =146)</p>
                     </entry>
                     <entry colname="c4"/>
                  </row>
                  <row valign="top">
                     <entry colname="c1">
                        <p>T1, <it>N</it> (%)</p>
                     </entry>
                     <entry colname="c2">
                        <p>9 (7%)</p>
                     </entry>
                     <entry colname="c3"/>
                     <entry colname="c4"/>
                  </row>
                  <row valign="top">
                     <entry colname="c1">
                        <p>T2, <it>N</it> (%)</p>
                     </entry>
                     <entry colname="c2">
                        <p>21 (16%)</p>
                     </entry>
                     <entry colname="c3"/>
                     <entry colname="c4"/>
                  </row>
                  <row valign="top">
                     <entry colname="c1">
                        <p>T3, <it>N</it> (%)</p>
                     </entry>
                     <entry colname="c2">
                        <p>85 (65%)</p>
                     </entry>
                     <entry colname="c3">
                        <p>BSI increased:</p>
                     </entry>
                     <entry colname="c4"/>
                  </row>
                  <row valign="top">
                     <entry colname="c1">
                        <p>T4, <it>N</it> (%)</p>
                     </entry>
                     <entry colname="c2">
                        <p>16 (12%)</p>
                     </entry>
                     <entry colname="c3">
                        <p>High BSI change, <it>N</it> (%)</p>
                     </entry>
                     <entry colname="c4">
                        <p>67 (46%)</p>
                     </entry>
                  </row>
                  <row valign="top">
                     <entry colname="c1">
                        <p>Gleason score (<it>N</it> =135)</p>
                     </entry>
                     <entry colname="c2"/>
                     <entry colname="c3">
                        <p>BSI unchanged/decreased:</p>
                     </entry>
                     <entry colname="c4"/>
                  </row>
                  <row valign="top">
                     <entry colname="c1">
                        <p>5, <it>N</it> (%)</p>
                     </entry>
                     <entry colname="c2">
                        <p>1 (0.7%)</p>
                     </entry>
                     <entry colname="c3">
                        <p>Low BSI change, <it>N</it> (%)</p>
                     </entry>
                     <entry colname="c4">
                        <p>79 (54%)</p>
                     </entry>
                  </row>
                  <row valign="top">
                     <entry colname="c1">
                        <p>6, <it>N</it> (%)</p>
                     </entry>
                     <entry colname="c2">
                        <p>6 (4.3%)</p>
                     </entry>
                     <entry colname="c3"/>
                     <entry colname="c4"/>
                  </row>
                  <row valign="top">
                     <entry colname="c1">
                        <p>7, <it>N</it> (%)</p>
                     </entry>
                     <entry colname="c2">
                        <p>48 (36%)</p>
                     </entry>
                     <entry colname="c3"/>
                     <entry colname="c4"/>
                  </row>
                  <row valign="top">
                     <entry colname="c1">
                        <p>8, <it>N</it> (%)</p>
                     </entry>
                     <entry colname="c2">
                        <p>36 (26%)</p>
                     </entry>
                     <entry colname="c3"/>
                     <entry colname="c4"/>
                  </row>
                  <row valign="top">
                     <entry colname="c1">
                        <p>9, <it>N</it> (%)</p>
                     </entry>
                     <entry colname="c2">
                        <p>39 (29%)</p>
                     </entry>
                     <entry colname="c3"/>
                     <entry colname="c4"/>
                  </row>
                  <row valign="top">
                     <entry colname="c1">
                        <p>10, <it>N</it> (%)</p>
                     </entry>
                     <entry colname="c2">
                        <p>5 (4%)</p>
                     </entry>
                     <entry colname="c3"/>
                     <entry colname="c4"/>
                  </row>
               </tbody>
            </tgroup>
         </table>

         <p>The androgen deprivation therapy administrated to these patients in most cases comprised
            bicalutamide (Casodex&#8482;, AstraZeneca plc, London, UK) or flutamide (Eulexin&#8482;,
            Schering-Plough Corporation, Kenilworth, NJ, USA), with or without a
            gonadotropin-releasing hormone analogue (GNRH) agonist such as leuprorelin
            (Eligard&#8482;, Enanton&#8482; or Procren&#8482;) and goserelin acetate
            (Zoladex&#174;). Among the 146 patients, 18 (12%) received anti-androgen monotherapy,
            whereas 128 (88%) received combined androgen blockade.</p>
         <p>Based on previously published data on the prognostic value of BSI, we stratified the
            patients into three groups based on their baseline BSI: BSI =0 (<it>n</it> =84), BSI
            &#8804;1% (<it>n</it> =30) and BSI &gt;1% (<it>n</it> =32), and we could then
            demonstrate significantly different 5-year survival rates of 80%, 60% and 25%,
            respectively (<it>p</it> &lt;0.0001) (Figure&#160;<figr fid="F1">1</figr>).</p>

         <fig id="F1"><title><p>Figure 1</p></title><caption><p>At baseline, Kaplan-Meier curves showing patient survival probability stratified
                  by BSI categories.</p></caption><text>
   <p><b>At baseline, Kaplan-Meier curves showing patient survival probability
                     stratified by BSI categories.</b> All the 146 patients included in the study
                  were studied at the time of prostate cancer diagnosis with bone scans. In
                  accordance with their BSI values at baseline, these patients were stratified in
                  three BSI categories: BSI =0 (<it>n</it> =84), BSI &#8804;1 (<it>n</it> =30) and
                  BSI &gt;1 (<it>n</it> =32). These three groups demonstrated significantly
                  different 5-year survival rates of 80%, 60% and 25%, respectively (<it>p</it>
                  &lt;0.0001).</p>
</text><graphic file="s13550-014-0058-y-1"/></fig>

         <p>In the univariate analysis at baseline, BSI, PSA, cT and GS were all significantly
            associated with OS (Table&#160;<tblr tid="T2">2</tblr>). BSI showed the highest C-index
            (0.74), followed by GS (0.67). In the multivariate analysis, BSI, cT and GS were
            associated with OS, while PSA was not. The C-index increased from 0.73 to 0.77
               (<it>p</it> =0.0005) when adding BSI to a base model including age, PSA, cT and
            GS.</p>

         <table id="T2">
            <title>
               <p>Table 2</p>
            </title>
            <caption>
               <p>
                  <b>Survival analysis demonstrating association between age, PSA, cT, GS and BSI at
                     baseline</b>
               </p>
            </caption>
            <tgroup align="left" cols="4">
               <colspec align="left" colname="c1" colnum="1" colwidth="*"/>
               <colspec align="left" colname="c2" colnum="2" colwidth="*"/>
               <colspec align="left" colname="c3" colnum="3" colwidth="*"/>
               <colspec align="left" colname="c4" colnum="4" colwidth="*"/>
               <thead>
                  <row valign="top">
                     <entry colname="c1">
                        <p>
                           <b>Variable at baseline</b>
                        </p>
                     </entry>
                     <entry colname="c2">
                        <p>
                           <b>
                              <it>N</it>
                           </b>
                        </p>
                     </entry>
                     <entry colname="c3">
                        <p>
                           <b>Hazard ratio</b>
                        </p>
                     </entry>
                     <entry colname="c4">
                        <p>
                           <b>
                              <it>p</it>
                           </b>
                           <b>value</b>
                        </p>
                     </entry>
                  </row>
               </thead>
               <tfoot>
                  <p>PSA, prostate-specific antigen; cT, clinical stage; GS, Gleason score; BSI,
                     Bone Scan Index; <it>N</it>, number of patients.</p>
               </tfoot>
               <tbody>
                  <row valign="top">
                     <entry colname="c1">
                        <p>Univariate analysis</p>
                     </entry>
                     <entry colname="c2"/>
                     <entry colname="c3"/>
                     <entry colname="c4"/>
                  </row>
                  <row valign="top">
                     <entry colname="c1">
                        <p>&#8195;Age</p>
                     </entry>
                     <entry colname="c2">
                        <p>146</p>
                     </entry>
                     <entry colname="c3">
                        <p>1.02 (0.99 to 1.05)</p>
                     </entry>
                     <entry colname="c4">
                        <p>0.21</p>
                     </entry>
                  </row>
                  <row valign="top">
                     <entry colname="c1">
                        <p>&#8195;PSA</p>
                     </entry>
                     <entry colname="c2">
                        <p>146</p>
                     </entry>
                     <entry colname="c3">
                        <p>1.0002 (1.0000 to 1.0003)</p>
                     </entry>
                     <entry colname="c4">
                        <p>0.02</p>
                     </entry>
                  </row>
                  <row valign="top">
                     <entry colname="c1">
                        <p>&#8195;cT</p>
                     </entry>
                     <entry colname="c2">
                        <p>131</p>
                     </entry>
                     <entry colname="c3">
                        <p>2.40 (1.43 to 4.04)</p>
                     </entry>
                     <entry colname="c4">
                        <p>0.0009</p>
                     </entry>
                  </row>
                  <row valign="top">
                     <entry colname="c1">
                        <p>&#8195;GS</p>
                     </entry>
                     <entry colname="c2">
                        <p>135</p>
                     </entry>
                     <entry colname="c3">
                        <p>1.84 (1.38 to 2.46)</p>
                     </entry>
                     <entry colname="c4">
                        <p>&lt;0.0001</p>
                     </entry>
                  </row>
                  <row valign="top">
                     <entry colname="c1">
                        <p>&#8195;BSI</p>
                     </entry>
                     <entry colname="c2">
                        <p>146</p>
                     </entry>
                     <entry colname="c3">
                        <p>1.27 (1.19 to 1.36)</p>
                     </entry>
                     <entry colname="c4">
                        <p>&lt;0.0001</p>
                     </entry>
                  </row>
                  <row valign="top">
                     <entry colname="c1">
                        <p>Multivariate analysis</p>
                     </entry>
                     <entry colname="c2"/>
                     <entry colname="c3"/>
                     <entry colname="c4"/>
                  </row>
                  <row valign="top">
                     <entry colname="c1">
                        <p>&#8195;Age</p>
                     </entry>
                     <entry colname="c2">
                        <p>121</p>
                     </entry>
                     <entry colname="c3">
                        <p>1.02 (0.98 to 1.06)</p>
                     </entry>
                     <entry colname="c4">
                        <p>0.28</p>
                     </entry>
                  </row>
                  <row valign="top">
                     <entry colname="c1">
                        <p>&#8195;PSA</p>
                     </entry>
                     <entry colname="c2">
                        <p>121</p>
                     </entry>
                     <entry colname="c3">
                        <p>0.9999 (0.9998 to 1.0002)</p>
                     </entry>
                     <entry colname="c4">
                        <p>0.80</p>
                     </entry>
                  </row>
                  <row valign="top">
                     <entry colname="c1">
                        <p>&#8195;cT</p>
                     </entry>
                     <entry colname="c2">
                        <p>121</p>
                     </entry>
                     <entry colname="c3">
                        <p>2.20 (1.28 to 3.78)</p>
                     </entry>
                     <entry colname="c4">
                        <p>0.004</p>
                     </entry>
                  </row>
                  <row valign="top">
                     <entry colname="c1">
                        <p>&#8195;GS</p>
                     </entry>
                     <entry colname="c2">
                        <p>121</p>
                     </entry>
                     <entry colname="c3">
                        <p>1.86 (1.34 to 2.58)</p>
                     </entry>
                     <entry colname="c4">
                        <p>0.0002</p>
                     </entry>
                  </row>
                  <row valign="top">
                     <entry colname="c1">
                        <p>Multivariate analysis</p>
                     </entry>
                     <entry colname="c2"/>
                     <entry colname="c3"/>
                     <entry colname="c4"/>
                  </row>
                  <row valign="top">
                     <entry colname="c1">
                        <p>&#8195;Age</p>
                     </entry>
                     <entry colname="c2">
                        <p>121</p>
                     </entry>
                     <entry colname="c3">
                        <p>1.03 (0.99 to 1.06)</p>
                     </entry>
                     <entry colname="c4">
                        <p>0.10</p>
                     </entry>
                  </row>
                  <row valign="top">
                     <entry colname="c1">
                        <p>&#8195;PSA</p>
                     </entry>
                     <entry colname="c2">
                        <p>121</p>
                     </entry>
                     <entry colname="c3">
                        <p>0.9999 (0.9997 to 1.0002)</p>
                     </entry>
                     <entry colname="c4">
                        <p>0.58</p>
                     </entry>
                  </row>
                  <row valign="top">
                     <entry colname="c1">
                        <p>&#8195;cT</p>
                     </entry>
                     <entry colname="c2">
                        <p>121</p>
                     </entry>
                     <entry colname="c3">
                        <p>1.95 (1.16 to 3.28)</p>
                     </entry>
                     <entry colname="c4">
                        <p>0.01</p>
                     </entry>
                  </row>
                  <row valign="top">
                     <entry colname="c1">
                        <p>&#8195;GS</p>
                     </entry>
                     <entry colname="c2">
                        <p>121</p>
                     </entry>
                     <entry colname="c3">
                        <p>1.99 (1.43 to 2.779)</p>
                     </entry>
                     <entry colname="c4">
                        <p>&lt;0.0001</p>
                     </entry>
                  </row>
                  <row valign="top">
                     <entry colname="c1">
                        <p>&#8195;BSI</p>
                     </entry>
                     <entry colname="c2">
                        <p>121</p>
                     </entry>
                     <entry colname="c3">
                        <p>1.26 (1.16 to 1.37)</p>
                     </entry>
                     <entry colname="c4">
                        <p>&lt;0.0001</p>
                     </entry>
                  </row>
               </tbody>
            </tgroup>
         </table>

         <p>Each one of the 146 patients was again retrospectively analysed using a single follow-up
            BS for measurement of BSI values during ADT. We decided to include only follow-up BS
            obtained at more than 12 weeks from the start of ADT, as suggested in The Prostate
            Cancer Working Group 2 (PCWG2) guidelines when evaluating BS after PCa treatment
            initiation <abbrgrp>
               <abbr bid="B13">13</abbr>
            </abbrgrp>. During ADT, the patients again showed different survival rates depending on
            their BSI values when we stratified the patients into the same three groups based on
            their follow-up BSI: BSI =0 (<it>n</it> =55), BSI &#8804;1 (<it>n</it> =44) and BSI
            &gt;1 (<it>n</it> =47). These three groups displayed significantly different 5-year
            survival rates of 92%, 57% and 20%, respectively (<it>p</it> &lt;0.001)
               (Figure&#160;<figr fid="F2">2</figr>).</p>

         <fig id="F2"><title><p>Figure 2</p></title><caption><p>At follow up, Kaplan-Meier curves showing patient survival probability stratified
                  by BSI categories.</p></caption><text>
   <p><b>At follow up, Kaplan-Meier curves showing patient survival probability
                     stratified by BSI categories.</b> These 146 patients were again studied with
                  bone scans after the initiation of primary hormonal treatment. In accordance with
                  their BSI values at follow-up, these patients were stratified in three BSI
                  categories: BSI =0 (<it>n</it> =55), BSI &#8804;1 (<it>n</it> =44) and BSI &gt;1
                     (<it>n</it> =47). These three groups demonstrated significantly different
                  5-year survival rates of 92%, 57% and 20%, respectively (<it>p</it>
                  &lt;0.0001).</p>
</text><graphic file="s13550-014-0058-y-2"/></fig>

         <p>In both univariate and the multivariate analyses at follow-up, we included age, cT and
            GS at the time of diagnosis and the corresponding follow-up values for BSI and PSA. All
            these parameters were again associated with OS (Table&#160;<tblr tid="T3">3</tblr>). The
            C-index for BSI was again the highest (0.80), this time followed by PSA (0.76). The
            C-index increased from 0.77 to 0.83 (<it>p</it> &lt;0.0001) when adding BSI at follow-up
            to a model including age, cT and GS (at the time of diagnosis) and PSA at follow-up.</p>

         <table id="T3">
            <title>
               <p>Table 3</p>
            </title>
            <caption>
               <p>
                  <b>Survival analysis demonstrating association between age, PSA, cT, GS and BSI
                     during ADT</b>
               </p>
            </caption>
            <tgroup align="left" cols="4">
               <colspec align="left" colname="c1" colnum="1" colwidth="*"/>
               <colspec align="left" colname="c2" colnum="2" colwidth="*"/>
               <colspec align="left" colname="c3" colnum="3" colwidth="*"/>
               <colspec align="left" colname="c4" colnum="4" colwidth="*"/>
               <thead>
                  <row valign="top">
                     <entry colname="c1">
                        <p>
                           <b>Variable at follow-up</b>
                        </p>
                     </entry>
                     <entry colname="c2">
                        <p>
                           <b>
                              <it>N</it>
                           </b>
                        </p>
                     </entry>
                     <entry colname="c3">
                        <p>
                           <b>Hazard ratio</b>
                        </p>
                     </entry>
                     <entry colname="c4">
                        <p>
                           <b>
                              <it>p</it>
                           </b>
                           <b>value</b>
                        </p>
                     </entry>
                  </row>
               </thead>
               <tfoot>
                  <p>PSA, prostate-specific antigen; cT, clinical stage; GS, Gleason score; BSI,
                     Bone Scan Index; ADT, androgen deprivation therapy; <it>N</it>, number of
                     patients.</p>
               </tfoot>
               <tbody>
                  <row valign="top">
                     <entry colname="c1">
                        <p>Univariate analysis</p>
                     </entry>
                     <entry colname="c2"/>
                     <entry colname="c3"/>
                     <entry colname="c4"/>
                  </row>
                  <row valign="top">
                     <entry colname="c1">
                        <p>&#8195;Age</p>
                     </entry>
                     <entry colname="c2">
                        <p>146</p>
                     </entry>
                     <entry colname="c3">
                        <p>1.04 (1.004 to 1.07)</p>
                     </entry>
                     <entry colname="c4">
                        <p>0.03</p>
                     </entry>
                  </row>
                  <row valign="top">
                     <entry colname="c1">
                        <p>&#8195;PSA</p>
                     </entry>
                     <entry colname="c2">
                        <p>146</p>
                     </entry>
                     <entry colname="c3">
                        <p>1.0002 (1.00002 to 1.0003)</p>
                     </entry>
                     <entry colname="c4">
                        <p>0.03</p>
                     </entry>
                  </row>
                  <row valign="top">
                     <entry colname="c1">
                        <p>&#8195;TS</p>
                     </entry>
                     <entry colname="c2">
                        <p>131</p>
                     </entry>
                     <entry colname="c3">
                        <p>2.39 (1.41 to 4.04)</p>
                     </entry>
                     <entry colname="c4">
                        <p>0.001</p>
                     </entry>
                  </row>
                  <row valign="top">
                     <entry colname="c1">
                        <p>&#8195;GS</p>
                     </entry>
                     <entry colname="c2">
                        <p>135</p>
                     </entry>
                     <entry colname="c3">
                        <p>1.75 (1.32 to 2.32)</p>
                     </entry>
                     <entry colname="c4">
                        <p>0.0001</p>
                     </entry>
                  </row>
                  <row valign="top">
                     <entry colname="c1">
                        <p>&#8195;BSI</p>
                     </entry>
                     <entry colname="c2">
                        <p>146</p>
                     </entry>
                     <entry colname="c3">
                        <p>1.26 (1.18 to 1.35)</p>
                     </entry>
                     <entry colname="c4">
                        <p>&lt;0.0001</p>
                     </entry>
                  </row>
                  <row valign="top">
                     <entry colname="c1">
                        <p>Multivariate analysis</p>
                     </entry>
                     <entry colname="c2"/>
                     <entry colname="c3"/>
                     <entry colname="c4"/>
                  </row>
                  <row valign="top">
                     <entry colname="c1">
                        <p>&#8195;Age</p>
                     </entry>
                     <entry colname="c2">
                        <p>121</p>
                     </entry>
                     <entry colname="c3">
                        <p>1.04 (1.0004 to 1.08)</p>
                     </entry>
                     <entry colname="c4">
                        <p>0.03</p>
                     </entry>
                  </row>
                  <row valign="top">
                     <entry colname="c1">
                        <p>&#8195;PSA</p>
                     </entry>
                     <entry colname="c2">
                        <p>121</p>
                     </entry>
                     <entry colname="c3">
                        <p>1.0006 (1.0003 to 1.0009)</p>
                     </entry>
                     <entry colname="c4">
                        <p>&lt;0.0001</p>
                     </entry>
                  </row>
                  <row valign="top">
                     <entry colname="c1">
                        <p>&#8195;TS</p>
                     </entry>
                     <entry colname="c2">
                        <p>121</p>
                     </entry>
                     <entry colname="c3">
                        <p>2.09 (1.24 to 3.51)</p>
                     </entry>
                     <entry colname="c4">
                        <p>0.006</p>
                     </entry>
                  </row>
                  <row valign="top">
                     <entry colname="c1">
                        <p>&#8195;GS</p>
                     </entry>
                     <entry colname="c2">
                        <p>121</p>
                     </entry>
                     <entry colname="c3">
                        <p>1.70 (1.23 to 2.35)</p>
                     </entry>
                     <entry colname="c4">
                        <p>0.001</p>
                     </entry>
                  </row>
                  <row valign="top">
                     <entry colname="c1">
                        <p>Multivariate analysis</p>
                     </entry>
                     <entry colname="c2"/>
                     <entry colname="c3"/>
                     <entry colname="c4"/>
                  </row>
                  <row valign="top">
                     <entry colname="c1">
                        <p>&#8195;Age</p>
                     </entry>
                     <entry colname="c2">
                        <p>121</p>
                     </entry>
                     <entry colname="c3">
                        <p>1.05 (1.01 to 1.09)</p>
                     </entry>
                     <entry colname="c4">
                        <p>0.009</p>
                     </entry>
                  </row>
                  <row valign="top">
                     <entry colname="c1">
                        <p>&#8195;PSA</p>
                     </entry>
                     <entry colname="c2">
                        <p>121</p>
                     </entry>
                     <entry colname="c3">
                        <p>1.0004 (1.00001 to 1.0008)</p>
                     </entry>
                     <entry colname="c4">
                        <p>0.04</p>
                     </entry>
                  </row>
                  <row valign="top">
                     <entry colname="c1">
                        <p>&#8195;TS</p>
                     </entry>
                     <entry colname="c2">
                        <p>121</p>
                     </entry>
                     <entry colname="c3">
                        <p>1.98 (1.21 to 3.24)</p>
                     </entry>
                     <entry colname="c4">
                        <p>0.007</p>
                     </entry>
                  </row>
                  <row valign="top">
                     <entry colname="c1">
                        <p>&#8195;GS</p>
                     </entry>
                     <entry colname="c2">
                        <p>121</p>
                     </entry>
                     <entry colname="c3">
                        <p>1.47 (1.04 to 2.08)</p>
                     </entry>
                     <entry colname="c4">
                        <p>0.03</p>
                     </entry>
                  </row>
                  <row valign="top">
                     <entry colname="c1">
                        <p>&#8195;BSI</p>
                     </entry>
                     <entry colname="c2">
                        <p>121</p>
                     </entry>
                     <entry colname="c3">
                        <p>1.19 (1.09 to 1.29)</p>
                     </entry>
                     <entry colname="c4">
                        <p>&lt;0.0001</p>
                     </entry>
                  </row>
               </tbody>
            </tgroup>
         </table>

         <p>Among the 146 patients included in this study, 67 patients showed an increase in BSI
            from baseline to follow-up (high BSI change). The remaining 79 patients showed a
            decreased or a stable BSI value (low BSI change). The OS rates were significantly
            different for these two groups, showing 5-year survival rates of 41% and 75%,
            respectively (<it>p</it> =0.0004) (Figure&#160;<figr fid="F3">3</figr>).</p>

         <fig id="F3"><title><p>Figure 3</p></title><caption><p>At follow-up, Kaplan-Meier curves showing patient survival probability stratified
                  by BSI changes categories.</p></caption><text>
   <p><b>At follow-up, Kaplan-Meier curves showing patient survival probability
                     stratified by BSI changes categories.</b> BSI changes from baseline to
                  follow-up were evaluated among the 146 patients studied. In accordance with their
                  BSI change values at follow-up, these patients were classified in two BSI changes
                  categories: High BSI change (BSI increase <it>n</it> =67) and low BSI change
                  (stable BSI or BSI decrease, <it>n</it> =79). These two groups demonstrated
                  significantly different 5-year survival rates of 41% and 75%, respectively
                     (<it>p</it> =0.0004).</p>
</text><graphic file="s13550-014-0058-y-3"/></fig>

      </sec>
      <sec>
         <st>
            <p>4 Discussion</p>
         </st>
         <p>While the role of BSI at the time of diagnosis <abbrgrp>
               <abbr bid="B10">10</abbr>
            </abbrgrp>,<abbrgrp>
               <abbr bid="B11">11</abbr>
            </abbrgrp> and during chemotherapy <abbrgrp>
               <abbr bid="B14">14</abbr>
            </abbrgrp>,<abbrgrp>
               <abbr bid="B15">15</abbr>
            </abbrgrp> has been described in PCa patients, no data is available on the prognostic
            additive value of BSI in high-risk PCa patients during ADT. Prognostic evaluation of
            these patients is crucial for optimal multimodality treatment, and our results confirm
            that the addition of the imaging biomarker BSI as a complement to classical prognostic
            markers (as PSA, cT and GS) increases the predictive accuracy of risk stratification in
            this group of patients. Changes in PSA values during treatment constitute one of the
            most used measures to study outcome in PCa patients, but the isolated measure of this
            parameter has been shown not to be of prognostic value when corrected by BSI in patients
            with CRPC who are undergoing chemotherapy <abbrgrp>
               <abbr bid="B8">8</abbr>
            </abbrgrp>. Evaluation of the prognostic additive value of BSI in PCa patients during
            ADT was thus of interest.</p>
         <p>The results of the present study clearly show that BSI is prognostic for OS during ADT,
            both as an isolated measure and when added to a classical prognostic model comprising
            age, PSA, cT and GS. The presence or absence of bone metastases (M1 or M0) is commonly
            used to risk stratify PCa patients. We also showed that BSI, as a quantitative
            measurement of the total tumour burden in the skeleton, can be used to further stratify
            high-risk PCa patients with metastases. Patients with BSI &lt;1 had higher 5-year
            survival rates compared to those with BSI &gt;1, both at the time of diagnosis and
            during ADT (Figures&#160;<figr fid="F1">1</figr> and <figr fid="F2">2</figr>). PCa
            patients with distant metastases at the time of diagnosis most commonly receive ADT as
            primary treatment. The clinical implication of the findings in our study is that BSI
            could be used as a complement to conventional prognostic biomarkers in the
            stratification of high-risk PCa patients in clinical routine and in the design of
            clinical trials, not only at the time of diagnosis but also during ADT. BSI could then
            help physicians identify patients who could benefit from more aggressive therapies
               (Figure&#160;<figr fid="F4">4</figr>).</p>

         <fig id="F4"><title><p>Figure 4</p></title><caption><p>BSI progression in a metastatic hormone-resistant prostate cancer patient.</p></caption><text>
   <p><b>BSI progression in a metastatic hormone-resistant prostate cancer patient.</b>
                  This figure shows posterior views of baseline <b>(A)</b> and follow-up <b>(B)</b>
                  whole-body bone scans of a metastatic hormone-resistant prostate cancer patient.
                  Hot spots, presented in red, represent the bone area affected by tumour. The BSI
                  change from baseline to follow-up shows <it>BSI progression</it> in accordance
                  with patient's <it>high BSI change</it> after androgen deprivation therapy.
                  According to our results, <it>high BSI changes</it> are significantly associated
                  with poorer prognosis.</p>
</text><graphic file="s13550-014-0058-y-4"/></fig>

         <p>In the present study, we have used OS as an endpoint for outcome analysis. Prostate
            cancer specific survival would also have been important to evaluate, but due to limited
            availability of data, this endpoint could not be used. In future prospective BSI
            studies, we plan to investigate additional endpoints besides OS such as biochemical
            recurrence, clinical progression and radiographic progression. It would be also of value
            to evaluate the correlation of BSI with other prognostic biomarkers that showed impact
            on survival in PCa patients. Therefore, beside the previous studied parameters, we
            intend to include alkaline phosphatase, haemoglobin, lactate dehydrogenase and
            performance status in the design of our future prospective studies.</p>
         <p>We have retrospectively evaluated a consecutive cohort of prostate cancer patients who
            underwent whole-body scan examinations both at the time of diagnosis and later on at
            follow-up after hormonal therapy according to the standard-of-care procedure. At our
            centres, the indications for bone scan examinations in prostate cancer patients are
            mainly PSA in blood &gt;20 and/or high GS (&gt;8), increasing PSA values (biochemical
            progression) and bone pain (symptomatic progression). These indications may increase the
            possibility of finding bone metastasis already at the time of diagnosis and or
            progression of disease at follow-up in patients who underwent whole-body scan
            examinations at our nuclear medicine departments, but to avoid the risk of selection
            bias, this patient material represents a consecutive cohort.</p>
         <p>BSI is advantageous in that it is based on BS examinations, which constitute the most
            widely used method of evaluating metastatic spread to the bone in PCa patients, as
            considered to be a golden standard <abbrgrp>
               <abbr bid="B6">6</abbr>
            </abbrgrp>. More advanced imaging modalities such as MRI and PET/CT are still not
            commonly used and they are, to some extent, hampered by the lack of standardization. A
            disadvantage of BSI is the limitations of the BS technique itself, e.g. the difficulty
            of distinguish between flare reactions and disease progress after initiation of
            treatment. This is most common during the first 3 months of treatment, and we thus
            decided only to include patients who had undergone baseline scans before initial
            treatment as well as follow-up scans more than 12 weeks after commencement of ADT, as
            suggested in the PCWG2 guidelines when evaluating BS after PCa treatment initiation <abbrgrp>
               <abbr bid="B13">13</abbr>
            </abbrgrp>. Despite these cautions to reduce the probability of flare effect during the
            study design, as well as the fact that there were no signs suggesting its presence in
            the visual evaluation of the BS images studied (an increase in activity of previously
            seen metastatic lesions and no new lesions), we cannot ensure the total exclusion of the
            phenomenon in this material. At present, there is no method that can effectively ensure
            its exclusion at follow-up. Inclusion of a flare reaction would weaken the association
            between BSI and OS, since patients with a positive response to treatment and a falsely
            elevated BSI would most probably have a better prognosis.</p>
         <p>BS imaging is a very sensitive technic for osteoblastic bone reactions. An intense
            uptake in a BS does not always correlate with metastatic disease. These changes can be
            also found in benign pathologies such as osteomyelitis and fractures. BSI refers to
            percentage of skeleton affected only by tumour; we have therefore reviewed each BSI
            measurement and corrected manually those lesions of benign nature that were
            misclassified as hotspots. This correction though was only needed in less than 5% of the
            cases.</p>
         <p>In the process of implementing BSI as an imaging biomarker for PCa patients, we here add
            new and important information on the value of BSI during ADT. Further studies on BSI as
            a clinically useful biomarker to predict and to evaluate response to novel treatments in
            CRPC are also underway. BSI studies could be of great value to stratify patients in
            clinical trials and to measure clinical efficacy of new treatments.</p>
      </sec>
      <sec>
         <st>
            <p>5 Conclusions</p>
         </st>
         <p>We conclude that BSI during ADT is independently associated with OS. This new imaging
            biomarker can be used as a complement to conventional prognostic biomarkers such as PSA,
            GS and cT to stratify high-risk prostate cancer patients, not only at the time of
            diagnosis but also during later stages of the disease. BSI could then help physicians
            identify patients who could benefit from more aggressive therapies.</p>
      </sec>
      <sec>
         <st>
            <p>Competing interests</p>
         </st>
         <p>LE and MO are employed by and are shareholders in EXINI Diagnostics AB (Lund, Sweden),
            which provides the EXINIbone<sup>bsi</sup> software used in this study. AB has been
            receiving honoraria from EXINI Diagnostics as Medical Adviser. MR, RK, ET and PW
            indicated no potential conflicts of interest.</p>
      </sec>
      <sec>
         <st>
            <p>Authors&#8217; contributions</p>
         </st>
         <p>MR, AB, PW, LE and ET participated in the design of the study and in the analysis and
            interpretation of data, and drafted the manuscript. RK participated in the design of the
            study and in the analysis and interpretation of data. MO carried out the statistical
            analysis of the data. All authors read and approved the final version of the
            manuscript.</p>
      </sec>
   </bdy>
   <bm>
      <ack>
         <sec>
            <st>
               <p>Acknowledgements</p>
            </st>
            <p>This study was funded by grants from the Swedish Cancer Society, the Cancer
               Foundation at Sk&#229;ne University Hospital Malm&#246;, the Swedish Research Council
               Medicine (VR), Lund University (Medical Faculty ALF Grants), as well as receiving
               government funding for clinical research within the National Health Service (NHS),
               Sweden.</p>
         </sec>
      </ack>
      <refgrp><bibl id="B1"><title><p>High-risk prostate cancer: from definition to contemporary management</p></title><aug><au><snm>Bastian</snm><fnm>PJ</fnm></au><au><snm>Boorjian</snm><fnm>SA</fnm></au><au><snm>Bossi</snm><fnm>A</fnm></au><au><snm>Briganti</snm><fnm>A</fnm></au><au><snm>Heidenreich</snm><fnm>A</fnm></au><au><snm>Freedland</snm><fnm>SJ</fnm></au><au><snm>Montorsi</snm><fnm>F</fnm></au><au><snm>Roach</snm><fnm>M</fnm><suf>III</suf></au><au><snm>Schr&#246;der</snm><fnm>F</fnm></au><au><snm>van Poppel</snm><fnm>H</fnm></au><au><snm>Stief</snm><fnm>CG</fnm></au><au><snm>Stephenson</snm><fnm>AJ</fnm></au><au><snm>Zelefsky</snm><fnm>MJ</fnm></au></aug><source>Eur Urol</source><pubdate>2012</pubdate><volume>61</volume><fpage>1096</fpage><lpage>1106</lpage><xrefbib><pubidlist><pubid idtype="doi">10.1016/j.eururo.2012.02.031</pubid><pubid idtype="pmpid" link="fulltext">22386839</pubid></pubidlist></xrefbib></bibl><bibl id="B2"><title><p>Skeletal related events, bone metastasis and survival of prostate cancer: a
                  population based cohort study in Denmark (1999 to 2007)</p></title><aug><au><snm>N&#248;rgaard</snm><fnm>M</fnm></au><au><snm>Jensen</snm><fnm>A&#216;</fnm></au><au><snm>Jacobsen</snm><fnm>JB</fnm></au><au><snm>Cetin</snm><fnm>K</fnm></au><au><snm>Fryzek</snm><fnm>JP</fnm></au><au><snm>S&#248;rensen</snm><fnm>HT</fnm></au></aug><source>J Urology</source><pubdate>2010</pubdate><volume>184</volume><issue>1</issue><fpage>162</fpage><lpage>167</lpage><xrefbib><pubid idtype="doi">10.1016/j.juro.2010.03.034</pubid></xrefbib></bibl><bibl id="B3"><title><p>Prognostic value of bone scan in patients with metastatic prostate cancer treated
                  initially with androgen deprivation therapy</p></title><aug><au><snm>Rigaud</snm><fnm>J</fnm></au><au><snm>Tiguert</snm><fnm>R</fnm></au><au><snm>Le Normand</snm><fnm>L</fnm></au><au><snm>Karam</snm><fnm>G</fnm></au><au><snm>Glemain</snm><fnm>P</fnm></au><au><snm>Buzelin</snm><fnm>JM</fnm></au><au><snm>Bouchot</snm><fnm>O</fnm></au></aug><source>J Urol</source><pubdate>2002</pubdate><volume>168</volume><issue>4</issue><fpage>1423</fpage><lpage>1426</lpage><xrefbib><pubidlist><pubid idtype="doi">10.1016/S0022-5347(05)64465-5</pubid><pubid idtype="pmpid" link="fulltext">12352409</pubid></pubidlist></xrefbib></bibl><bibl id="B4"><title><p>Emerging therapies in castration-resistant prostate cancer</p></title><aug><au><snm>Thoreson</snm><fnm>GR</fnm></au><au><snm>Gayed</snm><fnm>BA</fnm></au><au><snm>Chung</snm><fnm>PH</fnm></au><au><snm>Raj</snm><fnm>GV</fnm></au></aug><source>Can J Urol</source><pubdate>2014</pubdate><volume>21</volume><issue>2 Suppl 1</issue><fpage>98</fpage><lpage>105</lpage><xrefbib><pubid idtype="pmpid" link="fulltext">24775731</pubid></xrefbib></bibl><bibl id="B5"><title><p>When to perform bone scan in patients with newly diagnosed prostate cancer:
                  external validation of the currently available guidelines and proposal of a novel
                  risk stratification tool</p></title><aug><au><snm>Briganti</snm><fnm>A</fnm></au><au><snm>Passoni</snm><fnm>N</fnm></au><au><snm>Ferrari</snm><fnm>M</fnm></au><au><snm>Capitanio</snm><fnm>U</fnm></au><au><snm>Suardi</snm><fnm>N</fnm></au><au><snm>Gallina</snm><fnm>A</fnm></au><au><snm>Da Pozzo</snm><fnm>LF</fnm></au><au><snm>Picchio</snm><fnm>M</fnm></au><au><snm>Di Girolamo</snm><fnm>V</fnm></au><au><snm>Salonia</snm><fnm>A</fnm></au><au><snm>Gianolli</snm><fnm>L</fnm></au><au><snm>Messa</snm><fnm>C</fnm></au><au><snm>Rigatti</snm><fnm>P</fnm></au><au><snm>Montorsi</snm><fnm>F</fnm></au></aug><source>Eur Urol</source><pubdate>2010</pubdate><volume>57</volume><issue>4</issue><fpage>551</fpage><lpage>558</lpage><xrefbib><pubidlist><pubid idtype="doi">10.1016/j.eururo.2009.12.023</pubid><pubid idtype="pmpid" link="fulltext">20034730</pubid></pubidlist></xrefbib></bibl><bibl id="B6"><title><p>EAU guidelines on prostate cancer. Part 1: screening, diagnosis, and local
                  treatment with curative intent&#8212;update 2013</p></title><aug><au><snm>Heidenreich</snm><fnm>A</fnm></au><au><snm>Bastian</snm><fnm>PJ</fnm></au><au><snm>Bellmunt</snm><fnm>J</fnm></au><au><snm>Bolla</snm><fnm>M</fnm></au><au><snm>Joniau</snm><fnm>S</fnm></au><au><snm>van der Kwast</snm><fnm>T</fnm></au><au><snm>Mason</snm><fnm>M</fnm></au><au><snm>Matveev</snm><fnm>V</fnm></au><au><snm>Wiegel</snm><fnm>T</fnm></au><au><snm>Zattoni</snm><fnm>F</fnm></au><au><snm>Mottet</snm><fnm>N</fnm></au></aug><source>Eur Urol</source><pubdate>2014</pubdate><volume>65</volume><issue>1</issue><fpage>124</fpage><lpage>137</lpage><xrefbib><pubidlist><pubid idtype="doi">10.1016/j.eururo.2013.09.046</pubid><pubid idtype="pmpid" link="fulltext">24207135</pubid></pubidlist></xrefbib></bibl><bibl id="B7"><title><p>A new parameter for measuring metastatic bone involvement by prostate cancer: the
                  Bone Scan Index</p></title><aug><au><snm>Imbriaco</snm><fnm>M</fnm></au><au><snm>Larson</snm><fnm>SM</fnm></au><au><snm>Yeung</snm><fnm>HW</fnm></au><au><snm>Mawlawi</snm><fnm>OR</fnm></au><au><snm>Erdi</snm><fnm>Y</fnm></au><au><snm>Venkatraman</snm><fnm>ES</fnm></au><au><snm>Scher</snm><fnm>HI</fnm></au></aug><source>Clin Cancer Res</source><pubdate>1998</pubdate><volume>4</volume><issue>7</issue><fpage>1765</fpage><lpage>1772</lpage><xrefbib><pubid idtype="pmpid" link="fulltext">9676853</pubid></xrefbib></bibl><bibl id="B8"><title><p>Bone Scan Index: a quantitative treatment response biomarker for
                  castration-resistant metastatic prostate cancer</p></title><aug><au><snm>Dennis</snm><fnm>ER</fnm></au><au><snm>Jia</snm><fnm>X</fnm></au><au><snm>Mezheritskiy</snm><fnm>IS</fnm></au><au><snm>Stephenson</snm><fnm>RD</fnm></au><au><snm>Schoder</snm><fnm>H</fnm></au><au><snm>Fox</snm><fnm>JJ</fnm></au><au><snm>Heller</snm><fnm>G</fnm></au><au><snm>Scher</snm><fnm>HI</fnm></au><au><snm>Larson</snm><fnm>AM</fnm></au><au><snm>Morris</snm><fnm>MJ</fnm></au></aug><source>J Clin Oncol</source><pubdate>2012</pubdate><volume>30</volume><issue>5</issue><fpage>519</fpage><lpage>524</lpage><xrefbib><pubidlist><pubid idtype="doi">10.1200/JCO.2011.36.5791</pubid><pubid idtype="pmcid">3295554</pubid><pubid idtype="pmpid" link="fulltext">22231045</pubid></pubidlist></xrefbib></bibl><bibl id="B9"><title><p>A novel automated platform for quantifying the extent of skeletal tumor
                  involvement in prostate cancer patients using Bone Scan Index</p></title><aug><au><snm>Ulmert</snm><fnm>D</fnm></au><au><snm>Kaboteh</snm><fnm>R</fnm></au><au><snm>Fox</snm><fnm>JJ</fnm></au><au><snm>Savage</snm><fnm>C</fnm></au><au><snm>Evans</snm><fnm>MJ</fnm></au><au><snm>Lilja</snm><fnm>H</fnm></au><au><snm>Abrahamsson</snm><fnm>PA</fnm></au><au><snm>Bj&#246;rk</snm><fnm>T</fnm></au><au><snm>Gerdtsson</snm><fnm>A</fnm></au><au><snm>Bjartell</snm><fnm>A</fnm></au><au><snm>Gjertsson</snm><fnm>P</fnm></au><au><snm>H&#246;glund</snm><fnm>P</fnm></au><au><snm>Lomsky</snm><fnm>M</fnm></au><au><snm>Ohlsson</snm><fnm>M</fnm></au><au><snm>Richter</snm><fnm>J</fnm></au><au><snm>Sadik</snm><fnm>M</fnm></au><au><snm>Morris</snm><fnm>MJ</fnm></au><au><snm>Scher</snm><fnm>HI</fnm></au><au><snm>Sj&#246;strand</snm><fnm>K</fnm></au><au><snm>Yu</snm><fnm>A</fnm></au><au><snm>Suurk&#252;la</snm><fnm>M</fnm></au><au><snm>Edenbrandt</snm><fnm>L</fnm></au><au><snm>Larson</snm><fnm>SM</fnm></au></aug><source>Eur Urol</source><pubdate>2012</pubdate><volume>62</volume><issue>1</issue><fpage>78</fpage><lpage>84</lpage><xrefbib><pubidlist><pubid idtype="doi">10.1016/j.eururo.2012.01.037</pubid><pubid idtype="pmcid">3402084</pubid><pubid idtype="pmpid" link="fulltext">22306323</pubid></pubidlist></xrefbib></bibl><bibl id="B10"><title><p>Bone Scan Index: a prognostic imaging biomarker for high-risk prostate cancer
                  patients receiving primary hormonal therapy</p></title><aug><au><snm>Kaboteh</snm><fnm>R</fnm></au><au><snm>Damber</snm><fnm>JE</fnm></au><au><snm>Gjertsson</snm><fnm>P</fnm></au><au><snm>H&#246;glund</snm><fnm>P</fnm></au><au><snm>Lomsky</snm><fnm>M</fnm></au><au><snm>Ohlsson</snm><fnm>M</fnm></au><au><snm>Edenbrandt</snm><fnm>L</fnm></au></aug><source>EJNMMI Res</source><pubdate>2013</pubdate><volume>3</volume><issue>1</issue><fpage>9</fpage><xrefbib><pubidlist><pubid idtype="doi">10.1186/2191-219X-3-9</pubid><pubid idtype="pmcid">3570487</pubid><pubid idtype="pmpid" link="fulltext">23384286</pubid></pubidlist></xrefbib></bibl><bibl id="B11"><title><p>Prostate kallikrein markers in diagnosis, risk stratification and prognosis</p></title><aug><au><snm>Ulmert</snm><fnm>D</fnm></au><au><snm>O'Brien</snm><fnm>MF</fnm></au><au><snm>Bjartell</snm><fnm>AS</fnm></au><au><snm>Lilja</snm><fnm>H</fnm></au></aug><source>Nat Rev Urol</source><pubdate>2009</pubdate><volume>6</volume><fpage>384</fpage><lpage>391</lpage><xrefbib><pubidlist><pubid idtype="doi">10.1038/nrurol.2009.123</pubid><pubid idtype="pmpid" link="fulltext">19578355</pubid></pubidlist></xrefbib></bibl><bibl id="B12"><title><p>A comparative study of survival models for breast cancer prognostication based on
                  microarray data: does a single gene beat them all?</p></title><aug><au><snm>Haibe-Kains</snm><fnm>B</fnm></au><au><snm>Desmedt</snm><fnm>C</fnm></au><au><snm>Sotiriou</snm><fnm>C</fnm></au><au><snm>Bontempi</snm><fnm>G</fnm></au></aug><source>Bioinformatics</source><pubdate>2008</pubdate><volume>24</volume><fpage>2200</fpage><lpage>2208</lpage><xrefbib><pubidlist><pubid idtype="doi">10.1093/bioinformatics/btn374</pubid><pubid idtype="pmcid">2553442</pubid><pubid idtype="pmpid" link="fulltext">18635567</pubid></pubidlist></xrefbib></bibl><bibl id="B13"><title><p>Design and end points of clinical trials for patients with progressive prostate
                  cancer and castrate levels of testosterone: recommendations of the Prostate Cancer
                  Clinical Trials Working Group</p></title><aug><au><snm>Scher</snm><fnm>HI</fnm></au><au><snm>Halabi</snm><fnm>S</fnm></au><au><snm>Tannock</snm><fnm>I</fnm></au><au><snm>Morris</snm><fnm>M</fnm></au><au><snm>Sternberg</snm><fnm>CN</fnm></au><au><snm>Carducci</snm><fnm>MA</fnm></au><au><snm>Eisenberger</snm><fnm>MA</fnm></au><au><snm>Higano</snm><fnm>C</fnm></au><au><snm>Bubley</snm><fnm>GJ</fnm></au><au><snm>Dreicer</snm><fnm>R</fnm></au><au><snm>Petrylak</snm><fnm>D</fnm></au><au><snm>Kantoff</snm><fnm>P</fnm></au><au><snm>Basch</snm><fnm>E</fnm></au><au><snm>Kelly</snm><fnm>WK</fnm></au><au><snm>Figg</snm><fnm>WD</fnm></au><au><snm>Small</snm><fnm>EJ</fnm></au><au><snm>Beer</snm><fnm>TM</fnm></au><au><snm>Wilding</snm><fnm>G</fnm></au><au><snm>Martin</snm><fnm>A</fnm></au><au><snm>Hussain</snm><fnm>M</fnm></au></aug><source>J Clin Oncol</source><pubdate>2008</pubdate><volume>26</volume><issue>7</issue><fpage>1148</fpage><lpage>1159</lpage><xrefbib><pubidlist><pubid idtype="doi">10.1200/JCO.2007.12.4487</pubid><pubid idtype="pmcid">4010133</pubid><pubid idtype="pmpid" link="fulltext">18309951</pubid></pubidlist></xrefbib></bibl><bibl id="B14"><title><p>Progression of bone metastases in patients with prostate cancer - automated
                  detection of new lesions and calculation of bone scan index</p></title><aug><au><snm>Kaboteh</snm><fnm>R</fnm></au><au><snm>Gjertsson</snm><fnm>P</fnm></au><au><snm>Leek</snm><fnm>H</fnm></au><au><snm>Lomsky</snm><fnm>M</fnm></au><au><snm>Ohlsson</snm><fnm>M</fnm></au><au><snm>Sj&#246;strand</snm><fnm>K</fnm></au><au><snm>Edenbrandt</snm><fnm>L</fnm></au></aug><source>EJNMMI Res</source><pubdate>2013</pubdate><volume>3</volume><issue>1</issue><fpage>64</fpage><xrefbib><pubidlist><pubid idtype="doi">10.1186/2191-219X-3-64</pubid><pubid idtype="pmcid">3751570</pubid><pubid idtype="pmpid" link="fulltext">23947784</pubid></pubidlist></xrefbib></bibl><bibl id="B15"><title><p>Prediction of survival benefit using an automated bone scan index in patients with
                  castration-resistant prostate cancer</p></title><aug><au><snm>Mitsui</snm><fnm>Y</fnm></au><au><snm>Shiina</snm><fnm>H</fnm></au><au><snm>Yamamoto</snm><fnm>Y</fnm></au><au><snm>Haramoto</snm><fnm>M</fnm></au><au><snm>Arichi</snm><fnm>N</fnm></au><au><snm>Yasumoto</snm><fnm>H</fnm></au><au><snm>Kitagaki</snm><fnm>H</fnm></au><au><snm>Igawa</snm><fnm>M</fnm></au></aug><source>BJU Int</source><pubdate>2012</pubdate><volume>110</volume><fpage>628</fpage><lpage>634</lpage><xrefbib><pubid idtype="doi">10.1111/j.1464-410X.2012.11355.x</pubid></xrefbib></bibl></refgrp>
   </bm>
</art>