<art>
    <ui>s40201-014-0133-3</ui>
    <ji>2052-336X</ji>
    <fm>
       <dochead>Research article</dochead>
       <bibl>
          <title>
             <p>Effects of storage time and temperature on the antimony and some trace element release from polyethylene terephthalate (PET) into the bottled drinking water</p>
          </title>
          <aug>
             <au id="A1">
                <snm>Molaee Aghaee</snm>
                <fnm>Ebrahim</fnm>
                <insr iid="I1"/>
                <email>em.aqaee@gmail.com</email>
             </au>
             <au ca="yes" id="A2">
                <snm>Alimohammadi</snm>
                <fnm>Mahmood</fnm>
                <insr iid="I2"/>
                <email>m_alimohammadi@tums.ac.ir</email>
             </au>
             <au id="A3">
                <snm>Nabizadeh</snm>
                <fnm>Ramin</fnm>
                <insr iid="I2"/>
                <email>rnabizadeh@tums.ac.ir</email>
             </au>
             <au id="A4">
                <snm>Jahed khaniki</snm>
                <fnm>Gholamreza</fnm>
                <insr iid="I2"/>
                <email>ghjahed@sina.tums.ac.ir</email>
             </au>
             <au id="A5">
                <snm>Naseri</snm>
                <fnm>Simin</fnm>
                <insr iid="I2"/>
                <insr iid="I3"/>
                <email>naserise@tums.ac.ir</email>
             </au>
             <au id="A6">
                <snm>Mahvi</snm>
                <mnm>Hossein</mnm>
                <fnm>Amir</fnm>
                <insr iid="I2"/>
                <insr iid="I3"/>
                <email>ahmahvi@yahoo.com</email>
             </au>
             <au id="A7">
                <snm>Yaghmaeian</snm>
                <fnm>Kamyar</fnm>
                <insr iid="I2"/>
                <email>Kyaghmaeian@gmail.com</email>
             </au>
             <au id="A8">
                <snm>Aslani</snm>
                <fnm>Hassan</fnm>
                <insr iid="I2"/>
                <email>Aslani.ha@gmail.com</email>
             </au>
             <au id="A9">
                <snm>Nazmara</snm>
                <fnm>Shahrokh</fnm>
                <insr iid="I2"/>
                <email>Nazm2000@yahoo.com</email>
             </au>
             <au id="A10">
                <snm>Mahmoudi</snm>
                <fnm>Babak</fnm>
                <insr iid="I2"/>
                <email>Babak_Mahmoudi61@yahoo.com</email>
             </au>
             <au id="A11">
                <snm>Ghani</snm>
                <fnm>Maryam</fnm>
                <insr iid="I2"/>
                <email>Ghani.maryam@yahoo.com</email>
             </au>
          </aug>
          <insg>
             <ins id="I1">
                <p>Department of Food Hygiene and Control, Faculty of Veterinary Medicine, Tehran University, Tehran, Iran</p>
             </ins>
             <ins id="I2">
                <p>Department of Environmental Health Engineering, School of Public Health, Tehran University of Medical Sciences, Tehran, Iran</p>
             </ins>
             <ins id="I3">
                <p>Center for Water Quality Research (CWQR), Institute for Environmental Research (IER), Tehran University of Medical Sciences, Tehran, Iran</p>
             </ins>
          </insg>
          <source>Journal of Environmental Health Science and Engineering</source>
          <issn>2052-336X</issn>
          <pubdate>2014</pubdate>
          <volume>12</volume>
          <issue>1</issue>
          <fpage>133</fpage>
          <url>http://www.ijehse.com/content/12/1/133</url>
          <xrefbib>
             <pubidlist>
                <pubid idtype="doi">10.1186/s40201-014-0133-3</pubid>
             <pubid idtype="pmpid">25431656</pubid></pubidlist>
          </xrefbib>
       </bibl>
       <history>
          <rec>
             <date>
                <day>26</day>
                <month>7</month>
                <year>2014</year>
             </date>
          </rec>
          <acc>
             <date>
                <day>26</day>
                <month>10</month>
                <year>2014</year>
             </date>
          </acc>
          <pub>
             <date>
                <day>13</day>
                <month>11</month>
                <year>2014</year>
             </date>
          </pub>
       </history>
       <cpyrt>
          <year>2014</year>
          <collab>Molaee Aghaee et al.; licensee BioMed Central Ltd.</collab>
          <note>This is an Open Access article distributed under the terms of the Creative Commons Attribution License (<url>http://creativecommons.org/licenses/by/4.0</url>), which permits unrestricted use, distribution, and reproduction in any medium, provided the original work is properly credited. The Creative Commons Public Domain Dedication waiver (<url>http://creativecommons.org/publicdomain/zero/1.0/</url>) applies to the data made available in this article, unless otherwise stated.</note>
       </cpyrt>
       <kwdg>
          <kwd>PET</kwd>
          <kwd>Bottled water</kwd>
          <kwd>Antimony</kwd>
          <kwd>Trace elements</kwd>
       </kwdg>
       <abs>
          <sec>
             <st>
                <p>Abstract</p>
             </st>
             <sec>
                <st>
                   <p>Background and objectives</p>
                </st>
                <p>Heavy metals are considered as one of the major contaminants that can enter into the bottled waters. Antimony (Sb) is a contaminant, which may leach from the polyethylene terephthalate (PET) bottles into the water. The aim of this study was to investigate the content of antimony and other trace elements in bottled waters which was kept in varied storage conditions and temperatures.</p>
             </sec>
             <sec>
                <st>
                   <p>Materials and methods</p>
                </st>
                <p>Five time-temperature treatments were carried out on five different brands of commercially available bottled waters. Heavy metal measurement was performed by Inductively Coupled Plasma-Atomic Emission Spectroscopy (ICP-AES) method. Analysis of the collected data was processed by SPSS software.</p>
             </sec>
             <sec>
                <st>
                   <p>Results</p>
                </st>
                <p>Antimony concentration was the main concern in our study. The concentrations increased in each of the sample during storage period at all temperatures. The results for different conditions were as follow: at 40&#176;C, in outdoor and at room temperature the Sb concentrations were below the MCLs, i e. 6&#160;ppb. However, at 65&#176;C and 80&#176;C for longer storage times Sb concentration exceeded the MCLs, and variations between the samples were significant (p&#8201;&#8804;&#8201;0.05). Storage time and temperature effects on the content of some other trace elements such as Al, Fe were also significant (p&#8201;&#8804;&#8201;0.05).</p>
             </sec>
             <sec>
                <st>
                   <p>Conclusion</p>
                </st>
                <p>By increasing the duration of storage time and temperatures, antimony leaching from the PET bottles into the bottled water increased. The concentration of Al demonstrated an increase in higher temperatures and storage duration, whereas the content of Fe demonstrated no significant differences.</p>
             </sec>
          </sec>
       </abs>
    </fm>
    <bdy>
       <sec>
          <st>
             <p>Introduction</p>
          </st>
          <p>Consumption of bottled water has become increasingly popular worldwide. Population growth and lack of access to appropriate drinking water has also increased use of bottled waters; and in some areas, some major concerns to the consumers are environmental pollutants and its adverse effects on the local water supply, as well as, a number of the local municipality water irregularities, such as off odor and taste of the water, high amount of fluoride and chloride. On the other hand, people with immunity system deficiency require more safe drinking water. Moreover, it is believed that bottled water is safer and has higher quality than other water resources which increased its consumption <abbrgrp>
                <abbr bid="B1">1</abbr>
             </abbrgrp>&#8211;<abbrgrp>
                <abbr bid="B3">3</abbr>
             </abbrgrp>. Hence, higher standards and quality control measures are required on the safety, chemical and microbial properties of the bottled waters. According to the World Health Organization (WHO), over 1.8 million people, particularly children, die annually due to water borne diseases, which have been, and is one of the leading and still prevalent mortality causes worldwide <abbrgrp>
                <abbr bid="B4">4</abbr>
             </abbrgrp>,<abbrgrp>
                <abbr bid="B5">5</abbr>
             </abbrgrp>.</p>
          <p>Antimony, titanium or germanium compounds are used as catalysts in the manufacturing of polyethylene terephthalate (PET) bottles, where polymerization of terephthalic acid monomers and ethylene glycol occurs. Among these, Antimony trioxide is one of the main catalysts used, and the amount of Antimony trioxide found in the bottles varies between 100-300&#160;mg/kg <abbrgrp>
                <abbr bid="B6">6</abbr>
             </abbrgrp>. Antimony is regarded as one of the major drinking water contaminants, which exceeds the maximum contaminant level (MCL), i.e. 6&#160;ppb, under a number of conditions. Short term exposures to the levels higher than MCL, can cause side effects such as nausea, vomiting and diarrhea. Higher blood cholesterol and lower blood sugar are other side effects when exposed for a longer period of time <abbrgrp>
                <abbr bid="B7">7</abbr>
             </abbrgrp>. According to Shotyk and Krachler high storage temperatures and sunlight irradiation could increase the Sb release into the bottled water <abbrgrp>
                <abbr bid="B8">8</abbr>
             </abbrgrp>.</p>
          <p>Epidemiological studies revealed a significant link between diseases and the presence of trace toxic elements such as As, Cd, Pb and Sb in bottled waters, as well as the high amounts of essential micronutrients such as Zn, Se and Co. Although, some trace elements such as Cr, Co and Se are essential for human life, these mineral if consumed in higher rates than the suggested required daily(RD) amounts can be harmful <abbrgrp>
                <abbr bid="B9">9</abbr>
             </abbrgrp>,<abbrgrp>
                <abbr bid="B10">10</abbr>
             </abbrgrp>.</p>
          <p>Due to a considerable increase in the PET bottled water consumption worldwide, the purpose of this study was to investigate the trace element contents in bottled waters and the conditions, which affect the release of Sb and/or other trace elements into the water.</p>
       </sec>
       <sec>
          <st>
             <p>Materials and methods</p>
          </st>
          <p>Five different popular brands of bottled water with the highest rate of consumption were purchased from the local grocery markets, in Tehran, Iran. The main criteria for selecting the brands in this study, was their production in different regions of Iran and different environments. The five storage conditions designed for the investigation of the samples were, storage at room temperature (25&#8201;&#177;&#8201;2.6&#176;C), outdoors and sunlight (31&#8201;&#177;&#8201;4.6&#176;C) and 40&#176;C and the experiment intervals were defined as follows, weeks 0 (immediately after receiving), 1, 2, 4, 6 and 8 were performed. Storage at 65&#176;C, and the experiments was done in days zero (immediately after receiving), 3, 7 and weeks 2, 4 and 6. Storage at 80&#176;C at test days zero (immediately after receiving), 1, 2, 3, 4 and 7 was considered for the other storage condition. In the defined intervals for each temperature condition, 0.5&#160;L samples were acidified with 1&#160;mL 65% nitric acid to prevent sedimentation and then were digested and placed on an electrical heater to obtain a concentrated volume of 25&#160;mL. Furthermore, in order to detect the very low trace amounts of the elements, the condensation process was carried out at a very low temperature over a long period of time to prevent boiling of the samples. For short-term storage, i e. before sample injection to ICP-AES (model Spectro ARCOS.), and in order to prevent any variation in trace elements concentrations pH of the samples were lowered to 2 by using a pure 65% nitric acid. Chemical examinations were performed by Ion Chromatography (IC) for anions and cations, additional procedures were performed according to the Standard Methods for the Examination of Water &amp; Wastewater (APHA 21st Ed.). Statistical analyses was performed using the SPSS (11.5) software. A probability level of <it>p</it>&#8201;&lt;&#8201;0.05 was considered statistically significant.</p>
       </sec>
       <sec>
          <st>
             <p>Results</p>
          </st>
          <p>Chemical properties of all five brands of the different bottled waters were measured for a better consideration of the examined samples. Both labeled data and analyzed characteristics are presented in Table&#160;<tblr tid="T1">1</tblr>. All samples pH were in the range from 7.2 to 7.9 which specified by the labels as well as measurements.
                </p>
          
             <table id="T1">
                <title>
                   <p>Table 1</p>
                </title>
                <caption>
                   <p>
                          <b>Physicochemical properties of bottled water samples</b>                        
                   </p>
                </caption>
                <tgroup align="left" cols="11">
                   <colspec align="left" colname="c1" colnum="1" colwidth="*"/>
                   <colspec align="left" colname="c2" colnum="2" colwidth="*"/>
                   <colspec align="left" colname="c3" colnum="3" colwidth="*"/>
                   <colspec align="left" colname="c4" colnum="4" colwidth="*"/>
                   <colspec align="left" colname="c5" colnum="5" colwidth="*"/>
                   <colspec align="left" colname="c6" colnum="6" colwidth="*"/>
                   <colspec align="left" colname="c7" colnum="7" colwidth="*"/>
                   <colspec align="left" colname="c8" colnum="8" colwidth="*"/>
                   <colspec align="left" colname="c9" colnum="9" colwidth="*"/>
                   <colspec align="left" colname="c10" colnum="10" colwidth="*"/>
                   <colspec align="left" colname="c11" colnum="11" colwidth="*"/>
                   <thead>
                      <row>
                         <entry colname="c1">
                            <p>
                              <b>Brand no.</b>                            
                            </p>
                         </entry>
                         <entry colname="c2">
                            <p>
                              <b>F</b>                            
                            </p>
                         </entry>
                         <entry colname="c3">
                            <p>
                              <b>Cl</b>                            
                            </p>
                         </entry>
                         <entry colname="c4">
                            <p>
                              <b>NO</b>                              
                               <sub>
                                  <b>2</b> 
                               </sub>
                            </p>
                         </entry>
                         <entry colname="c5">
                            <p>
                              <b>NO</b>                              
                               <sub>
                                  <b>3</b> 
                               </sub>
                            </p>
                         </entry>
                         <entry colname="c6">
                            <p>
                              <b>SO</b>                              
                               <sub>
                                  <b>4</b> 
                               </sub>
                            </p>
                         </entry>
                         <entry colname="c7">
                            <p>
                              <b>Na</b>                            
                            </p>
                         </entry>
                         <entry colname="c8">
                            <p>
                              <b>K</b>                            
                            </p>
                         </entry>
                         <entry colname="c9">
                            <p>
                              <b>Ca</b>                            
                            </p>
                         </entry>
                         <entry colname="c10">
                            <p>
                              <b>Mg</b>                            
                            </p>
                         </entry>
                         <entry colname="c11">
                            <p>
                              <b>pH</b>                            
                            </p>
                         </entry>
                      </row>
                   </thead>
                   <tfoot>
                      <p>
                        <sup>a</sup>Secondary Maximum Contaminant Level (SMCL).</p>
                   </tfoot>
                   <tbody>
                      <row>
                         <entry colname="c1">
                            <p>1</p>
                         </entry>
                         <entry colname="c2">
                            <p>0.07&#8201;&#177;&#8201;0.03</p>
                         </entry>
                         <entry colname="c3">
                            <p>1.77&#8201;&#177;&#8201;0.04</p>
                         </entry>
                         <entry colname="c4">
                            <p>0</p>
                         </entry>
                         <entry colname="c5">
                            <p>4.02&#8201;&#177;&#8201;0.14</p>
                         </entry>
                         <entry colname="c6">
                            <p>9.26&#8201;&#177;&#8201;0.06</p>
                         </entry>
                         <entry colname="c7">
                            <p>3.9&#8201;&#177;&#8201;0.16</p>
                         </entry>
                         <entry colname="c8">
                            <p>0.21&#8201;&#177;&#8201;0.007</p>
                         </entry>
                         <entry colname="c9">
                            <p>42.7&#8201;&#177;&#8201;19.37</p>
                         </entry>
                         <entry colname="c10">
                            <p>3.99&#8201;&#177;&#8201;0.25</p>
                         </entry>
                         <entry colname="c11">
                            <p>7.42&#8201;&#177;&#8201;0.06</p>
                         </entry>
                      </row>
                      <row valign="top">
                         <entry colname="c1">
                            <p>Label</p>
                         </entry>
                         <entry colname="c2">
                            <p>0.2</p>
                         </entry>
                         <entry colname="c3">
                            <p>6</p>
                         </entry>
                         <entry colname="c4">
                            <p>0</p>
                         </entry>
                         <entry colname="c5">
                            <p>7</p>
                         </entry>
                         <entry colname="c6">
                            <p>10</p>
                         </entry>
                         <entry colname="c7">
                            <p>5</p>
                         </entry>
                         <entry colname="c8">
                            <p>1</p>
                         </entry>
                         <entry colname="c9">
                            <p>29.6</p>
                         </entry>
                         <entry colname="c10">
                            <p>4</p>
                         </entry>
                         <entry colname="c11">
                            <p>7.3</p>
                         </entry>
                      </row>
                      <row valign="top">
                         <entry colname="c1">
                            <p>2</p>
                         </entry>
                         <entry colname="c2">
                            <p>0.27&#8201;&#177;&#8201;0.007</p>
                         </entry>
                         <entry colname="c3">
                            <p>8.75&#8201;&#177;&#8201;0.02</p>
                         </entry>
                         <entry colname="c4">
                            <p>0</p>
                         </entry>
                         <entry colname="c5">
                            <p>14.4&#8201;&#177;&#8201;0.42</p>
                         </entry>
                         <entry colname="c6">
                            <p>26.25&#8201;&#177;&#8201;0.21</p>
                         </entry>
                         <entry colname="c7">
                            <p>8.44&#8201;&#177;&#8201;0.0</p>
                         </entry>
                         <entry colname="c8">
                            <p>0.82&#8201;&#177;&#8201;0.17</p>
                         </entry>
                         <entry colname="c9">
                            <p>39.45&#8201;&#177;&#8201;36.5</p>
                         </entry>
                         <entry colname="c10">
                            <p>18.85&#8201;&#177;&#8201;0.35</p>
                         </entry>
                         <entry colname="c11">
                            <p>7.59&#8201;&#177;&#8201;0.09</p>
                         </entry>
                      </row>
                      <row valign="top">
                         <entry colname="c1">
                            <p>Label</p>
                         </entry>
                         <entry colname="c2">
                            <p>0.23</p>
                         </entry>
                         <entry colname="c3">
                            <p>16.4</p>
                         </entry>
                         <entry colname="c4">
                            <p>0</p>
                         </entry>
                         <entry colname="c5">
                            <p>14</p>
                         </entry>
                         <entry colname="c6">
                            <p>21</p>
                         </entry>
                         <entry colname="c7">
                            <p>10.8</p>
                         </entry>
                         <entry colname="c8">
                            <p>1.37</p>
                         </entry>
                         <entry colname="c9">
                            <p>62.7</p>
                         </entry>
                         <entry colname="c10">
                            <p>20.3</p>
                         </entry>
                         <entry colname="c11">
                            <p>7.5</p>
                         </entry>
                      </row>
                      <row valign="top">
                         <entry colname="c1">
                            <p>3</p>
                         </entry>
                         <entry colname="c2">
                            <p>0.07&#8201;&#177;&#8201;0.02</p>
                         </entry>
                         <entry colname="c3">
                            <p>1.09&#8201;&#177;&#8201;0.03</p>
                         </entry>
                         <entry colname="c4">
                            <p>0</p>
                         </entry>
                         <entry colname="c5">
                            <p>3.95&#8201;&#177;&#8201;0.23</p>
                         </entry>
                         <entry colname="c6">
                            <p>6.32&#8201;&#177;&#8201;0.1</p>
                         </entry>
                         <entry colname="c7">
                            <p>0.98&#8201;&#177;&#8201;0.12</p>
                         </entry>
                         <entry colname="c8">
                            <p>0.31&#8201;&#177;&#8201;0.03</p>
                         </entry>
                         <entry colname="c9">
                            <p>31.95&#8201;&#177;&#8201;2.47</p>
                         </entry>
                         <entry colname="c10">
                            <p>7.39&#8201;&#177;&#8201;0.53</p>
                         </entry>
                         <entry colname="c11">
                            <p>7.67&#8201;&#177;&#8201;0.05</p>
                         </entry>
                      </row>
                      <row valign="top">
                         <entry colname="c1">
                            <p>Label</p>
                         </entry>
                         <entry colname="c2">
                            <p>0.07</p>
                         </entry>
                         <entry colname="c3">
                            <p>6</p>
                         </entry>
                         <entry colname="c4">
                            <p>0</p>
                         </entry>
                         <entry colname="c5">
                            <p>7</p>
                         </entry>
                         <entry colname="c6">
                            <p>3</p>
                         </entry>
                         <entry colname="c7">
                            <p>1</p>
                         </entry>
                         <entry colname="c8">
                            <p>0.1</p>
                         </entry>
                         <entry colname="c9">
                            <p>32.1</p>
                         </entry>
                         <entry colname="c10">
                            <p>7.61</p>
                         </entry>
                         <entry colname="c11">
                            <p>7.6</p>
                         </entry>
                      </row>
                      <row valign="top">
                         <entry colname="c1">
                            <p>4</p>
                         </entry>
                         <entry colname="c2">
                            <p>0.12&#8201;&#177;&#8201;0.007</p>
                         </entry>
                         <entry colname="c3">
                            <p>0.64&#8201;&#177;&#8201;0.02</p>
                         </entry>
                         <entry colname="c4">
                            <p>0</p>
                         </entry>
                         <entry colname="c5">
                            <p>2.44&#8201;&#177;&#8201;0.21</p>
                         </entry>
                         <entry colname="c6">
                            <p>20.35&#8201;&#177;&#8201;0.21</p>
                         </entry>
                         <entry colname="c7">
                            <p>4.02&#8201;&#177;&#8201;0.05</p>
                         </entry>
                         <entry colname="c8">
                            <p>1.59&#8201;&#177;&#8201;0.01</p>
                         </entry>
                         <entry colname="c9">
                            <p>0.01&#8201;&#177;&#8201;0.007</p>
                         </entry>
                         <entry colname="c10">
                            <p>0.0&#8201;&#177;&#8201;0.007</p>
                         </entry>
                         <entry colname="c11">
                            <p>7.29&#8201;&#177;&#8201;0.07</p>
                         </entry>
                      </row>
                      <row valign="top">
                         <entry colname="c1">
                            <p>Label</p>
                         </entry>
                         <entry colname="c2">
                            <p>0.11</p>
                         </entry>
                         <entry colname="c3">
                            <p>0.7</p>
                         </entry>
                         <entry colname="c4">
                            <p>0</p>
                         </entry>
                         <entry colname="c5">
                            <p>2.3</p>
                         </entry>
                         <entry colname="c6">
                            <p>19</p>
                         </entry>
                         <entry colname="c7">
                            <p>4.7</p>
                         </entry>
                         <entry colname="c8">
                            <p>1.9</p>
                         </entry>
                         <entry colname="c9">
                            <p>9.8</p>
                         </entry>
                         <entry colname="c10">
                            <p>2.3</p>
                         </entry>
                         <entry colname="c11">
                            <p>7.2</p>
                         </entry>
                      </row>
                      <row valign="top">
                         <entry colname="c1">
                            <p>5</p>
                         </entry>
                         <entry colname="c2">
                            <p>0.15&#8201;&#177;&#8201;0.01</p>
                         </entry>
                         <entry colname="c3">
                            <p>4.27&#8201;&#177;&#8201;0.1</p>
                         </entry>
                         <entry colname="c4">
                            <p>0.06</p>
                         </entry>
                         <entry colname="c5">
                            <p>12&#8201;&#177;&#8201;0.14</p>
                         </entry>
                         <entry colname="c6">
                            <p>24.85&#8201;&#177;&#8201;0.07</p>
                         </entry>
                         <entry colname="c7">
                            <p>10.7&#8201;&#177;&#8201;0.14</p>
                         </entry>
                         <entry colname="c8">
                            <p>0.7&#8201;&#177;&#8201;0.02</p>
                         </entry>
                         <entry colname="c9">
                            <p>106.5&#8201;&#177;&#8201;21.92</p>
                         </entry>
                         <entry colname="c10">
                            <p>19.5&#8201;&#177;&#8201;0.56</p>
                         </entry>
                         <entry colname="c11">
                            <p>7.42&#8201;&#177;&#8201;0.07</p>
                         </entry>
                      </row>
                      <row valign="top">
                         <entry colname="c1">
                            <p>Label</p>
                         </entry>
                         <entry colname="c2">
                            <p>0.2</p>
                         </entry>
                         <entry colname="c3">
                            <p>6.1</p>
                         </entry>
                         <entry colname="c4">
                            <p>0</p>
                         </entry>
                         <entry colname="c5">
                            <p>7.5</p>
                         </entry>
                         <entry colname="c6">
                            <p>10.6</p>
                         </entry>
                         <entry colname="c7">
                            <p>10.5</p>
                         </entry>
                         <entry colname="c8">
                            <p>0.6</p>
                         </entry>
                         <entry colname="c9">
                            <p>56.4</p>
                         </entry>
                         <entry colname="c10">
                            <p>15.4</p>
                         </entry>
                         <entry colname="c11">
                            <p>7.4</p>
                         </entry>
                      </row>
                      <row valign="top">
                         <entry colname="c1">
                            <p>EPA,2002</p>
                         </entry>
                         <entry colname="c2">
                            <p>2</p>
                         </entry>
                         <entry colname="c3">
                            <p>250<sup>a</sup>
                            </p>
                         </entry>
                         <entry colname="c4">
                            <p>3.3</p>
                         </entry>
                         <entry colname="c5">
                            <p>44</p>
                         </entry>
                         <entry colname="c6">
                            <p>250<sup>a</sup>
                            </p>
                         </entry>
                         <entry colname="c7">
                            <p>-</p>
                         </entry>
                         <entry colname="c8">
                            <p>-</p>
                         </entry>
                         <entry colname="c9">
                            <p>-</p>
                         </entry>
                         <entry colname="c10">
                            <p>-</p>
                         </entry>
                         <entry colname="c11">
                            <p>6.5-8.5<sup>a</sup>
                            </p>
                         </entry>
                      </row>
                   </tbody>
                </tgroup>
             </table>
          
          <p>Content of trace metals in the bottled water samples at the initial stage of this study are illustrated in Table&#160;<tblr tid="T2">2</tblr>.
                </p>
          
             <table id="T2">
                <title>
                   <p>Table 2</p>
                </title>
                <caption>
                   <p>
                          <b>Trace metals content of bottled water samples</b>                        
                   </p>
                </caption>
                <tgroup align="left" cols="8">
                   <colspec align="left" colname="c1" colnum="1" colwidth="*"/>
                   <colspec align="left" colname="c2" colnum="2" colwidth="*"/>
                   <colspec align="left" colname="c3" colnum="3" colwidth="*"/>
                   <colspec align="left" colname="c4" colnum="4" colwidth="*"/>
                   <colspec align="left" colname="c5" colnum="5" colwidth="*"/>
                   <colspec align="left" colname="c6" colnum="6" colwidth="*"/>
                   <colspec align="left" colname="c7" colnum="7" colwidth="*"/>
                   <colspec align="left" colname="c8" colnum="8" colwidth="*"/>
                   <thead>
                      <row>
                         <entry colname="c1">
                            <p>
                              <b>Metal/Brand</b>                            
                            </p>
                         </entry>
                         <entry colname="c2">
                            <p>
                              <b>Unit</b>                            
                            </p>
                         </entry>
                         <entry colname="c3">
                            <p>
                              <b>1</b>                            
                            </p>
                         </entry>
                         <entry colname="c4">
                            <p>
                              <b>2</b>                            
                            </p>
                         </entry>
                         <entry colname="c5">
                            <p>
                              <b>3</b>                            
                            </p>
                         </entry>
                         <entry colname="c6">
                            <p>
                              <b>4</b>                            
                            </p>
                         </entry>
                         <entry colname="c7">
                            <p>
                              <b>5</b>                            
                            </p>
                         </entry>
                         <entry colname="c8">
                            <p>
                              <b>EPA (2002)</b>                            
                            </p>
                         </entry>
                      </row>
                   </thead>
                   <tfoot>
                      <p>
                        <sup>a</sup>Not Detected.</p>
                      <p>
                        <sup>b</sup>Secondary Maximum Contaminant Level (SMCL).</p>
                      <p>
                        <sup>c</sup>Action Level.</p>
                   </tfoot>
                   <tbody>
                      <row>
                         <entry colname="c1">
                            <p>Al</p>
                         </entry>
                         <entry colname="c2">
                            <p>ppb</p>
                         </entry>
                         <entry colname="c3">
                            <p>3.82&#8201;&#177;&#8201;0.03</p>
                         </entry>
                         <entry colname="c4">
                            <p>6.17&#8201;&#177;&#8201;0.45</p>
                         </entry>
                         <entry colname="c5">
                            <p>12.77&#8201;&#177;&#8201;0.74</p>
                         </entry>
                         <entry colname="c6">
                            <p>7.52&#8201;&#177;&#8201;1.23</p>
                         </entry>
                         <entry colname="c7">
                            <p>6.67&#8201;&#177;&#8201;0.24</p>
                         </entry>
                         <entry colname="c8">
                            <p>200<sup>b</sup>
                            </p>
                         </entry>
                      </row>
                      <row valign="top">
                         <entry colname="c1">
                            <p>As</p>
                         </entry>
                         <entry colname="c2">
                            <p>ppb</p>
                         </entry>
                         <entry colname="c3">
                            <p>N.D<sup>a</sup>
                            </p>
                         </entry>
                         <entry colname="c4">
                            <p>N.D</p>
                         </entry>
                         <entry colname="c5">
                            <p>N.D</p>
                         </entry>
                         <entry colname="c6">
                            <p>3.37&#8201;&#177;&#8201;1.02</p>
                         </entry>
                         <entry colname="c7">
                            <p>N.D</p>
                         </entry>
                         <entry colname="c8">
                            <p>10</p>
                         </entry>
                      </row>
                      <row valign="top">
                         <entry colname="c1">
                            <p>B</p>
                         </entry>
                         <entry colname="c2">
                            <p>ppb</p>
                         </entry>
                         <entry colname="c3">
                            <p>14.17&#8201;&#177;&#8201;0.95</p>
                         </entry>
                         <entry colname="c4">
                            <p>25.97&#8201;&#177;&#8201;1.09</p>
                         </entry>
                         <entry colname="c5">
                            <p>10.4&#8201;&#177;&#8201;1.48</p>
                         </entry>
                         <entry colname="c6">
                            <p>35.52&#8201;&#177;&#8201;2.93</p>
                         </entry>
                         <entry colname="c7">
                            <p>23.5&#8201;&#177;&#8201;1.76</p>
                         </entry>
                         <entry colname="c8">
                            <p>-</p>
                         </entry>
                      </row>
                      <row valign="top">
                         <entry colname="c1">
                            <p>Be</p>
                         </entry>
                         <entry colname="c2">
                            <p>ppb</p>
                         </entry>
                         <entry colname="c3">
                            <p>N.D</p>
                         </entry>
                         <entry colname="c4">
                            <p>N.D</p>
                         </entry>
                         <entry colname="c5">
                            <p>N.D</p>
                         </entry>
                         <entry colname="c6">
                            <p>N.D</p>
                         </entry>
                         <entry colname="c7">
                            <p>N.D</p>
                         </entry>
                         <entry colname="c8">
                            <p>4</p>
                         </entry>
                      </row>
                      <row valign="top">
                         <entry colname="c1">
                            <p>Ba</p>
                         </entry>
                         <entry colname="c2">
                            <p>ppm</p>
                         </entry>
                         <entry colname="c3">
                            <p>N.D</p>
                         </entry>
                         <entry colname="c4">
                            <p>25.02&#8201;&#177;&#8201;2.08</p>
                         </entry>
                         <entry colname="c5">
                            <p>10.37&#8201;&#177;&#8201;1.23</p>
                         </entry>
                         <entry colname="c6">
                            <p>31.35&#8201;&#177;&#8201;4.10</p>
                         </entry>
                         <entry colname="c7">
                            <p>31.47&#8201;&#177;&#8201;2.86</p>
                         </entry>
                         <entry colname="c8">
                            <p>2</p>
                         </entry>
                      </row>
                      <row valign="top">
                         <entry colname="c1">
                            <p>Cd</p>
                         </entry>
                         <entry colname="c2">
                            <p>ppb</p>
                         </entry>
                         <entry colname="c3">
                            <p>N.D</p>
                         </entry>
                         <entry colname="c4">
                            <p>N.D</p>
                         </entry>
                         <entry colname="c5">
                            <p>N.D</p>
                         </entry>
                         <entry colname="c6">
                            <p>N.D</p>
                         </entry>
                         <entry colname="c7">
                            <p>N.D</p>
                         </entry>
                         <entry colname="c8">
                            <p>5</p>
                         </entry>
                      </row>
                      <row valign="top">
                         <entry colname="c1">
                            <p>Co</p>
                         </entry>
                         <entry colname="c2">
                            <p>ppb</p>
                         </entry>
                         <entry colname="c3">
                            <p>N.D</p>
                         </entry>
                         <entry colname="c4">
                            <p>N.D</p>
                         </entry>
                         <entry colname="c5">
                            <p>N.D</p>
                         </entry>
                         <entry colname="c6">
                            <p>N.D</p>
                         </entry>
                         <entry colname="c7">
                            <p>N.D</p>
                         </entry>
                         <entry colname="c8">
                            <p>-</p>
                         </entry>
                      </row>
                      <row valign="top">
                         <entry colname="c1">
                            <p>Cr</p>
                         </entry>
                         <entry colname="c2">
                            <p>ppb</p>
                         </entry>
                         <entry colname="c3">
                            <p>0.17&#8201;&#177;&#8201;0.03</p>
                         </entry>
                         <entry colname="c4">
                            <p>0.17&#8201;&#177;&#8201;0.09</p>
                         </entry>
                         <entry colname="c5">
                            <p>N.D</p>
                         </entry>
                         <entry colname="c6">
                            <p>0.20&#8201;&#177;&#8201;0.07</p>
                         </entry>
                         <entry colname="c7">
                            <p>0.19&#8201;&#177;&#8201;0.05</p>
                         </entry>
                         <entry colname="c8">
                            <p>100</p>
                         </entry>
                      </row>
                      <row valign="top">
                         <entry colname="c1">
                            <p>Cu</p>
                         </entry>
                         <entry colname="c2">
                            <p>ppb</p>
                         </entry>
                         <entry colname="c3">
                            <p>2.25&#8201;&#177;&#8201;0.56</p>
                         </entry>
                         <entry colname="c4">
                            <p>4.27&#8201;&#177;&#8201;1.16</p>
                         </entry>
                         <entry colname="c5">
                            <p>2.07&#8201;&#177;&#8201;0.53</p>
                         </entry>
                         <entry colname="c6">
                            <p>3.4&#8201;&#177;&#8201;0.77</p>
                         </entry>
                         <entry colname="c7">
                            <p>7.92&#8201;&#177;&#8201;0.88</p>
                         </entry>
                         <entry colname="c8">
                            <p>1<sup>b</sup>-1.3ppm<sup>c</sup>
                            </p>
                         </entry>
                      </row>
                      <row valign="top">
                         <entry colname="c1">
                            <p>Fe</p>
                         </entry>
                         <entry colname="c2">
                            <p>ppb</p>
                         </entry>
                         <entry colname="c3">
                            <p>1.57&#8201;&#177;&#8201;0.38</p>
                         </entry>
                         <entry colname="c4">
                            <p>1.55&#8201;&#177;&#8201;0.42</p>
                         </entry>
                         <entry colname="c5">
                            <p>2.77&#8201;&#177;&#8201;0.53</p>
                         </entry>
                         <entry colname="c6">
                            <p>2.4&#8201;&#177;&#8201;0.63</p>
                         </entry>
                         <entry colname="c7">
                            <p>5.77&#8201;&#177;&#8201;0.74</p>
                         </entry>
                         <entry colname="c8">
                            <p>300<sup>b</sup>
                            </p>
                         </entry>
                      </row>
                      <row valign="top">
                         <entry colname="c1">
                            <p>Hg</p>
                         </entry>
                         <entry colname="c2">
                            <p>ppb</p>
                         </entry>
                         <entry colname="c3">
                            <p>N.D</p>
                         </entry>
                         <entry colname="c4">
                            <p>N.D</p>
                         </entry>
                         <entry colname="c5">
                            <p>N.D</p>
                         </entry>
                         <entry colname="c6">
                            <p>N.D</p>
                         </entry>
                         <entry colname="c7">
                            <p>N.D</p>
                         </entry>
                         <entry colname="c8">
                            <p>2</p>
                         </entry>
                      </row>
                      <row valign="top">
                         <entry colname="c1">
                            <p>Li</p>
                         </entry>
                         <entry colname="c2">
                            <p>ppb</p>
                         </entry>
                         <entry colname="c3">
                            <p>N.D</p>
                         </entry>
                         <entry colname="c4">
                            <p>2.15&#8201;&#177;&#8201;0.56</p>
                         </entry>
                         <entry colname="c5">
                            <p>0.57&#8201;&#177;&#8201;0.24</p>
                         </entry>
                         <entry colname="c6">
                            <p>2.95&#8201;&#177;&#8201;0.42</p>
                         </entry>
                         <entry colname="c7">
                            <p>0.62&#8201;&#177;&#8201;0.17</p>
                         </entry>
                         <entry colname="c8">
                            <p>-</p>
                         </entry>
                      </row>
                      <row valign="top">
                         <entry colname="c1">
                            <p>Mn</p>
                         </entry>
                         <entry colname="c2">
                            <p>ppb</p>
                         </entry>
                         <entry colname="c3">
                            <p>N.D</p>
                         </entry>
                         <entry colname="c4">
                            <p>N.D</p>
                         </entry>
                         <entry colname="c5">
                            <p>N.D</p>
                         </entry>
                         <entry colname="c6">
                            <p>N.D</p>
                         </entry>
                         <entry colname="c7">
                            <p>N.D</p>
                         </entry>
                         <entry colname="c8">
                            <p>5<sup>b</sup>
                            </p>
                         </entry>
                      </row>
                      <row valign="top">
                         <entry colname="c1">
                            <p>Mo</p>
                         </entry>
                         <entry colname="c2">
                            <p>ppb</p>
                         </entry>
                         <entry colname="c3">
                            <p>N.D</p>
                         </entry>
                         <entry colname="c4">
                            <p>N.D</p>
                         </entry>
                         <entry colname="c5">
                            <p>N.D</p>
                         </entry>
                         <entry colname="c6">
                            <p>N.D</p>
                         </entry>
                         <entry colname="c7">
                            <p>N.D</p>
                         </entry>
                         <entry colname="c8">
                            <p>-</p>
                         </entry>
                      </row>
                      <row valign="top">
                         <entry colname="c1">
                            <p>Ni</p>
                         </entry>
                         <entry colname="c2">
                            <p>ppb</p>
                         </entry>
                         <entry colname="c3">
                            <p>1.5&#8201;&#177;&#8201;0.35</p>
                         </entry>
                         <entry colname="c4">
                            <p>1.17&#8201;&#177;&#8201;0.38</p>
                         </entry>
                         <entry colname="c5">
                            <p>0.37&#8201;&#177;&#8201;0.10</p>
                         </entry>
                         <entry colname="c6">
                            <p>5.72&#8201;&#177;&#8201;1.52</p>
                         </entry>
                         <entry colname="c7">
                            <p>1.47&#8201;&#177;&#8201;0.38</p>
                         </entry>
                         <entry colname="c8">
                            <p>100</p>
                         </entry>
                      </row>
                      <row valign="top">
                         <entry colname="c1">
                            <p>P</p>
                         </entry>
                         <entry colname="c2">
                            <p>ppb</p>
                         </entry>
                         <entry colname="c3">
                            <p>2.1&#8201;&#177;&#8201;0.35</p>
                         </entry>
                         <entry colname="c4">
                            <p>1.9&#8201;&#177;&#8201;0.63</p>
                         </entry>
                         <entry colname="c5">
                            <p>1.6&#8201;&#177;&#8201;0.35</p>
                         </entry>
                         <entry colname="c6">
                            <p>1.85&#8201;&#177;&#8201;0.35</p>
                         </entry>
                         <entry colname="c7">
                            <p>1.9&#8201;&#177;&#8201;0.28</p>
                         </entry>
                         <entry colname="c8">
                            <p>-</p>
                         </entry>
                      </row>
                      <row valign="top">
                         <entry colname="c1">
                            <p>Pb</p>
                         </entry>
                         <entry colname="c2">
                            <p>ppb</p>
                         </entry>
                         <entry colname="c3">
                            <p>0.35&#8201;&#177;&#8201;0.07</p>
                         </entry>
                         <entry colname="c4">
                            <p>N.D</p>
                         </entry>
                         <entry colname="c5">
                            <p>N.D</p>
                         </entry>
                         <entry colname="c6">
                            <p>0.75&#8201;&#177;&#8201;0.14</p>
                         </entry>
                         <entry colname="c7">
                            <p>N.D</p>
                         </entry>
                         <entry colname="c8">
                            <p>10</p>
                         </entry>
                      </row>
                      <row valign="top">
                         <entry colname="c1">
                            <p>Sb</p>
                         </entry>
                         <entry colname="c2">
                            <p>ppb</p>
                         </entry>
                         <entry colname="c3">
                            <p>0.64&#8201;&#177;&#8201;0.05</p>
                         </entry>
                         <entry colname="c4">
                            <p>0.68&#8201;&#177;&#8201;0.09</p>
                         </entry>
                         <entry colname="c5">
                            <p>1.41&#8201;&#177;&#8201;0.12</p>
                         </entry>
                         <entry colname="c6">
                            <p>1.85&#8201;&#177;&#8201;0.19</p>
                         </entry>
                         <entry colname="c7">
                            <p>0.44&#8201;&#177;&#8201;0.04</p>
                         </entry>
                         <entry colname="c8">
                            <p>6</p>
                         </entry>
                      </row>
                      <row valign="top">
                         <entry colname="c1">
                            <p>Se</p>
                         </entry>
                         <entry colname="c2">
                            <p>ppb</p>
                         </entry>
                         <entry colname="c3">
                            <p>0.36&#8201;&#177;&#8201;0.07</p>
                         </entry>
                         <entry colname="c4">
                            <p>0.47&#8201;&#177;&#8201;0.10</p>
                         </entry>
                         <entry colname="c5">
                            <p>0.35&#8201;&#177;&#8201;0.07</p>
                         </entry>
                         <entry colname="c6">
                            <p>0.38&#8201;&#177;&#8201;0.04</p>
                         </entry>
                         <entry colname="c7">
                            <p>0.40&#8201;&#177;&#8201;0.14</p>
                         </entry>
                         <entry colname="c8">
                            <p>5</p>
                         </entry>
                      </row>
                      <row valign="top">
                         <entry colname="c1">
                            <p>Sn</p>
                         </entry>
                         <entry colname="c2">
                            <p>ppb</p>
                         </entry>
                         <entry colname="c3">
                            <p>0.22&#8201;&#177;&#8201;0.03</p>
                         </entry>
                         <entry colname="c4">
                            <p>0.27&#8201;&#177;&#8201;0.10</p>
                         </entry>
                         <entry colname="c5">
                            <p>0.30&#8201;&#177;&#8201;0.21</p>
                         </entry>
                         <entry colname="c6">
                            <p>0.97&#8201;&#177;&#8201;0.38</p>
                         </entry>
                         <entry colname="c7">
                            <p>0.48&#8201;&#177;&#8201;0.09</p>
                         </entry>
                         <entry colname="c8">
                            <p>-</p>
                         </entry>
                      </row>
                      <row valign="top">
                         <entry colname="c1">
                            <p>Sr</p>
                         </entry>
                         <entry colname="c2">
                            <p>ppb</p>
                         </entry>
                         <entry colname="c3">
                            <p>28.35&#8201;&#177;&#8201;1.62</p>
                         </entry>
                         <entry colname="c4">
                            <p>49.77&#8201;&#177;&#8201;1.44</p>
                         </entry>
                         <entry colname="c5">
                            <p>47.62&#8201;&#177;&#8201;1.59</p>
                         </entry>
                         <entry colname="c6">
                            <p>36.22&#8201;&#177;&#8201;2.51</p>
                         </entry>
                         <entry colname="c7">
                            <p>49.65&#8201;&#177;&#8201;4.45</p>
                         </entry>
                         <entry colname="c8">
                            <p>-</p>
                         </entry>
                      </row>
                      <row valign="top">
                         <entry colname="c1">
                            <p>Ti</p>
                         </entry>
                         <entry colname="c2">
                            <p>ppb</p>
                         </entry>
                         <entry colname="c3">
                            <p>N.D</p>
                         </entry>
                         <entry colname="c4">
                            <p>N.D</p>
                         </entry>
                         <entry colname="c5">
                            <p>N.D</p>
                         </entry>
                         <entry colname="c6">
                            <p>N.D</p>
                         </entry>
                         <entry colname="c7">
                            <p>N.D</p>
                         </entry>
                         <entry colname="c8">
                            <p>-</p>
                         </entry>
                      </row>
                      <row valign="top">
                         <entry colname="c1">
                            <p>V</p>
                         </entry>
                         <entry colname="c2">
                            <p>ppb</p>
                         </entry>
                         <entry colname="c3">
                            <p>0.42&#8201;&#177;&#8201;0.10</p>
                         </entry>
                         <entry colname="c4">
                            <p>0.53&#8201;&#177;&#8201;0.16</p>
                         </entry>
                         <entry colname="c5">
                            <p>N.D</p>
                         </entry>
                         <entry colname="c6">
                            <p>2.55&#8201;&#177;&#8201;0.98</p>
                         </entry>
                         <entry colname="c7">
                            <p>N.D</p>
                         </entry>
                         <entry colname="c8">
                            <p>-</p>
                         </entry>
                      </row>
                      <row valign="top">
                         <entry colname="c1">
                            <p>Zn</p>
                         </entry>
                         <entry colname="c2">
                            <p>ppb</p>
                         </entry>
                         <entry colname="c3">
                            <p>36.15&#8201;&#177;&#8201;6.57</p>
                         </entry>
                         <entry colname="c4">
                            <p>3.30&#8201;&#177;&#8201;0.77</p>
                         </entry>
                         <entry colname="c5">
                            <p>2.12&#8201;&#177;&#8201;0.88</p>
                         </entry>
                         <entry colname="c6">
                            <p>25.62&#8201;&#177;&#8201;2.86</p>
                         </entry>
                         <entry colname="c7">
                            <p>9.37&#8201;&#177;&#8201;1.30</p>
                         </entry>
                         <entry colname="c8">
                            <p>5ppm<sup>b</sup>
                            </p>
                         </entry>
                      </row>
                   </tbody>
                </tgroup>
             </table>
          
          <p>Antimony concentrations, as the main trace element of the study, in all the samples at the day zero and at the initial stages of the examinations were below the MCL (6&#160;ppb), but the levels were higher for samples 3 and 4 than others samples (p&#8201;&#8804;&#8201;0.05). Under the outdoor and sunlight condition with the average temperature of 31&#8201;&#177;&#8201;4.1&#176;C, the concentration of Sb increased in all samples over time. At room temperature storage (25&#8201;&#177;&#8201;2.6&#176;C) as well as in 40&#176;C condition, the trend of changes were similar to the outdoor conditions and variations were insignificant, in both cases (p&#8201;&gt;&#8201;0.05). The Sb content of bottled waters was still lower than the MCL at the end of the study (after 8&#160;weeks) for the outdoor storage, the interior storage and 40&#176;C storage conditions. Our findings demonstrated that there was a high correlation between the Sb initial concentrations and its amounts during the study. By considering the fact that Sb concentration changes was similar at the three storage conditions and the trends were the same Figure&#160;<figr fid="F1">1</figr> demonstrates the average Sb changes for the storage duration in the three above mentioned conditions.
                </p>
          
             <fig id="F1">
                <title>
                   <p>Figure 1</p>
                </title>
                <caption>
                   <p>Antimony concentration changes during storage (outdoor, room and 40&#176;C </p>
                </caption>
                <text>
                   <p>
                          <b>Antimony concentration changes during storage (outdoor, room and 40&#176;C</b>                          
                      <b>).</b>                        
                   </p>
                </text>
                <graphic file="s40201-014-0133-3-1"/>
             </fig>
          
          <p>Antimony concentrations at 65&#176;C increased over the MCL following the two weeks storage period for samples 3 and 4, whereas in the case of other samples it was still lower than the MCL by the end of the study (Figure&#160;<figr fid="F2">2</figr>).
                </p>
          
             <fig id="F2">
                <title>
                   <p>Figure 2</p>
                </title>
                <caption>
                   <p>Sb average concentration changes during storage (65&#176;C </p>
                </caption>
                <text>
                   <p>
                          <b>Sb average concentration changes during storage (65&#176;C</b>                          
                      <b>).</b>                        
                   </p>
                </text>
                <graphic file="s40201-014-0133-3-2"/>
             </fig>
          
          <p>In addition, as illustrated in Figure&#160;<figr fid="F3">3</figr>, at 80&#176;C, Sb concentration increased over the MCL in the second day of the storage time for samples 3 and 4, while for the other samples it was observed in the day three.
                </p>
          
             <fig id="F3">
                <title>
                   <p>Figure 3</p>
                </title>
                <caption>
                   <p>Sb average concentration changes during storage (80&#176;C </p>
                </caption>
                <text>
                   <p>
                          <b>Sb average concentration changes during storage (80&#176;C</b>                          
                      <b>).</b>                        
                   </p>
                </text>
                <graphic file="s40201-014-0133-3-3"/>
             </fig>
          
          <p>At the end of the study, the highest concentration for Sb was recorded at 80&#176;C storage conditions, and as can be seen in Figure&#160;<figr fid="F4">4</figr> the lowest concentration was observed for outdoor storage room and at the 40&#176;C storage temperature.
                </p>
          
             <fig id="F4">
                <title>
                   <p>Figure 4</p>
                </title>
                <caption>
                   <p>Concentration of Sb in the samples at the end of each storage condition. </p>
                </caption>
                <text>
                   <p>
                          <b>Concentration of Sb in the samples at the end of each storage condition.</b>                        
                   </p>
                </text>
                <graphic file="s40201-014-0133-3-4"/>
             </fig>
          
          <p>Storage time and temperature effects on the Al concentrations were significant, particularly for the samples stored at 65&#176;C and 80&#176;C (p&#8201;&#8804;&#8201;0.05) which demonstrated a relevant increase during storage time. In case for Fe concentration the storage time and temperature effect was significant, mainly for the samples stored at 80&#176;C (p&#8201;&#8804;&#8201;0.05), and demonstrated a relevant decrease during storage time. Other trace metals measured in this study included, As, B, Ba, Cr, Cu, Ni, Pb, Se, Sn, Sst, Va and Zn. These elements showed no statistically significant differences (p&#8201;&gt;&#8201;0.05) for storage conditions. The elements B, Cr, Cu, Ni, Se, Sn, St and Zn displayed significant variations (p&#8201;&#8804;&#8201;0.05) in each time zone and each temperature storage condition. B, Cr, Cu and Sn concentrations decreased in their time zones in all five temperature storage conditions, while Ni and St demonstrated a slightly increase in their time zone in each temperature storage condition. Selenium and Zn contents displayed both an increasing and decreasing trend by the storage time and at the different temperatures.</p>
          <p>The elements Be, Cd, Co, Hg, Mn, Mo and Ti concentrations were below detection limit at all the storage conditions.</p>
       </sec>
       <sec>
          <st>
             <p>Discussion</p>
          </st>
          <p>Antimony and other trace element concentrations in the samples that were measured at the beginning of the study were all below the promulgated standards, except for Barium. Higher temperatures and longer storage times had a substantial effect (p&#8201;&#8804;&#8201;0.05) on the increase of Sb and Al concentrations, while, a decrease was observed in case for Fe.</p>
          <p>Westerhoff et al. <abbrgrp>
                <abbr bid="B7">7</abbr>
             </abbrgrp> showed that high storage temperatures and sunlight exposure increased the leakage of antimony into the bottled waters. Antimony concentration in samples was 0.095 - 0.521&#160;ppb which was lower than that MCL recommended by the United States Environmental Agency (USEPA). The initial mean concentrations were 0.195&#8201;&#177;&#8201;0.116&#160;ppb, and after 3 monthas period at 22&#176;C rose to 0.226&#8201;&#177;&#8201;0.160&#160;ppb. The amounts of Sb exceeded the MCL in the following conditions: 60&#176;C in 176&#160;days, 65&#176;C in 38&#160;days, 70&#176;C in 12&#160;days, 75&#176;C in 4.7&#160;days, 80&#176;C in 2.3&#160;days and 85&#176;C in 1.3&#160;days <abbrgrp>
                <abbr bid="B7">7</abbr>
             </abbrgrp>.</p>
          <p>In this study, the average Sb concentrations were approximately 1.01&#8201;&#177;&#8201;0.59&#160;ppb at the initial stage of the experiments, and by the end of the study (after 8&#160;weeks) at room temperature (25&#8201;&#177;&#8201;2.6&#176;C) rose to 2.54&#8201;&#177;&#8201;1.58&#160;ppb. In case of 65&#176;C, samples 3 and 4 which had the highest initial Sb content, after a two week periods exceeded the MCLs. while the other samples remained below the MCL. Whereas, as the temperature rose to 80&#176;C after two days the Sb amounts exceeded the MCL for samples 3 and 4, while for the other samples it was observed after day three.</p>
          <p>Various experiments by Xiaoliang Cheng et al. <abbrgrp>
                <abbr bid="B6">6</abbr>
             </abbrgrp> demonstrated that 16 trace elements including Sb were leaked into the bottled waters tested in the following conditions, cooling with ice-cold water, warming by boiling, microwave, incubation at low pH, outdoor with sunlight irradiation and storage inside the automobiles. The study established that warming by boiling and microwave could considerably augment the leaching process of Sb into water and in some cases exceeded the MCL levels. However, both incubation at low pH and also cooling with ice-cold water, revealed no significant effects; while the outdoor with sunlight irradiation and sunlight exposure, and the storage inside automobiles increased the leakage, but still was below the required MCLs <abbrgrp>
                <abbr bid="B6">6</abbr>
             </abbrgrp>.</p>
          <p>The results revealed that minor leakage of Sb from PET bottles was due to plastic surface pollution at some stages of manufacturing process; while any major leakage was due to the changes in the bottle&#8217;s storage conditions. The effect of various storage conditions on the leakage of Sb in the remaining 15 samples were not considerable and/or far below the recommended MCLs in all samples. Conversely, in this study, an increase in Al concentration was observed.</p>
          <p>According to Shotyk et al. <abbrgrp>
                <abbr bid="B11">11</abbr>
             </abbrgrp> the comparison between the natural aggregates of Sb in the underground waters versus the PET bottled waters (same water before and after bottling) indicated Sb leakage from these bottles. It was established that Sb content of the bottled was 30 times higher than the water in the glass container <abbrgrp>
                <abbr bid="B11">11</abbr>
             </abbrgrp>. Keresztes et al. <abbrgrp>
                <abbr bid="B12">12</abbr>
             </abbrgrp> studied ten different brands of pure and sparkling waters. The study demonstrated that the content of Sb in the sampled bottles was 0.03-0.1&#160;ppt, which increased at room temperature, and in darkness. The study also revealed that light and temperature exposures could raise the concentration levels of Sb <abbrgrp>
                <abbr bid="B12">12</abbr>
             </abbrgrp>.</p>
          <p>A study performed by Guler et al. <abbrgrp>
                <abbr bid="B13">13</abbr>
             </abbrgrp> demonstrated that the levels of Sb in the various samples were higher than the Turkish legislative limits; 24% of natural spring water samples (24 out of 100), 28.6% of natural mineral water samples (2 out of 7) and 54.4% of drinking water samples (6 out of 11). The present study, analyzed Ba concentration at the initial stage of the study in 4 samples, as illustrated in Table&#160;<tblr tid="T2">2</tblr>, the results were higher than USEPA recommended MCL level <abbrgrp>
                <abbr bid="B13">13</abbr>
             </abbrgrp>.</p>
          <p>The concentrations of Sb&#8217;s in 132 brands from 28 countries were studied by Shotyk et al. <abbrgrp>
                <abbr bid="B8">8</abbr>
             </abbrgrp>. Two of the brands had higher values than the MCLs of Japan (2&#160;&#956;g/l) which was mainly due to the use of Sb<sub>2</sub>O<sub>3</sub> as the catalyst in the PET process. In 14 brands of bottled waters in Canada, Sb content during a 6&#160;month storage period at room temperature increased approximately 19%, while the 48 brands of 11 European countries demonstrated an increase of 90% under the same condition. The analysis of the underground spring water contained 1.7&#8201;&#177;&#8201;0.4&#160;ng/L Sb, following 6&#160;month period of storage, the Canadian bottles Sb levels rose to 26.6&#8201;&#177;&#8201;2.3&#160;ng/L, while the German bottled water demonstrated 28.1&#8201;&#177;&#8201;3.8&#160;ng/L <abbrgrp>
                <abbr bid="B8">8</abbr>
             </abbrgrp>.</p>
          <p>In a research conducted by Baba et al. <abbrgrp>
                <abbr bid="B14">14</abbr>
             </abbrgrp>, the Co content levels were 7-11&#160;ppb in sampled bottles, and the Sb levels reported were lower than 1&#160;ppb, which were below the detection limit. However, it should be mentioned that to date, WHO, EPA and Turkish standards have defined no standard for Co levels. Moreover, in the present study, the concentration of Co levels, in all samples were below the limit of detection (LOD) <abbrgrp>
                <abbr bid="B14">14</abbr>
             </abbrgrp>.</p>
       </sec>
       <sec>
          <st>
             <p>Conclusion</p>
          </st>
          <p>The study has concluded that Antimony (Sb) may leach from the polyethylene terephthalate (PET) bottle into the bottled water. This particularly can be observed in water bottles which are stored at high temperatures for long periods. Furthermore, other trace elements should not be a concern, since these trace element concentrations with the exception of Ba, were far below the recommended MCLs; also, during the storage period under different conditions the concentrations remained lower than the permitted levels. Hence, this study has concluded that to prevent the increase of Sb in bottled waters, it is strongly recommended that commercial markets not store the bottled waters at high temperatures for long periods, especially in summertime. Last of all, the consumer should not leave the bottled waters inside their vehicles&#8217; and/or closed areas due to the high temperatures which occur in these conditions.</p>
       </sec>
       <sec>
          <st>
             <p>Competing interests</p>
          </st>
          <p>The authors declare that they have no competing interests.</p>
       </sec>
       <sec>
          <st>
             <p>Authors&#8217; contributions</p>
          </st>
          <p>All authors read and approved the final manuscript.</p>
       </sec>
    </bdy>
    <bm>
       <ack>
          <sec>
             <st>
                <p>Acknowledgments</p>
             </st>
             <p>This research was supported by a Tehran University of Medical Sciences (TUMS) and Health Services Grant (Project Number 91-01-27-17308 &amp; 93-01-46-25274) and Center for Water Quality Research (CWQR), Institute for Environmental Research (IER), Tehran University of Medical Sciences, Grant (Project Number 93-01-46-25274).</p>
          </sec>
       </ack>
       <refgrp>
          
          <bibl id="B1">
             <title>
                <p>Microbiological evaluation of bottled non-carbonated (&#8220;still&#8221;) water from domestic brands in Greece</p>
             </title>
             <aug>
                <au>
                   <snm>Venieri</snm>
                   <fnm>D</fnm>
                </au>
                <au>
                   <snm>Vantarakis</snm>
                   <fnm>A</fnm>
                </au>
                <au>
                   <snm>Komninou</snm>
                   <fnm>G</fnm>
                </au>
                <au>
                   <snm>Papapetropoulou</snm>
                   <fnm>M</fnm>
                </au>
             </aug>
             <source>Int J Food Microbiol</source>
             <pubdate>2006</pubdate>
             <volume>107</volume>
             <fpage>68</fpage>
             <lpage>72</lpage>
             <xrefbib>
                <pubidlist>
                   <pubid idtype="doi">10.1016/j.ijfoodmicro.2005.08.013</pubid>
                </pubidlist>
             </xrefbib>
          </bibl>
          <bibl id="B2">
             <title>
                <p>Monitoring microbiological quality of bottled water as suggested by HACCP methodology</p>
             </title>
             <aug>
                <au>
                   <snm>Kokkinakis</snm>
                   <fnm>EN</fnm>
                </au>
                <au>
                   <snm>Fragkiadakis</snm>
                   <fnm>GA</fnm>
                </au>
                <au>
                   <snm>Kokkinaki</snm>
                   <fnm>AN</fnm>
                </au>
             </aug>
             <source>Food Control</source>
             <pubdate>2008</pubdate>
             <volume>19</volume>
             <fpage>957</fpage>
             <lpage>961</lpage>
             <xrefbib>
                <pubidlist>
                   <pubid idtype="doi">10.1016/j.foodcont.2007.10.001</pubid>
                </pubidlist>
             </xrefbib>
          </bibl>
          <bibl id="B3">
             <title>
                <p>A survey of the microbiological quality of bottled water sold in the UK and changes occurring during storage</p>
             </title>
             <aug>
                <au>
                   <snm>Armas</snm>
                   <fnm>AB</fnm>
                </au>
                <au>
                   <snm>Sutherland</snm>
                   <fnm>JP</fnm>
                </au>
             </aug>
             <source>Int J Food Microbiol</source>
             <pubdate>1999</pubdate>
             <volume>48</volume>
             <fpage>59</fpage>
             <lpage>65</lpage>
             <xrefbib>
                <pubidlist>
                   <pubid idtype="doi">10.1016/S0168-1605(99)00027-6</pubid>
                </pubidlist>
             </xrefbib>
          </bibl>
          <bibl id="B4">
             <title>
                <p>Parasitic contamination of wells drinking water in Mazandaran Province</p>
             </title>
             <aug>
                <au>
                   <snm>Yousefi</snm>
                   <fnm>Z</fnm>
                </au>
                <au>
                   <snm>Enayati</snm>
                   <fnm>A</fnm>
                </au>
                <au>
                   <snm>Mohammadpoor</snm>
                   <fnm>R</fnm>
                </au>
             </aug>
             <source>Iranian J Environ Health Sci Eng</source>
             <pubdate>2009</pubdate>
             <volume>6</volume>
             <fpage>241</fpage>
             <lpage>246</lpage>
          </bibl>
          <bibl id="B5">
             <title>
                <p>Commercialization conditions and practices influence the microbiological quality of mineral waters</p>
             </title>
             <aug>
                <au>
                   <snm>Nunes Filho</snm>
                   <fnm>SAP</fnm>
                </au>
                <au>
                   <snm>Sant&#8217;Ana</snm>
                   <fnm>AS</fnm>
                </au>
                <au>
                   <snm>Cruz</snm>
                   <fnm>AG</fnm>
                </au>
             </aug>
             <source>J Food Prot</source>
             <pubdate>2008</pubdate>
             <volume>71</volume>
             <fpage>1253</fpage>
             <lpage>1257</lpage>
          </bibl>
          <bibl id="B6">
             <title>
                <p>Assessment of metal contaminations leaching out from recycling plastic bottles upon treatments</p>
             </title>
             <aug>
                <au>
                   <snm>Cheng</snm>
                   <fnm>X</fnm>
                </au>
                <au>
                   <snm>Shi</snm>
                   <fnm>H</fnm>
                </au>
                <au>
                   <snm>Adams</snm>
                   <fnm>C</fnm>
                </au>
                <au>
                   <snm>Ma</snm>
                   <fnm>Y</fnm>
                </au>
             </aug>
             <source>Environ Sci Pollut Res</source>
             <pubdate>2010</pubdate>
             <volume>17</volume>
             <fpage>1323</fpage>
             <lpage>1330</lpage>
             <xrefbib>
                <pubidlist>
                   <pubid idtype="doi">10.1007/s11356-010-0312-4</pubid>
                </pubidlist>
             </xrefbib>
          </bibl>
          <bibl id="B7">
             <title>
                <p>Antimony leaching from polyethylene terephthalate (PET) plastic used for bottled drinking water</p>
             </title>
             <aug>
                <au>
                   <snm>Westerhoff</snm>
                   <fnm>P</fnm>
                </au>
                <au>
                   <snm>Prapaipong</snm>
                   <fnm>P</fnm>
                </au>
                <au>
                   <snm>Shock</snm>
                   <fnm>E</fnm>
                </au>
                <au>
                   <snm>Hillaireau</snm>
                   <fnm>A</fnm>
                </au>
             </aug>
             <source>Water Res</source>
             <pubdate>2008</pubdate>
             <volume>42</volume>
             <fpage>551</fpage>
             <lpage>556</lpage>
             <xrefbib>
                <pubidlist>
                   <pubid idtype="doi">10.1016/j.watres.2007.07.048</pubid>
                </pubidlist>
             </xrefbib>
          </bibl>
          <bibl id="B8">
             <title>
                <p>Contamination of bottled waters with antimony leaching from polyethylene terephthalate (PET) increases upon storage</p>
             </title>
             <aug>
                <au>
                   <snm>Shotyk</snm>
                   <fnm>W</fnm>
                </au>
                <au>
                   <snm>Krachler</snm>
                   <fnm>M</fnm>
                </au>
             </aug>
             <source>Environ Sci Techno</source>
             <pubdate>2007</pubdate>
             <volume>41</volume>
             <fpage>1560</fpage>
             <lpage>1563</lpage>
             <xrefbib>
                <pubidlist>
                   <pubid idtype="doi">10.1021/es061511+</pubid>
                </pubidlist>
             </xrefbib>
          </bibl>
          <bibl id="B9">
             <title>
                <p>Determination of trace elements in bottled water in Greece by instrumental and radiochemical neutron activation analyses</p>
             </title>
             <aug>
                <au>
                   <snm>Soupioni</snm>
                   <fnm>MJ</fnm>
                </au>
                <au>
                   <snm>Symeopoulos</snm>
                   <fnm>BD</fnm>
                </au>
                <au>
                   <snm>Papaefthymiou</snm>
                   <fnm>HV</fnm>
                </au>
             </aug>
             <source>J Radioanal Nucl Chem</source>
             <pubdate>2006</pubdate>
             <volume>268</volume>
             <fpage>441</fpage>
             <lpage>444</lpage>
             <xrefbib>
                <pubidlist>
                   <pubid idtype="doi">10.1007/s10967-006-0188-4</pubid>
                </pubidlist>
             </xrefbib>
          </bibl>
          <bibl id="B10">
             <title>
                <p>Quality comparison of tap water vs. bottled water in the industrial city of Yanbu (Saudi Arabia)</p>
             </title>
             <aug>
                <au>
                   <snm>Ahmad</snm>
                   <fnm>M</fnm>
                </au>
                <au>
                   <snm>Bajahlan</snm>
                   <fnm>A</fnm>
                </au>
             </aug>
             <source>Environ Monit Assess</source>
             <pubdate>2009</pubdate>
             <volume>159</volume>
             <fpage>1</fpage>
             <lpage>14</lpage>
             <xrefbib>
                <pubidlist>
                   <pubid idtype="doi">10.1007/s10661-008-0608-8</pubid>
                </pubidlist>
             </xrefbib>
          </bibl>
          <bibl id="B11">
             <title>
                <p>Contamination of Canadian and European bottled waters with antimony from PET containers</p>
             </title>
             <aug>
                <au>
                   <snm>Shotyk</snm>
                   <fnm>W</fnm>
                </au>
                <au>
                   <snm>Krachler</snm>
                   <fnm>M</fnm>
                </au>
                <au>
                   <snm>Chen</snm>
                   <fnm>B</fnm>
                </au>
             </aug>
             <source>J Environ Monit</source>
             <pubdate>2006</pubdate>
             <volume>8</volume>
             <fpage>288</fpage>
             <lpage>292</lpage>
             <xrefbib>
                <pubidlist>
                   <pubid idtype="doi">10.1039/b517844b</pubid>
                </pubidlist>
             </xrefbib>
          </bibl>
          <bibl id="B12">
             <title>
                <p>Leaching of antimony from polyethylene terephthalate (PET) bottles into mineral water</p>
             </title>
             <aug>
                <au>
                   <snm>Keresztes</snm>
                   <fnm>S</fnm>
                </au>
                <au>
                   <snm>Tat&#225;r</snm>
                   <fnm>E</fnm>
                </au>
                <au>
                   <snm>Mihucz</snm>
                   <fnm>VG</fnm>
                </au>
                <au>
                   <snm>Vir&#225;g</snm>
                   <fnm>I</fnm>
                </au>
                <au>
                   <snm>Majdik</snm>
                   <fnm>C</fnm>
                </au>
                <au>
                   <snm>Z&#225;ray</snm>
                   <fnm>G</fnm>
                </au>
             </aug>
             <source>Sci Total Environ</source>
             <pubdate>2009</pubdate>
             <volume>407</volume>
             <fpage>4731</fpage>
             <lpage>4735</lpage>
             <xrefbib>
                <pubidlist>
                   <pubid idtype="doi">10.1016/j.scitotenv.2009.04.025</pubid>
                </pubidlist>
             </xrefbib>
          </bibl>
          <bibl id="B13">
             <title>
                <p>Evaluation of maximum contaminant levels in Turkish bottled drinking waters utilizing parameters reported on manufacturer&#8217;s labeling and government-issued production licenses</p>
             </title>
             <aug>
                <au>
                   <snm>G&#252;ler</snm>
                   <fnm>C</fnm>
                </au>
             </aug>
             <source>J Food Compos Anal</source>
             <pubdate>2007</pubdate>
             <volume>20</volume>
             <fpage>262</fpage>
             <lpage>272</lpage>
             <xrefbib>
                <pubidlist>
                   <pubid idtype="doi">10.1016/j.jfca.2006.10.005</pubid>
                </pubidlist>
             </xrefbib>
          </bibl>
          <bibl id="B14">
             <title>
                <p>An assessment of the quality of various bottled mineral water marketed in Turkey</p>
             </title>
             <aug>
                <au>
                   <snm>Baba</snm>
                   <fnm>A</fnm>
                </au>
                <au>
                   <snm>Eree&#351;</snm>
                   <fnm>FS</fnm>
                </au>
                <au>
                   <snm>H&#305;&#231;s&#246;nmez</snm>
                   <fnm>&#220;</fnm>
                </au>
                <au>
                   <snm>&#199;am</snm>
                   <fnm>S</fnm>
                </au>
                <au>
                   <snm>&#214;zd&#305;lek</snm>
                   <fnm>HG</fnm>
                </au>
             </aug>
             <source>Environ Monit Assess</source>
             <pubdate>2008</pubdate>
             <volume>139</volume>
             <fpage>277</fpage>
             <lpage>285</lpage>
             <xrefbib>
                <pubidlist>
                   <pubid idtype="doi">10.1007/s10661-007-9833-9</pubid>
                </pubidlist>
             </xrefbib>
          </bibl>
       </refgrp>
    </bm>
 </art>