<art>
    <ui>s40200-014-0086-1</ui>
    <ji>2251-6581</ji>
    <fm>
       <dochead>Research article</dochead>
       <bibl>
          <title>
             <p>Concept mapping as a method to teach an evidence-based educated medical topic: a comparative study in medical students</p>
          </title>
          <aug>
             <au id="A1">
                <snm>Saeidifard</snm>
                <fnm>Farzane</fnm>
                <insr iid="I1"/>
                <email>Farzane.saeidi@gmail.com</email>
             </au>
             <au id="A2">
                <snm>Heidari</snm>
                <fnm>Kazem</fnm>
                <insr iid="I2"/>
                <email>k_heidari@razi.tums.ac.ir</email>
             </au>
             <au id="A3">
                <snm>Foroughi</snm>
                <fnm>Moein</fnm>
                <insr iid="I3"/>
                <email>Moeinfo.n@gmail.com</email>
             </au>
             <au ca="yes" id="A4">
                <snm>Soltani</snm>
                <fnm>Akbar</fnm>
                <insr iid="I1"/>
                <email>ak_soltani@yahoo.com</email>
             </au>
          </aug>
          <insg>
             <ins id="I1">
                <p>Endocrinology and Metabolism Research Center, Endocrinology and Metabolism Clinical Sciences Institute, Tehran University of Medical Sciences, Tehran, Iran</p>
             </ins>
             <ins id="I2">
                <p>Department of Epidemiology and Biostatistics, School of Public Health, Tehran University of Medical Sciences, Tehran, Iran</p>
             </ins>
             <ins id="I3">
                <p>Chronic Respiratory Diseases Research Center, National Research Institute of Tuberculosis and Lung Diseases (NRITLD), Shahid Beheshti University of Medical Sciences, Tehran, Iran</p>
             </ins>
          </insg>
          <source>Journal of Diabetes &amp; Metabolic Disorders</source>
          <issn>2251-6581</issn>
          <pubdate>2014</pubdate>
          <volume>13</volume>
          <issue>1</issue>
          <fpage>86</fpage>
          <url>http://www.jdmdonline.com/content/13/1/86</url>
          <xrefbib>
             <pubidlist>
                <pubid idtype="doi">10.1186/s40200-014-0086-1</pubid>
             <pubid idtype="pmpid">25419519</pubid></pubidlist>
          </xrefbib>
       </bibl>
       <history>
          <rec>
             <date>
                <day>22</day>
                <month>1</month>
                <year>2014</year>
             </date>
          </rec>
          <acc>
             <date>
                <day>3</day>
                <month>8</month>
                <year>2014</year>
             </date>
          </acc>
          <pub>
             <date>
                <day>1</day>
                <month>11</month>
                <year>2014</year>
             </date>
          </pub>
       </history>
       <cpyrt>
          <year>2014</year>
          <collab>Saeidifard et al.; licensee BioMed Central Ltd.</collab>
          <note>This is an Open Access article distributed under the terms of the Creative Commons Attribution License (<url>http://creativecommons.org/licenses/by/4.0</url>), which permits unrestricted use, distribution, and reproduction in any medium, provided the original work is properly credited. The Creative Commons Public Domain Dedication waiver (<url>http://creativecommons.org/publicdomain/zero/1.0/</url>) applies to the data made available in this article, unless otherwise stated.</note>
       </cpyrt>
       <kwdg>
          <kwd>Medical education</kwd>
          <kwd>Concept mapping</kwd>
          <kwd>Evidence-based medicine</kwd>
          <kwd>Lecture-based teaching</kwd>
          <kwd>Medical students</kwd>
       </kwdg>
       <abs>
          <sec>
             <st>
                <p>Abstract</p>
             </st>
             <sec>
                <st>
                   <p>Background</p>
                </st>
                <p>The objective of this study was to compare concept mapping with lecture-based method in teaching of evidence based educated topic to medical students.</p>
             </sec>
             <sec>
                <st>
                   <p>Methods</p>
                </st>
                <p>This randomized controlled trial was carried out on medical students during sixth year of 7-year MD curriculum clerkship phase. Cluster randomization was used to divide students into intervention and control groups. Both groups, at the beginning, were taught &#8220;Diabetic Ketoacidosis&#8221; (DKA) using evidence-based tool named Critically Appraised Topics (CAT). Students of intervention group were taught construction of concept maps on DKA and in the control group students had a lecture and a group discussion about what they had been taught on DKA. In the end, all of the students had an exam that they had to answer to 7 questions following to two clinical scenarios. The questions addressed physiopathology, diagnosis and treatment of patients with DKA and were scored separately. Sum of these scores was considered as total score. Scores were compared between intervention and control groups.</p>
             </sec>
             <sec>
                <st>
                   <p>Results</p>
                </st>
                <p>Seventy six medical students (28 male, 48 female) were participated in this study. Total score among intervention group was higher than control group (78.2% vs. 72.5%, p&#8201;&lt;&#8201;0.001). Subgroup analysis revealed significant differences between scores of students in the intervention group and scores of students in the control group in the diagnostic section of questions (81.0% vs. 71.5%, P&#8201;&lt;&#8201;0.001). The scores of students in the intervention group were also significantly higher than control group in physiopathology section of questions. No statistically significant difference was discovered between two groups in scores of answers to treatment section of questions (78.1 (7.3) vs. 72.5 (5.5) P&#8201;=&#8201;0.03).</p>
             </sec>
             <sec>
                <st>
                   <p>Conclusion</p>
                </st>
                <p>The results of the study showed that concept mapping method was more successful in education of evidence-based educated topic via CATs in comparison with lecture-based method. Interpretation of this finding would be the concept mapping method may develop meaningful learning among medical students.</p>
             </sec>
          </sec>
       </abs>
    </fm>
    <bdy>
       <sec>
          <st>
             <p>Introduction</p>
          </st>
          <p>Lecture based teaching method, which was used for several years, is doubtful to be efficient enough and memory retention by this method after 6 months is less than 5 percent <abbrgrp>
                <abbr bid="B1">1</abbr>
             </abbrgrp>. So it seems that an alternative method needs replacing. Within recent years, there has been an increasing interest in concept mapping (CM) as a powerful tool to educate new knowledge. Meaningful learning theory by Ausubel mentioned that conceptual learning occurs by hierarchically locating concepts, differentiation of concepts in the cognitive structure and connection between different concepts <abbrgrp>
                <abbr bid="B2">2</abbr>
             </abbrgrp>. Based on this theory concept maps were introduced as schematic devices for representing a set of concepts in a framework of propositions. Concept maps are used in different fields such as accessing representations, communication, co-operation, staff development and critical thinking. In the field of education, they have been used in teaching or learning of new concepts in undergraduate education, curriculum planning and assessment of education. CM helps students integrate their basic and clinical knowledge and realize new information that they learn <abbrgrp>
                <abbr bid="B3">3</abbr>
             </abbrgrp>. It can also enhance students' reasoning ability and can be used as an alternative of traditional nursing care plans for clinical preparation of students <abbrgrp>
                <abbr bid="B4">4</abbr>
             </abbrgrp>.</p>
          <p>The concept of evidence based medicine (EBM) is widely accepted in undergraduate medical education curriculum and across different specialties <abbrgrp>
                <abbr bid="B5">5</abbr>
             </abbrgrp>-<abbrgrp>
                <abbr bid="B9">9</abbr>
             </abbrgrp>. Evidence-based education requires ready access to modern information resources. Characteristics and level of audiences' knowledge, the level of familiarity with EBM principles and the available setting and time are the most major determinants of best approach to evidence-based teaching <abbrgrp>
                <abbr bid="B10">10</abbr>
             </abbrgrp>. In the region of evidence based medical education Critically Appraised Topics (CATs) have been introduced as one of the most powerful tools <abbrgrp>
                <abbr bid="B11">11</abbr>
             </abbrgrp>. Critically Appraised Topic (CAT) is a standardized, 1-2 page summary of evidences related to a clinical question. These tools critically review methodological quality of evidences and clinical relevance of them and help physicians with limited time or appraisal skill, easily access to scientific literature <abbrgrp>
                <abbr bid="B12">12</abbr>
             </abbrgrp>.</p>
          <p>Although the positive effect of using of CATs in medical education has been discussed previously, it seems that the method of teaching of these tools is also important. This study indicates on teaching evidence-based educated topic among medical students. The Objective of this study was to compare two educational methods (CM and lecture-based methods) in education of an evidence-based educated medical topic via CATs among medical students.</p>
       </sec>
       <sec>
          <st>
             <p>Methods</p>
          </st>
          <p>This randomized controlled trial was carried out on medical students during internal medicine practical course in Shariati hospital (Tehran University of medical sciences) in the spring and the summer of 2007 by accessible sampling. They were the sixth year medical students in the clerkship phase of 7-year MD curriculum. According to this curriculum students have to spend practical courses on different medical specialty to acquire the ability of managing patients. All of the students were 22 to 24&#160;years old. They were attended to the study during their 2-week endocrinology practical course. Students groups (including 4 groups that each group included 6-8 students) were randomly divided into intervention and control groups by cluster randomization method.</p>
          <p>All of the students had spent a course to learn the physiopathology of disease prior to their practical course. Scores of physiopathology course of endocrine diseases were also gained from medical faculty. Each group of the students was allocated to take intervention or control education.</p>
          <p>All of the students were introduced to basic concepts of EBM including making a structured question based on PICO (P (patient) I (intervention) C (comparison) O (outcome)) and principles of critically appraise of diagnosis and treatment oriented studies through a 4-hour work shop (a separate workshop was held for each group during their practical course of endocrinology). Afterward three Critically Appraised Topics (CAT) were reviewed by an endocrinologist. [S.A] that were taken from Best Evidence Topics (Best Bets 2006, <url>http://www.bestbets.org</url>). The titles of the CATs were the followings:</p><p>1 In [an adult patient with diabetic ketoacidosis] do [venous blood gases] accurately demonstrate [the degree of acidosis]?</p>
             <p>2 In [diabetic ketoacidosis], does [an initial bolus of insulin result in faster, safer restoration of normoglycaemia and pH] when compared [with no bolus prior to commencing continuous insulin infusion]?</p>
             <p>3 In [adults with diabetic ketoacidosis and significant acidaemia] is [the additional administration of iv bicarbonate better than standard fluid resuscitation] give [more rapid improvement of biochemical parameters and an increased survival]</p><p>
                </p>
          <p>At the beginning of the study all of students were asked for their familiarity with CAT. None of them were familiar with it. The endocrinologist who was also expert in EBM taught DKA to the students using these CATs. The first CAT addressed physiopathology and diagnosis of DKA and the second and the third ones included some therapeutic information for the students.</p>
          <sec>
             <st>
                <p>Intervention groups</p>
             </st>
             <p>In these groups, after the preceding stage, students were introduced to CM principles in a 45-minute session (none of them were familiar with CM method). Topics which were considered in this stage included meaningful learning, concept map introduction and the instruction of constructing, assessing and scoring of concept maps. Afterward each group drew a concept map by a method known as &#8220;selected term CM&#8221;. Students drew concept maps in diabetic ketoacidosis using key concepts that were introduced to them. Key concepts included these words: DKA, diagnosis, treatment, blood sugar, insulin, bicarbonate, ketonemia, ketonuria, acidosis, blood gas, potassium, sodium, normal saline, hyperkalemia, hypokalemia, hyponatremia, etiology, and pancreas. A facilitator accompanied them in the process of drawing maps. After drawing the concept maps, students discussed about the maps with the facilitator and the endocrinologist.</p>
          </sec>
          <sec>
             <st>
                <p>Control groups</p>
             </st>
             <p>Students who had been assigned to these groups after the first step of becoming familiar with EBM and CAT, had a 45-minute session of a lecture and a group discussion about DKA. No facilitator guided their discussion but an equal timeframe was allocated to each student to discuss.</p>
          </sec>
          <sec>
             <st>
                <p>Assessment</p>
             </st>
             <p>After the educational session, all of the students in each group were attended in an exam including two clinical scenarios of patients suspected of DKA (Appendix 1) followed by 4 and 3 open-answer questions (respectively) on physiopathology, diagnosis and treatment of patients that had been presented in scenarios. The exam administered immediately after the educational session. A pre-prepared answer sheet, which was conducted via an expert panel, was used for scoring of the answers. Each part of the questions (physiopathology, diagnosis and treatment parts) was scored separately. Sum of these scores was considered as total score. Scores were compared between intervention and control groups using Mann-Whitney test. Correlation between total scores and also scores of different parts with scores of physiopathology course of endocrinology were assessed using standard correlation tests. All of the statistical analysis was performed using SPSS ver.13. Significant level was considered as p-value &#8804;0.05.</p>
             <p>The ethics committee of Tehran University of Medical Sciences had approved the protocol of this study and the study was eligible for a waiver of written informed consent.</p>
          </sec>
       </sec>
       <sec>
          <st>
             <p>Results</p>
          </st>
          <p>Seventy six medical students (28 male (M), 48 female (F)) were participated in this study. After randomization of groups, 37 students (14&#160;M, 23&#160;F) were allocated to the intervention groups and 39 out of them (14&#160;M, 25&#160;F) to the control groups. There was not any refusal and all of the students completed the course.</p>
          <p>The mean score for physiopathology course of endocrinology was 15.15 out of 20 (SD&#8201;=&#8201;1.87) in the intervention groups and 15.50 out of 20 (SD&#8201;=&#8201;1.51) in the control groups. There was not statistically significant difference between these scores.</p>
          <p>Evaluation of post education exam scores between these two groups showed that students in the intervention groups had significantly better scores compared to the control groups (78.2% vs. 72.5% of total score, P&#8201;&lt;&#8201;0.001). About the diagnostic section of questions students in the intervention groups had answered significantly better than control groups. (81.0% vs. 71.5%, P&#8201;&lt;&#8201;0.001) (Table&#160;<tblr tid="T1">1</tblr>). The score of physiopathology section of questions among intervention groups was also significantly better than control groups. (78.1 (7.3) vs. 72.5 (5.5) P&#8201;=&#8201;0.03). There was no statistical significant difference in the scores of answers to treatment section of questions between intervention and control groups.
                </p>
          
             <table id="T1">
                <title>
                   <p>Table 1</p>
                </title>
                <caption>
                   <p>
                          <b>Comparison of medical students&#8217; characteristics and final exam scores in two groups of control and intervention</b>                        
                   </p>
                </caption>
                <tgroup align="left" cols="4">
                   <colspec align="left" colname="c1" colnum="1" colwidth="*"/>
                   <colspec align="left" colname="c2" colnum="2" colwidth="*"/>
                   <colspec align="left" colname="c3" colnum="3" colwidth="*"/>
                   <colspec align="left" colname="c4" colnum="4" colwidth="*"/>
                   <thead>
                      <row rowsep="1" valign="top">
                         <entry colname="c1"/>
                         <entry colname="c2">
                            <p>
                              <b>Intervention group (n&#8201;=&#8201;37)</b>                            
                            </p>
                         </entry>
                         <entry colname="c3">
                            <p>
                              <b>Control group</b>                            
                            </p>
                         </entry>
                         <entry colname="c4">
                            <p>
                              <b>P value</b>                            
                            </p>
                         </entry>
                      </row>
                   </thead>
                   <tfoot>
                      <p>*: Chi<sup>2</sup> test.</p>
                      <p>**: Mann-Whitney U test.</p>
                   </tfoot>
                   <tbody>
                      <row valign="top">
                         <entry colname="c1">
                            <p>Sex</p>
                         </entry>
                         <entry colname="c2"/>
                         <entry colname="c3"/>
                         <entry colname="c4">
                            <p>0.86*</p>
                         </entry>
                      </row>
                      <row valign="top">
                         <entry colname="c1">
                            <p>
                              <b>Male (%)</b>                            
                            </p>
                         </entry>
                         <entry colname="c2">
                            <p>14 (37.8)</p>
                         </entry>
                         <entry colname="c3">
                            <p>14 (35.9)</p>
                         </entry>
                         <entry colname="c4"/>
                      </row>
                      <row valign="top">
                         <entry colname="c1">
                            <p>
                              <b>Female (%)</b>                            
                            </p>
                         </entry>
                         <entry colname="c2">
                            <p>23 (62.2)</p>
                         </entry>
                         <entry colname="c3">
                            <p>25 (64.1)</p>
                         </entry>
                         <entry colname="c4"/>
                      </row>
                      <row valign="top">
                         <entry colname="c1">
                            <p>
                              <b>Physiopathology course score (out of 20)</b>                            
                            </p>
                         </entry>
                         <entry colname="c2">
                            <p>15.15 (1.87)</p>
                         </entry>
                         <entry colname="c3">
                            <p>15.54 (1.51)</p>
                         </entry>
                         <entry colname="c4">
                            <p>0.313**</p>
                         </entry>
                      </row>
                      <row valign="top">
                         <entry colname="c1">
                            <p>
                              <b>Physiopathology section score (%)</b>                            
                            </p>
                         </entry>
                         <entry colname="c2">
                            <p>78.1 (7.3)</p>
                         </entry>
                         <entry colname="c3">
                            <p>72.5 (5.5)</p>
                         </entry>
                         <entry colname="c4">
                            <p>0.03**</p>
                         </entry>
                      </row>
                      <row valign="top">
                         <entry colname="c1">
                            <p>
                              <b>Diagnosis section score (%)</b>                            
                            </p>
                         </entry>
                         <entry colname="c2">
                            <p>81.08 (11.2)</p>
                         </entry>
                         <entry colname="c3">
                            <p>71.53 (8.1)</p>
                         </entry>
                         <entry colname="c4">
                            <p>&lt;0.001**</p>
                         </entry>
                      </row>
                      <row valign="top">
                         <entry colname="c1">
                            <p>
                              <b>Treatment section score (%)</b>                            
                            </p>
                         </entry>
                         <entry colname="c2">
                            <p>75.54 (10.5)</p>
                         </entry>
                         <entry colname="c3">
                            <p>71.47 (7.8)</p>
                         </entry>
                         <entry colname="c4">
                            <p>0.07**</p>
                         </entry>
                      </row>
                      <row valign="top">
                         <entry colname="c1">
                            <p>
                              <b>Total score (%)</b>                            
                            </p>
                         </entry>
                         <entry colname="c2">
                            <p>78.2 (7.85)</p>
                         </entry>
                         <entry colname="c3">
                            <p>72.5 (5.5)</p>
                         </entry>
                         <entry colname="c4">
                            <p>&lt;0.001**</p>
                         </entry>
                      </row>
                   </tbody>
                </tgroup>
             </table>
          
          <p>Table&#160;<tblr tid="T2">2</tblr> displays relation between scores of physiopathology course of endocrinology and student&#8217;s exam score.
                </p>
          
             <table id="T2">
                <title>
                   <p>Table 2</p>
                </title>
                <caption>
                   <p>
                          <b>Correlation between non clinical pathophysiology course score of medical students and final exam scores</b>                        
                   </p>
                </caption>
                <tgroup align="left" cols="4">
                   <colspec align="left" colname="c1" colnum="1" colwidth="*"/>
                   <colspec align="left" colname="c2" colnum="2" colwidth="*"/>
                   <colspec align="left" colname="c3" colnum="3" colwidth="*"/>
                   <colspec align="left" colname="c4" colnum="4" colwidth="*"/>
                   <thead>
                      <row rowsep="1" valign="top">
                         <entry colname="c1"/>
                         <entry colname="c2">
                            <p>
                              <b>Intervention group (n&#8201;=&#8201;37)</b>                            
                            </p>
                         </entry>
                         <entry colname="c3">
                            <p>
                              <b>Control group (n&#8201;=&#8201;39)</b>                            
                            </p>
                         </entry>
                         <entry colname="c4">
                            <p>
                              <b>Total (n&#8201;=&#8201;76)</b>                            
                            </p>
                         </entry>
                      </row>
                   </thead>
                   <tfoot>
                      <p>*: P&#8201;&lt;&#8201;0.05.</p>
                   </tfoot>
                   <tbody>
                      <row valign="top">
                         <entry colname="c1">
                            <p>
                              <b>Pathophysiology section score (%)</b>                            
                            </p>
                         </entry>
                         <entry colname="c2">
                            <p>0.02</p>
                         </entry>
                         <entry colname="c3">
                            <p>-0.16</p>
                         </entry>
                         <entry colname="c4">
                            <p>-0.85</p>
                         </entry>
                      </row>
                      <row valign="top">
                         <entry colname="c1">
                            <p>
                              <b>Diagnosis section score (%)</b>                            
                            </p>
                         </entry>
                         <entry colname="c2">
                            <p>-0.007</p>
                         </entry>
                         <entry colname="c3">
                            <p>-0.19</p>
                         </entry>
                         <entry colname="c4">
                            <p>-0.12</p>
                         </entry>
                      </row>
                      <row valign="top">
                         <entry colname="c1">
                            <p>
                              <b>Treatment section score (%)</b>                            
                            </p>
                         </entry>
                         <entry colname="c2">
                            <p>-0.11</p>
                         </entry>
                         <entry colname="c3">
                            <p>0.36*</p>
                         </entry>
                         <entry colname="c4">
                            <p>-0.23*</p>
                         </entry>
                      </row>
                      <row valign="top">
                         <entry colname="c1">
                            <p>
                              <b>Total score (%)</b>                            
                            </p>
                         </entry>
                         <entry colname="c2">
                            <p>-0.04</p>
                         </entry>
                         <entry colname="c3">
                            <p>-0.33</p>
                         </entry>
                         <entry colname="c4">
                            <p>-0.18</p>
                         </entry>
                      </row>
                   </tbody>
                </tgroup>
             </table>
          
       </sec>
       <sec>
          <st>
             <p>Discussion</p>
          </st>
          <p>In this study we compared two educational methods in education of evidence-based educated topic. The results show that CM method works better in comparison with lecture-based method in education of an evidence-based educated medical topic via CATs. We found that the mean score of students in the intervention groups was significantly higher than the control groups (78.2% vs. 72.5% of total score, P&lt;0.001). Previous studies indicate the positive role of CM method in medical education curriculum by EBM assistance <abbrgrp>
                <abbr bid="B13">13</abbr>
             </abbrgrp>-<abbrgrp>
                <abbr bid="B17">17</abbr>
             </abbrgrp>. CATs as tools for evidence-based learning can stimulate learning of new topics and so its teaching method would be important. However in our study both groups used this tool, students of intervention groups learned better. These findings show the positive role of CM on learning of medical topic via CATs.</p>
          <p>The vast majority of studies have indicated on the role of CM in development of meaningful learning and problem solving <abbrgrp>
                <abbr bid="B18">18</abbr>
             </abbrgrp>-<abbrgrp>
                <abbr bid="B20">20</abbr>
             </abbrgrp>. They indicate that through concept mapping students could integrate basic and clinical knowledge and move from linear thinking patterns to more integrated holistic patterns. In some studies integration of CM with problem-based learning (PBL) has been indicated. They indicated that concept mapping stimulated meaningful learning within a PBL course <abbrgrp>
                <abbr bid="B21">21</abbr>
             </abbrgrp>,<abbrgrp>
                <abbr bid="B22">22</abbr>
             </abbrgrp>.</p>
          <p>The discrepancy between our study and above-mentioned ones is in indication of use of EBM-related tools in medical education. However in those studies using of concept maps has been mentioned as effective tools, importance of EBM has been neglected in medical education. In present study indication was on the integration of EBM and CM in education of medical topics. Since within recent decades EBM has introduced as a new and efficient way in gathering and using of the best and the most relevant evidences in practice, the methods of education of its tools would be important.</p>
          <p>Surprisingly we found that in subgroup analysis of the answers students in the intervention groups had significantly better scores in physiopathology and diagnostic sections of questions while the difference between their scores in treatment section were statistically non-significant. As an explanation for this finding it can be mention that prior to entrance to the practical course, students receive trainings on physiopathology basis of diseases as physiopathology course. Physiopathology and feature of diseases get the most importance and attention in the curriculum of medical education in Iran while the treatment of patients is of the secondary importance. The physiopathology and diagnostic sections of present study were a redundancy of students&#8217; prior knowledge in these areas while the treatment section was somewhat new.</p>
          <p>Several limitations of this study deserve comment. Only one rater performed scoring of the exam. This factor can reduce reliability of scores. In the control group, we didn&#8217;t have a facilitator as same as the intervention group. Facilitator helped students draw maps and also motivated them to learn. The second mentioned role of the facilitator might affect our result. The similarity of knowledge of students before the educational intervention was not assessed. The difference between their prior knowledge could cause bias. The final exam was performed immediately after the education session. This exam couldn&#8217;t assess students&#8217; recall of knowledge, but it can be concluded that by CM method, students learn and process better and more rapid. By this design, maturation bias was diminished. Although students were requested to conceal the details of the study from other students and due to presence of students in different wards at the same time contamination risk was low, it was not zero. This probability of contamination could affect the process and the result of the study.</p>
       </sec>
       <sec>
          <st>
             <p>Conclusion</p>
          </st>
          <p>In this study we found that CM as educational method was better than lecture-based traditional method on education of an evidence-based educated medical topic via CATs. In conclusion, in the field of medical education and especially in the field of EBM, simplicity of learning by CM is an opportunity which may help medical students learn and criticize better many more concepts and evidences which they encountered with them. So they will be able to use and understand faster the best and the most relevant evidences to judge better about their patients. This might ultimate in better treatment.</p>
       </sec>
       <sec>
          <st>
             <p>Abbreviations</p>
          </st>
          <p>DKA: Diabetic ketoacidosis</p>
          <p>EBM: Evidence-Based medicine</p>
          <p>CAT: Critically appraised topic</p>
          <p>CM: Concept mapping</p>
          <p>PICO: Patient, intervention, comparison, outcome</p>
          <p>SD: Standard deviation</p>
       </sec>
       <sec>
          <st>
             <p>Competing interests</p>
          </st>
          <p>The authors declare that they have no competing interests.</p>
       </sec>
       <sec>
          <st>
             <p>Authors&#8217; contributions</p>
          </st>
          <p>AS made substantial contributions to conception and design of the study. FS drafted the manuscript and revising it critically for important intellectual content. KH had substantial contributions to acquisition of data, or analysis and interpretation of data and participated in its design and coordination and helped to draft the manuscript. MF drafted the manuscript and edited its language (English edition). All authors read and approved the final manuscript.</p>
       </sec>
       <sec>
          <st>
             <p>Appendix 1</p>
          </st>
          <sec>
             <st>
                <p>Case 1</p>
             </st>
             <p>A 21&#160;year old man developed polyuria, polydipsia and blurred vision. On examination he was noted to have persistent blood pressure reading of 100/60 mmhg, a low grade fever (38.5&#176;C), heart rate of 110&#160;bpm and respiratory rate of 14 breaths per minute. Head and neck exam reveals poor dentition with significant periodontal disease. Chest and cardiac exam were normal. Abdominal exam was remarkable for central obesity. The extremities showed normal sensation and vibratory sense with a 10 gram monofilament. Laboratory examination was notable for a white cell count of 17000, blood glucose of 480&#160;mg/dl, an anion gap of 27, with a pH of 7.10 and serum ketones positive at 1:16.</p>
             <p>Questions:</p><p>1. Describe the major causative factors of DKA.</p>
                <p>2. List the clinical sign and symptoms of diabetes and DKA.</p>
                <p>3. Describe the major metabolic change in DKA.</p>
                <p>4. Discuss the major objectives of medical management of DKA.</p><p>
                    </p>
          </sec>
          <sec>
             <st>
                <p>Case 2</p>
             </st>
             <p>A 22&#160;year old medical student admitted by confusion and agitation. He has had nausea, vomiting and abdominal pain for 2 last days and polyuria, polydipsia and nocturia since 2&#160;weeks ago. On physical examination he had moderate xerostomy with normal chest, abdominal and extremities exam. Laboratory findings were as following:</p>
             <p>BS&#8201;=&#8201;458 WBC&#8201;=&#8201;14500 U/A: keton bodies&#8201;=&#8201;+++ glu&#8201;=&#8201;+++</p>
             <p>Na&#8201;=&#8201;129 PMN&#8201;=&#8201;85% ABG: PH&#8201;=&#8201;7.1 PCO<sub>2</sub>&#8201;=&#8201;88&#160;mmHg PO<sub>2</sub>&#8201;=&#8201;88&#160;mmHg</p>
             <p>K&#8201;=&#8201;4.9 lymph&#8201;=&#8201;12% HCO<sub>3</sub>&#8201;=&#8201;5&#160;mmol/lit</p>
             <p>Cr&#8201;=&#8201;1.8 mono&#8201;=&#8201;2%</p>
             <p>Baso&#8201;=&#8201;1%</p>
             <p>Questions:</p><p>1. Prescription of insulin bolus in DKA, is it necessary?</p>
                <p>2. Use of bicarbonate in adult with diabetic ketoacidosis, is it necessary?</p>
                <p>3. Venous blood gas in adult patients with diabetic ketoacidosis, is it necessary?</p><p>
                    </p>
          </sec>
       </sec>
    </bdy>
    <bm>
       <refgrp>
          
          <bibl id="B1">
             <title>
                <p>The learning pyramid: does it point teachers in the right direction</p>
             </title>
             <aug>
                <au>
                   <snm>Lalley</snm>
                   <fnm>J</fnm>
                </au>
                <au>
                   <snm>Miller</snm>
                   <fnm>R</fnm>
                </au>
             </aug>
             <source>Education</source>
             <pubdate>2007</pubdate>
             <volume>128</volume>
             <issue>1</issue>
             <fpage>16</fpage>
          </bibl>
          <bibl id="B2">
             <aug>
                <au>
                   <snm>Ausubel</snm>
                   <fnm>DP</fnm>
                </au>
                <au>
                   <snm>Novak</snm>
                   <fnm>JD</fnm>
                </au>
                <au>
                   <snm>Hanesian</snm>
                   <fnm>H</fnm>
                </au>
             </aug>
             <source>Educational Psychology: A Cognitive View</source>
             <pubdate>1968</pubdate>
          </bibl>
          <bibl id="B3">
             <title>
                <p>Concept mapping&#8211;a strategy for assessment</p>
             </title>
             <aug>
                <au>
                   <snm>Williams</snm>
                   <fnm>M</fnm>
                </au>
             </aug>
             <source>Nurs Stand</source>
             <pubdate>2004</pubdate>
             <volume>19</volume>
             <issue>9</issue>
             <fpage>33</fpage>
             <lpage>38</lpage>
             <xrefbib>
                <pubidlist>
                   <pubid idtype="doi">10.7748/ns2004.11.19.9.33.c3754</pubid>
                   <pubid idtype="pmpid" link="fulltext">15574052</pubid>
                </pubidlist>
             </xrefbib>
          </bibl>
          <bibl id="B4">
             <title>
                <p>Concept mapping as a critical thinking tool for nurse educators</p>
             </title>
             <aug>
                <au>
                   <snm>Luckowski</snm>
                   <fnm>A</fnm>
                </au>
             </aug>
             <source>J Nurses Staff Dev</source>
             <pubdate>2003</pubdate>
             <volume>19</volume>
             <issue>5</issue>
             <fpage>228</fpage>
             <lpage>233</lpage>
             <xrefbib>
                <pubidlist>
                   <pubid idtype="doi">10.1097/00124645-200309000-00003</pubid>
                   <pubid idtype="pmpid" link="fulltext">14581830</pubid>
                </pubidlist>
             </xrefbib>
          </bibl>
          <bibl id="B5">
             <title>
                <p>Evidence&#8208;based medicine training in graduate medical education: past, present and future</p>
             </title>
             <aug>
                <au>
                   <snm>Green</snm>
                   <fnm>ML</fnm>
                </au>
             </aug>
             <source>J Eval Clin Pract</source>
             <pubdate>2000</pubdate>
             <volume>6</volume>
             <issue>2</issue>
             <fpage>121</fpage>
             <lpage>138</lpage>
             <xrefbib>
                <pubidlist>
                   <pubid idtype="doi">10.1046/j.1365-2753.2000.00239.x</pubid>
                   <pubid idtype="pmpid" link="fulltext">10970006</pubid>
                </pubidlist>
             </xrefbib>
          </bibl>
          <bibl id="B6">
             <title>
                <p>&#8220;Evidence-Based Medicine&#8221; in Medical Education [Abstract]</p>
             </title>
             <aug>
                <au>
                   <snm>Erzsebet</snm>
                   <fnm>F</fnm>
                </au>
             </aug>
             <source>World Conference on Educational Multimedia, Hypermedia and Telecommunications: 2004</source>
             <pubdate>2004</pubdate>
             <fpage>4220</fpage>
          </bibl>
          <bibl id="B7">
             <note>Keckley PH: <b>Evidence-based medicine in managed care: a survey of current and emerging strategies</b>. <it>Medscape General Medicine</it> 2004, <b>6</b>(2).</note>
          </bibl>
          <bibl id="B8">
             <title>
                <p>Impact of an evidence-based medicine curriculum on medical students' attitudes and skills</p>
             </title>
             <aug>
                <au>
                   <snm>Dorsch</snm>
                   <fnm>JL</fnm>
                </au>
                <au>
                   <snm>Aiyer</snm>
                   <fnm>MK</fnm>
                </au>
                <au>
                   <snm>Meyer</snm>
                   <fnm>LE</fnm>
                </au>
             </aug>
             <source>J Med Libr Assoc</source>
             <pubdate>2004</pubdate>
             <volume>92</volume>
             <issue>4</issue>
             <fpage>397</fpage>
             <xrefbib>
                <pubidlist>
                   <pubid idtype="pmpid" link="fulltext">15494754</pubid>
                </pubidlist>
             </xrefbib>
          </bibl>
          <bibl id="B9">
             <title>
                <p>Evidence-based medicine in internal medicine clerkships: a national survey</p>
             </title>
             <aug>
                <au>
                   <snm>Aiyer</snm>
                   <fnm>M</fnm>
                </au>
                <au>
                   <snm>Hemmer</snm>
                   <fnm>P</fnm>
                </au>
                <au>
                   <snm>Meyer</snm>
                   <fnm>L</fnm>
                </au>
                <au>
                   <snm>Levine</snm>
                   <fnm>S</fnm>
                </au>
                <au>
                   <snm>Reddy</snm>
                   <fnm>S</fnm>
                </au>
             </aug>
             <source>South Med J</source>
             <pubdate>2002</pubdate>
             <volume>95</volume>
             <issue>12</issue>
             <fpage>1389</fpage>
             <lpage>1395</lpage>
             <xrefbib>
                <pubidlist>
                   <pubid idtype="doi">10.1097/00007611-200212000-00007</pubid>
                   <pubid idtype="pmpid" link="fulltext">12597304</pubid>
                </pubidlist>
             </xrefbib>
          </bibl>
          <bibl id="B10">
             <title>
                <p>How to teach evidence-based medicine</p>
             </title>
             <aug>
                <au>
                   <snm>Bradt</snm>
                   <fnm>P</fnm>
                </au>
                <au>
                   <snm>Moyer</snm>
                   <fnm>V</fnm>
                </au>
             </aug>
             <source>Clininics in Perinatology</source>
             <pubdate>2003</pubdate>
             <volume>30</volume>
             <fpage>419</fpage>
             <lpage>433</lpage>
             <xrefbib>
                <pubidlist>
                   <pubid idtype="doi">10.1016/S0095-5108(03)00019-8</pubid>
                </pubidlist>
             </xrefbib>
          </bibl>
          <bibl id="B11">
             <title>
                <p>A critical appraisal of the efficacy of continuing medical education</p>
             </title>
             <aug>
                <au>
                   <snm>Haynes</snm>
                   <fnm>RB</fnm>
                </au>
                <au>
                   <snm>Davis</snm>
                   <fnm>DA</fnm>
                </au>
                <au>
                   <snm>McKibbon</snm>
                   <fnm>A</fnm>
                </au>
                <au>
                   <snm>Tugwell</snm>
                   <fnm>P</fnm>
                </au>
             </aug>
             <source>Jama</source>
             <pubdate>1984</pubdate>
             <volume>251</volume>
             <issue>1</issue>
             <fpage>61</fpage>
             <lpage>64</lpage>
             <xrefbib>
                <pubidlist>
                   <pubid idtype="doi">10.1001/jama.1984.03340250041018</pubid>
                   <pubid idtype="pmpid" link="fulltext">6690767</pubid>
                </pubidlist>
             </xrefbib>
          </bibl>
          <bibl id="B12">
             <title>
                <p>Critically appraised topics</p>
             </title>
             <aug>
                <au>
                   <snm>Fetters</snm>
                   <fnm>L</fnm>
                </au>
                <au>
                   <snm>Figueiredo</snm>
                   <fnm>EM</fnm>
                </au>
                <au>
                   <snm>Keane-Miller</snm>
                   <fnm>D</fnm>
                </au>
                <au>
                   <snm>McSweeney</snm>
                   <fnm>DJ</fnm>
                </au>
                <au>
                   <snm>Tsao</snm>
                   <fnm>CC</fnm>
                </au>
             </aug>
             <source>Pediatr Phys Ther</source>
             <pubdate>2004</pubdate>
             <volume>16</volume>
             <issue>1</issue>
             <fpage>19</fpage>
             <lpage>21</lpage>
             <xrefbib>
                <pubidlist>
                   <pubid idtype="doi">10.1097/01.PEP.0000114628.87352.C8</pubid>
                   <pubid idtype="pmpid" link="fulltext">17057467</pubid>
                </pubidlist>
             </xrefbib>
          </bibl>
          <bibl id="B13">
             <title>
                <p>Concept mapping in problem based learning: a cautionary tale</p>
             </title>
             <aug>
                <au>
                   <snm>Johnstone</snm>
                   <fnm>AH</fnm>
                </au>
                <au>
                   <snm>Otis</snm>
                   <fnm>KH</fnm>
                </au>
             </aug>
             <source>Chem Educ Res Pract</source>
             <pubdate>2006</pubdate>
             <volume>7</volume>
             <issue>2</issue>
             <fpage>84</fpage>
             <lpage>95</lpage>
             <xrefbib>
                <pubidlist>
                   <pubid idtype="doi">10.1039/b5rp90017d</pubid>
                </pubidlist>
             </xrefbib>
          </bibl>
          <bibl id="B14">
             <title>
                <p>Concept maps in medical education: an analytical literature review</p>
             </title>
             <aug>
                <au>
                   <snm>Daley</snm>
                   <fnm>BJ</fnm>
                </au>
                <au>
                   <snm>Torre</snm>
                   <fnm>DM</fnm>
                </au>
             </aug>
             <source>Med Educ</source>
             <pubdate>2010</pubdate>
             <volume>44</volume>
             <issue>5</issue>
             <fpage>440</fpage>
             <lpage>448</lpage>
             <xrefbib>
                <pubidlist>
                   <pubid idtype="doi">10.1111/j.1365-2923.2010.03628.x</pubid>
                   <pubid idtype="pmpid" link="fulltext">20374475</pubid>
                </pubidlist>
             </xrefbib>
          </bibl>
          <bibl id="B15">
             <title>
                <p>Concept mapping assessment in a problem-based medical curriculum</p>
             </title>
             <aug>
                <au>
                   <snm>Kassab</snm>
                   <fnm>SE</fnm>
                </au>
                <au>
                   <snm>Hussain</snm>
                   <fnm>S</fnm>
                </au>
             </aug>
             <source>Med Teach</source>
             <pubdate>2010</pubdate>
             <volume>32</volume>
             <issue>11</issue>
             <fpage>926</fpage>
             <lpage>931</lpage>
             <xrefbib>
                <pubidlist>
                   <pubid idtype="doi">10.3109/0142159X.2010.497824</pubid>
                   <pubid idtype="pmpid" link="fulltext">21039104</pubid>
                </pubidlist>
             </xrefbib>
          </bibl>
          <bibl id="B16">
             <title>
                <p>Mapping as a learning strategy in health professions education: a critical analysis</p>
             </title>
             <aug>
                <au>
                   <snm>Pudelko</snm>
                   <fnm>B</fnm>
                </au>
                <au>
                   <snm>Young</snm>
                   <fnm>M</fnm>
                </au>
                <au>
                   <snm>Vincent&#8208;Lamarre</snm>
                   <fnm>P</fnm>
                </au>
                <au>
                   <snm>Charlin</snm>
                   <fnm>B</fnm>
                </au>
             </aug>
             <source>Med Educ</source>
             <pubdate>2012</pubdate>
             <volume>46</volume>
             <issue>12</issue>
             <fpage>1215</fpage>
             <lpage>1225</lpage>
             <xrefbib>
                <pubidlist>
                   <pubid idtype="doi">10.1111/medu.12032</pubid>
                   <pubid idtype="pmpid" link="fulltext">23171264</pubid>
                </pubidlist>
             </xrefbib>
          </bibl>
          <bibl id="B17">
             <note>Surapaneni KM, Tekian A: <b>Concept mapping enhances learning of biochemistry</b>. <it>Medical education online</it> 2013, <b>18</b>.</note>
          </bibl>
          <bibl id="B18">
             <title>
                <p>How a qualitative approach to concept map analysis can be used to aid learning by illustrating patterns of conceptual development</p>
             </title>
             <aug>
                <au>
                   <snm>Kinchin</snm>
                   <fnm>IM</fnm>
                </au>
                <au>
                   <snm>Hay</snm>
                   <fnm>DB</fnm>
                </au>
                <au>
                   <snm>Adams</snm>
                   <fnm>A</fnm>
                </au>
             </aug>
             <source>Educ Res</source>
             <pubdate>2000</pubdate>
             <volume>42</volume>
             <issue>1</issue>
             <fpage>43</fpage>
             <lpage>57</lpage>
             <xrefbib>
                <pubidlist>
                   <pubid idtype="doi">10.1080/001318800363908</pubid>
                </pubidlist>
             </xrefbib>
          </bibl>
          <bibl id="B19">
             <title>
                <p>A qualitative evaluation of medical student learning with concept maps</p>
             </title>
             <aug>
                <au>
                   <snm>Torre</snm>
                   <fnm>D</fnm>
                </au>
                <au>
                   <snm>Daley</snm>
                   <fnm>B</fnm>
                </au>
                <au>
                   <snm>Stark-Schweitzer</snm>
                   <fnm>T</fnm>
                </au>
                <au>
                   <snm>Siddartha</snm>
                   <fnm>S</fnm>
                </au>
                <au>
                   <snm>Petkova</snm>
                   <fnm>J</fnm>
                </au>
                <au>
                   <snm>Ziebert</snm>
                   <fnm>M</fnm>
                </au>
             </aug>
             <source>Med Teach</source>
             <pubdate>2007</pubdate>
             <volume>29</volume>
             <issue>9&#8211;10</issue>
             <fpage>949</fpage>
             <lpage>955</lpage>
             <xrefbib>
                <pubidlist>
                   <pubid idtype="doi">10.1080/01421590701689506</pubid>
                   <pubid idtype="pmpid" link="fulltext">18158670</pubid>
                </pubidlist>
             </xrefbib>
          </bibl>
          <bibl id="B20">
             <title>
                <p>Using concept mapping to locate the tacit dimension of clinical expertise: Towards a theoretical framework to support critical reflection on teaching</p>
             </title>
             <aug>
                <au>
                   <snm>Kinchin</snm>
                   <fnm>IM</fnm>
                </au>
                <au>
                   <snm>Cabot</snm>
                   <fnm>LB</fnm>
                </au>
                <au>
                   <snm>Hay</snm>
                   <fnm>DB</fnm>
                </au>
             </aug>
             <source>Learn Health Soc Care</source>
             <pubdate>2008</pubdate>
             <volume>7</volume>
             <issue>2</issue>
             <fpage>93</fpage>
             <lpage>104</lpage>
             <xrefbib>
                <pubidlist>
                   <pubid idtype="doi">10.1111/j.1473-6861.2008.00174.x</pubid>
                </pubidlist>
             </xrefbib>
          </bibl>
          <bibl id="B21">
             <title>
                <p>Developing concept maps from problem&#8208;based learning scenario discussions</p>
             </title>
             <aug>
                <au>
                   <snm>Hsu</snm>
                   <fnm>LL</fnm>
                </au>
             </aug>
             <source>J Adv Nurs</source>
             <pubdate>2004</pubdate>
             <volume>48</volume>
             <issue>5</issue>
             <fpage>510</fpage>
             <lpage>518</lpage>
             <xrefbib>
                <pubidlist>
                   <pubid idtype="doi">10.1111/j.1365-2648.2004.03233.x</pubid>
                   <pubid idtype="pmpid" link="fulltext">15533089</pubid>
                </pubidlist>
             </xrefbib>
          </bibl>
          <bibl id="B22">
             <title>
                <p>Toward meaningful learning in undergraduate medical education using concept maps in a PBL pathophysiology course</p>
             </title>
             <aug>
                <au>
                   <snm>Rendas</snm>
                   <fnm>AB</fnm>
                </au>
                <au>
                   <snm>Fonseca</snm>
                   <fnm>M</fnm>
                </au>
                <au>
                   <snm>Pinto</snm>
                   <fnm>PR</fnm>
                </au>
             </aug>
             <source>Adv Physiol Educ</source>
             <pubdate>2006</pubdate>
             <volume>30</volume>
             <issue>1</issue>
             <fpage>23</fpage>
             <lpage>29</lpage>
             <xrefbib>
                <pubidlist>
                   <pubid idtype="doi">10.1152/advan.00036.2005</pubid>
                   <pubid idtype="pmpid" link="fulltext">16481605</pubid>
                </pubidlist>
             </xrefbib>
          </bibl>
       </refgrp>
    </bm>
 </art>