<art>
    <ui>s40478-014-0151-5</ui>
    <ji>2051-5960</ji>
    <fm>
       <dochead>Letter to the Editor</dochead>
       <bibl>
          <title>
             <p>Decontamination of medical devices from pathological amyloid-&#946;-, tau- and &#945;-synuclein aggregates</p>
          </title>
          <aug>
             <au id="A1">
                <snm>Thomzig</snm>
                <fnm>Achim</fnm>
                <insr iid="I1"/>
                <email>ThomzigA@rki.de</email>
             </au>
             <au id="A2">
                <snm>Wagenf&#252;hr</snm>
                <fnm>Katja</fnm>
                <insr iid="I1"/>
                <email>WagenfuehrK@rki.de</email>
             </au>
             <au id="A3">
                <snm>Daus</snm>
                <mi>L</mi>
                <fnm>Martin</fnm>
                <insr iid="I1"/>
                <email>DausM@rki.de</email>
             </au>
             <au id="A4">
                <snm>Joncic</snm>
                <fnm>Marion</fnm>
                <insr iid="I1"/>
                <email>JoncicM@rki.de</email>
             </au>
             <au id="A5">
                <snm>Schulz-Schaeffer</snm>
                <mi>J</mi>
                <fnm>Walter</fnm>
                <insr iid="I2"/>
                <email>wjschulz@med.uni-goettingen.de</email>
             </au>
             <au id="A6">
                <snm>Thanheiser</snm>
                <fnm>Marc</fnm>
                <insr iid="I3"/>
                <email>ThanheiserM@rki.de</email>
             </au>
             <au id="A7">
                <snm>Mielke</snm>
                <fnm>Martin</fnm>
                <insr iid="I4"/>
                <email>MielkeM@rki.de</email>
             </au>
             <au id="A8" ca="yes">
                <snm>Beekes</snm>
                <fnm>Michael</fnm>
                <insr iid="I1"/>
                <email>BeekesM@rki.de</email>
             </au>
          </aug>
          <insg>
             <ins id="I1">
                <p>Prion and Prionoid Research Unit, ZBS 6 &#8211; Proteomics and Spectroscopy, Centre for Biological Threats and Special Pathogens, Robert Koch-Institut, Nordufer 20, Berlin, 13353, Germany</p>
             </ins>
             <ins id="I2">
                <p>Department of Neuropathology, Prion and Dementia Research Unit, University Medical Centre G&#246;ttingen, Robert-Koch-Str. 40, G&#246;ttingen, 37075, Germany</p>
             </ins>
             <ins id="I3">
                <p>Department of Infectious Diseases, FG 14 - Applied Infection Control and Hospital Hygiene, Robert Koch-Institut, Nordufer 20, Berlin, 13353, Germany</p>
             </ins>
             <ins id="I4">
                <p>Department of Infectious Diseases, Robert Koch-Institut, Nordufer 20, Berlin, 13353, Germany</p>
             </ins>
          </insg>
          <source>Acta Neuropathologica Communications</source>
          <issn>2051-5960</issn>
          <pubdate>2014</pubdate>
          <volume>2</volume>
          <issue>1</issue>
          <fpage>151</fpage>
          <url>http://www.actaneurocomms.org/content/2/1/151</url>
          <xrefbib>
             <pubidlist>
                <pubid idtype="doi">10.1186/s40478-014-0151-5</pubid>
             </pubidlist>
          </xrefbib>
       </bibl>
       <history>
          <rec>
             <date>
                <day>3</day>
                <month>9</month>
                <year>2014</year>
             </date>
          </rec>
          <acc>
             <date>
                <day>10</day>
                <month>10</month>
                <year>2014</year>
             </date>
          </acc>
          <pub>
             <date>
                <day>25</day>
                <month>10</month>
                <year>2014</year>
             </date>
          </pub>
       </history>
       <cpyrt>
          <year>2014</year>
          <collab>Thomzig et al.; licensee BioMed Central Ltd.</collab>
          <note>This is an Open Access article distributed under the terms of the Creative Commons Attribution License (<url>http://creativecommons.org/licenses/by/4.0</url>), which permits unrestricted use, distribution, and reproduction in any medium, provided the original work is properly credited. The Creative Commons Public Domain Dedication waiver (<url>http://creativecommons.org/publicdomain/zero/1.0/</url>) applies to the data made available in this article, unless otherwise stated.</note>
       </cpyrt>
       <kwdg>
          <kwd>Alzheimer&#8217;s disease</kwd>
          <kwd>Parkinson&#8217;s disease</kwd>
          <kwd>Dementia with Lewy bodies</kwd>
          <kwd>Amyloid-&#946;</kwd>
          <kwd>Tau</kwd>
          <kwd>&#945;-synuclein</kwd>
          <kwd>Prion</kwd>
          <kwd>Aggregate</kwd>
          <kwd>Decontamination</kwd>
          <kwd>Medical devices</kwd>
       </kwdg><abs>
   <sec>
    <st>
     <p>Abstract</p>
    </st>
     <p>No abstract</p>
    </sec>
  </abs></fm>
    <bdy>
       <sec>
          <st>
             <p>Prion-like features and possible hazards of amyloid-&#946;-, tau- and &#945;-synuclein aggregates</p>
          </st>
          <p>Increasing evidence suggests that the misfolding and aggregation of different disease-associated proteins such as amyloid-&#946; (A&#946;) and tau in Alzheimer&#8217;s disease (AD), &#945;-synuclein in Parkinson&#8217;s Disease (PD) and dementia with Lewy bodies (DLB), or prion protein (PrP) in prion diseases is based on a common molecular mechanism of nucleation-dependent protein polymerization <abbrgrp>
                <abbr bid="B1">1</abbr>
             </abbrgrp>-<abbrgrp>
                <abbr bid="B3">3</abbr>
             </abbrgrp>. Consistent with this concept it has been recently demonstrated that the aggregation and deposition of A&#946;, tau, and &#945;-synuclein in the brain can be stimulated in animal models by injection of inocula that contain aggregated forms of these proteins (for a review see: <abbrgrp>
                <abbr bid="B4">4</abbr>
             </abbrgrp>). Additionally, intracerebral implantation of stainless steel wires previously contaminated with A&#946;-containing brain extract was found to stimulate cerebral beta-amyloidosis in APP23 transgenic mice <abbrgrp>
                <abbr bid="B5">5</abbr>
             </abbrgrp>, and A&#946; aggregates resisted inactivation of nucleating (&#8220;seeding&#8221;) activity by boiling <abbrgrp>
                <abbr bid="B5">5</abbr>
             </abbrgrp> or formaldehyde <abbrgrp>
                <abbr bid="B6">6</abbr>
             </abbrgrp>. Taken together, these findings raised concerns that the transmission of pathological protein particles from common neurodegenerative diseases may possibly pose a risk to patient safety, e.g. in transfusion medicine or surgery. However, so far neither experimental nor epidemiological studies provided evidence for a transmission of severe or even fatal disease by A&#946;-, tau- or &#945;-synuclein aggregates <abbrgrp>
                <abbr bid="B4">4</abbr>
             </abbrgrp>. Yet, stimulation of cerebral protein aggregation by iatrogenically transmitted A&#946;-, tau- or &#945;-synuclein particles could possibly have harmful effects below full-blown disease transmission. For &#945;-synuclein such scenarios have been experimentally exemplified. Intracerebrally or intramuscularly injected samples containing aggregated human &#945;-synuclein led to both earlier onset of severe motor dysfunction in and premature death of transgenic mice expressing mutated human &#945;-synuclein <abbrgrp>
                <abbr bid="B7">7</abbr>
             </abbrgrp>-<abbrgrp>
                <abbr bid="B9">9</abbr>
             </abbrgrp>. In addition, intracerebral injection of similar inocula caused neurotoxic effects and neurological impairments in transmission experiments with wild-type mice <abbrgrp>
                <abbr bid="B10">10</abbr>
             </abbrgrp>. Whether those harmful effects can be also caused by transmitted protein particles in humans who express mutated or normal &#945;-synuclein, A&#946; or tau is still unknown.</p>
       </sec>
       <sec>
          <st>
             <p>Testing the depletion of aggregated amyloid-&#946;, tau and &#945;-synuclein in carrier assays</p>
          </st>
          <p>Thus, the ability to decontaminate medical instruments from aggregated A&#946;, tau and &#945;-synuclein may potentially add to patient safety. When discussing this question, data on the efficacy of routinely applicable reprocessing procedures for medical instruments against A&#946;-, tau- and &#945;-synuclein aggregates can provide helpful guidance. For this reason, we assessed the activity of different reprocessing procedures against those contaminations in depletion assays that used stainless steel wire grids as surrogates for medical instruments. These assays were developed by adapting a method previously used to test the decontamination of medical devices from contaminations of infectious prion protein (for details see <abbrgrp>
                <abbr bid="B11">11</abbr>
             </abbrgrp>). In brief: Two stainless steel wire grids (100 &#215; 5 mm; DIN 1.4301, Sp&#246;rl) each were contaminated with 20% (w/v) brain tissue homogenates from patients with AD or demential &#945;-synuclein aggregation disease (SD) and jointly used for the analysis of the respective decontamination treatment. Grids were air-dried for 2&#160;days at room temperature (RT) and subsequently incubated in the formulations for the time-periods and at the temperatures indicated in Figure&#160;<figr fid="F1">1</figr>. After incubation in the specified formulations, some grids were additionally steam sterilized at 134&#176;C for the indicated time periods. Residual protein contaminations were eluted from pairs of jointly coiled up wire grids by boiling in 300&#160;&#956;l double-concentrated electrophoresis loading buffer and analysed by Western blotting. 12% Tris-Glycine gels were used for sodium dodecyl sulfate (SDS) polyacrylamide gel electrophoresis (SDS-PAGE), and after SDS-PAGE the whole gels (including the stacking gels) were blotted onto polyvinylidene difluoride membranes. The blots were incubated in the antibody- and blocking solutions specified in Table&#160;<tblr tid="T1">1</tblr>, and labelled proteins were visualized using CDP-star and Amersham Hyperfilm ECL.</p>
          
             <fig id="F1">
                <title>
                   <p>Figure 1</p>
                </title>
                <caption>
                   <p>In vitro carrier assay for testing the depletion of aggregated human &#945;-synuclein, amyloid-&#946; and tau.</p>
                </caption>
                <text>
                   <p>
                      <b>In vitro carrier assay for testing the depletion of aggregated human &#945;-synuclein, amyloid-&#946; and tau.</b> Western blot detection of aggregated human &#945;-synuclein <b>(a)</b>, A&#946; <b>(b)</b>, and tau <b>(c)</b> by the indicated antibodies (Table&#160;<tblr tid="T1">1</tblr>) in protein eluates from steel wire grids that had been contaminated with 20% (w/v) brain tissue homogenates (BTH) from donors with SD <b>(a)</b> or AD (<b>b</b> and <b>c</b>). Lanes &#8220;SD&#8221; <b>(a)</b>, &#8220;AD&#8221; (<b>b</b> and <b>c</b>) and &#8220;N&#8221; <b>(a-c)</b> (&#8220;SD*&#8221; [a], &#8220;AD*&#8221; [b and c] and &#8220;N*&#8221; [a-c]) represent 5&#160;&#956;l (or 20&#160;&#956;l in lanes marked with an asterisk) 20% (w/v) BTH from SD- and AD patients and control donors (without SD or AD), respectively. The identity of &#945;-synuclein, A&#946;, and tau aggregates in BTH and on steel wire grids washed with bi-distilled water was confirmed by two different antibodies each (most right lanes in a-c represent steel wire grids that had been contaminated with BTH from control donors). For testing the presence and depletion of aggregated &#945;-synuclein, A&#946;, and tau contaminated wires were processed by I) washing with bi-distilled water (a-c, lanes &#8220;A. bidest.&#8221;), or exposure to II) 0.25% (v/v) peracetic acid for 1&#160;hour at room temperature (RT) (<b>a-c</b>, lanes &#8220;PAA-1&#160;h-RT&#8221;), III) a mixture of 0.2% (w/v) SDS and 0.3% (w/v) NaOH (pH&#160;12.7 - 12.9, non-adjusted) for 10&#160;min. at RT (a-c, lanes &#8220;SDS/NaOH-10'-RT&#8221;), IV) an alkaline cleaner (0.5%, pH&#160;11.6 - 12.0 [non-adjusted]) <abbrgrp>
                         <abbr bid="B13">13</abbr>
                      </abbrgrp> for 10&#160;min. at 55&#176;C (<b>a-c</b>, lanes &#8220;Alkaline cleaner-10'-55&#176;C&#8221;), V) 1&#160;M NaOH (pH&#160;13.5 - 13.8, non-adjusted) for 1&#160;h at RT (<b>a-c</b>, lanes &#8220;NaOH-1&#160;h-RT&#8221;), VI) a solution of 7.5% (w/v) H<sub>2</sub>O<sub>2</sub> containing Cu<sup>2+</sup> ions <abbrgrp>
                         <abbr bid="B14">14</abbr>
                      </abbrgrp> (prepared in 100&#160;mM NaCO<sub>3</sub> [pH&#160;9.5, adjusted] by adding CuCl<sub>2</sub> to a final concentration of 500&#160;&#956;M) for 15&#160;min. at RT (<b>a-c</b>, lanes &#8220; H<sub>2</sub>O<sub>2</sub>/CuCl<sub>2</sub>-15&#8242;-RT&#8221;), VII) treatment as in III) with subsequent PVSS for 5&#160;min. at 134&#176;C (<b>b</b> and <b>c</b>, lanes &#8220;SDS/NaOH-10&#8242;-RT&#8201;+&#8201;5&#8242;-134&#176;C&#8221;), VIII) treatment as in IV) with subsequent PVSS for 5&#160;min. (<b>b</b> and <b>c</b>, lanes &#8220;Alkaline cleaner-10&#8242;-55&#176;C&#8201;+&#8201;5&#8242;-134&#176;C&#8221;) or 18&#160;min. (<b>b</b> and <b>c</b>, lanes &#8220;Alkaline cleaner-10&#8242;-55&#176;C&#8201;+&#8201;18&#8242;-134&#176;C&#8221;), or IX) treatment as in VI) with subsequent PVSS for 5&#160;min. (<b>b</b> and <b>c</b>, lanes &#8220;H<sub>2</sub>O<sub>2</sub>/CuCl<sub>2</sub>-15&#8242;- RT&#8201;+&#8201;5&#8242;-134&#176;C&#8221;). PVSS was always performed at 3&#160;bar. ab: antibody. Vertical brackets indicate insoluble &#945;-synuclein-, A&#946;- and tau aggregates retained in stacking gels.</p>
                </text>
                <graphic file="s40478-014-0151-5-1"/>
             </fig>
          
          
             <table id="T1">
                <title>
                   <p>Table 1</p>
                </title>
                <caption>
                   <p>
                      <b>Antibodies and blocking reagents for Western blot detection of aggregated human &#945;-synuclein, amyloid-&#946; and tau</b>
                   </p>
                </caption>
                <tgroup align="left" cols="7">
                   <colspec align="left" colname="c1" colnum="1" colwidth="*"/>
                   <colspec align="left" colname="c2" colnum="2" colwidth="*"/>
                   <colspec align="left" colname="c3" colnum="3" colwidth="*"/>
                   <colspec align="left" colname="c4" colnum="4" colwidth="*"/>
                   <colspec align="left" colname="c5" colnum="5" colwidth="*"/>
                   <colspec align="left" colname="c6" colnum="6" colwidth="*"/>
                   <colspec align="left" colname="c7" colnum="7" colwidth="*"/>
                   <thead>
                      <row valign="top">
                         <entry colname="c1">
                            <p>
                               <b>1</b>
                               <sup>
                                  <b>st</b>
                               </sup>
                               <b>Antibody</b>
                            </p>
                         </entry>
                         <entry colname="c2">
                            <p>
                               <b>Provider and product code</b>
                            </p>
                         </entry>
                         <entry colname="c3">
                            <p>
                               <b>Epitope</b>
                            </p>
                         </entry>
                         <entry colname="c4">
                            <p>
                               <b>Dilution</b>
                            </p>
                         </entry>
                         <entry colname="c5">
                            <p>
                               <b>Blocking solution</b>
                            </p>
                         </entry>
                         <entry colname="c6">
                            <p>
                               <b>2</b>
                               <sup>
                                  <b>nd</b>
                               </sup>
                               <b>Antibody</b>
                            </p>
                         </entry>
                         <entry colname="c7">
                            <p>
                               <b>Dilution</b>
                            </p>
                         </entry>
                      </row>
                   </thead>
                   <tfoot>
                      <p>
                         <sup>a</sup>Tina Zimmermann, personal communication and diploma thesis (2012, Establishment of the organotypic slice culture assay as a model for neurodegenerative diseases. Free University of Berlin, Berlin, Germany).</p>
                   </tfoot>
                   <tbody>
                      <row valign="top">
                         <entry colname="c1">
                            <p>LB 509 (monoclonal)</p>
                         </entry>
                         <entry colname="c2">
                            <p>Abcam, Cambridge, UK ab27766</p>
                         </entry>
                         <entry colname="c3">
                            <p>aa 115-122 of &#945;-synuclein</p>
                         </entry>
                         <entry colname="c4">
                            <p>1:5,000</p>
                         </entry>
                         <entry colname="c5">
                            <p>0.03% (w/v) Casein in TBS with 0.05% (w/v) Tween 20</p>
                         </entry>
                         <entry colname="c6">
                            <p>Alkaline-phosphatase-conjugated goat anti-mouse IgG (DAKO)</p>
                         </entry>
                         <entry colname="c7">
                            <p>1:5,000</p>
                         </entry>
                      </row>
                      <row valign="top">
                         <entry colname="c1">
                            <p>Phospho-S129 (monoclonal)</p>
                         </entry>
                         <entry colname="c2">
                            <p>Abcam, Cambridge, UK ab51253</p>
                         </entry>
                         <entry colname="c3">
                            <p>&#945;-synuclein phosphorylated at Ser129</p>
                         </entry>
                         <entry colname="c4">
                            <p>1:2,000</p>
                         </entry>
                         <entry colname="c5">
                            <p>3% (w/v) Low-fat milk powder in TBS with 0.05% (w/v) Tween 20</p>
                         </entry>
                         <entry colname="c6">
                            <p>Alkaline-phosphatase-conjugated goat anti-rabbit IgG (DAKO)</p>
                         </entry>
                         <entry colname="c7">
                            <p>1:10,000</p>
                         </entry>
                      </row>
                      <row valign="top">
                         <entry colname="c1">
                            <p>Anti-tau (monoclonal)</p>
                         </entry>
                         <entry colname="c2">
                            <p>Merck Millipore, Darmstadt, Germany MAB2239</p>
                         </entry>
                         <entry colname="c3">
                            <p>C-terminal region of tau</p>
                         </entry>
                         <entry colname="c4">
                            <p>1:500</p>
                         </entry>
                         <entry colname="c5">
                            <p>3% (w/v) Low-fat milk powder in TBS with 0.05% (w/v) Tween 20</p>
                         </entry>
                         <entry colname="c6">
                            <p>Alkaline-phosphatase-conjugated goat anti-mouse IgG (DAKO)</p>
                         </entry>
                         <entry colname="c7">
                            <p>1:10,000</p>
                         </entry>
                      </row>
                      <row valign="top">
                         <entry colname="c1">
                            <p>AT8 (monoclonal)</p>
                         </entry>
                         <entry colname="c2">
                            <p>Thermo Scientific, Rockford, USA MN1020</p>
                         </entry>
                         <entry colname="c3">
                            <p>Phospho-PHF-tau (Ser202/Thr205)</p>
                         </entry>
                         <entry colname="c4">
                            <p>1:500</p>
                         </entry>
                         <entry colname="c5">
                            <p>0.03% (w/v) Casein in TBS with 0.05% (w/v) Tween 20</p>
                         </entry>
                         <entry colname="c6">
                            <p>Alkaline-phosphatase-conjugated goat anti-mouse IgG (DAKO)</p>
                         </entry>
                         <entry colname="c7">
                            <p>1:10,000</p>
                         </entry>
                      </row>
                      <row valign="top">
                         <entry colname="c1">
                            <p>6E10 (monoclonal)</p>
                         </entry>
                         <entry colname="c2">
                            <p>Covance, Emeryville, USA SIG-39320</p>
                         </entry>
                         <entry colname="c3">
                            <p>aa 3-8 of A&#946;</p>
                         </entry>
                         <entry colname="c4">
                            <p>1:2,000</p>
                         </entry>
                         <entry colname="c5">
                            <p>5% (w/v) Low-fat choco powder in TBS with 0.05% (w/v) Tween 20<sup>a</sup>
                            </p>
                         </entry>
                         <entry colname="c6">
                            <p>Alkaline-phosphatase-conjugated goat anti-mouse IgG (DAKO)</p>
                         </entry>
                         <entry colname="c7">
                            <p>1:10,000</p>
                         </entry>
                      </row>
                      <row valign="top">
                         <entry colname="c1">
                            <p>4G8 (monoclonal)</p>
                         </entry>
                         <entry colname="c2">
                            <p>Covance, Emeryville, USA SIG-39220</p>
                         </entry>
                         <entry colname="c3">
                            <p>aa 17-24 of A&#946;</p>
                         </entry>
                         <entry colname="c4">
                            <p>1:1,000</p>
                         </entry>
                         <entry colname="c5">
                            <p>5% (w/v) Low-fat choco powder in TBS with 0.05% (w/v) Tween 20<sup>a</sup>
                            </p>
                         </entry>
                         <entry colname="c6">
                            <p>Alkaline-phosphatase-conjugated goat anti-mouse IgG (DAKO)</p>
                         </entry>
                         <entry colname="c7">
                            <p>1:10,000</p>
                         </entry>
                      </row>
                   </tbody>
                </tgroup>
             </table>
          
          <p>In our study we focused on large aggregates of pathological A&#946;, tau and &#945;-synuclein. These aggregates were largely retained in the stacking gel (indicated in Figure&#160;<figr fid="F1">1</figr> by vertical brackets) and constituted the molecular species which seemed to be most difficult to wash off from the grids below the threshold of detection (Figure&#160;<figr fid="F1">1</figr>a-c, lanes &#8220;A. bidest. [100&#160;&#956;l], [5&#160;&#956;l], [1&#160;&#956;l]&#8221;). Furthermore, our rationale was based on the general assumption that depletion of such protein aggregates from medical instruments concomitantly reduces potentially harmful seeding effects. Recent findings by Duran-Aniotz and colleagues experimentally confirmed this rationale for A&#946; aggregates from human AD brain extracts <abbrgrp>
                <abbr bid="B12">12</abbr>
             </abbrgrp>.</p>
       </sec>
       <sec>
          <st>
             <p>Substantial depletion of amyloid-&#946;-, tau- and &#945;-synuclein aggregates on test carriers by exposure to cleaners and steam sterilization</p>
          </st>
          <p>When we assessed the activity of prion-effective reprocessing procedures against A&#946;-, tau and &#945;-synuclein aggregates we found that these were simultaneously reduced up to 100-fold, and below the threshold of detection, by alkaline formulations, applied at RT, such as 1&#160;M NaOH (Figure&#160;<figr fid="F1">1</figr>a-c, lanes &#8220;NaOH-1&#160;h-RT&#8221;) or a mixture of 0.2% SDS and 0.3% NaOH without or with subsequent pre-vacuum steam sterilization (PVSS), respectively, for 5&#160;minutes at 134&#176;C (Figure&#160;<figr fid="F1">1</figr>a, lane &#8220;SDS/NaOH-10'-RT&#8220; and Figure&#160;<figr fid="F1">1</figr>b and c, lanes &#8221;SDS/NaOH-10&#8242;-RT&#8201;+&#8201;5&#8242;-134&#176;C&#8221;).</p>
          <p>The same depletion effects were observed for &#945;-synuclein aggregates after exposure to more material-friendly formulations such as a commercially available alkaline cleaner <abbrgrp>
                <abbr bid="B13">13</abbr>
             </abbrgrp> for 10&#160;minutes at 55&#176;C (Figure&#160;<figr fid="F1">1</figr>a, lane &#8220;Alkaline cleaner-10&#8242;-55&#176;C&#8221;), or a 7.5% H<sub>2</sub>O<sub>2</sub> solution containing low concentrations of Cu<sup>2+</sup> ions <abbrgrp>
                <abbr bid="B14">14</abbr>
             </abbrgrp> for 15&#160;minutes at RT (Figure&#160;<figr fid="F1">1</figr>a, lane &#8220;H<sub>2</sub>O<sub>2</sub>/CuCl<sub>2</sub>-15&#8242;-RT&#8221;). Similarly effective depletion of A&#946;- and tau aggregates was achieved when treatments with the H<sub>2</sub>O<sub>2</sub>/CuCl<sub>2</sub> formulation or the alkaline cleaner were followed by PVSS at 134&#176;C for 5 or 18&#160;minutes, respectively (Figure&#160;<figr fid="F1">1</figr>b and c, lanes &#8220;H<sub>2</sub>O<sub>2</sub>/CuCl<sub>2</sub>-15&#8242;-RT&#8201;+ 5&#8242;-134&#176;C&#8221; and &#8220;Alkaline cleaner-10&#8242;-55&#176;C&#8201;+&#8201;18&#8242;-134&#176;C&#8221;). These findings of our pilot study suggest that a simultaneous and quantifiably depletion of pathological A&#946;-, tau-and &#945;-synuclein aggregates is basically feasible by using prion-effective formulations in routine procedures for the reprocessing of selected medical devices. Peracetic acid (PAA), a commonly used disinfectant being not effective against prions, failed to achieve a detectable depletion of aggregated A&#946;, tau and &#945;-synuclein in our assays (Figure&#160;<figr fid="F1">1</figr>a-c, lanes &#8220;PAA-1&#160;h-RT&#8221;).</p>
       </sec>
       <sec>
          <st>
             <p>How to deal with transmissible protein seeding in the reprocessing of medical devices?</p>
          </st>
          <p>It is open to discussion whether the findings from transmission studies in animals give reason to include specific preventive measures against pathological amyloid-&#946;-, tau- and &#945;-synuclein aggregates in the routine decontamination of certain medical devices. At the same time, studies specifically pursuing the identification and validation of such measures are still scarce. Therefore, available or newly developed assays should be used to experimentally assess on a broader scale the efficacy of reprocessing procedures for medical devices against AD-, PD- or DLB-associated protein aggregates. Ideally, such assessments would also include measurements of the reduction of seeding activity in vitro and/or in vivo. Broadening the data basis from both transmission and decontamination studies could greatly help to answer the question of how to reprocess medical devices in view of transmissible protein seeding.</p>
       </sec>
       <sec>
          <st>
             <p>Abbreviations</p>
          </st>
          <p>ab: Antibody</p>
          <p>A&#946;: Amyloid-&#946;</p>
          <p>AD: Alzheimer&#8217;s disease</p>
          <p>DLB: Dementia with Lewy bodies</p>
          <p>PAA: Peracetic acid</p>
          <p>PD: Parkinson&#8217;s disease</p>
          <p>PVSS: Pre-vacuum steam sterilization</p>
          <p>PrP: Prion protein</p>
          <p>RT: Room temperature</p>
          <p>SD: Demential &#945;-synuclein aggregation disease</p>
          <p>SDS: Sodium dodecyl sulfate</p>
          <p>SDS-PAGE: Sodium dodecyl sulfate polyacrylamide gel electrophoresis</p>
       </sec>
       <sec>
          <st>
             <p>Competing interests</p>
          </st>
          <p>The authors declare that they have no competing interests.</p>
       </sec>
       <sec>
          <st>
             <p>Authors&#8217; contributions</p>
          </st>
          <p>AT, conceived parts of the study and participated in its design, performed experiments, analysed data and designed the figure and table; KW, participated in the design of the study, performed experiments, and analysed data; MJ, performed experiments and analysed data; MLD, participated in the design of the study and analysed data; WJSS, participated in the design of the study, provided materials and analysed data; MM, participated in the design of the study and analysed data; MT, performed experiments and analysed data; MB, conceived parts of the study and participated in its design, analysed data and drafted the manuscript. All authors read and approved the final manuscript.</p>
       </sec>
    </bdy>
    <bm>
       <ack>
          <sec>
             <st>
                <p>Acknowledgements</p>
             </st>
             <p>We are grateful to Patrizia Reckwald for technical assistance. The German Federal Ministry of Health financially supported this work by sponsoring a study at the Robert Koch-Institute that addresses the safety of blood and medical devices in view of prion-like phenomena possibly associated with Alzheimer&#8217;s disease, Parkinson&#8217;s disease and other non-prion protein aggregation diseases (IIA5-2512NIK004//321-4471-02).</p>
          </sec>
       </ack>
       <refgrp>
          
          <bibl id="B1">
             <title>
                <p>A kinetic model for amyloid formation in the prion diseases: importance of seeding</p>
             </title>
             <aug>
                <au>
                   <snm>Come</snm>
                   <fnm>JH</fnm>
                </au>
                <au>
                   <snm>Fraser</snm>
                   <fnm>PE</fnm>
                </au>
                <au>
                   <snm>Lansbury</snm>
                   <fnm>PT</fnm>
                </au>
             </aug>
             <source>Proc Natl Acad Sci U S A</source>
             <pubdate>1993</pubdate>
             <volume>90</volume>
             <fpage>5959</fpage>
             <lpage>5963</lpage>
             <xrefbib>
                <pubidlist>
                   <pubid idtype="doi">10.1073/pnas.90.13.5959</pubid>
                   <pubid idtype="pmpid" link="fulltext">8327467</pubid>
                </pubidlist>
             </xrefbib>
          </bibl>
          <bibl id="B2">
             <title>
                <p>Models of amyloid seeding in Alzheimer&#8217;s disease and scrapie: mechanistic truths and physiological consequences of the time-dependent solubility of amyloid proteins</p>
             </title>
             <aug>
                <au>
                   <snm>Harper</snm>
                   <fnm>JD</fnm>
                </au>
                <au>
                   <snm>Lansbury</snm>
                   <fnm>PT</fnm>
                   <suf>Jr</suf>
                </au>
             </aug>
             <source>Annu Rev Biochem</source>
             <pubdate>1997</pubdate>
             <volume>66</volume>
             <fpage>385</fpage>
             <lpage>407</lpage>
             <xrefbib>
                <pubidlist>
                   <pubid idtype="doi">10.1146/annurev.biochem.66.1.385</pubid>
                   <pubid idtype="pmpid" link="fulltext">9242912</pubid>
                </pubidlist>
             </xrefbib>
          </bibl>
          <bibl id="B3">
             <title>
                <p>Protein misfolding, functional amyloid, and human disease</p>
             </title>
             <aug>
                <au>
                   <snm>Chiti</snm>
                   <fnm>F</fnm>
                </au>
                <au>
                   <snm>Dobson</snm>
                   <fnm>CM</fnm>
                </au>
             </aug>
             <source>Annu Rev Biochem</source>
             <pubdate>2006</pubdate>
             <volume>75</volume>
             <fpage>333</fpage>
             <lpage>366</lpage>
             <xrefbib>
                <pubidlist>
                   <pubid idtype="doi">10.1146/annurev.biochem.75.101304.123901</pubid>
                   <pubid idtype="pmpid" link="fulltext">16756495</pubid>
                </pubidlist>
             </xrefbib>
          </bibl>
          <bibl id="B4">
             <title>
                <p>Is there a risk of prion-like disease transmission by Alzheimer- or Parkinson-associated protein particles?</p>
             </title>
             <aug>
                <au>
                   <snm>Beekes</snm>
                   <fnm>M</fnm>
                </au>
                <au>
                   <snm>Thomzig</snm>
                   <fnm>A</fnm>
                </au>
                <au>
                   <snm>Schulz-Schaeffer</snm>
                   <fnm>WJ</fnm>
                </au>
                <au>
                   <snm>Burger</snm>
                   <fnm>R</fnm>
                </au>
             </aug>
             <source>Acta Neuropathol</source>
             <pubdate>2014</pubdate>
             <volume>128</volume>
             <fpage>463</fpage>
             <lpage>476</lpage>
             <xrefbib>
                <pubidlist>
                   <pubid idtype="doi">10.1007/s00401-014-1324-9</pubid>
                   <pubid idtype="pmpid" link="fulltext">25073522</pubid>
                </pubidlist>
             </xrefbib>
          </bibl>
          <bibl id="B5">
             <title>
                <p>Induction of cerebral beta-amyloidosis: intracerebral versus systemic Abeta inoculation</p>
             </title>
             <aug>
                <au>
                   <snm>Eisele</snm>
                   <fnm>YS</fnm>
                </au>
                <au>
                   <snm>Bolmont</snm>
                   <fnm>T</fnm>
                </au>
                <au>
                   <snm>Heikenwalder</snm>
                   <fnm>M</fnm>
                </au>
                <au>
                   <snm>Langer</snm>
                   <fnm>F</fnm>
                </au>
                <au>
                   <snm>Jacobson</snm>
                   <fnm>LH</fnm>
                </au>
                <au>
                   <snm>Yan</snm>
                   <fnm>ZX</fnm>
                </au>
                <au>
                   <snm>Roth</snm>
                   <fnm>K</fnm>
                </au>
                <au>
                   <snm>Aguzzi</snm>
                   <fnm>A</fnm>
                </au>
                <au>
                   <snm>Staufenbiel</snm>
                   <fnm>M</fnm>
                </au>
                <au>
                   <snm>Walker</snm>
                   <fnm>LC</fnm>
                </au>
                <au>
                   <snm>Jucker</snm>
                   <fnm>M</fnm>
                </au>
             </aug>
             <source>Proc Natl Acad Sci U S A</source>
             <pubdate>2009</pubdate>
             <volume>106</volume>
             <fpage>12926</fpage>
             <lpage>12931</lpage>
             <xrefbib>
                <pubidlist>
                   <pubid idtype="doi">10.1073/pnas.0903200106</pubid>
                   <pubid idtype="pmpid" link="fulltext">19622727</pubid>
                </pubidlist>
             </xrefbib>
          </bibl>
          <bibl id="B6">
             <title>
                <p>Abeta seeds resist inactivation by formaldehyde</p>
             </title>
             <aug>
                <au>
                   <snm>Fritschi</snm>
                   <fnm>SK</fnm>
                </au>
                <au>
                   <snm>Cintron</snm>
                   <fnm>A</fnm>
                </au>
                <au>
                   <snm>Ye</snm>
                   <fnm>L</fnm>
                </au>
                <au>
                   <snm>Mahler</snm>
                   <fnm>J</fnm>
                </au>
                <au>
                   <snm>B&#252;hler</snm>
                   <fnm>A</fnm>
                </au>
                <au>
                   <snm>Baumann</snm>
                   <fnm>F</fnm>
                </au>
                <au>
                   <snm>Neumann</snm>
                   <fnm>M</fnm>
                </au>
                <au>
                   <snm>Nilsson</snm>
                   <fnm>KP</fnm>
                </au>
                <au>
                   <snm>Hammarstr&#246;m</snm>
                   <fnm>P</fnm>
                </au>
                <au>
                   <snm>Walker</snm>
                   <fnm>LC</fnm>
                </au>
                <au>
                   <snm>Jucker</snm>
                   <fnm>M</fnm>
                </au>
             </aug>
             <source>Acta Neuropathol</source>
             <pubdate>2014</pubdate>
             <volume>128</volume>
             <fpage>477</fpage>
             <lpage>484</lpage>
             <xrefbib>
                <pubidlist>
                   <pubid idtype="doi">10.1007/s00401-014-1339-2</pubid>
                   <pubid idtype="pmpid" link="fulltext">25193240</pubid>
                </pubidlist>
             </xrefbib>
          </bibl>
          <bibl id="B7">
             <title>
                <p>Intracerebral inoculation of pathological alpha-synuclein initiates a rapidly progressive neurodegenerative alpha-synucleinopathy in mice</p>
             </title>
             <aug>
                <au>
                   <snm>Luk</snm>
                   <fnm>KC</fnm>
                </au>
                <au>
                   <snm>Kehm</snm>
                   <fnm>VM</fnm>
                </au>
                <au>
                   <snm>Zhang</snm>
                   <fnm>B</fnm>
                </au>
                <au>
                   <snm>O&#8217;Brien</snm>
                   <fnm>P</fnm>
                </au>
                <au>
                   <snm>Trojanowski</snm>
                   <fnm>JQ</fnm>
                </au>
                <au>
                   <snm>Lee</snm>
                   <fnm>VM</fnm>
                </au>
             </aug>
             <source>J Exp Med</source>
             <pubdate>2012</pubdate>
             <volume>209</volume>
             <fpage>975</fpage>
             <lpage>986</lpage>
             <xrefbib>
                <pubidlist>
                   <pubid idtype="doi">10.1084/jem.20112457</pubid>
                   <pubid idtype="pmpid" link="fulltext">22508839</pubid>
                </pubidlist>
             </xrefbib>
          </bibl>
          <bibl id="B8">
             <title>
                <p>Transmission of multiple system atrophy prions to transgenic mice</p>
             </title>
             <aug>
                <au>
                   <snm>Watts</snm>
                   <fnm>JC</fnm>
                </au>
                <au>
                   <snm>Giles</snm>
                   <fnm>K</fnm>
                </au>
                <au>
                   <snm>Oehler</snm>
                   <fnm>A</fnm>
                </au>
                <au>
                   <snm>Middleton</snm>
                   <fnm>L</fnm>
                </au>
                <au>
                   <snm>Dexter</snm>
                   <fnm>DT</fnm>
                </au>
                <au>
                   <snm>Gentleman</snm>
                   <fnm>SM</fnm>
                </au>
                <au>
                   <snm>DeArmond</snm>
                   <fnm>SJ</fnm>
                </au>
                <au>
                   <snm>Prusiner</snm>
                   <fnm>SB</fnm>
                </au>
             </aug>
             <source>Proc Natl Acad Sci U S A</source>
             <pubdate>2013</pubdate>
             <volume>110</volume>
             <fpage>19555</fpage>
             <lpage>19560</lpage>
             <xrefbib>
                <pubidlist>
                   <pubid idtype="doi">10.1073/pnas.1318268110</pubid>
                   <pubid idtype="pmpid" link="fulltext">24218576</pubid>
                </pubidlist>
             </xrefbib>
          </bibl>
          <bibl id="B9">
             <title>
                <p>Intramuscular injection of alpha-synuclein induces CNS alpha-synuclein pathology and a rapid-onset motor phenotype in transgenic mice</p>
             </title>
             <aug>
                <au>
                   <snm>Sacino</snm>
                   <fnm>AN</fnm>
                </au>
                <au>
                   <snm>Brooks</snm>
                   <fnm>M</fnm>
                </au>
                <au>
                   <snm>Thomas</snm>
                   <fnm>MA</fnm>
                </au>
                <au>
                   <snm>McKinney</snm>
                   <fnm>AB</fnm>
                </au>
                <au>
                   <snm>Lee</snm>
                   <fnm>S</fnm>
                </au>
                <au>
                   <snm>Regenhardt</snm>
                   <fnm>RW</fnm>
                </au>
                <au>
                   <snm>McGarvey</snm>
                   <fnm>NH</fnm>
                </au>
                <au>
                   <snm>Ayers</snm>
                   <fnm>JI</fnm>
                </au>
                <au>
                   <snm>Notterpek</snm>
                   <fnm>L</fnm>
                </au>
                <au>
                   <snm>Borchelt</snm>
                   <fnm>DR</fnm>
                </au>
                <au>
                   <snm>Golde</snm>
                   <fnm>TE</fnm>
                </au>
                <au>
                   <snm>Giasson</snm>
                   <fnm>BI</fnm>
                </au>
             </aug>
             <source>Proc Natl Acad Sci U S A</source>
             <pubdate>2014</pubdate>
             <volume>111</volume>
             <fpage>10732</fpage>
             <lpage>10737</lpage>
             <xrefbib>
                <pubidlist>
                   <pubid idtype="doi">10.1073/pnas.1321785111</pubid>
                   <pubid idtype="pmpid" link="fulltext">25002524</pubid>
                </pubidlist>
             </xrefbib>
          </bibl>
          <bibl id="B10">
             <title>
                <p>Lewy body extracts from Parkinson disease brains trigger alpha-synuclein pathology and neurodegeneration in mice and monkeys</p>
             </title>
             <aug>
                <au>
                   <snm>Recasens</snm>
                   <fnm>A</fnm>
                </au>
                <au>
                   <snm>Dehay</snm>
                   <fnm>B</fnm>
                </au>
                <au>
                   <snm>Bove</snm>
                   <fnm>J</fnm>
                </au>
                <au>
                   <snm>Carballo-Carbajal</snm>
                   <fnm>I</fnm>
                </au>
                <au>
                   <snm>Dovero</snm>
                   <fnm>S</fnm>
                </au>
                <au>
                   <snm>P&#233;rez-Villalba</snm>
                   <fnm>A</fnm>
                </au>
                <au>
                   <snm>Fernagut</snm>
                   <fnm>PO</fnm>
                </au>
                <au>
                   <snm>Blesa</snm>
                   <fnm>J</fnm>
                </au>
                <au>
                   <snm>Parent</snm>
                   <fnm>A</fnm>
                </au>
                <au>
                   <snm>Perier</snm>
                   <fnm>C</fnm>
                </au>
                <au>
                   <snm>Fari&#241;as</snm>
                   <fnm>I</fnm>
                </au>
                <au>
                   <snm>Obeso</snm>
                   <fnm>JA</fnm>
                </au>
                <au>
                   <snm>Bezard</snm>
                   <fnm>E</fnm>
                </au>
                <au>
                   <snm>Vila</snm>
                   <fnm>M</fnm>
                </au>
             </aug>
             <source>Ann Neurol</source>
             <pubdate>2014</pubdate>
             <volume>75</volume>
             <fpage>351</fpage>
             <lpage>362</lpage>
             <xrefbib>
                <pubidlist>
                   <pubid idtype="doi">10.1002/ana.24066</pubid>
                   <pubid idtype="pmpid" link="fulltext">24243558</pubid>
                </pubidlist>
             </xrefbib>
          </bibl>
          <bibl id="B11">
             <title>
                <p>Fast, broad-range disinfection of bacteria, fungi, viruses and prions</p>
             </title>
             <aug>
                <au>
                   <snm>Beekes</snm>
                   <fnm>M</fnm>
                </au>
                <au>
                   <snm>Lemmer</snm>
                   <fnm>K</fnm>
                </au>
                <au>
                   <snm>Thomzig</snm>
                   <fnm>A</fnm>
                </au>
                <au>
                   <snm>Joncic</snm>
                   <fnm>M</fnm>
                </au>
                <au>
                   <snm>Tintelnot</snm>
                   <fnm>K</fnm>
                </au>
                <au>
                   <snm>Mielke</snm>
                   <fnm>M</fnm>
                </au>
             </aug>
             <source>J Gen Virol</source>
             <pubdate>2010</pubdate>
             <volume>91</volume>
             <fpage>580</fpage>
             <lpage>589</lpage>
             <xrefbib>
                <pubidlist>
                   <pubid idtype="doi">10.1099/vir.0.016337-0</pubid>
                   <pubid idtype="pmpid" link="fulltext">19864502</pubid>
                </pubidlist>
             </xrefbib>
          </bibl>
          <bibl id="B12">
             <title>
                <p>Aggregate-depleted brain fails to induce Abeta deposition in a mouse model of Alzheimer&#8217;s disease</p>
             </title>
             <aug>
                <au>
                   <snm>Duran-Aniotz</snm>
                   <fnm>C</fnm>
                </au>
                <au>
                   <snm>Morales</snm>
                   <fnm>R</fnm>
                </au>
                <au>
                   <snm>Moreno-Gonzalez</snm>
                   <fnm>I</fnm>
                </au>
                <au>
                   <snm>Hu</snm>
                   <fnm>PP</fnm>
                </au>
                <au>
                   <snm>Fedynyshyn</snm>
                   <fnm>J</fnm>
                </au>
                <au>
                   <snm>Soto</snm>
                   <fnm>C</fnm>
                </au>
             </aug>
             <source>PLoS One</source>
             <pubdate>2014</pubdate>
             <volume>9</volume>
             <fpage>e89014</fpage>
             <xrefbib>
                <pubidlist>
                   <pubid idtype="doi">10.1371/journal.pone.0089014</pubid>
                   <pubid idtype="pmpid" link="fulltext">24533166</pubid>
                </pubidlist>
             </xrefbib>
          </bibl>
          <bibl id="B13">
             <title>
                <p>Activity of an alkaline &#8216;cleaner&#8217; in the inactivation of the scrapie agent</p>
             </title>
             <aug>
                <au>
                   <snm>Baier</snm>
                   <fnm>M</fnm>
                </au>
                <au>
                   <snm>Schwarz</snm>
                   <fnm>A</fnm>
                </au>
                <au>
                   <snm>Mielke</snm>
                   <fnm>M</fnm>
                </au>
             </aug>
             <source>J Hosp Infect</source>
             <pubdate>2004</pubdate>
             <volume>57</volume>
             <fpage>80</fpage>
             <lpage>84</lpage>
             <xrefbib>
                <pubidlist>
                   <pubid idtype="doi">10.1016/j.jhin.2004.01.013</pubid>
                   <pubid idtype="pmpid" link="fulltext">15142720</pubid>
                </pubidlist>
             </xrefbib>
          </bibl>
          <bibl id="B14">
             <title>
                <p>New hospital disinfection processes for both conventional and prion infectious agents compatible with thermosensitive equipment</p>
             </title>
             <aug>
                <au>
                   <snm>Lehmann</snm>
                   <fnm>S</fnm>
                </au>
                <au>
                   <snm>Rauwel</snm>
                   <fnm>GPM</fnm>
                </au>
                <au>
                   <snm>Rogez-Kreuz</snm>
                   <fnm>C</fnm>
                </au>
                <au>
                   <snm>Richard</snm>
                   <fnm>M</fnm>
                </au>
                <au>
                   <snm>Belondrade</snm>
                   <fnm>M</fnm>
                </au>
                <au>
                   <snm>Rauwel</snm>
                   <fnm>G</fnm>
                </au>
                <au>
                   <snm>Durand</snm>
                   <fnm>F</fnm>
                </au>
                <au>
                   <snm>Yousfi</snm>
                   <fnm>R</fnm>
                </au>
                <au>
                   <snm>Criquelion</snm>
                   <fnm>J</fnm>
                </au>
                <au>
                   <snm>Clayette</snm>
                   <fnm>P</fnm>
                </au>
                <au>
                   <snm>Perret-Liaudet</snm>
                   <fnm>A</fnm>
                </au>
             </aug>
             <source>J Hosp Infect</source>
             <pubdate>2009</pubdate>
             <volume>72</volume>
             <fpage>342</fpage>
             <lpage>350</lpage>
             <xrefbib>
                <pubidlist>
                   <pubid idtype="doi">10.1016/j.jhin.2009.03.024</pubid>
                   <pubid idtype="pmpid" link="fulltext">19541387</pubid>
                </pubidlist>
             </xrefbib>
          </bibl>
       </refgrp>
    </bm>
 </art>
