<art>
    <ui>s40494-014-0019-9</ui>
    <ji>2050-7445</ji>
    <fm>
       <dochead>Research article</dochead>
       <bibl>
          <title>
             <p>X-ray tomography of large wooden artworks: the case study of &#8220;Doppio corpo&#8221; by Pietro Piffetti</p>
          </title>
          <aug>
             <au id="A1" ca="yes">
                <snm>Re</snm>
                <fnm>Alessandro</fnm>
                <insr iid="I1"/>
                <insr iid="I2"/>
                <email>alessandro.re@unito.it</email>
             </au>
             <au id="A2">
                <snm>Albertin</snm>
                <fnm>Fauzia</fnm>
                <insr iid="I1"/>
                <email>albertin@fe.infn.it</email>
             </au>
             <au id="A3">
                <snm>Avataneo</snm>
                <fnm>Chiara</fnm>
                <insr iid="I2"/>
                <email>chiaretta.beat@email.it</email>
             </au>
             <au id="A4">
                <snm>Brancaccio</snm>
                <fnm>Rosa</fnm>
                <insr iid="I1"/>
                <email>rossella_brancaccio@yahoo.it</email>
             </au>
             <au id="A5">
                <snm>Corsi</snm>
                <fnm>Jacopo</fnm>
                <insr iid="I1"/>
                <insr iid="I2"/>
                <email>corsi@to.infn.it</email>
             </au>
             <au id="A6">
                <snm>Cotto</snm>
                <fnm>Giorgio</fnm>
                <insr iid="I1"/>
                <insr iid="I2"/>
                <email>cotto@to.infn.it</email>
             </au>
             <au id="A7">
                <snm>De Blasi</snm>
                <fnm>Stefania</fnm>
                <insr iid="I3"/>
                <email>stefania.deblasi@centrorestaurovenaria.it</email>
             </au>
             <au id="A8">
                <snm>Dughera</snm>
                <fnm>Giovanni</fnm>
                <insr iid="I1"/>
                <email>dughera@to.infn.it</email>
             </au>
             <au id="A9">
                <snm>Durisi</snm>
                <fnm>Elisabetta</fnm>
                <insr iid="I1"/>
                <insr iid="I2"/>
                <email>durisi@to.infn.it</email>
             </au>
             <au id="A10">
                <snm>Ferrarese</snm>
                <fnm>Walter</fnm>
                <insr iid="I1"/>
                <insr iid="I2"/>
                <email>wferrare@to.infn.it</email>
             </au>
             <au id="A11">
                <snm>Giovagnoli</snm>
                <fnm>Annamaria</fnm>
                <insr iid="I3"/>
                <email>annamaria.giovagnoli@centrorestaurovenaria.it</email>
             </au>
             <au id="A12">
                <snm>Grassi</snm>
                <fnm>Novella</fnm>
                <insr iid="I3"/>
                <email>novella.grassi@to.infn.it</email>
             </au>
             <au id="A13">
                <snm>Lo Giudice</snm>
                <fnm>Alessandro</fnm>
                <insr iid="I1"/>
                <insr iid="I2"/>
                <email>logiudic@to.infn.it</email>
             </au>
             <au id="A14">
                <snm>Mereu</snm>
                <fnm>Paolo</fnm>
                <insr iid="I1"/>
                <email>paolo.mereu@to.infn.it</email>
             </au>
             <au id="A15">
                <snm>Mila</snm>
                <fnm>Giorgia</fnm>
                <insr iid="I1"/>
                <insr iid="I2"/>
                <email>mila@to.infn.it</email>
             </au>
             <au id="A16">
                <snm>Nervo</snm>
                <fnm>Marco</fnm>
                <insr iid="I3"/>
                <email>marco.nervo@centrorestaurovenaria.it</email>
             </au>
             <au id="A17">
                <snm>Pastrone</snm>
                <fnm>Nadia</fnm>
                <insr iid="I1"/>
                <email>nadia.pastrone@to.infn.it</email>
             </au>
             <au id="A18">
                <snm>Prino</snm>
                <fnm>Francesco</fnm>
                <insr iid="I1"/>
                <email>prino@to.infn.it</email>
             </au>
             <au id="A19">
                <snm>Ramello</snm>
                <fnm>Luciano</fnm>
                <insr iid="I4"/>
                <email>ramello@to.infn.it</email>
             </au>
             <au id="A20">
                <snm>Ravera</snm>
                <fnm>Massimo</fnm>
                <insr iid="I3"/>
                <email>massimo.ravera@centrorestaurovenaria.it</email>
             </au>
             <au id="A21">
                <snm>Ricci</snm>
                <fnm>Chiara</fnm>
                <insr iid="I2"/>
                <insr iid="I3"/>
                <email>chicchichiara@hotmail.it</email>
             </au>
             <au id="A22">
                <snm>Romero</snm>
                <fnm>Alessandra</fnm>
                <insr iid="I1"/>
                <insr iid="I2"/>
                <email>romero@to.infn.it</email>
             </au>
             <au id="A23">
                <snm>Sacchi</snm>
                <fnm>Roberto</fnm>
                <insr iid="I1"/>
                <insr iid="I2"/>
                <email>sacchi@to.infn.it</email>
             </au>
             <au id="A24">
                <snm>Staiano</snm>
                <fnm>Amedeo</fnm>
                <insr iid="I1"/>
                <email>amedeo.staiano@to.infn.it</email>
             </au>
             <au id="A25">
                <snm>Visca</snm>
                <fnm>Lorenzo</fnm>
                <insr iid="I1"/>
                <insr iid="I2"/>
                <email>visca@to.infn.it</email>
             </au>
             <au id="A26">
                <snm>Zamprotta</snm>
                <fnm>Lorenzo</fnm>
                <insr iid="I1"/>
                <insr iid="I2"/>
                <email>zamprott@to.infn.it</email>
             </au>
          </aug>
          <insg>
             <ins id="I1">
                <p>Istituto Nazionale di Fisica Nucleare, Sezione di Torino, via Pietro Giuria 1, Torino, 10125, Italy</p>
             </ins>
             <ins id="I2">
                <p>Dipartimento di Fisica, Universit&#224; di Torino, via Pietro Giuria 1, Torino, 10125, Italy</p>
             </ins>
             <ins id="I3">
                <p>Centro Conservazione e Restauro &#8220;La Venaria Reale&#8221;, Piazza della Repubblica, 10078 Venaria Reale, Torino, Italy</p>
             </ins>
             <ins id="I4">
                <p>Dipartimento di Scienze e Innovazione Tecnologica, Universit&#224; del Piemonte Orientale, Viale Teresa Michel 11, Alessandria, 15121, Italy</p>
             </ins>
          </insg>
          <source>Heritage Science</source>
          <issn>2050-7445</issn>
          <pubdate>2014</pubdate>
          <volume>2</volume>
          <issue>1</issue>
          <fpage>19</fpage>
          <url>http://www.heritagesciencejournal.com/content/2/1/19</url>
          <xrefbib>
             <pubidlist>
                <pubid idtype="doi">10.1186/s40494-014-0019-9</pubid>
                <pubid idtype="pmpid"><!-- Need to check source for data--></pubid>
             </pubidlist>
          </xrefbib>
       </bibl>
       <history>
          <rec>
             <date>
                <day>7</day>
                <month>4</month>
                <year>2014</year>
             </date>
          </rec>
          <acc>
             <date>
                <day>31</day>
                <month>8</month>
                <year>2014</year>
             </date>
          </acc>
          <pub>
             <date>
                <day>11</day>
                <month>9</month>
                <year>2014</year>
             </date>
          </pub>
       </history>
       <cpyrt>
          <year>2014</year>
          <collab>Re et al.; licensee Chemistry Central Ltd.</collab>
          <note>This is an Open Access article distributed under the terms of the Creative Commons Attribution License (<url>http://creativecommons.org/licenses/by/4.0</url>), which permits unrestricted use, distribution, and reproduction in any medium, provided the original work is properly credited. The Creative Commons Public Domain Dedication waiver (<url>http://creativecommons.org/publicdomain/zero/1.0/</url>) applies to the data made available in this article, unless otherwise stated.</note>
       </cpyrt>
       <kwdg>
          <kwd>X-rays</kwd>
          <kwd>Computed tomography (CT)</kwd>
          <kwd>Cultural heritage</kwd>
          <kwd>Cabinetmaking</kwd>
          <kwd>Pietro Piffetti</kwd>
       </kwdg>
       <abs>
          <sec>
             <st>
                <p>Abstract</p>
             </st>
             <sec>
                <st>
                   <p>Introduction</p>
                </st>
                <p>X-ray computed tomography (CT) is now used in the cultural heritage field because it is non-invasive and it can give a large amount of information on the inner structure of the object under study. Until recently mainly medical CT scanners or micro-CT setups have been used, limiting the analysis to relatively small artworks or requiring multiple acquisition and difficult image-joining for objects larger than detector dimensions.</p>
             </sec>
             <sec>
                <st>
                   <p>Results</p>
                </st>
                <p>To overcome the limitations of ordinary CT devices, a facility for the X-ray tomography of large size artefacts has recently been designed and installed in a protected area of the Fondazione Centro Conservazione e Restauro &#8220;La Venaria Reale&#8221;, a Centre for Preservation and Restoration. This facility, based on a X-ray source, a linear X-ray detector and a high precision mechanical system, has been and will be used to gather information on materials, manufacturing techniques and conservative conditions of artworks undergoing the restoration process.</p>
                <p>In this paper the results of the tomography of the first analyzed large artistic object are presented, giving an idea of the wealth of information obtained from the CT scan. The presented artwork is the writing cabinet called &#8220;doppio corpo&#8221;, a masterpiece of furniture more than 3&#160;m high, inlaid for Savoy Residences by Pietro Piffetti, the most famous cabinet-maker in Piedmont in the XVIII century. The artwork is now housed in the Quirinale Palace, the official residence of the Italian President in Rome.</p>
             </sec>
             <sec>
                <st>
                   <p>Conclusions</p>
                </st>
                <p>The CT analysis permitted us to obtain valuable information about the conservative conditions, the presence of previous interventions, the distribution of various materials and the dimensions and arrangement of several wooden pieces, thus allowing for interesting hypotheses about the building technique of this masterpiece.</p>
                
                
                   <fig id="F">
                      <title>
                         <p>Graphical Abstract</p>
                      </title>
                      <text>
                         <p>The wooden writing cabinet called &#8220;doppio corpo&#8221; by Pietro Piffetti and some CT results.</p>
                      </text>
                      <graphic file="s40494-014-0019-9-graphical-abstract.gif"/>
                   </fig>
                
             </sec>
          </sec>
       </abs>
    </fm>
    <bdy>
       <sec>
          <st>
             <p>1
 						Introduction</p>
          </st>
          <p>X-ray imaging techniques are widely used in the cultural heritage field because they are non invasive <abbrgrp>
                <abbr bid="B1">1</abbr>
             </abbrgrp>. Among these Computed Tomography (CT) allows one to obtain a large amount of information on the inner structure of the artistic object under study <abbrgrp>
                <abbr bid="B2">2</abbr>
             </abbrgrp>,<abbrgrp>
                <abbr bid="B3">3</abbr>
             </abbrgrp>. Depending on the material and the dimensions of the object to be analysed, different approaches can be chosen. Mummies and objects of similar dimensions and material composition are usually analysed with medical CT scanners <abbrgrp>
                <abbr bid="B4">4</abbr>
             </abbrgrp>. These devices, being developed and optimised to analyse a human being, show strong limitations when applied to the cultural heritage field. First, the dimension of the analysed object cannot be larger than a human body and also the material has not to be too dense; moreover, due to the limitation on dose which can be delivered in a medical CT, the signal is typically quite low and for this reason the resolution limited. The voxel side is usually around 0.5&#160;mm, even if for some special cases (&#8220;region of interest&#8221; tomography) values around 0.2&#160;mm can be reached <abbrgrp>
                <abbr bid="B5">5</abbr>
             </abbrgrp>. For this reason, especially in the last years, different approaches have been used and custom setups have been developed: for very small objects <abbrgrp>
                <abbr bid="B6">6</abbr>
             </abbrgrp> or when very high resolution is required <abbrgrp>
                <abbr bid="B7">7</abbr>
             </abbrgrp>, micro-CT has to be used, usually exploiting synchrotron radiation. Another approach to obtain good results without a large-scale facility is to develop a customized system based on a X-ray tube and a flat panel detector. They can be designed to analyse small objects <abbrgrp>
                <abbr bid="B8">8</abbr>
             </abbrgrp> or larger ones <abbrgrp>
                <abbr bid="B9">9</abbr>
             </abbrgrp>, but, because of the detector dimensions, large areas cannot be acquired in a single radiograph and the joining of many images together is required (tile scanning).</p>
          <p>To overcome the limitations of both medical scanners and of the systems based on flat panel detectors, in the framework of the <it>neu_ART</it> regional project <abbrgrp>
                <abbr bid="B10">10</abbr>
             </abbrgrp>, we developed a versatile CT system based on a linear detector moved by a high precision mechanics allowing us to obtain a radiograph up to 3.5&#160;m wide and 0.5&#160;m high in few tenths of seconds. Combining radiographs acquired at different angles the 3D-CT reconstruction is then obtained. The prototype of this instrument has been installed in a protected area of the Fondazione Centro Conservazione e Restauro &#8220;La Venaria Reale&#8221; (CCR), a Centre for Preservation and Restoration. The CCR is an institute of training and research organized in different department: the school of advanced training, conservation an restoration laboratories, scientific and imaging laboratories, documentation centre and shelves. In cooperation with the University of Turin, in the CCR takes place a five-years degree course in Preservation and Restoration of Cultural Heritage. Thanks to this strategic location and to the number of artworks that pass through the CCR to be studied and restored, the radio-tomographic instrument is now routinely employed to perform X-ray imaging of artefacts up to large sizes <abbrgrp>
                <abbr bid="B11">11</abbr>
             </abbrgrp>,<abbrgrp>
                <abbr bid="B12">12</abbr>
             </abbrgrp>: objects up to 4&#8201;&#215;&#8201;3.5&#160;m<sup>2</sup> can be analysed by means of radiography (mainly paintings, both on canvas and on wood) while artworks that can be inscribed in a cylinder up to 2.5&#160;m in diameter and 2.7&#160;m high can be CT scanned. This instrument is becoming an irreplaceable tool for restorers&#8217; work: in fact the obtained images provide valuable information on materials, manufacturing techniques and conservative conditions of the analysed artworks. The result of a CT is a 3D reconstruction of the analysed object in which each point is represented through a grey level, proportional to the X-rays absorption, i.e. related to the density and atomic number of the crossed material. Thanks to this property one can distinguish all the parts composing an artwork, how they are joined, what is their state of preservation (for example, for wooden artworks, the holes created by xilofagous insects can be highlighted) and also make some hypothesis about the presence of different materials, even if not their identification.</p>
          <p>In this paper the results of the first CT of a precious large object performed with this prototype are presented: it is the writing cabinet with a fall-front desk in lower body and a two doors shelves in the top shown in Figure&#160;<figr fid="F1">1</figr>, also known as &#8220;doppio corpo&#8221;, a masterpiece of furniture inlaid for Savoy Residences by Pietro Piffetti, the most famous cabinet-maker in Piedmont in the XVIII century, and now housed in the Quirinale Palace, the official residence of the Italian President in Rome <abbrgrp>
                <abbr bid="B13">13</abbr>
             </abbrgrp>.</p>
          
             <fig id="F1">
                <title>
                   <p>Figure 1</p>
                </title>
                <caption>
                   <p>The artwork.</p>
                </caption>
                <text>
                   <p>
                      <b>The artwork.</b> The wooden writing cabinet called &#8220;doppio corpo&#8221; by Pietro Piffetti (XVIII century) housed in the Quirinale Palace. It is composed by a lower part (fall-front desk), an upper part (shelves) and two lateral golden wood sculptures (&#8220;Telamons&#8221;).</p>
                </text>
                <graphic file="s40494-014-0019-9-1"/>
             </fig>
          
          <p>The interest in performing a CT on such a large object, whose height is above 3&#160;m, is to better understand the inner structure and the manufacturing technique used by Pietro Piffetti to realize one of his masterpieces. In fact this information cannot be obtained by means of visual inspection or other non-invasive techniques, because the wooden structure is completely hidden behind the precious inlay. The CT images allow one to highlight the distribution of various materials such as different types of woods and metals, ivory, etc. The dimensions and arrangement of the hidden wooden pieces used by the author can also be examined. Moreover it is possible to plan restorations or interventions in a more accurate way, thanks to the fundamental information about the conservative conditions, the structural weaknesses, the presence of previous interventions and the possible future alteration due to hygrometric changes. In fact, because the wood is hygroscopic and it shows a strong directional anisotropy, it reduces and dilates in different way depending on the orientation of the cut: minimum variation in axial direction (parallel to the trunk axis), medium variation in radial direction (orthogonal to the trunk axis) and maximum variation in tangential direction (orthogonal to both the previous ones). This fact can be very important if wooden blocks are joined together because, depending on their orientation, an hygrometric change can cause disassembling or fractures. For these cases a strict hygrometric control is fundamental for the preservation of the artworks.</p>
          <sec>
             <st>
                <p>1.1 The artwork</p>
             </st>
             <p>Pietro Piffetti was one of the most famous European cabinetmakers of the eighteenth century. He was born in Turin in 1701 and worked at Savoy court at that time. The artwork analysed in this paper is one of his masterpieces: the writing cabinet called &#8220;doppio corpo&#8221;, part of the collections of Quirinale Palace in Rome. This is a very important and precious artwork that arrived in Rome in 1889, after the unification of Italy and the transfer of the Royal Capital City from Turin (1861) to Rome (1871). The writing cabinet was realized for royal apartments in Turin, probably in the 40s of XVIII century, and it is made of exotic woods, polychrome ivories, nacre, tortoiseshell. Its dimensions are 312&#8201;&#215;&#8201;128&#8201;&#215;&#8201;62&#160;cm<sup>3</sup> and it is composed by a lower part, with a fall-front desk, nine small drawers inside and two drawers under fall-front; and by an upper part composed by shelves with two legs (called &#8220;alzata&#8221;), four shelves and two inlayed doors. Two golden wood statues adorn the sides of this artwork: a male statue representing the Autumn and a female statue representing the Summer. Nine ivory engraved plaques, inlayed in the surface, reproduce Otto Venius&#8217; engraves of Horatio&#8217;s &#8220;Emblemata&#8221; with lyric mottos. During the last years, many historical and technical studies have examined the decorative apparatus&#8217; iconography of the cabinet because in the 2011, in occasion of exhibition &#8220;La Bella Italia&#8221; in Venaria Royal Palace the writing cabinet was restored by CCR. For this activity the CCR had realized some technical study about the structure and the decoration of Piedmonts&#8217; cabinetmaking of XVIII century <abbrgrp>
                   <abbr bid="B14">14</abbr>
                </abbrgrp>,<abbrgrp>
                   <abbr bid="B15">15</abbr>
                </abbrgrp>.</p>
          </sec>
          <sec>
             <st>
                <p>1.2 Experimental setup</p>
             </st>
             <p>The tomographic system used for the CT scan of this artwork is the prototype of the scanner developed within the <it>neu_ART</it> project which, apart from minor differences in some mechanical parts, has the same functionality and performance as the final installation <abbrgrp>
                   <abbr bid="B16">16</abbr>
                </abbrgrp>. It has been designed and developed to be flexible enough to analyse artworks of varying constituting materials and up to large sizes, which can be inscribed in a cylinder up to 2.5&#160;m in diameter and 2.7&#160;m in high. The distinctive and unique feature of this instrument, which makes it rather attractive for analysing large objects, is the possibility to cover a large area in a single radiograph, thus avoiding tile scanning of the object. Its location inside a Centre for Preservation and Restoration eliminates any need for dangerous and costly transportations to external facilities.</p>
             <p>The CT system comprises an X-ray source, a rotating platform where the artwork is positioned and a digital linear X-ray detector which scans the projection plane through a high precision mechanical system. Two computers allow one to control and synchronize all the movements and to acquire the radiographs.</p>
             <p>The X-ray source is a General Electric Eresco 42MF4 with tungsten anode and maximum tube voltage and power of 200&#160;kV and 900&#160;W respectively. A 2&#160;mm thick aluminium slab is placed just outside the tube exit window to absorb the softer X-rays and limit the beam-hardening effects <abbrgrp>
                   <abbr bid="B17">17</abbr>
                </abbrgrp>. The tube is air cooled and it has been used with cycles of 40&#160;minutes of irradiation and 20&#160;minutes of cooling to avoid excessive overheating.</p>
             <p>The detector is a Hamamatsu X-ray Line Sensor Camera C9750-20TCN composed by a scintillator coupled with a linear array of CCDs arranged vertically. To protect the electronics from radiation damage, it is shielded with 1&#160;cm thick lead slab leaving a thin aperture matching the sensitive area. For the acquisition of each projection, the detector is translated horizontally at uniform speed and rotated around the vertical axis in order to be always oriented toward the focal spot of the X-ray source and to reduce Compton scattered X-rays, improving the image quality. An external signal synchronized with the horizontal movement is provided to trigger the acquisition of each vertical line of the image. The rotating platform is designed to carry large objects in a stable way and is connected to a Newport RV350PE rotary stage providing small and very precise angular steps.</p>
             <p>All the equipment is installed in an area of 6&#8201;&#215;&#8201;5&#160;m<sup>2</sup> shielded accordingly to radiation protection rules and is operated remotely. The procedure for the acquisition of all the projections, a sequence of horizontal scans of the detector, each followed by a rotation of the object, is fully automated. For the analysis of large objects, the projections of portions at different heights are achieved by varying the height of both the X-ray source and the detector and repeating the whole procedure.</p>
             <p>More information and details about the instrument and the experimental setup are reported in Table&#160;<tblr tid="T1">1</tblr>. The lower part of the artwork, in the following called &#8220;fall-front desk&#8221;, has been separated from the upper part, composed by the shelves and from the two lateral statues and each of these parts was analyzed separately. They were further subdivided in horizontal portions, 4 for the fall-front desk, 7 for the shelves and 1 for each statue, for a total of 13. In Figure&#160;<figr fid="F2">2</figr> the frontal radiography of all the joined portions is presented. The object-detector distance was chosen as the minimum achievable, considering the large size of the objects, to minimize the penumbra, while the source-detector distance was set as the minimum comprising the largest width of the object in the X-ray beam, thus maximizing the signal intensity.</p>
             
                <table id="T1">
                   <title>
                      <p>Table 1</p>
                   </title>
                   <caption>
                      <p>
                         <b>Details of the experimental setup</b>
                      </p>
                   </caption>
                   <tgroup align="left" cols="2">
                      <colspec align="left" colname="c1" colnum="1" colwidth="*"/>
                      <colspec align="left" colname="c2" colnum="2" colwidth="*"/>
                      <tbody>
                         <row>
                            <entry colname="c1">
                               <p>Artwork dimensions</p>
                            </entry>
                            <entry colname="c2">
                               <p>129 &#215; 59&#8201;&#215; 312&#160;cm<sup>3</sup>
                               </p>
                            </entry>
                         </row>
                         <row>
                            <entry colname="c1">
                               <p>Source-Detector Distance (SDD)</p>
                            </entry>
                            <entry colname="c2">
                               <p>2.95&#160;m</p>
                            </entry>
                         </row>
                         <row>
                            <entry colname="c1">
                               <p>Source-Object Distance (SOD)</p>
                            </entry>
                            <entry colname="c2">
                               <p>2.14&#160;m</p>
                            </entry>
                         </row>
                         <row>
                            <entry colname="c1">
                               <p>Object-Detector Distance (ODD)</p>
                            </entry>
                            <entry colname="c2">
                               <p>0.81&#160;m</p>
                            </entry>
                         </row>
                         <row>
                            <entry colname="c1">
                               <p>Magnification</p>
                            </entry>
                            <entry colname="c2">
                               <p>&#215; 1.38</p>
                            </entry>
                         </row>
                         <row>
                            <entry colname="c1">
                               <p>Detector pixel size</p>
                            </entry>
                            <entry colname="c2">
                               <p>0.2&#160;mm</p>
                            </entry>
                         </row>
                         <row>
                            <entry colname="c1">
                               <p>Binning</p>
                            </entry>
                            <entry colname="c2">
                               <p>4&#8201;&#215; 4</p>
                            </entry>
                         </row>
                         <row>
                            <entry colname="c1">
                               <p>Image pixel size</p>
                            </entry>
                            <entry colname="c2">
                               <p>0.8&#160;mm</p>
                            </entry>
                         </row>
                         <row>
                            <entry colname="c1">
                               <p>Reconstructed voxel size</p>
                            </entry>
                            <entry colname="c2">
                               <p>0.58&#160;mm</p>
                            </entry>
                         </row>
                         <row>
                            <entry colname="c1">
                               <p>Tube voltage</p>
                            </entry>
                            <entry colname="c2">
                               <p>180&#160;kV</p>
                            </entry>
                         </row>
                         <row>
                            <entry colname="c1">
                               <p>Current</p>
                            </entry>
                            <entry colname="c2">
                               <p>5&#160;mA</p>
                            </entry>
                         </row>
                         <row>
                            <entry colname="c1">
                               <p>Focal spot size</p>
                            </entry>
                            <entry colname="c2">
                               <p>3&#160;mm</p>
                            </entry>
                         </row>
                         <row>
                            <entry colname="c1">
                               <p>Detector scan speed</p>
                            </entry>
                            <entry colname="c2">
                               <p>5&#160;m/min</p>
                            </entry>
                         </row>
                         <row>
                            <entry colname="c1">
                               <p>Horizontal portions</p>
                            </entry>
                            <entry colname="c2">
                               <p>13</p>
                            </entry>
                         </row>
                         <row>
                            <entry colname="c1">
                               <p>Number of projections/portion</p>
                            </entry>
                            <entry colname="c2">
                               <p>720</p>
                            </entry>
                         </row>
                         <row>
                            <entry colname="c1">
                               <p>Total number of projections</p>
                            </entry>
                            <entry colname="c2">
                               <p>9360</p>
                            </entry>
                         </row>
                         <row>
                            <entry colname="c1">
                               <p>Scanned area</p>
                            </entry>
                            <entry colname="c2">
                               <p>2.1&#8201;&#215;&#8201;0.5&#160;m<sup>2</sup>
                               </p>
                            </entry>
                         </row>
                         <row>
                            <entry colname="c1">
                               <p>Image dimensions</p>
                            </entry>
                            <entry colname="c2">
                               <p>10500&#8201;&#215;&#8201;2560&#160;pixel<sup>2</sup>
                               </p>
                            </entry>
                         </row>
                         <row>
                            <entry colname="c1">
                               <p>Output</p>
                            </entry>
                            <entry colname="c2">
                               <p>12 bit</p>
                            </entry>
                         </row>
                         <row>
                            <entry colname="c1">
                               <p>Image size</p>
                            </entry>
                            <entry colname="c2">
                               <p>51.3&#160;MB</p>
                            </entry>
                         </row>
                         <row>
                            <entry colname="c1">
                               <p>Disk space</p>
                            </entry>
                            <entry colname="c2">
                               <p>437&#160;GB</p>
                            </entry>
                         </row>
                         <row>
                            <entry colname="c1">
                               <p>Average acquisition time for each portion</p>
                            </entry>
                            <entry colname="c2">
                               <p>10&#160;hours</p>
                            </entry>
                         </row>
                         <row>
                            <entry colname="c1">
                               <p>Total time</p>
                            </entry>
                            <entry colname="c2">
                               <p>5.6&#160;days</p>
                            </entry>
                         </row>
                      </tbody>
                   </tgroup>
                </table>
             
             
                <fig id="F2">
                   <title>
                      <p>Figure 2</p>
                   </title>
                   <caption>
                      <p>X-ray radiography.</p>
                   </caption>
                   <text>
                      <p>
                         <b>X-ray radiography.</b> Frontal X-ray radiographs of the writing cabinet by Pietro Piffetti; the 13 portions for the CT reconstruction are highlighted (11 for the main part of the artwork <b>(a)</b> and 2 for the statues <b>(b</b> and <b>c)</b>).</p>
                   </text>
                   <graphic file="s40494-014-0019-9-2"/>
                </fig>
             
             <p>For each portion 720 projections have been acquired, one each 0.5&#176; of rotation of the object. A non rotating marker was added in the image field to allow for checking and refining the horizontal alignment of all the projections. Moreover, several open beam and dark images have been acquired for later use in the image processing stage. The CT reconstruction was performed with a non-commercial software-utility developed by Dan Schneberk of Lawrence Livermore National Laboratory (USA), using the approximation of fan beam geometry and the filtered back-projection algorithm <abbrgrp>
                   <abbr bid="B17">17</abbr>
                </abbrgrp>.</p>
          </sec>
       </sec>
       <sec>
          <st>
             <p>2
 						Results and discussion</p>
          </st>
          <p>The main aim of the CT analysis of the writing cabinet was to obtain information about its internal structure, its building technique, the conservative conditions and the presence of previous repairs and restorations. Most of the results, obtained in an absolute non-invasive way by means of CT, reveal details impossible to be highlighted by means of other techniques or without dismantle the artwork. To identify and locate some details, a comparison among photographs, radiographs and CT results (3D rendering and both horizontal and lateral sections) is very useful and sometimes absolutely necessary. Several examples are reported in the following and have been divided in three topics: building technique, conservative conditions, previous interventions.</p>
          <sec>
             <st>
                <p>2.1 Building technique</p>
             </st>
             <p>The external shaped sides of the upper part (shelves) have no correspondence with the inner squared structure as shown in Figure&#160;<figr fid="F3">3</figr>a. From the radiograph (Figure&#160;<figr fid="F3">3</figr>b) these parts seem not to be filled and this hypothesis is confirmed by the CT reconstructed sections, as shown in Figure&#160;<figr fid="F3">3</figr>c. However three triangular spacers are identified, inserted in a groove hollowed out in the external side of the shelves, a type of joint called &#8220;a canale passante&#8221; (Figures&#160;<figr fid="F3">3</figr>d, e).</p>
             
                <fig id="F3">
                   <title>
                      <p>Figure 3</p>
                   </title>
                   <caption>
                      <p>The side of the shelves. (a)</p>
                   </caption>
                   <text>
                      <p>
                         <b>The side of the shelves. (a)</b> the shaped side of the shelves; <b>(b)</b> X-ray radiograph of the same part; CT horizontal section without <b>(c)</b> and with <b>(d)</b> a triangular spacer; <b>(e)</b> CT lateral section of the spacer.</p>
                   </text>
                   <graphic file="s40494-014-0019-9-3"/>
                </fig>
             
             <p>One of the more interesting parts of the upper part is the central oval ivory plate, supported by the left door. In the CT horizontal sections of Figure&#160;<figr fid="F4">4</figr>, three different constituent layers can be clearly distinguished: from the outside the ivory veneer, about half cm thick, a thin wooden layer of about one cm thickness, followed by the wooden support of the door.</p>
             
                <fig id="F4">
                   <title>
                      <p>Figure 4</p>
                   </title>
                   <caption>
                      <p>The central ivory plate. (a)</p>
                   </caption>
                   <text>
                      <p>
                         <b>The central ivory plate. (a)</b> CT horizontal sections of the central oval ivory plate of the shelves; <b>(b)</b> the three different layers highlighted: the ivory veneer (yellow), the thin wooden layer called &#8220;supportino&#8221; (green) and the wooden support (red).</p>
                   </text>
                   <graphic file="s40494-014-0019-9-4"/>
                </fig>
             
             <p>The internal structure of the lower part (fall-front desk), shown in Figure&#160;<figr fid="F5">5</figr>a, is quite complex, with secret drawers and several openings, as can be seen from a CT horizontal section shown in Figure&#160;<figr fid="F5">5</figr>b: two drawers have a double bottom which hides additional small drawers enclosed in lateral niches drawn in the sides. A CT reconstructed section of the shaped sides of the fall-front desk is shown in Figure&#160;<figr fid="F5">5</figr>c. They appear as not being made from a single piece of wood, but rather composed by a stack of wooden blocks arranged to give the peculiar shape to the artwork. In Figure&#160;<figr fid="F5">5</figr>d these peculiar technique have been highlighted, using a different colour for each block. The wood grain of each block is visible allowing one to determine wooden planes with different arrangements: radial, tangential and transversal. Between these blocks a rectangular cavity, few centimetres wide, appear on each side: these are weak points for mechanical stresses, especially in the right side where this cavity reaches the thin external veneer.</p>
             
                <fig id="F5">
                   <title>
                      <p>Figure 5</p>
                   </title>
                   <caption>
                      <p>The side of the fall-front desk. (a)</p>
                   </caption>
                   <text>
                      <p>
                         <b>The side of the fall-front desk. (a)</b> the shaped side of the fall-front desk; <b>(b)</b> CT horizontal section showing secret drawers and opening; <b>(c)</b> CT horizontal section showing a rectangular cavity and holes of xylophagous insects in the brighter blocks (probably walnut wood); <b>(d)</b> the different wooden blocks highlighted (in red the walnut wood ones).</p>
                   </text>
                   <graphic file="s40494-014-0019-9-5"/>
                </fig>
             
             <p>In the CT reconstruction of both the middle and the lower part, some of the wooden blocks are brighter than others. An example can be seen in Figure&#160;<figr fid="F5">5</figr>c and in Figure&#160;<figr fid="F5">5</figr>d, where the two brighter blocks have been highlighted in red. This indicates the use of different species of wood. In other artworks realised by the same author, a similar feature has already been observed: usually the main part of the furniture was made in poplar and few structural parts were made from walnut <abbrgrp>
                   <abbr bid="B18">18</abbr>
                </abbrgrp>. Even if for this artwork a wooden analysis have not been performed and from CT images it is not possible to define which kind of wood was used, the comparison among the CT data and the information on the constructive technique used by the same author allows to make some hypothesis: the main part of the furniture was probably made with poplar wood (density of seasoned wood: 0.45&#160;g/cm<sup>3</sup>), while few blocks was made with walnut wood (density of seasoned wood: 0.6&#160;g/cm<sup>3</sup>). These few blocks, that are brighter in the CT sections, in the fall-front desk are placed at the four corners (as shown in Figure&#160;<figr fid="F5">5</figr>c and d) and provide the load-bearing structure of the cabinet.</p>
             <p>In Figures&#160;<figr fid="F6">6</figr>a and d the two lateral wooden statues are presented. Thanks to the CT reconstruction their inner structure are clearly visible in Figures&#160;<figr fid="F6">6</figr>b and e, where each wooden block have been virtually coloured with a different colour. Both the statues are composed by many parts pasted together, respectively 8 for the Autumn (Figure&#160;<figr fid="F6">6</figr>b) and 9 for the Summer (Figure&#160;<figr fid="F6">6</figr>e). The wood grain of these parts are differently arranged suggesting that each statue was obtained by pasting to a main block smaller and smaller pieces, one after the other, which were later carved to reach the final shape. Other interesting findings, impossible to be seen from the outside because of the gilded layer covering the statues, are shown in Figures&#160;<figr fid="F6">6</figr>c and f: they are a big knag in the Autumn (Figure&#160;<figr fid="F6">6</figr>c) and a nail in the head of the Summer (Figure&#160;<figr fid="F6">6</figr>f).</p>
             
                <fig id="F6">
                   <title>
                      <p>Figure 6</p>
                   </title>
                   <caption>
                      <p>The lateral statues.</p>
                   </caption>
                   <text>
                      <p>
                         <b>The lateral statues.</b> The two lateral wooden statues: <b>(a)</b> the Autumn and <b>(d)</b> the Summer; <b>(b)</b> and <b>(e)</b>: CT reconstruction with various blocks highlighted in different colours; <b>(c)</b> CT horizontal section of the Autumn showing a big knag; <b>(f)</b> X-ray radiograph of the Summer showing a nail in the head.</p>
                   </text>
                   <graphic file="s40494-014-0019-9-6"/>
                </fig>
             
             <p>An important insight into the building technique used by the artist is obtained by the analysis of the joints. Figure&#160;<figr fid="F7">7</figr> shows few examples of the different types of joint observed: &#8220;tonguings&#8221;, &#8220;cogs&#8221; and &#8220;cog and groove&#8221;, in addition to the joint &#8220;a canale passante&#8221; already shown in Figure&#160;<figr fid="F3">3</figr>e. As resulting from studies of other artworks from the same artist <abbrgrp>
                   <abbr bid="B18">18</abbr>
                </abbrgrp>, Pietro Piffetti is known for having used a complex and elaborate structure for the realisation of furniture. The large variety of joints used in the same artwork is yet another confirmation, showing a structure of this writing cabinet even more complex than the ones already known.</p>
             
                <fig id="F7">
                   <title>
                      <p>Figure 7</p>
                   </title>
                   <caption>
                      <p>Joints.</p>
                   </caption>
                   <text>
                      <p>
                         <b>Joints.</b> Different kinds of joint: <b>(a)</b> CT horizontal section of the door with tonguings; <b>(b)</b> CT lateral section of the back side of the oval plate formed by two wooden pieces joined by cogs; <b>(c)</b> CT horizontal section of the fall-front in the fall-front desk, showing a joint with cog and groove.</p>
                   </text>
                   <graphic file="s40494-014-0019-9-7"/>
                </fig>
             
          </sec>
          <sec>
             <st>
                <p>2.2 Conservative conditions</p>
             </st>
             <p>The CT reconstruction allows one to provide highlights on the conservative conditions of some parts of this artwork which are not accessible to visual inspection. In the CT image shown in Figure&#160;<figr fid="F4">4</figr>a many longitudinal fractures of the oval ivory plate can be clearly detected: they are typical of this material and they are partially visible already from the external observation, but only with a CT reconstruction is possible to understand how deep they are.</p>
             <p>In Figure&#160;<figr fid="F5">5</figr>c the brighter blocks show holes and tunnels left by xylophagous insects strikes. The same information have been detected both in horizontal and lateral CT sections related to other parts of the artwork; in particular the upper ornament of the shelves and the sides and the drawers of the fall-front desk appear to be quite deteriorated. This information, obtained in a non invasive way, can be very useful when the conservation status of a wooden artwork is required: in fact this attacks are often not detectable from the outer surface and, like in this case, they can strike some structural and important parts.</p>
          </sec>
          <sec>
             <st>
                <p>2.3 Previous interventions</p>
             </st>
             <p>Figure&#160;<figr fid="F8">8</figr>a is a radiograph showing two screws in the lower part of the shelves. The shape of these screws and of others located in the bottom part of the drawers, is different and more recent than the shape of the screws employed by Pietro Piffetti in other artworks.</p>
             
                <fig id="F8">
                   <title>
                      <p>Figure 8</p>
                   </title>
                   <caption>
                      <p>Previous interventions.</p>
                   </caption>
                   <text>
                      <p>
                         <b>Previous interventions.</b> Previous interventions: <b>(a)</b> X-ray radiograph of the screws in the lower part of the shelves; <b>(b)</b> detail of the ivory plate and <b>(c)</b> its X-ray radiograph showing a row of nails to fix a crevice of the thin wooden layer called &#8220;supportino&#8221;.</p>
                   </text>
                   <graphic file="s40494-014-0019-9-8"/>
                </fig>
             
             <p>In Figure&#160;<figr fid="F8">8</figr>b some of the longitudinal fractures of the ivory plate in the shelves door are shown. A radiograph of this part (Figure&#160;<figr fid="F8">8</figr>c) shows that one of these fractures was deeper and reached the thin wooden layer called &#8220;supportino&#8221;. This crevice was repaired by inserting a row of small nails (alternatively from the exterior to the interior and vice versa), invisible both from the outside and the inside.</p>
             <p>These are just two examples showing previous repairs and restoration activities performed on the writing cabinet that can be detected using a CT scan.</p>
          </sec>
       </sec>
       <sec>
          <st>
             <p>3
 						Conclusions</p>
          </st>
          <p>The successful application of a new X-ray tomography instrument on a precious artwork of big dimensions and composed by different materials has been presented. This non invasive analysis provides valuable information about the building technique, the conservative conditions and the presence of previous restorations.</p>
          <p>In particular it allows to highlight the types and structure of the joints and assemblies and to evaluate the dimensions and the arrangements of the building pieces used by the artist. In the upper part the shaped sides reveal to be hollow, except for the presence of three spacers, while in the lower part they reveal to be formed by different wooden blocks. Moreover, in the lower part, a complex structure with secret drawers and opening is highlighted. The two statues decorating this artwork appear to be made by many pieces of wood.</p>
          <p>Different kinds of material are detected and precisely located on the artworks. The overall conservative status is good, but previous repairs and some xylophagous insect holes are detected. The CT analysis demonstrates to be the only available method to obtain this kind of important and unique information on such an artwork, to help the art historians, the conservators and the restorers in their own work.</p>
       </sec>
       <sec>
          <st>
             <p>Competing interests</p>
          </st>
          <p>The authors declare that they have no competing interests.</p>
       </sec>
       <sec>
          <st>
             <p>Authors&#8217; contributions</p>
          </st>
          <p>All authors contributed to the planning, design and construction of the equipment. ARe, FA, CA, JC, ALG, GM, MN, NP, CR, RS performed the data acquisition. ARe, RB, CR performed the data analysis. ARe, MR, CR interpreted X-ray imaging. SDB studied the art historical context. MR studied the technical context of XVIII century. ARe, CR wrote the manuscript and all authors revised it critically. All authors read and approved the final manuscript.</p>
       </sec>
    </bdy>
    <bm>
       <ack>
          <sec>
             <st>
                <p>Acknowledgements</p>
             </st>
             <p>This study was carried out in the framework of the <it>neu_ART</it> research project funded by Regione Piemonte. We thank the administrative staff for the precious support: D. Bortot (INFN), A. Bellino and M. Giacoia (CCR) and G. Sbarrai (Universit&#224; di Torino). We also thank for their valuable work the team of the Technological Laboratory of INFN Torino, in particular S. Brasolin, F. Borotto, G. Ferrero and R. Panero. We are grateful to L. Godart, director of Quirinale Palace Art Collections, and to his staff, in particular way L. Morozzi, for supporting the experimental application of CT on Pietro Piffetti&#8217;s &#8220;Doppio Corpo&#8221; and to F. Casali, M.P. Morigi, M. Bettuzzi and D. Schneberk for the fruitful discussions and the much useful advice.</p>
          </sec>
       </ack>
       <refgrp>
          
          <bibl id="B1">
             <title>
                <p>Mobile depth profiling and sub-surface imaging techniques for historical paintings - a review</p>
             </title>
             <aug>
                <au>
                   <snm>Alfeld</snm>
                   <fnm>M</fnm>
                </au>
                <au>
                   <snm>Broekaert</snm>
                   <fnm>JAC</fnm>
                </au>
             </aug>
             <source>Spectrochimica Acta Part B</source>
             <pubdate>2013</pubdate>
             <volume>88</volume>
             <fpage>211</fpage>
             <lpage>230</lpage>
             <xrefbib>
                <pubidlist>
                   <pubid idtype="doi">10.1016/j.sab.2013.07.009</pubid>
                </pubidlist>
             </xrefbib>
          </bibl>
          <bibl id="B2">
             <title>
                <p>X-Ray and Neutron Digital Radiography and Computed Tomography</p>
             </title>
             <aug>
                <au>
                   <snm>Casali</snm>
                   <fnm>F</fnm>
                </au>
             </aug>
             <source>Physical Techniques in the Study of Art, Archaeology and Cultural Heritage - vol 1</source>
             <publisher>Elsevier, New York</publisher>
             <editor>Creagh D, Bradley D</editor>
             <pubdate>2006</pubdate>
             <fpage>41</fpage>
             <lpage>123</lpage>
             <xrefbib>
                <pubidlist>
                   <pubid idtype="doi">10.1016/S1871-1731(06)80003-5</pubid>
                </pubidlist>
             </xrefbib>
          </bibl>
          <bibl id="B3">
             <title>
                <p>Innovative systems for Digital Radiography and Computed Tomography: Applications to Cultural Heritage Diagnostics</p>
             </title>
             <aug>
                <au>
                   <snm>Bettuzzi</snm>
                   <fnm>M</fnm>
                </au>
                <au>
                   <snm>Brancaccio</snm>
                   <fnm>R</fnm>
                </au>
                <au>
                   <snm>Casali</snm>
                   <fnm>F</fnm>
                </au>
                <au>
                   <snm>Cornacchia</snm>
                   <fnm>S</fnm>
                </au>
                <au>
                   <snm>Giordano</snm>
                   <fnm>M</fnm>
                </au>
                <au>
                   <snm>Morigi</snm>
                   <fnm>MP</fnm>
                </au>
                <au>
                   <snm>Pasini</snm>
                   <fnm>A</fnm>
                </au>
                <au>
                   <snm>Romani</snm>
                   <fnm>D</fnm>
                </au>
             </aug>
             <source>Physics Methods in Archaeometry</source>
             <publisher>Ios Press, Amsterdam</publisher>
             <editor>Martini M, Milazzo M, Piacentini M</editor>
             <pubdate>2004</pubdate>
             <fpage>461</fpage>
             <lpage>470</lpage>
          </bibl>
          <bibl id="B4">
             <title>
                <p>Nondestructive insights into composition of the sculpture of Egyptian queen Nefertiti with CT</p>
             </title>
             <aug>
                <au>
                   <snm>Huppertz</snm>
                   <fnm>A</fnm>
                </au>
                <au>
                   <snm>Wildung</snm>
                   <fnm>D</fnm>
                </au>
                <au>
                   <snm>Kemp</snm>
                   <fnm>BJ</fnm>
                </au>
                <au>
                   <snm>Nentwig</snm>
                   <fnm>T</fnm>
                </au>
                <au>
                   <snm>Asbach</snm>
                   <fnm>P</fnm>
                </au>
                <au>
                   <snm>Rasche</snm>
                   <fnm>FM</fnm>
                </au>
                <au>
                   <snm>Hamm</snm>
                   <fnm>B</fnm>
                </au>
             </aug>
             <source>Radiology</source>
             <pubdate>2009</pubdate>
             <volume>251</volume>
             <issue>1</issue>
             <fpage>233</fpage>
             <lpage>240</lpage>
             <xrefbib>
                <pubidlist>
                   <pubid idtype="doi">10.1148/radiol.2511081175</pubid>
                </pubidlist>
             </xrefbib>
          </bibl>
          <bibl id="B5">
             <title>
                <p>Evaluation of the accuracy of cone beam computerized tomography (CBCT): medical imaging technology in head and neck reconstruction</p>
             </title>
             <aug>
                <au>
                   <snm>Logan</snm>
                   <fnm>H</fnm>
                </au>
                <au>
                   <snm>Wolfaardt</snm>
                   <fnm>J</fnm>
                </au>
                <au>
                   <snm>Boulanger</snm>
                   <fnm>P</fnm>
                </au>
                <au>
                   <snm>Hodgetts</snm>
                   <fnm>B</fnm>
                </au>
                <au>
                   <snm>Seikaly</snm>
                   <fnm>H</fnm>
                </au>
             </aug>
             <source>J Otolaryngol Head Neck Surg</source>
             <pubdate>2013</pubdate>
             <volume>42</volume>
             <fpage>25</fpage>
             <xrefbib>
                <pubidlist>
                   <pubid idtype="doi">10.1186/1916-0216-42-25</pubid>
                </pubidlist>
             </xrefbib>
          </bibl>
          <bibl id="B6">
             <title>
                <p>Process for the 3D virtual reconstruction of a microcultural heritage artifact obtained by synchrotron radiation CT technology using open source and free software</p>
             </title>
             <aug>
                <au>
                   <snm>Zhang</snm>
                   <fnm>X</fnm>
                </au>
                <au>
                   <snm>Blaas</snm>
                   <fnm>J</fnm>
                </au>
                <au>
                   <snm>Botha</snm>
                   <fnm>C</fnm>
                </au>
                <au>
                   <snm>Reischig</snm>
                   <fnm>P</fnm>
                </au>
                <au>
                   <snm>Bravin</snm>
                   <fnm>A</fnm>
                </au>
                <au>
                   <snm>Dik</snm>
                   <fnm>J</fnm>
                </au>
             </aug>
             <source>J Cult Heritage</source>
             <pubdate>2012</pubdate>
             <volume>13</volume>
             <fpage>221</fpage>
             <lpage>225</lpage>
             <xrefbib>
                <pubidlist>
                   <pubid idtype="doi">10.1016/j.culher.2011.08.004</pubid>
                </pubidlist>
             </xrefbib>
          </bibl>
          <bibl id="B7">
             <title>
                <p>Non-invasive microstructural analysis of bowed stringed instruments with synchrotron radiation X-ray microtomography</p>
             </title>
             <aug>
                <au>
                   <snm>Sodini</snm>
                   <fnm>N</fnm>
                </au>
                <au>
                   <snm>Dreossi</snm>
                   <fnm>D</fnm>
                </au>
                <au>
                   <snm>Chen</snm>
                   <fnm>R</fnm>
                </au>
                <au>
                   <snm>Fioravanti</snm>
                   <fnm>M</fnm>
                </au>
                <au>
                   <snm>Giordano</snm>
                   <fnm>A</fnm>
                </au>
                <au>
                   <snm>Herrestal</snm>
                   <fnm>P</fnm>
                </au>
                <au>
                   <snm>Rigon</snm>
                   <fnm>L</fnm>
                </au>
                <au>
                   <snm>Zanini</snm>
                   <fnm>F</fnm>
                </au>
             </aug>
             <source>J Cult Heritage</source>
             <pubdate>2012</pubdate>
             <volume>13</volume>
             <issue>3</issue>
             <fpage>S44</fpage>
             <lpage>S49</lpage>
             <xrefbib>
                <pubidlist>
                   <pubid idtype="doi">10.1016/j.culher.2012.04.008</pubid>
                </pubidlist>
             </xrefbib>
          </bibl>
          <bibl id="B8">
             <title>
                <p>The ICTP-Elettra X-ray laboratory for cultural heritage and archaeology</p>
             </title>
             <aug>
                <au>
                   <snm>Tuniz</snm>
                   <fnm>C</fnm>
                </au>
                <au>
                   <snm>Bernardini</snm>
                   <fnm>F</fnm>
                </au>
                <au>
                   <snm>Cicuttin</snm>
                   <fnm>A</fnm>
                </au>
                <au>
                   <snm>Crespo</snm>
                   <fnm>ML</fnm>
                </au>
                <au>
                   <snm>Dreossi</snm>
                   <fnm>D</fnm>
                </au>
                <au>
                   <snm>Gianoncelli</snm>
                   <fnm>A</fnm>
                </au>
                <au>
                   <snm>Mancini</snm>
                   <fnm>L</fnm>
                </au>
                <au>
                   <snm>Mendoza Cuevas</snm>
                   <fnm>A</fnm>
                </au>
                <au>
                   <snm>Sodini</snm>
                   <fnm>N</fnm>
                </au>
                <au>
                   <snm>Tromba</snm>
                   <fnm>G</fnm>
                </au>
                <au>
                   <snm>Zanini</snm>
                   <fnm>F</fnm>
                </au>
                <au>
                   <snm>Zanolli</snm>
                   <fnm>C</fnm>
                </au>
             </aug>
             <source>Nuclear Instr Methods Physics Res Sec A</source>
             <pubdate>2013</pubdate>
             <volume>711</volume>
             <fpage>106</fpage>
             <lpage>110</lpage>
             <xrefbib>
                <pubidlist>
                   <pubid idtype="doi">10.1016/j.nima.2013.01.046</pubid>
                </pubidlist>
             </xrefbib>
          </bibl>
          <bibl id="B9">
             <title>
                <p>Application of X-ray computed tomography to cultural heritage diagnostics</p>
             </title>
             <aug>
                <au>
                   <snm>Morigi</snm>
                   <fnm>MP</fnm>
                </au>
                <au>
                   <snm>Casali</snm>
                   <fnm>F</fnm>
                </au>
                <au>
                   <snm>Bettuzzi</snm>
                   <fnm>M</fnm>
                </au>
                <au>
                   <snm>Brancaccio</snm>
                   <fnm>R</fnm>
                </au>
                <au>
                   <snm>D&#8217;Errico</snm>
                   <fnm>V</fnm>
                </au>
             </aug>
             <source>Applied Physics A</source>
             <pubdate>2010</pubdate>
             <volume>100</volume>
             <fpage>653</fpage>
             <lpage>661</lpage>
             <xrefbib>
                <pubidlist>
                   <pubid idtype="doi">10.1007/s00339-010-5648-6</pubid>
                </pubidlist>
             </xrefbib>
          </bibl>
          <bibl id="B10">
             <title>
                <p>Results of the Italian neu_ART project</p>
             </title>
             <aug>
                <au>
                   <snm>Re</snm>
                   <fnm>A</fnm>
                </au>
                <au>
                   <snm>Albertin</snm>
                   <fnm>F</fnm>
                </au>
                <au>
                   <snm>Bortolin</snm>
                   <fnm>C</fnm>
                </au>
                <au>
                   <snm>Brancaccio</snm>
                   <fnm>R</fnm>
                </au>
                <au>
                   <snm>Buscaglia</snm>
                   <fnm>P</fnm>
                </au>
                <au>
                   <snm>Corsi</snm>
                   <fnm>J</fnm>
                </au>
                <au>
                   <snm>Cotto</snm>
                   <fnm>G</fnm>
                </au>
                <au>
                   <snm>Dughera</snm>
                   <fnm>G</fnm>
                </au>
                <au>
                   <snm>Durisi</snm>
                   <fnm>E</fnm>
                </au>
                <au>
                   <snm>Ferrarese</snm>
                   <fnm>W</fnm>
                </au>
                <au>
                   <snm>Gambaccini</snm>
                   <fnm>M</fnm>
                </au>
                <au>
                   <snm>Giovagnoli</snm>
                   <fnm>A</fnm>
                </au>
                <au>
                   <snm>Grassi</snm>
                   <fnm>N</fnm>
                </au>
                <au>
                   <snm>Lo Giudice</snm>
                   <fnm>A</fnm>
                </au>
                <au>
                   <snm>Mereu</snm>
                   <fnm>P</fnm>
                </au>
                <au>
                   <snm>Mila</snm>
                   <fnm>G</fnm>
                </au>
                <au>
                   <snm>Nervo</snm>
                   <fnm>M</fnm>
                </au>
                <au>
                   <snm>Pastrone</snm>
                   <fnm>N</fnm>
                </au>
                <au>
                   <snm>Petrucci</snm>
                   <fnm>F</fnm>
                </au>
                <au>
                   <snm>Prino</snm>
                   <fnm>F</fnm>
                </au>
                <au>
                   <snm>Ramello</snm>
                   <fnm>L</fnm>
                </au>
                <au>
                   <snm>Ravera</snm>
                   <fnm>M</fnm>
                </au>
                <au>
                   <snm>Ricci</snm>
                   <fnm>C</fnm>
                </au>
                <au>
                   <snm>Romero</snm>
                   <fnm>A</fnm>
                </au>
                <au>
                   <snm>Sacchi</snm>
                   <fnm>R</fnm>
                </au>
                <au>
                   <snm>Staiano</snm>
                   <fnm>A</fnm>
                </au>
                <au>
                   <snm>Visca</snm>
                   <fnm>L</fnm>
                </au>
                <au>
                   <snm>Zamprotta</snm>
                   <fnm>L</fnm>
                </au>
             </aug>
             <source>IOP Mat Sci Eng (MSE) Conf proc Series</source>
             <pubdate>2012</pubdate>
             <volume>37</volume>
             <fpage>012007</fpage>
             <xrefbib>
                <pubidlist>
                   <pubid idtype="doi">10.1088/1757-899X/37/1/012007</pubid>
                </pubidlist>
             </xrefbib>
          </bibl>
          <bibl id="B11">
             <title>
                <p>Digital radiography as a support tool in knowledge and definition of intervention guidelines: House of Savoy Portraits in Racconigi Castle</p>
             </title>
             <aug>
                <au>
                   <snm>Buscaglia</snm>
                   <fnm>P</fnm>
                </au>
                <au>
                   <snm>Corsi</snm>
                   <fnm>J</fnm>
                </au>
                <au>
                   <snm>Nervo</snm>
                   <fnm>M</fnm>
                </au>
                <au>
                   <snm>Ricci</snm>
                   <fnm>C</fnm>
                </au>
             </aug>
             <source>Il Progetto neu_ART. Studi e applicazioni/Neutron and X-ray Tomography and imaging for Cultural Heritage, Cronache 4</source>
             <publisher>Editris, Torino</publisher>
             <editor>Nervo M</editor>
             <pubdate>2013</pubdate>
             <fpage>77</fpage>
             <lpage>87</lpage>
          </bibl>
          <bibl id="B12">
             <title>
                <p>Computed tomography applied to cabinet making wooden furniture: the &#8220;Doppio corpo&#8221; by Piffetti at Quirinale Palace</p>
             </title>
             <aug>
                <au>
                   <snm>Capezio</snm>
                   <fnm>R</fnm>
                </au>
                <au>
                   <snm>Luciani</snm>
                   <fnm>P</fnm>
                </au>
                <au>
                   <snm>Re</snm>
                   <fnm>A</fnm>
                </au>
                <au>
                   <snm>Ricci</snm>
                   <fnm>C</fnm>
                </au>
                <au>
                   <snm>Spagnolo</snm>
                   <fnm>M</fnm>
                </au>
                <au>
                   <snm>Tasso</snm>
                   <fnm>V</fnm>
                </au>
             </aug>
             <source>Il Progetto neu_ART. Studi e Applicazioni/Neutron and X-ray Tomography and Imaging for Cultural Heritage, Cronache 4</source>
             <publisher>Editris, Torino</publisher>
             <editor>Nervo M</editor>
             <pubdate>2013</pubdate>
             <fpage>92</fpage>
             <lpage>103</lpage>
          </bibl>
          <bibl id="B13">
             <title>
                <p>Fonti iconografico-letterarie e metodologia di lavoro dell&#8217;ebanista torinese Pietro Piffetti. Contributi documentari per la sua vita e scoperte per il cassettone a ribalta del Palazzo del Quirinale ed altri mobili</p>
             </title>
             <aug>
                <au>
                   <snm>Cifani</snm>
                   <fnm>A</fnm>
                </au>
                <au>
                   <snm>Monetti</snm>
                   <fnm>F</fnm>
                </au>
             </aug>
             <source>Bollettino d&#8217;arte</source>
             <pubdate>2005</pubdate>
             <volume>131</volume>
             <fpage>23</fpage>
             <lpage>52</lpage>
          </bibl>
          <bibl id="B14">
             <aug>
                <au>
                   <snm>Spantigati</snm>
                   <fnm>CE</fnm>
                </au>
                <au>
                   <snm>De Blasi</snm>
                   <fnm>S</fnm>
                </au>
             </aug>
             <source>Il Restauro Degli Arredi Lignei</source>
             <publisher>L&#8217;ebanisteria piemontese. Studi e ricerche. Edited by Nardini, Firenze</publisher>
             <pubdate>2011</pubdate>
          </bibl>
          <bibl id="B15">
             <title>
                <p>Pietro Piffetti, Cassettone a Ribalta con Scansia a due ante</p>
             </title>
             <aug>
                <au>
                   <snm>Morozzi</snm>
                   <fnm>L</fnm>
                </au>
             </aug>
             <source>La Bella Italia. Arte e Identit&#224; delle citt&#224; capitali, Catalogue of Exhibition, Venaria Reale, 17 March - 11 September 2011</source>
             <publisher>Milano, Silvana</publisher>
             <editor>Paolucci A</editor>
             <pubdate>2011</pubdate>
             <fpage>172</fpage>
          </bibl>
          <bibl id="B16">
             <title>
                <p>The radio-tomographic apparatus</p>
             </title>
             <aug>
                <au>
                   <snm>Re</snm>
                   <fnm>A</fnm>
                </au>
                <au>
                   <snm>Brancaccio</snm>
                   <fnm>R</fnm>
                </au>
                <au>
                   <snm>Corsi</snm>
                   <fnm>J</fnm>
                </au>
                <au>
                   <snm>Cotto</snm>
                   <fnm>G</fnm>
                </au>
                <au>
                   <snm>Dughera</snm>
                   <fnm>G</fnm>
                </au>
                <au>
                   <snm>Ferrarese</snm>
                   <fnm>W</fnm>
                </au>
                <au>
                   <snm>Grassi</snm>
                   <fnm>N</fnm>
                </au>
                <au>
                   <snm>Lo Giudice</snm>
                   <fnm>A</fnm>
                </au>
                <au>
                   <snm>Lusso</snm>
                   <fnm>S</fnm>
                </au>
                <au>
                   <snm>Mereu</snm>
                   <fnm>P</fnm>
                </au>
                <au>
                   <snm>Mila</snm>
                   <fnm>G</fnm>
                </au>
                <au>
                   <snm>Nervo</snm>
                   <fnm>M</fnm>
                </au>
                <au>
                   <snm>Pastrone</snm>
                   <fnm>N</fnm>
                </au>
                <au>
                   <snm>Ricci</snm>
                   <fnm>C</fnm>
                </au>
                <au>
                   <snm>Sacchi</snm>
                   <fnm>R</fnm>
                </au>
                <au>
                   <snm>Visca</snm>
                   <fnm>L</fnm>
                </au>
                <au>
                   <snm>Zamprotta</snm>
                   <fnm>L</fnm>
                </au>
             </aug>
             <source>Il Progetto neu_ART. Studi e Applicazioni/Neutron and X-ray Tomography and Imaging for Cultural Heritage, Cronache 4</source>
             <publisher>Editris, Torino</publisher>
             <pubdate>2013</pubdate>
             <fpage>19</fpage>
             <lpage>42</lpage>
          </bibl>
          <bibl id="B17">
             <aug>
                <au>
                   <snm>Kak</snm>
                   <fnm>AC</fnm>
                </au>
                <au>
                   <snm>Slaney</snm>
                   <fnm>M</fnm>
                </au>
             </aug>
             <source>Principles of Computerized Tomographic Imaging</source>
             <publisher>IEEE Press, Piscataway, NJ, Edited by</publisher>
             <pubdate>1988</pubdate>
          </bibl>
          <bibl id="B18">
             <title>
                <p>
                   <b>Structural characters of Piedmontese eighteenth-century cabinetmaking: historical documents, restorations and new technologies. The Centro Conservazione e Restauro &#8216;La Venaria Reale&#8217;</b>
                </p>
             </title>
             <aug>
                <au>
                   <snm>De Blasi</snm>
                   <fnm>S</fnm>
                </au>
                <au>
                   <snm>Nervo</snm>
                   <fnm>M</fnm>
                </au>
                <au>
                   <snm>Ravera</snm>
                   <fnm>M</fnm>
                </au>
                <au>
                   <snm>Spantigati</snm>
                   <fnm>C</fnm>
                </au>
             </aug>
             <source>Restoring Joints, Conserving Structures. Proceedings of the Tenth International Symposium on Wood and Furniture Conservation</source>
             <publisher>Stichting Ebenist, Amsterdam</publisher>
             <editor>Vasques Dias M</editor>
             <pubdate>2010</pubdate>
             <fpage>98</fpage>
             <lpage>107</lpage>
          </bibl>
       </refgrp>
    </bm>
 </art>
