<art>
    <ui>s40494-014-0025-y</ui>
    <ji>2050-7445</ji>
    <fm>
       <dochead>Research article</dochead>
       <bibl>
          <title>
             <p>Spectroscopic techniques and the conservation of artists&#8217; acrylic emulsion paints</p>
          </title>
          <aug>
             <au id="A1" ca="yes">
                <snm>Willneff</snm>
                <mi>A</mi>
                <fnm>Elizabeth</fnm>
                <insr iid="I1"/>
                <email>e.a.willneff@leeds.ac.uk</email>
             </au>
             <au id="A2">
                <snm>Schroeder</snm>
                <mnm>LM</mnm>
                <fnm>Sven</fnm>
                <insr iid="I2"/>
                <email>s.l.m.schroeder@leeds.ac.uk</email>
             </au>
             <au id="A3">
                <snm>Ormsby</snm>
                <mi>A</mi>
                <fnm>Bronwyn</fnm>
                <insr iid="I3"/>
                <email>bronwyn.ormsby@tate.org.uk</email>
             </au>
          </aug>
          <insg>
             <ins id="I1">
                <p>School of Design, University of Leeds, Leeds LS2 9JT, UK</p>
             </ins>
             <ins id="I2">
                <p>School of Chemical and Process Engineering, University of Leeds, Leeds LS2 9JT, UK</p>
             </ins>
             <ins id="I3">
                <p>Tate, Millbank, London SW1P 4RG, UK</p>
             </ins>
          </insg>
          <source>Heritage Science</source>
          <issn>2050-7445</issn>
          <pubdate>2014</pubdate>
          <volume>2</volume>
          <issue>1</issue>
          <fpage>25</fpage>
          <url>http://www.heritagesciencejournal.com/content/2/1/25</url>
          <xrefbib>
             <pubidlist>
                <pubid idtype="doi">10.1186/s40494-014-0025-y</pubid>
             </pubidlist>
          </xrefbib>
       </bibl>
       <history>
          <rec>
             <date>
                <day>3</day>
                <month>6</month>
                <year>2014</year>
             </date>
          </rec>
          <acc>
             <date>
                <day>17</day>
                <month>10</month>
                <year>2014</year>
             </date>
          </acc>
          <pub>
             <date>
                <day>12</day>
                <month>11</month>
                <year>2014</year>
             </date>
          </pub>
       </history>
       <cpyrt>
          <year>2014</year>
          <collab>Willneff et al.; licensee Springer.</collab>
          <note>This is an Open Access article distributed under the terms of the Creative Commons Attribution License (<url>http://creativecommons.org/licenses/by/4.0</url>), which permits unrestricted use, distribution, and reproduction in any medium, provided the original work is properly credited.</note>
       </cpyrt>
       <kwdg>
          <kwd>Acrylic emulsion</kwd>
          <kwd>ATR-FTIR</kwd>
          <kwd>NEXAFS</kwd>
          <kwd>XPS</kwd>
          <kwd>Microemulsion</kwd>
          <kwd>Residues</kwd>
          <kwd>Pigment</kwd>
          <kwd>Surfactant</kwd>
          <kwd>Heritage Science</kwd>
          <kwd>Conservation</kwd>
       </kwdg>
       <abs>
          <sec>
             <st>
                <p>Abstract</p>
             </st>
             <sec>
                <st>
                   <p>Introduction</p>
                </st>
                <p>Artists&#8217; acrylic emulsion paints are used in many contexts such as paintings, murals, sculptures, works on paper and mixed media; and are forming increasing proportions of modern and contemporary art collections. Although acrylic emulsion paints have been the focus of museum-led research over the past decade, the impact of artists&#8217; technique and conservation treatment on the upper-most surface of these paints remains essentially unexplored.</p>
             </sec>
             <sec>
                <st>
                   <p>Results</p>
                </st>
                <p>This paper summarises previous studies using vibrational (FTIR) spectroscopy and presents initial assessments of paint surfaces using X-ray spectroscopies (XPS and NEXAFS) aimed at characterising artists&#8217; acrylic paint film surfaces after natural ageing and wet surface cleaning treatment. Both techniques were found to be well suited for surface-sensitive investigations of the organic materials associated with artists&#8217; acrylic paints, including explorations into: (A) cleaning system residues, (B) surfactant extraction from paint surfaces, (C) the identification of migrated surfactant, and (D) monitoring pigment changes at the paint/air interface of paint films.</p>
             </sec>
             <sec>
                <st>
                   <p>Conclusions</p>
                </st>
                <p>It has been shown is that these X-ray spectroscopic techniques can be used for the analysis of almost purely organic materials in a way that complements mass spectroscopic techniques, FTIR and XRF. This investigation forms part of broader, currently ongoing, multi-technique investigation into the properties of artists&#8217; acrylic paints and development of conservation treatments for works-of-art made with these materials.</p>
             </sec>
          </sec>
       </abs>
    </fm>
    <bdy>
       <sec>
          <st>
             <p>Background</p>
          </st>
          <sec>
             <st>
                <p>Modern paints</p>
             </st>
             <p>The complexities of twentieth century synthetic polymer-based paints such as those based on acrylic emulsion copolymers render them a challenging research topic. Paints created for the industrial, house and artists&#8217; paint markets include a wide range of pigments, binders, additives and diluents whose exact composition is proprietary. As a result, understanding the relationships between paint formulation and preservation issues is not particularly straightforward. Not only do formulations vary depending on their intended commercial market or application, but they also change in response to market demands influenced by improvements in technology as well as health and/or environmental legislation. As a consequence, changes are made to formulations on a regular basis.</p>
             <p>The historical development, properties and conservation-related concerns about the use of acrylic emulsion paints by artists have been published in detail elsewhere <abbrgrp>
                   <abbr bid="B1">1</abbr>
                </abbrgrp>-<abbrgrp>
                   <abbr bid="B4">4</abbr>
                </abbrgrp>. Briefly, the polymeric composition of artists&#8217; acrylic emulsion paints has evolved since their introduction to the market. The early formulations were based on a poly ethyl acrylate/methyl methactylate (pEA/MMA) copolymer and some Talens acrylic paints remain based on this <abbrgrp>
                   <abbr bid="B5">5</abbr>
                </abbrgrp>. In the 1980s, poly <it>n</it>-butyl methacrylate/methyl methacylate (p<it>n</it>BA/MMA) was widely substituted for pEA/MMA. In the late 2000s, a further change the base emulsion formulation took place with the incorporation of terpolymers and copolymers of 2-EHA by some artists&#8217; paint manufacturers <abbrgrp>
                   <abbr bid="B6">6</abbr>
                </abbrgrp>.</p>
             <p>Surfactants are added to these paints for several purposes. For example, they can act as pigment dispersants, defoamers and emulsion stabilisers <abbrgrp>
                   <abbr bid="B7">7</abbr>
                </abbrgrp>. As films mature polyethoxylate type (PEO) non-ionic surfactants (primarily used as emulsion stabilisers) have been shown to segregate to the paint film /air interface <abbrgrp>
                   <abbr bid="B7">7</abbr>
                </abbrgrp>. The extent of segregation depends on a number of factors including: paint brand (base emulsion type), sample substrate, paint film thickness, pigment type, artists&#8217; technique (including dilution and or additions of mediums and other materials), previous conservation treatments, display history (exposure to UV and visible light), environmental history (e.g. exposure to high temperatures), and humidity (particularly high relative humidity) <abbrgrp>
                   <abbr bid="B8">8</abbr>
                </abbrgrp>,<abbrgrp>
                   <abbr bid="B9">9</abbr>
                </abbrgrp>. Surfactant levels can also vary due to the pigment types used. It has been noted that cadmium pigmented passages are less likely to have migrated surfactant layers on the paint surface, which may be due to an acceleration of photo-oxidative degradation <abbrgrp>
                   <abbr bid="B10">10</abbr>
                </abbrgrp>.</p>
             <p>Acrylic emulsion paints respond differently to traditional (oil-based) paints with respect to optical properties (such as gloss), physical properties (such as flexibility and softness), ageing, environmental conditions and conservation treatments <abbrgrp>
                   <abbr bid="B2">2</abbr>
                </abbrgrp>. Acrylic and other modern and contemporary paintings can also be more vulnerable because they are often large, unframed, unglazed and fewer coatings/varnishes are used by artists and conservators for the protection of these works. Current conservation practice requires sensitivity to the paint surface and properties, an understanding of the artists&#8217; intention, awareness of the fact that these relatively young works of art may not yet have undergone conservation treatment, and that the removal/disturbance of original paint material should be minimised through the use of preventive conservation measures, appropriate conservation materials and minimal intervention where possible.</p>
          </sec>
          <sec>
             <st>
                <p>FTIR spectroscopy</p>
             </st>
             <p>The popularity of FTIR spectroscopy in conservation science lies in its convenience, relative affordability and long history as an analytical tool <abbrgrp>
                   <abbr bid="B11">11</abbr>
                </abbrgrp>. However, although some portable instruments have recently become available, most FTIR equipment requires removing samples from a work of art. Once acquired the samples can be reused, thereby rendering the technique &#8216;semi-destructive&#8217;. FTIR is suitable for bulk and surface analysis typically via transmission and ATR configurations, respectively. The surface sensitivity of ATR detection is on the order of micron(s).</p>
             <p>FTIR spectroscopy has played a vital role in the routine analysis (identification) and research on modern paints <abbrgrp>
                   <abbr bid="B12">12</abbr>
                </abbrgrp>. It has proven useful in understanding the chemistry of artists&#8217; acrylic emulsion paints for: identifying base polymer compositions; pigments and filler materials present in paints; evidence for migrated surfactant on various films; the impact of ageing and cleaning treatments on migrated surfactant; the conditions required for surfactant extraction and/or removal and in assessing the efficacy of soiling removal <abbrgrp>
                   <abbr bid="B13">13</abbr>
                </abbrgrp>. This has resulted in a significant body of information that has contributed to our understanding of the behaviour and potential vulnerability of acrylic paints. This in turn has led to the development and modification of lower-risk wet-cleaning systems for the removal of accumulated soiling from these paint films <abbrgrp>
                   <abbr bid="B4">4</abbr>
                </abbrgrp>,<abbrgrp>
                   <abbr bid="B7">7</abbr>
                </abbrgrp>,<abbrgrp>
                   <abbr bid="B11">11</abbr>
                </abbrgrp>,<abbrgrp>
                   <abbr bid="B14">14</abbr>
                </abbrgrp>,<abbrgrp>
                   <abbr bid="B15">15</abbr>
                </abbrgrp>.</p>
             <p>Two significant limitations of FTIR spectroscopy include the beam penetration depth and detection limits, which have thus far hindered the exploration the upper-most surfaces of these paint films. Characterising the more subtle changes in the surface of these paint films is essential, as this represents the most vulnerable portion of these paints, i.e., the interaction zone with the surrounding environment as well as being directly affected by conservation treatments.</p>
          </sec>
          <sec>
             <st>
                <p>XPS and NEXAFS</p>
             </st>
             <p>Both XPS (X-ray photoelectron spectroscopy) and NEXAFS (Near Edge X-Ray Absorption Fine Structure spectroscopy) have had much less application in Heritage Science than X-ray fluorescence (XRF), which is an X-ray spectroscopic tool particularly suitable for inorganic elemental analysis. In the context of modern and contemporary paint research, XPS and NEXAFS offer complementary benefits by broadening the scope of elemental analysis to include organic materials and by providing additional elemental chemical state information covering both the organic and inorganic regions of the periodic table. A summary of the typical sample requirements and analytical capabilities of the techniques is presented here and the reader is referred to excellent textbooks covering the techniques in detail <abbrgrp>
                   <abbr bid="B16">16</abbr>
                </abbrgrp>,<abbrgrp>
                   <abbr bid="B17">17</abbr>
                </abbrgrp>.</p>
             <p>Samples must typically be between 0.5 &#8211; 1&#160;cm in any direction and compatible with ultra-high vacuum (&lt;10<sup>&#8722;7</sup>&#160;mbar) although there are microfocusing or imaging systems that can accommodate smaller samples on the order of 100s of microns and instruments that permit higher pressures up to 10<sup>&#8722;4</sup>&#160;mbar. Apart from the possibility of slight local damage by the X-ray beam, the techniques are non-destructive to the bulk of the sample, enabling samples to be reused for further research.</p>
             <p>XPS provides elemental and chemical state (bonding) information by measuring subtle variations in the binding energy of a strongly bound core shell (as opposed to weakly bound valence shell) photoelectron ejected from an atom after absorption of an X-ray photon. The binding energy of the relevant core electrons is element specific, but differences in chemical bonding vary in the binding energy value by +/&#8722; 0.1&#160;eV to a few eV. These chemical shifts depend primarily on the charge of the element in question, which is determined by the number and electronegativity of the atoms it is bound to and by its oxidation state. In practice, low resolution spectra of all elements with atomic number Z&#8201;=&#8201;3-92 can be rapidly acquired via broadband survey spectra that are suitable for quantitative elemental analysis, but do not resolve all features associated with the chemical environment. For more detailed investigations of the chemical state, high resolution spectra are acquired. This makes XPS analysis suitable for a wide range of inorganic and organic materials.</p>
             <p>The elements accessible with NEXAFS are restricted by the X-ray photon energies available at monochromated synchrotron radiation source end-stations. The NEXAFS spectra occur in the vicinity of the core electron binding energies probed by XPS. All elements have at least one K or L absorption edge suitable for NEXAFS in the photon energy range between 200&#160;eV and 50,000&#160;eV. The photon energy range is conventionally divided into the &#8216;soft&#8217; and the &#8216;hard&#8217; X-ray range. Soft photon energies, below 2000&#160;eV, require the use of vacuum chambers and monochromatization technology based on gratings, while hard X-rays (energies above a few 1000&#160;eV) penetrate air and are obtained using double crystal monochromators. The transition energy range between 1000&#160;eV and 4000&#160;eV is sometimes referred to as the &#8216;tender&#8217; X-ray range.</p>
             <p>Acrylic paints contain mostly light elements, including C, N, O, Ca, and Na, which have their NEXAFS spectra in the soft X-ray range. X-ray absorption at higher X-ray energies probes heavier elements in the period table. The acronym XANES (X-ray Absorption Near Edge Structure) is often used instead of NEXAFS to describe the spectra for these elements. Moreover, at higher X-ray energies, the photoelectron interference patterns known as EXAFS (Extended X-ray Absorption fine Structure) can be used to obtain structural information such as bond lengths. XANES and EXAFS are increasingly used in cultural heritage research as well <abbrgrp>
                   <abbr bid="B18">18</abbr>
                </abbrgrp>.</p>
             <p>NEXAFS is particularly sensitive to the bonding environment (coordination and molecular bonds) of organic materials by exploiting significant differences in the spectral fingerprint of their pi vs. sigma orbitals. The benefit of NEXAFS for acrylic paints parallels those observed in other applications of polymer science/coatings, via using the carbon K edge absorption spectra as a surface sensitive probe for identifying organic materials based on the different bonding environments of their carbon atoms <abbrgrp>
                   <abbr bid="B17">17</abbr>
                </abbrgrp>,<abbrgrp>
                   <abbr bid="B19">19</abbr>
                </abbrgrp>,<abbrgrp>
                   <abbr bid="B20">20</abbr>
                </abbrgrp>. This is a useful diagnostic tool for distinguishing aliphatic, aromatic and carbonyl carbon species which are commonly found in the context of acrylic paints and also in some of the more advanced cleaning treatments being developed for these materials e.g. microemulsions, gels <abbrgrp>
                   <abbr bid="B4">4</abbr>
                </abbrgrp>.</p>
             <p>It is important to remind the reader that one spectroscopic method in isolation is unlikely to fully reveal the multifaceted properties of paints. As with other spectroscopies, NEXAFS and XPS should ideally be supported by a suite of analytical tools including mass spectrometry (ESI-MS, DESI-MS), microscopy (optical, SEM, AFM), and thermal analysis techniques (DSC, TGA, DMA).</p>
             <p>The results presented below are a subset of a broader ongoing investigation into the response of artists&#8217; acrylic paint films to wet-surface cleaning treatments used for the removal of accumulated soiling. To explore this, selected representative wet-cleaning systems, some established and some novel, were applied to prepared acrylic paint films from paints made by Golden Artist Colors and Talens (detailed elsewhere <abbrgrp>
                   <abbr bid="B13">13</abbr>
                </abbrgrp>). In some cases a commonly executed clearance step (using deionised water or a low aromatic content hydrocarbon solvent) was applied with the aim of removing system residues. In other cases the clearance step was omitted to explore instrumental detection limits. Several established and novel wet cleaning systems are under investigation. Here we discuss those based on: deionised water, a low aromatic content petroleum spirit (Shellsol D40), and a mineral spirits continuous phase water-in-oil microemulsion system containing a sodium (Na) sulfonate (LAS) anionic surfactant, which has been described in detail elsewhere <abbrgrp>
                   <abbr bid="B4">4</abbr>
                </abbrgrp>.</p>
          </sec>
       </sec>
       <sec>
          <st>
             <p>Results and discussion</p>
          </st>
          <p>As the bulk of the FTIR spectroscopy-based research exploring acrylic emulsion paint behaviour has been published <abbrgrp>
                <abbr bid="B7">7</abbr>
             </abbrgrp>,<abbrgrp>
                <abbr bid="B10">10</abbr>
             </abbrgrp>,<abbrgrp>
                <abbr bid="B11">11</abbr>
             </abbrgrp>, the next section focuses on information gained through the use of XPS and NEXAFS spectroscopies. Several aspects of ongoing research are highlighted including (a) residues from applied cleaning treatments, (b) surfactant extraction from the paint surface, (c) surfactant migration following natural ageing and, (d) response of pigment to cleaning treatments.</p>
          <sec>
             <st>
                <p>A. Exploring wet-cleaning system residues</p>
             </st>
             <p>Ideally, wet cleaning treatments used to remove accumulated grime and soiling will leave minimal residues on the cleaned surfaces of works of art. However, with some of the newer cleaning treatments developed recently, the extent to which residues remain on unvarnished paint surfaces is unknown. MS, FTIR, and fluorescence detection of labelled materials have been used to investigate residues from applied cleaning systems, particularly surfactant residues <abbrgrp>
                   <abbr bid="B21">21</abbr>
                </abbrgrp>.</p>
             <p>To explore the complementary benefits of XPS and NEXAFS at identifying surface residues, acrylic paint films were swabbed with different cleaning systems. XP survey spectra identified increased amounts of Na and sulfur (S) after swabbing with a microemulsion on an unsoiled paint film (without a subsequent clearance step). This was attributed to residues of LAS anionic surfactant in the microemulsion <abbrgrp>
                   <abbr bid="B13">13</abbr>
                </abbrgrp>. Additional evidence for residues was provided by the high resolution C (carbon) 1s XP spectra (Figure&#160;<figr fid="F1">1A</figr>). In contrast to the survey spectra which identified elemental differences in the paint films before and after these uncleared wet cleaning treatments, the C1s spectra identified differences in the chemical state of carbon which were representative of changes in the composition of organic material at the surface of the paint film (e.g. binder vs. surfactant). The peak at approx. 289&#160;eV associated with the C&#8201;=&#8201;O (carbonyl) groups of the acrylic resin almost disappeared after microemulsion swabbing, indicating that quantities of the LAS surfactant (which does not contain carbonyl groups) remained on the paint surface.
                  </p>
             
                <fig id="F1">
                   <title>
                      <p>Figure 1</p>
                   </title>
                   <caption>
                      <p>XPS and NEXAFS of Carbon Species in Cleaning System Residues. </p>
                   </caption>
                   <text>
                      <p>
                            <b>XPS and NEXAFS of Carbon Species in Cleaning System Residues.</b> C1s XP spectra <b>(A)</b> and C K-edge NEXAFS spectra <b>(B)</b> of Talens PY3 yellow paint film before (&#8216;as prepared&#8217;) and after (&#8216;microemulsion&#8217;) swabbing with a microemulsion containing LAS surfactant (no clearance step).</p>
                   </text>
                   <graphic file="s40494-014-0025-y-1"/>
                </fig>
             
             <p>The potential benefits of NEXAFS over XPS for identifying these residues were also explored. The C K-edge NEXAFS spectrum after swabbing with a microemulsion (uncleared) was easily distinguished from the untreated paint film (Figure&#160;<figr fid="F1">1B</figr>). This was possible because of the significantly different absorption energies for aromatic (~285&#160;eV) and carbonyl carbons (~289&#160;eV) associated with the LAS surfactant in the microemulsion, and the acrylic binder respectively. Likewise, the O (oxygen) K-edge NEXAFS spectra (Figure&#160;<figr fid="F2">2B</figr>) were also diagnostic for the presence of these residues via the carbonyl oxygen (~532&#160;eV) and singly bound oxygen (~540&#160;eV) of the acrylic binder and the sulfonate anionic headgroup of the surfactant. The corresponding differences in the O1s XP spectra before and after swabbing with the microemulsion were less distinct (Figure&#160;<figr fid="F2">2A</figr>). This relatively unspecific nature of O1s spectra is well known in the surface analysis community and stems from the fact that there are various reactive and/or strongly adsorbing oxygen-containing contaminants in the ambient environment, including O<sub>2</sub>, H<sub>2</sub>O, CO<sub>2</sub> (forming surface carbonates) as well as many biological molecules (e.g. fatty acids, polysaccharides). All of these can be superimposed on the O1s spectra of a sample.
                  </p>
             
                <fig id="F2">
                   <title>
                      <p>Figure 2</p>
                   </title>
                   <caption>
                      <p>XPS and NEXAFS of Oxygen Species in Cleaning System Residues. </p>
                   </caption>
                   <text>
                      <p>
                            <b>XPS and NEXAFS of Oxygen Species in Cleaning System Residues.</b> O1s XP spectra <b>(A)</b> and O K-edge NEXAFS spectra <b>(B)</b> of Talens PY3 yellow paint film before and after swabbing with a microemulsion containing LAS surfactant (no clearance step).</p>
                   </text>
                   <graphic file="s40494-014-0025-y-2"/>
                </fig>
             
             <p>In general, because of less surface sensitivity (and hence less influence of oxygen-containing contaminants) oxygen NEXAFS spectra offered a clearer distinction between the surfactant and binder than the O1s XPS, which highlights a possible benefit of the technique. However, this needs to be balanced against the ease of accessing a lab based (XPS) vs. an exclusively synchrotron based (NEXAFS) technique.</p>
          </sec>
          <sec>
             <st>
                <p>B. Surfactant extraction (from the paint film surface)</p>
             </st>
             <p>In addition to residues, the impact of wet cleaning treatments on additives in the bulk paint film has also been investigated. As an example, after aqueous (deionised water) swabbing for 20 swab rolls (one roll there/back) on an unsoiled Talens yellow (PY3) paint film, evidence for the earliest stages of surfactant extraction from the paint film surface (rather than removal of previously migrated surfactant from the paint surface) was visible in C1s XP spectra by an increase in the C-O ether contribution at approx. 286.5&#160;eV (<abbrgrp>
                   <abbr bid="B13">13</abbr>
                </abbrgrp>). This subtle change was mirrored in the NEXAFS spectra of carbon (Figure&#160;<figr fid="F3">3A</figr>) and oxygen (Figure&#160;<figr fid="F3">3B</figr>). The changes in both spectra are slight. However the spectra after water swabbing became more similar to the spectrum of pure surfactant. (Notably, these changes were not readily evident in corresponding ATR-FTIR spectra.) Significantly, both the carbon and oxygen NEXAFS spectra of Golden yellow, which is surfactant &#8216;lean&#8217; relative to the Talens paint film, were unchanged after water swabbing. Exposure of these paint films to neutral to basic solutions of low conductivity such as the DI water used here is known to promote swelling and hence the mobility of additives, such as surfactants <abbrgrp>
                   <abbr bid="B22">22</abbr>
                </abbrgrp>. This is an interesting finding as surfactant extraction from the upper surface of acrylic paint films has not yet been identified as occurring from swabbing action alone; thus far publications have focussed on identifying migrated surfactant on paint surfaces and/or extraction of bulk film surfactant through immersion in water and other solvents <abbrgrp>
                   <abbr bid="B7">7</abbr>
                </abbrgrp>,<abbrgrp>
                   <abbr bid="B23">23</abbr>
                </abbrgrp>. It is highly unlikely that the aqueous extraction of very minor amounts of surfactant from paint film surfaces would result in significant changes in paint properties <abbrgrp>
                   <abbr bid="B7">7</abbr>
                </abbrgrp>, particularly for aged paints. However this confirms that surfactants within acrylic paint films may be vulnerable to aqueous swabbing action. This provides further evidence that minimising the swelling potential of wet-cleaning systems is advisable where possible (through keeping liquids to a minimum and using cleaning systems tailored towards the low-swelling conditions described above).
                  </p>
             
                <fig id="F3">
                   <title>
                      <p>Figure 3</p>
                   </title>
                   <caption>
                      <p>NEXAFS and Surfactant Extraction. </p>
                   </caption>
                   <text>
                      <p>
                            <b>NEXAFS and Surfactant Extraction.</b> Carbon <b>(A)</b> and oxygen <b>(B)</b> NEXAFS spectra of a Talens PY3 yellow paint film after swabbing with water showed features similar to a reference spectrum of Triton&#8482; X-405 providing evidence for early stages of aqueous surfactant extraction from the bulk of the paint film. No change was visible on a Golden paint film.</p>
                   </text>
                   <graphic file="s40494-014-0025-y-3"/>
                </fig>
             
          </sec>
          <sec>
             <st>
                <p>C. Surfactant migration</p>
             </st>
             <p>As mentioned in the introduction, PEO type surfactants (e.g. Triton&#8482; X-405) are known to migrate to the paint film surface. Although migrated surfactant can be detected visually when present in significant quantities and chemically by FTIR and MS techniques, the impact on XPS and NEXAFS spectra is unknown. Where detailed surface chemical analysis of paint films is necessary, understanding the impact of migrated surfactant on these spectra is essential. With this in mind, XPS and NEXAFS analyses of a Talens PY3 yellow paint film after 2&#160;years of natural ageing, which was determined with ATR-FTIR spectroscopy to have significant quantities of migrated surfactant, were compared to those of recently prepared paint films without migrated surfactant. Differences between the two films were apparent in both the C1s (Figure&#160;<figr fid="F4">4A</figr>) and the O1s (Figure&#160;<figr fid="F4">4B</figr>) XP spectra. In the C1s XP spectrum, evidence for decreased acrylic binder content (conversely more migrated surfactant after ageing) was provided by the less intense C&#8201;=&#8201;O carbonyl peak at 289&#160;eV in the C1s XP spectrum, associated with the acrylic binder. Furthermore a -C-O- ether peak at approx. 286.5&#160;eV was greatly enhanced after ageing. Since ether groups are primary functional groups of the migrated PEO type surfactant, both of these features afforded a spectrum for the aged paint film which was similar to that of a PEO surfactant such as Triton&#8482; X-405. However the O1s spectrum of the aged sample was not as similar to that of the pure surfactant. Generally, in addition to the contamination issues mentioned above, O1s XP spectra respond less specifically to changes in chemical environment than the corresponding carbon XP spectra of polymeric systems and therefore oxygen spectra are used less often as diagnostic tools for assigning chemical species. This contrasts with the O K-edge NEXAFS spectra (discussed below) which were, because of less surface sensitivity (see above), more readily diagnostic for the presence of migrated surfactant.
                  </p>
             
                <fig id="F4">
                   <title>
                      <p>Figure 4</p>
                   </title>
                   <caption>
                      <p>XPS of Surfactant Migration. </p>
                   </caption>
                   <text>
                      <p>
                            <b>XPS of Surfactant Migration.</b> XP C1s <b>(A)</b> and O1s <b>(B)</b> spectra of Talens PY3 yellow films before (&#8216;as prepared&#8217;) and after (&#8216;aged&#8217;) two years of natural ageing in the dark under ambient conditions compared to a spectrum of Triton&#8482; X-405.</p>
                   </text>
                   <graphic file="s40494-014-0025-y-4"/>
                </fig>
             
             <p>Migrated surfactant also affected the NEXAFS spectra (Figure&#160;<figr fid="F5">5</figr>). Qualitatively the carbon NEXAFS spectra (Figure&#160;<figr fid="F5">5A</figr>) of the naturally aged paint film had more complex features, similar to the spectrum of Triton&#8482; X-405 surfactant, than the younger paint film. The intensity of the &#960;* transition associated with -C=C- or aromatic C-C bonds as well as of &#963;* transitions increased while the &#960;* -C=O transition shifted to higher photon energies. The corresponding oxygen NEXAFS spectra were less complex and made up of two primary contributions from single bound (&#963;*) and double bound (&#960;*) oxygen species at approx. 540 and 532&#160;eV respectively (Figure&#160;<figr fid="F5">5B</figr>). The spectrum of the naturally aged paint film was clearly more like that of a film of pure surfactant. A detailed analysis of these spectra is underway to understand the origins of these features. The qualitative interpretation of the spectra indicates for now that both of these techniques can be used to detect migrated surfactant and subsequent removal through treatment and/or environmental degradation. Work is underway to determine if it might be possible to identify migrated surfactant with XPS and/or NEXAFS before it can be readily identified with ATR-FTIR as appears to have been the case with the extracted surfactant following water swabbing (Figure&#160;<figr fid="F2">2</figr> and <abbrgrp>
                   <abbr bid="B13">13</abbr>
                </abbrgrp>).
                  </p>
             
                <fig id="F5">
                   <title>
                      <p>Figure 5</p>
                   </title>
                   <caption>
                      <p>NEXAFS of Migrated Surfactant. </p>
                   </caption>
                   <text>
                      <p>
                            <b>NEXAFS of Migrated Surfactant.</b> NEXAFS C <b>(A)</b> and O <b>(B)</b> K-edge spectra of Talens PY3 yellow films before (&#8216;as prepared&#8217;) and after (&#8216;aged&#8217;) two years of natural ageing in the dark under ambient conditions compared to a spectrum of Triton&#8482; X-405.</p>
                   </text>
                   <graphic file="s40494-014-0025-y-5"/>
                </fig>
             
          </sec>
          <sec>
             <st>
                <p>D. Pigment behaviour in response to cleaning treatment</p>
             </st>
             <p>One further aspect of paint film chemistry being investigated includes changes in pigment behaviour in response to wet cleaning treatments. Pigment loss (transfer of pigment to swabs/cleaning materials and/or solubility of pigments) during cleaning treatments is undesirable and cleaning treatments are designed to minimise this.</p>
             <p>Pigment loss has been observed as more likely with some pigments, and for some paint brands more than others for a given pigment. As part of this preliminary work, the utility of XPS and NEXAFS for identifying changes in surface (exposed) pigment levels was also explored. XP spectra of chlorine were used to monitor changes in PY3 surface pigment concentration after swabbing artificially soiled and unsoiled paint films with deionised water and petroleum spirits using 20 swab rolls (Figure&#160;<figr fid="F6">6</figr>). The Cl signals were virtually indistinguishable in all cases from the baseline except after swabbing an unsoiled Talens PY3 yellow paint film with petroleum spirits. In this case, the Cl signal increased significantly above the baseline indicating an increased pigment concentration (detection) at the surface of the paint film. This concurs with reports of increased pigment transfer on some paints during the use of cleaning treatments based on petroleum spirits <abbrgrp>
                   <abbr bid="B13">13</abbr>
                </abbrgrp>,<abbrgrp>
                   <abbr bid="B15">15</abbr>
                </abbrgrp>. Notably, however, the Cl signal after PS swabbing on the soiled Talens film did not increase. Here the soiling layer may have slowed down the transport of the solvent to the underlying paint film, presumably only until the greasy soil has been dissolved/penetrated.
                  </p>
             
                <fig id="F6">
                   <title>
                      <p>Figure 6</p>
                   </title>
                   <caption>
                      <p>XPS and Surface Pigment. </p>
                   </caption>
                   <text>
                      <p>
                            <b>XPS and Surface Pigment.</b> Relationship between Cl XP spectral intensity (an indicator for PY3 azo yellow pigment), soiling and paint brand after swabbing with water and petroleum spirits (PS).</p>
                   </text>
                   <graphic file="s40494-014-0025-y-6"/>
                </fig>
             
             <p>The NEXAFS N (nitrogen) K-edge spectra offer additional insight into the behaviour of the PY3 pigment (Figure&#160;<figr fid="F7">7</figr>). The spectrum of an unsoiled sample swabbed with petroleum spirits appears to be very similar to that of pure PY3 pigment. The control and water swabbed samples, on the other hand, were unlike the pigment but similar to each other. Interestingly, these differences were only observed at the most surface sensitive detector settings (&#8722;200&#160;V electron grid bias (EGB)); when acquiring spectra over a slightly greater depth from the surface (&#8722;50&#160;V EGB), all spectra (regardless of wet cleaning treatment type) were very similar and unlike pure pigment. This suggests that there may be a layer of unbound (or poorly bound) pigment localised to the very uppermost portion of the paint film after cleaning with the hydrocarbon solvent.
                  </p>
             
                <fig id="F7">
                   <title>
                      <p>Figure 7</p>
                   </title>
                   <caption>
                      <p>NEXAFS and Surface Pigment. </p>
                   </caption>
                   <text>
                      <p>
                            <b>NEXAFS and Surface Pigment.</b> NEXAFS N K-edge spectra of Talens PY3 yellow paint film after wet swabbing with water (W) and petroleum spirit (PS) collected at very high (&#8722;200&#160;V EGB) and high (&#8722;50&#160;V EGB) surface sensitivities in comparison to PY3 azo yellow pigment.</p>
                   </text>
                   <graphic file="s40494-014-0025-y-7"/>
                </fig>
             
             <p>The increased PY3 pigment mobility could have several origins. The solubility of pure PY3 pigment in petroleum spirits is not high and is therefore unlikely to be a major contributing factor. Although swelling data shows that these types of paints do not swell extensively in non-polar solvents <abbrgrp>
                   <abbr bid="B14">14</abbr>
                </abbrgrp>, the response of the uppermost paint surface to solvent exposure and mechanical action may result in pigment separation from the binder, which requires further exploration.</p>
          </sec>
       </sec>
       <sec>
          <st>
             <p>Conclusions</p>
          </st>
          <p>We have presented initial investigations of acrylic paint surfaces using two X-ray spectroscopic techniques that are hitherto not commonly used for examining organic materials in the context of heritage science. If samples are compatible with the measurement requirements (most notably ultra-high vacuum), XPS provides chemical state information for elements across the entire periodic table, while NEXAFS provides chemical and molecular bonding information for elements with absorption K or L edges between 200 &#8211; 1200&#160;eV i.e. in the soft X-ray range. Both techniques were found to be well suited for surface-sensitive investigations of the organic materials associated with artists&#8217; acrylic paints, including explorations into: (A) cleaning system residues, (B) surfactant extraction from paint surfaces, (C) the identification of migrated surfactant, and (D) monitoring pigment changes at the paint/air interface of paint films. At this early stage it is not possible to identify direct implications for applied conservation practice other than reiterating the need to keep solvent exposure to a minimum during surface cleaning treatment. It has been shown that these soft X-ray spectroscopic techniques can be used for the analysis of almost purely organic materials, paints in this case but also plastics and related materials, being investigated in the context of cultural heritage in a way that complements mass spectroscopic techniques, FTIR and XRF. This investigation forms part of broader, currently ongoing, multi-technique investigation into the properties of artists&#8217; acrylic paints and development of conservation treatments for works-of-art made with these materials.</p>
       </sec>
       <sec>
          <st>
             <p>Experimental</p>
          </st>
          <p>The method of paint film preparation, application of artificial soiling, and wet cleaning treatments used to prepare the samples as well as details of the experimental techniques have previously been published <abbrgrp>
                <abbr bid="B13">13</abbr>
             </abbrgrp> and are summarised here.</p>
          <sec>
             <st>
                <p>Paint film preparation</p>
             </st>
             <p>Artists paints, Golden Heavy Body Acrylics Hansa Yellow Light and Talens Rembrandt Azo Yellow Lemon, both containing PY3 azo yellow organic synthetic pigment, were applied to a triple primed canvas with a draw-down technique on a Sheen Instruments film caster, to a wet thickness of approximately 800&#160;&#956;m and dry thickness of 200 &#8211; 250&#160;&#956;m, as measured with a digital caliper. The resin for the Golden paint was a p<it>n</it>(BA/MMA copolymer while the resin for the Talens paint was a p(EA/MMA copolymer with detectable amounts of a chalk (CaCO<sub>3</sub>) extender.</p>
             <p>Samples discussed here underwent simulated cleaning treatments with the following wet cleaning agents. The water (W) was deionized (DI) (Purite, D700 deionizer). A 100% aliphatic petroleum spirit (PS) (VWR International) with a boiling point of 120 &#8211; 160&#176;C was used as received. The novel Dow microemulsion (ME) was a water-in-oil microemulsion comprised of proportions of lauryl ammonium sulphate (LAS), low molecular weight alcohol&#8211;based cosolvents, a Shellsol D38 mineral spirits solvent continuous phase and deionized water <abbrgrp>
                   <abbr bid="B4">4</abbr>
                </abbrgrp> To assess cleaning efficacy, an artificial soiling mixture <abbrgrp>
                   <abbr bid="B15">15</abbr>
                </abbrgrp> approximating typical indoor particulate soiling which might accumulate passively over many years was brushed onto some samples (referred to as &#8216;soiled&#8217;) and allowed to dry before cleaning treatments.</p>
             <p>Each cleaning agent was applied to an approximately 1&#160;cm<sup>2</sup> square area of the paint film by dipping a pre-rolled cotton swab into the solution once, and then rolling the swab back and forth (1 roll) across the paint film 20 times without application of a subsequent clearance step (which would be standard conservation practice) and dried in ambient conditions. Samples for spectroscopic analysis were prepared using a single hole punch, resulting in circular disks with a diameter of 6&#160;mm.</p>
             <p>To obtain reference spectra (labelled &#8216;surfactant&#8217;) of the type of PEO surfactant often found in these types of paints <abbrgrp>
                   <abbr bid="B7">7</abbr>
                </abbrgrp>, films of dried surfactant on paint films were prepared for the NEXAFS and XPS measurements by brushing aqueous solutions (50% v/v) of Triton&#8482; X-405 (70&#160;wt% in water, Aldrich) onto an unsoiled Talens PY3 yellow paint film and the triple primed canvas respectively. The films were allowed to dry under ambient conditions.</p>
          </sec>
          <sec>
             <st>
                <p>X-ray Photoelectron Spectroscopy (XPS)</p>
             </st>
             <p>XP spectra were collected from samples mounted on double sided adhesive tape with a Kratos Axis Ultra spectrometer operating with a monochromatic Al K&#945; X-ray anode (1486.69&#160;eV) at 180 watts (15&#160;kV, 12&#160;mA), a hemispherical analyser in electrostatic mode (p &lt;10<sup>&#8722;7</sup>&#160;mbar) and charge neutralisation. Survey XP spectra were acquired in a single sweep with a pass energy of 80&#160;eV, in steps of 0.35&#160;eV and dwell time of 150&#160;ms, giving collection times of approx. 9&#160;min per spectrum. High resolution XP spectra were acquired in a single sweep with a pass energy of 20&#160;eV, in steps of 0.1&#160;eV with a dwell time of 200&#160;ms, giving a collection time of 1&#160;min per spectrum. Data analysis was carried out with CasaXPS. Binding energies were referenced to a primary hydrocarbon peak set to 285.0&#160;eV, which required a correction of approximately +3 &#8211; 3.5&#160;eV to the experimental data. XP spectra acquired of chlorine present at low concentration were noisy and smoothed for better clarity.</p>
          </sec>
          <sec>
             <st>
                <p>Near-edge X-ray Absorption Fine Structure (NEXAFS)</p>
             </st>
             <p>NEXAFS measurements were performed at the U7a beamline of the National Synchrotron Light Source (NSLS) at Brookhaven National Laboratory, NY <abbrgrp>
                   <abbr bid="B24">24</abbr>
                </abbrgrp>. Spectra were collected in partial electron yield (PEY) mode via a channeltron electron multiplier. The entrance grid bias (EGB), which permits tuning of the surface selectivity of the spectra, was &#8722;50&#160;V for all spectra except for several spectra in Figure&#160;<figr fid="F7">7</figr> acquired at &#8722;200&#160;V (more surface selective). The monochromator grating had 600&#160;l/mm at the C and 1200&#160;l/mm at the O K-edges respectively. The energy scale was calibrated at the C K-edge by setting the first maximum in the spectrum of the amorphous carbon grid to 285.1&#160;eV. At the N K-edge the first maximum of the TiN reference spectrum was set to 400.6&#160;eV while at the O edge the I<sub>0</sub> first minimum was aligned to 531.2&#160;eV. Spectra were normalised in intensity via the Autobk subroutine in Athena <abbrgrp>
                   <abbr bid="B25">25</abbr>
                </abbrgrp>.</p>
          </sec>
       </sec>
       <sec>
          <st>
             <p>Abbreviations</p>
          </st>
          <p>ATR-FTIR: Attenuated Total Reflection-Fourier Transform Infrared (spectroscopy)</p>
          <p>AFM: Atomic Force Microscopy</p>
          <p>EGB: Entrance grid bias</p>
          <p>LAS: Linear alkyl sulfonate</p>
          <p>ME: Microemulsion</p>
          <p>NEXAFS: Near-Edge X-ray Absorption Fine Structure</p>
          <p>PEO: Polyethoxylate</p>
          <p>PEY: Partial electron yield</p>
          <p>PS: Petroleum spirit</p>
          <p>UHV: Ultra-high vacuum</p>
          <p>XPS: X-ray Photoelectron Spectroscopy</p>
       </sec>
       <sec>
          <st>
             <p>Competing interests</p>
          </st>
          <p>The authors declare that they have no competing interests.</p>
       </sec>
       <sec>
          <st>
             <p>Authors&#8217; contributions</p>
          </st>
          <p>BAO developed the intellectual background to the work which is summarized in the introduction and presented in previous publications and also presented the conference paper on which this article is based. EAW and SLMS carried out XPS measurements. SLMS carried out NEXAFS measurements. EAW performed the analyses with advice on interpretation provided by SLMS and BAO. All authors conceived of this study applying X-ray spectroscopies, participated in its design and coordination, and drafted the manuscript.</p>
       </sec>
    </bdy>
    <bm>
       <ack>
          <sec>
             <st>
                <p>Acknowledgements</p>
             </st>
             <p>EAW thanks the AHRC/EPSRC Science and Heritage Programme for funding her Postdoctoral Research Fellowship. We are grateful for support in NEXAFS measurements by Dr Cherno Jaye and Dr Daniel Fischer (NSLS), as well as Dr Joanna Stevens and Mr Adrian Gainar (University of Manchester). Use of the National Synchrotron Light Source, Brookhaven National Laboratory, was supported by the U.S. Department of Energy, Office of Science, Office of Basic Energy Sciences, under Contract No. DE-AC02-98CH10886.</p>
          </sec>
       </ack>
       <refgrp>
          
          <bibl id="B1">
             <source>The Impact of Modern Paints</source>
             <publisher>Tate Gallery, London</publisher>
             <pubdate>2000</pubdate>
          </bibl>
          <bibl id="B2">
             <title>
                <p>Conservation concerns for acrylic emulsion paints: a literature review</p>
             </title>
             <aug>
                <au>
                   <snm>Jablonski</snm>
                   <fnm>E</fnm>
                </au>
                <au>
                   <snm>Learner</snm>
                   <fnm>T</fnm>
                </au>
                <au>
                   <snm>Hayes</snm>
                   <fnm>J</fnm>
                </au>
                <au>
                   <snm>Golden</snm>
                   <fnm>M</fnm>
                </au>
             </aug>
             <source>Rev Conserv</source>
             <pubdate>2003</pubdate>
             <volume>4</volume>
             <fpage>1</fpage>
             <lpage>13</lpage>
          </bibl>
          <bibl id="B3">
             <source>Modern Paints Uncovered: Proc. from Modern Paints Uncovered Symposium</source>
             <publisher>Getty Conservation Institute, Los Angeles</publisher>
             <pubdate>2007</pubdate>
          </bibl>
          <bibl id="B4">
             <title>
                <p>Art and industry: novel approaches to the evaluation and development of cleaning systems for artists&#8217; acrylic latex paints</p>
             </title>
             <aug>
                <au>
                   <snm>Keefe</snm>
                   <fnm>BM</fnm>
                </au>
                <au>
                   <snm>Ormsby</snm>
                   <fnm>B</fnm>
                </au>
                <au>
                   <snm>Soldano</snm>
                   <fnm>A</fnm>
                </au>
                <au>
                   <snm>Phenix</snm>
                   <fnm>A</fnm>
                </au>
                <au>
                   <snm>Learner</snm>
                   <fnm>T</fnm>
                </au>
                <au>
                   <snm>Tucker</snm>
                   <fnm>C</fnm>
                </au>
                <au>
                   <snm>Behr</snm>
                   <fnm>A</fnm>
                </au>
                <au>
                   <snm>Meyers</snm>
                   <fnm>G</fnm>
                </au>
                <au>
                   <snm>Rheinhardt</snm>
                   <fnm>C</fnm>
                </au>
                <au>
                   <snm>Boomgaard</snm>
                   <fnm>T</fnm>
                </au>
                <au>
                   <snm>Peitsch</snm>
                   <fnm>C</fnm>
                </au>
             </aug>
             <source>CoatingsTech</source>
             <pubdate>2011</pubdate>
             <volume>8</volume>
             <issue>9</issue>
             <fpage>30</fpage>
             <lpage>43</lpage>
          </bibl>
          <bibl id="B5">
             <title>
                <p>Wet cleaning acrylic emulsion paint films: an evaluation of physical, chemical, and optical changes</p>
             </title>
             <aug>
                <au>
                   <snm>Ormsby</snm>
                   <fnm>BA</fnm>
                </au>
                <au>
                   <snm>Learner</snm>
                   <fnm>TJS</fnm>
                </au>
                <au>
                   <snm>Foster</snm>
                   <fnm>GM</fnm>
                </au>
                <au>
                   <snm>Druzik</snm>
                   <fnm>JR</fnm>
                </au>
                <au>
                   <snm>Schilling</snm>
                   <fnm>MR</fnm>
                </au>
             </aug>
             <source>Modern Paints Uncovered: Proceedings from Modern Paints Uncovered Symposium</source>
             <publisher>Getty Conservation Institute, Los Angeles</publisher>
             <editor>Learner TJS, Smithen P, Krueger JW, Schilling MR</editor>
             <pubdate>2007</pubdate>
             <fpage>187</fpage>
             <lpage>198</lpage>
          </bibl>
          <bibl id="B6">
             <title>
                <p>Preliminary investigations into two new acrylic emulsion paint formulations: W&amp;N artists&#8217; acrylic colours and golden open acrylics</p>
             </title>
             <aug>
                <au>
                   <snm>Ormsby</snm>
                   <fnm>B</fnm>
                </au>
                <au>
                   <snm>Hodgkins</snm>
                   <fnm>R</fnm>
                </au>
                <au>
                   <snm>von Aderkas</snm>
                   <fnm>N</fnm>
                </au>
             </aug>
             <source>e-Preservation Sci</source>
             <pubdate>2012</pubdate>
             <volume>9</volume>
             <fpage>9</fpage>
             <lpage>16</lpage>
          </bibl>
          <bibl id="B7">
             <title>
                <p>The effects of wet surface cleaning treatments on acrylic emulsion artists&#8217; paints &#8211; a review of recent scientific research</p>
             </title>
             <aug>
                <au>
                   <snm>Ormsby</snm>
                   <fnm>B</fnm>
                </au>
                <au>
                   <snm>Learner</snm>
                   <fnm>T</fnm>
                </au>
             </aug>
             <source>Rev Conserv</source>
             <pubdate>2009</pubdate>
             <volume>10</volume>
             <fpage>29</fpage>
             <lpage>41</lpage>
          </bibl>
          <bibl id="B8">
             <title>
                <p>Surfactants and acrylic dispersion paints: evaluating changes induced by wet surface cleaning treatments</p>
             </title>
             <aug>
                <au>
                   <snm>Ormsby</snm>
                   <fnm>B</fnm>
                </au>
                <au>
                   <snm>Kampasakali</snm>
                   <fnm>E</fnm>
                </au>
                <au>
                   <snm>Learner</snm>
                   <fnm>T</fnm>
                </au>
             </aug>
             <source>New insights into the Cleaning of Paintings: Proc from Cleaning 2010 Int Conf Univ Polit&#233;cnica Valencia and Museum Conserv Institute</source>
             <publisher>Smithsonian Institution Scholarly Press, Washington, DC</publisher>
             <editor>Mecklenburg MF, Charola AE, Koestler RJ</editor>
             <pubdate>2013</pubdate>
             <fpage>159</fpage>
             <lpage>164</lpage>
          </bibl>
          <bibl id="B9">
             <title>
                <p>The effects of surface cleaning on acrylic emulsion paintings&#8212;a preliminary investigation</p>
             </title>
             <aug>
                <au>
                   <snm>Ormsby</snm>
                   <fnm>B</fnm>
                </au>
                <au>
                   <snm>Learner</snm>
                   <fnm>T</fnm>
                </au>
                <au>
                   <snm>Schilling</snm>
                   <fnm>M</fnm>
                </au>
                <au>
                   <snm>Druzik</snm>
                   <fnm>J</fnm>
                </au>
                <au>
                   <snm>Khanjian</snm>
                   <fnm>H</fnm>
                </au>
                <au>
                   <snm>Carson</snm>
                   <fnm>D</fnm>
                </au>
                <au>
                   <snm>Foster</snm>
                   <fnm>G</fnm>
                </au>
                <au>
                   <snm>Sloan</snm>
                   <fnm>M</fnm>
                </au>
             </aug>
             <source>Oberflachenreinigung</source>
             <pubdate>2006</pubdate>
             <volume>2</volume>
             <fpage>7</fpage>
             <lpage>2</lpage>
          </bibl>
          <bibl id="B10">
             <title>
                <p>A scientific evaluation of surface cleaning acrylic emulsion paintings</p>
             </title>
             <aug>
                <au>
                   <snm>Ormsby</snm>
                   <fnm>B</fnm>
                </au>
                <au>
                   <snm>Smithen</snm>
                   <fnm>P</fnm>
                </au>
                <au>
                   <snm>Hoogland</snm>
                   <fnm>F</fnm>
                </au>
                <au>
                   <snm>Miliani</snm>
                   <fnm>C</fnm>
                </au>
                <au>
                   <snm>Learner</snm>
                   <fnm>T</fnm>
                </au>
             </aug>
             <source>Preprints ICOM-CC 15th Trienn Conf New Delhi</source>
             <pubdate>2008</pubdate>
             <fpage>865</fpage>
             <lpage>873</lpage>
          </bibl>
          <bibl id="B11">
             <title>
                <p>An FTIR-based exploration of the effects of wet cleaning treatments on artists&#8217; acrylic emulsion paint films</p>
             </title>
             <aug>
                <au>
                   <snm>Ormsby</snm>
                   <fnm>BA</fnm>
                </au>
                <au>
                   <snm>Kampasakali</snm>
                   <fnm>E</fnm>
                </au>
                <au>
                   <snm>Miliani</snm>
                   <fnm>C</fnm>
                </au>
                <au>
                   <snm>Learner</snm>
                   <fnm>T</fnm>
                </au>
             </aug>
             <source>e-Preservation Sci</source>
             <pubdate>2009</pubdate>
             <volume>6</volume>
             <fpage>186</fpage>
             <lpage>195</lpage>
          </bibl>
          <bibl id="B12">
             <aug>
                <au>
                   <snm>Learner</snm>
                   <fnm>TJS</fnm>
                </au>
             </aug>
             <source>Analysis of Modern Paints</source>
             <publisher>Getty Conservation Institute, Los Angeles</publisher>
             <pubdate>2005</pubdate>
          </bibl>
          <bibl id="B13">
             <note>Willneff EA, Ormsby BA, Stevens JS, Jaye C, Fischer DA, Schroeder SLM: <b>Conservation of artists&#8217; acrylic emulsion paints: XPS, NEXAFS and ATR-FTIR studies of wet cleaning methods.</b> 
                <it>Surf Interface Anal</it> 2014, doi:10.1002/sia.5376.</note>
          </bibl>
          <bibl id="B14">
             <title>
                <p>A preliminary study into the swelling behavior of artists&#8217; acrylic emulsion paint films</p>
             </title>
             <aug>
                <au>
                   <snm>Kampasakali</snm>
                   <fnm>E</fnm>
                </au>
                <au>
                   <snm>Ormsby</snm>
                   <fnm>B</fnm>
                </au>
                <au>
                   <snm>Phenix</snm>
                   <fnm>A</fnm>
                </au>
                <au>
                   <snm>Schilling</snm>
                   <fnm>M</fnm>
                </au>
                <au>
                   <snm>Learner</snm>
                   <fnm>T</fnm>
                </au>
             </aug>
             <source>Preprints ICOM-CC 16th Trienn Conf Lisbon</source>
             <pubdate>2011</pubdate>
             <fpage>1</fpage>
             <lpage>8</lpage>
          </bibl>
          <bibl id="B15">
             <title>
                <p>An empirical evaluation of a range of cleaning agents for removing dirt from artists&#8217; acrylic emulsion paints</p>
             </title>
             <aug>
                <au>
                   <snm>Ormsby</snm>
                   <fnm>BA</fnm>
                </au>
                <au>
                   <snm>Soldano</snm>
                   <fnm>A</fnm>
                </au>
                <au>
                   <snm>Keefe</snm>
                   <fnm>MH</fnm>
                </au>
                <au>
                   <snm>Phenix</snm>
                   <fnm>A</fnm>
                </au>
                <au>
                   <snm>Learner</snm>
                   <fnm>T</fnm>
                </au>
             </aug>
             <source>AIC Paint Spec Gr Postprints</source>
             <pubdate>2010</pubdate>
             <volume>23</volume>
             <fpage>77</fpage>
             <lpage>87</lpage>
          </bibl>
          <bibl id="B16">
             <source>Practical Surface Analysis: Auger and X-Ray Photoelectron Spectroscopy</source>
             <publisher>Wiley, New York</publisher>
             <edition>2</edition>
             <pubdate>1997</pubdate>
          </bibl>
          <bibl id="B17">
             <aug>
                <au>
                   <snm>Stohr</snm>
                   <fnm>J</fnm>
                </au>
             </aug>
             <source>NEXAFS Spectroscopy</source>
             <publisher>Springer, New York</publisher>
             <pubdate>1992</pubdate>
          </bibl>
          <bibl id="B18">
             <title>
                <p>Synchrotron-based X-Ray absorption spectroscopy for art conservation: looking back and looking forward</p>
             </title>
             <aug>
                <au>
                   <snm>Cotte</snm>
                   <fnm>M</fnm>
                </au>
                <au>
                   <snm>Susini</snm>
                   <fnm>J</fnm>
                </au>
                <au>
                   <snm>Dik</snm>
                   <fnm>J</fnm>
                </au>
                <au>
                   <snm>Janssens</snm>
                   <fnm>K</fnm>
                </au>
             </aug>
             <source>Acc Chem Res</source>
             <pubdate>2010</pubdate>
             <volume>43</volume>
             <fpage>705</fpage>
             <lpage>714</lpage>
             <xrefbib>
                <pubidlist>
                   <pubid idtype="doi">10.1021/ar900199m</pubid>
                </pubidlist>
             </xrefbib>
          </bibl>
          <bibl id="B19">
             <title>
                <p>NEXAFS spectroscopy and microscopy of natural and synthetic polymers</p>
             </title>
             <aug>
                <au>
                   <snm>Ade</snm>
                   <fnm>H</fnm>
                </au>
                <au>
                   <snm>Urquhart</snm>
                   <fnm>SG</fnm>
                </au>
             </aug>
             <source>Chemical Applications of Synchrotron Radiation</source>
             <publisher>World Scientific Publishing, Singapore</publisher>
             <editor>Sham TK</editor>
             <pubdate>2002</pubdate>
             <fpage>285</fpage>
             <lpage>355</lpage>
             <xrefbib>
                <pubidlist>
                   <pubid idtype="doi">10.1142/9789812775757_0006</pubid>
                </pubidlist>
             </xrefbib>
          </bibl>
          <bibl id="B20">
             <title>
                <p>Trends in the Carbonyl Core (C 1S, O 1S)&#8201;&#8594;&#8201;&#960;*C&#8201;=&#8201;0 transition in the near-edge X-ray absorption fine structure spectra of organic molecules</p>
             </title>
             <aug>
                <au>
                   <snm>Urquhart</snm>
                   <fnm>SG</fnm>
                </au>
                <au>
                   <snm>Ade</snm>
                   <fnm>H</fnm>
                </au>
             </aug>
             <source>J Phys Chem B</source>
             <pubdate>2002</pubdate>
             <volume>106</volume>
             <fpage>8531</fpage>
             <lpage>8538</lpage>
             <xrefbib>
                <pubidlist>
                   <pubid idtype="doi">10.1021/jp0255379</pubid>
                </pubidlist>
             </xrefbib>
          </bibl>
          <bibl id="B21">
             <aug>
                <au>
                   <snm>Stulik</snm>
                   <fnm>D</fnm>
                </au>
                <au>
                   <snm>Miller</snm>
                   <fnm>D</fnm>
                </au>
                <au>
                   <snm>Khanjian</snm>
                   <fnm>H</fnm>
                </au>
                <au>
                   <snm>Khandekar</snm>
                   <fnm>N</fnm>
                </au>
                <au>
                   <snm>Wolbers</snm>
                   <fnm>R</fnm>
                </au>
                <au>
                   <snm>Carlson</snm>
                   <fnm>J</fnm>
                </au>
                <au>
                   <snm>Petersen</snm>
                   <fnm>WC</fnm>
                </au>
             </aug>
             <source>Solvent Gels for the Cleaning of Works of Art: The Residue Question</source>
             <publisher>Getty Conservation Institute, Los Angeles</publisher>
             <pubdate>2004</pubdate>
          </bibl>
          <bibl id="B22">
             <title>
                <p>Acrylic emulsion paints: preliminary extractive studies with two commercial paint systems</p>
             </title>
             <aug>
                <au>
                   <snm>Wolbers</snm>
                   <fnm>RC</fnm>
                </au>
                <au>
                   <snm>Norbutus</snm>
                   <fnm>A</fnm>
                </au>
                <au>
                   <snm>Lagalante</snm>
                   <fnm>AF</fnm>
                </au>
             </aug>
             <source>New insights into the Cleaning of Paintings: Proc from Cleaning 2010 Int Conf Univ Polit&#233;cnica Valencia and Museum Conserv Institute</source>
             <publisher>Smithsonian Institution Scholarly Press, Washington, DC</publisher>
             <editor>Mecklenburg MF, Charola AE, Koestler RJ</editor>
             <pubdate>2013</pubdate>
             <fpage>147</fpage>
             <lpage>157</lpage>
          </bibl>
          <bibl id="B23">
             <title>
                <p>Acrylic emulsion paint films: the effect of solution pH, conductivity, and ionic strength on film swelling and surfactant removal</p>
             </title>
             <aug>
                <au>
                   <snm>Dillon</snm>
                   <fnm>CE</fnm>
                </au>
                <au>
                   <snm>Lagalante</snm>
                   <fnm>AF</fnm>
                </au>
                <au>
                   <snm>Wolbers</snm>
                   <fnm>RC</fnm>
                </au>
             </aug>
             <source>Stud Conserv</source>
             <pubdate>2014</pubdate>
             <volume>59</volume>
             <fpage>59</fpage>
             <lpage>62</lpage>
          </bibl>
          <bibl id="B24">
             
                <url>http://beamlines.ps.bnl.gov/beamline.aspx?blid=U7A</url>
             
<note>
                <b>For detailed information about the NIST/Dow Soft XRay Materials Characterization Facility at the NSLS BNL</b> []</note>
          </bibl>
          <bibl id="B25">
             <title>
                <p>ATHENA, ARTEMIS, HEPHAESTUS: data analysis for X-ray absorption spectroscopy using IFEFFIT</p>
             </title>
             <aug>
                <au>
                   <snm>Ravel</snm>
                   <fnm>B</fnm>
                </au>
                <au>
                   <snm>Newville</snm>
                   <fnm>M</fnm>
                </au>
             </aug>
             <source>J Synchrotron Radiat</source>
             <pubdate>2005</pubdate>
             <volume>12</volume>
             <issue>Pt 4</issue>
             <fpage>537</fpage>
             <lpage>541</lpage>
             <xrefbib>
                <pubidlist>
                   <pubid idtype="doi">10.1107/S0909049505012719</pubid>
                </pubidlist>
             </xrefbib>
          </bibl>
       </refgrp>
    </bm>
 </art>
