<art>
    <ui>s40490-014-0023-6</ui>
    <ji>1179-5395</ji>
    <fm>
       <dochead>Research article</dochead>
       <bibl>
          <title>
             <p>Aerial spot treatment using an oil carrier to apply ester based herbicides for control of <it>Pinus contorta</it> and <it>P. nigra</it> in New Zealand</p>
          </title>
          <aug>
             <au id="A1">
                <snm>Gous</snm>
                <fnm>Stefan</fnm>
                <insr iid="I1"/>
                <email>stefan.gous@scionresearch.com</email>
             </au>
             <au id="A2">
                <snm>Raal</snm>
                <fnm>Peter</fnm>
                <insr iid="I2"/>
                <email>praal@doc.govt.nz</email>
             </au>
             <au id="A3" ca="yes">
                <snm>Watt</snm>
                <mi>S</mi>
                <fnm>Michael</fnm>
                <insr iid="I3"/>
                <email>michael.watt@scionresearch.com</email>
             </au>
          </aug>
          <insg>
             <ins id="I1">
                <p>Scion, Private Bag 3020, Rotorua, New Zealand</p>
             </ins>
             <ins id="I2">
                <p>Department of Conservation, Otago Conservancy, Dunedin, New Zealand</p>
             </ins>
             <ins id="I3">
                <p>Scion, Christchurch, New Zealand</p>
             </ins>
          </insg>
          <source>New Zealand Journal of Forestry Science</source>
          <issn>1179-5395</issn>
          <pubdate>2014</pubdate>
          <volume>44</volume>
          <issue>1</issue>
          <fpage>23</fpage>
          <url>http://www.nzjforestryscience.com/content/44/1/23</url>
          <xrefbib>
             <pubidlist>
                <pubid idtype="doi">10.1186/s40490-014-0023-6</pubid>
                <pubid idtype="pmpid"><!-- Need to check source for data--></pubid>
             </pubidlist>
          </xrefbib>
       </bibl>
       <history>
          <rec>
             <date>
                <day>4</day>
                <month>4</month>
                <year>2014</year>
             </date>
          </rec>
          <acc>
             <date>
                <day>11</day>
                <month>9</month>
                <year>2014</year>
             </date>
          </acc>
          <pub>
             <date>
                <day>9</day>
                <month>10</month>
                <year>2014</year>
             </date>
          </pub>
       </history>
       <cpyrt>
          <year>2014</year>
          <collab>Gous et al.; licensee Springer.</collab>
          <note>This is an Open Access article distributed under the terms of the Creative Commons Attribution License (<url>http://creativecommons.org/licenses/by/4.0</url>), which permits unrestricted use, distribution, and reproduction in any medium, provided the original work is properly credited.</note>
       </cpyrt>
       <kwdg>
          <kwd>Wilding conifers</kwd>
          <kwd>Aerial spot spraying</kwd>
          <kwd>Herbicides</kwd>
       </kwdg>
       <abs>
          <sec>
             <st>
                <p>Abstract</p>
             </st>
             <sec>
                <st>
                   <p>Background</p>
                </st>
                <p>Invasive wilding conifer species are a major threat to biological conservation in New Zealand. Scattered individual plants are particularly problematic as these are very costly to treat and once they reach reproductive maturity can act as point sources for further invasion. A novel method is described in this paper that delivers a precise dose of oil-based herbicide mixtures into the tree crown via a hand held lance using a helicopter as a platform. Using this method the objective of this research was to test the efficacy of six triclopyr based herbicides in an oil carrier, on isolated naturally occurring <it>Pinus contorta</it> (Dougl.) and <it>P. nigra</it> subsp. <it>laricio</it> (Poir.) Maire.</p>
             </sec>
             <sec>
                <st>
                   <p>Methods</p>
                </st>
                <p>For each species and treatment combination treated trees covered a wide range of heights, ranging from <it>ca</it>. 0.5 to 16&#160;m. Measurements of mortality taken 24&#160;months post herbicide application were used to examine variation in efficacy of these herbicides, where successful treatment was defined by a mortality rate of 85% or higher. Logistic regression models were fitted for each species and from these models we determined the threshold tree height at which 85% mortality occurred, <it>H</it>
                   <sub>85</sub>.</p>
             </sec>
             <sec>
                <st>
                   <p>Results</p>
                </st>
                <p>For both species treatment efficacy significantly (<it>P</it>&#8201;&#8804;&#8201;0.05) declined as tree height increased. The two most effective treatments for both species were a 500&#160;mL dose that included 60&#160;g triclopyr in oil with addition of 1% alkylsilicone surfactant (20&#160;G OM 500&#160;mL) and a 1 litre dose that included 120&#160;g triclopyr and 20&#160;g picloram in oil (10G T20). Values of <it>H</it>
                   <sub>85</sub> for 10G 20T and 20&#160;G OM 500&#160;mL were, respectively, 7.7&#160;m and 8.0&#160;m for <it>P. contorta</it> and 7.1&#160;m and 6.8&#160;m for <it>P. nigra</it>.</p>
             </sec>
             <sec>
                <st>
                   <p>Conclusion</p>
                </st>
                <p>Spot application of triclopyr based herbicides, in an oil carrier, onto the tree crown was found to be an effective means of controlling two of the most vigorous New Zealand wilding conifer species.</p>
             </sec>
          </sec>
       </abs>
    </fm>
    <bdy>
       <sec>
          <st>
             <p>1
 						Background</p>
          </st>
          <p>Exotic conifer species were planted mainly for erosion control during the late 1880s (Ledgard <abbrgrp>
                <abbr bid="B5">2001</abbr>
             </abbrgrp>) throughout New Zealand. Most of these conifers are primary colonisers and have naturally regenerated from these plantings. Since then, these conifers, known as wildings, have spread extensively, and the total area in which wilding conifers occur in the South Island of New Zealand is estimated to be in excess of 500,000&#160;ha (Raal and Gous <abbrgrp>
                <abbr bid="B8">2010</abbr>
             </abbrgrp>). The spread of these conifer species into a wide variety of habitats in New Zealand would result in a significant loss of natural landscape value and biodiversity if the trees were to become fully established throughout their potential distribution ranges (Raal and Gous <abbrgrp>
                <abbr bid="B8">2010</abbr>
             </abbrgrp>). <it>Pinus contorta</it> (Dougl.), the most invasive wilding conifer within New Zealand, constitutes two thirds of wilding pines on land administered by the Department of Conservation (DOC) (Ledgard <abbrgrp>
                <abbr bid="B5">2001</abbr>
             </abbrgrp>).</p>
          <p>Scattered individual wilding conifers, are particularly problematic as the greater flying time required to reach them makes them more expensive to control than dense infestations. If not killed, these isolated wilding conifers can provide a point source for further invasion when they reach reproductive maturity. Consequently, control of isolated outlier trees is an essential element of any management plan that aims to slow the dispersal of wilding conifers (Ledgard <abbrgrp>
                <abbr bid="B5">2001</abbr>
             </abbrgrp>). Despite this, there are few cost-effective chemical methods described in the literature for controlling sparsely distributed wilding conifers (Ray and Davenhill <abbrgrp>
                <abbr bid="B10">1991</abbr>
             </abbrgrp>). Current operational methods to control sparse and scattered wildings rely mainly on felling by chainsaw (Ledgard <abbrgrp>
                <abbr bid="B6">2009</abbr>
             </abbrgrp>). Due to the isolation and remoteness of these wilding conifers, a chainsaw operator has to be flown to each tree to cut it down. This method, operationally known as skid-hopping, is costly, dangerous and time consuming (P. Willemse, DOC, Twizel, 2011, pers. comm.).</p>
          <p>A novel method is described in this paper that delivers a precise dose of oil-based herbicide mixtures to the tree crown via a hand-held lance using a helicopter as a platform. The carrier oil greatly enhances spread, penetration and uptake of the herbicide through the bark into the plant. This enhanced uptake allows the herbicide to be applied during periods when the wildings are not actively growing, which extends the time period over which conifers can be treated.</p>
          <p>Using this method, the efficacy of six triclopyr-based herbicides in oil were tested on naturally occurring <it>P. contorta</it> and <it>P. nigra</it> subsp. <it>laricio</it> (Poir.) Maire wildings. The efficacy of the treatments, 24&#160;months following application, is described.</p>
       </sec>
       <sec>
          <st>
             <p>2
 						Methods</p>
          </st>
          <sec>
             <st>
                <p>2.1 Trial locations</p>
             </st>
             <p>Due to the dispersed distribution of <it>P. contorta</it> and <it>P. nigra</it> wildings, the trial area within which the treatments were applied needed to be large (landscape level). The trial on <it>P. contorta</it> was conducted on Mackenzie District Council land, 5&#160;km north of Twizel (latitude: 44&#176; 12&#8217; 36&#8221; longitude 170&#176; 08&#8217; 10&#8221;, elevation 500&#160;m&#160;a.s.l.). Mean annual air temperature for this site is 8.9&#176;C and mean total annual rainfall is 627&#160;mm&#160;year<sup>-1</sup> (CliFlo: <url>http://cliflo.niwa.co.nz</url>, retrieved 4-April-2014). Seasonal water deficits regularly occur at this site as a result of the lower precipitation, high evapotranspiration level and low soil moisture storage.</p>
             <p>The trial on <it>P. nigra</it> was conducted on Braemar Station land near Mt Cook (latitude: 43&#176; 50&#8217; 52&#8221; longitude 170&#176; 11&#8217; 36&#8221;, elevation 700&#160;m a.s.l). Mean annual air temperature for this site is 8.4&#176;C and mean total annual rainfall is 1,790&#160;mm&#160;year<sup>-1</sup> (CliFlo: <url>http://cliflo.niwa.co.nz</url>, retrieved 4-April-2014).</p>
             <p>Both sites are characteristic of well-drained areas that support fescue tussock in a thick layer of free draining Pleistocene fluvioglacial outwash gravels overlying Tertiary sediments. Prevailing winds are from the north-west.</p>
          </sec>
          <sec>
             <st>
                <p>2.2 Treatments and application</p>
             </st>
             <p>In total, six herbicide treatments and a control (parafinnic oil alone) were tested (Table&#160;<tblr tid="T1">1</tblr>). The six herbicide treatments were based on the systemic pyridine herbicide, triclopyr butoxyethyl ester and included two rates of triclopyr (60&#160;g or 120&#160;g triclopyr). Picloram (20&#160;g) was added to one treatment (Table&#160;<tblr tid="T1">1</tblr>). The trade names of the herbicides used were Grazon and Tordon (Dow AgroSciences, Indianapolis, USA).</p>
             
                <table id="T1">
                   <title>
                      <p>Table 1</p>
                   </title>
                   <caption>
                      <p>
                         <b>Herbicides, carriers, active ingredients and application volumes used for both trials to control</b>
                         <b>
                            <it>P. contorta</it>
                         </b>
                         <b>and</b>
                         <b>
                            <it>P. nigra</it>
                         </b>
                         <b>by means of aerial spot application into the tree crowns</b>
                      </p>
                   </caption>
                   <tgroup align="left" cols="5">
                      <colspec align="left" colname="c1" colnum="1" colwidth="*"/>
                      <colspec align="left" colname="c2" colnum="2" colwidth="*"/>
                      <colspec align="left" colname="c3" colnum="3" colwidth="*"/>
                      <colspec align="left" colname="c4" colnum="4" colwidth="*"/>
                      <colspec align="left" colname="c5" colnum="5" colwidth="*"/>
                      <thead>
                         <row valign="top">
                            <entry colname="c1">
                               <p>
                                  <b>Treatment</b>
                               </p>
                            </entry>
                            <entry colname="c2">
                               <p>
                                  <b>Herbicide</b>
                               </p>
                            </entry>
                            <entry colname="c3">
                               <p>
                                  <b>Carrier</b>
                               </p>
                            </entry>
                            <entry colname="c4">
                               <p>
                                  <b>Active ingredient tree</b>
                                  <sup>
                                     <b>-1</b>
                                  </sup>
                               </p>
                            </entry>
                            <entry colname="c5">
                               <p>
                                  <b>Volume tree</b>
                                  <sup>
                                     <b>-1</b>
                                  </sup>
                                  <b>(mL)</b>
                               </p>
                            </entry>
                         </row>
                      </thead>
                      <tbody>
                         <row valign="top">
                            <entry colname="c1">
                               <p>Para. oil</p>
                            </entry>
                            <entry colname="c2"/>
                            <entry colname="c3">
                               <p>100% Paraffinic (Para.) oil</p>
                            </entry>
                            <entry colname="c4"/>
                            <entry colname="c5">
                               <p>1000</p>
                            </entry>
                         </row>
                         <row valign="top">
                            <entry colname="c1">
                               <p>10&#160;G</p>
                            </entry>
                            <entry colname="c2">
                               <p>10% Grazon</p>
                            </entry>
                            <entry colname="c3">
                               <p>90% Para. oil</p>
                            </entry>
                            <entry colname="c4">
                               <p>60&#160;g Triclopyr</p>
                            </entry>
                            <entry colname="c5">
                               <p>1000</p>
                            </entry>
                         </row>
                         <row valign="top">
                            <entry colname="c1" morerows="1">
                               <p>10&#160;G 20&#160;T</p>
                            </entry>
                            <entry colname="c2" morerows="1">
                               <p>10% Grazon&#8201;+&#8201;20% Tordon</p>
                            </entry>
                            <entry colname="c3" morerows="1">
                               <p>70% Para. oil</p>
                            </entry>
                            <entry colname="c4">
                               <p>120&#160;g Triclopyr</p>
                            </entry>
                            <entry colname="c5" morerows="1">
                               <p>1000</p>
                            </entry>
                         </row>
                         <row valign="top">
                            <entry colname="c4">
                               <p>20&#160;g Picloram</p>
                            </entry>
                         </row>
                         <row valign="top">
                            <entry colname="c1">
                               <p>20&#160;G</p>
                            </entry>
                            <entry colname="c2">
                               <p>20% Grazon</p>
                            </entry>
                            <entry colname="c3">
                               <p>80% Para. oil</p>
                            </entry>
                            <entry colname="c4">
                               <p>120&#160;g Triclopyr</p>
                            </entry>
                            <entry colname="c5">
                               <p>1000</p>
                            </entry>
                         </row>
                         <row valign="top">
                            <entry colname="c1">
                               <p>20&#160;G GO</p>
                            </entry>
                            <entry colname="c2">
                               <p>20% Grazon</p>
                            </entry>
                            <entry colname="c3">
                               <p>80% Genera oil</p>
                            </entry>
                            <entry colname="c4">
                               <p>120&#160;g Triclopyr</p>
                            </entry>
                            <entry colname="c5">
                               <p>1000</p>
                            </entry>
                         </row>
                         <row valign="top">
                            <entry colname="c1">
                               <p>20&#160;G OM 1 litre</p>
                            </entry>
                            <entry colname="c2">
                               <p>20% Grazon</p>
                            </entry>
                            <entry colname="c3">
                               <p>79% Para. oil&#8201;+&#8201;1% Oil mate</p>
                            </entry>
                            <entry colname="c4">
                               <p>120 gTriclopyr</p>
                            </entry>
                            <entry colname="c5">
                               <p>1000</p>
                            </entry>
                         </row>
                         <row valign="top">
                            <entry colname="c1">
                               <p>20&#160;G OM 500&#160;mL</p>
                            </entry>
                            <entry colname="c2">
                               <p>20% Grazon</p>
                            </entry>
                            <entry colname="c3">
                               <p>79% Para. oil&#8201;+&#8201;1% Oil mate</p>
                            </entry>
                            <entry colname="c4">
                               <p>60&#160;g Triclopyr</p>
                            </entry>
                            <entry colname="c5">
                               <p>500</p>
                            </entry>
                         </row>
                      </tbody>
                   </tgroup>
                </table>
             
             <p>The treatments included 10G, 10G 20T and 20G which comprised, respectively, 60&#160;g triclopyr, 120&#160;g triclopyr plus 20&#160;g picloram and 120&#160;g triclopyr, applied in a total volume of 1,000&#160;mL to the tree. The treatment 20G GO was identical to 20G apart from the use of the carrier oil Genera (Total Oil Asia-Pacific, Singapore) rather than paraffinic oil. The treatment 20G OM 1 litre included 120&#160;g triclopyr in a total spray volume of 1,000&#160;mL while the treatment 20G OM 500&#160;mL comprised 60&#160;g triclopyr in a spray volume of 500&#160;mL. The alkylsilicone surfactant Oil Mate was added to both of these treatments and constituted 1% of the total spray volume (Table&#160;<tblr tid="T1">1</tblr>). The treatment with the 500&#160;mL dosage was included to examine the sensitivity of both wilding species to spray application volume.</p>
             <p>Experimental units consisted of individual trees. The number of trees per herbicide treatment ranged from 40&#8201;&#8722;&#8201;50 for <it>P. contorta</it> and 25&#8201;&#8722;&#8201;41 for <it>P. nigra</it>. The height range of these trees are summarised by species and treatment in Table&#160;<tblr tid="T2">2</tblr>.</p>
             
                <table id="T2">
                   <title>
                      <p>Table 2</p>
                   </title>
                   <caption>
                      <p>
                         <b>Summary of the number and height of trees selected for each treatment by species</b>
                      </p>
                   </caption>
                   <tgroup align="left" cols="5">
                      <colspec align="left" colname="c1" colnum="1" colwidth="*"/>
                      <colspec align="left" colname="c2" colnum="2" colwidth="*"/>
                      <colspec align="left" colname="c3" colnum="3" colwidth="*"/>
                      <colspec align="left" colname="c4" colnum="4" colwidth="*"/>
                      <colspec align="left" colname="c5" colnum="5" colwidth="*"/>
                      <thead>
                         <row valign="top">
                            <entry colname="c1" morerows="1">
                               <p>
                                  <b>Treatment</b>
                               </p>
                            </entry>
                            <entry nameend="c5" namest="c2" rowsep="1">
                               <p>
                                  <b>Tree number and height</b>
                               </p>
                            </entry>
                         </row>
                         <row valign="top">
                            <entry colname="c2">
                               <p>
                                  <b>Freq. (no.)</b>
                               </p>
                            </entry>
                            <entry colname="c3">
                               <p>
                                  <b>Min. (m)</b>
                               </p>
                            </entry>
                            <entry colname="c4">
                               <p>
                                  <b>Mean (m)</b>
                               </p>
                            </entry>
                            <entry colname="c5">
                               <p>
                                  <b>Max (m)</b>
                               </p>
                            </entry>
                         </row>
                      </thead>
                      <tbody>
                         <row valign="top">
                            <entry colname="c1">
                               <p>
                                  <it>Pinus contorta</it>
                               </p>
                            </entry>
                            <entry colname="c2"/>
                            <entry colname="c3"/>
                            <entry colname="c4"/>
                            <entry colname="c5"/>
                         </row>
                         <row valign="top">
                            <entry colname="c1">
                               <p>Paraffinic oil</p>
                            </entry>
                            <entry colname="c2">
                               <p>50</p>
                            </entry>
                            <entry colname="c3">
                               <p>1.5</p>
                            </entry>
                            <entry colname="c4">
                               <p>5.6</p>
                            </entry>
                            <entry colname="c5">
                               <p>15</p>
                            </entry>
                         </row>
                         <row valign="top">
                            <entry colname="c1">
                               <p>10&#160;G</p>
                            </entry>
                            <entry colname="c2">
                               <p>50</p>
                            </entry>
                            <entry colname="c3">
                               <p>2.0</p>
                            </entry>
                            <entry colname="c4">
                               <p>6.7</p>
                            </entry>
                            <entry colname="c5">
                               <p>16</p>
                            </entry>
                         </row>
                         <row valign="top">
                            <entry colname="c1">
                               <p>10&#160;G 20&#160;T</p>
                            </entry>
                            <entry colname="c2">
                               <p>50</p>
                            </entry>
                            <entry colname="c3">
                               <p>0.5</p>
                            </entry>
                            <entry colname="c4">
                               <p>7.9</p>
                            </entry>
                            <entry colname="c5">
                               <p>15</p>
                            </entry>
                         </row>
                         <row valign="top">
                            <entry colname="c1">
                               <p>20&#160;G</p>
                            </entry>
                            <entry colname="c2">
                               <p>50</p>
                            </entry>
                            <entry colname="c3">
                               <p>1.5</p>
                            </entry>
                            <entry colname="c4">
                               <p>4.5</p>
                            </entry>
                            <entry colname="c5">
                               <p>11</p>
                            </entry>
                         </row>
                         <row valign="top">
                            <entry colname="c1">
                               <p>20&#160;G GO</p>
                            </entry>
                            <entry colname="c2">
                               <p>50</p>
                            </entry>
                            <entry colname="c3">
                               <p>3.0</p>
                            </entry>
                            <entry colname="c4">
                               <p>6.5</p>
                            </entry>
                            <entry colname="c5">
                               <p>11</p>
                            </entry>
                         </row>
                         <row valign="top">
                            <entry colname="c1">
                               <p>20&#160;G OM 1 litre</p>
                            </entry>
                            <entry colname="c2">
                               <p>47</p>
                            </entry>
                            <entry colname="c3">
                               <p>4.0</p>
                            </entry>
                            <entry colname="c4">
                               <p>5.8</p>
                            </entry>
                            <entry colname="c5">
                               <p>14</p>
                            </entry>
                         </row>
                         <row valign="top">
                            <entry colname="c1">
                               <p>20&#160;G OM 500&#160;mL</p>
                            </entry>
                            <entry colname="c2">
                               <p>40</p>
                            </entry>
                            <entry colname="c3">
                               <p>3.0</p>
                            </entry>
                            <entry colname="c4">
                               <p>8.0</p>
                            </entry>
                            <entry colname="c5">
                               <p>16</p>
                            </entry>
                         </row>
                         <row valign="top">
                            <entry colname="c1">
                               <p>
                                  <it>Pinus nigra</it>
                               </p>
                            </entry>
                            <entry colname="c2"/>
                            <entry colname="c3"/>
                            <entry colname="c4"/>
                            <entry colname="c5"/>
                         </row>
                         <row valign="top">
                            <entry colname="c1">
                               <p>Paraffinic oil</p>
                            </entry>
                            <entry colname="c2">
                               <p>40</p>
                            </entry>
                            <entry colname="c3">
                               <p>2.0</p>
                            </entry>
                            <entry colname="c4">
                               <p>4.5</p>
                            </entry>
                            <entry colname="c5">
                               <p>13</p>
                            </entry>
                         </row>
                         <row valign="top">
                            <entry colname="c1">
                               <p>10&#160;G</p>
                            </entry>
                            <entry colname="c2">
                               <p>25</p>
                            </entry>
                            <entry colname="c3">
                               <p>2.0</p>
                            </entry>
                            <entry colname="c4">
                               <p>5.0</p>
                            </entry>
                            <entry colname="c5">
                               <p>15</p>
                            </entry>
                         </row>
                         <row valign="top">
                            <entry colname="c1">
                               <p>10&#160;G 20&#160;T</p>
                            </entry>
                            <entry colname="c2">
                               <p>41</p>
                            </entry>
                            <entry colname="c3">
                               <p>1.5</p>
                            </entry>
                            <entry colname="c4">
                               <p>5.2</p>
                            </entry>
                            <entry colname="c5">
                               <p>10</p>
                            </entry>
                         </row>
                         <row valign="top">
                            <entry colname="c1">
                               <p>20&#160;G</p>
                            </entry>
                            <entry colname="c2">
                               <p>25</p>
                            </entry>
                            <entry colname="c3">
                               <p>1.0</p>
                            </entry>
                            <entry colname="c4">
                               <p>4.3</p>
                            </entry>
                            <entry colname="c5">
                               <p>12</p>
                            </entry>
                         </row>
                         <row valign="top">
                            <entry colname="c1">
                               <p>20&#160;G GO</p>
                            </entry>
                            <entry colname="c2">
                               <p>25</p>
                            </entry>
                            <entry colname="c3">
                               <p>5.0</p>
                            </entry>
                            <entry colname="c4">
                               <p>9.5</p>
                            </entry>
                            <entry colname="c5">
                               <p>14</p>
                            </entry>
                         </row>
                         <row valign="top">
                            <entry colname="c1">
                               <p>20&#160;G OM 1 litre</p>
                            </entry>
                            <entry colname="c2">
                               <p>25</p>
                            </entry>
                            <entry colname="c3">
                               <p>4.0</p>
                            </entry>
                            <entry colname="c4">
                               <p>8.9</p>
                            </entry>
                            <entry colname="c5">
                               <p>15</p>
                            </entry>
                         </row>
                         <row valign="top">
                            <entry colname="c1">
                               <p>20&#160;G OM 500&#160;mL</p>
                            </entry>
                            <entry colname="c2">
                               <p>25</p>
                            </entry>
                            <entry colname="c3">
                               <p>6.0</p>
                            </entry>
                            <entry colname="c4">
                               <p>10.4</p>
                            </entry>
                            <entry colname="c5">
                               <p>14</p>
                            </entry>
                         </row>
                      </tbody>
                   </tgroup>
                </table>
             
             <p>Herbicide treatments were applied using a custom-built, hand-operated spot gun, developed by Scion and DOC. The platform from which the herbicides were applied was a MD 520&#160;N NOTAR helicopter. The spot-gun applicator was calibrated to deliver the required application volume per tree (Table&#160;<tblr tid="T1">1</tblr>). Herbicides were applied to the tree crown from an average distance of 4&#160;m. Treatments were applied in December 2010.</p>
          </sec>
          <sec>
             <st>
                <p>2.3 Damage assessments</p>
             </st>
             <p>Tree mortality was recorded 24&#160;months following the treatment as the percentage of live foliage in increments of 10%. Each tree was visually assessed from the ground by dividing it into three sections from top to bottom and sections were scored individually, then averaged to obtain a whole-tree score. A tree with no damage was given a score of 100% and a dead tree received a score of 0% (no live foliage). A treatment was considered to be effective when a mortality rate of over 85% was reached.</p>
          </sec>
          <sec>
             <st>
                <p>2.4 Analysis</p>
             </st>
             <p>All analyses were undertaken using SAS software (SAS-Institute-Inc. <abbrgrp>
                   <abbr bid="B11">2008</abbr>
                </abbrgrp>). As the treated trees were randomly dispersed within each trial area, analyses were undertaken at the tree level. The main and interactive effects of treatment and tree height on mortality were examined for each species using a logistic model. In this model, treatment was included as a class level variable while wilding height was included as a continuous covariate for which the significance of linear and polynomial terms were tested. A test of model fit was undertaken using the Hosmer-Lemeshow test with high <it>P</it> values signifying good correspondence between predicted and measured mortality.</p>
             <p>Using parameter values extracted from the final two models, dose-response functions for each treatment were generated by plotting predicted mortality against tree height. The two models were used to derive threshold heights for each treatment&#8201;&#215;&#8201;species combination below which mortality was predicted to be greater than the threshold value of 85% (<it>H</it>
                <sub>85</sub>) using the following procedure.</p>
             <p>If the logistic regression model relating mean percentage of dead trees <it>Y</it> to tree height <it>H</it> is:</p><p><display-formula id="M1">
                   <m:math xmlns:m="http://www.w3.org/1998/Math/MathML" name="s40490-014-0023-6-i1">
                      <m:mi>Y</m:mi>
                      <m:mo>=</m:mo>
                      <m:mspace width="0.25em"/>
                      <m:mn>100</m:mn>
                      <m:mo>&#215;</m:mo>
                      <m:mi mathvariant="italic">exp</m:mi>
                      <m:mfenced close=")" open="(">
                         <m:mrow>
                            <m:mi>a</m:mi>
                            <m:mo>+</m:mo>
                            <m:mi>b</m:mi>
                            <m:mo>&#215;</m:mo>
                            <m:mi>H</m:mi>
                         </m:mrow>
                      </m:mfenced>
                      <m:mo stretchy="true">/</m:mo>
                      <m:mfenced close=")" open="(">
                         <m:mrow>
                            <m:mn>1</m:mn>
                            <m:mo>+</m:mo>
                            <m:mi mathvariant="italic">exp</m:mi>
                            <m:mfenced close=")" open="(">
                               <m:mrow>
                                  <m:mi>a</m:mi>
                                  <m:mo>+</m:mo>
                                  <m:mi>b</m:mi>
                                  <m:mo>&#215;</m:mo>
                                  <m:mi>H</m:mi>
                               </m:mrow>
                            </m:mfenced>
                         </m:mrow>
                      </m:mfenced>
                   </m:math>
                </display-formula></p><p>then, the height <it>H</it>
                <sub>85</sub> when mortality is predicted to be 85% is:</p><p><display-formula id="M2">
                   <m:math xmlns:m="http://www.w3.org/1998/Math/MathML" name="s40490-014-0023-6-i2">
                      <m:msub>
                         <m:mi>H</m:mi>
                         <m:mn>85</m:mn>
                      </m:msub>
                      <m:mo>=</m:mo>
                      <m:mspace width="0.25em"/>
                      <m:mfenced close=")" open="(">
                         <m:mrow>
                            <m:mi>L</m:mi>
                            <m:mo>&#8722;</m:mo>
                            <m:mi>a</m:mi>
                         </m:mrow>
                      </m:mfenced>
                      <m:mo stretchy="true">/</m:mo>
                      <m:mi>b</m:mi>
                   </m:math>
                </display-formula></p><p>where <it>L</it> is the logit of 85%, i.e.,</p><p><display-formula id="M3">
                   <m:math xmlns:m="http://www.w3.org/1998/Math/MathML" name="s40490-014-0023-6-i3">
                      <m:mi>L</m:mi>
                      <m:mo>=</m:mo>
                      <m:mi mathvariant="italic">ln</m:mi>
                      <m:mfenced close=")" open="(">
                         <m:mrow>
                            <m:mn>85</m:mn>
                            <m:mo stretchy="true">/</m:mo>
                            <m:mn>100</m:mn>
                         </m:mrow>
                      </m:mfenced>
                      <m:mo>&#8722;</m:mo>
                      <m:mi mathvariant="italic">ln</m:mi>
                      <m:mfenced close=")" open="(">
                         <m:mrow>
                            <m:mn>1</m:mn>
                            <m:mo>&#8722;</m:mo>
                            <m:mn>85</m:mn>
                            <m:mo stretchy="true">/</m:mo>
                            <m:mn>100</m:mn>
                         </m:mrow>
                      </m:mfenced>
                      <m:mspace width="0.25em"/>
                      <m:mo>=</m:mo>
                      <m:mspace width="0.25em"/>
                      <m:mn>1.74</m:mn>
                   </m:math>
                </display-formula></p><p>
             </p>
          </sec>
       </sec>
       <sec>
          <st>
             <p>3
 						Results</p>
          </st>
          <p>For both species, the main effects of height and treatment had a highly significant influence (<it>P</it>&#8201;&lt;&#8201;0.001) on mortality, but the interaction was not significant (<it>P</it>&#8201;&gt;&#8201;0.05) (Table&#160;<tblr tid="T3">3</tblr>). Both models of mortality fitted the data well with values for the Hosmer Lemeshow statistic significantly exceeding <it>P</it>&#8201;=&#8201;0.05 for both <it>P. contorta</it> (<it>P</it>&#8201;=&#8201;0.19) and <it>P. nigra</it> (<it>P</it>&#8201;=&#8201;0.92). Parameter values for both models are shown in Table&#160;<tblr tid="T4">4</tblr>.</p>
          
             <table id="T3">
                <title>
                   <p>Table 3</p>
                </title>
                <caption>
                   <p>
                      <b>Influence of the main and interactive effects of treatment and height on mortality</b>
                   </p>
                </caption>
                <tgroup align="left" cols="3">
                   <colspec align="left" colname="c1" colnum="1" colwidth="*"/>
                   <colspec align="left" colname="c2" colnum="2" colwidth="*"/>
                   <colspec align="left" colname="c3" colnum="3" colwidth="*"/>
                   <thead>
                      <row valign="top">
                         <entry colname="c1">
                            <p>
                               <b>Term</b>
                            </p>
                         </entry>
                         <entry colname="c2">
                            <p>
                               <b>
                                  <it>P. contorta</it>
                               </b>
                            </p>
                         </entry>
                         <entry colname="c3">
                            <p>
                               <b>
                                  <it>P. nigra</it>
                               </b>
                            </p>
                         </entry>
                      </row>
                   </thead>
                   <tfoot>
                      <p>Shown for both species are the <it>F</it>-values followed by the <it>P</it> category with the asterisks ***denoting significance at <it>P</it>&#8201;=&#8201;0.0001 and <sup>ns</sup>indicating no significance at <it>P</it>&#8201;=&#8201;0.05.</p>
                   </tfoot>
                   <tbody>
                      <row valign="top">
                         <entry colname="c1">
                            <p>Treatment (T)</p>
                         </entry>
                         <entry colname="c2">
                            <p>64.2***</p>
                         </entry>
                         <entry colname="c3">
                            <p>36.1***</p>
                         </entry>
                      </row>
                      <row valign="top">
                         <entry colname="c1">
                            <p>Tree height (<it>H</it>)</p>
                         </entry>
                         <entry colname="c2">
                            <p>77.8***</p>
                         </entry>
                         <entry colname="c3">
                            <p>30.4***</p>
                         </entry>
                      </row>
                      <row valign="top">
                         <entry colname="c1">
                            <p>
                               <it>T</it> x <it>H</it>
                            </p>
                         </entry>
                         <entry colname="c2">
                            <p>3.7<sup>ns</sup>
                            </p>
                         </entry>
                         <entry colname="c3">
                            <p>2.7<sup>ns</sup>
                            </p>
                         </entry>
                      </row>
                   </tbody>
                </tgroup>
             </table>
          
          
             <table id="T4">
                <title>
                   <p>Table 4</p>
                </title>
                <caption>
                   <p>
                      <b>Model parameters and predictions from the logistic model of mortality</b>
                   </p>
                </caption>
                <tgroup align="left" cols="3">
                   <colspec align="left" colname="c1" colnum="1" colwidth="*"/>
                   <colspec align="left" colname="c2" colnum="2" colwidth="*"/>
                   <colspec align="left" colname="c3" colnum="3" colwidth="*"/>
                   <thead>
                      <row valign="top">
                         <entry colname="c1">
                            <p>
                               <b>Treatment</b>
                            </p>
                         </entry>
                         <entry nameend="c3" namest="c2" rowsep="1">
                            <p>
                               <b>Model statistics</b>
                            </p>
                         </entry>
                      </row>
                      <row valign="top">
                         <entry colname="c1"/>
                         <entry colname="c2">
                            <p>
                               <b>Trt offset</b>
                            </p>
                         </entry>
                         <entry colname="c3">
                            <p>
                               <b>
                                  <it>H</it>
                               </b>
                               <sub>
                                  <b>85</b>
                               </sub>
                            </p>
                         </entry>
                      </row>
                   </thead>
                   <tfoot>
                      <p>Shown are the treatment offset in the logistic model and model predictions of the maximum height at which 85% mortality is achieved (<it>H</it>
                         <sub>85</sub>). No estimate is given for the paraffinic oil treatment as a mortality of 85% was not reached for this treatment. Estimated values for the slope and intercept in the logistic model were, respectively, 6.404 and -0.7922 for <it>P. contorta</it> and, respectively, 7.4723 and &#8722;1.0167 for <it>P. nigra</it>.</p>
                   </tfoot>
                   <tbody>
                      <row valign="top">
                         <entry nameend="c2" namest="c1">
                            <p>
                               <it>Pinus contorta</it>
                            </p>
                         </entry>
                         <entry colname="c3"/>
                      </row>
                      <row valign="top">
                         <entry colname="c1">
                            <p>Paraffinic oil</p>
                         </entry>
                         <entry colname="c2">
                            <p>-6.3232</p>
                         </entry>
                         <entry colname="c3">
                            <p>-</p>
                         </entry>
                      </row>
                      <row valign="top">
                         <entry colname="c1">
                            <p>10&#160;G</p>
                         </entry>
                         <entry colname="c2">
                            <p>0.463</p>
                         </entry>
                         <entry colname="c3">
                            <p>6.5</p>
                         </entry>
                      </row>
                      <row valign="top">
                         <entry colname="c1">
                            <p>10&#160;G 20&#160;T</p>
                         </entry>
                         <entry colname="c2">
                            <p>1.4097</p>
                         </entry>
                         <entry colname="c3">
                            <p>7.7</p>
                         </entry>
                      </row>
                      <row valign="top">
                         <entry colname="c1">
                            <p>20&#160;G</p>
                         </entry>
                         <entry colname="c2">
                            <p>0.3855</p>
                         </entry>
                         <entry colname="c3">
                            <p>6.4</p>
                         </entry>
                      </row>
                      <row valign="top">
                         <entry colname="c1">
                            <p>20&#160;G GO</p>
                         </entry>
                         <entry colname="c2">
                            <p>1.4652</p>
                         </entry>
                         <entry colname="c3">
                            <p>7.7</p>
                         </entry>
                      </row>
                      <row valign="top">
                         <entry colname="c1">
                            <p>20&#160;G OM 1 litre</p>
                         </entry>
                         <entry colname="c2">
                            <p>0.9161</p>
                         </entry>
                         <entry colname="c3">
                            <p>7.0</p>
                         </entry>
                      </row>
                      <row valign="top">
                         <entry colname="c1">
                            <p>20&#160;G OM 500&#160;mL</p>
                         </entry>
                         <entry colname="c2">
                            <p>1.6837</p>
                         </entry>
                         <entry colname="c3">
                            <p>8.0</p>
                         </entry>
                      </row>
                      <row valign="top">
                         <entry nameend="c2" namest="c1">
                            <p>
                               <it>Pinus nigra</it>
                            </p>
                         </entry>
                         <entry colname="c3"/>
                      </row>
                      <row valign="top">
                         <entry colname="c1">
                            <p>Paraffinic oil</p>
                         </entry>
                         <entry colname="c2">
                            <p>-4.1388</p>
                         </entry>
                         <entry colname="c3">
                            <p>-</p>
                         </entry>
                      </row>
                      <row valign="top">
                         <entry colname="c1">
                            <p>10&#160;G</p>
                         </entry>
                         <entry colname="c2">
                            <p>0.827</p>
                         </entry>
                         <entry colname="c3">
                            <p>6.5</p>
                         </entry>
                      </row>
                      <row valign="top">
                         <entry colname="c1">
                            <p>10&#160;G 20&#160;T</p>
                         </entry>
                         <entry colname="c2">
                            <p>1.4768</p>
                         </entry>
                         <entry colname="c3">
                            <p>7.1</p>
                         </entry>
                      </row>
                      <row valign="top">
                         <entry colname="c1">
                            <p>20&#160;G</p>
                         </entry>
                         <entry colname="c2">
                            <p>0.1157</p>
                         </entry>
                         <entry colname="c3">
                            <p>5.8</p>
                         </entry>
                      </row>
                      <row valign="top">
                         <entry colname="c1">
                            <p>20&#160;G-GO</p>
                         </entry>
                         <entry colname="c2">
                            <p>0.2406</p>
                         </entry>
                         <entry colname="c3">
                            <p>5.9</p>
                         </entry>
                      </row>
                      <row valign="top">
                         <entry colname="c1">
                            <p>20&#160;G OM 1 litre</p>
                         </entry>
                         <entry colname="c2">
                            <p>0.2606</p>
                         </entry>
                         <entry colname="c3">
                            <p>5.9</p>
                         </entry>
                      </row>
                      <row valign="top">
                         <entry colname="c1">
                            <p>20&#160;G OM 500&#160;mL</p>
                         </entry>
                         <entry colname="c2">
                            <p>1.2181</p>
                         </entry>
                         <entry colname="c3">
                            <p>6.8</p>
                         </entry>
                      </row>
                   </tbody>
                </tgroup>
             </table>
          
          <p>There was a highly significant and marked decline in treatment efficacy with increasing tree size for both <it>P. contorta</it> and <it>P. nigra</it> (Figure&#160;<figr fid="F1">1</figr>). Dose response curves for both species (Figure&#160;<figr fid="F1">1</figr>) show that the control (which contained only paraffinic oil) caused little <it>P. contorta</it> mortality and moderate <it>P. nigra</it> mortality. Mortality for this treatment did not reach the threshold of 85% for either species (Figure&#160;<figr fid="F1">1</figr>). For the six herbicide-containing treatments, there was a marked reduction in herbicide efficacy for those trees with heights in excess of 7&#160;m (Figure&#160;<figr fid="F1">1</figr>).</p>
          
             <fig id="F1">
                <title>
                   <p>Figure 1</p>
                </title>
                <caption>
                   <p>The relationship between predicted percentage mortality and tree height by treatment for (a)</p>
                </caption>
                <text>
                   <p>
                      <b>The relationship between predicted percentage mortality and tree height by treatment for (a)</b>
                      <b>
                         <it>P. contorta</it>
                      </b>
                      <b>and (b)</b>
                      <b>
                         <it>P. nigra</it>
                      </b>
                      <b>.</b> Predictions are shown across the height range represented in the dataset for each treatment. The two most effective treatments, 20 GOM 500&#160;ml and 10G 20T, are shown, respectively, as dashed red and bold solid pink lines while the least effective treatment, 20G is shown as a bold dark blue line.</p>
                </text>
                <graphic file="s40490-014-0023-6-1"/>
             </fig>
          
          <p>For both species, the predicted mortality across the height range was highest using the 10G 20T and 20&#160;G OM 500&#160;mL treatments (Figure&#160;<figr fid="F1">1</figr>), and values of <it>H</it>
             <sub>85</sub> for these two treatments were 7.7&#160;m and 8.0&#160;m respectively for <it>P. contorta</it> and 7.1&#160;m and 6.8&#160;m for <it>P. nigra</it> (Table&#160;<tblr tid="T4">4</tblr>). The 20&#160;G GO treatment also had a high impact on <it>P. contorta</it> (Figure&#160;<figr fid="F1">1</figr>) and the value of <it>H</it>
             <sub>85</sub> was 7.7&#160;m for this treatment (Table&#160;<tblr tid="T4">4</tblr>). For both species, the 20G treatment was associated with the lowest mortality over the height range (Figure&#160;<figr fid="F1">1</figr>) and values of <it>H</it>
             <sub>85</sub> for this treatment were 6.4&#160;m and 5.8&#160;m for <it>P. contorta</it> and <it>P. nigra</it> respectively.</p>
          <p>A comparison of the baseline treatment (20G) with those treatments containing the same quantity of active ingredient (120&#160;g triclopyr), but with differences in additives and oils, showed some variation. For <it>P. contorta</it> values of <it>H</it>
             <sub>85</sub> were higher when Genera oil rather than paraffinic oil (Table&#160;<tblr tid="T4">4</tblr>) was used as a carrier of 120&#160;mL of triclopyr tree<sup>-1</sup>(7.7 <it>vs</it>. 6.4&#160;m) but little variation in <it>H</it>
             <sub>85</sub> was noted between these two treatments for <it>P. nigra</it> (5.9 <it>vs</it>. 5.8&#160;m). The addition of an alkylsilicone surfactant to 120&#160;g of triclopyr increased values of <it>H</it>
             <sub>85</sub> for both species, but this addition was far more marked for <it>P. contorta</it> (7.0 <it>vs</it>. 6.4&#160;m) than <it>P. nigra</it> (5.9 <it>vs</it>. 5.8&#160;m). Surprisingly, the treatment with 60&#160;g triclopyr was more effective than the treatment with 120&#160;g triclopyr for both <it>P. contorta</it> (8.0 <it>vs</it>. 7.0&#160;m) and <it>P. nigra</it> (6.8 <it>vs</it>. 5.9&#160;m) even though treatments included the same carrier (paraffinic oil) and rate of alkylsilicone surfactant.</p>
       </sec>
       <sec>
          <st>
             <p>4
 						Discussion and conclusion</p>
          </st>
          <p>This method of application represents a considerable advance in the control of isolated wilding conifer species. Aerial application of the two most effective treatments from a calibrated spot gun allowed successful control of both <it>P. contorta</it> and <it>P. nigra</it> up to a height of <it>ca</it>. 7&#8201;&#8722;&#8201;8&#160;m. As flying time between trees is much reduced this method is considerably faster than the previous operational practice of skid hopping. Given the effectiveness of the treatment and the speed of the operation this method has been successfully adopted by DOC for the operational control of isolated wilding pines (P. Willemse, DOC, Twizel, 2012, pers. comm.).</p>
          <p>Overall, the two most effective treatments were the 1,000&#160;mL dose of 120&#160;g triclopyr and 20&#160;g picloram in paraffinic oil (10G 20T) and the 500&#160;mL dose that contained 60&#160;g triclopyr in paraffinic oil with an alkylsilicone surfactant added (20&#160;G OM 500&#160;mL). It was interesting to note that application of 50% of the triclopyr dose (20&#160;G OM 500&#160;mL) in combination with an alkylsilicone surfactant resulted in similar mortality for both species as the full triclopyr dose (120&#160;g triclopyr) that also included picloram but did not have the alkylsilicone surfactant (10G 20T).</p>
          <p>Alkylsilicones are oil-soluble surfactants that enhance the coverage of plant and petroleum-derived spray oils on target plants (Gaskin et al. <abbrgrp>
                <abbr bid="B3">2002</abbr>
             </abbrgrp>) and the high efficacy of the 20&#160;G OM 500&#160;ml treatment could be attributed to the enhanced coverage. Surprisingly, application of twice the dose of the 20&#160;G OM 500&#160;mL treatment with the alkylsilicone surfactant (i.e. 1,000 <it>vs</it>. 500&#160;mL) was markedly less effective for both species than the lower dose. However, this high volume treatment (20&#160;G OM 1 litre) was more effective than the similar treatment without the alkylsilicone surfactant (20&#160;G) for both species. One limitation of this research was that treatment dosages, oil volumes and surfactants were not combined in a factorial arrangement. The low number of combinations of these factors limits the extent to which results can be interpreted. Further research should focus on the most effective treatments found in this study and examine more fully the effect of herbicide dosage, tree size, alkylsilicone surfactant and oil volume on mortality. Dose response functions should be constructed for each treatment that are sensitive to these four factors.</p>
          <p>Aerial delivery of a calibrated herbicide dose using a spot gun is a far more efficient practice than the previously used operational practice of skid-hopping. Through use of this method operationally DOC has noted marked reductions in the time required to treat each tree. Anecdotal information indicates treatment duration per tree to be at least five minutes for skid hopping and <it>ca</it>. 15&#160;seconds using the method described in this paper (P. Willemse, DOC, Twizel, 2011, pers. comm.). Aerial application also eliminates the dangers associated with manual control (P. Willemse, DOC, Twizel, 2011, pers. comm.). These advantages are consistent with previous research that has found chemical treatments to be more cost effective and safer to use than those of ground-based vegetation management such as brush cutting and use of chainsaws (Fortier and Messier <abbrgrp>
                <abbr bid="B2">2006</abbr>
             </abbrgrp>; Dampier et al. <abbrgrp>
                <abbr bid="B1">2006</abbr>
             </abbrgrp>).</p>
          <p>This method of application has the potential to promote the re-establishment of grasses and native tussocks within the treated areas. Herbicide damage to surrounding tussock and grassland is unlikely as the application is directed at, and confined to, the tree crown. In addition, triclopyr and picloram have little effect on monocotyledon plants. Inclusion of picloram within the mixture may be beneficial as this active ingredient has extended soil persistence and activity (up to 450&#160;days after treatment, MacDiarmid <abbrgrp>
                <abbr bid="B7">1975</abbr>
             </abbrgrp>), when compared with triclopyr. Extended persistence in the soil and the consequent ongoing prevention of conifer germination may provide an opportunity for tussocks and grass species to regenerate and provide a cover that prevents future conifer establishment.</p>
          <p>The use of oil rather than water as a carrier of soluble esters, such as triclopyr, extends the period over which trees can be treated. Penetration of the herbicide into the tree is through the bark which allows the solution to be applied, to trees with dry bark at any time of the year (Jackson and Finley <abbrgrp>
                <abbr bid="B4">2013</abbr>
             </abbrgrp>). Herbicide applications during the dormant winter period onto trunks with dry bark will penetrate the bark and kill the tree once translocation occurs during the spring flush (Rathfon and Ruble <abbrgrp>
                <abbr bid="B9">2006</abbr>
             </abbrgrp>).</p>
          <p>This study demonstrates effective control of <it>P. contorta</it> and <it>P. nigra</it> up to ca. 7&#8201;&#8722;&#8201;8&#160;m, through the spot application of triclopyr-based herbicides in an oil carrier, to the tree crown. This method is far more rapid and safe than the current practice of skid-hopping. Further research should develop dose response functions for the most effective treatments that are sensitive to herbicide dosage, tree size, alkylsilicone surfactant and oil volume. A focus of further research should also be to develop a herbicide prescription that can consistently kill larger trees over <it>ca</it>. 8&#160;m.</p>
       </sec>
       <sec>
          <st>
             <p>Competing interests</p>
          </st>
          <p>The authors declare that they have no competing interests.</p>
       </sec>
       <sec>
          <st>
             <p>Authors&#8217; contributions</p>
          </st>
          <p>SG was the primary author and co-designed the study. PR undertook all field measurements and co-designed the trial. MSW was the secondary author and undertook all analyses. All authors have read and approved the final manuscript.</p>
       </sec>
    </bdy>
    <bm>
       <ack>
          <sec>
             <st>
                <p>Acknowledgements</p>
             </st>
             <p>This project was funded by the FRST contract Beating weeds 2 (Contract No.</p>
             <p>CO0X0504). Thanks to Peter Willemse, Department of Conservation, Twizel, for taking care of all logistics, i.e. site selection, herbicide delivery and helicopter availability. We also thank Mark Kimberley for advice on the statistical analysis.</p>
          </sec>
       </ack>
       <refgrp>
          
          <bibl id="B1">
             <title>
                <p>Cutting versus herbicides: tenth-year volume and release cost-effectiveness of sub-boreal conifer plantations</p>
             </title>
             <aug>
                <au>
                   <snm>Dampier</snm>
                   <fnm>JEE</fnm>
                </au>
                <au>
                   <snm>Bell</snm>
                   <fnm>FW</fnm>
                </au>
                <au>
                   <snm>St-Amour</snm>
                   <fnm>M</fnm>
                </au>
                <au>
                   <snm>Pitt</snm>
                   <fnm>DG</fnm>
                </au>
                <au>
                   <snm>Luckai</snm>
                   <fnm>NJ</fnm>
                </au>
             </aug>
             <source>Forestry Chronicle</source>
             <pubdate>2006</pubdate>
             <volume>82</volume>
             <fpage>521</fpage>
             <lpage>528</lpage>
             <xrefbib>
                <pubidlist>
                   <pubid idtype="doi">10.5558/tfc82521-4</pubid>
                </pubidlist>
             </xrefbib>
          </bibl>
          <bibl id="B2">
             <title>
                <p>Are chemical or mechanical treatments more sustainable for forest vegetation management in the context of the TRIAD?</p>
             </title>
             <aug>
                <au>
                   <snm>Fortier</snm>
                   <fnm>J</fnm>
                </au>
                <au>
                   <snm>Messier</snm>
                   <fnm>C</fnm>
                </au>
             </aug>
             <source>Forestry Chronicle</source>
             <pubdate>2006</pubdate>
             <volume>82</volume>
             <fpage>806</fpage>
             <lpage>818</lpage>
             <xrefbib>
                <pubidlist>
                   <pubid idtype="doi">10.5558/tfc82806-6</pubid>
                </pubidlist>
             </xrefbib>
          </bibl>
          <bibl id="B3">
             <title>
                <p>Enhancement of plant- and petroleum-derived spray oils with alkylsilicone surfactants</p>
             </title>
             <aug>
                <au>
                   <snm>Gaskin</snm>
                   <fnm>RE</fnm>
                </au>
                <au>
                   <snm>Bradley</snm>
                   <fnm>SJ</fnm>
                </au>
                <au>
                   <snm>Manktelow</snm>
                   <fnm>DWL</fnm>
                </au>
                <au>
                   <snm>Zabkiewicz</snm>
                   <fnm>JA</fnm>
                </au>
             </aug>
             <source>Spray Oils Beyond 2000: Sustainable Pest and Disease Management</source>
             <publisher>University of Western Sydney, Sydney</publisher>
             <editor>Beattie GAC</editor>
             <pubdate>2002</pubdate>
             <fpage>56</fpage>
             <lpage>61</lpage>
          </bibl>
          <bibl id="B4">
             <url>http://pubs.cas.psu.edu/FreePubs/PDFs/ee0059.pdf</url>
<note>Jackson, DR, &amp; Finley, JC. (2013). Using basal bark herbicide applications to control understory tree species. . Accessed 7 February 2014.</note>
          </bibl>
          <bibl id="B5">
             <title>
                <p>The spread of lodgepole pine (<it>Pinus contorta</it>, Dougl.) in New Zealand</p>
             </title>
             <aug>
                <au>
                   <snm>Ledgard</snm>
                   <fnm>N</fnm>
                </au>
             </aug>
             <source>Forest Ecology and Management</source>
             <pubdate>2001</pubdate>
             <volume>141</volume>
             <fpage>43</fpage>
             <lpage>57</lpage>
             <xrefbib>
                <pubidlist>
                   <pubid idtype="doi">10.1016/S0378-1127(00)00488-6</pubid>
                </pubidlist>
             </xrefbib>
          </bibl>
          <bibl id="B6">
             <title>
                <p>Wilding control guidelines for farmers and land managers</p>
             </title>
             <aug>
                <au>
                   <snm>Ledgard</snm>
                   <fnm>NJ</fnm>
                </au>
             </aug>
             <source>New Zealand Plant Protection</source>
             <pubdate>2009</pubdate>
             <volume>62</volume>
             <fpage>380</fpage>
             <lpage>386</lpage>
          </bibl>
          <bibl id="B7">
             <title>
                <p>Soil residues of picloram applied aerially to New Zealand brushweeds</p>
             </title>
             <aug>
                <au>
                   <snm>MacDiarmid</snm>
                   <fnm>BN</fnm>
                </au>
             </aug>
             <source>Proceedings of the New Zealand Weed and Pest Control Conference</source>
             <pubdate>1975</pubdate>
             <volume>28</volume>
             <fpage>109</fpage>
             <lpage>114</lpage>
          </bibl>
          <bibl id="B8">
             <aug>
                <au>
                   <snm>Raal</snm>
                   <fnm>P</fnm>
                </au>
                <au>
                   <snm>Gous</snm>
                   <fnm>SF</fnm>
                </au>
             </aug>
             <source>Literature review of herbicides to control wilding conifers. (Scion report no. 17750)</source>
             <publisher>Scion, Rotorua, New Zealand</publisher>
             <pubdate>2010</pubdate>
          </bibl>
          <bibl id="B9">
             <title>
                <p>Herbicide treatments for controlling invasive bush honeysuckle in a mature hardwood forest in west-central Indiana</p>
             </title>
             <aug>
                <au>
                   <snm>Rathfon</snm>
                   <fnm>R</fnm>
                </au>
                <au>
                   <snm>Ruble</snm>
                   <fnm>K</fnm>
                </au>
             </aug>
             <source>Proceedings 15th Central Hardwood Forest Conference</source>
             <publisher>U.S. Department of Agriculture Forest Service, Southern Research Station, Knoxville</publisher>
             <pubdate>2006</pubdate>
             <fpage>187</fpage>
             <lpage>197</lpage>
          </bibl>
          <bibl id="B10">
             <title>
                <p>Evaluation of herbicides for the control of Pinus contorta</p>
             </title>
             <aug>
                <au>
                   <snm>Ray</snm>
                   <fnm>JW</fnm>
                </au>
                <au>
                   <snm>Davenhill</snm>
                   <fnm>NA</fnm>
                </au>
             </aug>
             <source>Proceedings of the Forty-Fourth New Zealand Weed and Pest Control Conference</source>
             <publisher>New Zealand Plant Protection Society, Rotorua</publisher>
             <pubdate>1991</pubdate>
             <fpage>21</fpage>
             <lpage>24</lpage>
          </bibl>
          <bibl id="B11">
             <source>SAS/STAT 9.2 User&#8217;s Guide</source>
             <publisher>SAS Institute Inc, Cary</publisher>
             <pubdate>2008</pubdate>
          </bibl>
       </refgrp>
    </bm>
 </art>
