<art>
    <ui>s12888-014-0236-5</ui>
    <ji>1471-244X</ji>
    <fm>
       <dochead>Research article</dochead>
       <bibl>
          <title>
             <p>Re-development of mental health first aid guidelines for non-suicidal self-injury: a Delphi study</p>
          </title>
          <aug>
             <au id="A1">
                <snm>Ross</snm>
                <mi>M</mi>
                <fnm>Anna</fnm>
                <insr iid="I1"/>
                <email>anross@unimelb.edu.au</email>
             </au>
             <au id="A2">
                <snm>Kelly</snm>
                <mi>M</mi>
                <fnm>Claire</fnm>
                <insr iid="I2"/>
                <insr iid="I3"/>
                <email>clairek@mhfa.com.au</email>
             </au>
             <au id="A3" ca="yes">
                <snm>Jorm</snm>
                <mi>F</mi>
                <fnm>Anthony</fnm>
                <insr iid="I1"/>
                <email>ajorm@unimelb.edu.au</email>
             </au>
          </aug>
          <insg>
             <ins id="I1">
                <p>Melbourne School of Population and Global Health, The University of Melbourne, Level 4, 207 Bouverie St, Parkville, 3010, Victoria, Australia</p>
             </ins>
             <ins id="I2">
                <p>Mental Health First Aid Australia, Level 6, 369 Royal Parade, Parkville, 3052, Victoria, Australia</p>
             </ins>
             <ins id="I3">
                <p>School of Psychology, Deakin University, Burwood 3125, Victoria, Australia</p>
             </ins>
          </insg>
          <source>BMC Psychiatry</source>
          <issn>1471-244X</issn>
          <pubdate>2014</pubdate>
          <volume>14</volume>
          <issue>1</issue>
          <fpage>236</fpage>
          <url>http://www.biomedcentral.com/1471-244X/14/236</url>
          <xrefbib>
             <pubidlist>
                <pubid idtype="doi">10.1186/s12888-014-0236-5</pubid>
                <pubid idtype="pmpid"><!-- Need to check source for data--></pubid>
             </pubidlist>
          </xrefbib>
       </bibl>
       <history>
          <rec>
             <date>
                <day>17</day>
                <month>4</month>
                <year>2014</year>
             </date>
          </rec>
          <acc>
             <date>
                <day>8</day>
                <month>8</month>
                <year>2014</year>
             </date>
          </acc>
          <pub>
             <date>
                <day>19</day>
                <month>8</month>
                <year>2014</year>
             </date>
          </pub>
       </history>
       <cpyrt>
          <year>2014</year>
          <collab>Ross et al.; licensee BioMed Central Ltd.</collab>
          <note>This is an Open Access article distributed under the terms of the Creative Commons Attribution License (<url>http://creativecommons.org/licenses/by/4.0</url>), which permits unrestricted use, distribution, and reproduction in any medium, provided the original work is properly credited. The Creative Commons Public Domain Dedication waiver (<url>http://creativecommons.org/publicdomain/zero/1.0/</url>) applies to the data made available in this article, unless otherwise stated.</note>
       </cpyrt>
       <kwdg>
          <kwd>Non-suicidal self-injury</kwd>
          <kwd>Self-harm</kwd>
          <kwd>Cutting</kwd>
          <kwd>Mental health first aid</kwd>
          <kwd>Helping behaviour</kwd>
          <kwd>Mental health assistance</kwd>
       </kwdg>
       <abs>
          <sec>
             <st>
                <p>Abstract</p>
             </st>
             <sec>
                <st>
                   <p>Background</p>
                </st>
                <p>Up to 12% of Australian adults and almost one in five adolescents are estimated to have engaged in non-suicidal self-injury (NSSI) at some time in their life. Friends and family are most likely to notice signs of NSSI, but may be unsure how to intervene. Mental health first aid guidelines were developed in 2008 on how to do this through providing initial support and encouraging appropriate professional help-seeking. This study aims to re-develop the 2008 NSSI first aid guidelines to ensure they contain current recommended helping actions and remain consistent with the NSSI intervention literature.</p>
             </sec>
             <sec>
                <st>
                   <p>Methods</p>
                </st>
                <p>The Delphi consensus method was used to determine the importance of the inclusion of helping statements in the guidelines. These statements describe helping actions a member of the public can take, and information they should have, to help someone who is engaging in NSSI. Systematic searches of the available NSSI intervention literature were conducted to find helping statements. Two expert panels, comprising 28 NSSI professionals and 33 consumer advocates, rated the importance of each statement.</p>
             </sec>
             <sec>
                <st>
                   <p>Results</p>
                </st>
                <p>98 out of 220 statements were endorsed as appropriate helping actions in providing assistance to someone engaging in NSSI. These statements were used to form the updated mental health first aid guidelines for NSSI.</p>
             </sec>
             <sec>
                <st>
                   <p>Conclusion</p>
                </st>
                <p>The re-development of the guidelines has resulted in more comprehensive guidance than the original version (98 versus 30 statements containing helping actions). This substantial increase in endorsed statements adds detail and depth to the guidelines, as well as covers additional ways of providing guidance and support.</p>
             </sec>
          </sec>
       </abs>
    </fm>
    <bdy>
       <sec>
          <st>
             <p>1
 						Background</p>
          </st>
          <p>Non-suicidal self-injury (NSSI) refers to injuries that are deliberately inflicted on oneself that are not intended to result in death <abbrgrp>
                <abbr bid="B1">1</abbr>
             </abbrgrp>,<abbrgrp>
                <abbr bid="B2">2</abbr>
             </abbrgrp>. The most common methods of self-injury are cutting, scratching, deliberately hitting body parts on a hard surface, punching, hitting or slapping oneself, biting and burning <abbrgrp>
                <abbr bid="B3">3</abbr>
             </abbrgrp>. The Australian National Epidemiological Study of Self-Injury (ANESSI) found that 19.3% of Austalian adolescents and 11.9% of Australian adults have engaged in self-harming behaviours at some time in their life <abbrgrp>
                <abbr bid="B3">3</abbr>
             </abbrgrp>. This prevalence has also been found to be higher in clinical populations, with research findings revealing that those experiencing anxiety, mood disorders and other mental health problems were 5.5 to 7.7 times more likely to self-injure over the previous 4&#160;weeks, and that at least 21% of clinical psychiatric populations self-injure over a 6&#160;month period <abbrgrp>
                <abbr bid="B3">3</abbr>
             </abbrgrp>&#8211;<abbrgrp>
                <abbr bid="B5">5</abbr>
             </abbrgrp>.</p>
          <p>People have reported engaging in NSSI for many reasons. The most common include the management of painful feelings, self punishment, and to communicate a message to others <abbrgrp>
                <abbr bid="B3">3</abbr>
             </abbrgrp>. Contrary to popular belief, self-injury is rarely used as a means of seeking attention. The cuts and wounds inflicted through self-injury often cause people to feel intense shame and as a result are likely to be covered or hidden underneath clothing.</p>
          <p>NSSI can be differentiated from suicidal behaviour through the intentions behind the injuring. The difference is considered to be based on the intent and the underlying emotions of the person engaging in these actions <abbrgrp>
                <abbr bid="B6">6</abbr>
             </abbrgrp>. Those who are having suicidal thoughts and engaging in suicidal behaviour harm themselves with the intent of ending their life, whereas those who engage in NSSI do not intend to end their lives. In this article, suicidal behaviour has been separated from non-suicidal self-harm, as these behaviours require different first aid assistance, such as different intervention methods and different urgencies in obtaining professional help.</p>
          <p>However, there may be an association between NSSI and suicide, with rates of suicide higher in those who self-injure <abbrgrp>
                <abbr bid="B7">7</abbr>
             </abbrgrp>&#8211;<abbrgrp>
                <abbr bid="B9">9</abbr>
             </abbrgrp>. Those engaging in self-injury have been found to be at higher risk for suicidal thoughts <abbrgrp>
                <abbr bid="B3">3</abbr>
             </abbrgrp>,<abbrgrp>
                <abbr bid="B10">10</abbr>
             </abbrgrp>, with the risk of suicide increased by 30-100 times compared to the general population <abbrgrp>
                <abbr bid="B7">7</abbr>
             </abbrgrp>,<abbrgrp>
                <abbr bid="B11">11</abbr>
             </abbrgrp>,<abbrgrp>
                <abbr bid="B12">12</abbr>
             </abbrgrp>. Furthermore, approximately half to two-thirds of persons who die by suicide have been found to have a history of NSSI <abbrgrp>
                <abbr bid="B7">7</abbr>
             </abbrgrp>,<abbrgrp>
                <abbr bid="B13">13</abbr>
             </abbrgrp>,<abbrgrp>
                <abbr bid="B14">14</abbr>
             </abbrgrp>. Although NSSI is common and is associated with increased risk of suicide, most people who self-injure do not seek professional treatment, with less than 50% of persons reporting help seeking <abbrgrp>
                <abbr bid="B3">3</abbr>
             </abbrgrp>,<abbrgrp>
                <abbr bid="B15">15</abbr>
             </abbrgrp>. When help is sought, it is most likely to be from either family members or friends <abbrgrp>
                <abbr bid="B10">10</abbr>
             </abbrgrp>,<abbrgrp>
                <abbr bid="B16">16</abbr>
             </abbrgrp>&#8211;<abbrgrp>
                <abbr bid="B20">20</abbr>
             </abbrgrp>. Family and friends are also most likely to notice possible signs of NSSI, such as fresh cuts or scars from cutting, but report having insufficient knowledge regarding what they can do to provide effective assistance for mental health problems <abbrgrp>
                <abbr bid="B21">21</abbr>
             </abbrgrp>.</p>
          <p>Mental health first aid guidelines have been developed through a series of Delphi expert consensus studies to provide recommendations to members of the public on providing assistance to a person with a mental health problem, including depression, psychosis, substance use or eating disorders, or experiencing a mental health crisis, such as having suicidal ideation, experiencing a traumatic event or a panic attack, or engaging in non-suicidal self-injury <abbrgrp>
                <abbr bid="B22">22</abbr>
             </abbrgrp>&#8211;<abbrgrp>
                <abbr bid="B29">29</abbr>
             </abbrgrp>. These guidelines were used to inform the content of the 2<sup>nd</sup> edition Mental Health First Aid (MHFA) course <abbrgrp>
                <abbr bid="B2">2</abbr>
             </abbrgrp>. The programme teaches adult members of the public how to provide assistance to someone who has a mental health problem or is experiencing a mental health crisis, until appropriate professional assistance is received or the crisis resolves <abbrgrp>
                <abbr bid="B30">30</abbr>
             </abbrgrp>. While intervening when someone has been engaging in NSSI is only briefly covered, this course has been found to be effective in providing the knowledge required to intervene and increasing helping behaviours <abbrgrp>
                <abbr bid="B31">31</abbr>
             </abbrgrp>.</p>
          <p>The guidelines for assisting a person who engages in NSSI were developed in 2008. Because there are companion guidelines on first aid for a suicidal person, the term NSSI is used to make clear that these guidelines are for situations where there is no suicidal intent. Furthermore, this term is becoming dominant in the literature. As well as informing the content of MHFA training, these guidelines were made available online for the public to access. The guidelines were accessible through the National Health and Medical Research Council (NHMRC) Clinical Practice Guidelines Portal, and were also made available for free download from the MHFA website (<url>https://mhfa.com.au/cms/guidelines</url>). A study by Hart et al. <abbrgrp>
                <abbr bid="B32">32</abbr>
             </abbrgrp> showed that users who download the guidelines do make use of them to assist in mental health first aid situations.</p>
          <p>To ensure the guidelines reflect current evidence and best practice, re-development of these guidelines is required to update their content, to take into account the latest NSSI intervention research findings and recommendations from NSSI intervention experts. Re-development of the guidelines will also ensure that they meet the NHMRC Clinical Practice Guidelines Portal inclusion requirements, which require that guidelines be no more than five years old. The aim of this study was to use the Delphi methodology <abbrgrp>
                <abbr bid="B33">33</abbr>
             </abbrgrp> to re-develop guidelines for members of the public providing first aid assistance to people who engage in deliberate non-suicidal self-injury. This method has been used to develop mental health first aid guidelines for a range of mental disorders, including the original version of the NSSI guidelines. This method was selected as it is considered a feasible and ethical approach to developing guidelines on a topic that is not amenable to evaluation in randomised controlled trials. The method allows the gathering of practice-based evidence from experts, so that their expertise can be conveyed to others. The method also allows expert consensus from panel members located in many countries to be obtained easily online.</p>
       </sec>
       <sec>
          <st>
             <p>2
 						Method</p>
          </st>
          <p>The re-development of the guidelines was conducted in three stages: literature search, questionnaire development and Delphi consensus survey rounds.</p>
          <sec>
             <st>
                <p>2.1 Literature search</p>
             </st>
             <p>A systematic literature search was conducted to find statements about how someone can help a person who is engaging in deliberate NSSI, including how to determine if someone is deliberately injuring themselves, how to offer short-term assistance to the person, and how to help them seek appropriate professional support. The literature searched included online materials, research publications, and self-help books.</p>
             <p>Websites and online materials were searched using the Google search engines of English-speaking countries (Google.com, Google.com.au, Google.co.uk, Google.nz, Google.ca). The search terms 'self injury', 'self harm', &#8216;cutting&#8217;, as well as help (truncated to include terms such as &#8216;helping&#8217; and &#8216;helped&#8217;) and &#8216;friend&#8217; or &#8216;family&#8217;. The websites returned in the top 50 results from each search were reviewed. Overall, 146 unique websites were reviewed for potential first aid helping actions, with statements found on 57 of these sites.</p>
             <p>The research literature was searched through PsycInfo and PubMed, with the terms &#8216;self harm&#8217;, &#8216;self injury&#8217; or &#8216;NSSI&#8217; searched for in the title and abstract, and &#8216;help&#8217;, &#8216;prevent&#8217;, &#8216;assist&#8217;, &#8216;support&#8217; or &#8216;care&#8217;, as well as &#8216;friend&#8217; or &#8216;family&#8217; searched for throughout. Exclusion terms, comprising &#8216;cell suicide&#8217;, &#8216;assisted suicide&#8217;, and &#8216;suicide attack&#8217; were also entered to improve relevance of results. Results were also limited to articles published after 2004, as the searches aimed to find new articles that not been included in the literature search in the earlier literature search for the original version of the guidelines. Search results returned 834 unique articles, with 22 considered relevant for review, and eligible statements found in 2 of these.</p>
             <p>To locate relevant books, a search of Amazon.com was also conducted using the search terms &#8216;self harm&#8217;, &#8216;cutting&#8217;, &#8216;self- injury&#8217;, &#8216;help&#8217; and &#8216;friend&#8217; or &#8216;family&#8217;. Nine books were returned, with 5 of these considered relevant. These 5 books were purchased and read, with eligible statements found in all but one.</p>
          </sec>
          <sec>
             <st>
                <p>2.2 Questionnaire development</p>
             </st>
             <p>Relevant helping statements that were found in the literature search, as well as the statements included in the previous Delphi questionnaires <abbrgrp>
                   <abbr bid="B25">25</abbr>
                </abbrgrp> formed the content of the first questionnaire. The statements included in the questionnaire were agreed upon by all three authors as being actionable by the first aider, as relevant to the role of a first aider, as well as being clear and non-ambiguous in its meaning. Examples of the types of statements included in the questionnaire include &#8216;The first aider should discuss their concerns with the person in a private place&#8217; and &#8216;The first aider should let the person know the ways in which they are willing to help the person&#8217;. These statements were grouped into categories based on common thematic content. Statements were edited so that those with similar content were combined in order to reduce repetition throughout the questionnaire. Statements were also edited to improve clarity by systematic re-wording or elaboration through examples. This editing occurred in meetings of a working group, which were held to edit and develop a draft of the questionnaire, including its categories and structure of statements. The working group comprised the authors of this paper who are all researchers with previous experience in conducting research using the Delphi methodology and on MHFA training programmes.</p>
             <p>The questionnaire was completed online through an online survey website, SurveyMonkey. Participants were given a two to three week time period to finish the questionnaire for each of the three rounds of the Delphi survey process. The questionnaires were able to be completed at times that were convenient to participants, and in multiple sessions if desired.</p>
          </sec>
          <sec>
             <st>
                <p>2.3 Delphi consensus survey rounds</p>
             </st>
             <p>The consensus survey was conducted using the Delphi method <abbrgrp>
                   <abbr bid="B32">32</abbr>
                </abbrgrp>. The Delphi method involved identifying and recruiting panels of experts in the field of NSSI to rate the importance of helping statements. Statements that achieved substantial consensus regarding their importance for inclusion in the guidelines were considered as the recommended actions to take to help someone who is self-injuring.</p>
             <p>Participants were recruited from developed English-speaking countries (Australia, Canada, Ireland, New Zealand United Kingdom, and the United States) to join one of two expert panels representing two areas of expertise: professionals or consumers. To be considered as having expertise in NSSI, panellists were required to have past personal experience in self-injuring, or professional experience working in the field of NSSI prevention and intervention (i.e. as a researcher, clinician, mental health nurse, social worker). Potential professional panellists were identified as experts through their involvement with NSSI research, prevention and intervention organisations, while potential consumer panellists were identified through their advocacy roles in NSSI prevention.</p>
             <p>The profession panel was recruited through editorial boards of relevant academic journals and suicide prevention organisations. The heads of these boards and organisations were emailed an invitation to participate and a copy of the project&#8217;s plain language statement, asking that these be forwarded on to the relevant members. The academic journal editorial boards contacted included &#8216;Crisis&#8217;, &#8216;Suicide and Life-Threatening Behavior&#8217; and the &#8216;Journal of Clinical Psychology&#8217; special NSSI edition (November 2007, Volume 63, Issue 11). Professional panellists were also recruited through NSSI and suicide prevention organisations, such as the International Association of Suicide Prevention, Suicide Prevention Australia, the Australian Suicide Prevention Advisory Council, the American Foundation for Suicide Prevention, the American Association of Suicidology, the Canadian Association for Suicide Prevention, the Suicide Prevention Resource Center, the University of Oxford Centre for Suicide Research and Suicide Prevention Information New Zealand. Members of editorial boards and prevention organisations who were interested in participating were asked to give an expression of interest by contacting the authors and to provide an outline of their experience working with NSSI populations. Contact details for the authors were provided to potential participants in the Plain Language Statement sent to the editorial boards and prevention organisations. Interested persons who proved to have direct professional experience working in the field of NSSI prevention and intervention (i.e. as a researcher, clinician, mental health nurse, social worker) were added to the expert panel. Professionals were also asked to nominate any colleagues who they felt would also be appropriate panel members. The professional panel comprised 28 panellists, some of whom had multiple roles, including 7 professors and associate professors in psychiatry or psychology, 7 psychologists, 6 researchers, 6 social workers, 3 counsellors, 2 psychiatrists, 2 mental health service directors, and 3 who worked in other mental health support roles. This panel represented global professional opinions in NSSI prevention, demonstrated through their demographics presented in Table&#160;<tblr tid="T1">1</tblr>.</p>
             
                <table id="T1">
                   <title>
                      <p>Table 1</p>
                   </title>
                   <caption>
                      <p>
                         <b>Participant characteristics (data collected in Round 1)</b>
                      </p>
                   </caption>
                   <tgroup align="left" cols="9">
                      <colspec align="left" colname="c1" colnum="1" colwidth="*"/>
                      <colspec align="left" colname="c2" colnum="2" colwidth="*"/>
                      <colspec align="left" colname="c3" colnum="3" colwidth="*"/>
                      <colspec align="left" colname="c4" colnum="4" colwidth="*"/>
                      <colspec align="left" colname="c5" colnum="5" colwidth="*"/>
                      <colspec align="left" colname="c6" colnum="6" colwidth="*"/>
                      <colspec align="left" colname="c7" colnum="7" colwidth="*"/>
                      <colspec align="left" colname="c8" colnum="8" colwidth="*"/>
                      <colspec align="left" colname="c9" colnum="9" colwidth="*"/>
                      <thead>
                         <row valign="top">
                            <entry colname="c1"/>
                            <entry colname="c2">
                               <p>
                                  <b>n</b>
                               </p>
                            </entry>
                            <entry colname="c3">
                               <p>
                                  <b>Age range (years)</b>
                               </p>
                            </entry>
                            <entry colname="c4">
                               <p>
                                  <b>Median age (years)</b>
                               </p>
                            </entry>
                            <entry colname="c5">
                               <p>
                                  <b>% Female</b>
                               </p>
                            </entry>
                            <entry colname="c6">
                               <p>
                                  <b># American</b>
                               </p>
                            </entry>
                            <entry colname="c7">
                               <p>
                                  <b># Australian</b>
                               </p>
                            </entry>
                            <entry colname="c8">
                               <p>
                                  <b># British</b>
                               </p>
                            </entry>
                            <entry colname="c9">
                               <p>
                                  <b># Canadian</b>
                               </p>
                            </entry>
                         </row>
                      </thead>
                      <tbody>
                         <row valign="top">
                            <entry colname="c1">
                               <p>Mental health professionals</p>
                            </entry>
                            <entry colname="c2">
                               <p>28</p>
                            </entry>
                            <entry colname="c3">
                               <p>28-69</p>
                            </entry>
                            <entry colname="c4">
                               <p>40</p>
                            </entry>
                            <entry colname="c5">
                               <p>75</p>
                            </entry>
                            <entry colname="c6">
                               <p>13</p>
                            </entry>
                            <entry colname="c7">
                               <p>10</p>
                            </entry>
                            <entry colname="c8">
                               <p>3</p>
                            </entry>
                            <entry colname="c9">
                               <p>2</p>
                            </entry>
                         </row>
                         <row valign="top">
                            <entry colname="c1">
                               <p>Consumers</p>
                            </entry>
                            <entry colname="c2">
                               <p>33</p>
                            </entry>
                            <entry colname="c3">
                               <p>18-71</p>
                            </entry>
                            <entry colname="c4">
                               <p>32</p>
                            </entry>
                            <entry colname="c5">
                               <p>91</p>
                            </entry>
                            <entry colname="c6">
                               <p>13</p>
                            </entry>
                            <entry colname="c7">
                               <p>16</p>
                            </entry>
                            <entry colname="c8">
                               <p>2</p>
                            </entry>
                            <entry colname="c9">
                               <p>2</p>
                            </entry>
                         </row>
                      </tbody>
                   </tgroup>
                </table>
             
             <p>The consumer panel was recruited through depression and mental disorder advocacy organisations, including <it>beyondblue: the national depression initiative</it> (Australia), Depression and Bipolar Support Association (United States), National Alliance of Mental Illness (NAMI) (United States), Depression Alliance (United Kingdom), and Depression Support Network (New Zealand). Email invitations and plain language statements were emailed to the advocacy group coordinators for the information to be forwarded to the group members. Consumers who had written websites that offered support and information to other consumers, as well as promoted recovery from NSSI, were also identified as potential panellists and were invited to participate through email invitation. Consumers who were interested in participating were asked to give an expression of interest by contacting the authors and providing an outline of their first-hand experiences of NSSI. Contact details for the authors were provided to potential participants in the Plain Language Statement sent in the email invitations. Interested persons who claimed to have past personal experience in self-injuring and were comfortable reflecting on these experiences were added to the expert panel. Consumers were also asked to nominate anyone they knew who they felt would also be appropriate panel members. Thirty-three NSSI consumer advocates were recruited to this panel, with demographic characteristics also included in Table&#160;<tblr tid="T1">1</tblr>.</p>
             <p>The outcome for each item was determined using the following criteria:</p><p>1. Statements that were rated as essential or important by 80% or more of the members in both panels were endorsed as helping actions to be included into the guidelines.</p>
                <p>2. Statements were re-rated in a subsequent round of the questionnaire if:</p><p>a. Statements were rated as essential or important by 70-79.9% of the panel members</p>
                   <p>b. Statements were rated as essential or important by 80% of more of one panel, but less than 80% by the other panel</p>
                <p>3. Statements that were rated as essential or important by less than 70% of both panel members were excluded.</p>
             <p>In Round 1, panel members were also asked to provide feedback through a textbox at the end of each section of the questionnaire. This feedback textbox was intended for use by panellists to suggest helping actions that were not covered in the questionnaire, but generally panellists used the textboxes to provide rationales for their ratings. The comments made were reviewed by the working group. Suggestions that contained novel ideas were used to create new helping statements to be included in the subsequent Round 2 questionnaire. Also, statements that received feedback suggesting ambiguity in the interpretation of its meaning were re-phrased to make them clearer and included in Round 2. Statements from Round 1 that met the criteria to be re-rated were also included in the Round 2 questionnaire.</p>
             <p>The third and final questionnaire was comprised of new statements that were developed from Round 1 feedback and presented for the first time in Round 2, but required re-rating in a further round. Items that still did not achieve consensus after being re-rated were rejected from inclusion in the guidelines.</p>
             <p>Following each of the three rounds, each panellist was sent a report containing a summary of the results from the previous round. The report included a list of the statements that had been endorsed for inclusion in the guidelines, as well as a list of the statements that had been rejected from inclusion. The statements to be re-rated in the subsequent round were also included, with the report personalised to include the individual panellist&#8217;s rating for each statement, as well as a table summary of each panel&#8217;s ratings for the statement.</p>
             <p>The statements that were endorsed across the three survey rounds were compiled. These statements were then used to form the guidelines, with working group meetings held to finalise structure and wording. The final draft copy of the guidelines was then disseminated to panellists for their final comment on the document.</p>
          </sec>
       </sec>
       <sec>
          <st>
             <p>3
 						Results</p>
          </st>
          <p>Participation of NSSI professionals and consumer advocate panellists across the three Delphi survey rounds are shown in Table&#160;<tblr tid="T2">2</tblr>. The section headings of the Delphi questionnaire that the items were categorised into are shown in Table&#160;<tblr tid="T3">3</tblr>.</p>
          
             <table id="T2">
                <title>
                   <p>Table 2</p>
                </title>
                <caption>
                   <p>
                      <b>Participation of Delphi panellists in each round</b>
                   </p>
                </caption>
                <tgroup align="left" cols="4">
                   <colspec align="left" colname="c1" colnum="1" colwidth="*"/>
                   <colspec align="left" colname="c2" colnum="2" colwidth="*"/>
                   <colspec align="left" colname="c3" colnum="3" colwidth="*"/>
                   <colspec align="left" colname="c4" colnum="4" colwidth="*"/>
                   <thead>
                      <row valign="top">
                         <entry colname="c1"/>
                         <entry colname="c2">
                            <p>
                               <b>Round 1</b>
                            </p>
                         </entry>
                         <entry colname="c3">
                            <p>
                               <b>Round 2</b>
                            </p>
                         </entry>
                         <entry colname="c4">
                            <p>
                               <b>Round 3</b>
                            </p>
                         </entry>
                      </row>
                   </thead>
                   <tbody>
                      <row valign="top">
                         <entry colname="c1">
                            <p>Mental health professionals</p>
                         </entry>
                         <entry colname="c2">
                            <p>28</p>
                         </entry>
                         <entry colname="c3">
                            <p>19</p>
                         </entry>
                         <entry colname="c4">
                            <p>19</p>
                         </entry>
                      </row>
                      <row valign="top">
                         <entry colname="c1">
                            <p>Consumers</p>
                         </entry>
                         <entry colname="c2">
                            <p>33</p>
                         </entry>
                         <entry colname="c3">
                            <p>26</p>
                         </entry>
                         <entry colname="c4">
                            <p>25</p>
                         </entry>
                      </row>
                   </tbody>
                </tgroup>
             </table>
          
          
             <table id="T3">
                <title>
                   <p>Table 3</p>
                </title>
                <caption>
                   <p>
                      <b>Sections in the Delphi questionnaire</b>
                   </p>
                </caption>
                <tgroup align="left" cols="2">
                   <colspec align="left" colname="c1" colnum="1" colwidth="*"/>
                   <colspec align="left" colname="c2" colnum="2" colwidth="*"/>
                   <thead>
                      <row valign="top">
                         <entry colname="c1">
                            <p>
                               <b>Section</b>
                            </p>
                         </entry>
                         <entry colname="c2">
                            <p>
                               <b>Topic</b>
                            </p>
                         </entry>
                      </row>
                   </thead>
                   <tbody>
                      <row valign="top">
                         <entry colname="c1">
                            <p>1</p>
                         </entry>
                         <entry colname="c2">
                            <p>If the first aider finds someone injuring themselves</p>
                         </entry>
                      </row>
                      <row valign="top">
                         <entry colname="c1">
                            <p>2</p>
                         </entry>
                         <entry colname="c2">
                            <p>If the first aider suspects self-injury</p>
                         </entry>
                      </row>
                      <row valign="top">
                         <entry colname="c1">
                            <p>3</p>
                         </entry>
                         <entry colname="c2">
                            <p>Discussing self-injury</p>
                         </entry>
                      </row>
                      <row valign="top">
                         <entry colname="c1">
                            <p>4</p>
                         </entry>
                         <entry colname="c2">
                            <p>Alternatives to self-injury</p>
                         </entry>
                      </row>
                      <row valign="top">
                         <entry colname="c1">
                            <p>5</p>
                         </entry>
                         <entry colname="c2">
                            <p>Harm minimisation practices</p>
                         </entry>
                      </row>
                      <row valign="top">
                         <entry colname="c1">
                            <p>6</p>
                         </entry>
                         <entry colname="c2">
                            <p>Seeking help</p>
                         </entry>
                      </row>
                      <row valign="top">
                         <entry colname="c1">
                            <p>7</p>
                         </entry>
                         <entry colname="c2">
                            <p>What the first aider should know about self-injury</p>
                         </entry>
                      </row>
                      <row valign="top">
                         <entry colname="c1">
                            <p>8</p>
                         </entry>
                         <entry colname="c2">
                            <p>Adolescent specific</p>
                         </entry>
                      </row>
                   </tbody>
                </tgroup>
             </table>
          
          <p>Pearson&#8217;s r was calculated to determine the correlations between the professional and consumer panels&#8217; ratings. For the 191 items rated in Round 1, and the 68 items in Round 2, the item endorsement rates of the consumer panel and the professional panel were strongly correlated, with correlation coefficients of .91 and .75 respectively.</p>
          <p>The inclusion, exclusion and re-rating rates for each round are shown in Figure&#160;<figr fid="F1">1</figr>. Ninety-eight statements were endorsed for inclusion in the first aid guidelines as the helping actions a member of the public should take to assist someone who self-injures. These statements have been incorporated into a plain language document to comprise the guidelines (see Additional file <supplr sid="S1">1</supplr>).</p>
             <fig id="F1">
                <title>
                   <p>Figure 1</p>
                </title>
                <caption>
                   <p>Overview of statements throughout the 3 rounds of questionnaires.</p>
                </caption>
                <text>
                   <p>
                      <b>Overview of statements throughout the 3 rounds of questionnaires.</b>
                   </p>
                </text>
                <graphic file="s12888-014-0236-5-1"/>
             </fig>
          
       </sec>
       <sec>
          <st>
             <p>4
 						Discussion</p>
          </st>
          <p>This study aimed to re-develop first aid guidelines for assisting someone who engages in non-suicidal self-injury. Searches of the available literature were conducted to find helping actions. These were then included in a survey and rated by expert panellists regarding their importance for inclusion in the guidelines. Statements that were consensually rated as important by both panels comprised the re-developed guidelines.</p>
          <sec>
             <st>
                <p>4.1 Comparison with original guidelines for suicidal thoughts and behaviours</p>
             </st>
             <p>In comparison with the original 2008 version of the guidelines, some significant similarities and differences have been noted. In the current study, no items were endorsed in the &#8216;harm minimisation&#8217; section of the Delphi questionnaire, while only one item was endorsed in the earlier study (to ensure first aid supplies are accessible to the person). This section involved actions the first aider could take in order to reduce the occurrence of self-injury, and to care for the injuries in order to reduce further harm (for example, through cuts getting infected). This suggests that expert opinion in the area of harm minimisation has not changed greatly over the past 6&#160;years, and that it is an area that is difficult to provide advice in, with no consensus on whether first aiders should remove self-injury instruments, provide sterile instruments or ensure medical first aid supplies are available.</p>
             <p>The re-developed guidelines differ from the previous version, not just through their currency, but also in providing a more comprehensive set of first aid actions than those originally developed in 2008 <abbrgrp>
                   <abbr bid="B25">25</abbr>
                </abbrgrp>. The Delphi survey used in the current study comprised 220 novel statements that were rated by the panellists over the three rounds. This is a substantial increase of 141 statements on the 79 statements that comprised the original Delphi questionnaire. Compared with the 30 statements endorsed in the original guidelines, the re-development saw 68 more statements endorsed, with the re-developed guidelines totalling 98 endorsed statements. Of the 30 statements endorsed in the original version of the guidelines, 18 of these were re-endorsed. The substantial increase in endorsed statements makes the recommended helping actions more specific and detailed, reducing uncertainty around how to carry out an action.</p>
             <p>More detail is particularly notable in the sections of the guidelines on identification of alternatives to self-injury and seeking professional help, giving more specific information as to when, where and how these actions should be carried out. Roughly 10 extra statements were endorsed from each of these sections compared with the original guidelines. This includes more direction in determining when and how to engage professional help, as well as a variety of alternative coping strategies the first aider can suggest and encourage the person to use (for example, offering information about alternate coping strategies or encouraging them to talk to someone about their feelings).</p>
             <p>Three additional sections were added to the questionnaires, these being &#8216;discussing self-injury&#8217;, &#8216;adolescent-specific&#8217; and &#8216;what the first aider should know&#8217;. The section detailing how to discuss self-injury with the person who self-injures is the biggest section in the re-developed guidelines, comprising 43 recommended actions. These include advice on when and how to talk to the person, what to talk about, what to avoid saying to them (such as promising to keep their self-injury a secret), as well as how to be an active listener.</p>
             <p>The inclusion of adolescent-specific statements provided recognition that adolescents engaging in NSSI may need more guidance and support compared to an adult. This would allow for the person providing the first aid to tailor their assistance in an age-appropriate manner. However, only one statement on seeking professional help was endorsed specifically for adolescents. This involved helping the adolescent map out a plan of action for seeking help and offering to go along with them to an appointment with a mental health professional. The other additional section outlined what information the first aider should know to place them in the best position to provide assistance. This included knowledge of the signs that indicate someone may have been self-injuring, the reasons why people self-injure, as well as clarification of the myths and the facts about NSSI.</p>
             <p>This increase in both the number and detail of the recommendations included in the guidelines can be considered a reflection of the increase in NSSI prevention expertise, research and its subsequent literature that has developed over the past 6&#160;years since the development of the original guidelines. This in itself highlights the importance of conducting revisions of guideline documents, as much change in the literature and expert opinion can occur across the short span of a few years.</p>
             <p>A further difference to the original guidelines is that carers of persons who had engaged in self-injury were not included as expert panellists in the current study. Typically in MHFA guideline development, three expert panels have been recruited: mental health professionals, consumers and carers. Kelly et al. <abbrgrp>
                   <abbr bid="B25">25</abbr>
                </abbrgrp> attempted to represent the expertise and experiences of those who have cared for self-injuring persons, but found carers difficult to recruit. Due to the small number of carers recruited in the previous Delphi study, their endorsement ratings were combined with those of the consumer panel in the end. Because of these previous difficulties in recruitment, the working group made the decision to not have a carer panel in this Delphi study.</p>
          </sec>
          <sec>
             <st>
                <p>4.2 Comparison between ratings of professional and consumer panels</p>
             </st>
             <p>Overall, professionals and consumers rated items similarly. Correlations between the panels&#8217; ratings were high across Rounds 1 and 2. This indicates that both panels generally agreed on what helping actions should be included in the guidelines, and what should be excluded. This included agreement about the importance of the first aider responding in a calm and understanding manner, and acting with empathy towards the person who self-injures. Both professionals and consumers also agreed on the importance of the first aider knowing the myths and facts about NSSI.</p>
             <p>However, while the ratings were quite similar, some notable differences were evident in the ratings assigned to statements between the professional and consumer panels. Ratings differed in the type of support each panel expected the first aider to provide. For example, while 87% of consumers highly endorsed that the first aider should ensure that adequate first aid supplies are available if they live with the person, only 58% of professionals agreed. Similarly, 83% of consumers indicated that the first aider should offer to go along with the person to see a GP or mental health professional, compared to only 58% of professionals. Furthermore, consumers placed more importance on the helping process being consumer driven. For example, 84% of consumers highly endorsed letting the person do most of the talking and 90% endorsed letting the person remain in control over seeking help as much as possible, compared to 52% and 65% of professionals respectively.</p>
             <p>On the other hand, professionals assigned slightly higher ratings to statements that involved the first aider ensuring the safety of the person, which places the first aider in a position to seek appropriate help with the person. For example, 96% of professionals endorsed that the first aider should not promise the person that they will keep their self-injury a secret, compared to 77% of consumers.</p>
          </sec>
          <sec>
             <st>
                <p>4.3 Strengths</p>
             </st>
             <p>The most important strength of this study is that is has resulted in re-developed first aid guidelines for NSSI, which ensured that the guidelines contain the most current and up-to-date recommendations, reflecting the most recent recommendations in the NSSI intervention literature. In doing so, the current guidelines provide greater depth and direction to guide the administration of first aid than the 2008 guidelines. Furthermore, the larger panel sizes recruited for the guideline re-development give more stable results than those obtained in the previous Delphi study. Compared with the original guidelines, 17 more panellists participated in the first round questionnaire. This increase in panel numbers reflects the broader range of NSSI prevention expertise and experiences was drawn upon in the guideline re-development.</p>
          </sec>
          <sec>
             <st>
                <p>4.4 Weaknesses</p>
             </st>
             <p>Despite recruiting the recommended panel sizes, there were drop-outs across the rounds of the study. Only 60% consumers participated in all three questionnaire rounds, with 65% of professionals taking part in all three rounds. As the first survey was expected to take approximately 45&#160;minutes to complete, the time commitment required for the first round questionnaire may have deterred panellists from participation in subsequent rounds. However, despite these drop-out rates, the recommendation of a minimum of 23 Delphi panellists <abbrgrp>
                   <abbr bid="B33">33</abbr>
                </abbrgrp> was reached for both panels for the rating of the majority of items which occurred in Round 1.</p>
             <p>Furthermore, while these guidelines have included adolescent-specific statements to allow first aiders to tailor their assistance in a developmentally appropriate manner, the guidelines have not been developed to incorporate cultural differences. The application of the guidelines to non-western cultures and ethnic minorities is an area requiring further investigation and consultation with NSSI experts from these cultural and ethnic backgrounds.</p>
          </sec>
       </sec>
       <sec>
          <st>
             <p>5
 						Conclusion</p>
          </st>
          <p>Through the Delphi process, the first aid guidelines for NSSI have been updated to ensure they are current and include the most recent and appropriate helping actions. This re-development has added depth to the previous version of the guidelines, giving more guidance in discussing self-injury with the person, seeking professional help, suggesting and encouraging alternative coping strategies, and providing assistance to adolescents who self-injure, as well as important background information and facts about NSSI. These guidelines will now be made freely available for download on the Mental Health First Aid website and inform future revisions of MHFA training courses.</p>
       </sec>
       <sec>
          <st>
             <p>Competing interests</p>
          </st>
          <p>The authors declare that they have no competing interests.</p>
       </sec>
       <sec>
          <st>
             <p>Authors&#8217; contributions</p>
          </st>
          <p>AFJ and CMK developed the methodology. AMR conducted the literature searches, recruited panel members and administered the Delphi rounds. All authors contributed to the development of the questionnaire and participated on the working group. AMR and AFJ prepared the manuscript, with CMK suggesting improvements before approving the final manuscript. All authors read and approved the final manuscript.</p>
       </sec>
       <sec>
          <st>
             <p>Additional file</p>
          </st>
          <suppl id="S1">
             <title>
                <p>Additional file 1:</p>
             </title>
             <text>
                <p>
                   <b>Items endorsed into and rejected from the guidelines, and the corresponding round consensus was reached.</b>
                </p>
             </text>
             <file name="s12888-014-0236-5-S1.xlsx">
                <p>Click here for file</p>
             </file>
          </suppl>
          
       </sec>
    </bdy>
    <bm>
       <ack>
          <sec>
             <st>
                <p>Acknowledgements</p>
             </st>
             <p>The authors gratefully acknowledge the time and effort of the panel members, without whom this study would not have been possible. Funding was provided by National Health and Medical Research Council Australia Fellowship (566652).</p>
          </sec>
       </ack>
       <refgrp>
          
          <bibl id="B1">
             <title>
                <p>Self-injurious behavior as a separate clinical syndrome</p>
             </title>
             <aug>
                <au>
                   <snm>Muehlenkamp</snm>
                   <fnm>JJ</fnm>
                </au>
             </aug>
             <source>Am J Orthopsychiatry</source>
             <pubdate>2005</pubdate>
             <volume>75</volume>
             <fpage>324</fpage>
             <lpage>333</lpage>
             <xrefbib>
                <pubidlist>
                   <pubid idtype="doi">10.1037/0002-9432.75.2.324</pubid>
                   <pubid idtype="pmpid" link="fulltext">15839768</pubid>
                </pubidlist>
             </xrefbib>
          </bibl>
          <bibl id="B2">
             <aug>
                <au>
                   <snm>Kitchener</snm>
                   <fnm>BA</fnm>
                </au>
                <au>
                   <snm>Jorm</snm>
                   <fnm>AF</fnm>
                </au>
                <au>
                   <snm>Kelly</snm>
                   <fnm>CM</fnm>
                </au>
             </aug>
             <source>Mental Health First Aid Manual</source>
             <publisher>Mental Health First Aid Australia, Melbourne</publisher>
             <pubdate>2010</pubdate>
          </bibl>
          <bibl id="B3">
             <aug>
                <au>
                   <snm>Martin</snm>
                   <fnm>G</fnm>
                </au>
                <au>
                   <snm>Swannell</snm>
                   <fnm>S</fnm>
                </au>
                <au>
                   <snm>Harrison</snm>
                   <fnm>J</fnm>
                </au>
                <au>
                   <snm>Hazell</snm>
                   <fnm>P</fnm>
                </au>
                <au>
                   <snm>Taylor</snm>
                   <fnm>A</fnm>
                </au>
             </aug>
             <source>The Australian National Epidemiological Study of Self-Injury (ANESSI)</source>
             <publisher>Centre for Suicide Prevention Studies, Brisbane, Australia</publisher>
             <pubdate>2010</pubdate>
          </bibl>
          <bibl id="B4">
             <title>
                <p>Psychiatric and personality disorders in deliberate self-harm patients</p>
             </title>
             <aug>
                <au>
                   <snm>Haw</snm>
                   <fnm>C</fnm>
                </au>
                <au>
                   <snm>Hawton</snm>
                   <fnm>K</fnm>
                </au>
                <au>
                   <snm>Houston</snm>
                   <fnm>K</fnm>
                </au>
                <au>
                   <snm>Townsend</snm>
                   <fnm>E</fnm>
                </au>
             </aug>
             <source>Br J Psychiatry</source>
             <pubdate>2001</pubdate>
             <volume>178</volume>
             <fpage>48</fpage>
             <lpage>54</lpage>
             <xrefbib>
                <pubidlist>
                   <pubid idtype="doi">10.1192/bjp.178.1.48</pubid>
                   <pubid idtype="pmpid" link="fulltext">11136210</pubid>
                </pubidlist>
             </xrefbib>
          </bibl>
          <bibl id="B5">
             <title>
                <p>Self-mutilation in clinical and general population samples: prevalence, correlates and functions</p>
             </title>
             <aug>
                <au>
                   <snm>Briere</snm>
                   <fnm>J</fnm>
                </au>
                <au>
                   <snm>Gil</snm>
                   <fnm>E</fnm>
                </au>
             </aug>
             <source>Am J Orthopsychiatry</source>
             <pubdate>1998</pubdate>
             <volume>68</volume>
             <fpage>609</fpage>
             <lpage>620</lpage>
             <xrefbib>
                <pubidlist>
                   <pubid idtype="doi">10.1037/h0080369</pubid>
                   <pubid idtype="pmpid" link="fulltext">9809120</pubid>
                </pubidlist>
             </xrefbib>
          </bibl>
          <bibl id="B6">
             <title>
                <p>Risk for suicide attempts among adolescents who engage in non-suicidal self-injury</p>
             </title>
             <aug>
                <au>
                   <snm>Muehlenkamp</snm>
                   <fnm>JJ</fnm>
                </au>
                <au>
                   <snm>Gutierrez</snm>
                   <fnm>PM</fnm>
                </au>
             </aug>
             <source>Arch Suicide Res</source>
             <pubdate>2007</pubdate>
             <volume>11</volume>
             <fpage>69</fpage>
             <lpage>82</lpage>
             <xrefbib>
                <pubidlist>
                   <pubid idtype="doi">10.1080/13811110600992902</pubid>
                   <pubid idtype="pmpid" link="fulltext">17178643</pubid>
                </pubidlist>
             </xrefbib>
          </bibl>
          <bibl id="B7">
             <title>
                <p>Suicide after deliberate self-harm: a 4-year cohort study</p>
             </title>
             <aug>
                <au>
                   <snm>Cooper</snm>
                   <fnm>J</fnm>
                </au>
                <au>
                   <snm>Kapur</snm>
                   <fnm>N</fnm>
                </au>
                <au>
                   <snm>Webb</snm>
                   <fnm>R</fnm>
                </au>
                <au>
                   <snm>Lawlor</snm>
                   <fnm>M</fnm>
                </au>
                <au>
                   <snm>Guthrie</snm>
                   <fnm>E</fnm>
                </au>
                <au>
                   <snm>Mackway-Jones</snm>
                   <fnm>K</fnm>
                </au>
                <au>
                   <snm>Appleby</snm>
                   <fnm>L</fnm>
                </au>
             </aug>
             <source>Am J Psychiatr</source>
             <pubdate>2005</pubdate>
             <volume>162</volume>
             <fpage>297</fpage>
             <lpage>303</lpage>
             <xrefbib>
                <pubidlist>
                   <pubid idtype="doi">10.1176/appi.ajp.162.2.297</pubid>
                   <pubid idtype="pmpid" link="fulltext">15677594</pubid>
                </pubidlist>
             </xrefbib>
          </bibl>
          <bibl id="B8">
             <title>
                <p>Suicide following deliberate self-harm: long-term follow-up of patients who presented to a general hospital</p>
             </title>
             <aug>
                <au>
                   <snm>Hawton</snm>
                   <fnm>K</fnm>
                </au>
                <au>
                   <snm>Zahl</snm>
                   <fnm>D</fnm>
                </au>
                <au>
                   <snm>Weatherall</snm>
                   <fnm>R</fnm>
                </au>
             </aug>
             <source>Br J Psychiatry</source>
             <pubdate>2003</pubdate>
             <volume>182</volume>
             <fpage>537</fpage>
             <lpage>542</lpage>
             <xrefbib>
                <pubidlist>
                   <pubid idtype="doi">10.1192/bjp.182.6.537</pubid>
                   <pubid idtype="pmpid" link="fulltext">12777346</pubid>
                </pubidlist>
             </xrefbib>
          </bibl>
          <bibl id="B9">
             <title>
                <p>Nonsuicidal self-injury, suicidal behaviour, and their co-occurrence as viewed through the lens of the interpersonal theory of suicide</p>
             </title>
             <aug>
                <au>
                   <snm>Joiner</snm>
                   <fnm>TE</fnm>
                </au>
                <au>
                   <snm>Ribeiro</snm>
                   <fnm>JD</fnm>
                </au>
                <au>
                   <snm>Silva</snm>
                   <fnm>C</fnm>
                </au>
             </aug>
             <source>Curr Dir Psychol Sci</source>
             <pubdate>2012</pubdate>
             <volume>21</volume>
             <fpage>342</fpage>
             <lpage>347</lpage>
             <xrefbib>
                <pubidlist>
                   <pubid idtype="doi">10.1177/0963721412454873</pubid>
                </pubidlist>
             </xrefbib>
          </bibl>
          <bibl id="B10">
             <title>
                <p>The relationship between self-injurious behavior and suicide in a young adult population</p>
             </title>
             <aug>
                <au>
                   <snm>Whitlock</snm>
                   <fnm>J</fnm>
                </au>
                <au>
                   <snm>Knox</snm>
                   <fnm>KL</fnm>
                </au>
             </aug>
             <source>Arch Pediatr Adolesc Med</source>
             <pubdate>2007</pubdate>
             <volume>161</volume>
             <fpage>634</fpage>
             <lpage>640</lpage>
             <xrefbib>
                <pubidlist>
                   <pubid idtype="doi">10.1001/archpedi.161.7.634</pubid>
                   <pubid idtype="pmpid" link="fulltext">17606825</pubid>
                </pubidlist>
             </xrefbib>
          </bibl>
          <bibl id="B11">
             <title>
                <p>Suicide and other causes of death following a suicide attempt</p>
             </title>
             <aug>
                <au>
                   <snm>Hawton</snm>
                   <fnm>K</fnm>
                </au>
                <au>
                   <snm>Fagg</snm>
                   <fnm>J</fnm>
                </au>
             </aug>
             <source>Br J Psychiatry</source>
             <pubdate>1988</pubdate>
             <volume>152</volume>
             <fpage>359</fpage>
             <lpage>366</lpage>
             <xrefbib>
                <pubidlist>
                   <pubid idtype="doi">10.1192/bjp.152.3.359</pubid>
                   <pubid idtype="pmpid" link="fulltext">3167371</pubid>
                </pubidlist>
             </xrefbib>
          </bibl>
          <bibl id="B12">
             <title>
                <p>Fatal and non-fatal repitition of self-harm: Systematic review</p>
             </title>
             <aug>
                <au>
                   <snm>Owens</snm>
                   <fnm>D</fnm>
                </au>
                <au>
                   <snm>Horrocks</snm>
                   <fnm>J</fnm>
                </au>
                <au>
                   <snm>House</snm>
                   <fnm>A</fnm>
                </au>
             </aug>
             <source>Br J Psychiatry</source>
             <pubdate>2002</pubdate>
             <volume>181</volume>
             <fpage>193</fpage>
             <lpage>199</lpage>
             <xrefbib>
                <pubidlist>
                   <pubid idtype="doi">10.1192/bjp.181.3.193</pubid>
                   <pubid idtype="pmpid" link="fulltext">12204922</pubid>
                </pubidlist>
             </xrefbib>
          </bibl>
          <bibl id="B13">
             <title>
                <p>Psychological autopsy study of suicide by people aged under 35</p>
             </title>
             <aug>
                <au>
                   <snm>Appleby</snm>
                   <fnm>L</fnm>
                </au>
                <au>
                   <snm>Cooper</snm>
                   <fnm>J</fnm>
                </au>
                <au>
                   <snm>Amos</snm>
                   <fnm>T</fnm>
                </au>
                <au>
                   <snm>Faragher</snm>
                   <fnm>B</fnm>
                </au>
             </aug>
             <source>Br J Psychiatry</source>
             <pubdate>1999</pubdate>
             <volume>175</volume>
             <fpage>168</fpage>
             <lpage>174</lpage>
             <xrefbib>
                <pubidlist>
                   <pubid idtype="doi">10.1192/bjp.175.2.168</pubid>
                   <pubid idtype="pmpid" link="fulltext">10627801</pubid>
                </pubidlist>
             </xrefbib>
          </bibl>
          <bibl id="B14">
             <title>
                <p>Mental disorders and suicide in Northern Ireland</p>
             </title>
             <aug>
                <au>
                   <snm>Foster</snm>
                   <fnm>T</fnm>
                </au>
                <au>
                   <snm>Gillespie</snm>
                   <fnm>K</fnm>
                </au>
                <au>
                   <snm>McClelland</snm>
                   <fnm>R</fnm>
                </au>
             </aug>
             <source>Br J Psychiatry</source>
             <pubdate>1997</pubdate>
             <volume>170</volume>
             <fpage>447</fpage>
             <lpage>452</lpage>
             <xrefbib>
                <pubidlist>
                   <pubid idtype="doi">10.1192/bjp.170.5.447</pubid>
                   <pubid idtype="pmpid" link="fulltext">9307695</pubid>
                </pubidlist>
             </xrefbib>
          </bibl>
          <bibl id="B15">
             <title>
                <p>A population-based study of help-seking for self-harm in young adults</p>
             </title>
             <aug>
                <au>
                   <snm>Nada-Raja</snm>
                   <fnm>S</fnm>
                </au>
                <au>
                   <snm>Morrison</snm>
                   <fnm>D</fnm>
                </au>
                <au>
                   <snm>Skegg</snm>
                   <fnm>K</fnm>
                </au>
             </aug>
             <source>Aust N Z J Psychiatry</source>
             <pubdate>2003</pubdate>
             <volume>37</volume>
             <fpage>600</fpage>
             <lpage>605</lpage>
             <xrefbib>
                <pubidlist>
                   <pubid idtype="doi">10.1046/j.1440-1614.2003.01252.x</pubid>
                   <pubid idtype="pmpid" link="fulltext">14511089</pubid>
                </pubidlist>
             </xrefbib>
          </bibl>
          <bibl id="B16">
             <title>
                <p>When and how do young people seek professional help for mental health problems?</p>
             </title>
             <aug>
                <au>
                   <snm>Rickwood</snm>
                   <fnm>DJ</fnm>
                </au>
                <au>
                   <snm>Deane</snm>
                   <fnm>FP</fnm>
                </au>
                <au>
                   <snm>Wilson</snm>
                   <fnm>CJ</fnm>
                </au>
             </aug>
             <source>Med J Aust</source>
             <pubdate>2007</pubdate>
             <volume>187</volume>
             <fpage>S35</fpage>
             <lpage>S39</lpage>
             <xrefbib>
                <pubidlist>
                   <pubid idtype="pmpid" link="fulltext">17908023</pubid>
                </pubidlist>
             </xrefbib>
          </bibl>
          <bibl id="B17">
             <title>
                <p>Who are the kids who self-harm? An Australian self-report school survey</p>
             </title>
             <aug>
                <au>
                   <snm>De Leo</snm>
                   <fnm>D</fnm>
                </au>
                <au>
                   <snm>Heller</snm>
                   <fnm>TS</fnm>
                </au>
             </aug>
             <source>Med J Aust</source>
             <pubdate>2004</pubdate>
             <volume>181</volume>
             <fpage>140</fpage>
             <lpage>144</lpage>
             <xrefbib>
                <pubidlist>
                   <pubid idtype="pmpid" link="fulltext">15287831</pubid>
                </pubidlist>
             </xrefbib>
          </bibl>
          <bibl id="B18">
             <title>
                <p>In what ways are adolescents who engage in self-harm or experience thoughts of self-harm different in terms of help-seeking, communication and coping strategies?</p>
             </title>
             <aug>
                <au>
                   <snm>Evans</snm>
                   <fnm>E</fnm>
                </au>
                <au>
                   <snm>Hawton</snm>
                   <fnm>K</fnm>
                </au>
                <au>
                   <snm>Rodham</snm>
                   <fnm>K</fnm>
                </au>
             </aug>
             <source>J Adolesc</source>
             <pubdate>2005</pubdate>
             <volume>28</volume>
             <fpage>573</fpage>
             <lpage>587</lpage>
             <xrefbib>
                <pubidlist>
                   <pubid idtype="doi">10.1016/j.adolescence.2004.11.001</pubid>
                   <pubid idtype="pmpid" link="fulltext">16022890</pubid>
                </pubidlist>
             </xrefbib>
          </bibl>
          <bibl id="B19">
             <title>
                <p>Help-seeking before and after episodes of self-harm: a descriptive study in school pupils in England</p>
             </title>
             <aug>
                <au>
                   <snm>Fortune</snm>
                   <fnm>S</fnm>
                </au>
                <au>
                   <snm>Sinclair</snm>
                   <fnm>J</fnm>
                </au>
                <au>
                   <snm>Hawton</snm>
                   <fnm>K</fnm>
                </au>
             </aug>
             <source>BMC Public Health</source>
             <pubdate>2008</pubdate>
             <volume>8</volume>
             <fpage>369</fpage>
             <xrefbib>
                <pubidlist>
                   <pubid idtype="doi">10.1186/1471-2458-8-369</pubid>
                   <pubid idtype="pmpid" link="fulltext">18947435</pubid>
                </pubidlist>
             </xrefbib>
          </bibl>
          <bibl id="B20">
             <title>
                <p>Nonsuicidal self-injury in young adolescent girls: moderators of the distress-function relationship</p>
             </title>
             <aug>
                <au>
                   <snm>Hilt</snm>
                   <fnm>LM</fnm>
                </au>
                <au>
                   <snm>Cha</snm>
                   <fnm>CB</fnm>
                </au>
                <au>
                   <snm>Nolen-Hoeksema</snm>
                   <fnm>S</fnm>
                </au>
             </aug>
             <source>J Consult Clin Psychol</source>
             <pubdate>2008</pubdate>
             <volume>76</volume>
             <fpage>63</fpage>
             <lpage>71</lpage>
             <xrefbib>
                <pubidlist>
                   <pubid idtype="doi">10.1037/0022-006X.76.1.63</pubid>
                   <pubid idtype="pmpid" link="fulltext">18229984</pubid>
                </pubidlist>
             </xrefbib>
          </bibl>
          <bibl id="B21">
             <title>
                <p>Beliefs about appropriate first aid for young people with mental disorders: findings from an Australian national survey of youth and parents</p>
             </title>
             <aug>
                <au>
                   <snm>Jorm</snm>
                   <fnm>AF</fnm>
                </au>
                <au>
                   <snm>Wright</snm>
                   <fnm>A</fnm>
                </au>
                <au>
                   <snm>Morgan</snm>
                   <fnm>AJ</fnm>
                </au>
             </aug>
             <source>Early Intervent Psychiatry</source>
             <pubdate>2007</pubdate>
             <volume>1</volume>
             <fpage>61</fpage>
             <lpage>70</lpage>
             <xrefbib>
                <pubidlist>
                   <pubid idtype="doi">10.1111/j.1751-7893.2007.00012.x</pubid>
                </pubidlist>
             </xrefbib>
          </bibl>
          <bibl id="B22">
             <title>
                <p>Helping someone with problem drinking: mental health first aid guidelines - a Delphi expert consensus study</p>
             </title>
             <aug>
                <au>
                   <snm>Kingston</snm>
                   <fnm>A</fnm>
                </au>
                <au>
                   <snm>Jorm</snm>
                   <fnm>A</fnm>
                </au>
                <au>
                   <snm>Kitchener</snm>
                   <fnm>B</fnm>
                </au>
                <au>
                   <snm>Hides</snm>
                   <fnm>L</fnm>
                </au>
                <au>
                   <snm>Kelly</snm>
                   <fnm>C</fnm>
                </au>
                <au>
                   <snm>Morgan</snm>
                   <fnm>A</fnm>
                </au>
                <au>
                   <snm>Hart</snm>
                   <fnm>L</fnm>
                </au>
                <au>
                   <snm>Lubman</snm>
                   <fnm>D</fnm>
                </au>
             </aug>
             <source>BMC Psychiatry</source>
             <pubdate>2009</pubdate>
             <volume>9</volume>
             <fpage>79</fpage>
             <xrefbib>
                <pubidlist>
                   <pubid idtype="doi">10.1186/1471-244X-9-79</pubid>
                   <pubid idtype="pmpid" link="fulltext">19968868</pubid>
                </pubidlist>
             </xrefbib>
          </bibl>
          <bibl id="B23">
             <title>
                <p>Helping someone with problem drug use: a delphi consensus study of consumers, carers, and clinicians</p>
             </title>
             <aug>
                <au>
                   <snm>Kingston</snm>
                   <fnm>A</fnm>
                </au>
                <au>
                   <snm>Morgan</snm>
                   <fnm>A</fnm>
                </au>
                <au>
                   <snm>Jorm</snm>
                   <fnm>A</fnm>
                </au>
                <au>
                   <snm>Hall</snm>
                   <fnm>K</fnm>
                </au>
                <au>
                   <snm>Hart</snm>
                   <fnm>L</fnm>
                </au>
                <au>
                   <snm>Kelly</snm>
                   <fnm>C</fnm>
                </au>
                <au>
                   <snm>Lubman</snm>
                   <fnm>D</fnm>
                </au>
             </aug>
             <source>BMC Psychiatry</source>
             <pubdate>2011</pubdate>
             <volume>11</volume>
             <fpage>3</fpage>
             <xrefbib>
                <pubidlist>
                   <pubid idtype="doi">10.1186/1471-244X-11-3</pubid>
                   <pubid idtype="pmpid" link="fulltext">21208412</pubid>
                </pubidlist>
             </xrefbib>
          </bibl>
          <bibl id="B24">
             <title>
                <p>Development of mental health first aid guidelines on how a member of the public can support a person affected by a traumatic event: a Delphi study</p>
             </title>
             <aug>
                <au>
                   <snm>Kelly</snm>
                   <fnm>CM</fnm>
                </au>
                <au>
                   <snm>Jorm</snm>
                   <fnm>AF</fnm>
                </au>
                <au>
                   <snm>Kitchener</snm>
                   <fnm>BA</fnm>
                </au>
             </aug>
             <source>BMC Psychiatry</source>
             <pubdate>2010</pubdate>
             <volume>10</volume>
             <fpage>49</fpage>
             <xrefbib>
                <pubidlist>
                   <pubid idtype="doi">10.1186/1471-244X-10-49</pubid>
                   <pubid idtype="pmpid" link="fulltext">20565918</pubid>
                </pubidlist>
             </xrefbib>
          </bibl>
          <bibl id="B25">
             <title>
                <p>Development of mental health first aid guidelines for deliberate non-suicidal self-injury: a Delphi study</p>
             </title>
             <aug>
                <au>
                   <snm>Kelly</snm>
                   <fnm>CM</fnm>
                </au>
                <au>
                   <snm>Jorm</snm>
                   <fnm>AF</fnm>
                </au>
                <au>
                   <snm>Kitchener</snm>
                   <fnm>BA</fnm>
                </au>
                <au>
                   <snm>Langlands</snm>
                   <fnm>RL</fnm>
                </au>
             </aug>
             <source>BMC Psychiatry</source>
             <pubdate>2008</pubdate>
             <volume>8</volume>
             <fpage>62</fpage>
             <xrefbib>
                <pubidlist>
                   <pubid idtype="doi">10.1186/1471-244X-8-62</pubid>
                   <pubid idtype="pmpid" link="fulltext">18647420</pubid>
                </pubidlist>
             </xrefbib>
          </bibl>
          <bibl id="B26">
             <title>
                <p>Development of mental health first aid guidelines for panic attacks: a Delphi study</p>
             </title>
             <aug>
                <au>
                   <snm>Kelly</snm>
                   <fnm>CM</fnm>
                </au>
                <au>
                   <snm>Jorm</snm>
                   <fnm>AF</fnm>
                </au>
                <au>
                   <snm>Kitchener</snm>
                   <fnm>BA</fnm>
                </au>
             </aug>
             <source>BMC Psychiatry</source>
             <pubdate>2009</pubdate>
             <volume>9</volume>
             <fpage>49</fpage>
             <xrefbib>
                <pubidlist>
                   <pubid idtype="doi">10.1186/1471-244X-9-49</pubid>
                   <pubid idtype="pmpid" link="fulltext">19664244</pubid>
                </pubidlist>
             </xrefbib>
          </bibl>
          <bibl id="B27">
             <title>
                <p>Development of mental health first aid guidelines for suicidal ideation and behaviour: a Delphi study</p>
             </title>
             <aug>
                <au>
                   <snm>Kelly</snm>
                   <fnm>CM</fnm>
                </au>
                <au>
                   <snm>Jorm</snm>
                   <fnm>AF</fnm>
                </au>
                <au>
                   <snm>Kitchener</snm>
                   <fnm>BA</fnm>
                </au>
                <au>
                   <snm>Langlands</snm>
                   <fnm>RL</fnm>
                </au>
             </aug>
             <source>BMC Psychiatry</source>
             <pubdate>2008</pubdate>
             <volume>8</volume>
             <fpage>17</fpage>
             <xrefbib>
                <pubidlist>
                   <pubid idtype="doi">10.1186/1471-244X-8-17</pubid>
                   <pubid idtype="pmpid" link="fulltext">18366657</pubid>
                </pubidlist>
             </xrefbib>
          </bibl>
          <bibl id="B28">
             <title>
                <p>First aid for depression: a delphi consensus study with consumers, carers and clinicians</p>
             </title>
             <aug>
                <au>
                   <snm>Langlands</snm>
                   <fnm>RL</fnm>
                </au>
                <au>
                   <snm>Jorm</snm>
                   <fnm>AF</fnm>
                </au>
                <au>
                   <snm>Kelly</snm>
                   <fnm>CM</fnm>
                </au>
                <au>
                   <snm>Kitchener</snm>
                   <fnm>BA</fnm>
                </au>
             </aug>
             <source>J Affect Disord</source>
             <pubdate>2008</pubdate>
             <volume>105</volume>
             <fpage>157</fpage>
             <lpage>165</lpage>
             <xrefbib>
                <pubidlist>
                   <pubid idtype="doi">10.1016/j.jad.2007.05.004</pubid>
                   <pubid idtype="pmpid" link="fulltext">17574684</pubid>
                </pubidlist>
             </xrefbib>
          </bibl>
          <bibl id="B29">
             <title>
                <p>First aid recommendations for psychosis: using the delphi method to gain consensus between mental health consumers, carers and clinicians</p>
             </title>
             <aug>
                <au>
                   <snm>Langlands</snm>
                   <fnm>RL</fnm>
                </au>
                <au>
                   <snm>Jorm</snm>
                   <fnm>AF</fnm>
                </au>
                <au>
                   <snm>Kelly</snm>
                   <fnm>CM</fnm>
                </au>
                <au>
                   <snm>Kitchener</snm>
                   <fnm>BA</fnm>
                </au>
             </aug>
             <source>Schizophr Bull</source>
             <pubdate>2008</pubdate>
             <volume>34</volume>
             <fpage>435</fpage>
             <lpage>443</lpage>
             <xrefbib>
                <pubidlist>
                   <pubid idtype="doi">10.1093/schbul/sbm099</pubid>
                   <pubid idtype="pmpid" link="fulltext">17768307</pubid>
                </pubidlist>
             </xrefbib>
          </bibl>
          <bibl id="B30">
             <title>
                <p>Mental health first aid: an international programme for early intervention</p>
             </title>
             <aug>
                <au>
                   <snm>Kitchener</snm>
                   <fnm>BA</fnm>
                </au>
                <au>
                   <snm>Jorm</snm>
                   <fnm>AF</fnm>
                </au>
             </aug>
             <source>Early Intervent Psychiatry</source>
             <pubdate>2008</pubdate>
             <volume>2</volume>
             <fpage>55</fpage>
             <lpage>61</lpage>
             <xrefbib>
                <pubidlist>
                   <pubid idtype="doi">10.1111/j.1751-7893.2007.00056.x</pubid>
                </pubidlist>
             </xrefbib>
          </bibl>
          <bibl id="B31">
             <title>
                <p>Noting a landmark achievement: mental health first aid training reaches 1% of Australian adults</p>
             </title>
             <aug>
                <au>
                   <snm>Jorm</snm>
                   <fnm>AF</fnm>
                </au>
                <au>
                   <snm>Kitchener</snm>
                   <fnm>BA</fnm>
                </au>
             </aug>
             <source>Aust N Z J Psychiatry</source>
             <pubdate>2011</pubdate>
             <volume>45</volume>
             <fpage>808</fpage>
             <lpage>813</lpage>
             <xrefbib>
                <pubidlist>
                   <pubid idtype="doi">10.3109/00048674.2011.594785</pubid>
                   <pubid idtype="pmpid" link="fulltext">21827342</pubid>
                </pubidlist>
             </xrefbib>
          </bibl>
          <bibl id="B32">
             <title>
                <p>Mental health first aid guidelines: an evaluation of impact following download from the World Wide Web</p>
             </title>
             <aug>
                <au>
                   <snm>Hart</snm>
                   <fnm>LM</fnm>
                </au>
                <au>
                   <snm>Jorm</snm>
                   <fnm>AF</fnm>
                </au>
                <au>
                   <snm>Paxton</snm>
                   <fnm>SJ</fnm>
                </au>
                <au>
                   <snm>Cvetkovski</snm>
                   <fnm>S</fnm>
                </au>
             </aug>
             <source>Early Intervent Psychiatry</source>
             <pubdate>2012</pubdate>
             <volume>6</volume>
             <fpage>399</fpage>
             <lpage>406</lpage>
             <xrefbib>
                <pubidlist>
                   <pubid idtype="doi">10.1111/j.1751-7893.2012.00345.x</pubid>
                </pubidlist>
             </xrefbib>
          </bibl>
          <bibl id="B33">
             <title>
                <p>Consensus methods for medical and health services research</p>
             </title>
             <aug>
                <au>
                   <snm>Jones</snm>
                   <fnm>J</fnm>
                </au>
                <au>
                   <snm>Hunter</snm>
                   <fnm>D</fnm>
                </au>
             </aug>
             <source>Br Med J</source>
             <pubdate>1995</pubdate>
             <volume>311</volume>
             <fpage>376</fpage>
             <lpage>380</lpage>
             <xrefbib>
                <pubidlist>
                   <pubid idtype="doi">10.1136/bmj.311.7001.376</pubid>
                </pubidlist>
             </xrefbib>
          </bibl>
       </refgrp>
    </bm>
 </art>
