<art>
    <ui>s12881-014-0111-8</ui>
    <ji>1471-2350</ji>
    <fm>
       <dochead>Research article</dochead>
       <bibl>
          <title>
             <p>Paraganglioma and pheochromocytoma upon maternal transmission of <it>SDHD</it> mutations</p>
          </title>
          <aug>
             <au ca="yes" id="A1">
                <snm>Bayley</snm>
                <fnm>Jean-Pierre</fnm>
                <insr iid="I1"/>
                <email>j.p.l.bayley@lumc.nl</email>
             </au>
             <au id="A2">
                <snm>Oldenburg</snm>
                <mi>A</mi>
                <fnm>Rogier</fnm>
                <insr iid="I6"/>
                <email>r.oldenburg@erasmusmc.nl</email>
             </au>
             <au id="A3">
                <snm>Nuk</snm>
                <fnm>Jennifer</fnm>
                <insr iid="I8"/>
                <email>jnuk@bccancer.bc.ca</email>
             </au>
             <au id="A4">
                <snm>Hoekstra</snm>
                <mi>S</mi>
                <fnm>Attje</fnm>
                <insr iid="I1"/>
                <email>A.S.Hoekstra@lumc.nl</email>
             </au>
             <au id="A5">
                <snm>van der Meer</snm>
                <mi>A</mi>
                <fnm>Conny</fnm>
                <insr iid="I6"/>
                <email>c.vandermeer@erasmusmc.nl</email>
             </au>
             <au id="A6">
                <snm>Korpershoek</snm>
                <fnm>Esther</fnm>
                <insr iid="I7"/>
                <email>e.korpershoek.1@erasmusmc.nl</email>
             </au>
             <au id="A7">
                <snm>McGillivray</snm>
                <fnm>Barbara</fnm>
                <insr iid="I8"/>
                <email>bmcgillivray@cw.bc.ca</email>
             </au>
             <au id="A8">
                <snm>Corssmit</snm>
                <mnm>PM</mnm>
                <fnm>Eleonora</fnm>
                <insr iid="I5"/>
                <email>E.P.M.van_der_Kleij-Corssmit@lumc.nl</email>
             </au>
             <au id="A9">
                <snm>Dinjens</snm>
                <mnm>NM</mnm>
                <fnm>Winand</fnm>
                <insr iid="I7"/>
                <email>w.dinjens@erasmusmc.nl</email>
             </au>
             <au id="A10">
                <snm>de Krijger</snm>
                <mi>R</mi>
                <fnm>Ronald</fnm>
                <insr iid="I7"/>
                <email>r.dekrijger@erasmusmc.nl</email>
             </au>
             <au id="A11">
                <snm>Devilee</snm>
                <fnm>Peter</fnm>
                <insr iid="I1"/>
                <insr iid="I3"/>
                <email>P.Devilee@lumc.nl</email>
             </au>
             <au id="A12">
                <snm>Jansen</snm>
                <mi>C</mi>
                <fnm>Jeroen</fnm>
                <insr iid="I4"/>
                <email>J.C.Jansen@lumc.nl</email>
             </au>
             <au id="A13">
                <snm>Hes</snm>
                <mi>J</mi>
                <fnm>Frederik</fnm>
                <insr iid="I2"/>
                <email>F.J.Hes@lumc.nl</email>
             </au>
          </aug>
          <insg>
             <ins id="I1">
                <p>Department of Human Genetics, Leiden University Medical Center, PZ S-04, Leiden, 2300, RC, the Netherlands</p>
             </ins>
             <ins id="I2">
                <p>Department of Clinical Genetics, Leiden University Medical Center, Leiden, the Netherlands</p>
             </ins>
             <ins id="I3">
                <p>Department of Pathology, Leiden University Medical Center, Leiden, the Netherlands</p>
             </ins>
             <ins id="I4">
                <p>Department of Otorhinolaryngology, Leiden University Medical Center, Leiden, the Netherlands</p>
             </ins>
             <ins id="I5">
                <p>Department of Endocrinology, Leiden University Medical Center, Leiden, the Netherlands</p>
             </ins>
             <ins id="I6">
                <p>Department of Clinical Genetics, Erasmus Medical Center Rotterdam, Rotterdam, the Netherlands</p>
             </ins>
             <ins id="I7">
                <p>Department of Pathology, Josephine Nefkens Institute, Erasmus Medical Center Rotterdam, Rotterdam, the Netherlands</p>
             </ins>
             <ins id="I8">
                <p>Hereditary Cancer Program, BC Cancer Agency, Vancouver, Canada</p>
             </ins>
          </insg>
          <source>BMC Medical Genetics</source>
          <issn>1471-2350</issn>
          <pubdate>2014</pubdate>
          <volume>15</volume>
          <issue>1</issue>
          <fpage>111</fpage>
          <url>http://www.biomedcentral.com/1471-2350/15/111</url>
          <xrefbib>
             <pubidlist>
                <pubid idtype="doi">10.1186/s12881-014-0111-8</pubid>
                <pubid idtype="pmpid">25300370</pubid>
             </pubidlist>
          </xrefbib>
       </bibl>
       <history>
          <rec>
             <date>
                <day>14</day>
                <month>1</month>
                <year>2014</year>
             </date>
          </rec>
          <acc>
             <date>
                <day>24</day>
                <month>9</month>
                <year>2014</year>
             </date>
          </acc>
          <pub>
             <date>
                <day>10</day>
                <month>10</month>
                <year>2014</year>
             </date>
          </pub>
       </history>
       <cpyrt>
          <year>2014</year>
          <collab>Bayley et al.; licensee BioMed Central Ltd.</collab>
          <note>This is an Open Access article distributed under the terms of the Creative Commons Attribution License (<url>http://creativecommons.org/licenses/by/2.0</url>), which permits unrestricted use, distribution, and reproduction in any medium, provided the original work is properly credited. The Creative Commons Public Domain Dedication waiver (<url>http://creativecommons.org/publicdomain/zero/1.0/</url>) applies to the data made available in this article, unless otherwise stated.</note>
       </cpyrt>
       <kwdg>
          <kwd>Paraganglioma</kwd>
          <kwd>Pheochromocytoma</kwd>
          <kwd>SDHD</kwd>
          <kwd>Imprinting</kwd>
          <kwd>Parent-of-origin</kwd>
       </kwdg>
       <abs>
          <sec>
             <st>
                <p>Abstract</p>
             </st>
             <sec>
                <st>
                   <p>Background</p>
                </st>
                <p>The <it>SDHD</it> gene encodes a subunit of the mitochondrial tricarboxylic acid cycle enzyme and tumor suppressor, succinate dehydrogenase. Mutations in this gene show a remarkable pattern of parent-of-origin related tumorigenesis, with almost all <it>SDHD</it>-related cases of head and neck paragangliomas and pheochromocytomas attributable to paternally-transmitted mutations.</p>
             </sec>
             <sec>
                <st>
                   <p>Methods</p>
                </st>
                <p>Here we explore the underlying molecular basis of three cases of paraganglioma or pheochromocytoma that came to our attention due to apparent maternal transmission of an <it>SDHD</it> mutation. We used DNA analysis of family members to establish the mode of inheritance of each mutation. Genetic and immunohistochemical studies of available tumors were then carried out to confirm <it>SDHD</it>-related tumorigenesis.</p>
             </sec>
             <sec>
                <st>
                   <p>Results</p>
                </st>
                <p>We found convincing genetic and immunohistochemical evidence for the maternally-related occurrence of a case of pheochromocytoma, and suggestive evidence in a case of jugular paraganglioma. The third case appears to be a phenocopy, a sporadic paraganglioma in an <it>SDHD</it> mutation carrier with no immunohistochemical or DNA evidence to support a causal link between the mutation and the tumor. Microsatellite analysis in the tumor of patient 1 provided evidence for somatic recombination and loss of the paternal region of chromosome 11 including <it>SDHD</it> and the maternal chromosome including the centromere and the p arm.</p>
             </sec>
             <sec>
                <st>
                   <p>Conclusions</p>
                </st>
                <p>Transmission of <it>SDHD</it> mutations via the maternal line can, in rare cases, result in tumorigenesis. Despite this finding, the overwhelming majority of carriers of maternally-transmitted mutations will remain tumor-free throughout life.</p>
             </sec>
          </sec>
       </abs>
    </fm>
    <bdy>
       <sec>
          <st>
             <p>1
 						Background</p>
          </st>
          <p>Paragangliomas of the head and neck (HNPGL) are rare and often benign tumors that arise most commonly in the carotid body, but also occur in the jugular bulb or tympanic nerve and at the vagal bodies of the ganglions of the vagal nerve <abbrgrp>
                <abbr bid="B1">1</abbr>
             </abbrgrp>. HNPGLs are generally diagnosed in adulthood and show mild symptoms, with a characteristically slow tumor progression <abbrgrp>
                <abbr bid="B2">2</abbr>
             </abbrgrp>. Pheochromocytomas and abdominal paragangliomas are closely related tumors that are associated with the sympathetic nervous system. They occur most commonly in the adrenal medulla (as pheochromocytomas) but approximately 10-20% arise elsewhere in the abdomen <abbrgrp>
                <abbr bid="B3">3</abbr>
             </abbrgrp>. These non-adrenal tumors are collectively referred to as &#8216;sympathetic paragangliomas&#8217; (sPGLs).</p>
          <p>Succinate dehydrogenase (SDH) is a tetrameric mitochondrial enzyme that consists of two catalytic subunits, SDHA and SDHB, and two membrane-anchoring subunits, SDHC and SDHD. SDH plays a central role in the tricarboxylic acid cycle and the electron transport chain, the two essential energy producing processes of the cell. The last decade has seen the identification of mutations in five SDH-related genes that cause hereditary paraganglioma-pheochromocytoma syndrome, including <it>SDHD</it> (chromosome 11q23) <abbrgrp>
                <abbr bid="B4">4</abbr>
             </abbrgrp>, <it>SDHB</it> (chromosome 1p36) <abbrgrp>
                <abbr bid="B5">5</abbr>
             </abbrgrp>, <it>SDHC</it> (chromosome 1q23) <abbrgrp>
                <abbr bid="B6">6</abbr>
             </abbrgrp>, <it>SDHAF2</it> (chromosome 11q12.2) <abbrgrp>
                <abbr bid="B7">7</abbr>
             </abbrgrp>, and <it>SDHA</it> (chromosome 5p15) <abbrgrp>
                <abbr bid="B8">8</abbr>
             </abbrgrp>.</p>
          <p>Germline mutations of the <it>SDHD</it> gene show a &#8216;parent-of-origin&#8217; expression phenotype, with tumor development occurring only when mutations are inherited via the paternal line. This phenotype was originally interpreted as evidence for &#8216;imprinted&#8217; or allele-specific gene expression of <it>SDHD</it>
             <abbrgrp>
                <abbr bid="B9">9</abbr>
             </abbrgrp>. This phenomenon is not seen in the case of <it>SDHA</it>, <it>SDHB</it> or <it>SDHC</it> gene mutations, which result in tumor development regardless of the parental origin of the mutation. The only other tumor suppressor genes known to show a &#8216;parent-of-origin&#8217; phenotype are the recently described genes <it>SDHAF2</it> and <it>MAX,</it> located on chromosome 11q12.2 and 14q23, respectively <abbrgrp>
                <abbr bid="B7">7</abbr>
             </abbrgrp>,<abbrgrp>
                <abbr bid="B8">8</abbr>
             </abbrgrp>,<abbrgrp>
                <abbr bid="B10">10</abbr>
             </abbrgrp>.</p>
          <p>Previous cases of tumor development related to maternal transmission of an <it>SDHD</it> mutation include a 2008 report by Pigny et al. <abbrgrp>
                <abbr bid="B11">11</abbr>
             </abbrgrp>, which was later challenged as a probable misdiagnosis <abbrgrp>
                <abbr bid="B12">12</abbr>
             </abbrgrp>, and more recent report by Yeap et al. in which the authors presented genetic evidence of maternal transmission <abbrgrp>
                <abbr bid="B13">13</abbr>
             </abbrgrp>.</p>
          <p>Here we describe a patient with pheochromocytoma and two patients with head and neck paraganglioma who came to our attention due to tumor susceptibility that was apparently maternally-related. We first investigated available family members to exclude the possibility that the mutation could have been transmitted by the biological father. We then analysed the loss of alleles of the <it>SDHD</it> gene in available tumors, we carried out whole chromosome loss of heterozygosity (LOH) analysis and finally, we analysed the expression of SDHB in tumors, loss of which is a hallmark of tumors related to succinate dehydrogenase dysfunction.</p>
       </sec>
       <sec>
          <st>
             <p>2
 						Methods</p>
          </st>
          <sec>
             <st>
                <p>2.1 Patients</p>
             </st>
             <p>The patients described in this study carried a confirmed pathogenic mutation in the <it>SDHD</it> gene, identified due to a clinical diagnosis or to a family relationship to known mutation carriers. Patients and family members were seen at the relevant centers in Leiden or Rotterdam, the Netherlands, or in Vancouver, Canada. Patients and other currently unaffected family members known to be mutation carriers underwent a full clinical assessment. Written informed consent was obtained for DNA testing, further analyses and publication of all results, according to protocols approved by the Ethics Committees of the Erasmus Medical Center, Rotterdam and the BC Cancer Agency, Vancouver. Verbal informed consent was obtained from patients seen at the LUMC, Leiden.</p>
          </sec>
          <sec>
             <st>
                <p>2.2 Haplotype analysis</p>
             </st>
             <p>DNA was isolated from heparinized whole blood according to standard protocols. Analysis of haplotypes using polymorphic di-, and tetra nucleotide markers (microsatellite markers) was performed following standard procedures (details available upon request), using the markers described in the results section. These markers were selected based on location, and for probable informativity due to a high reported heterozygosity index, from a custom database of 8100 markers based on the UniSTS and Marshfield databases (available upon request).</p>
          </sec>
          <sec>
             <st>
                <p>2.3 Allele specific loss of <it>SDHD</it>
                </p>
             </st>
             <p>The loss of a specific parental allele of <it>SDHD</it> was determined by PCR and bi-directional Sanger sequencing of the <it>SDHD</it> gene using standard procedures (primer details available upon request).</p>
          </sec>
          <sec>
             <st>
                <p>2.4 Loss of heterozygosity (LOH) analysis</p>
             </st>
             <p>Tumor sections (7um) were incubated overnight with proteinase K at 60&#176;C and DNA was isolated using the Qiagen FFPE DNA kit (Qiagen Benelux B.V., Venlo, The Netherlands) according to the manufacturer&#8217;s instructions. A selection of informative microsatellite markers were analysed, as described in the results section. Paragangliomas often remain histologically well-differentiated and contain several types of normal cells that show expansion under the influence of the chief cell fraction, the only neoplastic component of the tumor <abbrgrp>
                   <abbr bid="B14">14</abbr>
                </abbrgrp>. The presence and expansion of these bystander cells means that loss of heterozygosity analysis is often contaminated by the presence of DNA from these cell populations. We therefore used the allelic imbalance ration of 0.7 or less as evidence for LOH <abbrgrp>
                   <abbr bid="B15">15</abbr>
                </abbrgrp>. Microsatellite markers were analyzed on an ABI 3730 genetic analyzer and using Gene Marker software (Soft Genetics, State College, PA 16803, USA), with ABI GeneScan Rox 400 as internal size standards. LOH of markers was calculated using the allelic imbalance ratio: AIR =&#8201;(Tumor1/Tumor2)/(Normal1/Normal2). Ratios were based on results from the duplo analysis of two separate DNA isolations from the tumor. Some markers were either not informative in the patient or did not perform well enough with tumor DNA to give a reliable result. The remaining informative markers (n =&#8201;7) were used in the analysis.</p>
          </sec>
          <sec>
             <st>
                <p>2.5 Pathology and (immuno)histochemistry</p>
             </st>
             <p>Sections from formalin-fixed paraffin embedded (FFPE) tumor blocks were stained with hematoxylin &amp; eosin (H&amp;E) using standard methods. An experienced neuroendocrine pathologist (RdK) evaluated slides and provided or confirmed (patient 3) the histopathological diagnosis. A recent and important development in the diagnosis of SDH-related paraganglioma has been the application of SDHB immunohistochemistry, which can reliably identify and differentiate SDH-related tumors from tumors with other causes regardless of which of the SDH genes is actually affected by a mutation <abbrgrp>
                   <abbr bid="B16">16</abbr>
                </abbrgrp>. SDHB immunohistochemistry was carried out as described <abbrgrp>
                   <abbr bid="B16">16</abbr>
                </abbrgrp>, using a rabbit polyclonal primary SDHB antibody, HPA002868 (Sigma-Aldrich Corp; St Louis, MO, USA; 1:500).</p>
          </sec>
       </sec>
       <sec>
          <st>
             <p>3
 						Results and discussion</p>
          </st>
          <p>Our first patient (patient 1) was a young man who experienced increasing tiredness around the age of 16, but without excessive transpiration or palpitations. The patient also reported sudden weight gain and acute, localized headaches. The evaluation of catecholamines showed raised plasma concentrations of noradrenaline, adrenaline, dopamine and raised urinary levels of normetanephrine. Radiological examination (by CT) revealed a mass at the level of the left kidney, and a positive octreotide scan showed a suspicious accumulation at the left adrenal. A tumor (70&#8201;&#215;&#8201;60&#8201;&#215;&#8201;40mm) was removed via adrenalectomy and was confirmed as a pheochromocytoma with signs of vasoinvasive growth. Although distant maternal relatives of this patient have a history of paragangliomas and carry a known pathogenic <it>SDHD</it> gene mutation, no immediate maternal relative is affected, probably due to the inheritance of the mutation via the maternal line for several generations. The paternal family had no known history of paraganglioma. Due to the maternal inheritance of the mutation, the patient was not immediately suspect for a <it>SDHD</it>-related paraganglioma. The initial mutation analysis therefore focused on other genes including <it>VHL</it> (with FISH analysis), <it>RET</it>, <it>SDHB</it> and <it>SDHC</it>. When all proved to be negative, analysis of the <it>SDHD</it> gene was undertaken and a heterozygous mutation identified in exon 3, the well-known Dutch founder mutation, c.274G&gt;T, p.Asp92Tyr, also present in other family members. The patient, his mother and his maternal grandmother all carried the mutation (Figure&#160;<figr fid="F1">1</figr>a).</p>
          
             <fig id="F1">
                <title>
                   <p>Figure 1</p>
                </title>
                <caption>
                   <p>Patient 1 &#8211; pedigree and immunohistochemistry. a)</p>
                </caption>
                <text>
                   <p>
                      <b>Patient 1 &#8211; pedigree and immunohistochemistry. a)</b> An arrow indicates the proband. Filled boxes indicate paraganglioma and plus or minus the <it>SDHD</it> mutation status. NT = not tested. <b>b)</b> Chromosome 11 haplotypes of family members. Microsatellite markers are shown with genomic location (marker D11S4177 is close to the telomere of the p arm. Marker D11S4098 is close to the telomere of the q arm), and the position of <it>SDHD</it> is indicated. Alleles in bright yellow blocks represent the probable disease haplotype, present in the proband, mother and maternal grandmother. Other colors represent probable additional haplotypes in the family and possible recombinations; nd = not determined. <b>ci)</b> SDHB immunohistochemistry of the pheochromocytoma, 25&#215;. Inset, adrenal cortex positive for SDHB, 25&#215;. <b>cii)</b> Detail of adrenal medulla, 200&#215;, with inset of positive cortex, 200&#215;.</p>
                </text>
                <graphic file="s12881-014-0111-8-1"/>
             </fig>
          
          <p>Analysis of microsatellite markers in patient 1 and four other family members (Figure&#160;<figr fid="F1">1</figr>b) indicated that the patient indeed inherited a chromosome-wide, mutation-associated haplotype from his mother, via the maternal grandmother. The paternal chromosome, also represented in the paternal grandmother and paternal aunt, was not associated with a mutation of <it>SDHD</it>, indicating that the patient inherited the mutation via the maternal line.</p>
          <p>Review of H&amp;E tumor sections from the pheochromocytoma showed a typical morphology (Figure&#160;<figr fid="F1">1</figr>ci) and anti-SDHB immunohistochemistry revealed specific loss of SDHB protein expression in the adrenal medulla (Figure&#160;<figr fid="F1">1</figr>cii).</p>
          <p>Microdissection of tissue from the adrenal medulla, followed by PCR analysis and sequencing of <it>SDHD</it>, showed that the wild type allele (guanine (G) nucleotide &#8211; arrow, Figure&#160;<figr fid="F2">2</figr>ai) is prominent in the DNA from blood of patient 1 but is underrepresented in tumor DNA (Figure&#160;<figr fid="F2">2</figr>aii), indicating loss of heterozygosity in the tumor. While not showing complete loss, this result is typical of LOH in paraganglioma which show complex and significant admixture of normal cells, largely maintaining their normal tissue architecture and cellular composition of normal cell types, which also proliferate together with tumor cells.</p>
          
             <fig id="F2">
                <title>
                   <p>Figure 2</p>
                </title>
                <caption>
                   <p>Patient 1 &#8211; tumor analysis. a)</p>
                </caption>
                <text>
                   <p>
                      <b>Patient 1 &#8211; tumor analysis. a)</b> Sanger sequencing of <it>SDHD</it> in normal (ai) and tumor (aii) DNA. Arrows indicate the relevant nucleotides in the heterozygous patient. <b>b)</b> Typical profiles of microsatellite marker alleles showing loss of heterozygosity. Arrows indicate the allele lost. <b>c)</b> Table indicating loss of microsatellite marker alleles and parental origin, with approximate positions indicated on an ideogram of chromosome 11.</p>
                </text>
                <graphic file="s12881-014-0111-8-2"/>
             </fig>
          
          <p>As we wished to evaluate the extent and parental origin of chromosomal loss, tumor DNA was analyzed for loss of heterozygosity using a selection of polymorphic microsatellite markers. Tumor DNA from patient 1 showed chromosome-wide loss of heterozygosity, with allelic imbalance ratios (AIR) of &lt;0.7. Interestingly, analysis of the parental origin of the alleles showed only partial loss of the paternal chromosome, with loss of maternal alleles on the p arm and centromeric q arm of chromosome 11 (Figure&#160;<figr fid="F2">2</figr>ci). This result is most readily explained by somatic recombination in a tumor progenitor cell, followed by loss of a composite chromosome consisting of the paternal (unmutated) allele of SDHD and the maternal p arm of chromosome 11.</p>
          <p>The second patient was also a young man, aged 17 at the time of diagnosis of bilateral paragangliomas. The tumors were diagnosed using MRI and consisted of a left-sided vagal tumor (30&#8201;&#215;&#8201;40&#8201;&#215;&#8201;45mm) encasing the carotid artery and extending to the jugular bulb (Figure&#160;<figr fid="F3">3</figr>a, arrow), and a very small right-sided carotid body tumor. The vagal tumor was positive on octreotide and DOPA-PET scan. Both tumors showed slow growth on follow-up and have not been operated due to risks of morbidity. In the three years following diagnosis the patient experienced episodes of loss of consciousness, diagnosed as vasovagal syncope with an uncertain relationship to the vagal tumor, and an elevated 24hr urinary excretion of catecholamines without signs or symptoms of catecholamine excess. MRI of the abdomen revealed an 8mm nodule in the left adrenal, which was removed by adrenalectomy and described as an &#8216;adrenal medullary hyperplasia or pheochromocytoma&#8217; on histopathologic examination.</p>
          
             <fig id="F3">
                <title>
                   <p>Figure 3</p>
                </title>
                <caption>
                   <p>Patient 2 &#8211; pedigree, DNA and tumor analysis. a)</p>
                </caption>
                <text>
                   <p>
                      <b>Patient 2 &#8211; pedigree, DNA and tumor analysis. a)</b> MRI of the skull base in patient 2, showing a probable vagal body tumor (white arrow). <b>b)</b> Pedigree of family 2 - arrow indicates the proband, filled boxes indicate paraganglioma, and plus or minus the <it>SDHD</it> mutation status. NT = not tested. <b>c)</b> Chromosome 11 haplotypes of family members. Alleles in bright yellow blocks represent the likely disease haplotype, present in all mutation carriers. Other colors represent probable additional haplotypes in the family and possible recombinations. The proband and siblings all carry the disease haplotype. <b>d)</b> Histochemistry and immunohistochemistry: d1) HE staining of adrenal tumor, 25&#215;, with inset 200&#215;. d2) SDHB immunohistochemistry of adrenal tumor, 25&#215;. Inset, chromogranin A staining, 25&#215;. <b>e)</b> Sanger sequencing of <it>SDHD</it> in normal and tumor DNA. <b>f)</b> Typical profiles of microsatellite marker alleles showing no loss of heterozygosity.</p>
                </text>
                <graphic file="s12881-014-0111-8-3"/>
             </fig>
          
          <p>Although the patient had several first and second-degree relatives with paraganglioma, and a known pathogenic mutation of <it>SDHD</it> (p.Asp92Tyr) in the maternal family, there was no known history of mutations or paraganglioma on the father&#8217;s side (Figure&#160;<figr fid="F3">3</figr>b). As the patient&#8217;s two younger siblings also carried the mutation, both underwent ENT and endocrinological investigations but no tumors or signs of catecholamine excess were found.</p>
          <p>The analysis of genomic DNA from the patient and six other family members using microsatellite markers confirmed inheritance of a maternal chromosome containing a minimal haplotype defined by the D11S1793 (allele 133) and D11SS4090 (allele 183) alleles, present in all mutation carriers in the family (Figure&#160;<figr fid="F3">3</figr>c, yellow boxes). Although the father of the patient was not available for analysis, the paternal haplotype could be defined by alleles present in the patient and siblings but not present in any other family member. As both the patient and his two siblings share a paternal haplotype including the <it>SDHD</it> locus, a theoretical possibility exists that all three offspring inherited the mutation from the father. This would require the father to be a carrier of a mutation identical to that of the mother. However, as all three offspring also inherited a maternal mutation-bearing haplotype and homozygous mutation of <it>SDHD</it> is incompatible with life, possible genetic mechanisms allowing paternal inheritance are extremely improbable. The only likely explanation for these data, despite the lack of DNA from the father, is that the mutation was inherited from the mother in all three siblings.</p>
          <p>The only tumor tissue available for analysis from this patient was an &#8216;adrenal medullary hyperplasia/pheochromocytoma&#8217;. Although the adrenal medulla showed clear signs of hyperplasia, this was insufficiently pronounced to allow a firm diagnosis. H&amp;E sections showed a typical adrenal structure with an overprominent medulla (Figure&#160;<figr fid="F3">3</figr>d). Immunohistochemical staining with an anti-SDHB antibody showed clear loss of SDHB protein expression in the adrenal medulla (Figure&#160;<figr fid="F3">3</figr>dii). However, sequencing analysis of <it>SDHD</it> in normal and tumor samples provided no evidence for loss of the wild type (normal) allele in the tumor (Figure&#160;<figr fid="F3">3</figr>e), and microsatellite analysis showed no loss of chromosome 11 in the tumor (Figure&#160;<figr fid="F3">3</figr>f). This result could be due to admixture of normal cells with tumor cells, thereby masking loss of SDHD/chromosome 11 in tumors cells &#8211; a phenomenon common in paragangliomas. Another possibility, and one suggested by the profound loss of SDHB staining in the adrenal medulla, is that a non-genetic mechanism is mediating SDHD/SDHB loss in this tissue. While inconclusive in terms of SDHD p.Asp92Tyr-mediated pathogenicity, these data do show that this case of adrenal hyperplasia is SDH-related. However, speaking conservatively, we cannot definitively conclude that the patient&#8217;s p.Asp92Tyr mutation, a mutation proven by its dominant role in paraganglioma patients in the Netherlands and worldwide to be profoundly pathogenic, is the cause of the adrenal hyperplasia in this case. A firm conclusion will have to await the availability of new tumor tissue.</p>
          <p>The third patient, a female aged 37, first presented with a feeling of fullness in the ears. A CT scan of the temporal bones revealed a 5&#160;mm mass in the left middle ear and an enhancing lesion in the middle of the left ear cavity was visible on MRI, consistent with a jugulotympanic paraganglioma. Surgical resection and histological examination confirmed the diagnosis.</p>
          <p>The patient had several maternal relatives with paragangliomas (Figure&#160;<figr fid="F4">4</figr>a) including the patient&#8217;s mother, who had a left carotid body paraganglioma removed at age 29 and was diagnosed with a right carotid body paraganglioma at age 58 (treated with radiation). The patient&#8217;s maternal aunt was diagnosed with a left jugulotympanic paraganglioma at age 34, and treated for recurrent disease at age 43. A maternal uncle, who died aged 38, was reportedly diagnosed with renal cancer at 29&#160;years old, followed by occurrence of a tumor of the skull base at age 36, although neither diagnosis could be confirmed. All of the patient&#8217;s siblings (two sisters and one brother) were tumor-free and there were no other known diagnoses of paraganglioma in the family.</p>
          
             <fig id="F4">
                <title>
                   <p>Figure 4</p>
                </title>
                <caption>
                   <p>Patient 4 &#8211; pedigree, DNA and tumor analysis. a)</p>
                </caption>
                <text>
                   <p>
                      <b>Patient 4 &#8211; pedigree, DNA and tumor analysis. a)</b> Arrow indicates the proband, filled boxes indicate paraganglioma, plus or minus the <it>SDHD</it> mutation status, and question marks indicate suspicious but unconfirmed phenotypes. <b>b)</b> Chromosome 11 haplotypes of immediate family. Microsatellite markers are shown with genomic location. Alleles in yellow blocks represent the probable disease haplotype. <b>c)</b> Histochemistry and immunohistochemistry: c1) HE staining of JT PGL, 25&#215;. c2) SDHB immunohistochemistry, 25&#215;. <b>d)</b> Sanger sequencing of <it>SDHD</it> in normal (e1) and tumor (e2) DNA. <b>e)</b> Typical profiles of microsatellite marker alleles showing no loss of heterozygosity.</p>
                </text>
                <graphic file="s12881-014-0111-8-4"/>
             </fig>
          
          <p>Based on the lack of known disease in the paternal family and a possible case of renal cancer, genetic testing of the <it>SDHB</it> gene was initially offered to the patient. This analysis failed to identify a mutation, but subsequent analysis of the <it>SDHD</it> gene resulted in the identification of a heterozygous mutation, c.284 T&gt;C, p.Leu95Pro. Further testing in the family identified the mutation in the proband&#8217;s mother, one sister, two cousins (daughters of the patient&#8217;s maternal aunt with confirmed paraganglioma) and one of the cousin&#8217;s sons. Two additional cousins in the same sibship tested negative for the mutation. All remaining individuals in the family have not pursued genetic counseling to date.</p>
          <p>Genomic DNA from three family members, all carriers of the p.Leu95Pro mutation, was available for microsatellite analysis and all three were found to share a common haplotype. Both daughters inherited a common haplotype from their mother. A scenario of paternal inheritance is effectively excluded in this patient by the differing paternal haplotypes carried by the patient and her sister, and by the common maternal haplotype (Figure&#160;<figr fid="F4">4</figr>b).</p>
          <p>FFPE tumor tissue from patient 3 (Figure&#160;<figr fid="F3">3</figr>ci) showed normal staining for SDHB, indicating retention and normal expression of the protein (Figure&#160;<figr fid="F3">3</figr>cii). DNA sequencing analysis also showed retention of the wild type (normal) <it>SDHD</it> allele in the tumor (Figure&#160;<figr fid="F3">3</figr>d). Microsatellite analysis of tumor DNA from patient 3 (Figure&#160;<figr fid="F3">3</figr>e) showed an AIR of around 1.0, indicating that there was no loss of heterozygosity of chromosome 11. The normal expression of the SDHB protein and lack of evidence of genetic loss suggest that the p.Leu95Pro mutation, despite being a well-established pathogenic mutation, is not causative in this patient&#8217;s tumor.</p>
          <p>In this study we present genetic and functional evidence supporting the <it>bone fide</it> maternal-related occurrence of a case (patient 1) of pheochromocytoma; a case with both an unequivocal clinical diagnosis and histological confirmation. We also present a case (patient 2) of head and neck paraganglioma with suggestive evidence for maternal-related tumorigenesis.</p>
          <p>The &#8216;parent-of-origin&#8217; related tumor phenotype of <it>SDHD</it> is one of the most unusual genetic manifestations in all of cancer biology and remains poorly understood. While the first recognition of this phenomenon immediately suggested the involvement of a maternally-imprinted gene <abbrgrp>
                <abbr bid="B9">9</abbr>
             </abbrgrp>, analysis of allele-specific expression in a variety of tissues has shown biallelic expression <abbrgrp>
                <abbr bid="B4">4</abbr>
             </abbrgrp>,<abbrgrp>
                <abbr bid="B17">17</abbr>
             </abbrgrp>. The complete constitutive silencing of one allele of <it>SDHD</it> is unlikely for several reasons, not least due to the specific loss of the maternal allele in <it>SDHD</it>-related paragangliomas, which is counterintuitive if one assumes that this allele is already completely inactivated by imprinting <abbrgrp>
                <abbr bid="B18">18</abbr>
             </abbrgrp>. As patients with <it>SDHD</it>-related paraganglioma carry paternally-inherited mutations, a maternal imprint would result in a profound deficiency of succinate dehydrogenase activity, a situation known to cause major developmental defects even when residual enzyme activity is present <abbrgrp>
                <abbr bid="B19">19</abbr>
             </abbrgrp>. Homozygous knockout of <it>Sdhd</it> in mice results in embryonic lethality <abbrgrp>
                <abbr bid="B20">20</abbr>
             </abbrgrp>,<abbrgrp>
                <abbr bid="B21">21</abbr>
             </abbrgrp>.</p>
          <p>A &#8216;parent-of-origin&#8217; tumor phenotype is shared by a closely related gene, the recently identified succinate dehydrogenase assembly factor, SDHAF2. This gene encodes a protein involved in the addition of the flavin-adenine dinucleotide prosthetic group to form the active SDHA flavoprotein <abbrgrp>
                <abbr bid="B7">7</abbr>
             </abbrgrp>. Although less central to SDH function than the <it>SDHB</it> and <it>SDHC</it> genes, both located on chromosome 1, <it>SDHAF2</it> shares one important characteristic with SDHD; both are located on chromosome 11. Chromosome 11 also harbors the main concentration of imprinted genes in the human genome, in the Ch11p15.5 region, with 11 genes expressed exclusively from the paternal or maternal chromosome and the opposite allele silenced by epigenetic mechanisms.</p>
          <p>Functional loss of the maternal copy of chromosome 11 is a hallmark of <it>SDHD</it>-linked paragangliomas <abbrgrp>
                <abbr bid="B18">18</abbr>
             </abbrgrp>,<abbrgrp>
                <abbr bid="B22">22</abbr>
             </abbrgrp>-<abbrgrp>
                <abbr bid="B24">24</abbr>
             </abbrgrp> and has led to the proposal that tumorigenesis occurs only when a paternally-transmitted mutation of <it>SDHD</it> and loss of the remaining non-imprinted maternal allele is accompanied by loss of a maternally-expressed imprinted modifier gene. Due to their common chromosomal location, <it>SDHD</it> (or <it>SDHAF2</it>) and an imprinted modifier can be targeted in a single genetic event involving whole chromosome loss. This &#8216;<it>SDHD</it>-imprinted modifier gene&#8217; hypothesis has become known as the &#8216;Hensen Model&#8217; <abbrgrp>
                <abbr bid="B11">11</abbr>
             </abbrgrp>,<abbrgrp>
                <abbr bid="B12">12</abbr>
             </abbrgrp>,<abbrgrp>
                <abbr bid="B18">18</abbr>
             </abbrgrp>. Other studies have suggested that loss of the maternal copy of chromosome 11 may also be a factor in both sporadic pheochromocytomas and those related to mutations of the Von Hippel-Lindau (<it>VHL</it>) gene, located on chromosome 3 <abbrgrp>
                <abbr bid="B25">25</abbr>
             </abbrgrp>,<abbrgrp>
                <abbr bid="B26">26</abbr>
             </abbrgrp>.</p>
          <p>The &#8216;Hensen Model&#8217; is relevant to the data presented here as it may explain the somatic recombination seen in the tumor of patient 1. This is an unusual event in itself and has only previously been described in one case of paraganglioma <abbrgrp>
                <abbr bid="B13">13</abbr>
             </abbrgrp>. Hensen and colleagues (2004) predicted exactly the scenario now observed; &#8220;When the <it>SDHD</it> mutation is maternally-transmitted, at least two events caused by different chromosomal mechanisms will be required&#8230; namely loss of the paternal wild-type <it>SDHD</it> allele by, for example, mitotic recombination, followed by loss of the recombined paternal chromosome containing the paternal 11q23 region and the maternal 11p15 region&#8221;.</p>
          <p>The third patient represents the first reported case of a phenocopy in PGL. A phenocopy in a family with a hereditary tumor burden is an individual with a tumor that is unrelated to the familial genotype, a frequent phenomenon in families with common tumors such as those of the breast or colon. This case also serves to demonstrate that causality cannot be taken for granted, even in patients with well-described pathogenic mutations. To rule out misdiagnosis of the tumor, morphology and immunohistochemical characteristics were closely scrutinized both initially, and subsequent to the evaluation of the genetic and SDHB immunohistochemical analysis results. Two independent pathologists confirmed the diagnosis of jugulotympanic paraganglioma, and all morphological and histochemical indicators supported this conclusion.</p>
       </sec>
       <sec>
          <st>
             <p>4
 						Conclusions</p>
          </st>
          <p>At least two cases of maternally-inherited <it>SDHD</it>-related tumor susceptibility have now been described (this study and <abbrgrp>
                <abbr bid="B13">13</abbr>
             </abbrgrp>). This presents genetic counselors with a challenge, as it is now no longer possible to unequivocally state that a carrier of a maternally-transmitted mutation will never develop a tumor. Despite this development, we consider the increase in risk represented by these reports to be negligible. Carriers of maternally-inherited <it>SDHD</it> mutations can still be assured that their lifetime risk is not significantly different to non-mutation carriers. Whether this report will stimulate clinicians to re-evaluate carriers of maternally-inherited mutations, leading to the recognition of further cases, remains to be seen.</p>
       </sec>
       <sec>
          <st>
             <p>Competing interests</p>
          </st>
          <p>The authors declare that they have no competing interests.</p>
       </sec>
       <sec>
          <st>
             <p>Authors&#8217; contributions</p>
          </st>
          <p>JPB collected and analyzed data, designed the study, and wrote the manuscript. RA, JN, ASH, CAM, EK, BM, EPMC, WNMD, RRK, PD, JCJ, FJH collected and analyzed data and provided materials for aspects of the study. PD and FJH co-designed and implemented the study, and contributed to the manuscript. All authors read and approved the final manuscript.</p>
       </sec>
    </bdy>
    <bm>
       <ack>
          <sec>
             <st>
                <p>Acknowledgements</p>
             </st>
             <p>We would like to thank the patients and their families for their cooperation.</p>
             <sec>
                <st>
                   <p>Funding</p>
                </st>
                <p>This work was supported by a grant from the Dutch Cancer Society (Grant 2011-5025).</p>
             </sec>
          </sec>
       </ack>
       <refgrp>
          
          <bibl id="B1">
             <title>
                <p>Atlas of Tumor Pathology: Tumors of the Adrenal Gland and Extra-Adrenal Paraganglia</p>
             </title>
             <aug>
                <au>
                   <snm>Lack</snm>
                   <fnm>E</fnm>
                </au>
             </aug>
             <source>AFIP Fasicle No. 19</source>
             <publisher>American Registry of Pathology, Washington DC</publisher>
             <pubdate>1997</pubdate>
          </bibl>
          <bibl id="B2">
             <title>
                <p>Estimation of growth rate in patients with head and neck paragangliomas influences the treatment proposal</p>
             </title>
             <aug>
                <au>
                   <snm>Jansen</snm>
                   <fnm>JC</fnm>
                </au>
                <au>
                   <snm>van den</snm>
                   <fnm>BR</fnm>
                </au>
                <au>
                   <snm>Kuiper</snm>
                   <fnm>A</fnm>
                </au>
                <au>
                   <snm>Van Der Mey</snm>
                   <fnm>AG</fnm>
                </au>
                <au>
                   <snm>Zwinderman</snm>
                   <fnm>AH</fnm>
                </au>
                <au>
                   <snm>Cornelisse</snm>
                   <fnm>CJ</fnm>
                </au>
             </aug>
             <source>Cancer</source>
             <pubdate>2000</pubdate>
             <volume>88</volume>
             <issue>12</issue>
             <fpage>2811</fpage>
             <lpage>2816</lpage>
             <xrefbib>
                <pubidlist>
                   <pubid idtype="doi">10.1002/1097-0142(20000615)88:12&lt;2811::AID-CNCR21&gt;3.0.CO;2-7</pubid>
                   <pubid idtype="pmpid" link="fulltext">10870065</pubid>
                </pubidlist>
             </xrefbib>
          </bibl>
          <bibl id="B3">
             <title>
                <p>Phaeochromocytomas and sympathetic paragangliomas</p>
             </title>
             <aug>
                <au>
                   <snm>Petri</snm>
                   <fnm>BJ</fnm>
                </au>
                <au>
                   <snm>van Eijck</snm>
                   <fnm>CH</fnm>
                </au>
                <au>
                   <snm>de Herder</snm>
                   <fnm>WW</fnm>
                </au>
                <au>
                   <snm>Wagner</snm>
                   <fnm>A</fnm>
                </au>
                <au>
                   <snm>de Krijger</snm>
                   <fnm>RR</fnm>
                </au>
             </aug>
             <source>Br J Surg</source>
             <pubdate>2009</pubdate>
             <volume>96</volume>
             <issue>12</issue>
             <fpage>1381</fpage>
             <lpage>1392</lpage>
             <xrefbib>
                <pubidlist>
                   <pubid idtype="doi">10.1002/bjs.6821</pubid>
                   <pubid idtype="pmpid" link="fulltext">19918850</pubid>
                </pubidlist>
             </xrefbib>
          </bibl>
          <bibl id="B4">
             <title>
                <p>Mutations in SDHD, a mitochondrial complex II gene, in hereditary paraganglioma</p>
             </title>
             <aug>
                <au>
                   <snm>Baysal</snm>
                   <fnm>BE</fnm>
                </au>
                <au>
                   <snm>Ferrell</snm>
                   <fnm>RE</fnm>
                </au>
                <au>
                   <snm>Willett-Brozick</snm>
                   <fnm>JE</fnm>
                </au>
                <au>
                   <snm>Lawrence</snm>
                   <fnm>EC</fnm>
                </au>
                <au>
                   <snm>Myssiorek</snm>
                   <fnm>D</fnm>
                </au>
                <au>
                   <snm>Bosch</snm>
                   <fnm>A</fnm>
                </au>
                <au>
                   <snm>vdM</snm>
                   <fnm>A</fnm>
                </au>
                <au>
                   <snm>Taschner</snm>
                   <fnm>PE</fnm>
                </au>
                <au>
                   <snm>Rubinstein</snm>
                   <fnm>WS</fnm>
                </au>
                <au>
                   <snm>Myers</snm>
                   <fnm>EN</fnm>
                </au>
                <au>
                   <snm>Richard</snm>
                   <fnm>CW</fnm>
                   <suf>3rd</suf>
                </au>
                <au>
                   <snm>Cornelisse</snm>
                   <fnm>CJ</fnm>
                </au>
                <au>
                   <snm>Devilee</snm>
                   <fnm>P</fnm>
                </au>
                <au>
                   <snm>Devlin</snm>
                   <fnm>B</fnm>
                </au>
             </aug>
             <source>Science</source>
             <pubdate>2000</pubdate>
             <volume>287</volume>
             <issue>5454</issue>
             <fpage>848</fpage>
             <lpage>851</lpage>
             <xrefbib>
                <pubidlist>
                   <pubid idtype="doi">10.1126/science.287.5454.848</pubid>
                   <pubid idtype="pmpid" link="fulltext">10657297</pubid>
                </pubidlist>
             </xrefbib>
          </bibl>
          <bibl id="B5">
             <title>
                <p>Gene mutations in the succinate dehydrogenase subunit SDHB cause susceptibility to familial pheochromocytoma and to familial paraganglioma</p>
             </title>
             <aug>
                <au>
                   <snm>Astuti</snm>
                   <fnm>D</fnm>
                </au>
                <au>
                   <snm>Latif</snm>
                   <fnm>F</fnm>
                </au>
                <au>
                   <snm>Dallol</snm>
                   <fnm>A</fnm>
                </au>
                <au>
                   <snm>Dahia</snm>
                   <fnm>PL</fnm>
                </au>
                <au>
                   <snm>Douglas</snm>
                   <fnm>F</fnm>
                </au>
                <au>
                   <snm>George</snm>
                   <fnm>E</fnm>
                </au>
                <au>
                   <snm>Skoldberg</snm>
                   <fnm>F</fnm>
                </au>
                <au>
                   <snm>Husebye</snm>
                   <fnm>ES</fnm>
                </au>
                <au>
                   <snm>Eng</snm>
                   <fnm>C</fnm>
                </au>
                <au>
                   <snm>Maher</snm>
                   <fnm>ER</fnm>
                </au>
             </aug>
             <source>Am J Hum Genet</source>
             <pubdate>2001</pubdate>
             <volume>69</volume>
             <issue>1</issue>
             <fpage>49</fpage>
             <lpage>54</lpage>
             <xrefbib>
                <pubidlist>
                   <pubid idtype="doi">10.1086/321282</pubid>
                   <pubid idtype="pmpid" link="fulltext">11404820</pubid>
                </pubidlist>
             </xrefbib>
          </bibl>
          <bibl id="B6">
             <title>
                <p>Mutations in SDHC cause autosomal dominant paraganglioma, type 3</p>
             </title>
             <aug>
                <au>
                   <snm>Niemann</snm>
                   <fnm>S</fnm>
                </au>
                <au>
                   <snm>Muller</snm>
                   <fnm>U</fnm>
                </au>
             </aug>
             <source>Nat Genet</source>
             <pubdate>2000</pubdate>
             <volume>26</volume>
             <issue>3</issue>
             <fpage>268</fpage>
             <lpage>270</lpage>
             <xrefbib>
                <pubidlist>
                   <pubid idtype="doi">10.1038/81551</pubid>
                   <pubid idtype="pmpid" link="fulltext">11062460</pubid>
                </pubidlist>
             </xrefbib>
          </bibl>
          <bibl id="B7">
             <title>
                <p>SDH5, a gene required for flavination of succinate dehydrogenase, is mutated in paraganglioma</p>
             </title>
             <aug>
                <au>
                   <snm>Hao</snm>
                   <fnm>HX</fnm>
                </au>
                <au>
                   <snm>Khalimonchuk</snm>
                   <fnm>O</fnm>
                </au>
                <au>
                   <snm>Schraders</snm>
                   <fnm>M</fnm>
                </au>
                <au>
                   <snm>Dephoure</snm>
                   <fnm>N</fnm>
                </au>
                <au>
                   <snm>Bayley</snm>
                   <fnm>JP</fnm>
                </au>
                <au>
                   <snm>Kunst</snm>
                   <fnm>H</fnm>
                </au>
                <au>
                   <snm>Devilee</snm>
                   <fnm>P</fnm>
                </au>
                <au>
                   <snm>Cremers</snm>
                   <fnm>CW</fnm>
                </au>
                <au>
                   <snm>Schiffman</snm>
                   <fnm>JD</fnm>
                </au>
                <au>
                   <snm>Bentz</snm>
                   <fnm>BG</fnm>
                </au>
                <au>
                   <snm>Gygi</snm>
                   <fnm>SP</fnm>
                </au>
                <au>
                   <snm>Winge</snm>
                   <fnm>DR</fnm>
                </au>
                <au>
                   <snm>Kremer</snm>
                   <fnm>H</fnm>
                </au>
                <au>
                   <snm>Rutter</snm>
                   <fnm>J</fnm>
                </au>
             </aug>
             <source>Science</source>
             <pubdate>2009</pubdate>
             <volume>325</volume>
             <issue>5944</issue>
             <fpage>1139</fpage>
             <lpage>1142</lpage>
             <xrefbib>
                <pubidlist>
                   <pubid idtype="doi">10.1126/science.1175689</pubid>
                   <pubid idtype="pmpid" link="fulltext">19628817</pubid>
                </pubidlist>
             </xrefbib>
          </bibl>
          <bibl id="B8">
             <title>
                <p>SDHA is a tumor suppressor gene causing paraganglioma</p>
             </title>
             <aug>
                <au>
                   <snm>Burnichon</snm>
                   <fnm>N</fnm>
                </au>
                <au>
                   <snm>Briere</snm>
                   <fnm>JJ</fnm>
                </au>
                <au>
                   <snm>Libe</snm>
                   <fnm>R</fnm>
                </au>
                <au>
                   <snm>Vescovo</snm>
                   <fnm>L</fnm>
                </au>
                <au>
                   <snm>Riviere</snm>
                   <fnm>J</fnm>
                </au>
                <au>
                   <snm>Tissier</snm>
                   <fnm>F</fnm>
                </au>
                <au>
                   <snm>Jouanno</snm>
                   <fnm>E</fnm>
                </au>
                <au>
                   <snm>Jeunemaitre</snm>
                   <fnm>X</fnm>
                </au>
                <au>
                   <snm>Benit</snm>
                   <fnm>P</fnm>
                </au>
                <au>
                   <snm>Tzagoloff</snm>
                   <fnm>A</fnm>
                </au>
                <au>
                   <snm>Rustin</snm>
                   <fnm>P</fnm>
                </au>
                <au>
                   <snm>Bertherat</snm>
                   <fnm>J</fnm>
                </au>
                <au>
                   <snm>Favier</snm>
                   <fnm>J</fnm>
                </au>
                <au>
                   <snm>Gimenez-Roqueplo</snm>
                   <fnm>AP</fnm>
                </au>
             </aug>
             <source>Hum Mol Genet</source>
             <pubdate>2010</pubdate>
             <volume>19</volume>
             <issue>15</issue>
             <fpage>3011</fpage>
             <lpage>3020</lpage>
             <xrefbib>
                <pubidlist>
                   <pubid idtype="doi">10.1093/hmg/ddq206</pubid>
                   <pubid idtype="pmpid" link="fulltext">20484225</pubid>
                </pubidlist>
             </xrefbib>
          </bibl>
          <bibl id="B9">
             <title>
                <p>Genomic imprinting in hereditary glomus tumours: evidence for new genetic theory</p>
             </title>
             <aug>
                <au>
                   <snm>Van der Mey</snm>
                   <fnm>AG</fnm>
                </au>
                <au>
                   <snm>Maaswinkel-Mooy</snm>
                   <fnm>PD</fnm>
                </au>
                <au>
                   <snm>Cornelisse</snm>
                   <fnm>CJ</fnm>
                </au>
                <au>
                   <snm>Schmidt</snm>
                   <fnm>PH</fnm>
                </au>
                <au>
                   <snm>van de Kamp</snm>
                   <fnm>JJ</fnm>
                </au>
             </aug>
             <source>Lancet</source>
             <pubdate>1989</pubdate>
             <volume>2</volume>
             <issue>8675</issue>
             <fpage>1291</fpage>
             <lpage>1294</lpage>
             <xrefbib>
                <pubidlist>
                   <pubid idtype="pmpid" link="fulltext">2574254</pubid>
                </pubidlist>
             </xrefbib>
          </bibl>
          <bibl id="B10">
             <title>
                <p>Exome sequencing identifies MAX mutations as a cause of hereditary pheochromocytoma</p>
             </title>
             <aug>
                <au>
                   <snm>Comino-M&#233;ndez</snm>
                   <fnm>I</fnm>
                </au>
                <au>
                   <snm>Gracia-Azn&#225;rez</snm>
                   <fnm>FJ</fnm>
                </au>
                <au>
                   <snm>Schiavi</snm>
                   <fnm>F</fnm>
                </au>
                <au>
                   <snm>Landa</snm>
                   <fnm>I</fnm>
                </au>
                <au>
                   <snm>Leandro-Garc&#237;a</snm>
                   <fnm>LJ</fnm>
                </au>
                <au>
                   <snm>Let&#243;n</snm>
                   <fnm>R</fnm>
                </au>
                <au>
                   <snm>Honrado</snm>
                   <fnm>E</fnm>
                </au>
                <au>
                   <snm>Ramos-Medina</snm>
                   <fnm>R</fnm>
                </au>
                <au>
                   <snm>Caronia</snm>
                   <fnm>D</fnm>
                </au>
                <au>
                   <snm>Pita</snm>
                   <fnm>G</fnm>
                </au>
                <au>
                   <snm>G&#243;mez-Gra&#241;a</snm>
                   <fnm>A</fnm>
                </au>
                <au>
                   <snm>de Cubas</snm>
                   <fnm>AA</fnm>
                </au>
                <au>
                   <snm>Inglada-P&#233;rez</snm>
                   <fnm>L</fnm>
                </au>
                <au>
                   <snm>Maliszewska</snm>
                   <fnm>A</fnm>
                </au>
                <au>
                   <snm>Taschin</snm>
                   <fnm>E</fnm>
                </au>
                <au>
                   <snm>Bobisse</snm>
                   <fnm>S</fnm>
                </au>
                <au>
                   <snm>Pica</snm>
                   <fnm>G</fnm>
                </au>
                <au>
                   <snm>Loli</snm>
                   <fnm>P</fnm>
                </au>
                <au>
                   <snm>Hern&#225;ndez-Lavado</snm>
                   <fnm>R</fnm>
                </au>
                <au>
                   <snm>D&#237;az</snm>
                   <fnm>JA</fnm>
                </au>
                <au>
                   <snm>G&#243;mez-Morales</snm>
                   <fnm>M</fnm>
                </au>
                <au>
                   <snm>Gonz&#225;lez-Neira</snm>
                   <fnm>A</fnm>
                </au>
                <au>
                   <snm>Roncador</snm>
                   <fnm>G</fnm>
                </au>
                <au>
                   <snm>Rodr&#237;guez-Antona</snm>
                   <fnm>C</fnm>
                </au>
                <au>
                   <snm>Ben&#237;tez</snm>
                   <fnm>J</fnm>
                </au>
                <au>
                   <snm>Mannelli</snm>
                   <fnm>M</fnm>
                </au>
                <au>
                   <snm>Opocher</snm>
                   <fnm>G</fnm>
                </au>
                <au>
                   <snm>Robledo</snm>
                   <fnm>M</fnm>
                </au>
                <au>
                   <snm>Casc&#243;n</snm>
                   <fnm>A</fnm>
                </au>
             </aug>
             <source>Nat Genet</source>
             <pubdate>2011</pubdate>
             <volume>43</volume>
             <issue>7</issue>
             <fpage>663</fpage>
             <lpage>667</lpage>
             <xrefbib>
                <pubidlist>
                   <pubid idtype="doi">10.1038/ng.861</pubid>
                   <pubid idtype="pmpid" link="fulltext">21685915</pubid>
                </pubidlist>
             </xrefbib>
          </bibl>
          <bibl id="B11">
             <title>
                <p>Paraganglioma after maternal transmission of a succinate dehydrogenase gene mutation</p>
             </title>
             <aug>
                <au>
                   <snm>Pigny</snm>
                   <fnm>P</fnm>
                </au>
                <au>
                   <snm>Vincent</snm>
                   <fnm>A</fnm>
                </au>
                <au>
                   <snm>Cardot</snm>
                   <fnm>BC</fnm>
                </au>
                <au>
                   <snm>Bertrand</snm>
                   <fnm>M</fnm>
                </au>
                <au>
                   <snm>de</snm>
                   <fnm>M,V</fnm>
                </au>
                <au>
                   <snm>Crepin</snm>
                   <fnm>M</fnm>
                </au>
                <au>
                   <snm>Porchet</snm>
                   <fnm>N</fnm>
                </au>
                <au>
                   <snm>Caron</snm>
                   <fnm>P</fnm>
                </au>
             </aug>
             <source>J Clin Endocrinol Metab</source>
             <pubdate>2008</pubdate>
             <volume>93</volume>
             <issue>5</issue>
             <fpage>1609</fpage>
             <lpage>1615</lpage>
             <xrefbib>
                <pubidlist>
                   <pubid idtype="doi">10.1210/jc.2007-1989</pubid>
                   <pubid idtype="pmpid" link="fulltext">18211978</pubid>
                </pubidlist>
             </xrefbib>
          </bibl>
          <bibl id="B12">
             <title>
                <p>Maternal transmission of symptomatic disease with SDHD mutation: fact or fiction?</p>
             </title>
             <aug>
                <au>
                   <snm>Neumann</snm>
                   <fnm>HP</fnm>
                </au>
                <au>
                   <snm>Erlic</snm>
                   <fnm>Z</fnm>
                </au>
             </aug>
             <source>J Clin Endocrinol Metab</source>
             <pubdate>2008</pubdate>
             <volume>93</volume>
             <issue>5</issue>
             <fpage>1573</fpage>
             <lpage>1575</lpage>
             <xrefbib>
                <pubidlist>
                   <pubid idtype="doi">10.1210/jc.2008-0569</pubid>
                   <pubid idtype="pmpid" link="fulltext">18463350</pubid>
                </pubidlist>
             </xrefbib>
          </bibl>
          <bibl id="B13">
             <title>
                <p>Molecular analysis of pheochromocytoma after maternal transmission of SDHD mutation elucidates mechanism of parent-of-origin effect</p>
             </title>
             <aug>
                <au>
                   <snm>Yeap</snm>
                   <fnm>PM</fnm>
                </au>
                <au>
                   <snm>Tobias</snm>
                   <fnm>ES</fnm>
                </au>
                <au>
                   <snm>Mavraki</snm>
                   <fnm>E</fnm>
                </au>
                <au>
                   <snm>Fletcher</snm>
                   <fnm>A</fnm>
                </au>
                <au>
                   <snm>Bradshaw</snm>
                   <fnm>N</fnm>
                </au>
                <au>
                   <snm>Freel</snm>
                   <fnm>EM</fnm>
                </au>
                <au>
                   <snm>Cooke</snm>
                   <fnm>A</fnm>
                </au>
                <au>
                   <snm>Murday</snm>
                   <fnm>VA</fnm>
                </au>
                <au>
                   <snm>Davidson</snm>
                   <fnm>HR</fnm>
                </au>
                <au>
                   <snm>Perry</snm>
                   <fnm>CG</fnm>
                </au>
                <au>
                   <snm>Lindsay</snm>
                   <fnm>RS</fnm>
                </au>
             </aug>
             <source>J Clin Endocrinol Metab</source>
             <pubdate>2011</pubdate>
             <volume>96</volume>
             <issue>12</issue>
             <fpage>E2009</fpage>
             <lpage>E2013</lpage>
             <xrefbib>
                <pubidlist>
                   <pubid idtype="doi">10.1210/jc.2011-1244</pubid>
                   <pubid idtype="pmpid" link="fulltext">21937622</pubid>
                </pubidlist>
             </xrefbib>
          </bibl>
          <bibl id="B14">
             <title>
                <p>Multiparameter DNA flow-sorting demonstrates diploidy and SDHD wild-type gene retention in the sustentacular cell compartment of head and neck paragangliomas: chief cells are the only neoplastic component</p>
             </title>
             <aug>
                <au>
                   <snm>Douwes Dekker</snm>
                   <fnm>PB</fnm>
                </au>
                <au>
                   <snm>Corver</snm>
                   <fnm>WE</fnm>
                </au>
                <au>
                   <snm>Hogendoorn</snm>
                   <fnm>PC</fnm>
                </au>
                <au>
                   <snm>Van Der Mey</snm>
                   <fnm>AG</fnm>
                </au>
                <au>
                   <snm>Cornelisse</snm>
                   <fnm>CJ</fnm>
                </au>
             </aug>
             <source>J Pathol</source>
             <pubdate>2004</pubdate>
             <volume>202</volume>
             <issue>4</issue>
             <fpage>456</fpage>
             <lpage>462</lpage>
             <xrefbib>
                <pubidlist>
                   <pubid idtype="doi">10.1002/path.1535</pubid>
                   <pubid idtype="pmpid" link="fulltext">15095273</pubid>
                </pubidlist>
             </xrefbib>
          </bibl>
          <bibl id="B15">
             <title>
                <p>Allelotype of head and neck paragangliomas: allelic imbalance is confined to the long arm of chromosome 11, the site of the predisposing locus PGL</p>
             </title>
             <aug>
                <au>
                   <snm>Devilee</snm>
                   <fnm>P</fnm>
                </au>
                <au>
                   <snm>van Schothorst</snm>
                   <fnm>EM</fnm>
                </au>
                <au>
                   <snm>Bardoel</snm>
                   <fnm>AF</fnm>
                </au>
                <au>
                   <snm>Bonsing</snm>
                   <fnm>B</fnm>
                </au>
                <au>
                   <snm>Kuipers-Dijkshoorn</snm>
                   <fnm>N</fnm>
                </au>
                <au>
                   <snm>James</snm>
                   <fnm>MR</fnm>
                </au>
                <au>
                   <snm>Fleuren</snm>
                   <fnm>G</fnm>
                </au>
                <au>
                   <snm>Van Der Mey</snm>
                   <fnm>AG</fnm>
                </au>
                <au>
                   <snm>Cornelisse</snm>
                   <fnm>CJ</fnm>
                </au>
             </aug>
             <source>Genes Chromosomes Cancer</source>
             <pubdate>1994</pubdate>
             <volume>11</volume>
             <issue>2</issue>
             <fpage>71</fpage>
             <lpage>78</lpage>
             <xrefbib>
                <pubidlist>
                   <pubid idtype="doi">10.1002/gcc.2870110202</pubid>
                   <pubid idtype="pmpid" link="fulltext">7529551</pubid>
                </pubidlist>
             </xrefbib>
          </bibl>
          <bibl id="B16">
             <title>
                <p>An immunohistochemical procedure to detect patients with paraganglioma and phaeochromocytoma with germline SDHB, SDHC, or SDHD gene mutations: a retrospective and prospective analysis</p>
             </title>
             <aug>
                <au>
                   <snm>van Nederveen</snm>
                   <fnm>FH</fnm>
                </au>
                <au>
                   <snm>Gaal</snm>
                   <fnm>J</fnm>
                </au>
                <au>
                   <snm>Favier</snm>
                   <fnm>J</fnm>
                </au>
                <au>
                   <snm>Korpershoek</snm>
                   <fnm>E</fnm>
                </au>
                <au>
                   <snm>Oldenburg</snm>
                   <fnm>RA</fnm>
                </au>
                <au>
                   <snm>de Bruyn</snm>
                   <fnm>EM</fnm>
                </au>
                <au>
                   <snm>Sleddens</snm>
                   <fnm>HF</fnm>
                </au>
                <au>
                   <snm>Derkx</snm>
                   <fnm>P</fnm>
                </au>
                <au>
                   <snm>Rivi&#232;re</snm>
                   <fnm>J</fnm>
                </au>
                <au>
                   <snm>Dannenberg</snm>
                   <fnm>H</fnm>
                </au>
                <au>
                   <snm>Petri</snm>
                   <fnm>BJ</fnm>
                </au>
                <au>
                   <snm>Komminoth</snm>
                   <fnm>P</fnm>
                </au>
                <au>
                   <snm>Pacak</snm>
                   <fnm>K</fnm>
                </au>
                <au>
                   <snm>Hop</snm>
                   <fnm>WC</fnm>
                </au>
                <au>
                   <snm>Pollard</snm>
                   <fnm>PJ</fnm>
                </au>
                <au>
                   <snm>Mannelli</snm>
                   <fnm>M</fnm>
                </au>
                <au>
                   <snm>Bayley</snm>
                   <fnm>JP</fnm>
                </au>
                <au>
                   <snm>Perren</snm>
                   <fnm>A</fnm>
                </au>
                <au>
                   <snm>Niemann</snm>
                   <fnm>S</fnm>
                </au>
                <au>
                   <snm>Verhofstad</snm>
                   <fnm>AA</fnm>
                </au>
                <au>
                   <snm>de Bru&#239;ne</snm>
                   <fnm>AP</fnm>
                </au>
                <au>
                   <snm>Maher</snm>
                   <fnm>ER</fnm>
                </au>
                <au>
                   <snm>Tissier</snm>
                   <fnm>F</fnm>
                </au>
                <au>
                   <snm>M&#233;atchi</snm>
                   <fnm>T</fnm>
                </au>
                <au>
                   <snm>Badoual</snm>
                   <fnm>C</fnm>
                </au>
                <au>
                   <snm>Bertherat</snm>
                   <fnm>J</fnm>
                </au>
                <au>
                   <snm>Amar</snm>
                   <fnm>L</fnm>
                </au>
                <au>
                   <snm>Alataki</snm>
                   <fnm>D</fnm>
                </au>
                <au>
                   <snm>Van Marck</snm>
                   <fnm>E</fnm>
                </au>
                <au>
                   <snm>Ferrau</snm>
                   <fnm>F</fnm>
                </au>
                <etal/>
             </aug>
             <source>Lancet Oncol</source>
             <pubdate>2009</pubdate>
             <volume>10</volume>
             <issue>8</issue>
             <fpage>764</fpage>
             <lpage>771</lpage>
             <xrefbib>
                <pubidlist>
                   <pubid idtype="doi">10.1016/S1470-2045(09)70164-0</pubid>
                   <pubid idtype="pmpid" link="fulltext">19576851</pubid>
                </pubidlist>
             </xrefbib>
          </bibl>
          <bibl id="B17">
             <title>
                <p>Genomic imprinting at a boundary element flanking the SDHD locus</p>
             </title>
             <aug>
                <au>
                   <snm>Baysal</snm>
                   <fnm>BE</fnm>
                </au>
                <au>
                   <snm>McKay</snm>
                   <fnm>SE</fnm>
                </au>
                <au>
                   <snm>Kim</snm>
                   <fnm>YJ</fnm>
                </au>
                <au>
                   <snm>Zhang</snm>
                   <fnm>Z</fnm>
                </au>
                <au>
                   <snm>Alila</snm>
                   <fnm>L</fnm>
                </au>
                <au>
                   <snm>Willett-Brozick</snm>
                   <fnm>JE</fnm>
                </au>
                <au>
                   <snm>Pacak</snm>
                   <fnm>K</fnm>
                </au>
                <au>
                   <snm>Kim</snm>
                   <fnm>TH</fnm>
                </au>
                <au>
                   <snm>Shadel</snm>
                   <fnm>GS</fnm>
                </au>
             </aug>
             <source>Hum Mol Genet</source>
             <pubdate>2011</pubdate>
             <volume>20</volume>
             <issue>22</issue>
             <fpage>4452</fpage>
             <lpage>4461</lpage>
             <xrefbib>
                <pubidlist>
                   <pubid idtype="doi">10.1093/hmg/ddr376</pubid>
                   <pubid idtype="pmpid" link="fulltext">21862453</pubid>
                </pubidlist>
             </xrefbib>
          </bibl>
          <bibl id="B18">
             <title>
                <p>Somatic loss of maternal chromosome 11 causes parent-of-origin-dependent inheritance in SDHD-linked paraganglioma and phaeochromocytoma families</p>
             </title>
             <aug>
                <au>
                   <snm>Hensen</snm>
                   <fnm>EF</fnm>
                </au>
                <au>
                   <snm>Jordanova</snm>
                   <fnm>ES</fnm>
                </au>
                <au>
                   <snm>van Minderhout</snm>
                   <fnm>IJHM</fnm>
                </au>
                <au>
                   <snm>Hogendoorn</snm>
                   <fnm>PCW</fnm>
                </au>
                <au>
                   <snm>Taschner</snm>
                   <fnm>PEM</fnm>
                </au>
                <au>
                   <snm>van der Mey</snm>
                   <fnm>AGL</fnm>
                </au>
                <au>
                   <snm>Devilee</snm>
                   <fnm>P</fnm>
                </au>
                <au>
                   <snm>Cornelisse</snm>
                   <fnm>CJ</fnm>
                </au>
             </aug>
             <source>Oncogene</source>
             <pubdate>2004</pubdate>
             <volume>23</volume>
             <issue>23</issue>
             <fpage>4076</fpage>
             <lpage>4083</lpage>
             <xrefbib>
                <pubidlist>
                   <pubid idtype="doi">10.1038/sj.onc.1207591</pubid>
                   <pubid idtype="pmpid" link="fulltext">15064708</pubid>
                </pubidlist>
             </xrefbib>
          </bibl>
          <bibl id="B19">
             <title>
                <p>Mutation of a nuclear succinate dehydrogenase gene results in mitochondrial respiratory chain deficiency</p>
             </title>
             <aug>
                <au>
                   <snm>Bourgeron</snm>
                   <fnm>T</fnm>
                </au>
                <au>
                   <snm>Rustin</snm>
                   <fnm>P</fnm>
                </au>
                <au>
                   <snm>Chretien</snm>
                   <fnm>D</fnm>
                </au>
                <au>
                   <snm>Birch-Machin</snm>
                   <fnm>M</fnm>
                </au>
                <au>
                   <snm>Bourgeois</snm>
                   <fnm>M</fnm>
                </au>
                <au>
                   <snm>Viegas-Pequignot</snm>
                   <fnm>E</fnm>
                </au>
                <au>
                   <snm>Munnich</snm>
                   <fnm>A</fnm>
                </au>
                <au>
                   <snm>Rotig</snm>
                   <fnm>A</fnm>
                </au>
             </aug>
             <source>Nat Genet</source>
             <pubdate>1995</pubdate>
             <volume>11</volume>
             <issue>2</issue>
             <fpage>144</fpage>
             <lpage>149</lpage>
             <xrefbib>
                <pubidlist>
                   <pubid idtype="doi">10.1038/ng1095-144</pubid>
                   <pubid idtype="pmpid" link="fulltext">7550341</pubid>
                </pubidlist>
             </xrefbib>
          </bibl>
          <bibl id="B20">
             <title>
                <p>Sdhd and SDHD/H19 knockout mice do not develop paraganglioma or pheochromocytoma</p>
             </title>
             <aug>
                <au>
                   <snm>Bayley</snm>
                   <fnm>JP</fnm>
                </au>
                <au>
                   <snm>van</snm>
                   <fnm>M,I</fnm>
                </au>
                <au>
                   <snm>Hogendoorn</snm>
                   <fnm>PC</fnm>
                </au>
                <au>
                   <snm>Cornelisse</snm>
                   <fnm>CJ</fnm>
                </au>
                <au>
                   <snm>van der Wal</snm>
                   <fnm>A</fnm>
                </au>
                <au>
                   <snm>Prins</snm>
                   <fnm>FA</fnm>
                </au>
                <au>
                   <snm>Teppema</snm>
                   <fnm>L</fnm>
                </au>
                <au>
                   <snm>Dahan</snm>
                   <fnm>A</fnm>
                </au>
                <au>
                   <snm>Devilee</snm>
                   <fnm>P</fnm>
                </au>
                <au>
                   <snm>Taschner</snm>
                   <fnm>PE</fnm>
                </au>
             </aug>
             <source>PLoS One</source>
             <pubdate>2009</pubdate>
             <volume>4</volume>
             <issue>11</issue>
             <fpage>e7987</fpage>
             <xrefbib>
                <pubidlist>
                   <pubid idtype="doi">10.1371/journal.pone.0007987</pubid>
                   <pubid idtype="pmpid" link="fulltext">19956719</pubid>
                </pubidlist>
             </xrefbib>
          </bibl>
          <bibl id="B21">
             <title>
                <p>The mitochondrial SDHD gene is required for early embryogenesis, and its partial deficiency results in persistent carotid body glomus cell activation with full responsiveness to hypoxia</p>
             </title>
             <aug>
                <au>
                   <snm>Piruat</snm>
                   <fnm>JI</fnm>
                </au>
                <au>
                   <snm>Pintado</snm>
                   <fnm>CO</fnm>
                </au>
                <au>
                   <snm>Ortega-Saenz</snm>
                   <fnm>P</fnm>
                </au>
                <au>
                   <snm>Roche</snm>
                   <fnm>M</fnm>
                </au>
                <au>
                   <snm>Lopez-Barneo</snm>
                   <fnm>J</fnm>
                </au>
             </aug>
             <source>Mol Cell Biol</source>
             <pubdate>2004</pubdate>
             <volume>24</volume>
             <issue>24</issue>
             <fpage>10933</fpage>
             <lpage>10940</lpage>
             <xrefbib>
                <pubidlist>
                   <pubid idtype="doi">10.1128/MCB.24.24.10933-10940.2004</pubid>
                   <pubid idtype="pmpid" link="fulltext">15572694</pubid>
                </pubidlist>
             </xrefbib>
          </bibl>
          <bibl id="B22">
             <title>
                <p>Disomy as the genetic underlying mechanisms of loss of heterozigosity in SDHD-paragangliomas</p>
             </title>
             <aug>
                <au>
                   <snm>Beristain</snm>
                   <fnm>E</fnm>
                </au>
                <au>
                   <snm>Vicente</snm>
                   <fnm>MA</fnm>
                </au>
                <au>
                   <snm>Guerra</snm>
                   <fnm>I</fnm>
                </au>
                <au>
                   <snm>Gutierrez-Corres</snm>
                   <fnm>FB</fnm>
                </au>
                <au>
                   <snm>Garin</snm>
                   <fnm>I</fnm>
                </au>
                <au>
                   <snm>de Perez</snm>
                   <fnm>NG</fnm>
                </au>
             </aug>
             <source>J Clin Endocrinol Metab</source>
             <pubdate>2013</pubdate>
             <volume>98</volume>
             <issue>5</issue>
             <fpage>E1012</fpage>
             <lpage>E1016</lpage>
             <xrefbib>
                <pubidlist>
                   <pubid idtype="doi">10.1210/jc.2012-4083</pubid>
                   <pubid idtype="pmpid" link="fulltext">23493432</pubid>
                </pubidlist>
             </xrefbib>
          </bibl>
          <bibl id="B23">
             <title>
                <p>Differential loss of chromosome 11q in familial and sporadic parasympathetic paragangliomas detected by comparative genomic hybridization</p>
             </title>
             <aug>
                <au>
                   <snm>Dannenberg</snm>
                   <fnm>H</fnm>
                </au>
                <au>
                   <snm>de Krijger</snm>
                   <fnm>RR</fnm>
                </au>
                <au>
                   <snm>Zhao</snm>
                   <fnm>J</fnm>
                </au>
                <au>
                   <snm>Speel</snm>
                   <fnm>EJ</fnm>
                </au>
                <au>
                   <snm>Saremaslani</snm>
                   <fnm>P</fnm>
                </au>
                <au>
                   <snm>Dinjens</snm>
                   <fnm>WN</fnm>
                </au>
                <au>
                   <snm>Mooi</snm>
                   <fnm>WJ</fnm>
                </au>
                <au>
                   <snm>Roth</snm>
                   <fnm>J</fnm>
                </au>
                <au>
                   <snm>Heitz</snm>
                   <fnm>PU</fnm>
                </au>
                <au>
                   <snm>Komminoth</snm>
                   <fnm>P</fnm>
                </au>
             </aug>
             <source>Am J Pathol</source>
             <pubdate>2001</pubdate>
             <volume>158</volume>
             <issue>6</issue>
             <fpage>1937</fpage>
             <lpage>1942</lpage>
             <xrefbib>
                <pubidlist>
                   <pubid idtype="doi">10.1016/S0002-9440(10)64662-7</pubid>
                   <pubid idtype="pmpid" link="fulltext">11395368</pubid>
                </pubidlist>
             </xrefbib>
          </bibl>
          <bibl id="B24">
             <title>
                <p>Chromosome 11 monosomy in conjunction with a mutated SDHD initiation codon in nonfamilial paraganglioma cases</p>
             </title>
             <aug>
                <au>
                   <snm>Riemann</snm>
                   <fnm>K</fnm>
                </au>
                <au>
                   <snm>Sotlar</snm>
                   <fnm>K</fnm>
                </au>
                <au>
                   <snm>Kupka</snm>
                   <fnm>S</fnm>
                </au>
                <au>
                   <snm>Braun</snm>
                   <fnm>S</fnm>
                </au>
                <au>
                   <snm>Zenner</snm>
                   <fnm>HP</fnm>
                </au>
                <au>
                   <snm>Preyer</snm>
                   <fnm>S</fnm>
                </au>
                <au>
                   <snm>Pfister</snm>
                   <fnm>M</fnm>
                </au>
                <au>
                   <snm>Pusch</snm>
                   <fnm>CM</fnm>
                </au>
                <au>
                   <snm>Blin</snm>
                   <fnm>N</fnm>
                </au>
             </aug>
             <source>Cancer Genet Cytogenet</source>
             <pubdate>2004</pubdate>
             <volume>150</volume>
             <issue>2</issue>
             <fpage>128</fpage>
             <lpage>135</lpage>
             <xrefbib>
                <pubidlist>
                   <pubid idtype="doi">10.1016/j.cancergencyto.2003.10.013</pubid>
                   <pubid idtype="pmpid" link="fulltext">15066320</pubid>
                </pubidlist>
             </xrefbib>
          </bibl>
          <bibl id="B25">
             <title>
                <p>Epigenetic analysis of HIC1, CASP8, FLIP, TSP1, DCR1, DCR2, DR4, DR5, KvDMR1, H19 and preferential 11p15.5 maternal-allele loss in von Hippel-Lindau and sporadic phaeochromocytomas</p>
             </title>
             <aug>
                <au>
                   <snm>Margetts</snm>
                   <fnm>CDE</fnm>
                </au>
                <au>
                   <snm>Astuti</snm>
                   <fnm>D</fnm>
                </au>
                <au>
                   <snm>Gentle</snm>
                   <fnm>DC</fnm>
                </au>
                <au>
                   <snm>Cooper</snm>
                   <fnm>WN</fnm>
                </au>
                <au>
                   <snm>Cascon</snm>
                   <fnm>A</fnm>
                </au>
                <au>
                   <snm>Catchpoole</snm>
                   <fnm>D</fnm>
                </au>
                <au>
                   <snm>Robledo</snm>
                   <fnm>M</fnm>
                </au>
                <au>
                   <snm>Neumann</snm>
                   <fnm>HPH</fnm>
                </au>
                <au>
                   <snm>Latif</snm>
                   <fnm>F</fnm>
                </au>
                <au>
                   <snm>Maher</snm>
                   <fnm>ER</fnm>
                </au>
             </aug>
             <source>Endocr Relat Cancer</source>
             <pubdate>2005</pubdate>
             <volume>12</volume>
             <issue>1</issue>
             <fpage>161</fpage>
             <lpage>172</lpage>
             <xrefbib>
                <pubidlist>
                   <pubid idtype="doi">10.1677/erc.1.00865</pubid>
                   <pubid idtype="pmpid" link="fulltext">15788647</pubid>
                </pubidlist>
             </xrefbib>
          </bibl>
          <bibl id="B26">
             <title>
                <p>Molecular characterization of a pediatric pheochromocytoma with suspected bilateral disease</p>
             </title>
             <aug>
                <au>
                   <snm>Mircescu</snm>
                   <fnm>H</fnm>
                </au>
                <au>
                   <snm>Wilkin</snm>
                   <fnm>F</fnm>
                </au>
                <au>
                   <snm>Paquette</snm>
                   <fnm>J</fnm>
                </au>
                <au>
                   <snm>Oligny</snm>
                   <fnm>LL</fnm>
                </au>
                <au>
                   <snm>Decaluwe</snm>
                   <fnm>H</fnm>
                </au>
                <au>
                   <snm>Gaboury</snm>
                   <fnm>L</fnm>
                </au>
                <au>
                   <snm>Nolet</snm>
                   <fnm>S</fnm>
                </au>
                <au>
                   <snm>Van</snm>
                   <fnm>VG</fnm>
                </au>
                <au>
                   <snm>Deal</snm>
                   <fnm>C</fnm>
                </au>
             </aug>
             <source>J Pediatr</source>
             <pubdate>2001</pubdate>
             <volume>138</volume>
             <issue>2</issue>
             <fpage>269</fpage>
             <lpage>273</lpage>
             <xrefbib>
                <pubidlist>
                   <pubid idtype="doi">10.1067/mpd.2001.111316</pubid>
                   <pubid idtype="pmpid" link="fulltext">11174629</pubid>
                </pubidlist>
             </xrefbib>
          </bibl>
       </refgrp>
    </bm>
 </art>