<art>
    <ui>s12883-014-0181-4</ui>
    <ji>1471-2377</ji>
    <fm>
       <dochead>Research article</dochead>
       <bibl>
          <title>
             <p>Dependency-like behaviors and pain coping styles in subjects with chronic migraine and medication overuse: results from a 1-year follow-up study</p>
          </title>
          <aug>
             <au ca="yes" id="A1">
                <snm>Biagianti</snm>
                <fnm>Bruno</fnm>
                <insr iid="I1"/>
                <insr iid="I2"/>
                <email>bruno.biagianti@ucsf.edu</email>
             </au>
             <au id="A2">
                <snm>Grazzi</snm>
                <fnm>Licia</fnm>
                <insr iid="I3"/>
                <email>licia.grazzi@istituto-besta.it</email>
             </au>
             <au id="A3">
                <snm>Usai</snm>
                <fnm>Susanna</fnm>
                <insr iid="I3"/>
                <email>susanna.usai@istituto-besta.it</email>
             </au>
             <au id="A4">
                <snm>Gambini</snm>
                <fnm>Orsola</fnm>
                <insr iid="I2"/>
                <email>orsola.gambini@unimi.it</email>
             </au>
          </aug>
          <insg>
             <ins id="I1">
                <p>San Francisco Department of Veterans Affairs Medical Center, Building 16, 4150 Clement Street, San Francisco 94121, CA, USA</p>
             </ins>
             <ins id="I2">
                <p>Department of Psychiatry, University of Milan Medical School and San Paolo Hospital, Milan, Italy</p>
             </ins>
             <ins id="I3">
                <p>Headache Center, Neurological Institute C. Besta IRCCS Foundation, Milan, Italy</p>
             </ins>
          </insg>
          <source>BMC Neurology</source>
          <issn>1471-2377</issn>
          <pubdate>2014</pubdate>
          <volume>14</volume>
          <issue>1</issue>
          <fpage>181</fpage>
          <url>http://www.biomedcentral.com/1471-2377/14/181</url>
          <xrefbib>
             <pubidlist>
                <pubid idtype="doi">10.1186/s12883-014-0181-4</pubid>
                <pubid idtype="pmpid">25234249</pubid>
             </pubidlist>
          </xrefbib>
       </bibl>
       <history>
          <rec>
             <date>
                <day>3</day>
                <month>6</month>
                <year>2014</year>
             </date>
          </rec>
          <acc>
             <date>
                <day>10</day>
                <month>9</month>
                <year>2014</year>
             </date>
          </acc>
          <pub>
             <date>
                <day>19</day>
                <month>9</month>
                <year>2014</year>
             </date>
          </pub>
       </history>
       <cpyrt>
          <year>2014</year>
          <collab>Biagianti et al.; licensee BioMed Central Ltd.</collab>
          <note>This is an Open Access article distributed under the terms of the Creative Commons Attribution License (<url>http://creativecommons.org/licenses/by/4.0</url>), which permits unrestricted use, distribution, and reproduction in any medium, provided the original work is properly credited. The Creative Commons Public Domain Dedication waiver (<url>http://creativecommons.org/publicdomain/zero/1.0/</url>) applies to the data made available in this article, unless otherwise stated.</note>
       </cpyrt>
       <kwdg>
          <kwd>Chronic migraine</kwd>
          <kwd>Medication overuse</kwd>
          <kwd>Pain locus of control</kwd>
          <kwd>Dependency-like behaviors</kwd>
          <kwd>Headache-related disability</kwd>
       </kwdg>
       <abs>
          <sec>
             <st>
                <p>Abstract</p>
             </st>
             <sec>
                <st>
                   <p>Background</p>
                </st>
                <p>Even after successful detoxification, 20-40% of subjects presenting chronic migraine with symptomatic medication overuse (CMwMO) relapse into medication overuse within one year. In this restrospective analysis on subjects referred to our center for detoxification, we investigated whether personality traits, dependency-like behaviors and pain coping styles predicted those who relapsed into medication overuse within the 12&#160;months following the detoxification and those who did not.</p>
             </sec>
             <sec>
                <st>
                   <p>Methods</p>
                </st>
                <p>63 patients with CMwMO were assessed for personality traits, mood and anxiety, pain coping styles and dependency-like behaviors prior-to and one year after a detoxification program.</p>
             </sec>
             <sec>
                <st>
                   <p>Results</p>
                </st>
                <p>Of the 42 subjects who attended 1-year follow-up interviews, 11 relapsed into medication overuse despite a temporary benefit from detoxification and did not show clinical or psychological improvement, instead reporting increased anxiety and unmodified perpetuation of severe dependency-like behaviors. In contrast, subjects who did not relapse into medication overuse had clinical improvements that generalized to untreated domains, including decreased depressive symptoms and dependency-like behaviors, although showing unmodified low internal control over pain.</p>
             </sec>
             <sec>
                <st>
                   <p>Conclusions</p>
                </st>
                <p>Subjects who did not fall into medication overuse throughout the 12&#160;months following the detoxification showed improved clinical, affective and dependence-related outcomes, but not pain coping strategies. Conversely, subjects who relapsed within one year into CMwMO continued to experience significant disability, pain intensity, and dependency-like behaviors. We believe that the persistence of maladaptive pain coping strategies and residual symptomatology increase the risk for recurrent relapses, against which pharmacological interventions are only partially effective. Further studies investigating predictors of relapse are needed to inform multi-disciplinary interventions for CMwMO.</p>
             </sec>
          </sec>
       </abs>
    </fm>
    <bdy>
       <sec>
          <st>
             <p>1 Background</p>
          </st>
          <p>Of the subjects with headaches referred to tertiary care clinics, as many as 15-30% are affected with chronic migraine with symptomatic medication overuse (CMwMO) <abbrgrp>
                <abbr bid="B1">1</abbr>
             </abbrgrp>. Coping with the pain and disability associated with chronic migraine (CM) is likely to be a potential cause for increased medication intake <abbrgrp>
                <abbr bid="B2">2</abbr>
             </abbrgrp>,<abbrgrp>
                <abbr bid="B3">3</abbr>
             </abbrgrp>. However, some subjects with CM lose control over the use of symptomatic medications and develop counterproductive behaviors, including decision making deficits that compromise social functioning and negatively impact the quality of life <abbrgrp>
                <abbr bid="B4">4</abbr>
             </abbrgrp>-<abbrgrp>
                <abbr bid="B6">6</abbr>
             </abbrgrp>. The underlying pathophysiology of CMwMO is poorly understood. Evidence from recent studies suggests that neurobiological factors yet to be identified, including aberrant resting state functional connectivity within the default-mode network and reduced gray matter volumes of frontal regions, precuneus and hippocampus, could predispose certain subjects with CM to fall and recurrently relapse into CMwMO <abbrgrp>
                <abbr bid="B7">7</abbr>
             </abbrgrp>,<abbrgrp>
                <abbr bid="B8">8</abbr>
             </abbrgrp>. Currently, the initial line of treatment for CMwMO is detoxification from the offending drug <abbrgrp>
                <abbr bid="B9">9</abbr>
             </abbrgrp>. Nonetheless, studies conducted in tertiary care clinics with patient populations and detoxification protocols similar to ours indicated that 20-40% of those subjects who discontinue medication overuse after a successful detoxification relapse into it within a period of months or years <abbrgrp>
                <abbr bid="B10">10</abbr>
             </abbrgrp>. Longitudinal studies investigating variables associated with relapse following a successful detoxification have produced inconclusive result. Although the characteristics of CMwMO are considered to be outcome predictors associated with relapse <abbrgrp>
                <abbr bid="B11">11</abbr>
             </abbrgrp>,<abbrgrp>
                <abbr bid="B12">12</abbr>
             </abbrgrp>, longitudinal studies showed that neither the frequency nor the intensity of migraines is significantly associated with relapse rates <abbrgrp>
                <abbr bid="B10">10</abbr>
             </abbrgrp>, instead suggesting that psychological and affective characteristics could play a key role. Mood disorders including depression have been considered relapse-predicting factors <abbrgrp>
                <abbr bid="B13">13</abbr>
             </abbrgrp>: a 4-year follow-up study conducted by Hagen et al. found that lower scores for depressive symptoms at baseline were the only factor associated with functional improvement <abbrgrp>
                <abbr bid="B14">14</abbr>
             </abbrgrp>. Furthemore, dysfunctional personality traits have been related to worsened long-term prognosis in subjects with CM<sup>,</sup> and might facilitate the perpetuation of medication consumption <abbrgrp>
                <abbr bid="B15">15</abbr>
             </abbrgrp>,<abbrgrp>
                <abbr bid="B16">16</abbr>
             </abbrgrp>. Third, the severity of dependency-like behaviors could dampen the benefits of detoxification and increase risk to fall into CMwMO <abbrgrp>
                <abbr bid="B17">17</abbr>
             </abbrgrp>. Finally, differences in attributing control over pain to particular influence the effectiveness of therapeutic interventions <abbrgrp>
                <abbr bid="B18">18</abbr>
             </abbrgrp>. Thus, subjects with CMwMO who tend to attribute control over pain to internal sources are more likely to rationalize painful perceptions as less-frequent, less-intense, and less-distressing. Subjects who attribute pain control to external domains, such as fate, luck, or medical treatment, are conversely more likely to show maladaptive coping strategies leading to greater functional impairment <abbrgrp>
                <abbr bid="B19">19</abbr>
             </abbrgrp>,<abbrgrp>
                <abbr bid="B20">20</abbr>
             </abbrgrp>. We previously conducted an observational single-arm study on subjects with CMwMO referred to our headache center for a detoxification program. When looking at migraine characteristics and related disability prior-to, and then 1-year-after detoxification, we found that detoxification was associated with significant improvements in the group taken as a whole <abbrgrp>
                <abbr bid="B21">21</abbr>
             </abbrgrp>. In this retrospective analysis, we decided to study comparatively those who did not fall into medication overuse throughout the 12&#160;months following the detoxification and those who relapsed into CMwMO. In addition, we aimed to characterize personality traits, dependency-like behaviors and pain coping styles in the two subgroups and to determine whether these factors could be possible predictors of relapse into CMwMO.</p>
       </sec>
       <sec>
          <st>
             <p>2 Methods</p>
          </st>
          <p>63 subjects with CMwMO were consecutively recruited at the Headache Center of the Foundation IRCCS Neurological Institute Carlo Besta in Milan. Subjects gave informed consent before participating and were informed of the absence of compensation. The study was approved by the IRCCS Neurological Institute Carlo Besta Ethics Committee. Inclusion criteria were: (i) diagnosis of chronic migraine, i.e. migraine headaches present on&#8201;&#8805;&#8201;15&#160;days in a month on a regular basis for&#8201;&gt;&#8201;3&#160;months, according to the current criteria reported in the International Classification of Headache Disorders, 2<sup>nd</sup> Edition, and (ii) diagnosis of medicatio overuse, i.e. intake of simple analgesic on&#8201;&#8805;&#8201;15&#160;days per month; or of any combination of ergotamine, triptans, analgesics, and/or opioids on&#8201;&#8805;&#8201;10&#160;days per month on a regular basis for&#8201;&gt;&#8201;3&#160;months <abbrgrp>
                <abbr bid="B22">22</abbr>
             </abbrgrp>. Exclusion criteria were the following: other chronic pain conditions, pregnancy, progressive neurological disorders, present or past psychotic disorders, present or past substance and alcohol use disorders, and use of anti-psychotic drugs in the last 6&#160;months. Prior to commencing the detoxification program, subjects underwent a battery of neuropsychiatric structured interviews and questionnaires. The detoxification program consisted of the following: (1) intravenous hydration for a period of 5&#160;days; (2) intravenous steroids for the first 5&#160;days followed by oral prescription for another 5&#160;days; (3) diazepam orally in 2 prescriptions per day; and (4) ev- or im-metoclopramide or indomethacine when needed for intense rebound headache. On day 6, in consideration of their clinical features, medical history, and comorbidities, subjects could be prescribed with one or more prophylactic anti-migraine compounds recommended by published guidelines: flunarizine, pizotifen, propranolol, or amitriptyline <abbrgrp>
                <abbr bid="B23">23</abbr>
             </abbrgrp>. At the conclusion of the detoxification program, subjects underwent a 3-hour psychoeducational training focusing on the correct management of NSAIDs and triptans during migraine episodes; additionally, they were encouraged to keep track of medications using a headache diary. 1&#160;year after detoxification, the baseline assessment battery was repeated and subjects were categorized into two groups: Group 1 included those who did not fall into medication overuse throughout the 12&#160;months following the detoxification; Group 2 included those who relapsed into CMwMO.</p>
          <p>Preliminary findings from this sample regarding clinical improvements associated with detoxification were recently published <abbrgrp>
                <abbr bid="B21">21</abbr>
             </abbrgrp>. For the purpose of this retrospective analysis, we focused on the following battery of assessments. The Migraine Disability Assessment Questionnaire (MIDAS) measures headache-related disability over the past 3&#160;months by asking 5 questions about work, household- and social-related disability, the frequency of headaches, and the intensity of headache pain on a visual analog scale (VAS) <abbrgrp>
                <abbr bid="B24">24</abbr>
             </abbrgrp>. The Structured Clinical Interviews for DSM-IV-TR (SCID) Axis I Mood Disorders and Axis II Personality Disorders assesses mood and personality disorders, 2002). The Hamilton Rating Scales for Anxiety and Depression (HAM-A, HAM-D) measure the intensity of depression and anxiety symptoms <abbrgrp>
                <abbr bid="B25">25</abbr>
             </abbrgrp>,<abbrgrp>
                <abbr bid="B26">26</abbr>
             </abbrgrp>. The Pain Locus of Control Scale (PLOC) measures the sense of perceived control over pain and health-related outcomes <abbrgrp>
                <abbr bid="B18">18</abbr>
             </abbrgrp>. The PLOC Internal subscale measures the degree to which the individual perceives control over pain as internal, while the PLOC Chance and Powerful Others sub-scales are associated with strategies which attribute control over pain to either fate and luck or to health care providers. The Severity of Dependence Scale (SDS) identifies patterns of medication overuse and dependency-like behaviors among subjects with chronic headaches <abbrgrp>
                <abbr bid="B17">17</abbr>
             </abbrgrp>. The Structured Clinical Interview for Substance Use Spectrum (SCI-SUBS) explores symptoms, behaviors, and experiences related to several domains, including substance use (including the use of rewarding substances), sensitivity to substances (including mood changes, anxiety attacks, and strange sensations), use of substances to alleviate mood or anxiety symptoms, tendencies toward strong emotions, and regulation of concentration at work <abbrgrp>
                <abbr bid="B27">27</abbr>
             </abbrgrp>.</p>
          <p>For statistical analyses, we used the Statistical Package for the Social Sciences (SPSS, version 17.0; Chicago, IL, USA). We applied the Kolmogorov&#8211;Smirnov test to assess normality: clinical and psychopathological data were normally distributed. Due to the lack of significance in Levene&#8217;s test, continuous data were expressed by mean and standard deviation (M&#8201;&#177;&#8201;SD). We referred to levels of significance of <it>p</it>-value&#8201;&lt;&#8201;0.05. All tests were two-tailed. We used <it>t</it>-tests for paired samples separately in Groups 1 and 2 to identify any improvements in clinical and psychological measurements. We performed a binary logistic regression analysis to identify differences between Groups 1 and 2 at 1-year follow-up. In order to study risk factors for relapse into MO, we performed a series of binary logistic regression analyses for quantitative variables and a series of chi-squared tests for binary variables. Baseline variables used for these analyses included: gender, age, years with migraine, years with MO, frequency of headaches per month, number of tablets per month, intensity of headache pain, MIDAS total score, past history of psychiatric disorder, psychiatric diagnosis at time of evaluation, HAM-A and HAM-D scores, SDS score, and SCI-SUBS total score. In addition, we aimed to perform a logistic regression analysis based on the forward likelihood ratio method to estimate the strength of the associations between risk factors assessed at baseline and relapse into CMwMO at 1-year follow-up. Finally, we compared differences between pre- and-post-treatment PLOC scores using a <it>t</it>-test for paired samples, hypothesizing that detoxification would lead to increased perceptions of internal control over and decreased perceived external control.</p>
       </sec>
       <sec>
          <st>
             <p>3 Results</p>
          </st>
          <p>Our sample comprised 63 subjects (81.0% female), with a mean age of 42.1&#8201;&#177;&#8201;10.2&#160;years, and was characterized by a long history of migraine (years with migraine: 23.3&#8201;&#177;&#8201;13.1, range 1&#8211;60 years) and medication overuse (years with overuse: 2.8&#8201;&#177;&#8201;6.9, range 3&#160;months-36&#160;years). The intensity of headache pain, the frequency of headaches and medication intake were consistent extremely high rates of headache-related disability and severe dependency-like behaviors (SDS score: 8.7&#8201;&#177;&#8201;2.2; the cut off for SDS medication dependence is 5). See Table&#160;<tblr tid="T1">1</tblr> for additional information. 21 subjects (38.7%) reported a past history of mood or anxiety disorder. 18 subjects (29%) were diagnosed with an anxiety or depressive disorder at baseline according to SCID-I criteria. We found no significant differences in clinical and psychological measurements between those who had been previously diagnosed with an anxiety or depressive disorder and those who had not. No subjects met the DSM-IV-TR criteria for personality disorders. The most-used symptomatic medications for migraine attacks were NSAIDs, triptans, or a variable combination of both. 20 subjects (31.7%) overused triptans, while 32 (50.8%) overused NSAIDs. The 9 remaining subjects (14.3%) who used both types of medication could not be further sub-classified. The analysis of variance according to the medication type did not show significant differences for clinical and psychological measurements. At baseline, 28 subjects (44.4%) were not receiving preventive treatment, and 35 subjects (55.6%) had previously been prescribed either single-compound or combination prophylaxis. After discharge, 31 subjects (49.2%) were newly prescribed with prophylactic medications. Within the one year following detoxification treatment, 31 subjects (49.2%, 25 females; age 41.1&#8201;&#177;&#8201;9.4) did not relapse into CMwMO and presented with an episodic migraine pattern (Group 1) <abbrgrp>
                <abbr bid="B22">22</abbr>
             </abbrgrp>, while 11 subjects (17.5%, 8 females; age 46.6&#8201;&#177;&#8201;10.1) relapsed into CMwMO despite a temporary cessation of overuse (Group 2). 21 subjects (33.3%) did not complete 1-year follow-up assessments (18 females; age: 41.2&#8201;&#177;&#8201;11.1). We were able to retrieve information about 17 of these subjects: 3 were refractory to treatment and required hospitalization, 4 fell into the exclusion criteria for either pregnancy (2) or a suicide attempt (2), and 10 did not to return to the clinic and declined to provide their clinical status by phone. The remaining 4 subjects did not attend their scheduled follow-up visit. A <it>t</it>-test for independent samples showed that there were no significant differences in measurements between subjects who completed the study and those who did attend their scheduled follow-up visit. In total, longitudinal analyses were carried out for 42 subjects (66.7%). Table&#160;<tblr tid="T2">2</tblr>A shows changes among clinical and psychological variables in Groups 1 and 2. One year following treatment, Group 1 subjects showed significant improvements in several domains, including frequency of headaches per month, number of tablets per month, MIDAS total score, intensity of headache pain, intensity of dependency-like behaviors and depressive symptoms. Conversely, Group 2 subjects did not show any clinical or psychological improvement and were significantly more anxious. Furthermore, dependency-like behaviors among Group 2 subjects were unmodified relative to baseline. Table&#160;<tblr tid="T2">2</tblr>B shows results of the logistic regression analysis: one year following treatment, subjects in Group 1 showed decreased tablet intake (p&#8201;=&#8201;0.000), headache frequency (p&#8201;=&#8201;0.000), headache-related disability (p&#8201;=&#8201;0.024), anxiety (p&#8201;=&#8201;0.024), depression (p&#8201;=&#8201;0.027), and dependence-like behaviors (p&#8201;=&#8201;0.000) compared to those in Group 2. To identify risk factors of relapse into CMwMO, a series of binary logistic regressions and chi-square tests was performed. However, none of the baseline clinical and psychological measurements were associated predicted relapse into CMwMO. Accordingly, no subsequent regression model could be built.</p>
          
             <table id="T1">
                <title>
                   <p>Table 1</p>
                </title>
                <caption>
                   <p>
                      <b>Baseline and 1-year follow-up characteristics for study completers and drop-outs</b>
                   </p>
                </caption>
                <tgroup align="left" cols="5">
                   <colspec align="left" colname="c1" colnum="1" colwidth="*"/>
                   <colspec align="left" colname="c2" colnum="2" colwidth="*"/>
                   <colspec align="left" colname="c3" colnum="3" colwidth="*"/>
                   <colspec align="left" colname="c4" colnum="4" colwidth="*"/>
                   <colspec align="left" colname="c5" colnum="5" colwidth="*"/>
                   <thead>
                      <row rowsep="1" valign="top">
                         <entry colname="c1"/>
                         <entry colname="c2">
                            <p>
                               <b>Enrolled (N&#8201;=&#8201;63) baseline</b>
                            </p>
                         </entry>
                         <entry colname="c3">
                            <p>
                               <b>Dropouts (N&#8201;=&#8201;21) baseline</b>
                            </p>
                         </entry>
                         <entry colname="c4">
                            <p>
                               <b>COmpleters (N&#8201;=&#8201;42) baseline</b>
                            </p>
                         </entry>
                         <entry colname="c5">
                            <p>
                               <b>Completers (N&#8201;=&#8201;42) 1&#160;year follow-up</b>
                            </p>
                         </entry>
                      </row>
                   </thead>
                   <tfoot>
                      <p>Values expressed as Mean (SD).</p>
                   </tfoot>
                   <tbody>
                      <row valign="top">
                         <entry colname="c1">
                            <p>Days with headaches per month</p>
                         </entry>
                         <entry colname="c2">
                            <p>22.2 (6.5)</p>
                         </entry>
                         <entry colname="c3">
                            <p>23.1 (6.9)</p>
                         </entry>
                         <entry colname="c4">
                            <p>21.7 (6.4)</p>
                         </entry>
                         <entry colname="c5">
                            <p>11.2 (7.4)</p>
                         </entry>
                      </row>
                      <row valign="top">
                         <entry colname="c1">
                            <p>Tablets per month</p>
                         </entry>
                         <entry colname="c2">
                            <p>33.0 (23.2)</p>
                         </entry>
                         <entry colname="c3">
                            <p>38.8 (25.1)</p>
                         </entry>
                         <entry colname="c4">
                            <p>30.1 (21.9)</p>
                         </entry>
                         <entry colname="c5">
                            <p>15.0 (16.6)</p>
                         </entry>
                      </row>
                      <row valign="top">
                         <entry colname="c1">
                            <p>MIDAS total score</p>
                         </entry>
                         <entry colname="c2">
                            <p>68.9 (49.9)</p>
                         </entry>
                         <entry colname="c3">
                            <p>79.0 (58.3)</p>
                         </entry>
                         <entry colname="c4">
                            <p>68.8 (45.0)</p>
                         </entry>
                         <entry colname="c5">
                            <p>38.6 (38.9)</p>
                         </entry>
                      </row>
                      <row valign="top">
                         <entry colname="c1">
                            <p>Intensity of headache on VAS</p>
                         </entry>
                         <entry colname="c2">
                            <p>7.7 (1.6)</p>
                         </entry>
                         <entry colname="c3">
                            <p>8.1 (1.4)</p>
                         </entry>
                         <entry colname="c4">
                            <p>7.6 (1.7)</p>
                         </entry>
                         <entry colname="c5">
                            <p>6.5 (1.7)</p>
                         </entry>
                      </row>
                      <row valign="top">
                         <entry colname="c1">
                            <p>HAM-A Score</p>
                         </entry>
                         <entry colname="c2">
                            <p>12.8 (7.6)</p>
                         </entry>
                         <entry colname="c3">
                            <p>13.3 (8.8)</p>
                         </entry>
                         <entry colname="c4">
                            <p>12.6 (7.1)</p>
                         </entry>
                         <entry colname="c5">
                            <p>11.6 (6.9)</p>
                         </entry>
                      </row>
                      <row valign="top">
                         <entry colname="c1">
                            <p>HAM-D Score</p>
                         </entry>
                         <entry colname="c2">
                            <p>12.4 (7.2)</p>
                         </entry>
                         <entry colname="c3">
                            <p>12.4 (7.1)</p>
                         </entry>
                         <entry colname="c4">
                            <p>12.4 (7.4)</p>
                         </entry>
                         <entry colname="c5">
                            <p>9.8 (5.9)</p>
                         </entry>
                      </row>
                      <row valign="top">
                         <entry colname="c1">
                            <p>SDS Score</p>
                         </entry>
                         <entry colname="c2">
                            <p>8.6 (2.2)</p>
                         </entry>
                         <entry colname="c3">
                            <p>8.8 (2.3)</p>
                         </entry>
                         <entry colname="c4">
                            <p>8.6 (2.1)</p>
                         </entry>
                         <entry colname="c5">
                            <p>5.7 (3.2)</p>
                         </entry>
                      </row>
                      <row valign="top">
                         <entry colname="c1">
                            <p>SCI-SUBS total score</p>
                         </entry>
                         <entry colname="c2">
                            <p>12.2 (9.1)</p>
                         </entry>
                         <entry colname="c3">
                            <p>11.1 (7.5)</p>
                         </entry>
                         <entry colname="c4">
                            <p>5.6 (3.3)</p>
                         </entry>
                         <entry colname="c5">
                            <p>7.9 (7.9)</p>
                         </entry>
                      </row>
                   </tbody>
                </tgroup>
             </table>
          
          
             <table id="T2">
                <title>
                   <p>Table 2</p>
                </title>
                <caption>
                   <p>
                      <b>Clinical and psychological changes in Groups 1 and 2 (A) and between group differences at 1-year follow-up (B)</b>
                   </p>
                </caption>
                <tgroup align="left" cols="8">
                   <colspec align="left" colname="c1" colnum="1" colwidth="*"/>
                   <colspec align="left" colname="c2" colnum="2" colwidth="*"/>
                   <colspec align="left" colname="c3" colnum="3" colwidth="*"/>
                   <colspec align="left" colname="c4" colnum="4" colwidth="*"/>
                   <colspec align="left" colname="c5" colnum="5" colwidth="*"/>
                   <colspec align="left" colname="c6" colnum="6" colwidth="*"/>
                   <colspec align="left" colname="c7" colnum="7" colwidth="*"/>
                   <colspec align="left" colname="c8" colnum="8" colwidth="*"/>
                   <thead>
                      <row valign="top">
                         <entry colname="c1"/>
                         <entry nameend="c3" namest="c2" rowsep="1">
                            <p>
                               <b>
                                  <it>Table A</it>
                               </b>
                            </p>
                         </entry>
                         <entry colname="c4"/>
                         <entry nameend="c6" namest="c5"/>
                         <entry colname="c7"/>
                         <entry colname="c8">
                            <p>
                               <b>
                                  <it>Table B</it>
                               </b>
                            </p>
                         </entry>
                      </row>
                      <row valign="top">
                         <entry colname="c1"/>
                         <entry nameend="c3" namest="c2" rowsep="1">
                            <p>
                               <b>Group 1 (n&#8201;=&#8201;31)</b>
                            </p>
                         </entry>
                         <entry colname="c4"/>
                         <entry nameend="c6" namest="c5" rowsep="1">
                            <p>
                               <b>Group 2 (n&#8201;=&#8201;11)</b>
                            </p>
                         </entry>
                         <entry colname="c7"/>
                         <entry colname="c8"/>
                      </row>
                      <row rowsep="1" valign="top">
                         <entry colname="c1"/>
                         <entry colname="c2">
                            <p>
                               <b>Baseline</b>
                            </p>
                         </entry>
                         <entry colname="c3">
                            <p>
                               <b>1-year follow-up</b>
                            </p>
                         </entry>
                         <entry colname="c4">
                            <p>
                               <b>
                                  <it>t</it>
                               </b>
                               <b>-test</b>
                               <b>
                                  <it>(p</it>
                               </b>
                               <b>)</b>
                            </p>
                         </entry>
                         <entry colname="c5">
                            <p>
                               <b>Baseline</b>
                            </p>
                         </entry>
                         <entry colname="c6">
                            <p>
                               <b>1-year follow-up</b>
                            </p>
                         </entry>
                         <entry colname="c7">
                            <p>
                               <b>
                                  <it>t</it>
                               </b>
                               <b>-test</b>
                               <b>
                                  <it>(p</it>
                               </b>
                               <b>)</b>
                            </p>
                         </entry>
                         <entry colname="c8">
                            <p>
                               <b>Logistic regression</b>
                               <b>
                                  <it>(p</it>
                               </b>
                               <b>)</b>
                            </p>
                         </entry>
                      </row>
                   </thead>
                   <tfoot>
                      <p>Values expressed as Mean (SD).</p>
                   </tfoot>
                   <tbody>
                      <row valign="top">
                         <entry colname="c1">
                            <p>Days with headaches per month</p>
                         </entry>
                         <entry colname="c2">
                            <p>21.87 (6.3)</p>
                         </entry>
                         <entry colname="c3">
                            <p>8.3 (5.5)</p>
                         </entry>
                         <entry colname="c4">
                            <p>.000</p>
                         </entry>
                         <entry colname="c5">
                            <p>21.4 (7.0)</p>
                         </entry>
                         <entry colname="c6">
                            <p>19.3 (6.0)</p>
                         </entry>
                         <entry colname="c7">
                            <p>.416</p>
                         </entry>
                         <entry colname="c8">
                            <p>.000</p>
                         </entry>
                      </row>
                      <row valign="top">
                         <entry colname="c1">
                            <p>Tablets per month</p>
                         </entry>
                         <entry colname="c2">
                            <p>28.39 (19.7)</p>
                         </entry>
                         <entry colname="c3">
                            <p>7.8 (4.4)</p>
                         </entry>
                         <entry colname="c4">
                            <p>.000</p>
                         </entry>
                         <entry colname="c5">
                            <p>34.7 (27.8)</p>
                         </entry>
                         <entry colname="c6">
                            <p>35.5 (21.2)</p>
                         </entry>
                         <entry colname="c7">
                            <p>.940</p>
                         </entry>
                         <entry colname="c8">
                            <p>.000</p>
                         </entry>
                      </row>
                      <row valign="top">
                         <entry colname="c1">
                            <p>MIDAS total score</p>
                         </entry>
                         <entry colname="c2">
                            <p>63.6 (48.7)</p>
                         </entry>
                         <entry colname="c3">
                            <p>30.3 (26.1)</p>
                         </entry>
                         <entry colname="c4">
                            <p>.001</p>
                         </entry>
                         <entry colname="c5">
                            <p>64.5 (34.5)</p>
                         </entry>
                         <entry colname="c6">
                            <p>62.1 (57.8)</p>
                         </entry>
                         <entry colname="c7">
                            <p>.907</p>
                         </entry>
                         <entry colname="c8">
                            <p>.024</p>
                         </entry>
                      </row>
                      <row valign="top">
                         <entry colname="c1">
                            <p>Intensity of headache pain on VAS</p>
                         </entry>
                         <entry colname="c2">
                            <p>7.6 (1.8)</p>
                         </entry>
                         <entry colname="c3">
                            <p>6.3 (1.7)</p>
                         </entry>
                         <entry colname="c4">
                            <p>.001</p>
                         </entry>
                         <entry colname="c5">
                            <p>7.3 (1.6)</p>
                         </entry>
                         <entry colname="c6">
                            <p>7.1 (1.6)</p>
                         </entry>
                         <entry colname="c7">
                            <p>.676</p>
                         </entry>
                         <entry colname="c8">
                            <p>.216</p>
                         </entry>
                      </row>
                      <row valign="top">
                         <entry colname="c1">
                            <p>HAM-A score</p>
                         </entry>
                         <entry colname="c2">
                            <p>13.3 (7.6)</p>
                         </entry>
                         <entry colname="c3">
                            <p>10.2 (5.9)</p>
                         </entry>
                         <entry colname="c4">
                            <p>.014</p>
                         </entry>
                         <entry colname="c5">
                            <p>10.5 (5.6)</p>
                         </entry>
                         <entry colname="c6">
                            <p>15.5 (8.1)</p>
                         </entry>
                         <entry colname="c7">
                            <p>.048</p>
                         </entry>
                         <entry colname="c8">
                            <p>.024</p>
                         </entry>
                      </row>
                      <row valign="top">
                         <entry colname="c1">
                            <p>HAM-D score</p>
                         </entry>
                         <entry colname="c2">
                            <p>13.2 (7.9)</p>
                         </entry>
                         <entry colname="c3">
                            <p>8.8 (5.5)</p>
                         </entry>
                         <entry colname="c4">
                            <p>.001</p>
                         </entry>
                         <entry colname="c5">
                            <p>10.1 (5.3)</p>
                         </entry>
                         <entry colname="c6">
                            <p>12.6 (6.5)</p>
                         </entry>
                         <entry colname="c7">
                            <p>.133</p>
                         </entry>
                         <entry colname="c8">
                            <p>.037</p>
                         </entry>
                      </row>
                      <row valign="top">
                         <entry colname="c1">
                            <p>SDS score</p>
                         </entry>
                         <entry colname="c2">
                            <p>8.3 (2.2)</p>
                         </entry>
                         <entry colname="c3">
                            <p>4.3 (2.4)</p>
                         </entry>
                         <entry colname="c4">
                            <p>.000</p>
                         </entry>
                         <entry colname="c5">
                            <p>9.3 (2.0)</p>
                         </entry>
                         <entry colname="c6">
                            <p>9.4 (2.1)</p>
                         </entry>
                         <entry colname="c7">
                            <p>.911</p>
                         </entry>
                         <entry colname="c8">
                            <p>.000</p>
                         </entry>
                      </row>
                      <row valign="top">
                         <entry colname="c1">
                            <p>SCI-SUBS total score</p>
                         </entry>
                         <entry colname="c2">
                            <p>10.9 (7.2)</p>
                         </entry>
                         <entry colname="c3">
                            <p>5.6 (3.3)</p>
                         </entry>
                         <entry colname="c4">
                            <p>.000</p>
                         </entry>
                         <entry colname="c5">
                            <p>14.6 (12.5)</p>
                         </entry>
                         <entry colname="c6">
                            <p>7.9 (7.9)</p>
                         </entry>
                         <entry colname="c7">
                            <p>.008</p>
                         </entry>
                         <entry colname="c8">
                            <p>.191</p>
                         </entry>
                      </row>
                   </tbody>
                </tgroup>
             </table>
          
          <p>Regarding the pain locus of control, the sample population (n&#8201;=&#8201;63) exhibited an unbalanced PLOC profile at baseline with a significant predominance of the Powerful Others subscale over the Internal and Chance subscales. We found subjects&#8217; migraine history to be significantly correlated with PLOC measurements as follows: the longer the history of migraine, the lower the internal control over pain (R&#8201;=&#8201;&#8722;0.326, <it>p</it>&#8201;=&#8201;0.01), the lower the confidence in powerful others (R&#8201;=&#8201;&#8722;0.352, p&#8201;=&#8201;0.01), and the higher the trust in chance (R&#8201;=&#8201;+0.307, <it>p</it>&#8201;=&#8201;0.02). One year following treatment (see Table&#160;<tblr tid="T3">3</tblr>), study completers as a whole (n&#8201;=&#8201;42) did not report increased internal control over pain, were still externally-oriented to powerful others, and showed a less-fatalistic approach to pain control. No significant differences between PLOC sub-scales were observed between Groups 1 and 2 either at baseline or at 1-year follow-up<it>.</it>
          </p>
          
             <table id="T3">
                <title>
                   <p>Table 3</p>
                </title>
                <caption>
                   <p>
                      <b>Changes in pain locus of control for study completers</b>
                   </p>
                </caption>
                <tgroup align="left" cols="5">
                   <colspec align="left" colname="c1" colnum="1" colwidth="*"/>
                   <colspec align="left" colname="c2" colnum="2" colwidth="*"/>
                   <colspec align="left" colname="c3" colnum="3" colwidth="*"/>
                   <colspec align="left" colname="c4" colnum="4" colwidth="*"/>
                   <colspec align="left" colname="c5" colnum="5" colwidth="*"/>
                   <thead>
                      <row valign="top">
                         <entry colname="c1" morerows="1"/>
                         <entry colname="c2" morerows="1">
                            <p>
                               <b>Pre-treatment (N&#8201;=&#8201;42)</b>
                            </p>
                         </entry>
                         <entry colname="c3" morerows="1">
                            <p>
                               <b>Post-treatment (N&#8201;=&#8201;42)</b>
                            </p>
                         </entry>
                         <entry colname="c4">
                            <p>
                               <b>
                                  <it>t</it>
                               </b>
                               <b>-test</b>
                            </p>
                         </entry>
                         <entry colname="c5"/>
                      </row>
                      <row rowsep="1" valign="top">
                         <entry colname="c4">
                            <p>
                               <b>t</b>
                            </p>
                         </entry>
                         <entry colname="c5">
                            <p>
                               <b>
                                  <it>(p)</it>
                               </b>
                            </p>
                         </entry>
                      </row>
                   </thead>
                   <tfoot>
                      <p>Values expressed as Mean (SD).</p>
                   </tfoot>
                   <tbody>
                      <row valign="top">
                         <entry colname="c1">
                            <p>PLOC internal</p>
                         </entry>
                         <entry colname="c2">
                            <p>37.5 (10.7)</p>
                         </entry>
                         <entry colname="c3">
                            <p>39.1 (11.1)</p>
                         </entry>
                         <entry nameend="c5" namest="c4">
                            <p>0.306 (&#8722;1.037)</p>
                         </entry>
                      </row>
                      <row valign="top">
                         <entry colname="c1">
                            <p>PLOC powerful others</p>
                         </entry>
                         <entry colname="c2">
                            <p>48.1 (10.2)</p>
                         </entry>
                         <entry colname="c3">
                            <p>46.7 (9.6)</p>
                         </entry>
                         <entry nameend="c5" namest="c4">
                            <p>0.451 (0.762)</p>
                         </entry>
                      </row>
                      <row valign="top">
                         <entry colname="c1">
                            <p>PLOC chance</p>
                         </entry>
                         <entry colname="c2">
                            <p>35.5 (10.7)</p>
                         </entry>
                         <entry colname="c3">
                            <p>29.2 (6.5)</p>
                         </entry>
                         <entry nameend="c5" namest="c4">
                            <p>0.000 (5.322)</p>
                         </entry>
                      </row>
                   </tbody>
                </tgroup>
             </table>
          
       </sec>
       <sec>
          <st>
             <p>4 Discussion</p>
          </st>
          <p>The recurrence of medication overuse that often accompanies the chronification of migraine is a critical factor in determining long-term functional impairment <abbrgrp>
                <abbr bid="B28">28</abbr>
             </abbrgrp>. In this study, we first aimed to characterize the functional improvements resulting from a detoxification program among a highly-impaired sample of subjects presenting CMwMO and, second, to identify variables which can predict relapse into medication overuse following an effective detoxification treatment. Our sample was characterized by severe migraine features including: high frequency and intensity of migraine episodes, high medication intake, significant anxiety and depression levels, and dysfunctional dependency-like behaviors and pain coping skills.</p>
          <p>The 1-year relapse rate for our sample was approximately in line with other studies <abbrgrp>
                <abbr bid="B10">10</abbr>
             </abbrgrp>-<abbrgrp>
                <abbr bid="B12">12</abbr>
             </abbrgrp>. Notably, within the group of subjects who discontinued medication overuse and presented at 1-year follow-up with episodic migraine, significant improvements generalized from migraine characteristics to untreated domains, including decreased depressive symptoms, headache related disability, and dependency-like behaviors <abbrgrp>
                <abbr bid="B13">13</abbr>
             </abbrgrp>. In contrast, subjects who relapsed into CMwMO did not show clinical or psychological improvements, instead reporting increased anxiety and unmodified perpetuation of severe dependency-like behaviors. Furthermore, none of the baseline measurements predicted relapse into CMwMO.</p>
          <p>We were particularly interested in assessing the PLOC among our sample. In line with previous studies on subjects with chronic pain <abbrgrp>
                <abbr bid="B18">18</abbr>
             </abbrgrp>, we found that, before the detoxification, the longer the history of CMwMO the lower are the perceived control over pain and the confidence in physicians&#8217; pain management treatments. Increases in perceptions of internal pain control and decreases in perceptions of external pain control are both associated with successful completion of detoxification treatment and psychoeducation <abbrgrp>
                <abbr bid="B19">19</abbr>
             </abbrgrp>. Unfortunately, our subjects showed unmodified low perceived control over pain and persisted in attributing it to powerful others and chance, irrespective of relapse into CMwMO. These findings suggest that detoxification and psychoeducation were not able to influence positively pain coping strategies among our sample.</p>
          <p>Several limitations must be considered when interpreting the findings from this study. First, we acknowledge that the sample size at study completion did not allow sufficient power to detect effect sizes. Second, the high attrition rate can also account for the limited validity of these preliminary findings. Based on our prior experience recruiting subjects with CMwMO without any compensation <abbrgrp>
                <abbr bid="B23">23</abbr>
             </abbrgrp>, we approached our study design with a conservative estimate for drop-out rate of 20%. We believe that the severity of functional impairment associated with CMwMO and the intrinsic difficulty of conducting cohort studies without any compensation, people with a severe low-prevalence disorder are elements that strongly influenced attrition and sample size. Although we were inclined to believe that subjects who dropped out of the study had worse clinical and affective profiles, analysis of baseline differences between Groups 1 and 2 yielded no significant results.</p>
          <p>In this retrospective analysis, we were not able to determine clinical and psychological predictors of relapse into CMwMO. Nonetheless, we believe that longer treatment trials in larger samples of patients with CM should be conducted to identify clusters of responders to detoxification protocols and to study biopsychological markers and neuroendophenotypes of recurrent relapses into medication overuse. In particular, emerging evidence supports the hypothesis that functional alterations of the default-mode network are associated with the perpetuation of counterproductive dependency-like behaviors, which are know to impair the clinical course of migraine <abbrgrp>
                <abbr bid="B4">4</abbr>
             </abbrgrp>,<abbrgrp>
                <abbr bid="B7">7</abbr>
             </abbrgrp>.</p>
          <p>Additional factors should be taken into consideration when identifying predictors of relapse within this patient population. First, the superimposition of medication overuse on CM complicates subjects&#8217; clinical status to the extent that it might no longer be possible to segregate independent risk factors. The predictive value of the variables we collected may have been confounded by the reciprocal influences among the determinants of functional impairment. Furthermore, the lack of significant results could be attributed to the great variability among medication protocols targeting the complex residual clinical symptoms and psychiatric comorbidities among subjects with CMwMO. Although this variability complicates statistical pharmacological analyses, we believe that effective interventions for CMwMO must offer an individually-tailored and multi-disciplinary approach that targets the residual clinical symptoms or psychiatric comorbidities and incorporates both symptomatic and prophylactic polytherapies, and psychotherapeutic approaches <abbrgrp>
                <abbr bid="B29">29</abbr>
             </abbrgrp>,<abbrgrp>
                <abbr bid="B30">30</abbr>
             </abbrgrp>.</p>
       </sec>
       <sec>
          <st>
             <p>5 Conclusion</p>
          </st>
          <p>Despite the aforementioned limitations, findings of this exploratory study support the use of detoxification and psychoeducation to improve clinical, affective, and functional outcomes in a subgroup of subjects with CMwMO. However, these interventions appear to be ineffective in another subgroup of subjects, who continue to experience significant headache-related disability, pain intensity, and dependency-like behaviors. We believe that the persistence of maladaptive pain coping strategies and residual symptomatology increase the risk for recurrent relapses, against which pharmacological interventions are only partially effective. Further studies investigating predictors of relapse are needed to inform multi-disciplinary interventions for CMwMO.</p>
       </sec>
       <sec>
          <st>
             <p>Abbreviations</p>
          </st>
          <p>CM: Chronic migraine</p>
          <p>CMwMO: Chronic migraine with medication overuse</p>
          <p>NSAID: Non-steroidal anti-inflammatory drugs</p>
          <p>SCID: Structured Clinical Interview for DSM-IV</p>
          <p>MIDAS: Migraine Disability Assessment Questionnaire</p>
          <p>PLOC: Pain locus of control</p>
          <p>SDS: Severity of dependence scale</p>
          <p>SCI-SUBS: Structured clinical interview for substance use spectrum</p>
       </sec>
       <sec>
          <st>
             <p>Competing interests</p>
          </st>
          <p>This research received no specific grant from any funding agency in the public, commercial, or not-for-profit sectors. No current conflicts of interest for any of the authors.</p>
       </sec>
       <sec>
          <st>
             <p>Authors&#8217; contributions</p>
          </st>
          <p>BB carried out the clinical and neuropsychological assessments, performed the statistical analyses and drafted the manuscript, LG and SU made substantial contributions to the acquisition of clinical data and ran the detoxification protocol, OG conceived the study and reviewed the manuscript critically and supervised the research group. All authors have given final approval of the version to be published.</p>
       </sec>
    </bdy>
    <bm>
       <ack>
          <sec>
             <st>
                <p>Acknowledgments</p>
             </st>
             <p>The contribution of Francesco Cardinale, Epilepsy and Parkinson Surgery Centre &#8220;Claudio Munari&#8221;, Milano, who offered his support in the statistical analysis of the data, is gratefully acknowledged.</p>
          </sec>
       </ack>
       <refgrp>
          
          <bibl id="B1">
             <title>
                <p>Prevalence of medication overuse headache in an interdisciplinary pain clinic</p>
             </title>
             <aug>
                <au>
                   <snm>Schmid</snm>
                   <fnm>CW</fnm>
                </au>
                <au>
                   <snm>Maurer</snm>
                   <fnm>K</fnm>
                </au>
                <au>
                   <snm>Schmid</snm>
                   <fnm>DM</fnm>
                </au>
                <au>
                   <snm>Alon</snm>
                   <fnm>E</fnm>
                </au>
                <au>
                   <snm>Spahn</snm>
                   <fnm>DR</fnm>
                </au>
                <au>
                   <snm>Gantenbein</snm>
                   <fnm>AR</fnm>
                </au>
                <au>
                   <snm>Sandor</snm>
                   <fnm>PS</fnm>
                </au>
             </aug>
             <source>J Headache Pain</source>
             <pubdate>2013</pubdate>
             <volume>14</volume>
             <fpage>4</fpage>
             <xrefbib>
                <pubidlist>
                   <pubid idtype="doi">10.1186/1129-2377-14-4</pubid>
                   <pubid idtype="pmpid" link="fulltext">23565761</pubid>
                </pubidlist>
             </xrefbib>
          </bibl>
          <bibl id="B2">
             <title>
                <p>Transformed migraine and medication overuse in a tertiary headache centre&#8211;clinical characteristics and treatment outcomes</p>
             </title>
             <aug>
                <au>
                   <snm>Bigal</snm>
                   <fnm>ME</fnm>
                </au>
                <au>
                   <snm>Rapoport</snm>
                   <fnm>AM</fnm>
                </au>
                <au>
                   <snm>Sheftell</snm>
                   <fnm>FD</fnm>
                </au>
                <au>
                   <snm>Tepper</snm>
                   <fnm>SJ</fnm>
                </au>
                <au>
                   <snm>Lipton</snm>
                   <fnm>RB</fnm>
                </au>
             </aug>
             <source>Cephalalgia</source>
             <pubdate>2004</pubdate>
             <volume>24</volume>
             <fpage>483</fpage>
             <lpage>490</lpage>
             <xrefbib>
                <pubidlist>
                   <pubid idtype="doi">10.1111/j.1468-2982.2004.00691.x</pubid>
                   <pubid idtype="pmpid" link="fulltext">15154858</pubid>
                </pubidlist>
             </xrefbib>
          </bibl>
          <bibl id="B3">
             <title>
                <p>Clinical features, pathophysiology, and treatment of medication-overuse headache</p>
             </title>
             <aug>
                <au>
                   <snm>Evers</snm>
                   <fnm>S</fnm>
                </au>
                <au>
                   <snm>Marziniak</snm>
                   <fnm>M</fnm>
                </au>
             </aug>
             <source>Lancet Neurol</source>
             <pubdate>2010</pubdate>
             <volume>9</volume>
             <fpage>391</fpage>
             <lpage>401</lpage>
             <xrefbib>
                <pubidlist>
                   <pubid idtype="doi">10.1016/S1474-4422(10)70008-9</pubid>
                   <pubid idtype="pmpid" link="fulltext">20298963</pubid>
                </pubidlist>
             </xrefbib>
          </bibl>
          <bibl id="B4">
             <title>
                <p>What is the role of dependence-related behavior in medication-overuse headache?</p>
             </title>
             <aug>
                <au>
                   <snm>Radat</snm>
                   <fnm>F</fnm>
                </au>
                <au>
                   <snm>Lanteri-Minet</snm>
                   <fnm>M</fnm>
                </au>
             </aug>
             <source>Headache</source>
             <pubdate>2010</pubdate>
             <volume>50</volume>
             <fpage>1597</fpage>
             <lpage>1611</lpage>
             <xrefbib>
                <pubidlist>
                   <pubid idtype="doi">10.1111/j.1526-4610.2010.01755.x</pubid>
                   <pubid idtype="pmpid" link="fulltext">20807250</pubid>
                </pubidlist>
             </xrefbib>
          </bibl>
          <bibl id="B5">
             <title>
                <p>Disability in chronic migraine with medication overuse: treatment effects through 5&#160;years</p>
             </title>
             <aug>
                <au>
                   <snm>Andrasik</snm>
                   <fnm>F</fnm>
                </au>
                <au>
                   <snm>Grazzi</snm>
                   <fnm>L</fnm>
                </au>
                <au>
                   <snm>Usai</snm>
                   <fnm>S</fnm>
                </au>
                <au>
                   <snm>Kass</snm>
                   <fnm>S</fnm>
                </au>
                <au>
                   <snm>Bussone</snm>
                   <fnm>G</fnm>
                </au>
             </aug>
             <source>Cephalalgia</source>
             <pubdate>2010</pubdate>
             <volume>30</volume>
             <fpage>610</fpage>
             <lpage>614</lpage>
             <xrefbib>
                <pubidlist>
                   <pubid idtype="pmpid" link="fulltext">19614686</pubid>
                </pubidlist>
             </xrefbib>
          </bibl>
          <bibl id="B6">
             <title>
                <p>Orbitofrontal dysfunction and medication overuse in patients with migraine</p>
             </title>
             <aug>
                <au>
                   <snm>Biagianti</snm>
                   <fnm>B</fnm>
                </au>
                <au>
                   <snm>Grazzi</snm>
                   <fnm>L</fnm>
                </au>
                <au>
                   <snm>Gambini</snm>
                   <fnm>O</fnm>
                </au>
                <au>
                   <snm>Usai</snm>
                   <fnm>S</fnm>
                </au>
                <au>
                   <snm>Muffatti</snm>
                   <fnm>R</fnm>
                </au>
                <au>
                   <snm>Scarone</snm>
                   <fnm>S</fnm>
                </au>
                <au>
                   <snm>Bussone</snm>
                   <fnm>G</fnm>
                </au>
             </aug>
             <source>Headache</source>
             <pubdate>2012</pubdate>
             <volume>52</volume>
             <fpage>1511</fpage>
             <lpage>1519</lpage>
             <xrefbib>
                <pubidlist>
                   <pubid idtype="doi">10.1111/j.1526-4610.2012.02277.x</pubid>
                   <pubid idtype="pmpid" link="fulltext">23145856</pubid>
                </pubidlist>
             </xrefbib>
          </bibl>
          <bibl id="B7">
             <title>
                <p>Brain functional connectivity and morphology changes in medication-overuse headache: Clue for dependence-related processes?</p>
             </title>
             <aug>
                <au>
                   <snm>Chanraud</snm>
                   <fnm>S</fnm>
                </au>
                <au>
                   <snm>Di Scala</snm>
                   <fnm>G</fnm>
                </au>
                <au>
                   <snm>Dilharreguy</snm>
                   <fnm>B</fnm>
                </au>
                <au>
                   <snm>Schoenen</snm>
                   <fnm>J</fnm>
                </au>
                <au>
                   <snm>Allard</snm>
                   <fnm>M</fnm>
                </au>
                <au>
                   <snm>Radat</snm>
                   <fnm>F</fnm>
                </au>
             </aug>
             <source>Cephalalgia</source>
             <pubdate>2014</pubdate>
             <volume>34</volume>
             <fpage>605</fpage>
             <lpage>615</lpage>
             <xrefbib>
                <pubidlist>
                   <pubid idtype="doi">10.1177/0333102413519514</pubid>
                   <pubid idtype="pmpid" link="fulltext">24449748</pubid>
                </pubidlist>
             </xrefbib>
          </bibl>
          <bibl id="B8">
             <title>
                <p>Orbitofrontal cortex involvement in chronic analgesic-overuse headache evolving from episodic migraine</p>
             </title>
             <aug>
                <au>
                   <snm>Fumal</snm>
                   <fnm>A</fnm>
                </au>
                <au>
                   <snm>Laureys</snm>
                   <fnm>S</fnm>
                </au>
                <au>
                   <snm>Di Clemente</snm>
                   <fnm>L</fnm>
                </au>
                <au>
                   <snm>Boly</snm>
                   <fnm>M</fnm>
                </au>
                <au>
                   <snm>Bohotin</snm>
                   <fnm>V</fnm>
                </au>
                <au>
                   <snm>Vandenheede</snm>
                   <fnm>M</fnm>
                </au>
                <au>
                   <snm>Coppola</snm>
                   <fnm>G</fnm>
                </au>
                <au>
                   <snm>Salmon</snm>
                   <fnm>E</fnm>
                </au>
                <au>
                   <snm>Kupers</snm>
                   <fnm>R</fnm>
                </au>
                <au>
                   <snm>Schoenen</snm>
                   <fnm>J</fnm>
                </au>
             </aug>
             <source>Brain</source>
             <pubdate>2006</pubdate>
             <volume>129</volume>
             <fpage>543</fpage>
             <lpage>550</lpage>
             <xrefbib>
                <pubidlist>
                   <pubid idtype="doi">10.1093/brain/awh691</pubid>
                   <pubid idtype="pmpid" link="fulltext">16330505</pubid>
                </pubidlist>
             </xrefbib>
          </bibl>
          <bibl id="B9">
             <title>
                <p>Comprehensive inpatient treatment of refractory chronic daily headache</p>
             </title>
             <aug>
                <au>
                   <snm>Lake</snm>
                   <fnm>AE</fnm>
                   <suf>3rd</suf>
                </au>
                <au>
                   <snm>Saper</snm>
                   <fnm>JR</fnm>
                </au>
                <au>
                   <snm>Hamel</snm>
                   <fnm>RL</fnm>
                </au>
             </aug>
             <source>Headache</source>
             <pubdate>2009</pubdate>
             <volume>49</volume>
             <fpage>555</fpage>
             <lpage>562</lpage>
             <xrefbib>
                <pubidlist>
                   <pubid idtype="doi">10.1111/j.1526-4610.2009.01364.x</pubid>
                   <pubid idtype="pmpid" link="fulltext">19245391</pubid>
                </pubidlist>
             </xrefbib>
          </bibl>
          <bibl id="B10">
             <title>
                <p>Risk factors in medication-overuse headache: a 1-year follow-up study (care II protocol)</p>
             </title>
             <aug>
                <au>
                   <snm>Sances</snm>
                   <fnm>G</fnm>
                </au>
                <au>
                   <snm>Ghiotto</snm>
                   <fnm>N</fnm>
                </au>
                <au>
                   <snm>Galli</snm>
                   <fnm>F</fnm>
                </au>
                <au>
                   <snm>Guaschino</snm>
                   <fnm>E</fnm>
                </au>
                <au>
                   <snm>Rezzani</snm>
                   <fnm>C</fnm>
                </au>
                <au>
                   <snm>Guidetti</snm>
                   <fnm>V</fnm>
                </au>
                <au>
                   <snm>Nappi</snm>
                   <fnm>G</fnm>
                </au>
             </aug>
             <source>Cephalalgia</source>
             <pubdate>2010</pubdate>
             <volume>30</volume>
             <fpage>329</fpage>
             <lpage>336</lpage>
             <xrefbib>
                <pubidlist>
                   <pubid idtype="pmpid" link="fulltext">19614697</pubid>
                </pubidlist>
             </xrefbib>
          </bibl>
          <bibl id="B11">
             <title>
                <p>Medication overuse headache: predictors and rates of relapse in migraine patients with low medical needs. A 1-year prospective study</p>
             </title>
             <aug>
                <au>
                   <snm>Rossi</snm>
                   <fnm>P</fnm>
                </au>
                <au>
                   <snm>Faroni</snm>
                   <fnm>JV</fnm>
                </au>
                <au>
                   <snm>Nappi</snm>
                   <fnm>G</fnm>
                </au>
             </aug>
             <source>Cephalalgia</source>
             <pubdate>2008</pubdate>
             <volume>28</volume>
             <fpage>1196</fpage>
             <lpage>1200</lpage>
             <xrefbib>
                <pubidlist>
                   <pubid idtype="doi">10.1111/j.1468-2982.2008.01659.x</pubid>
                   <pubid idtype="pmpid" link="fulltext">18727648</pubid>
                </pubidlist>
             </xrefbib>
          </bibl>
          <bibl id="B12">
             <title>
                <p>Medication overuse headache: clinical features predicting treatment outcome at 1-year follow-up</p>
             </title>
             <aug>
                <au>
                   <snm>Zidverc-Trajkovic</snm>
                   <fnm>J</fnm>
                </au>
                <au>
                   <snm>Pekmezovic</snm>
                   <fnm>T</fnm>
                </au>
                <au>
                   <snm>Jovanovic</snm>
                   <fnm>Z</fnm>
                </au>
                <au>
                   <snm>Pavlovic</snm>
                   <fnm>A</fnm>
                </au>
                <au>
                   <snm>Mijajlovic</snm>
                   <fnm>M</fnm>
                </au>
                <au>
                   <snm>Radojicic</snm>
                   <fnm>A</fnm>
                </au>
                <au>
                   <snm>Sternic</snm>
                   <fnm>N</fnm>
                </au>
             </aug>
             <source>Cephalalgia</source>
             <pubdate>2007</pubdate>
             <volume>27</volume>
             <fpage>1219</fpage>
             <lpage>1225</lpage>
             <xrefbib>
                <pubidlist>
                   <pubid idtype="doi">10.1111/j.1468-2982.2007.01432.x</pubid>
                   <pubid idtype="pmpid" link="fulltext">17888081</pubid>
                </pubidlist>
             </xrefbib>
          </bibl>
          <bibl id="B13">
             <title>
                <p>Disability, anxiety and depression associated with medication-overuse headache can be considerably reduced by detoxification and prophylactic treatment. Results from a multicentre, multinational study (COMOESTAS project)</p>
             </title>
             <aug>
                <au>
                   <snm>Bendtsen</snm>
                   <fnm>L</fnm>
                </au>
                <au>
                   <snm>Munksgaard</snm>
                   <fnm>S</fnm>
                </au>
                <au>
                   <snm>Tassorelli</snm>
                   <fnm>C</fnm>
                </au>
                <au>
                   <snm>Nappi</snm>
                   <fnm>G</fnm>
                </au>
                <au>
                   <snm>Katsarava</snm>
                   <fnm>Z</fnm>
                </au>
                <au>
                   <snm>Lainez</snm>
                   <fnm>M</fnm>
                </au>
                <au>
                   <snm>Leston</snm>
                   <fnm>J</fnm>
                </au>
                <au>
                   <snm>Fadic</snm>
                   <fnm>R</fnm>
                </au>
                <au>
                   <snm>Spadafora</snm>
                   <fnm>S</fnm>
                </au>
                <au>
                   <snm>Stoppini</snm>
                   <fnm>A</fnm>
                </au>
                <au>
                   <snm>Jensen</snm>
                   <fnm>R</fnm>
                </au>
                <au>
                   <snm>Consortium</snm>
                   <fnm>COMOESTAS</fnm>
                </au>
             </aug>
             <source>Cephalalgia</source>
             <pubdate>2014</pubdate>
             <volume>34</volume>
             <fpage>426</fpage>
             <lpage>433</lpage>
             <xrefbib>
                <pubidlist>
                   <pubid idtype="doi">10.1177/0333102413515338</pubid>
                   <pubid idtype="pmpid" link="fulltext">24322480</pubid>
                </pubidlist>
             </xrefbib>
          </bibl>
          <bibl id="B14">
             <title>
                <p>A 4-year follow-up of patients with medication-overuse headache previously included in a randomized multicentre study</p>
             </title>
             <aug>
                <au>
                   <snm>Hagen</snm>
                   <fnm>K</fnm>
                </au>
                <au>
                   <snm>Albretsen</snm>
                   <fnm>C</fnm>
                </au>
                <au>
                   <snm>Vilming</snm>
                   <fnm>ST</fnm>
                </au>
                <au>
                   <snm>Salvesen</snm>
                   <fnm>R</fnm>
                </au>
                <au>
                   <snm>Gr&#248;nning</snm>
                   <fnm>M</fnm>
                </au>
                <au>
                   <snm>Helde</snm>
                   <fnm>G</fnm>
                </au>
                <au>
                   <snm>Gravdahl</snm>
                   <fnm>G</fnm>
                </au>
                <au>
                   <snm>Zwart</snm>
                   <fnm>J-A</fnm>
                </au>
                <au>
                   <snm>Stovner</snm>
                   <fnm>LJ</fnm>
                </au>
             </aug>
             <source>J Headache Pain</source>
             <pubdate>2011</pubdate>
             <volume>12</volume>
             <fpage>315</fpage>
             <lpage>322</lpage>
             <xrefbib>
                <pubidlist>
                   <pubid idtype="doi">10.1007/s10194-010-0285-1</pubid>
                   <pubid idtype="pmpid" link="fulltext">21207237</pubid>
                </pubidlist>
             </xrefbib>
          </bibl>
          <bibl id="B15">
             <title>
                <p>Personality traits, depression and migraine in women: a longitudinal study</p>
             </title>
             <aug>
                <au>
                   <snm>Mongini</snm>
                   <fnm>F</fnm>
                </au>
                <au>
                   <snm>Keller</snm>
                   <fnm>R</fnm>
                </au>
                <au>
                   <snm>Deregibus</snm>
                   <fnm>A</fnm>
                </au>
                <au>
                   <snm>Raviola</snm>
                   <fnm>F</fnm>
                </au>
                <au>
                   <snm>Mongini</snm>
                   <fnm>T</fnm>
                </au>
                <au>
                   <snm>Sancarlo</snm>
                   <fnm>M</fnm>
                </au>
             </aug>
             <source>Cephalalgia</source>
             <pubdate>2003</pubdate>
             <volume>23</volume>
             <fpage>186</fpage>
             <lpage>192</lpage>
             <xrefbib>
                <pubidlist>
                   <pubid idtype="doi">10.1046/j.1468-2982.2003.00519.x</pubid>
                   <pubid idtype="pmpid" link="fulltext">12662185</pubid>
                </pubidlist>
             </xrefbib>
          </bibl>
          <bibl id="B16">
             <title>
                <p>Borderline personality disorder and migraine</p>
             </title>
             <aug>
                <au>
                   <snm>Rothrock</snm>
                   <fnm>J</fnm>
                </au>
                <au>
                   <snm>Lopez</snm>
                   <fnm>I</fnm>
                </au>
                <au>
                   <snm>Zweilfer</snm>
                   <fnm>R</fnm>
                </au>
                <au>
                   <snm>Andress-Rothrock</snm>
                   <fnm>D</fnm>
                </au>
                <au>
                   <snm>Drinkard</snm>
                   <fnm>R</fnm>
                </au>
                <au>
                   <snm>Walters</snm>
                   <fnm>N</fnm>
                </au>
             </aug>
             <source>Headache</source>
             <pubdate>2007</pubdate>
             <volume>47</volume>
             <fpage>22</fpage>
             <lpage>26</lpage>
             <xrefbib>
                <pubidlist>
                   <pubid idtype="pmpid" link="fulltext">17355490</pubid>
                </pubidlist>
             </xrefbib>
          </bibl>
          <bibl id="B17">
             <title>
                <p>Dependence scores predict prognosis of medication overuse headache: a prospective cohort from the Akershus study of chronic headache</p>
             </title>
             <aug>
                <au>
                   <snm>Lundqvist</snm>
                   <fnm>C</fnm>
                </au>
                <au>
                   <snm>Grande</snm>
                   <fnm>RB</fnm>
                </au>
                <au>
                   <snm>Aaseth</snm>
                   <fnm>K</fnm>
                </au>
                <au>
                   <snm>Russell</snm>
                   <fnm>MB</fnm>
                </au>
             </aug>
             <source>Pain</source>
             <pubdate>2012</pubdate>
             <volume>153</volume>
             <fpage>682</fpage>
             <lpage>686</lpage>
             <xrefbib>
                <pubidlist>
                   <pubid idtype="doi">10.1016/j.pain.2011.12.008</pubid>
                   <pubid idtype="pmpid" link="fulltext">22281099</pubid>
                </pubidlist>
             </xrefbib>
          </bibl>
          <bibl id="B18">
             <title>
                <p>Pain locus of control scores in chronic pain patients and medical clinic patients with and without pain</p>
             </title>
             <aug>
                <au>
                   <snm>Toomey</snm>
                   <fnm>TC</fnm>
                </au>
                <au>
                   <snm>Mann</snm>
                   <fnm>JD</fnm>
                </au>
                <au>
                   <snm>Abashian</snm>
                   <fnm>SW</fnm>
                </au>
                <au>
                   <snm>Carnrike</snm>
                   <fnm>CL</fnm>
                   <suf>Jr</suf>
                </au>
                <au>
                   <snm>Hernandez</snm>
                   <fnm>JT</fnm>
                </au>
             </aug>
             <source>Clin J Pain</source>
             <pubdate>1993</pubdate>
             <volume>9</volume>
             <fpage>242</fpage>
             <lpage>247</lpage>
             <xrefbib>
                <pubidlist>
                   <pubid idtype="doi">10.1097/00002508-199312000-00004</pubid>
                   <pubid idtype="pmpid" link="fulltext">8118087</pubid>
                </pubidlist>
             </xrefbib>
          </bibl>
          <bibl id="B19">
             <title>
                <p>Multidisciplinary treatment of chronic pain patients: its efficacy in changing patient locus of control</p>
             </title>
             <aug>
                <au>
                   <snm>Coughlin</snm>
                   <fnm>AM</fnm>
                </au>
                <au>
                   <snm>Badura</snm>
                   <fnm>AS</fnm>
                </au>
                <au>
                   <snm>Fleischer</snm>
                   <fnm>TD</fnm>
                </au>
                <au>
                   <snm>Guck</snm>
                   <fnm>TP</fnm>
                </au>
             </aug>
             <source>Arch Phys Med Rehabil</source>
             <pubdate>2000</pubdate>
             <volume>81</volume>
             <fpage>739</fpage>
             <lpage>740</lpage>
             <xrefbib>
                <pubidlist>
                   <pubid idtype="doi">10.1016/S0003-9993(00)90103-5</pubid>
                   <pubid idtype="pmpid" link="fulltext">10857516</pubid>
                </pubidlist>
             </xrefbib>
          </bibl>
          <bibl id="B20">
             <title>
                <p>Medication use in patients with migraine and medication-overuse headache: the role of problem-solving and attitudes about pain medication</p>
             </title>
             <aug>
                <au>
                   <snm>Lauwerier</snm>
                   <fnm>E</fnm>
                </au>
                <au>
                   <snm>Paemeleire</snm>
                   <fnm>K</fnm>
                </au>
                <au>
                   <snm>Van Damme</snm>
                   <fnm>S</fnm>
                </au>
                <au>
                   <snm>Goubert</snm>
                   <fnm>L</fnm>
                </au>
                <au>
                   <snm>Crombez</snm>
                   <fnm>G</fnm>
                </au>
             </aug>
             <source>Pain</source>
             <pubdate>2011</pubdate>
             <volume>152</volume>
             <fpage>1334</fpage>
             <lpage>1339</lpage>
             <xrefbib>
                <pubidlist>
                   <pubid idtype="doi">10.1016/j.pain.2011.02.014</pubid>
                   <pubid idtype="pmpid" link="fulltext">21396772</pubid>
                </pubidlist>
             </xrefbib>
          </bibl>
          <bibl id="B21">
             <title>
                <p>Psychiatric screening for migraine patients</p>
             </title>
             <aug>
                <au>
                   <snm>Gambini</snm>
                   <fnm>O</fnm>
                </au>
                <au>
                   <snm>Biagianti</snm>
                   <fnm>B</fnm>
                </au>
                <au>
                   <snm>Grazzi</snm>
                   <fnm>L</fnm>
                </au>
                <au>
                   <snm>Usai</snm>
                   <fnm>S</fnm>
                </au>
                <au>
                   <snm>Scarone</snm>
                   <fnm>S</fnm>
                </au>
                <au>
                   <snm>Bussone</snm>
                   <fnm>G</fnm>
                </au>
             </aug>
             <source>Neurol Sci</source>
             <pubdate>2013</pubdate>
             <volume>34</volume>
             <issue>Suppl 1</issue>
             <fpage>S61</fpage>
             <lpage>S66</lpage>
             <xrefbib>
                <pubidlist>
                   <pubid idtype="doi">10.1007/s10072-013-1359-z</pubid>
                   <pubid idtype="pmpid" link="fulltext">23695048</pubid>
                </pubidlist>
             </xrefbib>
          </bibl>
          <bibl id="B22">
             <title>
                <p>The International Classification of Headache Disorders, 2nd Edition (ICHD-II)&#8211;revision of criteria for 8.2 Medication-overuse headache</p>
             </title>
             <aug>
                <au>
                   <snm>Silberstein</snm>
                   <fnm>SD</fnm>
                </au>
                <au>
                   <snm>Olesen</snm>
                   <fnm>J</fnm>
                </au>
                <au>
                   <snm>Bousser</snm>
                   <fnm>M-G</fnm>
                </au>
                <au>
                   <snm>Diener</snm>
                   <fnm>H-C</fnm>
                </au>
                <au>
                   <snm>Dodick</snm>
                   <fnm>D</fnm>
                </au>
                <au>
                   <snm>First</snm>
                   <fnm>M</fnm>
                </au>
                <au>
                   <snm>Goadsby</snm>
                   <fnm>PJ</fnm>
                </au>
                <au>
                   <snm>G&#246;bel</snm>
                   <fnm>H</fnm>
                </au>
                <au>
                   <snm>Lainez</snm>
                   <fnm>MJA</fnm>
                </au>
                <au>
                   <snm>Lance</snm>
                   <fnm>JW</fnm>
                </au>
                <au>
                   <snm>Lipton</snm>
                   <fnm>RB</fnm>
                </au>
                <au>
                   <snm>Nappi</snm>
                   <fnm>G</fnm>
                </au>
                <au>
                   <snm>Sakai</snm>
                   <fnm>F</fnm>
                </au>
                <au>
                   <snm>Schoenen</snm>
                   <fnm>J</fnm>
                </au>
                <au>
                   <snm>Steiner</snm>
                   <fnm>TJ</fnm>
                </au>
             </aug>
             <source>Cephalalgia</source>
             <pubdate>2005</pubdate>
             <volume>25</volume>
             <fpage>460</fpage>
             <lpage>465</lpage>
             <xrefbib>
                <pubidlist>
                   <pubid idtype="doi">10.1111/j.1468-2982.2005.00878.x</pubid>
                   <pubid idtype="pmpid" link="fulltext">15910572</pubid>
                </pubidlist>
             </xrefbib>
          </bibl>
          <bibl id="B23">
             <title>
                <p>In-patient vs. day-hospital withdrawal treatment for chronic migraine with medication overuse and disability assessment: results at one-year follow-up</p>
             </title>
             <aug>
                <au>
                   <snm>Grazzi</snm>
                   <fnm>L</fnm>
                </au>
                <au>
                   <snm>Andrasik</snm>
                   <fnm>F</fnm>
                </au>
                <au>
                   <snm>Usai</snm>
                   <fnm>S</fnm>
                </au>
                <au>
                   <snm>Bussone</snm>
                   <fnm>G</fnm>
                </au>
             </aug>
             <source>Neurol Sci</source>
             <pubdate>2008</pubdate>
             <volume>29</volume>
             <issue>Suppl 1</issue>
             <fpage>S161</fpage>
             <lpage>S163</lpage>
             <xrefbib>
                <pubidlist>
                   <pubid idtype="doi">10.1007/s10072-008-0913-6</pubid>
                   <pubid idtype="pmpid" link="fulltext">18545923</pubid>
                </pubidlist>
             </xrefbib>
          </bibl>
          <bibl id="B24">
             <title>
                <p>Development and testing of the Migraine Disability Assessment (MIDAS) Questionnaire to assess headache-related disability</p>
             </title>
             <aug>
                <au>
                   <snm>Stewart</snm>
                   <fnm>WF</fnm>
                </au>
                <au>
                   <snm>Lipton</snm>
                   <fnm>RB</fnm>
                </au>
                <au>
                   <snm>Dowson</snm>
                   <fnm>AJ</fnm>
                </au>
                <au>
                   <snm>Sawyer</snm>
                   <fnm>J</fnm>
                </au>
             </aug>
             <source>Neurology</source>
             <pubdate>2001</pubdate>
             <volume>56</volume>
             <fpage>S20</fpage>
             <lpage>S28</lpage>
             <xrefbib>
                <pubidlist>
                   <pubid idtype="doi">10.1212/WNL.56.suppl_1.S20</pubid>
                   <pubid idtype="pmpid" link="fulltext">11294956</pubid>
                </pubidlist>
             </xrefbib>
          </bibl>
          <bibl id="B25">
             <title>
                <p>Development of a rating scale for primary depressive illness</p>
             </title>
             <aug>
                <au>
                   <snm>Hamilton</snm>
                   <fnm>M</fnm>
                </au>
             </aug>
             <source>Br J Soc Clin Psychol</source>
             <pubdate>1967</pubdate>
             <volume>6</volume>
             <fpage>278</fpage>
             <lpage>296</lpage>
             <xrefbib>
                <pubidlist>
                   <pubid idtype="doi">10.1111/j.2044-8260.1967.tb00530.x</pubid>
                   <pubid idtype="pmpid" link="fulltext">6080235</pubid>
                </pubidlist>
             </xrefbib>
          </bibl>
          <bibl id="B26">
             <title>
                <p>The assessment of anxiety states by rating</p>
             </title>
             <aug>
                <au>
                   <snm>Hamilton</snm>
                   <fnm>MM</fnm>
                </au>
             </aug>
             <source>Br J Med Psychol</source>
             <pubdate>1959</pubdate>
             <volume>32</volume>
             <fpage>50</fpage>
             <lpage>55</lpage>
             <xrefbib>
                <pubidlist>
                   <pubid idtype="doi">10.1111/j.2044-8341.1959.tb00467.x</pubid>
                   <pubid idtype="pmpid" link="fulltext">13638508</pubid>
                </pubidlist>
             </xrefbib>
          </bibl>
          <bibl id="B27">
             <title>
                <p>Acceptability, validity and reliability of the Structured Clinical Interview for the Spectrum of Substance Use (SCI-SUBS): a pilot study</p>
             </title>
             <aug>
                <au>
                   <snm>Sbrana</snm>
                   <fnm>A</fnm>
                </au>
                <au>
                   <snm>Dell&#8217;Osso</snm>
                   <fnm>L</fnm>
                </au>
                <au>
                   <snm>Gonnelli</snm>
                   <fnm>C</fnm>
                </au>
                <au>
                   <snm>Impagnatiello</snm>
                   <fnm>P</fnm>
                </au>
                <au>
                   <snm>Doria</snm>
                   <fnm>MR</fnm>
                </au>
                <au>
                   <snm>Spagnolli</snm>
                   <fnm>S</fnm>
                </au>
                <au>
                   <snm>Ravani</snm>
                   <fnm>L</fnm>
                </au>
                <au>
                   <snm>Cassano</snm>
                   <fnm>GB</fnm>
                </au>
                <au>
                   <snm>Frank</snm>
                   <fnm>E</fnm>
                </au>
                <au>
                   <snm>Shear</snm>
                   <fnm>MK</fnm>
                </au>
                <au>
                   <snm>Grochocinski</snm>
                   <fnm>VJ</fnm>
                </au>
                <au>
                   <snm>Rucci</snm>
                   <fnm>P</fnm>
                </au>
                <au>
                   <snm>Maser</snm>
                   <fnm>JD</fnm>
                </au>
                <au>
                   <snm>Endicott</snm>
                   <fnm>J</fnm>
                </au>
             </aug>
             <source>Int J Methods Psychiatr Res</source>
             <pubdate>2003</pubdate>
             <volume>12</volume>
             <fpage>105</fpage>
             <lpage>115</lpage>
             <xrefbib>
                <pubidlist>
                   <pubid idtype="doi">10.1002/mpr.147</pubid>
                   <pubid idtype="pmpid" link="fulltext">12830304</pubid>
                </pubidlist>
             </xrefbib>
          </bibl>
          <bibl id="B28">
             <title>
                <p>Chronic daily headache with medication overuse: predictors of outcome 1&#160;year after withdrawal therapy</p>
             </title>
             <aug>
                <au>
                   <snm>B&#248;e</snm>
                   <fnm>MG</fnm>
                </au>
                <au>
                   <snm>Salvesen</snm>
                   <fnm>R</fnm>
                </au>
                <au>
                   <snm>Mygland</snm>
                   <fnm>A</fnm>
                </au>
             </aug>
             <source>Eur J Neurol</source>
             <pubdate>2009</pubdate>
             <volume>16</volume>
             <fpage>705</fpage>
             <lpage>712</lpage>
             <xrefbib>
                <pubidlist>
                   <pubid idtype="doi">10.1111/j.1468-1331.2009.02571.x</pubid>
                   <pubid idtype="pmpid" link="fulltext">19236455</pubid>
                </pubidlist>
             </xrefbib>
          </bibl>
          <bibl id="B29">
             <title>
                <p>Nonpharmacologic treatments for migraine and tension-type headache: how to choose and when to use</p>
             </title>
             <aug>
                <au>
                   <snm>Nicholson</snm>
                   <fnm>RA</fnm>
                </au>
                <au>
                   <snm>Buse</snm>
                   <fnm>DC</fnm>
                </au>
                <au>
                   <snm>Andrasik</snm>
                   <fnm>F</fnm>
                </au>
                <au>
                   <snm>Lipton</snm>
                   <fnm>RB</fnm>
                </au>
             </aug>
             <source>Curr Treat Options Neurol</source>
             <pubdate>2011</pubdate>
             <volume>13</volume>
             <fpage>28</fpage>
             <lpage>40</lpage>
             <xrefbib>
                <pubidlist>
                   <pubid idtype="doi">10.1007/s11940-010-0102-9</pubid>
                   <pubid idtype="pmpid" link="fulltext">21080124</pubid>
                </pubidlist>
             </xrefbib>
          </bibl>
          <bibl id="B30">
             <title>
                <p>Headache chronification: screening and behavioral management of comorbid depressive and anxiety disorders</p>
             </title>
             <aug>
                <au>
                   <snm>Smitherman</snm>
                   <fnm>TA</fnm>
                </au>
                <au>
                   <snm>Maizels</snm>
                   <fnm>M</fnm>
                </au>
                <au>
                   <snm>Penzien</snm>
                   <fnm>DB</fnm>
                </au>
             </aug>
             <source>Headache</source>
             <pubdate>2008</pubdate>
             <volume>48</volume>
             <fpage>45</fpage>
             <lpage>50</lpage>
             <xrefbib>
                <pubidlist>
                   <pubid idtype="doi">10.1111/j.1526-4610.2007.00974.x</pubid>
                   <pubid idtype="pmpid" link="fulltext">18184285</pubid>
                </pubidlist>
             </xrefbib>
          </bibl>
       </refgrp>
    </bm>
 </art>