<art>
    <ui>s12866-014-0273-8</ui>
    <ji>1471-2180</ji>
    <fm>
       <dochead>Research article</dochead>
       <bibl>
          <title>
             <p>Cecropin P1 inhibits porcine reproductive and respiratory syndrome virus by blocking attachment</p>
          </title>
          <aug>
             <au id="A1">
                <snm>Guo</snm>
                <fnm>Chunhe</fnm>
                <insr iid="I1"/>
                <email>419839537@qq.com</email>
             </au>
             <au id="A2">
                <snm>Huang</snm>
                <fnm>Yumao</fnm>
                <insr iid="I2"/>
                <email>ymaohuang@scau.edu.cn</email>
             </au>
             <au id="A3">
                <snm>Cong</snm>
                <fnm>Peiqing</fnm>
                <insr iid="I1"/>
                <email>jiezi516@qq.com</email>
             </au>
             <au id="A4">
                <snm>Liu</snm>
                <fnm>Xiaohong</fnm>
                <insr iid="I1"/>
                <email>liuxh8@mail.sysu.edu.cn</email>
             </au>
             <au id="A5">
                <snm>Chen</snm>
                <fnm>Yaosheng</fnm>
                <insr iid="I1"/>
                <email>chyaosh@mail.sysu.edu.cn</email>
             </au>
             <au id="A6" ca="yes">
                <snm>He</snm>
                <fnm>Zuyong</fnm>
                <insr iid="I1"/>
                <email>zuyonghe@gmail.com</email>
             </au>
          </aug>
          <insg>
             <ins id="I1">
                <p>State Key Laboratory of Biocontrol, School of Life Sciences, Sun Yat-sen University, North Third road, Guangzhou Higher Education Mega Center, Guangzhou 510006, Guangdong, PR China</p>
             </ins>
             <ins id="I2">
                <p>College of Veterinary Medicine, South China Agricultural University, Guangzhou 510642, Guangdong, PR China</p>
             </ins>
          </insg>
          <source>BMC Microbiology</source>
          <section>
             <title>
                <p>Clinical Microbiology and Vaccines</p>
             </title>
          </section>
          <issn>1471-2180</issn>
          <pubdate>2014</pubdate>
          <volume>14</volume>
          <issue>1</issue>
          <fpage>273</fpage>
          <url>http://www.biomedcentral.com/1471-2180/14/273</url>
          <xrefbib>
             <pubidlist>
                <pubid idtype="doi">10.1186/s12866-014-0273-8</pubid>
             </pubidlist>
          </xrefbib>
       </bibl>
       <history>
          <rec>
             <date>
                <day>12</day>
                <month>6</month>
                <year>2014</year>
             </date>
          </rec>
          <acc>
             <date>
                <day>23</day>
                <month>10</month>
                <year>2014</year>
             </date>
          </acc>
          <pub>
             <date>
                <day>18</day>
                <month>11</month>
                <year>2014</year>
             </date>
          </pub>
       </history>
       <cpyrt>
          <year>2014</year>
          <collab>Guo et al.; licensee BioMed Central Ltd.</collab>
          <note>This is an Open Access article distributed under the terms of the Creative Commons Attribution License (<url>http://creativecommons.org/licenses/by/4.0</url>), which permits unrestricted use, distribution, and reproduction in any medium, provided the original work is properly credited. The Creative Commons Public Domain Dedication waiver (<url>http://creativecommons.org/publicdomain/zero/1.0/</url>) applies to the data made available in this article, unless otherwise stated.</note>
       </cpyrt>
       <kwdg>
          <kwd>Cecropin P1</kwd>
          <kwd>PRRSV</kwd>
          <kwd>Antiviral activity</kwd>
          <kwd>Antimicrobial peptide</kwd>
       </kwdg>
       <abs>
          <sec>
             <st>
                <p>Abstract</p>
             </st>
             <sec>
                <st>
                   <p>Background</p>
                </st>
                <p>Porcine reproductive and respiratory syndrome virus (PRRSV) is a continuous threat to the pig industry, causing high economic losses worldwide. Current vaccines have specific limitations in terms of their safety and efficacy, so the development of novel antiviral drugs is urgently required. The aim of this study was to evaluate the inhibitory effects and underlying molecular mechanisms of the antimicrobial peptide cecropin P1 (CP1) against PRRSV infection <it>in vitro</it>.</p>
             </sec>
             <sec>
                <st>
                   <p>Results</p>
                </st>
                <p>CP1 not only displayed extracellular virucidal activity against PRRSV, but also exerted a potent inhibitory effect when added either before, simultaneously with, or after viral inoculation. The inhibitory effect of CP1 occurred during viral attachment, but not at viral entry into Marc-145 cells. CP1 also inhibited viral particle release and attenuated virus-induced apoptosis during the late phase of infection. CP1 exerted similar inhibitory effects against PRRSV infection in porcine alveolar macrophages, the cells targeted by the virus <it>in vivo</it> during its infection of pigs. The expression of interleukin 6 was elevated by CP1 in porcine alveolar macrophages, which might contribute to its inhibition of PRRSV infection.</p>
             </sec>
             <sec>
                <st>
                   <p>Conclusions</p>
                </st>
                <p>Collectively, our findings provide a new direction for the development of potential therapeutic drugs against PRRSV infection.</p>
             </sec>
          </sec>
       </abs>
    </fm>
    <bdy>
       <sec>
          <st>
             <p>Background</p>
          </st>
          <p>Porcine reproductive and respiratory syndrome (PRRS) is one of the most economically important viral diseases in sows, causing enormous production losses in the pig industry worldwide <abbrgrp>
                <abbr bid="B1">1</abbr>
             </abbrgrp>. It was first reported at the end of the 1980s in North America and Canada, and is commonly known as blue-eared pig disease <abbrgrp>
                <abbr bid="B2">2</abbr>
             </abbrgrp>,<abbrgrp>
                <abbr bid="B3">3</abbr>
             </abbrgrp>. The disease is characterized by abortion and poor reproductive performance in pregnant sows and by respiratory distress in growing pigs and piglets <abbrgrp>
                <abbr bid="B4">4</abbr>
             </abbrgrp>. PRRS virus (PRRSV), the etiological agent of the disease, is an enveloped, single-stranded positive-sense RNA virus that clusters in the order <it>Nidovirales</it> and the family <it>Arteriviridae</it>, together with equine arteritis virus, lactate dehydrogenase-elevating virus, and simian hemorrhagic fever virus. The 15-kb genome of PRRSV contains a 5&#8242;-untranslated region (UTR), nine open reading frames (ORFs 1a, 1b, 2a, 2b, and 3&#8211;7) and a 3&#8242;-UTR <abbrgrp>
                <abbr bid="B5">5</abbr>
             </abbrgrp>. The PRRSV virion consists of a nucleocapsid surrounded by a lipid envelope. Pigs persistently infected with PRRSV develop viremia and reduced cell-mediated immunity <abbrgrp>
                <abbr bid="B6">6</abbr>
             </abbrgrp>. Important features of PRRSV are its extreme genetic, antigenic, and immunobiological variability. Consequently, PRRSV remains the greatest challenge for the swine industry, and there is a strong demand for the development of new antiviral strategies against PRRSV infection <abbrgrp>
                <abbr bid="B7">7</abbr>
             </abbrgrp>.</p>
          <p>Antimicrobial peptides are cationic and amphipathic molecules distributed widely among organisms of both the plant and animal kingdoms that display broad-spectrum antimicrobial activities against bacteria, fungi, and viruses, thus acting as innate antibiotics <abbrgrp>
                <abbr bid="B8">8</abbr>
             </abbrgrp>,<abbrgrp>
                <abbr bid="B9">9</abbr>
             </abbrgrp>. Cecropin P1 (CP1), originally isolated from porcine intestine, is a low-molecular-weight peptide with antiviral activity against infectious hematopoietic necrosis virus, viral hemorrhagic septicemia virus, snakehead rhabdovirus, and infectious pancreatic necrosis virus <it>in vitro</it> 
             <abbrgrp>
                <abbr bid="B10">10</abbr>
             </abbrgrp>,<abbrgrp>
                <abbr bid="B11">11</abbr>
             </abbrgrp>. In this study, we investigated whether CP1 inhibits PRRSV replication <it>in vitro</it>. Our findings show that CP1 exerted potent antiviral activity against PRRSV infection in both Marc-145 cells and porcine alveolar macrophages (PAMs). The mechanisms of CP1 were also characterized.</p>
       </sec>
       <sec>
          <st>
             <p>Results</p>
          </st>
          <sec>
             <st>
                <p>CP1 markedly inhibits CH-1a infection and replication</p>
             </st>
             <p>CP1 was initially expressed and purified in <it>Pichia pastoris</it> (Figure&#160;<figr fid="F1">1</figr>A). Subsequently, to evaluate the <it>in vitro</it> antiviral activity of CP1 against CH-1a infection, immunofluorescence assay (IFA), cytopathic effect (CPE), and the 50% tissue culture infectious dose (TCID<sub>50</sub>) assays were performed. As shown in Figure&#160;<figr fid="F1">1</figr>B, CP1 significantly inhibited viral infection in a dose-dependent manner at 36&#160;h postinfection (hpi). The number of infectious viral particles was markedly reduced by CP1. Consistent with this, CP1 (480&#160;&#956;g/ml) notably abrogated the CH-1a-induced CPE at 48, 72, or 96 hpi in Marc-145 cells infected with CH-1a at a multiplicity of infection (MOI) of 0.01 compared with the yeast extract peptone dextrose (YPD) control (Figure&#160;<figr fid="F1">1</figr>C). Furthermore, the production of viral progeny was significantly reduced at 36 hpi by CP1, in a dose-dependent manner (Figure&#160;<figr fid="F1">1</figr>D). CP1 inhibited CH-1a infection in Marc-145 cells with a 50% effective concentration (EC<sub>50</sub>) of 112&#160;&#956;g/ml. To rule out the possibility that YPD affects CH-1a replication, cells treated with phosphate-buffered saline (PBS) were used as another control. The results showed that YPD had no effect on viral replication (Figure&#160;<figr fid="F1">1</figr>D). To determine whether the concentration-dependent cytotoxicity of CP1 affected CH-1a infection and replication, a cytotoxicity assay was performed in the presence of different concentrations of CP1 or YPD (control) using alamarBlue&#174;. As shown in Figure&#160;<figr fid="F1">1</figr>E, no significant cytotoxicity was observed up to 480&#160;&#956;g/ml CP1. Therefore, we performed all subsequent experiments with CP1 at a concentration no higher than 480&#160;&#956;g/ml in Marc-145 cells. The 50% cytotoxic concentration (CC<sub>50</sub>) of CP1 for Marc-145 cells was estimated to be 719&#160;&#956;g/ml.
                  </p>
             
                <fig id="F1">
                   <title>
                      <p>Figure 1</p>
                   </title>
                   <caption>
                      <p>CP1 strongly inhibits CH-1a infection and replication in Marc-145 cells. (A) </p>
                   </caption>
                   <text>
                      <p>
                            <b>CP1 strongly inhibits CH-1a infection and replication in Marc-145 cells. (A)</b> Expression and purification of CP1 in <it>P. pastoris.</it> Lane 1 was the purified CP1 (3300&#160;Da). Lane 2 was control. M was protein molecular weight marker. (<b>B</b> and <b>D</b>) Cells were infected with CH-1a (MOI =0.01) in the presence of different concentrations of CP1, YPD (control), or PBS for 36&#160;h at 37&#176;C. Cells were detected with IFA <b>(B)</b>, and the viral yields were detected in the supernatants <b>(D)</b>. <b>(C)</b> Cells were mock infected or infected with CH-1a (MOI =0.01) in the presence of CP1 (480&#160;&#956;g/ml) or YPD (control). A virus-produced CPE was observed with bright-field microscopy at 48, 72, and 96 hpi. <b>(E)</b> Potential cytotoxicity of CP1 against Marc-145 cells was detected with alamarBlue&#174;. A series of concentrations of CP1 or YPD (control) was applied to 60%&#8211;70% confluent cells for 48&#160;h, and then 10&#160;&#956;l of alamarBlue&#174; was added for another 3&#160;h. The data are the results of three independent experiments (means&#8201;&#177;&#8201;SE). Significant differences compared with the YPD-treated control group are denoted: *<it>P</it> &lt;0.05, **<it>P</it> &lt;0.01, or ***<it>P</it> &lt;0.001.</p>
                   </text>
                   <graphic file="s12866-014-0273-8-1"/>
                </fig>
             
             <p>To verify that viral RNA transcription and protein translation are blocked by CP1 during PRRSV infection, the kinetics of CH-1a replication in Marc-145 cells were investigated at the indicated times after treatment with CP1 (480&#160;&#956;g/ml) or YPD (control). Cells were inoculated with CH-1a at an MOI of 0.1 in the presence of CP1 or YPD (control) for 6, 12, 24, 36, or 48&#160;h. Their total RNAs were analyzed with quantitative real-time reverse-transcription polymerase chain reaction (qRT-PCR) to determine the transcript levels of viral ORF7 after treatment. The cells treated with CP1 (480&#160;&#956;g/ml) showed a significant reduction in viral RNA at 24, 36, and 48 hpi compared with those treated with the YPD control (Figure&#160;<figr fid="F2">2</figr>A). The effects of treatment with CP1 at the viral protein level were analyzed with three different approaches, as described in the Methods. As shown in Figure&#160;<figr fid="F2">2</figr>C&#8211;E, compared with the YPD control, the expression of the viral N protein was depressed significantly reduced by CP1 when administered with either the pre-, co-, or posttreatment method. A virucidal assay was performed to investigate the direct inactivation effect of CP1. As shown in Figure&#160;<figr fid="F2">2</figr>B, CP1 effectively inactivated the CH-1a virions at 36 hpi. Taken together, these data indicate that CP1 exerts a potent extracellular virucidal activity and an inhibitory effect on CH-1a infection <it>in vitro</it>.
                  </p>
             
                <fig id="F2">
                   <title>
                      <p>Figure 2</p>
                   </title>
                   <caption>
                      <p>Viral gene transcription and protein translation were inhibited by CP1 treatment. (A) </p>
                   </caption>
                   <text>
                      <p>
                            <b>Viral gene transcription and protein translation were inhibited by CP1 treatment. (A)</b> Cells were inoculated with CH-1a at an MOI of 0.1 in the presence of CP1 (480&#160;&#956;g/ml) or YPD (control) for 6, 12, 24, 36, or 48&#160;h. Viral RNA transcription was determined with qRT&#8211;PCR at different time points after treatment. The level of PRRSV ORF7 mRNA was normalized to the level of GAPDH mRNA in the same sample. <b>(B)</b> CP1 or YPD (control) was added to CH-1a for 2&#160;h at 37&#176;C, and the mixture was then used to infect cells for 2&#160;h at 37&#176;C. The inoculum was removed and the cells were cultured for another 36&#160;h and then harvested for immunoblotting analysis. (<b>C</b>, <b>D</b>, and <b>E</b>) CP1 treatment was performed either before (pretreatment) <b>(C)</b>, simultaneously with (cotreatment) <b>(D)</b>, or after viral infection (posttreatment) <b>(E)</b> for 36&#160;h. Viral protein levels were determined with immunoblotting. Data are the results of three independent experiments (means&#8201;&#177;&#8201;SE). Significant differences compared with the YPD-treated control group are denoted: *<it>P</it> &lt;0.05, **<it>P</it> &lt;0.01, or ***<it>P</it> &lt;0.001.</p>
                   </text>
                   <graphic file="s12866-014-0273-8-2"/>
                </fig>
             
          </sec>
          <sec>
             <st>
                <p>CP1 blocks CH-1a-induced apoptosis during the late phase of infection</p>
             </st>
             <p>Previous studies have shown that PRRSV stimulates antiapoptotic pathways in Marc-145 cells and PAMs early in infection, and that PRRSV-infected cells die from apoptosis late in infection <abbrgrp>
                   <abbr bid="B12">12</abbr>
                </abbrgrp>. To examine whether CP1 attenuates virus-induced apoptosis during the late phase of infection, an annexin V fluorescein isothiocyanate (FITC)/propidium iodide (PI) assay was performed. CP1 notably reduced the number of apoptotic cells compared with cells treated with the YPD control (Figure&#160;<figr fid="F3">3</figr>A and <figr fid="F3">3</figr>B). The inhibitory effects of CP1 on apoptosis were confirmed by the levels of caspase 3 transcripts in the virus-infected cells treated with CP1 for 72&#160;h (Figure&#160;<figr fid="F3">3</figr>C). Together, these results indicate that CP1 blocks CH-1a-virus-induced apoptosis during the late phase of infection, which might contribute to the inhibition of PRRSV infection.
                  </p>
             
                <fig id="F3">
                   <title>
                      <p>Figure 3</p>
                   </title>
                   <caption>
                      <p>Effect of CP1 on CH-1a-induced apoptosis during the late phase of infection. </p>
                   </caption>
                   <text>
                      <p>
                            <b>Effect of CP1 on CH-1a-induced apoptosis during the late phase of infection.</b> (<b>A</b> and <b>B</b>) Marc-145 cells were treated with or without CH-1a (MOI =0.01) in the presence of CP1 (480&#160;&#956;g/ml) or YPD (control) for 24, 48, or 72&#160;h, and then stained with FITC&#8211;annexin V (green) and PI (red) for 15&#160;min in the dark for the IFA analysis <b>(A)</b>. The number of cells calculated from IFA stained with annexin V and PI per foci were counted at the indicated times <b>(B)</b>. <b>(C)</b> The inhibitory effects of CP1 on apoptosis were confirmed with the transcript levels of caspase-3 in virus-infected cells treated with CP1 for 72&#160;h. Data are the results of three independent experiments (means&#8201;&#177;&#8201;SE). Significant differences compared with the YPD-treated control group are denoted: *<it>P</it> &lt;0.05, **<it>P</it> &lt;0.01, or ***<it>P</it> &lt;0.001.</p>
                   </text>
                   <graphic file="s12866-014-0273-8-3"/>
                </fig>
             
          </sec>
          <sec>
             <st>
                <p>CP1 inhibits viral particle release</p>
             </st>
             <p>To investigate whether CP1 reduces viral particle release, an assay described previously <abbrgrp>
                   <abbr bid="B13">13</abbr>
                </abbrgrp> was performed to quantify the viral particles in both the cells and the supernatant. Marc-145 cells were treated as described in the Methods. At each time point, the numbers of intracellular particles in cells treated with different concentrations of CP1 were similar to those in cells treated with YPD (control) (Figure&#160;<figr fid="F4">4</figr>A). In contrast, significantly fewer infectious viral particles were released into the supernatant by cells treated with CP1 (480&#160;&#956;g/ml) for 4&#160;h than by YPD-treated cells (Figure&#160;<figr fid="F4">4</figr>B). The viral titers in the supernatants showed a similar pattern after treatment with CP1 (480&#160;&#956;g/ml) for 4&#160;h (Figure&#160;<figr fid="F4">4</figr>C). Taken together, these data indicate that CP1 (480&#160;&#956;g/ml) inhibits CH-1a particle release.
                  </p>
             
                <fig id="F4">
                   <title>
                      <p>Figure 4</p>
                   </title>
                   <caption>
                      <p>CP1 blocks CH-1a viral particle release. </p>
                   </caption>
                   <text>
                      <p>
                            <b>CP1 blocks CH-1a viral particle release.</b> (<b>A</b> and <b>B</b>) Cells were infected with CH-1a at an MOI of 0.01 at 37&#176;C for 24&#160;h, and then treated with different concentrations of CP1 or YPD (control) for 2 or 4&#160;h. The cells and supernatants were harvested to quantify the intracellular <b>(A)</b> and extracellular <b>(B)</b> viral particles. <b>(C)</b> Viral titers in the supernatants were measured after CP1 (480&#160;&#956;g/ml) treatment for 2 or 4&#160;h. Data are the results of three independent experiments (means&#8201;&#177;&#8201;SE). Significant differences compared with the YPD-treated control group are denoted: *<it>P</it> &lt;0.05, **<it>P</it> &lt;0.01, or ***<it>P</it> &lt;0.001.</p>
                   </text>
                   <graphic file="s12866-014-0273-8-4"/>
                </fig>
             
          </sec>
          <sec>
             <st>
                <p>CP1 blocks viral attachment during the CH-1a life cycle in Marc-145 cells</p>
             </st>
             <p>To characterize the molecular mechanism underlying the antiviral activity of CP1 against CH-1a and to identify the stage of the viral life cycle interrupted by CP1, a viral attachment assay was performed to test whether CP1 blocks CH-1a attachment to Marc-145 cells. CP1 significantly reduced the transcript levels of viral ORF7 in CP1-treated cells during the period of viral attachment (Figure&#160;<figr fid="F5">5</figr>A). Consistent with these findings, the N protein levels of CH-1a were blocked by 480&#160;&#956;g/ml CP1 (Figure&#160;<figr fid="F5">5</figr>B). These data suggest that CP1 markedly reduces the number of infectious viral particles that attach to the cell membrane.
                  </p>
             
                <fig id="F5">
                   <title>
                      <p>Figure 5</p>
                   </title>
                   <caption>
                      <p>CP1 blocks viral attachment but not viral entry into Marc-145 cells. </p>
                   </caption>
                   <text>
                      <p>
                            <b>CP1 blocks viral attachment but not viral entry into Marc-145 cells.</b> (<b>A</b> and <b>B</b>) In an attachment assay, cells were cooled at 4&#176;C for 30&#160;min, and then challenged with CH-1a (MOI =0.01) in the presence of various concentrations of CP1 or YPD (control) for 3&#160;h at 4&#176;C. Viral RNA transcription <b>(A)</b> and protein levels <b>(B)</b> were analyzed. (<b>C</b>, <b>D</b>, <b>E</b>, and <b>F</b>) In an entry assay, the kinetics of the antiviral activity of CP1 against CH-1a were evaluated with time-of-addition assays. Cells were challenged with CH-1a (MOI =0.01) for 3&#160;h at 4&#176;C and then incubated at 37&#176;C in the presence of CP1 or YPD (control) for 6&#160;h. CP1 was added at 0, 2, or 4&#160;h (the time point at which the cells were switched to 37&#176;C was set to 0&#160;h). The cells were then rinsed and incubated for another 24&#160;h at 37&#176;C. The inhibitory effects were determined when CP1 was added at 0 (<b>C</b> and <b>D</b>), 2 <b>(E)</b>, of 4&#160;h <b>(F)</b> after the cells were shifted to 37&#176;C. Data are the results of three independent experiments (means&#8201;&#177;&#8201;SE). Significant differences compared with the YPD-treated control group are denoted: *<it>P</it> &lt;0.05, **<it>P</it> &lt;0.01, or ***<it>P</it> &lt;0.001.</p>
                   </text>
                   <graphic file="s12866-014-0273-8-5"/>
                </fig>
             
             <p>Previous studies have shown that PRRSV is internalized from the Marc-145 cell surface within 3&#8211;6&#160;h <abbrgrp>
                   <abbr bid="B14">14</abbr>
                </abbrgrp>,<abbrgrp>
                   <abbr bid="B15">15</abbr>
                </abbrgrp>. Therefore, we investigated whether CP1 also acts at the entry stage of the viral life cycle. The kinetics of the antiviral activity of CP1 against CH-1a were analyzed with time-of-addition assays. CP1 had little effect on the viral titers and protein levels when it was added immediately after the temperature shift (Figure&#160;<figr fid="F5">5</figr>C and <figr fid="F5">5</figr>D). Consistent with these findings, no inhibitory effect was observed when CP1 was added at 2 (Figure&#160;<figr fid="F5">5</figr>E) or 4&#160;h (Figure&#160;<figr fid="F5">5</figr>F) after the cells were shifted to 37&#176;C. Taken together, these data indicate that CP1 blocks the viral attachment process rather than entry process in Marc-145 cells.</p>
          </sec>
          <sec>
             <st>
                <p>CP1 strongly inhibits CH-1a replication and partially elevates cytokine expression in PAMs</p>
             </st>
             <p>Because CP1 effectively inhibited CH-1a infection and replication in Marc-145 cells, we investigated whether CP1 inhibits CH-1a replication in PAMs, the major target cell type of PRRSV infection in pigs <it>in vivo</it>. We initially evaluated its effect on CH-1a replication in PAMs. As shown in Figure&#160;<figr fid="F6">6</figr>B&#8211;D, CP1 caused significant reductions in the viral N protein at the transcript and protein levels and in the viral titers at 36 hpi, compared with those of cells treated with the YPD control. CP1 inhibited CH-1a infection of PAMs with an EC<sub>50</sub> of 65&#160;&#956;g/ml. To exclude the possibility that CP1 exerts a nonspecific toxicity that affected PAM viability and thus affected CH-1a replication, cytotoxicity assays were performed in the presence of different concentrations of CP1 or YPD (control) for 48&#160;h using alamarBlue&#174;. CP1 was noncytotoxic at concentrations up to 280&#160;&#956;g/ml (Figure&#160;<figr fid="F6">6</figr>A). The CC<sub>50</sub> of CP1 for PAMs was estimated to be 551&#160;&#956;g/ml.
                  </p>
             
                <fig id="F6">
                   <title>
                      <p>Figure 6</p>
                   </title>
                   <caption>
                      <p>Antiviral activity and expression of cytokines in PAMs treated with CP1. (A) </p>
                   </caption>
                   <text>
                      <p>
                            <b>Antiviral activity and expression of cytokines in PAMs treated with CP1. (A)</b> A cell viability assay was performed with PAMs and alamarBlue&#174;. (<b>B</b>, <b>C</b>, and <b>D</b>) PAMs were infected with CH-1a (MOI =0.01) in the presence of CP1 or YPD (control) for 36&#160;h at 37&#176;C. Viral RNA transcription <b>(B)</b> and protein levels <b>(C)</b> and the viral titers in the supernatants <b>(D)</b> were analyzed. (<b>E</b>, <b>F</b>, <b>G</b>, and <b>H</b>) Virus-infected or uninfected PAMs were cultured in the presence of CP1 (280&#160;&#956;g/ml) or YPD (control) for 18&#160;h. The expression of proinflammatory cytokines IL-6 <b>(E)</b>, IFN-&#945; <b>(F)</b>, and IFN-&#946; <b>(G)</b> and the immunosuppressive cytokine TGF-&#946;1 <b>(H)</b> was analyzed. Data are the results of three independent experiments (means&#8201;&#177;&#8201;SE). Significant differences compared with the YPD-treated control group are denoted: *<it>P</it> &lt;0.05, **<it>P</it> &lt;0.01, or ***<it>P</it> &lt;0.001.</p>
                   </text>
                   <graphic file="s12866-014-0273-8-6"/>
                </fig>
             
             <p>To further characterize the innate immune response induced by CP1 in PAMs, the expression of IL-6, IFN-&#945;, IFN-&#946;, and TGF-&#946;1 was analyzed in the presence of CP1 or YPD (control) in virus-infected or uninfected cells. CP1 significantly enhanced the expression of IL-6 in virus-infected and uninfected cells, which would help to initiate the adaptive immune response. More importantly, the expression of IL-6 was significantly increased in CP1-treated CH-1a-infected cells compared with its expression in cells treated with CH-1a and YPD or YPD alone (Figure&#160;<figr fid="F6">6</figr>E). However, CP1 did not significantly induce the expression of IFN-&#945; (Figure&#160;<figr fid="F6">6</figr>F), IFN-&#946; (Figure&#160;<figr fid="F6">6</figr>G), or TGF-&#946;1 (Figure&#160;<figr fid="F6">6</figr>H) in PAMs. Taken together, these data show that CP1 partially induces cytokine expression in PAMs, which might contribute to the inhibition of PRRSV infection.</p>
          </sec>
       </sec>
       <sec>
          <st>
             <p>Discussion</p>
          </st>
          <p>PRRSV first emerged in the late 1980s in North America, and subsequently in Europe, causing huge economic losses. It has since spread across the globe, inducing characteristic severe reproductive failure in female pigs and respiratory tract illness in piglets <abbrgrp>
                <abbr bid="B16">16</abbr>
             </abbrgrp>,<abbrgrp>
                <abbr bid="B17">17</abbr>
             </abbrgrp>. PRRSV infection causes the delayed appearance and low titers of neutralizing antibodies, and a weak cell-mediated immune response <abbrgrp>
                <abbr bid="B18">18</abbr>
             </abbrgrp>. This allows the infection to persist and the prevalence of PRRSV infection is still high in the swine industry worldwide. Moreover, current vaccines are losing their power with the antigenic variability and genetic drift of the virus <abbrgrp>
                <abbr bid="B19">19</abbr>
             </abbrgrp>,<abbrgrp>
                <abbr bid="B20">20</abbr>
             </abbrgrp>. Therefore, there is an urgent need for safer and more effective strategies to control PRRSV. CP1 is a 31-residue peptide, originally isolated from porcine intestine, with a basic N-terminus connected to a neutral C-terminus by a glycine&#8211;proline link <abbrgrp>
                <abbr bid="B21">21</abbr>
             </abbrgrp>,<abbrgrp>
                <abbr bid="B22">22</abbr>
             </abbrgrp>. It displays antibacterial and antiviral properties in fish species important to aquaculture <abbrgrp>
                <abbr bid="B11">11</abbr>
             </abbrgrp>. To our knowledge, this is the first study to report the extracellular virucidal activity and inhibitory effects of CP1 against PRRSV infection and replication <it>in vitro</it>, with no cytotoxicity (Figures&#160;<figr fid="F1">1</figr>, <figr fid="F2">2</figr>, and <figr fid="F6">6</figr>). CP1 inhibited PRRSV infection with an EC<sub>50</sub> of 112&#160;&#956;g/ml in Marc-145 cells and 65&#160;&#956;g/ml in PAMs. CP1 also displays antibacterial activity against <it>Escherichia coli</it> strains DH5&#945;, TOP10, and K88, <it>Staphylococcus aureus</it> strain Cowan I, and <it>Streptococcus zooepidemicus</it> strain C55138 (data not shown).</p>
          <p>In this study, we have shown that CP1 potently blocked N-PRRSV strain CH-1a replication at multiple points in the viral life cycle, impairing RNA and protein synthesis and viral particle release in Marc-145 cells (Figures&#160;<figr fid="F2">2</figr> and <figr fid="F4">4</figr>). More importantly, an antiviral assay based on three different methods of administration showed that pre- and cotreatments with CP1 (Figure&#160;<figr fid="F2">2</figr>C and <figr fid="F2">2</figr>D) produced robust antiviral activity and were more effective against CH-1a infection than CP1 posttreatment (Figure&#160;<figr fid="F2">2</figr>E), which is consistent with previous research <abbrgrp>
                <abbr bid="B23">23</abbr>
             </abbrgrp>. This suggests that CP1 has potent inhibitory activity against the initial stages of viral infection, including the viral attachment step, or directly destroys the viral particles. Therefore, we investigated the direct inactivation of the virus by CP1 and found that CP1 has a potent virucidal activity against CH-1a infection <it>in vitro</it> (Figure&#160;<figr fid="F2">2</figr>B). Further research should be undertaken to clarify the molecular mechanism of the virucidal activity of CP1.</p>
          <p>Previously studies have shown that antimicrobial peptides, such as &#952;-defensin, bind to the glycoprotein B protein of herpes simplex virus type 1 (HSV-1) with high affinity and then protect cells from HSV-1 infection by blocking viral attachment and entry <abbrgrp>
                <abbr bid="B24">24</abbr>
             </abbrgrp>. In this study, we identified the molecular mechanisms underlying the CP1-mediated inhibition of CH-1a <it>in vitro</it>. Binding and entry assays in Marc-145 cells showed that CP1 prevents viral adsorption during the viral life cycle (Figure&#160;<figr fid="F5">5</figr>), thus disrupting the initial step of viral entry into the target cells, and suggesting that the interaction between the virus and its receptors on the cell membrane is blocked by CP1. However, further studies are required to determine how CP1 affects the attachment of viral particles to the cell membrane. Because Marc-145 cells are not of porcine origin but are monkey cells <abbrgrp>
                <abbr bid="B25">25</abbr>
             </abbrgrp>, we also tested the antiviral activity of CP1 in PAMs, which are known to be the primary host cell target for PRRSV replication <it>in vivo</it>. CP1 exhibited robust antiviral activity in PAMs (Figure&#160;<figr fid="F6">6</figr>B&#8211;D), suggesting that it might be an effective inhibitor of PRRSV infection <it>in vivo</it>. CP1 also partially elevated cytokine expression (IL-6), which should induce the innate immune response in PAMs (Figure&#160;<figr fid="F6">6</figr>E).</p>
       </sec>
       <sec>
          <st>
             <p>Conclusions</p>
          </st>
          <p>In summary, our findings reveal for the first time that CP1 not only has extracellular virucidal activity, but also exerts a potent inhibitory effect on PRRSV infection and replication <it>in vitro</it>, when administered as a pre-, co-, or posttreatment. Therefore, CP1 is an excellent candidate for the development of future antiviral strategies against PRRSV infection. Further research is required to evaluate the potential <it>in vivo</it> antiviral activity of CP1 in animal models.</p>
       </sec>
       <sec>
          <st>
             <p>Methods</p>
          </st>
          <sec>
             <st>
                <p>Cells and viruses</p>
             </st>
             <p>Marc-145 cells were grown in Dulbecco&#8217;s modified Eagle&#8217;s medium (DMEM) with 10% heat-inactivated fetal bovine serum (FBS; PAA, Pasching, Austria). PAMs were obtained with lung lavage from the lungs of 3&#8211;8-week-old PRRSV-negative piglets <abbrgrp>
                   <abbr bid="B26">26</abbr>
                </abbrgrp> and cultured in RPMI-1640 supplemented with 10% FBS, 100 U/ml penicillin, and 100&#160;&#956;g/ml streptomycin sulfate at 37&#176;C in 5% CO2. All animal experiments were approved by the Institutional Animal Care and Use Committee of Sun Yat-sen University. Classical North American type PRRSV (N-PRRSV) strain CH-1a, kindly provided by Dr. Guihong Zhang of South China Agricultural University, was propagated and titered in Marc-145 cells or PAMs and used throughout the study.</p>
          </sec>
          <sec>
             <st>
                <p>Expression and purification of CP1 in <it>Pichia pastoris</it> 
                </p>
             </st>
             <p>The CP1 gene (GenBank: AB186032.1) was cloned into the expression vector pGAPZaA (Invitrogen) and expressed in <it>Pichia pastoris</it> strain SMD1168 (Invitrogen) using the Easyselect&#8482; Pichia Expression Kit (Invitrogen), according to the manufacturer&#8217;s instructions. Briefly, the recombinant plasmid pGAPZaA-CP1, confirmed by restriction enzyme digestion, PCR, and sequencing, was transformed into strain SMD1168 with electroporation. The CP1 polypeptide was expressed from the highest-expressing <it>Pichia pastoris</it> clone in 10&#160;mL of yeast extract peptone dextrose (YPD) at 30&#176;C with shaking at 250&#160;rpm until the optical density at 600&#160;nm (OD<sub>600</sub>) was 2. An aliquot (0.1&#160;ml) of this culture was used to inoculate 50&#160;ml of YPD in a 250&#160;ml flask, which was then incubated at 30&#176;C with shaking at 250&#160;rpm. The 6&#8201;&#215;&#8201;His-tagged target protein was purified with Ni-NTA agarose (Invitrogen), according to the manufacturer&#8217;s protocol. The concentration of the purified recombinant CP1 was determined relative to a bovine serum albumin (BSA) standard using the BCA Protein Assay Kit (Pierce). The purified protein was stored in YPD.</p>
          </sec>
          <sec>
             <st>
                <p>Cytotoxicity assay</p>
             </st>
             <p>The potential cytotoxicity of CP1 was measured with the alamarBlue&#174; Assay (Invitrogen), according to the manufacturer&#8217;s instructions. Briefly, a series of concentrations of CP1, diluted in DMEM or YPD (control), was applied to 60%&#8211;70% confluent Marc-145 cells or PAMs. After incubation for 48&#160;h at 37&#176;C in a 5% CO<sub>2</sub> atmosphere, 10&#160;&#956;l of alamarBlue&#174; was added and the cultures were incubated for another 3&#160;h. Fluorescence intensity was measured at 570&#160;nm excitation and 590&#160;nm emission wavelengths and compared with the control values. The CC<sub>50</sub> was analyzed with the GraphPad Prism software (version 5.0).</p>
          </sec>
          <sec>
             <st>
                <p>Quantitative real-time reverse-transcription polymerase chain reaction (qRT-PCR)</p>
             </st>
             <p>Total RNA was extracted from Marc-145 cells or PAMs with TRIzol Reagent (Invitrogen), according to the manufacturer&#8217;s instructions, and subjected to qRT-PCR analysis. The reverse transcription of RNA and qPCR were conducted as previously described <abbrgrp>
                   <abbr bid="B27">27</abbr>
                </abbrgrp>,<abbrgrp>
                   <abbr bid="B28">28</abbr>
                </abbrgrp>. All samples were run in triplicate. Serial 10-fold dilutions of the CH-1a ORF7 fragment, which encodes the viral N protein, were used to construct a standard curve. Specific primers for the quantitative analysis of mRNAs were designed and are listed in Table&#160;<tblr tid="T1">1</tblr>.
                  </p>
             
                <table id="T1">
                   <title>
                      <p>Table 1</p>
                   </title>
                   <caption>
                      <p>
                            <b>List of primers for real-time PCR</b>                          
                      </p>
                   </caption>
                   <tgroup align="left" cols="2">
                      <colspec align="left" colname="c1" colnum="1" colwidth="*"/>
                      <colspec align="left" colname="c2" colnum="2" colwidth="*"/>
                      <thead>
                         <row valign="top">
                            <entry colname="c1">
                               <p>
                                  <b>Primer</b>                                
                                  <sup>
                                     <b>#</b> 
                                  </sup>
                              </p>
                            </entry>
                            <entry colname="c2">
                               <p>
                                  <b>Sequences (5&#8242;-3&#8242;)</b>                              
                               </p>
                            </entry>
                         </row>
                      </thead>
                      <tfoot>
                         <p>
                            <sup>#</sup>F: forward primer, R: reverse primer. The &#8220;m&#8221; prior to a primer name indicates it is for a monkey gene, and the &#8220;p&#8221; prior to a primer name indicates it is for a porcine gene.</p>
                      </tfoot>
                      <tbody>
                         <row valign="top">
                            <entry colname="c1">
                               <p>ORF7(N)-F</p>
                            </entry>
                            <entry colname="c2">
                               <p>AAAACCAGTCCAGAGGCAAG</p>
                            </entry>
                         </row>
                         <row valign="top">
                            <entry colname="c1">
                               <p>ORF7(N)-R</p>
                            </entry>
                            <entry colname="c2">
                               <p>CGGATCAGACGCACAGTATG</p>
                            </entry>
                         </row>
                         <row valign="top">
                            <entry colname="c1">
                               <p>mGAPDH-F</p>
                            </entry>
                            <entry colname="c2">
                               <p>TGACAACAGCCTCAAGATCG</p>
                            </entry>
                         </row>
                         <row valign="top">
                            <entry colname="c1">
                               <p>mGAPDH-R</p>
                            </entry>
                            <entry colname="c2">
                               <p>GTCTTCTGGGTGGCAGT GAT</p>
                            </entry>
                         </row>
                         <row valign="top">
                            <entry colname="c1">
                               <p>mCaspase-3-F</p>
                            </entry>
                            <entry colname="c2">
                               <p>ATGTCCGGGATCTGGGTTCT</p>
                            </entry>
                         </row>
                         <row valign="top">
                            <entry colname="c1">
                               <p>mCaspase-3-R</p>
                            </entry>
                            <entry colname="c2">
                               <p>CTAGGTCAAGCTTTCATTCT</p>
                            </entry>
                         </row>
                         <row valign="top">
                            <entry colname="c1">
                               <p>pHPRT1-F</p>
                            </entry>
                            <entry colname="c2">
                               <p>TGGAAAGAATGTCTTGATTGTTGAAG</p>
                            </entry>
                         </row>
                         <row valign="top">
                            <entry colname="c1">
                               <p>pHPRT1-R</p>
                            </entry>
                            <entry colname="c2">
                               <p>ATCTTTGGATTATGCTGCTTGACC</p>
                            </entry>
                         </row>
                         <row valign="top">
                            <entry colname="c1">
                               <p>pIL-6-F</p>
                            </entry>
                            <entry colname="c2">
                               <p>AATGTCGAGGCTGTGCAGATT</p>
                            </entry>
                         </row>
                         <row valign="top">
                            <entry colname="c1">
                               <p>pIL-6-R</p>
                            </entry>
                            <entry colname="c2">
                               <p>TGGTGGCTTTGTCTGGATTCT</p>
                            </entry>
                         </row>
                         <row valign="top">
                            <entry colname="c1">
                               <p>pTGF-&#946;1-F</p>
                            </entry>
                            <entry colname="c2">
                               <p>AGGGCTACCATGCCAATTTCT</p>
                            </entry>
                         </row>
                         <row valign="top">
                            <entry colname="c1">
                               <p>pTGF-&#946;1-R</p>
                            </entry>
                            <entry colname="c2">
                               <p>CCGGGTTGTGCTGGTTGT</p>
                            </entry>
                         </row>
                         <row valign="top">
                            <entry colname="c1">
                               <p>pIFN-&#945;-F</p>
                            </entry>
                            <entry colname="c2">
                               <p>TCCAGCTCTTCAGCACAGAG</p>
                            </entry>
                         </row>
                         <row valign="top">
                            <entry colname="c1">
                               <p>pIFN-&#945;-R</p>
                            </entry>
                            <entry colname="c2">
                               <p>AGCTGCTGATCCAGTCCAGT</p>
                            </entry>
                         </row>
                         <row valign="top">
                            <entry colname="c1">
                               <p>pIFN-&#946;-F</p>
                            </entry>
                            <entry colname="c2">
                               <p>GGAGACAATCCTGGAGGAAAT</p>
                            </entry>
                         </row>
                         <row valign="top">
                            <entry colname="c1">
                               <p>pIFN-&#946;-R</p>
                            </entry>
                            <entry colname="c2">
                               <p>TTCAGGTGAAGAATGGTCATGT</p>
                            </entry>
                         </row>
                      </tbody>
                   </tgroup>
                </table>
             
          </sec>
          <sec>
             <st>
                <p>Immunoblotting</p>
             </st>
             <p>Marc-145 cells or PAMs were seeded in six-well plates and harvested in lysis buffer containing 1&#160;mM phenylmethylsulfonyl fluoride (Beyotime), and an immunoblotting analysis was performed as previously described <abbrgrp>
                   <abbr bid="B29">29</abbr>
                </abbrgrp>. The cell lysates were separated with 10% sodium dodecyl sulfate polyacrylamide gel electrophoresis, and then electroblotted onto pre-equilibrated polyvinylidene difluoride membranes (Millipore). After the membranes were blocked with 5% nonfat dry milk in TBST (20&#160;mM Tris [pH&#160;7.5], 150&#160;mM NaCl, 0.5% Tween 20) for 2&#160;h at 37&#176;C, they were rinsed and incubated with an anti-PRRSV N protein monoclonal antibody (SDOW17), anti-glyceraldehyde phosphate dehydrogenase (GAPDH) antibody (Cell Signaling Technology), horseradish-peroxidase-conjugated anti-mouse IgG antibody (Santa Cruz), and anti-rabbit IgG antibody (Cell Signaling Technology). The signals were detected using ECL reagent (Pierce, Rockford, USA).</p>
          </sec>
          <sec>
             <st>
                <p>Immunofluorescence assay (IFA)</p>
             </st>
             <p>The cells were fixed with 4% paraformaldehyde and permeabilized with 0.3% Triton X-100 at room temperature, and then blocked with 1% BSA in PBS, after which they were rinsed three times with PBS. After incubation for 30&#160;min, anti-PRRSV N protein mAb (SDOW17) and FITC-conjugated anti-mouse IgG secondary antibody in PBS containing 1% BSA were added sequentially and incubated for another 2&#160;h after each addition. The nuclei were stained with Hoechst dye 33258 (Sigma-Aldrich, St. Louis, MO, USA). The cells were rinsed and observed with fluorescence microscopy (Carl Zeiss, Jena, Germany).</p>
          </sec>
          <sec>
             <st>
                <p>Virucidal assay</p>
             </st>
             <p>CP1 at the indicated concentrations or YPD (control) was preincubated with CH-1a for 2&#160;h at 37&#176;C. The mixtures were then diluted and added to 60%&#8211;70% confluent Marc-145 cells. After incubation for 2&#160;h at 37&#176;C, the mixtures were removed. Cells were replenished with fresh DMEM containing 2% FBS and cultured for another 36&#160;h at 37&#176;C, and then harvested for immunoblotting analysis.</p>
          </sec>
          <sec>
             <st>
                <p>Antiviral assay</p>
             </st>
             <p>Marc-145 cells were seeded in six-well plates and grown to 60%&#8211;70% confluence at 37&#176;C in 5% CO<sub>2</sub>. The effects of treatment with CP1 were analyzed with three different approaches. (I) Pretreatment: cells were treated with CP1 or YPD (control) for 2&#160;h and then infected with CH-1a (MOI =0.01) for 36&#160;h. (II) Cotreatment: cells were inoculated simultaneously with CH-1a (MOI =0.01) and CP1 or YPD (control) for 36&#160;h. (III) Posttreatment: cells were inoculated with CH-1a (MOI =0.01) for 8&#160;h at 37&#176;C, and then the viral inoculum was removed and fresh DMEM medium supplemented with 2% FBS and containing various concentrations of CP1 or YPD (control) was added. The cells were then incubated for a further 36&#160;h. The supernatants were collected to titrate the viral yields, and the viral titers were determined as TCID<sub>50</sub> 
                <abbrgrp>
                   <abbr bid="B27">27</abbr>
                </abbrgrp>. The cells were harvested for IFA, qRT-PCR, and immunoblotting analysis. The concentration that reduced the CPE by 50% relative to the viral control was estimated with the GraphPad Prism software (version 5.0), and was defined as EC<sub>50</sub>.</p>
          </sec>
          <sec>
             <st>
                <p>Apoptosis assay</p>
             </st>
             <p>Apoptosis was evaluated with an annexin V-FITC/PI assay (BD Biosciences Pharmingen). Marc-145 cells were challenged with CH-1a (MOI =0.01) in the presence of CP1 (480&#160;&#956;g/ml) or YPD (control) for 24, 48, or 72&#160;h. Apoptosis was then measured with annexin V-FITC/PI staining, according to the manufacturer&#8217;s protocol. The cells were then analyzed with fluorescence microscopy (Carl Zeiss).</p>
          </sec>
          <sec>
             <st>
                <p>Viral release assay</p>
             </st>
             <p>Marc-145 cells were seeded in six-well plates, grown to 60%&#8211;70% confluence, and infected with CH-1a at an MOI of 0.01 at 37&#176;C for 24&#160;h. The cells were then treated with different concentrations of CP1 or YPD (control), and washed three times with PBS. After incubation for 2 or 4&#160;h, the supernatants and cells were harvested to quantify the extracellular and intracellular viral particles, respectively, with qRT-PCR.</p>
          </sec>
          <sec>
             <st>
                <p>Binding and entry assays</p>
             </st>
             <p>Binding and entry assays were performed as previously described, with modifications <abbrgrp>
                   <abbr bid="B30">30</abbr>
                </abbrgrp>,<abbrgrp>
                   <abbr bid="B31">31</abbr>
                </abbrgrp>. For the binding assay, Marc-145 cells were cooled at 4&#176;C for 30&#160;min, and then challenged with CH-1a (MOI =0.01) in the presence of various concentrations of CP1 or YPD (control) for 3&#160;h at 4&#176;C. After the cells were rinsed three times with ice-cold PBS, they were incubated at 37&#176;C for another 24&#160;h. The cell lysates were prepared for qRT-PCR and immunoblotting analysis.</p>
             <p>For the entry assay, Marc-145 cells were initially challenged with CH-1a (MOI =0.01) for 3&#160;h at 4&#176;C. After the cells were rinsed three times with ice-cold PBS, they were cultured at 37&#176;C in the presence of various concentrations of CP1 or YPD (control) for 6&#160;h. CP1 was added at 0, 2, or 4&#160;h after the temperature shift (the time point at which the cells were switched to 37&#176;C was set to 0&#160;h). The cells were then rinsed three times with PBS and incubated for another 24&#160;h at 37&#176;C. The supernatants were harvested for virus titration and the cells were collected for immunoblotting analysis.</p>
          </sec>
          <sec>
             <st>
                <p>Cytokine mRNA expression</p>
             </st>
             <p>The expression of cytokines in PAMs was determined. Virus-infected or uninfected cells were cultured in the presence of CP1 (280&#160;&#956;g/ml) or YPD (control) for 18&#160;h, and the expression of proinflammatory cytokines interleukin 6 (IL-6), interferon &#945; (IFN-&#945;), and IFN-&#946;, and the immunosuppressive cytokine transforming growth factor &#946;1 (TGF-&#946;1) was then quantified with qRT-PCR. Specific primers designed for the quantitative analysis of the mRNAs are listed in Table&#160;<tblr tid="T1">1</tblr>.</p>
          </sec>
          <sec>
             <st>
                <p>Statistical analysis</p>
             </st>
             <p>All experiments were performed with at least three independent replicates. Data were analyzed with the SPSS 16.0 and GraphPad Prism software (version 5.0) and are expressed as means&#8201;&#177;&#8201;standard errors (SE). Student&#8217;s <it>t</it> test and one-way analysis of variance were used. <it>P</it> values &lt;0.05 were considered statistically significant.</p>
          </sec>
       </sec>
       <sec>
          <st>
             <p>Competing interests</p>
          </st>
          <p>The authors declare that they have no competing interests.</p>
       </sec>
       <sec>
          <st>
             <p>Authors&#8217; contributions</p>
          </st>
          <p>CG and YH conceived and designed the study. CG performed the experiments, analyzed the data, and drafted the manuscript. CG, YH, PC, XL, YC, and ZH coordinated the study. ZH and YC contributed to the interpretation of the data and took part in the critical revision of the manuscript. All authors have read and approved the final manuscript.</p>
       </sec>
    </bdy>
    <bm>
       <ack>
          <sec>
             <st>
                <p>Acknowledgments</p>
             </st>
             <p>This work was supported by the China Agriculture Research System (CASR-36) and the China Spark Program (2011GA781001).</p>
          </sec>
       </ack>
       <refgrp>
          
          <bibl id="B1">
             <title>
                <p>The M/GP(5) glycoprotein complex of porcine reproductive and respiratory syndrome virus binds the sialoadhesin receptor in a sialic acid-dependent manner</p>
             </title>
             <aug>
                <au>
                   <snm>Van Breedam</snm>
                   <fnm>W</fnm>
                </au>
                <au>
                   <snm>Van Gorp</snm>
                   <fnm>H</fnm>
                </au>
                <au>
                   <snm>Zhang</snm>
                   <fnm>JQ</fnm>
                </au>
                <au>
                   <snm>Crocker</snm>
                   <fnm>PR</fnm>
                </au>
                <au>
                   <snm>Delputte</snm>
                   <fnm>PL</fnm>
                </au>
                <au>
                   <snm>Nauwynck</snm>
                   <fnm>HJ</fnm>
                </au>
             </aug>
             <source>PLoS Pathog</source>
             <pubdate>2010</pubdate>
             <volume>6</volume>
             <issue>1</issue>
             <fpage>e1000730</fpage>
             <xrefbib>
                <pubidlist>
                   <pubid idtype="doi">10.1371/journal.ppat.1000730</pubid>
                   <pubid idtype="pmpid" link="fulltext">20084110</pubid>
                </pubidlist>
             </xrefbib>
          </bibl>
          <bibl id="B2">
             <title>
                <p>Mystery swine disease in The Netherlands: the isolation of Lelystad virus</p>
             </title>
             <aug>
                <au>
                   <snm>Wensvoort</snm>
                   <fnm>G</fnm>
                </au>
                <au>
                   <snm>Terpstra</snm>
                   <fnm>C</fnm>
                </au>
                <au>
                   <snm>Pol</snm>
                   <fnm>JM</fnm>
                </au>
                <au>
                   <snm>ter Laak</snm>
                   <fnm>EA</fnm>
                </au>
                <au>
                   <snm>Bloemraad</snm>
                   <fnm>M</fnm>
                </au>
                <au>
                   <snm>de Kluyver</snm>
                   <fnm>EP</fnm>
                </au>
                <au>
                   <snm>Kragten</snm>
                   <fnm>C</fnm>
                </au>
                <au>
                   <snm>van Buiten</snm>
                   <fnm>L</fnm>
                </au>
                <au>
                   <snm>den Besten</snm>
                   <fnm>A</fnm>
                </au>
                <au>
                   <snm>Wagenaar</snm>
                   <fnm>F</fnm>
                </au>
                <au>
                   <snm>Broekhuijsen</snm>
                   <fnm>JM</fnm>
                </au>
                <au>
                   <snm>Moonen</snm>
                   <fnm>PL</fnm>
                </au>
                <au>
                   <snm>Zetstra</snm>
                   <fnm>T</fnm>
                </au>
                <au>
                   <snm>de Boer</snm>
                   <fnm>EA</fnm>
                </au>
                <au>
                   <snm>Tibben</snm>
                   <fnm>HJ</fnm>
                </au>
                <au>
                   <snm>de Jong</snm>
                   <fnm>MF</fnm>
                </au>
                <au>
                   <snm>van&#8217;t Veld</snm>
                   <fnm>P</fnm>
                </au>
                <au>
                   <snm>Greenland</snm>
                   <fnm>GJ</fnm>
                </au>
                <au>
                   <snm>van Gennep</snm>
                   <fnm>JA</fnm>
                </au>
                <au>
                   <snm>Voets</snm>
                   <fnm>MT</fnm>
                </au>
                <au>
                   <snm>Verheijden</snm>
                   <fnm>JH</fnm>
                </au>
                <au>
                   <snm>Braamskamp</snm>
                   <fnm>J</fnm>
                </au>
             </aug>
             <source>Vet Q</source>
             <pubdate>1991</pubdate>
             <volume>13</volume>
             <issue>3</issue>
             <fpage>121</fpage>
             <lpage>130</lpage>
             <xrefbib>
                <pubidlist>
                   <pubid idtype="doi">10.1080/01652176.1991.9694296</pubid>
                   <pubid idtype="pmpid" link="fulltext">1835211</pubid>
                </pubidlist>
             </xrefbib>
          </bibl>
          <bibl id="B3">
             <title>
                <p>In vitro evaluation of the antiviral activity of the synthetic epigallocatechin gallate analog-epigallocatechin gallate (EGCG) palmitate against porcine reproductive and respiratory syndrome virus</p>
             </title>
             <aug>
                <au>
                   <snm>Zhao</snm>
                   <fnm>C</fnm>
                </au>
                <au>
                   <snm>Liu</snm>
                   <fnm>S</fnm>
                </au>
                <au>
                   <snm>Li</snm>
                   <fnm>C</fnm>
                </au>
                <au>
                   <snm>Yang</snm>
                   <fnm>L</fnm>
                </au>
                <au>
                   <snm>Zu</snm>
                   <fnm>Y</fnm>
                </au>
             </aug>
             <source>Viruses</source>
             <pubdate>2014</pubdate>
             <volume>6</volume>
             <issue>2</issue>
             <fpage>938</fpage>
             <lpage>950</lpage>
             <xrefbib>
                <pubidlist>
                   <pubid idtype="doi">10.3390/v6020938</pubid>
                   <pubid idtype="pmpid" link="fulltext">24566281</pubid>
                </pubidlist>
             </xrefbib>
          </bibl>
          <bibl id="B4">
             <title>
                <p>Regulation of toll-like receptors 3, 7 and 9 in porcine alveolar macrophages by different genotype 1 strains of porcine reproductive and respiratory syndrome virus</p>
             </title>
             <aug>
                <au>
                   <snm>Kuzemtseva</snm>
                   <fnm>L</fnm>
                </au>
                <au>
                   <snm>de la Torre</snm>
                   <fnm>E</fnm>
                </au>
                <au>
                   <snm>Martin</snm>
                   <fnm>G</fnm>
                </au>
                <au>
                   <snm>Soldevila</snm>
                   <fnm>F</fnm>
                </au>
                <au>
                   <snm>Ait-Ali</snm>
                   <fnm>T</fnm>
                </au>
                <au>
                   <snm>Mateu</snm>
                   <fnm>E</fnm>
                </au>
                <au>
                   <snm>Darwich</snm>
                   <fnm>L</fnm>
                </au>
             </aug>
             <source>Vet Immunol Immunopathol</source>
             <pubdate>2014</pubdate>
             <volume>158</volume>
             <issue>3&#8211;4</issue>
             <fpage>189</fpage>
             <lpage>198</lpage>
             <xrefbib>
                <pubidlist>
                   <pubid idtype="doi">10.1016/j.vetimm.2014.01.009</pubid>
                   <pubid idtype="pmpid" link="fulltext">24534144</pubid>
                </pubidlist>
             </xrefbib>
          </bibl>
          <bibl id="B5">
             <title>
                <p>Novel structural protein in porcine reproductive and respiratory syndrome virus encoded by an alternative ORF5 present in all arteriviruses</p>
             </title>
             <aug>
                <au>
                   <snm>Johnson</snm>
                   <fnm>CR</fnm>
                </au>
                <au>
                   <snm>Griggs</snm>
                   <fnm>TF</fnm>
                </au>
                <au>
                   <snm>Gnanandarajah</snm>
                   <fnm>J</fnm>
                </au>
                <au>
                   <snm>Murtaugh</snm>
                   <fnm>MP</fnm>
                </au>
             </aug>
             <source>J Gen Virol</source>
             <pubdate>2011</pubdate>
             <volume>92</volume>
             <issue>Pt 5</issue>
             <fpage>1107</fpage>
             <lpage>1116</lpage>
             <xrefbib>
                <pubidlist>
                   <pubid idtype="doi">10.1099/vir.0.030213-0</pubid>
                   <pubid idtype="pmpid" link="fulltext">21307222</pubid>
                </pubidlist>
             </xrefbib>
          </bibl>
          <bibl id="B6">
             <title>
                <p>Immunogenicity study of plant-made oral subunit vaccine against porcine reproductive and respiratory syndrome virus (PRRSV)</p>
             </title>
             <aug>
                <au>
                   <snm>Hu</snm>
                   <fnm>J</fnm>
                </au>
                <au>
                   <snm>Ni</snm>
                   <fnm>Y</fnm>
                </au>
                <au>
                   <snm>Dryman</snm>
                   <fnm>BA</fnm>
                </au>
                <au>
                   <snm>Meng</snm>
                   <fnm>XJ</fnm>
                </au>
                <au>
                   <snm>Zhang</snm>
                   <fnm>C</fnm>
                </au>
             </aug>
             <source>Vaccine</source>
             <pubdate>2012</pubdate>
             <volume>30</volume>
             <issue>12</issue>
             <fpage>2068</fpage>
             <lpage>2074</lpage>
             <xrefbib>
                <pubidlist>
                   <pubid idtype="doi">10.1016/j.vaccine.2012.01.059</pubid>
                   <pubid idtype="pmpid" link="fulltext">22300722</pubid>
                </pubidlist>
             </xrefbib>
          </bibl>
          <bibl id="B7">
             <title>
                <p>Inhibition of replication of porcine reproductive and respiratory syndrome virus by hemin is highly dependent on heme oxygenase-1, but independent of iron in MARC-145 cells</p>
             </title>
             <aug>
                <au>
                   <snm>Wang</snm>
                   <fnm>L</fnm>
                </au>
                <au>
                   <snm>Xiao</snm>
                   <fnm>S</fnm>
                </au>
                <au>
                   <snm>Gao</snm>
                   <fnm>J</fnm>
                </au>
                <au>
                   <snm>Liu</snm>
                   <fnm>M</fnm>
                </au>
                <au>
                   <snm>Zhang</snm>
                   <fnm>X</fnm>
                </au>
                <au>
                   <snm>Li</snm>
                   <fnm>M</fnm>
                </au>
                <au>
                   <snm>Zhao</snm>
                   <fnm>G</fnm>
                </au>
                <au>
                   <snm>Mo</snm>
                   <fnm>D</fnm>
                </au>
                <au>
                   <snm>Liu</snm>
                   <fnm>X</fnm>
                </au>
                <au>
                   <snm>Chen</snm>
                   <fnm>Y</fnm>
                </au>
             </aug>
             <source>Antiviral Res</source>
             <pubdate>2014</pubdate>
             <volume>105</volume>
             <fpage>39</fpage>
             <lpage>46</lpage>
             <xrefbib>
                <pubidlist>
                   <pubid idtype="doi">10.1016/j.antiviral.2014.02.010</pubid>
                   <pubid idtype="pmpid" link="fulltext">24583029</pubid>
                </pubidlist>
             </xrefbib>
          </bibl>
          <bibl id="B8">
             <title>
                <p>Hepcidin, a urinary antimicrobial peptide synthesized in the liver</p>
             </title>
             <aug>
                <au>
                   <snm>Park</snm>
                   <fnm>CH</fnm>
                </au>
                <au>
                   <snm>Valore</snm>
                   <fnm>EV</fnm>
                </au>
                <au>
                   <snm>Waring</snm>
                   <fnm>AJ</fnm>
                </au>
                <au>
                   <snm>Ganz</snm>
                   <fnm>T</fnm>
                </au>
             </aug>
             <source>J Biol Chem</source>
             <pubdate>2001</pubdate>
             <volume>276</volume>
             <issue>11</issue>
             <fpage>7806</fpage>
             <lpage>7810</lpage>
             <xrefbib>
                <pubidlist>
                   <pubid idtype="doi">10.1074/jbc.M008922200</pubid>
                   <pubid idtype="pmpid" link="fulltext">11113131</pubid>
                </pubidlist>
             </xrefbib>
          </bibl>
          <bibl id="B9">
             <title>
                <p>Antimicrobial peptides: primeval molecules or future drugs?</p>
             </title>
             <aug>
                <au>
                   <snm>Peters</snm>
                   <fnm>BM</fnm>
                </au>
                <au>
                   <snm>Shirtliff</snm>
                   <fnm>ME</fnm>
                </au>
                <au>
                   <snm>Jabra-Rizk</snm>
                   <fnm>MA</fnm>
                </au>
             </aug>
             <source>PLoS Pathog</source>
             <pubdate>2010</pubdate>
             <volume>6</volume>
             <issue>10</issue>
             <fpage>e1001067</fpage>
             <xrefbib>
                <pubidlist>
                   <pubid idtype="doi">10.1371/journal.ppat.1001067</pubid>
                   <pubid idtype="pmpid" link="fulltext">21060861</pubid>
                </pubidlist>
             </xrefbib>
          </bibl>
          <bibl id="B10">
             <title>
                <p>Effect of cecropin B and a synthetic analogue on propagation of fish viruses in vitro</p>
             </title>
             <aug>
                <au>
                   <snm>Chiou</snm>
                   <fnm>PP</fnm>
                </au>
                <au>
                   <snm>Lin</snm>
                   <fnm>CM</fnm>
                </au>
                <au>
                   <snm>Perez</snm>
                   <fnm>L</fnm>
                </au>
                <au>
                   <snm>Chen</snm>
                   <fnm>TT</fnm>
                </au>
             </aug>
             <source>Mar Biotechnol (NY)</source>
             <pubdate>2002</pubdate>
             <volume>4</volume>
             <issue>3</issue>
             <fpage>294</fpage>
             <lpage>302</lpage>
             <xrefbib>
                <pubidlist>
                   <pubid idtype="doi">10.1007/s10126-002-0021-1</pubid>
                </pubidlist>
             </xrefbib>
          </bibl>
          <bibl id="B11">
             <title>
                <p>Production of homozygous transgenic rainbow trout with enhanced disease resistance</p>
             </title>
             <aug>
                <au>
                   <snm>Chiou</snm>
                   <fnm>PP</fnm>
                </au>
                <au>
                   <snm>Chen</snm>
                   <fnm>MJ</fnm>
                </au>
                <au>
                   <snm>Lin</snm>
                   <fnm>CM</fnm>
                </au>
                <au>
                   <snm>Khoo</snm>
                   <fnm>J</fnm>
                </au>
                <au>
                   <snm>Larson</snm>
                   <fnm>J</fnm>
                </au>
                <au>
                   <snm>Holt</snm>
                   <fnm>R</fnm>
                </au>
                <au>
                   <snm>Leong</snm>
                   <fnm>JA</fnm>
                </au>
                <au>
                   <snm>Thorgarrd</snm>
                   <fnm>G</fnm>
                </au>
                <au>
                   <snm>Chen</snm>
                   <fnm>TT</fnm>
                </au>
             </aug>
             <source>Mar Biotechnol (NY)</source>
             <pubdate>2014</pubdate>
             <volume>16</volume>
             <issue>3</issue>
             <fpage>299</fpage>
             <lpage>308</lpage>
             <xrefbib>
                <pubidlist>
                   <pubid idtype="doi">10.1007/s10126-013-9550-z</pubid>
                </pubidlist>
             </xrefbib>
          </bibl>
          <bibl id="B12">
             <title>
                <p>Porcine reproductive and respiratory syndrome virus modulates apoptosis during replication in alveolar macrophages</p>
             </title>
             <aug>
                <au>
                   <snm>Costers</snm>
                   <fnm>S</fnm>
                </au>
                <au>
                   <snm>Lefebvre</snm>
                   <fnm>DJ</fnm>
                </au>
                <au>
                   <snm>Delputte</snm>
                   <fnm>PL</fnm>
                </au>
                <au>
                   <snm>Nauwynck</snm>
                   <fnm>HJ</fnm>
                </au>
             </aug>
             <source>Arch Virol</source>
             <pubdate>2008</pubdate>
             <volume>153</volume>
             <issue>8</issue>
             <fpage>1453</fpage>
             <lpage>1465</lpage>
             <xrefbib>
                <pubidlist>
                   <pubid idtype="doi">10.1007/s00705-008-0135-5</pubid>
                   <pubid idtype="pmpid" link="fulltext">18563285</pubid>
                </pubidlist>
             </xrefbib>
          </bibl>
          <bibl id="B13">
             <title>
                <p>Receptor tyrosine kinase inhibitors block multiple steps of influenza a virus replication</p>
             </title>
             <aug>
                <au>
                   <snm>Kumar</snm>
                   <fnm>N</fnm>
                </au>
                <au>
                   <snm>Liang</snm>
                   <fnm>YH</fnm>
                </au>
                <au>
                   <snm>Parslow</snm>
                   <fnm>TG</fnm>
                </au>
                <au>
                   <snm>Liang</snm>
                   <fnm>YY</fnm>
                </au>
             </aug>
             <source>J Virol</source>
             <pubdate>2011</pubdate>
             <volume>85</volume>
             <issue>6</issue>
             <fpage>2818</fpage>
             <lpage>2827</lpage>
             <xrefbib>
                <pubidlist>
                   <pubid idtype="doi">10.1128/JVI.01969-10</pubid>
                   <pubid idtype="pmpid" link="fulltext">21209112</pubid>
                </pubidlist>
             </xrefbib>
          </bibl>
          <bibl id="B14">
             <title>
                <p>Biophysical characterisation of the nucleocapsid protein from a highly pathogenic porcine reproductive and respiratory syndrome virus strain</p>
             </title>
             <aug>
                <au>
                   <snm>Jourdan</snm>
                   <fnm>SS</fnm>
                </au>
                <au>
                   <snm>Osorio</snm>
                   <fnm>FA</fnm>
                </au>
                <au>
                   <snm>Hiscox</snm>
                   <fnm>JA</fnm>
                </au>
             </aug>
             <source>Biochem Biophys Res Commun</source>
             <pubdate>2012</pubdate>
             <volume>419</volume>
             <issue>2</issue>
             <fpage>137</fpage>
             <lpage>141</lpage>
             <xrefbib>
                <pubidlist>
                   <pubid idtype="doi">10.1016/j.bbrc.2011.11.126</pubid>
                   <pubid idtype="pmpid" link="fulltext">22306009</pubid>
                </pubidlist>
             </xrefbib>
          </bibl>
          <bibl id="B15">
             <title>
                <p>The role of porcine reproductive and respiratory syndrome (PRRS) virus structural and non-structural proteins in virus pathogenesis</p>
             </title>
             <aug>
                <au>
                   <snm>Music</snm>
                   <fnm>N</fnm>
                </au>
                <au>
                   <snm>Gagnon</snm>
                   <fnm>CA</fnm>
                </au>
             </aug>
             <source>Anim Health Res Rev</source>
             <pubdate>2010</pubdate>
             <volume>11</volume>
             <issue>2</issue>
             <fpage>135</fpage>
             <lpage>163</lpage>
             <xrefbib>
                <pubidlist>
                   <pubid idtype="doi">10.1017/S1466252310000034</pubid>
                   <pubid idtype="pmpid" link="fulltext">20388230</pubid>
                </pubidlist>
             </xrefbib>
          </bibl>
          <bibl id="B16">
             <title>
                <p>Clinical signs and economic losses caused by porcine reproductive and respiratory syndrome virus in a large breeding farm</p>
             </title>
             <aug>
                <au>
                   <snm>Pejsak</snm>
                   <fnm>Z</fnm>
                </au>
                <au>
                   <snm>Stadejek</snm>
                   <fnm>T</fnm>
                </au>
                <au>
                   <snm>Markowska-Daniel</snm>
                   <fnm>I</fnm>
                </au>
             </aug>
             <source>Vet Microbiol</source>
             <pubdate>1997</pubdate>
             <volume>55</volume>
             <issue>1&#8211;4</issue>
             <fpage>317</fpage>
             <lpage>322</lpage>
             <xrefbib>
                <pubidlist>
                   <pubid idtype="doi">10.1016/S0378-1135(96)01326-0</pubid>
                   <pubid idtype="pmpid" link="fulltext">9220628</pubid>
                </pubidlist>
             </xrefbib>
          </bibl>
          <bibl id="B17">
             <title>
                <p>Assessment of the economic impact of porcine reproductive and respiratory syndrome on swine production in the United States</p>
             </title>
             <aug>
                <au>
                   <snm>Neumann</snm>
                   <fnm>EJ</fnm>
                </au>
                <au>
                   <snm>Kliebenstein</snm>
                   <fnm>JB</fnm>
                </au>
                <au>
                   <snm>Johnson</snm>
                   <fnm>CD</fnm>
                </au>
                <au>
                   <snm>Mabry</snm>
                   <fnm>JW</fnm>
                </au>
                <au>
                   <snm>Bush</snm>
                   <fnm>EJ</fnm>
                </au>
                <au>
                   <snm>Seitzinger</snm>
                   <fnm>AH</fnm>
                </au>
                <au>
                   <snm>Green</snm>
                   <fnm>AL</fnm>
                </au>
                <au>
                   <snm>Zimmerman</snm>
                   <fnm>JJ</fnm>
                </au>
             </aug>
             <source>J Am Vet Med Assoc</source>
             <pubdate>2005</pubdate>
             <volume>227</volume>
             <issue>3</issue>
             <fpage>385</fpage>
             <lpage>392</lpage>
             <xrefbib>
                <pubidlist>
                   <pubid idtype="doi">10.2460/javma.2005.227.385</pubid>
                   <pubid idtype="pmpid" link="fulltext">16121604</pubid>
                </pubidlist>
             </xrefbib>
          </bibl>
          <bibl id="B18">
             <title>
                <p>The level of virus-specific T-cell and macrophage recruitment in porcine reproductive and respiratory syndrome virus infection in pigs is independent of virus load</p>
             </title>
             <aug>
                <au>
                   <snm>Xiao</snm>
                   <fnm>ZG</fnm>
                </au>
                <au>
                   <snm>Batista</snm>
                   <fnm>L</fnm>
                </au>
                <au>
                   <snm>Dee</snm>
                   <fnm>S</fnm>
                </au>
                <au>
                   <snm>Halbur</snm>
                   <fnm>P</fnm>
                </au>
                <au>
                   <snm>Murtaugh</snm>
                   <fnm>MP</fnm>
                </au>
             </aug>
             <source>J Virol</source>
             <pubdate>2004</pubdate>
             <volume>78</volume>
             <issue>11</issue>
             <fpage>5923</fpage>
             <lpage>5933</lpage>
             <xrefbib>
                <pubidlist>
                   <pubid idtype="doi">10.1128/JVI.78.11.5923-5933.2004</pubid>
                   <pubid idtype="pmpid" link="fulltext">15140990</pubid>
                </pubidlist>
             </xrefbib>
          </bibl>
          <bibl id="B19">
             <title>
                <p>Immunological responses of swine to porcine reproductive and respiratory syndrome virus infection</p>
             </title>
             <aug>
                <au>
                   <snm>Murtaugh</snm>
                   <fnm>MP</fnm>
                </au>
                <au>
                   <snm>Xiao</snm>
                   <fnm>ZG</fnm>
                </au>
                <au>
                   <snm>Zuckermann</snm>
                   <fnm>F</fnm>
                </au>
             </aug>
             <source>Viral Immunol</source>
             <pubdate>2002</pubdate>
             <volume>15</volume>
             <issue>4</issue>
             <fpage>533</fpage>
             <lpage>547</lpage>
             <xrefbib>
                <pubidlist>
                   <pubid idtype="doi">10.1089/088282402320914485</pubid>
                   <pubid idtype="pmpid" link="fulltext">12513925</pubid>
                </pubidlist>
             </xrefbib>
          </bibl>
          <bibl id="B20">
             <title>
                <p>Taming PRRSV: revisiting the control strategies and vaccine design</p>
             </title>
             <aug>
                <au>
                   <snm>Thanawongnuwech</snm>
                   <fnm>R</fnm>
                </au>
                <au>
                   <snm>Suradhat</snm>
                   <fnm>S</fnm>
                </au>
             </aug>
             <source>Virus Res</source>
             <pubdate>2010</pubdate>
             <volume>154</volume>
             <issue>1&#8211;2</issue>
             <fpage>133</fpage>
             <lpage>140</lpage>
             <xrefbib>
                <pubidlist>
                   <pubid idtype="doi">10.1016/j.virusres.2010.09.003</pubid>
                   <pubid idtype="pmpid" link="fulltext">20851723</pubid>
                </pubidlist>
             </xrefbib>
          </bibl>
          <bibl id="B21">
             <title>
                <p>Antimicrobial activity of cecropins</p>
             </title>
             <aug>
                <au>
                   <snm>Moore</snm>
                   <fnm>AJ</fnm>
                </au>
                <au>
                   <snm>Beazley</snm>
                   <fnm>WD</fnm>
                </au>
                <au>
                   <snm>Bibby</snm>
                   <fnm>MC</fnm>
                </au>
                <au>
                   <snm>Devine</snm>
                   <fnm>DA</fnm>
                </au>
             </aug>
             <source>J Antimicrob Chemother</source>
             <pubdate>1996</pubdate>
             <volume>37</volume>
             <issue>6</issue>
             <fpage>1077</fpage>
             <lpage>1089</lpage>
             <xrefbib>
                <pubidlist>
                   <pubid idtype="doi">10.1093/jac/37.6.1077</pubid>
                   <pubid idtype="pmpid" link="fulltext">8836811</pubid>
                </pubidlist>
             </xrefbib>
          </bibl>
          <bibl id="B22">
             <title>
                <p>Synergistic effect of clinically used antibiotics and peptide antibiotics against gram-positive and gram-negative bacteria</p>
             </title>
             <aug>
                <au>
                   <snm>Zhou</snm>
                   <fnm>YL</fnm>
                </au>
                <au>
                   <snm>Peng</snm>
                   <fnm>Y</fnm>
                </au>
             </aug>
             <source>Exp Ther Med</source>
             <pubdate>2013</pubdate>
             <volume>6</volume>
             <issue>4</issue>
             <fpage>1000</fpage>
             <lpage>1004</lpage>
             <xrefbib>
                <pubidlist>
                   <pubid idtype="pmpid" link="fulltext">24137305</pubid>
                </pubidlist>
             </xrefbib>
          </bibl>
          <bibl id="B23">
             <title>
                <p>A new class of synthetic anti-lipopolysaccharide peptides inhibits influenza A virus replication by blocking cellular attachment</p>
             </title>
             <aug>
                <au>
                   <snm>Hoffmann</snm>
                   <fnm>J</fnm>
                </au>
                <au>
                   <snm>Schneider</snm>
                   <fnm>C</fnm>
                </au>
                <au>
                   <snm>Heinbockel</snm>
                   <fnm>L</fnm>
                </au>
                <au>
                   <snm>Brandenburg</snm>
                   <fnm>K</fnm>
                </au>
                <au>
                   <snm>Reimer</snm>
                   <fnm>R</fnm>
                </au>
                <au>
                   <snm>Gabriel</snm>
                   <fnm>G</fnm>
                </au>
             </aug>
             <source>Antiviral Res</source>
             <pubdate>2014</pubdate>
             <volume>104</volume>
             <fpage>23</fpage>
             <lpage>33</lpage>
             <xrefbib>
                <pubidlist>
                   <pubid idtype="doi">10.1016/j.antiviral.2014.01.015</pubid>
                   <pubid idtype="pmpid" link="fulltext">24486207</pubid>
                </pubidlist>
             </xrefbib>
          </bibl>
          <bibl id="B24">
             <title>
                <p>Theta defensins protect cells from infection by herpes simplex virus by inhibiting viral adhesion and entry</p>
             </title>
             <aug>
                <au>
                   <snm>Yasin</snm>
                   <fnm>B</fnm>
                </au>
                <au>
                   <snm>Wang</snm>
                   <fnm>W</fnm>
                </au>
                <au>
                   <snm>Pang</snm>
                   <fnm>M</fnm>
                </au>
                <au>
                   <snm>Cheshenko</snm>
                   <fnm>N</fnm>
                </au>
                <au>
                   <snm>Hong</snm>
                   <fnm>T</fnm>
                </au>
                <au>
                   <snm>Waring</snm>
                   <fnm>AJ</fnm>
                </au>
                <au>
                   <snm>Herold</snm>
                   <fnm>BC</fnm>
                </au>
                <au>
                   <snm>Wagar</snm>
                   <fnm>EA</fnm>
                </au>
                <au>
                   <snm>Lehrer</snm>
                   <fnm>RI</fnm>
                </au>
             </aug>
             <source>J Virol</source>
             <pubdate>2004</pubdate>
             <volume>78</volume>
             <issue>10</issue>
             <fpage>5147</fpage>
             <lpage>5156</lpage>
             <xrefbib>
                <pubidlist>
                   <pubid idtype="doi">10.1128/JVI.78.10.5147-5156.2004</pubid>
                   <pubid idtype="pmpid" link="fulltext">15113897</pubid>
                </pubidlist>
             </xrefbib>
          </bibl>
          <bibl id="B25">
             <title>
                <p>Poly(I:C) inhibits porcine reproductive and respiratory syndrome virus replication in MARC-145 cells via activation of IFIT3</p>
             </title>
             <aug>
                <au>
                   <snm>Zhang</snm>
                   <fnm>L</fnm>
                </au>
                <au>
                   <snm>Liu</snm>
                   <fnm>J</fnm>
                </au>
                <au>
                   <snm>Bai</snm>
                   <fnm>J</fnm>
                </au>
                <au>
                   <snm>Du</snm>
                   <fnm>Y</fnm>
                </au>
                <au>
                   <snm>Wang</snm>
                   <fnm>X</fnm>
                </au>
                <au>
                   <snm>Liu</snm>
                   <fnm>X</fnm>
                </au>
                <au>
                   <snm>Jiang</snm>
                   <fnm>P</fnm>
                </au>
             </aug>
             <source>Antiviral Res</source>
             <pubdate>2013</pubdate>
             <volume>99</volume>
             <issue>3</issue>
             <fpage>197</fpage>
             <lpage>206</lpage>
             <xrefbib>
                <pubidlist>
                   <pubid idtype="doi">10.1016/j.antiviral.2013.06.004</pubid>
                   <pubid idtype="pmpid" link="fulltext">23791982</pubid>
                </pubidlist>
             </xrefbib>
          </bibl>
          <bibl id="B26">
             <title>
                <p>Porcine reproductive and respiratory syndrome virus and bacterial endotoxin act in synergy to amplify the inflammatory response of infected macrophages</p>
             </title>
             <aug>
                <au>
                   <snm>Qiao</snm>
                   <fnm>SL</fnm>
                </au>
                <au>
                   <snm>Feng</snm>
                   <fnm>LL</fnm>
                </au>
                <au>
                   <snm>Bao</snm>
                   <fnm>DK</fnm>
                </au>
                <au>
                   <snm>Guo</snm>
                   <fnm>JQ</fnm>
                </au>
                <au>
                   <snm>Wan</snm>
                   <fnm>B</fnm>
                </au>
                <au>
                   <snm>Xiao</snm>
                   <fnm>ZJ</fnm>
                </au>
                <au>
                   <snm>Yang</snm>
                   <fnm>SZ</fnm>
                </au>
                <au>
                   <snm>Zhang</snm>
                   <fnm>GP</fnm>
                </au>
             </aug>
             <source>Vet Microbiol</source>
             <pubdate>2011</pubdate>
             <volume>149</volume>
             <issue>1&#8211;2</issue>
             <fpage>213</fpage>
             <lpage>220</lpage>
             <xrefbib>
                <pubidlist>
                   <pubid idtype="doi">10.1016/j.vetmic.2010.11.006</pubid>
                   <pubid idtype="pmpid" link="fulltext">21129861</pubid>
                </pubidlist>
             </xrefbib>
          </bibl>
          <bibl id="B27">
             <title>
                <p>In vitro antiviral activity of arbidol against Chikungunya virus and characteristics of a selected resistant mutant</p>
             </title>
             <aug>
                <au>
                   <snm>Delogu</snm>
                   <fnm>I</fnm>
                </au>
                <au>
                   <snm>Pastorino</snm>
                   <fnm>B</fnm>
                </au>
                <au>
                   <snm>Baronti</snm>
                   <fnm>C</fnm>
                </au>
                <au>
                   <snm>Nougairede</snm>
                   <fnm>A</fnm>
                </au>
                <au>
                   <snm>Bonnet</snm>
                   <fnm>E</fnm>
                </au>
                <au>
                   <snm>de Lamballerie</snm>
                   <fnm>X</fnm>
                </au>
             </aug>
             <source>Antiviral Res</source>
             <pubdate>2011</pubdate>
             <volume>90</volume>
             <issue>3</issue>
             <fpage>99</fpage>
             <lpage>107</lpage>
             <xrefbib>
                <pubidlist>
                   <pubid idtype="doi">10.1016/j.antiviral.2011.03.182</pubid>
                   <pubid idtype="pmpid" link="fulltext">21440006</pubid>
                </pubidlist>
             </xrefbib>
          </bibl>
          <bibl id="B28">
             <title>
                <p>Morpholino oligomer-mediated protection of porcine pulmonary alveolar macrophages from arterivirus-induced cell death</p>
             </title>
             <aug>
                <au>
                   <snm>Patel</snm>
                   <fnm>D</fnm>
                </au>
                <au>
                   <snm>Stein</snm>
                   <fnm>DA</fnm>
                </au>
                <au>
                   <snm>Zhang</snm>
                   <fnm>YJ</fnm>
                </au>
             </aug>
             <source>Antivir Ther</source>
             <pubdate>2009</pubdate>
             <volume>14</volume>
             <issue>7</issue>
             <fpage>899</fpage>
             <lpage>909</lpage>
             <xrefbib>
                <pubidlist>
                   <pubid idtype="doi">10.3851/IMP1409</pubid>
                   <pubid idtype="pmpid" link="fulltext">19918094</pubid>
                </pubidlist>
             </xrefbib>
          </bibl>
          <bibl id="B29">
             <title>
                <p>Human-like PB2 627&#160;K influenza virus polymerase activity is regulated by importin-alpha1 and -alpha7</p>
             </title>
             <aug>
                <au>
                   <snm>Hudjetz</snm>
                   <fnm>B</fnm>
                </au>
                <au>
                   <snm>Gabriel</snm>
                   <fnm>G</fnm>
                </au>
             </aug>
             <source>PLoS Pathog</source>
             <pubdate>2012</pubdate>
             <volume>8</volume>
             <issue>1</issue>
             <fpage>e1002488</fpage>
             <xrefbib>
                <pubidlist>
                   <pubid idtype="doi">10.1371/journal.ppat.1002488</pubid>
                   <pubid idtype="pmpid" link="fulltext">22275867</pubid>
                </pubidlist>
             </xrefbib>
          </bibl>
          <bibl id="B30">
             <title>
                <p>Inhibition of porcine reproductive and respiratory syndrome virus replication by flavaspidic acid AB</p>
             </title>
             <aug>
                <au>
                   <snm>Yang</snm>
                   <fnm>Q</fnm>
                </au>
                <au>
                   <snm>Gao</snm>
                   <fnm>L</fnm>
                </au>
                <au>
                   <snm>Si</snm>
                   <fnm>J</fnm>
                </au>
                <au>
                   <snm>Sun</snm>
                   <fnm>Y</fnm>
                </au>
                <au>
                   <snm>Liu</snm>
                   <fnm>J</fnm>
                </au>
                <au>
                   <snm>Cao</snm>
                   <fnm>L</fnm>
                </au>
                <au>
                   <snm>Feng</snm>
                   <fnm>WH</fnm>
                </au>
             </aug>
             <source>Antiviral Res</source>
             <pubdate>2013</pubdate>
             <volume>97</volume>
             <issue>1</issue>
             <fpage>66</fpage>
             <lpage>73</lpage>
             <xrefbib>
                <pubidlist>
                   <pubid idtype="doi">10.1016/j.antiviral.2012.11.004</pubid>
                   <pubid idtype="pmpid" link="fulltext">23178515</pubid>
                </pubidlist>
             </xrefbib>
          </bibl>
          <bibl id="B31">
             <title>
                <p>Inhibitory activity and mechanism of two scorpion venom peptides against herpes simplex virus type 1</p>
             </title>
             <aug>
                <au>
                   <snm>Hong</snm>
                   <fnm>W</fnm>
                </au>
                <au>
                   <snm>Li</snm>
                   <fnm>T</fnm>
                </au>
                <au>
                   <snm>Song</snm>
                   <fnm>Y</fnm>
                </au>
                <au>
                   <snm>Zhang</snm>
                   <fnm>R</fnm>
                </au>
                <au>
                   <snm>Zeng</snm>
                   <fnm>Z</fnm>
                </au>
                <au>
                   <snm>Han</snm>
                   <fnm>S</fnm>
                </au>
                <au>
                   <snm>Zhang</snm>
                   <fnm>X</fnm>
                </au>
                <au>
                   <snm>Wu</snm>
                   <fnm>Y</fnm>
                </au>
                <au>
                   <snm>Li</snm>
                   <fnm>W</fnm>
                </au>
                <au>
                   <snm>Cao</snm>
                   <fnm>Z</fnm>
                </au>
             </aug>
             <source>Antiviral Res</source>
             <pubdate>2014</pubdate>
             <volume>102</volume>
             <fpage>1</fpage>
             <lpage>10</lpage>
             <xrefbib>
                <pubidlist>
                   <pubid idtype="doi">10.1016/j.antiviral.2013.11.013</pubid>
                   <pubid idtype="pmpid" link="fulltext">24315793</pubid>
                </pubidlist>
             </xrefbib>
          </bibl>
       </refgrp>
    </bm>
 </art>
