<art>
    <ui>s12896-014-0097-5</ui>
    <ji>1472-6750</ji>
    <fm>
       <dochead>Research article</dochead>
       <bibl>
          <title>
             <p>Optimization of production, purification and lyophilisation of cellobiose dehydrogenase by <it>Sclerotium rolfsii</it> 
             </p>
          </title>
          <aug>
             <au id="A1" ca="yes">
                <snm>Fischer</snm>
                <fnm>Christin</fnm>
                <insr iid="I1"/>
                <email>c.fischer@bwp.hs-anhalt.de</email>
             </au>
             <au id="A2">
                <snm>Krause</snm>
                <fnm>Annett</fnm>
                <insr iid="I1"/>
                <email>a.krause@bwp.hs-anhalt.de</email>
             </au>
             <au id="A3">
                <snm>Kleinschmidt</snm>
                <fnm>Thomas</fnm>
                <insr iid="I1"/>
                <email>t.kleinschmidt@bwp.hs-anhalt.de</email>
             </au>
          </aug>
          <insg>
             <ins id="I1">
                <p>Anhalt University of Applied Sciences, Department of Applied Biosciences and Process Engineering, Bernburger Str. 55, K&#246;then, 06366, Germany</p>
             </ins>
          </insg>
          <source>BMC Biotechnology</source>
          <section>
             <title>
                <p>Protein and enzyme technology</p>
             </title>
          </section>
          <issn>1472-6750</issn>
          <pubdate>2014</pubdate>
          <volume>14</volume>
          <issue>1</issue>
          <fpage>97</fpage>
          <url>http://www.biomedcentral.com/1472-6750/14/97</url>
          <xrefbib>
             <pubidlist>
                <pubid idtype="doi">10.1186/s12896-014-0097-5</pubid>
             </pubidlist>
          </xrefbib>
       </bibl>
       <history>
          <rec>
             <date>
                <day>2</day>
                <month>4</month>
                <year>2014</year>
             </date>
          </rec>
          <acc>
             <date>
                <day>30</day>
                <month>10</month>
                <year>2014</year>
             </date>
          </acc>
          <pub>
             <date>
                <day>19</day>
                <month>11</month>
                <year>2014</year>
             </date>
          </pub>
       </history>
       <cpyrt>
          <year>2014</year>
          <collab>Fischer et al.; licensee BioMed Central Ltd.</collab>
          <note>This is an Open Access article distributed under the terms of the Creative Commons Attribution License (<url>http://creativecommons.org/licenses/by/4.0</url>), which permits unrestricted use, distribution, and reproduction in any medium, provided the original work is properly credited. The Creative Commons Public Domain Dedication waiver (<url>http://creativecommons.org/publicdomain/zero/1.0/</url>) applies to the data made available in this article, unless otherwise stated.</note>
       </cpyrt>
       <kwdg>
          <kwd>Cellobiose dehydrogenase</kwd>
          <kwd>CDH</kwd>
          <kwd>Sclerotium rolfsii </kwd>
          <kwd>Enzyme purification</kwd>
          <kwd>Lyophilisation</kwd>
          <kwd>Cryoprotection</kwd>
          <kwd>Lactobionic acid</kwd>
       </kwdg>
       <abs>
          <sec>
             <st>
                <p>Abstract</p>
             </st>
             <sec>
                <st>
                   <p>Background</p>
                </st>
                <p>The enzyme cellobiose dehydrogenase (CDH) can be used to oxidize lactose to lactobionic acid. As <it>Sclerotium rolfsii</it> is known to be a good producer of CDH, the aim of this paper was to simplify its production and secondly to systematically study its purification aiming for a high yield. Two preservation methods (freezing and freeze-drying) and the influence of several protectants were investigated.</p>
             </sec>
             <sec>
                <st>
                   <p>Results</p>
                </st>
                <p>Production of cellobiose dehydrogenase was optimized leading to a more simplified medium composition. Purification of the enzyme was evaluated by determining breakthrough profiles on different ion exchange (IEX) and hydrophobic interaction (HIC) materials with regard to buffer composition. Highest purification with an acceptable loss during the capture step using IEX was obtained with a Q Sepharose XL medium and a 100 mM sodium acetate buffer at pH 4.5. Subsequent purification using hydrophobic interaction chromatography was done at 1.1 M ammonium sulfate concentration. Purification was moderate, yielding a specific activity of 11.9 U/mg (56% yield). However, as could be shown in a preliminary experiment, purity of the obtained enzyme solution was sufficient for its intended use to oxidize lactose to lactobionic acid. Various sugars and sugar alcohols were investigated to study their protective effect during lyophilisation and freezing at -20&#176;C. Glucose and lactulose could be identified to have a high lyoprotective effect while loss of enzyme activity was high (77%) when using no additives.</p>
             </sec>
             <sec>
                <st>
                   <p>Conclusion</p>
                </st>
                <p>By simplifying the cultivation medium of <it>Sclerotium rolfsii</it>, the costs of cellobiose dehydrogenase production could be reduced. Simultaneously, CDH production was increased by 21%. The production of lactobionic acid from lactose is possible using partially purified and unpurified enzyme. Storage at -20&#176;C using 50% (w/v) glycerol was considered to be most suited for preservation of the enzyme.</p>
             </sec>
          </sec>
       </abs>
    </fm>
    <bdy>
       <sec>
          <st>
             <p>Background</p>
          </st>
          <p>Cellobiose dehydrogenase (CDH, EC 1.1.99.18) is an extracellular enzyme produced by a number of wood-degrading fungi <abbrgrp>
                <abbr bid="B1">1</abbr>
             </abbrgrp>. One of them is the plant pathogen <it>Sclerotium (Athelia) rolfsii</it> which is common in the tropics and subtropics and attacks mostly crops and vegetables. It is mainly producing cellulolytic enzymes in order to enter the host organism <abbrgrp>
                <abbr bid="B2">2</abbr>
             </abbrgrp>. The biological function of CDH is controversial. For example, CDH increases the efficiency of cellulose degradation or reduces product inhibition of cellulases by oxidizing cellobiose to the corresponding lactone <abbrgrp>
                <abbr bid="B1">1</abbr>
             </abbrgrp>,<abbrgrp>
                <abbr bid="B3">3</abbr>
             </abbrgrp>. This theory was also confirmed several years later <abbrgrp>
                <abbr bid="B4">4</abbr>
             </abbrgrp>.</p>
          <p>CDH is a monomeric protein consisting of a flavin and a heme domain. Both domains are connected by a protease-sensitive linker. When CDH is cleaved by proteases, it results in an active flavin domain and an inactive heme fragment. It is possible to distinguish between the holoenzyme and the flavin domain by using both one and two electron acceptors. Two electron acceptors like 2,6-dichlorophenol-indophenol (DCIP) can be reduced either directly at the flavin domain or via internal electron transfer at the heme domain. One electron acceptors like cytochrome c can only be used at the heme domain. Thus, they are used to detect only the intact enzyme.</p>
          <p>As indicated by its name, cellobiose is the main substrate of the enzyme <abbrgrp>
                <abbr bid="B5">5</abbr>
             </abbrgrp>&#8211;<abbrgrp>
                <abbr bid="B9">9</abbr>
             </abbrgrp> indicated by a low Michaelis Menten constant. Other cellooligosaccharides are also favoured <abbrgrp>
                <abbr bid="B10">10</abbr>
             </abbrgrp> but another common substrate is lactose. Figure&#160;<figr fid="F1">1</figr> shows the reaction mechanism using DCIP as a redox mediator. The corresponding lactone is spontaneously oxidized to lactobionic acid which is rumored to have prebiotic effects <abbrgrp>
                <abbr bid="B11">11</abbr>
             </abbrgrp>. Thus, an application in the food industry is a possible alternative to its current usage in biosensors for glucose (<abbrgrp>
                <abbr bid="B12">12</abbr>
             </abbrgrp>,<abbrgrp>
                <abbr bid="B13">13</abbr>
             </abbrgrp>) or lactose (<abbrgrp>
                <abbr bid="B14">14</abbr>
             </abbrgrp>&#8211;<abbrgrp>
                <abbr bid="B16">16</abbr>
             </abbrgrp>) and as a bleaching agent (<abbrgrp>
                <abbr bid="B17">17</abbr>
             </abbrgrp>&#8211;<abbrgrp>
                <abbr bid="B19">19</abbr>
             </abbrgrp>).
                </p>
          
             <fig id="F1">
                <title>
                   <p>Figure 1</p>
                </title>
                <caption>
                   <p>Reaction scheme of enzymatic oxidation of lactose to lactobionic acid (LBA). </p>
                </caption>
                <text>
                   <p>
                          <b>Reaction scheme of enzymatic oxidation of lactose to lactobionic acid (LBA).</b> The used enzyme system consists of cellobiose dehydrogenase (CDH) and laccase with 2,6-dichlorophenol-indophenol (DCIP) as redox mediator.</p>
                </text>
                <graphic file="s12896-014-0097-5-1"/>
             </fig>
          
          <p>As <it>Sclerotium rolfsii</it> is known to be a good producer of CDH, the aim of this paper was to simplify its production and secondly to systematically study its purification aiming for a high yield. Two preservation methods (freezing and freeze-drying) and the influence of several protectants were investigated.</p>
       </sec>
       <sec>
          <st>
             <p>Methods</p>
          </st>
          <sec>
             <st>
                <p>Organism and culture conditions</p>
             </st>
             <p>
                    <it>Sclerotium rolfsii</it> strain CBS 191.62 was obtained from the Centraalbureau voor Schimmelcultures (Baarn, The Netherlands). The fungus was maintained on glucose-maltose Sabouraud agar plates, which were inoculated with a piece (diameter 1 cm) of overgrown agar and then incubated at 30&#176;C for 5 to 7 days.</p>
             <p>A medium propagated by Sachslehner et al. <abbrgrp>
                   <abbr bid="B2">2</abbr>
                </abbrgrp> was used in some studies. It contained 43 g/L &#945;-Cellulose, 80 g/L peptone from meat, 2.5 g/L NH<sub>4</sub>NO<sub>3</sub>, 1.5 g/L MgSO<sub>4</sub> x 7H<sub>2</sub>O, 1.2 g/L KH<sub>2</sub>PO<sub>4</sub>, 0.6 g/L KCl , and 0.3 ml/L trace element solution (1.0 g/L ZnSO<sub>4</sub> x H<sub>2</sub>O, 0.3 g/L MnCl<sub>2</sub> x 4H<sub>2</sub>O, 3.0 g/L H<sub>3</sub>BO<sub>3</sub>, 2.0 g/L CoCl<sub>2</sub> x 6H<sub>2</sub>O, 0.1 g/L CuSO<sub>4</sub> x 5H<sub>2</sub>O, 0.2 g/L NiCl<sub>2</sub>x 6H<sub>2</sub>O and 4.0 ml/L conc. H<sub>2</sub>SO<sub>4</sub>). The natural pH of the medium was 5.5. For optimizing the culture conditions of <it>Sclerotium rolfsii</it> with regard to maximum production of cellobiose dehydrogenase, start pH was varied (5.5, 5.0 and 4.0) by adding appropriate amounts of phosphoric acid. Additionally, a pH-stat method for a start pH value of 5.5 was carried out by measuring and readjusting the pH to 5.5 with 5 M NaOH on a daily basis.</p>
             <p>Further, the composition of the medium was modified. The medium of Sachslehner et al. <abbrgrp>
                   <abbr bid="B2">2</abbr>
                </abbrgrp> was used as a reference. First, single salts were omitted from the medium described above to evaluate their influence on enzyme production. In a second series, a basal medium containing 43 g/L &#945;-Cellulose, 80 g/L peptone from meat and 0.3 ml/L trace element solution was used. NH<sub>4</sub>NO<sub>3</sub>, MgSO<sub>4</sub>, KH<sub>2</sub>PO<sub>4</sub>, KCl or none of them were added (amounts as in the reference medium).</p>
             <p>All experiments were carried out in 300 ml unbaffled Erlenmeyer flasks containing 100 ml culture medium. Flasks were inoculated with 2 agar plugs (diameter 1 cm) of a freshly grown culture and incubated at 30&#176;C and 150 rpm until enzyme activity remained constant. Samples of 1 ml were withdrawn starting after 7 days of incubation and analyzed for enzyme activity.</p>
          </sec>
          <sec>
             <st>
                <p>Enzyme purification</p>
             </st>
             <p>First, the mycelia were separated from the cultivation medium containing the CDH enzyme by filtration using a folded filter. This crude enzyme extract was desalted and concentrated to about one fifth of its initial volume using a Vivacell 250 filtration device (Sartorius AG, Germany) equipped with a PES membrane having a MWCO of 50 kDa. Within two dialysis steps and applying a pressure of 4 bar, conductivity was reduced from about 18 mS/cm to about 1 mS/cm indicating a successful salt removal. No enzyme loss was detected during this step.</p>
             <p>Enzyme purification was carried out on an &#196;KTA Prime Plus system (GE Healthcare) equipped with a 150 ml superloop for the application of large sample volumes. Different adsorbents for anion exchange (DEAE Sepharose FF as a weak and Q Sepharose XL as a strong ion exchanger, column volume: 5 ml, both by GE Healthcare) and hydrophobic interaction chromatography (Butyl-S FF, Butyl FF, Octyl FF, Phenyl HP, Phenyl FF (low sub), column volume: 1 ml, all by GE Healthcare) were tested to optimize purification procedure. With IEX, binding capacity was determined at various pH values (50 mM sodium acetate buffer) and buffer concentrations (20 &#8211; 200 mM sodium acetate, pH 4.5) by applying 110 ml of desalted and appropriately diluted crude enzyme extract (final concentration about 3 U/ml) onto the column. Fractions (2 ml) of the flow-through were collected and analyzed for CDH activity to determine a breakthrough profile. Also, elution conditions were optimized by analyzing the collected fractions for enzyme activity and protein content. Fractions having a higher specific activity than the applied sample were pooled. Ammonium sulfate precipitation was carried out by adding an appropriate amount of a 3.8 M solution to obtain the desired saturation before applying the sample to various HIC columns. Concentration and composition of the starting buffer were optimized as well.</p>
          </sec>
          <sec>
             <st>
                <p>Preservation of the enzyme</p>
             </st>
             <p>Seven sugars and two sugar alcohols were tested for their ability to serve as lyo- or cryoprotectants for CDH. Therefore 1 ml of purified enzyme solution (containing 11 U/ml) and 0.5 ml of lyoprotectant solution (to give a final concentration of 10 &#956;mol per unit CDH) were mixed and either frozen at -20&#176;C or freeze dried in 1.5 ml Eppendorf tubes. Freeze-drying was carried out in an Alpha 1-4 freeze-dryer (Martin Christ Gefriertrocknungsanlagen GmbH, Germany). Plate temperature was set to -50&#176;C and within 3 hours a product temperature of -28&#176;C was obtained. Vacuum (0.005 mbar) was applied and plate temperature was set to 30&#176;C. The process was stopped after 4 to 5 days when product temperature was positive. Samples were rehydrated with 1 ml water immediately after drying and analyzed for residual enzyme activity. Frozen samples were thawed after 60 and 160 hours and also assayed for remaining CDH activity.</p>
          </sec>
          <sec>
             <st>
                <p>Enzyme activity assay</p>
             </st>
             <p>For measuring the enzyme concentration, the DCIP assay as propagated by Baminger et al. <abbrgrp>
                   <abbr bid="B20">20</abbr>
                </abbrgrp> was used. Therefore, 100 &#956;l 300 mM lactose, 20 &#956;l 200 mM NaF and 760 &#956;l 100 mM sodium acetate buffer pH 4.0 were incubated at 30&#176;C for at least 10 minutes before analysis. A solution of 3 mM DCIP (containing 10% v/v ethanol) was tempered separately. For analysis, 100 &#956;l of DCIP solution were added to the lactose/NaF/buffer mixture and 20 &#956;l appropriately diluted sample solution was added. After mixing the reduction of DCIP was measured at 520 nm every 5 seconds for 3 minutes. The extinction coefficient for DCIP at 520 nm and pH 4.0 was determined to be 6.9 mM<sup>&#8722;1</sup> cm<sup>&#8722;1</sup>. One unit was defined as the amount of enzyme that reduces 1 &#956;mol DCIP per minute under the described assay conditions.</p>
          </sec>
          <sec>
             <st>
                <p>Protein determination</p>
             </st>
             <p>Protein content was determined according to the Bradford method <abbrgrp>
                   <abbr bid="B21">21</abbr>
                </abbrgrp>. Therefore 100 &#956;l appropriately diluted sample solution were mixed with 1 ml of Bradford reagent (Roti&#174;-Quant, Carl Roth GmbH, Germany) and incubated for 10 minutes at room temperature. Extinction was measured at 595 nm. Bovine serum albumin was used as a standard.</p>
          </sec>
          <sec>
             <st>
                <p>Application of CDH for lactobionic acid synthesis</p>
             </st>
             <p>The partial purified enzyme as well as the crude enzyme extract were used in a 4.8% lactose solution to synthesise lactobionic acid. Enzyme substrate ratio was set to 70 DCIP-Units per gram lactose. DCIP (1 &#956;mol/unit CDH) was used as a redox mediator and laccase from <it>Trametes versicolor</it> (Sigma Aldrich, Germany) was added in a 5-fold excess over CDH activity. Reaction was carried out in a water bath at 35&#176;C and 200 rpm. Samples were analyzed for glucose, galactose, lactose and lactobionic acid using HPLC. The column was a Hi-Plex Na column (300 mm x 7.7 mm from Agilent Technologies Deutschland GmbH) which was used at 0.3 mLmin<sup>&#8722;1</sup> (eluent 0.2% sodium azide in water) and 80&#176;C.</p>
          </sec>
       </sec>
       <sec>
          <st>
             <p>Results and discussion</p>
          </st>
          <sec>
             <st>
                <p>Influence of culture conditions on CDH yield</p>
             </st>
             <sec>
                <st>
                   <p>Influence of pH</p>
                </st>
                <p>Figure&#160;<figr fid="F2">2</figr> shows the influence of the starting pH of the medium. At pH 5.0 CDH production begins noticeably at day 10, continues to rise straight and reaches a value of 7.3 U/ml after 17 days. With a slightly higher pH of 5.5 CDH production started a little earlier (day 7) and was significantly higher until day 10. Thenceforward the measured enzyme activity was a little higher compared to a starting pH of 5.0 but that difference was not significant. Also, after 17 days the produced enzyme amount was the same as with pH 5.0. Although cultivation at a starting pH of 5.5 seemed to be a little instable (as indicated by high standard deviations), this value was used for further studies as 5.5 is the natural pH of the medium and therefore no adjustment is necessary. There was only very little (0.1 U/ml) CDH production at a pH of 4.0 (data not shown). Therefore this pH is not suitable.
                    </p>
                
                   <fig id="F2">
                      <title>
                         <p>Figure 2</p>
                      </title>
                      <caption>
                         <p>Influence of start pH on CDH production by </p>
                      </caption>
                      <text>
                         <p>
                              <b>Influence of start pH on CDH production by</b>                              
                            <b>
                               <it>S. rolfsii</it> 
                           </b>                              
                            <b>.</b> pH 5.5 (&#9830;, n&#8201;=&#8201;18), pH 5.0 (&#9679;, n&#8201;=&#8201;4).</p>
                      </text>
                      <graphic file="s12896-014-0097-5-2"/>
                   </fig>
                
                <p>Since the pH of the culture medium shifts to lower levels during cultivation, it was assumed using a pH-stat method to cultivate at a constant pH value of 5.5 might further enhance CDH production. Therefore, an appropriate amount of 5 M NaOH was added on a daily basis. However, a maximum enzyme concentration of only 2.6 U/ml was reached after 13 days. It then slightly dropped down to 2.3 U/ml and remained on that level until the end of the experiment after 21 days. CDH production using cultivation without pH adjustment was 3 times higher at that time. Consequently, control of pH is not favorable.</p>
             </sec>
             <sec>
                <st>
                   <p>Influence of medium composition</p>
                </st>
                <p>Influence of medium composition was studied by omitting a particular salt in the medium proposed by Sachslehner et al. <abbrgrp>
                      <abbr bid="B2">2</abbr>
                   </abbrgrp>. The latter was used as a reference medium. As can be seen from Figure&#160;<figr fid="F3">3</figr>, enzyme activity in the reference medium is constantly increasing from day 7 to 13 and then maintains at a nearly constant level from day 14 to 20.
                    </p>
                
                   <fig id="F3">
                      <title>
                         <p>Figure 3</p>
                      </title>
                      <caption>
                         <p>CDH production by </p>
                      </caption>
                      <text>
                         <p>
                              <b>CDH production by</b>                              
                            <b>
                               <it>S. rolfsii</it> 
                           </b>                              
                            <b>.</b> reference medium (&#9830;, n&#8201;=&#8201;4), medium lacking individual salts (without NH<sub>4</sub>NO<sub>3</sub> (&#9674;)/KCl (&#916;): n&#8201;=&#8201;3, without KH<sub>2</sub>PO<sub>4</sub> (&#9633;)/MgSO<sub>4</sub> (&#9675;): n&#8201;=&#8201;2).</p>
                      </text>
                      <graphic file="s12896-014-0097-5-3"/>
                   </fig>
                
                <p>KH<sub>2</sub>PO<sub>4</sub> seems to have a negative impact on enzyme production as when omitting this salt, a significantly higher enzyme concentration could be reached as can be seen clearly from the data at days 14 to 17. Although, compared to the reference medium there seems to be a small decline in enzyme concentration with ongoing cultivation, so that at day 20 enzyme activity reached the same value (6.3 U/ml). The same can be conclude for NH<sub>4</sub>NO<sub>3</sub> as there is significantly higher enzyme production from day 12 to 20 when this salt is omitted. In contrast to KH<sub>2</sub>PO<sub>4</sub>, enzyme concentration is enhanced until the end of the experiment resulting in about 15% higher CDH concentration compared to the reference medium. On the other hand, KCl and MgSO<sub>4</sub> seem to have no impact on CDH production as when omitting these salts no significant difference in enzyme production was observed. However, there might be a tendency that CDH is depleted by the fungus if cultivation would be continued as indicated by considerably lower enzyme activity values at day 20.</p>
                <p>A second approach was used to gain more insight in the influence of each salt. At that none or only one salt at a time was added to a basal medium containing only &#945;-cellulose, peptone from meat and trace element solution (amounts as in the reference medium). In all cases enzyme production by <it>S. rolfsii</it> started at the same time and reached a maximum at day 19. There were no significant differences in CDH production in the first 15 days but the influence of all salts became more pronounced later (data not shown). As can be seen in Figure&#160;<figr fid="F4">4</figr>, no matter which salt was added, CDH production was higher compared to the reference medium. The effect was only marginal with KCl and NH<sub>4</sub>NO<sub>3</sub> but more distinct when adding KH<sub>2</sub>PO<sub>4</sub> or MgSO<sub>4</sub>. This is in contrast to the results presented above which showed no effect of MgSO<sub>4</sub> and a negative impact of KH<sub>2</sub>PO<sub>4</sub>. However, with the presence of other salts, the conditions were different and therefore the impact of the individual salts could play a diverse role. As was expected, adding none of the tested salts to the basal medium also resulted in significantly higher enzyme concentration. On day 19, 21% more enzyme was produced in the medium containing &#945;-cellulose, peptone from meat and trace element solution than in the reference medium. CDH concentration began to decline afterwards so one has to be careful to choose the right harvesting time. Also, when additionally omitting the trace element solution (i.e. only cultivating the fungus in &#945;-cellulose and meat peptone solution), a similar CDH production was observed (data not shown).
                    </p>
                
                   <fig id="F4">
                      <title>
                         <p>Figure 4</p>
                      </title>
                      <caption>
                         <p>CDH production by </p>
                      </caption>
                      <text>
                         <p>
                              <b>CDH production by</b>                              
                            <b>
                               <it>S. rolfsii</it> 
                           </b>                              
                            <b>after 19 days of cultivation in different culture media.</b> reference n&#8201;=&#8201;6, NH<sub>4</sub>No<sub>3</sub> n&#8201;=&#8201;3, KH<sub>2</sub>PO<sub>4</sub> n&#8201;=&#8201;2, KCl n&#8201;=&#8201;4, MgSO<sub>4</sub> n&#8201;=&#8201;5, without salts n&#8201;=&#8201;5.</p>
                      </text>
                      <graphic file="s12896-014-0097-5-4"/>
                   </fig>
                
                <p>Using the same cultivation method (flasks containing 100 ml medium), Sachslehner et al. <abbrgrp>
                      <abbr bid="B2">2</abbr>
                   </abbrgrp> obtained an enzyme activity of 3.6 U/ml after 13 days of cultivation. Ludwig and Haltrich <abbrgrp>
                      <abbr bid="B22">22</abbr>
                   </abbrgrp> achieved an enzyme concentration of 4.1 U/ml after 14 days. In 2003 they reported about 7 U/ml in the same medium after 13 days <abbrgrp>
                      <abbr bid="B23">23</abbr>
                   </abbrgrp>. With reducing peptone from meat to 20 g/L and adding 30 g/L leucine instead, 11 U/ml were obtained after 13 days. This good result could not be confirmed in the present study as enzyme production using this medium composition was very low (1.2&#8201;&#177;&#8201;0.9 U/ml after 16 days (n&#8201;=&#8201;4)). The difference might be due to the usage of meat peptone from different suppliers therefore resulting in a different composition.</p>
             </sec>
          </sec>
          <sec>
             <st>
                <p>Enzyme purification</p>
             </st>
             <sec>
                <st>
                   <p>Optimization of ion exchange chromatography</p>
                </st>
                <p>To choose an appropriate anion exchange medium, the binding capacity of two materials was determined by applying 350 units onto the column and determining breakthrough curves. As can be seen from Figure&#160;<figr fid="F5">5</figr>, with the weak anion exchange medium (DEAE Sepharose FF) the breakthrough was negligible until about 50 units were applied. After that, the amount of unbound enzyme increases linearly thus reaching a value of c/c<sub>0</sub> of 100% (meaning the sample leaves the column as it is, no more enzyme binds onto the column) after 350 units were applied. In contrast, with the strong anion exchanger (Q Sepharose XL) at the same pH of 5.0, the breakthrough profile always stays below 10% therefore indicating to be more suitable for CDH binding in general.
                    </p>
                
                   <fig id="F5">
                      <title>
                         <p>Figure 5</p>
                      </title>
                      <caption>
                         <p>Breakthrough curves for CDH at pH 5.0. </p>
                      </caption>
                      <text>
                         <p>
                              <b>Breakthrough curves for CDH at pH 5.0.</b> DEAE Sepharose FF (&#9830;), Q Sepharose XL (&#9674;).</p>
                      </text>
                      <graphic file="s12896-014-0097-5-5"/>
                   </fig>
                
                <p>Hence, the CDH breakthrough profiles for various pH values were studied using Q Sepharose XL. A pH of 4.5 is very close to the isoelectric point of the enzyme (as reported to be 4.2 <abbrgrp>
                      <abbr bid="B24">24</abbr>
                   </abbrgrp>), however the breakthrough stays below 5% until 140 units are applied (Figure&#160;<figr fid="F6">6</figr>). After that, enzyme loss increases exponentially reaching 100% breakthrough after 215 units were applied. Even higher c/c<sub>0</sub> values were obtained meaning that not only no enzyme from the feed solution binds but also that most of the already bound enzyme is washed from the column. When setting the start buffer to a pH of 5.5 or 6.0 the maximum breakthrough is 6% and 3% respectively. Table&#160;<tblr tid="T1">1</tblr> shows the calculated dynamic binding capacity (defined at 5% breakthrough) for CDH for both columns at the studied pH values. For pH 6.0 dynamic binding capacity could not be determined properly as breakthrough stayed below the critical value of 5%. As can be seen, with the DEAE Sepharose FF column the dynamic binding capacity and therefore the amount of enzyme that should be applied to the column to keep loss at a minimum, is very low (about 60 units) compared to the dynamic binding capacity with the Q Sepharose XL column (about 180 units). As can be seen from Table&#160;<tblr tid="T1">1</tblr>, dynamic binding capacity is rising with increasing pH. This can be explained by a stronger net charge of the enzyme and therefore a better binding of CDH to the column material. In theory, when using pH values closer to the isoelectric point, the binding of other proteins should be less. However, as can be seen from Table&#160;<tblr tid="T1">1</tblr>, this effect is marginal as the specific enzyme activity determined in the elution peak is only a little higher at pH 4.5 (only 160 units were applied as otherwise all enzyme would be lost during sample application and wash) than at the other pH values studied. But, more other proteins compared to CDH bind on the DEAE Sepharose FF column as indicated by the low specific activity of 1 U/mg which is another reason for not choosing this material for purification. Nevertheless, Baminger et al. <abbrgrp>
                      <abbr bid="B24">24</abbr>
                   </abbrgrp> used a DEAE Sepharose FF column as a capture step with a good purification effect. However, this result could not be obtained during this study (purification fold about 2.3 when applying 50 units).
                      
                    </p>
                
                   <fig id="F6">
                      <title>
                         <p>Figure 6</p>
                      </title>
                      <caption>
                         <p>Breakthrough curves for CDH on Q Sepharose XL. </p>
                      </caption>
                      <text>
                         <p>
                              <b>Breakthrough curves for CDH on Q Sepharose XL.</b> pH 4.5 (&#9675;) on the left axis, pH 5.0 (&#9674;), 5.5 (&#916;) and 6.0 (&#9633;) on the right axis.</p>
                      </text>
                      <graphic file="s12896-014-0097-5-6"/>
                   </fig>
                
                
                   <table id="T1">
                      <title>
                         <p>Table 1</p>
                      </title>
                      <caption>
                         <p>
                              <b>dynamic binding capacity determined at 5% breakthrough and specific enzyme activity in the elute</b>                            
                         </p>
                      </caption>
                      <tgroup align="left" cols="4">
                         <colspec align="left" colname="c1" colnum="1" colwidth="*"/>
                         <colspec align="left" colname="c2" colnum="2" colwidth="*"/>
                         <colspec align="left" colname="c3" colnum="3" colwidth="*"/>
                         <colspec align="left" colname="c4" colnum="4" colwidth="*"/>
                         <thead>
                            <row valign="top">
                               <entry colname="c1">
                                  <p>
                                     <b>Column</b>                                
                                  </p>
                               </entry>
                               <entry colname="c2">
                                  <p>
                                     <b>pH value</b>                                
                                  </p>
                               </entry>
                               <entry colname="c3">
                                  <p>
                                     <b>Dynamic binding capacity (Units)</b>                                
                                  </p>
                               </entry>
                               <entry colname="c4">
                                  <p>
                                     <b>Specific activity (U/mg)</b>                                
                                  </p>
                               </entry>
                            </row>
                         </thead>
                         <tbody>
                            <row valign="top">
                               <entry colname="c1">
                                  <p>Q Sepharose XL</p>
                               </entry>
                               <entry colname="c2">
                                  <p>4.5</p>
                               </entry>
                               <entry colname="c3">
                                  <p>140</p>
                               </entry>
                               <entry colname="c4">
                                  <p>1.6</p>
                               </entry>
                            </row>
                            <row valign="top">
                               <entry colname="c1">
                                  <p>Q Sepharose XL</p>
                               </entry>
                               <entry colname="c2">
                                  <p>5.0</p>
                               </entry>
                               <entry colname="c3">
                                  <p>180</p>
                               </entry>
                               <entry colname="c4">
                                  <p>1.5</p>
                               </entry>
                            </row>
                            <row valign="top">
                               <entry colname="c1">
                                  <p>Q Sepharose XL</p>
                               </entry>
                               <entry colname="c2">
                                  <p>5.5</p>
                               </entry>
                               <entry colname="c3">
                                  <p>210</p>
                               </entry>
                               <entry colname="c4">
                                  <p>1.5</p>
                               </entry>
                            </row>
                            <row valign="top">
                               <entry colname="c1">
                                  <p>Q Sepharose XL</p>
                               </entry>
                               <entry colname="c2">
                                  <p>6.0</p>
                               </entry>
                               <entry colname="c3">
                                  <p>&gt; 350</p>
                               </entry>
                               <entry colname="c4">
                                  <p>1.5</p>
                               </entry>
                            </row>
                            <row valign="top">
                               <entry colname="c1">
                                  <p>DEAE Sepharose FF</p>
                               </entry>
                               <entry colname="c2">
                                  <p>5.0</p>
                               </entry>
                               <entry colname="c3">
                                  <p>62</p>
                               </entry>
                               <entry colname="c4">
                                  <p>1.0</p>
                               </entry>
                            </row>
                         </tbody>
                      </tgroup>
                   </table>
                
                <p>Next, ionic strength of the starting buffer was varied from 20 mM to 200 mM sodium acetate (pH 4.5) to determine the maximum possible molarity where CDH still binds but most of the other proteins do not. About 130 units CDH were applied to stay below the previously determined dynamic binding capacity. Three samples were taken from each run and analyzed for CDH activity and protein content during sample application, washing, and elution. As expected, the amount of total bound protein is decreasing with increasing ionic strength (Figure&#160;<figr fid="F7">7</figr>). Concurrent, about 95% of the applied CDH is bound to the column at buffer concentrations from 20 to 50 mM. As a consequence, the purification factor is rising. At a sodium acetate concentration of 100 mM only 87.5% of the enzyme is bound. However, the purification is better because simultaneously to some enzyme loss, a comparatively larger amount of other proteins is also not able to bind. Indeed, when the start buffer has a concentration of 200 mM, nearly the entire enzyme is eluted during sample application and washing therefore resulting in a loss of 95%. A loss of about 12.5% as detected at 100 mM was decided to be acceptable. Therefore this ionic strength was used in further studies.
                    </p>
                
                   <fig id="F7">
                      <title>
                         <p>Figure 7</p>
                      </title>
                      <caption>
                         <p>CDH purification as a function of buffer concentration on Q Sepharose XL. </p>
                      </caption>
                      <text>
                         <p>
                              <b>CDH purification as a function of buffer concentration on Q Sepharose XL.</b> amount of bound CDH units (&#9830;, left axis), total protein (&#9650;, left axis), purification factor (&#9675;, right axis).</p>
                      </text>
                      <graphic file="s12896-014-0097-5-7"/>
                   </fig>
                
                <p>Elution conditions were optimized by first using a linear gradient from 0 to 0.4 M NaCl in 100 mM sodium acetate buffer at various pH values (4.5, 6.0 and 8.0) in 20 column volumes (CV). Two not well resolved peaks were obtained when eluting with the same pH (4.5) as was used during sample application and wash. CDH eluted mainly in the first peak but had a distinct tailing into the second peak (Figure&#160;<figr fid="F8">8</figr>). When setting the pH to 6.0, peak separation was better because a number of other proteins were more strongly retained onto the column compared to CDH. Thus, purification factor was rising from 3.3 to 4.7. With further increasing of the pH to 8.0 CDH was also bound more strongly to the column material, i.e. some other proteins eluted first, followed by CDH and more proteins from this complex mixture. The purification factor remained the same (4.7). A pH value of 6.0 was considered to be most suited for elution.
                    </p>
                
                   <fig id="F8">
                      <title>
                         <p>Figure 8</p>
                      </title>
                      <caption>
                         <p>Elution profiles of CDH on Q Sepharose XL at various pH values. </p>
                      </caption>
                      <text>
                         <p>
                              <b>Elution profiles of CDH on Q Sepharose XL at various pH values.</b> pH 4.5 (CDH &#9674;, A<sub>280nm</sub> straight line), pH 6.0 (CDH &#9675;, A<sub>280nm</sub> dashed line), pH 8.0 (CDH &#916;, A<sub>280nm</sub> fine dashed line), elution buffer was 1 M NaCl in 100 mM sodium acetate, gradient from 0 to 0.4 M NaCl in 20 CV.</p>
                      </text>
                      <graphic file="s12896-014-0097-5-8"/>
                   </fig>
                
             </sec>
             <sec>
                <st>
                   <p>Optimization of hydrophobic interaction chromatography</p>
                </st>
                <p>To choose an appropriate hydrophobic interaction medium for the second purification step, the binding properties of several materials was determined by applying 30 units onto the columns and determining breakthrough curves. From the various columns tested, only Phenyl HP was suited for CDH purification as with the other columns CDH binding was weak indicated by high c/c<sub>0</sub> values right from the beginning of sample application (data not shown). Using Butyl-S FF, Octyl FF and Phenyl FF low sub the entire enzyme was lost during sample application and washing. With the Butyl-FF column some of the enzyme was bound but loss was still high with 70%. Therefore all further experiments were carried out with a Phenyl HP column.</p>
                <p>Next, ammonium sulfate concentration (0.5 M, 0.9 M, and 1.1 M) in the starting buffer was varied. Also, the effect of adding NaCl (0.2 M, 2.1 M) was studied. An ammonium sulfate concentration of 0.5 M is too low which could also be seen from the breakthrough profile as most of the enzyme was not bound therefore resulting in a high loss of nearly 70%. Raising the concentration of (NH<sub>4</sub>)<sub>2</sub>SO<sub>4</sub> to 0.9 M (as was used by Baminger et al. <abbrgrp>
                      <abbr bid="B24">24</abbr>
                   </abbrgrp> on a Phenyl Resource column) was also not sufficient as most of the target enzyme was eluting during the washing step (loss about 60%). Thus, 1.1 M ammonium sulfate was used as loss was only a third (19%). When adding 0.2 M NaCl to the starting buffer, enzyme loss could be minimized (about 10%). A further increase of NaCl to 2.1 M resulted in an enhanced binding of other proteins which in turn resulted in a worse separation during elution. To gain a certain specific activity more enzyme loss would have to be taken into account.</p>
             </sec>
             <sec>
                <st>
                   <p>Tandem purification protocol</p>
                </st>
                <p>A method was established that combined IEX and HIC to purify CDH further since enzyme purification using either IEX or HIC was not sufficient. As higher enzyme loading is possible for IEX on Q Sepharose XL, a pH of 5.0 was chosen for the starting buffer (100 mM sodium acetate). Sample solution was diluted 2-fold with starting buffer (resulting in about 20 U/ml) and applied to the column at a speed of 1 ml/min. All further steps were carried out at 5 ml/min. The optimized elution profile includes a linear increase from 0 to 0.15 M NaCl in 8 CV, a hold at 0.15 M NaCl for 4 CV and a stepwise increase to 1 M NaCl (hold 7 CV). After an ammonium sulfate precipitation the supernatant was applied to HIC on a Phenyl HP column (volume: 5 ml). The equilibration buffer contained 1.1 M ammonium sulfate and 0.2 M NaCl in 100 mM sodium acetate buffer pH 5.0. Flow rate was set to 5 ml/min for the entire procedure. Elution was performed by increasing buffer B (50 mM sodium acetate pH 5.0) from 0 to 100% in 8 CV. Table&#160;<tblr tid="T2">2</tblr> shows the overall purification protocol.
                    </p>
                
                   <table id="T2">
                      <title>
                         <p>Table 2</p>
                      </title>
                      <caption>
                         <p>
                              <b>Purification of cellobiose dehydrogenase from</b>                              
                            <b>
                               <it>Sclerotium rolfsii</it> 
                           </b>                            
                         </p>
                      </caption>
                      <tgroup align="left" cols="6">
                         <colspec align="left" colname="c1" colnum="1" colwidth="*"/>
                         <colspec align="left" colname="c2" colnum="2" colwidth="*"/>
                         <colspec align="left" colname="c3" colnum="3" colwidth="*"/>
                         <colspec align="left" colname="c4" colnum="4" colwidth="*"/>
                         <colspec align="left" colname="c5" colnum="5" colwidth="*"/>
                         <colspec align="left" colname="c6" colnum="6" colwidth="*"/>
                         <thead>
                            <row valign="top">
                               <entry colname="c1">
                                  <p>
                                     <b>Purification step</b>                                
                                  </p>
                               </entry>
                               <entry colname="c2">
                                  <p>
                                     <b>CDH activity (Units)</b>                                
                                  </p>
                               </entry>
                               <entry colname="c3">
                                  <p>
                                     <b>Total protein (mg)</b>                                
                                  </p>
                               </entry>
                               <entry colname="c4">
                                  <p>
                                     <b>Specific activity (U/mg)</b>                                
                                  </p>
                               </entry>
                               <entry colname="c5">
                                  <p>
                                     <b>Purification fold</b>                                
                                  </p>
                               </entry>
                               <entry colname="c6">
                                  <p>
                                     <b>Yield (%)</b>                                
                                  </p>
                               </entry>
                            </row>
                         </thead>
                         <tbody>
                            <row valign="top">
                               <entry colname="c1">
                                  <p>Crude extract</p>
                               </entry>
                               <entry colname="c2">
                                  <p>1173</p>
                               </entry>
                               <entry colname="c3">
                                  <p>1112</p>
                               </entry>
                               <entry colname="c4">
                                  <p>1.1</p>
                               </entry>
                               <entry colname="c5">
                                  <p>1.0</p>
                               </entry>
                               <entry colname="c6">
                                  <p>100</p>
                               </entry>
                            </row>
                            <row valign="top">
                               <entry colname="c1">
                                  <p>IEX (Q Sepharose XL)</p>
                               </entry>
                               <entry colname="c2">
                                  <p>974</p>
                               </entry>
                               <entry colname="c3">
                                  <p>456</p>
                               </entry>
                               <entry colname="c4">
                                  <p>2.1</p>
                               </entry>
                               <entry colname="c5">
                                  <p>2.0</p>
                               </entry>
                               <entry colname="c6">
                                  <p>83</p>
                               </entry>
                            </row>
                            <row valign="top">
                               <entry colname="c1">
                                  <p>(NH<sub>4</sub>)<sub>2</sub>SO<sub>4</sub> precipitation</p>
                               </entry>
                               <entry colname="c2">
                                  <p>750</p>
                               </entry>
                               <entry colname="c3">
                                  <p>398</p>
                               </entry>
                               <entry colname="c4">
                                  <p>1.9</p>
                               </entry>
                               <entry colname="c5">
                                  <p>1.8</p>
                               </entry>
                               <entry colname="c6">
                                  <p>64</p>
                               </entry>
                            </row>
                            <row valign="top">
                               <entry colname="c1">
                                  <p>HIC (Phenyl HP)</p>
                               </entry>
                               <entry colname="c2">
                                  <p>661</p>
                               </entry>
                               <entry colname="c3">
                                  <p>56</p>
                               </entry>
                               <entry colname="c4">
                                  <p>11.9</p>
                               </entry>
                               <entry colname="c5">
                                  <p>11.3</p>
                               </entry>
                               <entry colname="c6">
                                  <p>56</p>
                               </entry>
                            </row>
                         </tbody>
                      </tgroup>
                   </table>
                
                <p>However, the obtained enzyme solution after hydrophobic interaction chromatography still contains some other proteins than CDH as could be detected by SDS-PAGE, i.e. the final enzyme solution is not 100% pure. To evaluate if the other proteins have a negative effect on the oxidation of lactose to lactobionic acid (i.e. hydrolysis into glucose and galactose catalyzed by enzymes like &#945;-galactosidase or &#946;-glucosidase which are also produced by the fungus <abbrgrp>
                      <abbr bid="B2">2</abbr>
                   </abbrgrp>), the enzyme solution was used in a 4.8% lactose solution. For comparison, the crude enzyme extract was used in another experiment.</p>
                <p>As can be seen clearly from Figure&#160;<figr fid="F9">9</figr>A, using unpurified extract leads to high amounts of glucose and galactose caused by &#945;-galactosidases or &#946;-glucosidases as described before. Thus, yield of lactobionic acid was only 45%. Using partial purified enzyme as described in this paper (Figure&#160;<figr fid="F9">9</figr>B), only minor amounts of monosaccharides (3% galactose, 2.5% glucose) could be detected and therefore the obtained purity is sufficient for the intended use of CDH. In 27 hours it was possible to obtain a lactobionic acid yield of 94% which is more than twice as much compared to the crude enzyme solution. However, one might also consider using the unpurified extract depending on the exact application, thus saving costs for enzyme purification. Lactobionic acid might further be tested regarding its potential prebiotic effect <abbrgrp>
                      <abbr bid="B11">11</abbr>
                   </abbrgrp>. The tolerance in humans is already shown <abbrgrp>
                      <abbr bid="B25">25</abbr>
                   </abbrgrp>. It can further be used as a calcium salt in food applications as a stabilizer. It is also commonly used in the Wisconsin transplantation solution as an organ preservative <abbrgrp>
                      <abbr bid="B26">26</abbr>
                   </abbrgrp>.
                    </p>
                
                   <fig id="F9">
                      <title>
                         <p>Figure 9</p>
                      </title>
                      <caption>
                         <p>Oxidation of lactose using crude enzyme extract (A) and purified enzyme (B). </p>
                      </caption>
                      <text>
                         <p>
                              <b>Oxidation of lactose using crude enzyme extract (A) and purified enzyme (B).</b> lactobionic acid (&#9674;), glucose (&#9675;), galactose (&#916;), lactose (&#9830;).</p>
                      </text>
                      <graphic file="s12896-014-0097-5-9"/>
                   </fig>
                
             </sec>
          </sec>
          <sec>
             <st>
                <p>Preservation of purified CDH</p>
             </st>
             <p>Experiments for evaluating two possibilities (freezing and freeze-drying) to preserve CDH were carried out at high enzyme concentration (11,000 U/L) as residual activity is generally higher at higher enzyme concentration <abbrgrp>
                   <abbr bid="B27">27</abbr>
                </abbrgrp>,<abbrgrp>
                   <abbr bid="B28">28</abbr>
                </abbrgrp>. Sugars are known to be effective in stabilizing enzymes during freeze-drying therefore acting as lyoprotectants <abbrgrp>
                   <abbr bid="B27">27</abbr>
                </abbrgrp>,<abbrgrp>
                   <abbr bid="B29">29</abbr>
                </abbrgrp>,<abbrgrp>
                   <abbr bid="B30">30</abbr>
                </abbrgrp> but no studies on CDH recovery during freeze-drying are known so far.</p>
             <p>Figure&#160;<figr fid="F10">10</figr> shows the residual CDH activity compared to the sample before freezing or freeze-drying. As can be seen, without using a lyoprotectant most of the CDH is inactivated during freeze-drying leaving a residual activity of only 23%. Glycerol could stabilize the enzyme to some extent while mannitol could not. In general, it was more effective using sugars as stabilizing agents than sugar alcohols. With glucose and lactulose no loss in activity was observed. With the other disaccharides lactose, cellobiose, and maltose over 80% of CDH could be retained while galactose and raffinose are considered to be less effective. However, residual activity was a lot higher compared to the two sugar alcohols tested.
                  </p>
             
                <fig id="F10">
                   <title>
                      <p>Figure 10</p>
                   </title>
                   <caption>
                      <p>Preservation of CDH. </p>
                   </caption>
                   <text>
                      <p>
                            <b>Preservation of CDH.</b> The figure shows the residual CDH activity after lyophilisation (dark grey) or freezing after 60 hours (light grey) or 160 hours (white) in the absence (none) or presence of different lyoprotectants (10 &#956;mol/unit), n&#8201;=&#8201;3.</p>
                   </text>
                   <graphic file="s12896-014-0097-5-10"/>
                </fig>
             
             <p>In another series, storage of the enzyme at -20&#176;C was evaluated. In general, a solution of 50% (w/v) glycerol is often used when trying to make enzymes storable. Therefore, as expected, using high glycerol concentrations gave a residual activity of 100% after 60 hours of storage. However, after 160 hours a small decline is observed. Also, glucose seems to be very effective although enzyme stability might not be satisfying as indicated by the relatively high drop in CDH activity after 160 hours compared to stable activity values when using lactose, glycerol, mannitol or no lyoprotectant. On the other hand, cellobiose clearly has a negative effect in enzyme stability during freezing as residual activity values are below the ones when using no additives. Raffinose, similar to glucose, is stabilizing the enzyme at the beginning of the process but with prolonged storage it seems to be less effective and therefore being not suitable.</p>
             <p>Generally, freezing at -20&#176;C effects enzyme activity to a much lesser extent than freeze-drying as can be seen from the data when using no further agents. Although it is shown that with adding glucose or lactulose no activity is lost, the process of freeze-drying is obviously more cost and time consuming than simply freezing the solution at -20&#176;C. Additionally, when adding the right amount of glycerol (no effect was observed when using only 10 &#956;mol per unit) it is also possible to retain all of the enzyme activity. It has to be noted that the experiments carried out during this study are only considered to be preliminary. More research is necessary in studying enzyme behavior during storage, for example determining the half-life time.</p>
          </sec>
       </sec>
       <sec>
          <st>
             <p>Conclusions</p>
          </st>
          <p>To produce cellobiose dehydrogenase from <it>Sclerotium rolfsii</it>, it was possible to simplify a rather complex cultivation medium to a basic medium consisting only of &#945;-cellulose, peptone from meat, and trace elements. Additionally, enzyme production was increased by 21%. Purification of the enzyme was studied systematically resulting in a yield of 56%. Although other proteins were detected in the resulting enzyme solution, its purity was considered to be sufficient for oxidizing lactose to lactobionic acid. With freeze-drying of CDH, glucose and lactulose could be identified to be good lyoprotectants. However, freezing at -20&#176;C is preferred for storage as this method being much simpler and residual activity being 100% when using 50% (w/v) glycerol.</p>
       </sec>
       <sec>
          <st>
             <p>Competing interests</p>
          </st>
          <p>The authors declare that they have no competing interests.</p>
       </sec>
       <sec>
          <st>
             <p>Authors&#8217; contributions</p>
          </st>
          <p>CF designed the study, carried out the experimental work and drafted the manuscript. AK participated in the design of the study and commented on the manuscript. TK conceived the study, participated in its design and commented on the manuscript. All authors read and approved the final manuscript.</p>
       </sec>
    </bdy>
    <bm>
       <ack>
          <sec>
             <st>
                <p>Acknowledgements</p>
             </st>
             <p>The authors would like to thank Julia Streithoff for her support during the experimental work.</p>
          </sec>
       </ack>
       <refgrp>
          
          <bibl id="B1">
             <title>
                <p>A critical review of cellobiose dehydrogenases</p>
             </title>
             <aug>
                <au>
                   <snm>Henriksson</snm>
                   <fnm>G</fnm>
                </au>
                <au>
                   <snm>Johansson</snm>
                   <fnm>G</fnm>
                </au>
                <au>
                   <snm>Pettersson</snm>
                   <fnm>G</fnm>
                </au>
             </aug>
             <source>J Biotechnol</source>
             <pubdate>2000</pubdate>
             <volume>78</volume>
             <issue>2</issue>
             <fpage>93</fpage>
             <lpage>113</lpage>
             <xrefbib>
                <pubidlist>
                   <pubid idtype="doi">10.1016/S0168-1656(00)00206-6</pubid>
                </pubidlist>
             </xrefbib>
          </bibl>
          <bibl id="B2">
             <title>
                <p>Production of Hemicellulose- and Cellulose-Degrading Enzymes by Various Strains of <it>Sclerotium Rolfsii</it> 
                </p>
             </title>
             <aug>
                <au>
                   <snm>Sachslehner</snm>
                   <fnm>A</fnm>
                </au>
                <au>
                   <snm>Haltrich</snm>
                   <fnm>D</fnm>
                </au>
                <au>
                   <snm>Nidetzky</snm>
                   <fnm>B</fnm>
                </au>
                <au>
                   <snm>Kulbe</snm>
                   <fnm>KD</fnm>
                </au>
             </aug>
             <source>Appl Biochem Biotechnol</source>
             <pubdate>1997</pubdate>
             <volume>63&#8211;65</volume>
             <issue>1&#8211;3</issue>
             <fpage>189</fpage>
             <lpage>201</lpage>
             <xrefbib>
                <pubidlist>
                   <pubid idtype="doi">10.1007/BF02920424</pubid>
                </pubidlist>
             </xrefbib>
          </bibl>
          <bibl id="B3">
             <title>
                <p>Cellobiose dehydrogenase - an extracellular fungal flavocytochrome</p>
             </title>
             <aug>
                <au>
                   <snm>Cameron</snm>
                   <fnm>MD</fnm>
                </au>
                <au>
                   <snm>Aust</snm>
                   <fnm>SD</fnm>
                </au>
             </aug>
             <source>Enzyme Microb Technol</source>
             <pubdate>2001</pubdate>
             <volume>28</volume>
             <issue>2&#8211;3</issue>
             <fpage>129</fpage>
             <lpage>138</lpage>
             <xrefbib>
                <pubidlist>
                   <pubid idtype="doi">10.1016/S0141-0229(00)00307-0</pubid>
                </pubidlist>
             </xrefbib>
          </bibl>
          <bibl id="B4">
             <title>
                <p>Pre-treatment of cellulose by cellobiose dehydrogenase increases the degradation rate by hydrolytic cellulases</p>
             </title>
             <aug>
                <au>
                   <snm>Krus&#229;</snm>
                   <fnm>M</fnm>
                </au>
                <au>
                   <snm>Lennholm</snm>
                   <fnm>H</fnm>
                </au>
                <au>
                   <snm>Henriksson</snm>
                   <fnm>G</fnm>
                </au>
             </aug>
             <source>Cellul Chem Technol</source>
             <pubdate>2007</pubdate>
             <volume>41</volume>
             <issue>2&#8211;3</issue>
             <fpage>105</fpage>
             <lpage>111</lpage>
          </bibl>
          <bibl id="B5">
             <title>
                <p>Properties of neutral cellobiose dehydrogenase from the ascomycete <it>Chaetomium sp.</it> INBI 2-26(-) and comparison with basidiomycetous cellobiose dehydrogenases</p>
             </title>
             <aug>
                <au>
                   <snm>Karapetyan</snm>
                   <fnm>KN</fnm>
                </au>
                <au>
                   <snm>Fedorova</snm>
                   <fnm>TV</fnm>
                </au>
                <au>
                   <snm>Vasil'chenko</snm>
                   <fnm>LG</fnm>
                </au>
                <au>
                   <snm>Ludwig</snm>
                   <fnm>R</fnm>
                </au>
                <au>
                   <snm>Haltrich</snm>
                   <fnm>D</fnm>
                </au>
                <au>
                   <snm>Rabinovich</snm>
                   <fnm>ML</fnm>
                </au>
             </aug>
             <source>J Biotechnol</source>
             <pubdate>2006</pubdate>
             <volume>121</volume>
             <issue>1</issue>
             <fpage>34</fpage>
             <lpage>48</lpage>
             <xrefbib>
                <pubidlist>
                   <pubid idtype="doi">10.1016/j.jbiotec.2005.06.024</pubid>
                </pubidlist>
             </xrefbib>
          </bibl>
          <bibl id="B6">
             <title>
                <p>Cloning and Characterization of a Thermostable Cellobiose Dehydrogenase from <it>Sporotrichum thermophile</it> 
                </p>
             </title>
             <aug>
                <au>
                   <snm>Subramaniam</snm>
                   <fnm>SS</fnm>
                </au>
                <au>
                   <snm>Nagalla</snm>
                   <fnm>SR</fnm>
                </au>
                <au>
                   <snm>Renganathan</snm>
                   <fnm>V</fnm>
                </au>
             </aug>
             <source>Arch Biochem Biophys</source>
             <pubdate>1999</pubdate>
             <volume>365</volume>
             <issue>2</issue>
             <fpage>223</fpage>
             <lpage>230</lpage>
             <xrefbib>
                <pubidlist>
                   <pubid idtype="doi">10.1006/abbi.1999.1152</pubid>
                </pubidlist>
             </xrefbib>
          </bibl>
          <bibl id="B7">
             <title>
                <p>Cellobiose Dehydrogenase from <it>Schizophyllum commune</it>: Purification and Study of Some Catalytic, Inactivation, and Cellulose-Binding Properties</p>
             </title>
             <aug>
                <au>
                   <snm>Fang</snm>
                   <fnm>J</fnm>
                </au>
                <au>
                   <snm>Liu</snm>
                   <fnm>W</fnm>
                </au>
                <au>
                   <snm>Gao</snm>
                   <fnm>PJ</fnm>
                </au>
             </aug>
             <source>Arch Biochem Biophys</source>
             <pubdate>1998</pubdate>
             <volume>353</volume>
             <issue>1</issue>
             <fpage>37</fpage>
             <lpage>46</lpage>
             <xrefbib>
                <pubidlist>
                   <pubid idtype="doi">10.1006/abbi.1998.0602</pubid>
                </pubidlist>
             </xrefbib>
          </bibl>
          <bibl id="B8">
             <title>
                <p>Cellobiose dehydrogenase production by the mycelial culture of the mushroom <it>Termitomyces clypeatus</it> 
                </p>
             </title>
             <aug>
                <au>
                   <snm>Saha</snm>
                   <fnm>T</fnm>
                </au>
                <au>
                   <snm>Ghosh</snm>
                   <fnm>D</fnm>
                </au>
                <au>
                   <snm>Mukherjee</snm>
                   <fnm>S</fnm>
                </au>
                <au>
                   <snm>Bose</snm>
                   <fnm>S</fnm>
                </au>
                <au>
                   <snm>Mukherjee</snm>
                   <fnm>M</fnm>
                </au>
             </aug>
             <source>Process Biochem</source>
             <pubdate>2008</pubdate>
             <volume>43</volume>
             <issue>6</issue>
             <fpage>634</fpage>
             <lpage>641</lpage>
             <xrefbib>
                <pubidlist>
                   <pubid idtype="doi">10.1016/j.procbio.2008.01.025</pubid>
                </pubidlist>
             </xrefbib>
          </bibl>
          <bibl id="B9">
             <title>
                <p>Substrate specificity of cellobiose dehydrogenase from <it>Phanerochaete chrysosporium</it> 
                </p>
             </title>
             <aug>
                <au>
                   <snm>Henriksson</snm>
                   <fnm>G</fnm>
                </au>
                <au>
                   <snm>Sild</snm>
                   <fnm>V</fnm>
                </au>
                <au>
                   <snm>Szab&#243;</snm>
                   <fnm>IJ</fnm>
                </au>
                <au>
                   <snm>Pettersson</snm>
                   <fnm>G</fnm>
                </au>
                <au>
                   <snm>Johansson</snm>
                   <fnm>G</fnm>
                </au>
             </aug>
             <source>Biochim Biophys Acta Protein Struct Mol Enzymol</source>
             <pubdate>1998</pubdate>
             <volume>1383</volume>
             <issue>1</issue>
             <fpage>48</fpage>
             <lpage>54</lpage>
             <xrefbib>
                <pubidlist>
                   <pubid idtype="doi">10.1016/S0167-4838(97)00180-5</pubid>
                </pubidlist>
             </xrefbib>
          </bibl>
          <bibl id="B10">
             <title>
                <p>Cellobiose Oxidase, Purification and Partial Characterization of a Hemoprotein from <it>Sporotrichum pulverulentum</it> 
                </p>
             </title>
             <aug>
                <au>
                   <snm>Ayers</snm>
                   <fnm>AR</fnm>
                </au>
                <au>
                   <snm>Ayers</snm>
                   <fnm>SB</fnm>
                </au>
                <au>
                   <snm>Eriksson</snm>
                   <fnm>KE</fnm>
                </au>
             </aug>
             <source>Eur J Biochem</source>
             <pubdate>1978</pubdate>
             <volume>90</volume>
             <issue>1</issue>
             <fpage>171</fpage>
             <lpage>181</lpage>
             <xrefbib>
                <pubidlist>
                   <pubid idtype="doi">10.1111/j.1432-1033.1978.tb12588.x</pubid>
                </pubidlist>
             </xrefbib>
          </bibl>
          <bibl id="B11">
             <title>
                <p>Lactose and lactose derivatives as bioactive ingredients in human nutrition</p>
             </title>
             <aug>
                <au>
                   <snm>Schaafsma</snm>
                   <fnm>G</fnm>
                </au>
             </aug>
             <source>Int Dairy J</source>
             <pubdate>2008</pubdate>
             <volume>18</volume>
             <issue>5</issue>
             <fpage>458</fpage>
             <lpage>465</lpage>
             <xrefbib>
                <pubidlist>
                   <pubid idtype="doi">10.1016/j.idairyj.2007.11.013</pubid>
                </pubidlist>
             </xrefbib>
          </bibl>
          <bibl id="B12">
             <title>
                <p>A third generation glucose biosensor based on cellobiose dehydrogenase from Corynascus thermophilus and single-walled carbon nanotubes</p>
             </title>
             <aug>
                <au>
                   <snm>Tasca</snm>
                   <fnm>F</fnm>
                </au>
                <au>
                   <snm>Zafar</snm>
                   <fnm>MN</fnm>
                </au>
                <au>
                   <snm>Harreither</snm>
                   <fnm>W</fnm>
                </au>
                <au>
                   <snm>N&#246;ll</snm>
                   <fnm>G</fnm>
                </au>
                <au>
                   <snm>Ludwig</snm>
                   <fnm>R</fnm>
                </au>
                <au>
                   <snm>Gorton</snm>
                   <fnm>L</fnm>
                </au>
             </aug>
             <source>Analyst</source>
             <pubdate>2011</pubdate>
             <volume>136</volume>
             <issue>10</issue>
             <fpage>2033</fpage>
             <lpage>2036</lpage>
             <xrefbib>
                <pubidlist>
                   <pubid idtype="doi">10.1039/c0an00311e</pubid>
                </pubidlist>
             </xrefbib>
          </bibl>
          <bibl id="B13">
             <title>
                <p>Characteristics of third-generation glucose biosensors based on Corynascus thermophilus cellobiose dehydrogenase immobilized on commercially available screen-printed electrodes working under physiological conditions</p>
             </title>
             <aug>
                <au>
                   <snm>Zafar</snm>
                   <fnm>MN</fnm>
                </au>
                <au>
                   <snm>Safina</snm>
                   <fnm>G</fnm>
                </au>
                <au>
                   <snm>Ludwig</snm>
                   <fnm>R</fnm>
                </au>
                <au>
                   <snm>Gorton</snm>
                   <fnm>L</fnm>
                </au>
             </aug>
             <source>Anal Biochem</source>
             <pubdate>2012</pubdate>
             <volume>425</volume>
             <issue>1</issue>
             <fpage>36</fpage>
             <lpage>42</lpage>
             <xrefbib>
                <pubidlist>
                   <pubid idtype="doi">10.1016/j.ab.2012.02.026</pubid>
                </pubidlist>
             </xrefbib>
          </bibl>
          <bibl id="B14">
             <title>
                <p>A novel combined thermometric and amperometric biosensor for lactose determination based on immobilised cellobiose dehydrogenase</p>
             </title>
             <aug>
                <au>
                   <snm>Yakovleva</snm>
                   <fnm>M</fnm>
                </au>
                <au>
                   <snm>Buzas</snm>
                   <fnm>O</fnm>
                </au>
                <au>
                   <snm>Matsumura</snm>
                   <fnm>H</fnm>
                </au>
                <au>
                   <snm>Samejima</snm>
                   <fnm>M</fnm>
                </au>
                <au>
                   <snm>Igarashi</snm>
                   <fnm>K</fnm>
                </au>
                <au>
                   <snm>Larsson</snm>
                   <fnm>PO</fnm>
                </au>
                <au>
                   <snm>Gorton</snm>
                   <fnm>L</fnm>
                </au>
                <au>
                   <snm>Danielsson</snm>
                   <fnm>B</fnm>
                </au>
             </aug>
             <source>Biosensors Bioelectron</source>
             <pubdate>2012</pubdate>
             <volume>31</volume>
             <issue>1</issue>
             <fpage>251</fpage>
             <lpage>256</lpage>
             <xrefbib>
                <pubidlist>
                   <pubid idtype="doi">10.1016/j.bios.2011.10.027</pubid>
                </pubidlist>
             </xrefbib>
          </bibl>
          <bibl id="B15">
             <title>
                <p>Determination of lactose by a novel third generation biosensor based on a cellobiose dehydrogenase and aryl diazonium modified single wall carbon nanotubes electrode</p>
             </title>
             <aug>
                <au>
                   <snm>Tasca</snm>
                   <fnm>F</fnm>
                </au>
                <au>
                   <snm>Ludwig</snm>
                   <fnm>R</fnm>
                </au>
                <au>
                   <snm>Gorton</snm>
                   <fnm>L</fnm>
                </au>
                <au>
                   <snm>Antiochia</snm>
                   <fnm>R</fnm>
                </au>
             </aug>
             <source>Sensors Actuators B Chem</source>
             <pubdate>2013</pubdate>
             <volume>177</volume>
             <fpage>64</fpage>
             <lpage>69</lpage>
             <xrefbib>
                <pubidlist>
                   <pubid idtype="doi">10.1016/j.snb.2012.10.114</pubid>
                </pubidlist>
             </xrefbib>
          </bibl>
          <bibl id="B16">
             <title>
                <p>Quantifying the release of lactose from polymer matrix tablets with an amperometric biosensor utilizing cellobiose dehydrogenase</p>
             </title>
             <aug>
                <au>
                   <snm>Kn&#246;&#246;s</snm>
                   <fnm>P</fnm>
                </au>
                <au>
                   <snm>Schulz</snm>
                   <fnm>C</fnm>
                </au>
                <au>
                   <snm>Piculell</snm>
                   <fnm>L</fnm>
                </au>
                <au>
                   <snm>Ludwig</snm>
                   <fnm>R</fnm>
                </au>
                <au>
                   <snm>Gorton</snm>
                   <fnm>L</fnm>
                </au>
                <au>
                   <snm>Wahlgren</snm>
                   <fnm>M</fnm>
                </au>
             </aug>
             <source>Int J Pharm</source>
             <pubdate>2014</pubdate>
             <volume>468</volume>
             <issue>1&#8211;2</issue>
             <fpage>121</fpage>
             <lpage>132</lpage>
             <xrefbib>
                <pubidlist>
                   <pubid idtype="doi">10.1016/j.ijpharm.2014.03.060</pubid>
                </pubidlist>
             </xrefbib>
          </bibl>
          <bibl id="B17">
             <title>
                <p>Assessment of the joint effect of laccase and cellobiose dehydrogenase on the decolouration of different synthetic dyes</p>
             </title>
             <aug>
                <au>
                   <snm>Enayatzamir</snm>
                   <fnm>K</fnm>
                </au>
                <au>
                   <snm>Tabandeh</snm>
                   <fnm>F</fnm>
                </au>
                <au>
                   <snm>Yakhchali</snm>
                   <fnm>B</fnm>
                </au>
                <au>
                   <snm>Alikhani</snm>
                   <fnm>HA</fnm>
                </au>
                <au>
                   <snm>Rodr&#237;guez Couto</snm>
                   <fnm>S</fnm>
                </au>
             </aug>
             <source>J Hazard Mater</source>
             <pubdate>2009</pubdate>
             <volume>169</volume>
             <issue>1&#8211;3</issue>
             <fpage>176</fpage>
             <lpage>181</lpage>
             <xrefbib>
                <pubidlist>
                   <pubid idtype="doi">10.1016/j.jhazmat.2009.03.088</pubid>
                </pubidlist>
             </xrefbib>
          </bibl>
          <bibl id="B18">
             <title>
                <p>Differential decolorization of textile dyes in mixtures and the joint effect of laccase and cellobiose dehydrogenase activities present in extracellular extracts from Funalia trogii</p>
             </title>
             <aug>
                <au>
                   <snm>Tilli</snm>
                   <fnm>S</fnm>
                </au>
                <au>
                   <snm>Ciullini</snm>
                   <fnm>I</fnm>
                </au>
                <au>
                   <snm>Scozzafava</snm>
                   <fnm>A</fnm>
                </au>
                <au>
                   <snm>Briganti</snm>
                   <fnm>F</fnm>
                </au>
             </aug>
             <source>Enzyme Microb Technol</source>
             <pubdate>2011</pubdate>
             <volume>49</volume>
             <issue>5</issue>
             <fpage>465</fpage>
             <lpage>471</lpage>
             <xrefbib>
                <pubidlist>
                   <pubid idtype="doi">10.1016/j.enzmictec.2011.08.002</pubid>
                </pubidlist>
             </xrefbib>
          </bibl>
          <bibl id="B19">
             <title>
                <p>Cellulose oxidation and bleaching processes based on recombinant Myriococcum thermophilum cellobiose dehydrogenase</p>
             </title>
             <aug>
                <au>
                   <snm>Flitsch</snm>
                   <fnm>A</fnm>
                </au>
                <au>
                   <snm>Prasetyo</snm>
                   <fnm>EN</fnm>
                </au>
                <au>
                   <snm>Sygmund</snm>
                   <fnm>C</fnm>
                </au>
                <au>
                   <snm>Ludwig</snm>
                   <fnm>R</fnm>
                </au>
                <au>
                   <snm>Nyanhongo</snm>
                   <fnm>GS</fnm>
                </au>
                <au>
                   <snm>Guebitz</snm>
                   <fnm>GM</fnm>
                </au>
             </aug>
             <source>Enzyme Microb Technol</source>
             <pubdate>2013</pubdate>
             <volume>52</volume>
             <issue>1</issue>
             <fpage>60</fpage>
             <lpage>67</lpage>
             <xrefbib>
                <pubidlist>
                   <pubid idtype="doi">10.1016/j.enzmictec.2012.10.007</pubid>
                </pubidlist>
             </xrefbib>
          </bibl>
          <bibl id="B20">
             <title>
                <p>A simple assay for measuring cellobiose dehydrogenase activity in the presence of laccase</p>
             </title>
             <aug>
                <au>
                   <snm>Baminger</snm>
                   <fnm>U</fnm>
                </au>
                <au>
                   <snm>Nidetzky</snm>
                   <fnm>B</fnm>
                </au>
                <au>
                   <snm>Kulbe</snm>
                   <fnm>KD</fnm>
                </au>
                <au>
                   <snm>Haltrich</snm>
                   <fnm>D</fnm>
                </au>
             </aug>
             <source>J Microbiol Methods</source>
             <pubdate>1999</pubdate>
             <volume>35</volume>
             <issue>3</issue>
             <fpage>253</fpage>
             <lpage>259</lpage>
             <xrefbib>
                <pubidlist>
                   <pubid idtype="doi">10.1016/S0167-7012(99)00022-6</pubid>
                </pubidlist>
             </xrefbib>
          </bibl>
          <bibl id="B21">
             <title>
                <p>A rapid and sensitive method for the quantitation of microgram quantities of protein utilizing the principle of protein dye binding</p>
             </title>
             <aug>
                <au>
                   <snm>Bradford</snm>
                   <fnm>MM</fnm>
                </au>
             </aug>
             <source>Anal Biochem</source>
             <pubdate>1976</pubdate>
             <volume>72</volume>
             <issue>1&#8211;2</issue>
             <fpage>248</fpage>
             <lpage>254</lpage>
             <xrefbib>
                <pubidlist>
                   <pubid idtype="doi">10.1016/0003-2697(76)90527-3</pubid>
                </pubidlist>
             </xrefbib>
          </bibl>
          <bibl id="B22">
             <title>
                <p>Cellobiose dehydrogenase production by <it>Sclerotium</it> species pathogenic to plants</p>
             </title>
             <aug>
                <au>
                   <snm>Ludwig</snm>
                   <fnm>R</fnm>
                </au>
                <au>
                   <snm>Haltrich</snm>
                   <fnm>D</fnm>
                </au>
             </aug>
             <source>Lett Appl Microbiol</source>
             <pubdate>2002</pubdate>
             <volume>35</volume>
             <issue>3</issue>
             <fpage>261</fpage>
             <lpage>266</lpage>
             <xrefbib>
                <pubidlist>
                   <pubid idtype="doi">10.1046/j.1472-765X.2002.01170.x</pubid>
                </pubidlist>
             </xrefbib>
          </bibl>
          <bibl id="B23">
             <title>
                <p>Optimisation of cellobiose dehydrogenase production by the fungus <it>Sclerotium (Athelia) rolfsii</it> 
                </p>
             </title>
             <aug>
                <au>
                   <snm>Ludwig</snm>
                   <fnm>R</fnm>
                </au>
                <au>
                   <snm>Haltrich</snm>
                   <fnm>D</fnm>
                </au>
             </aug>
             <source>Appl Microbiol Biotechnol</source>
             <pubdate>2003</pubdate>
             <volume>61</volume>
             <issue>1</issue>
             <fpage>32</fpage>
             <lpage>39</lpage>
             <xrefbib>
                <pubidlist>
                   <pubid idtype="doi">10.1007/s00253-002-1209-z</pubid>
                </pubidlist>
             </xrefbib>
          </bibl>
          <bibl id="B24">
             <title>
                <p>Purification and Characterization of Cellobiose Dehydrogenase from the Plant Pathogen <it>Sclerotium (Athelia) rolfsii</it> 
                </p>
             </title>
             <aug>
                <au>
                   <snm>Baminger</snm>
                   <fnm>U</fnm>
                </au>
                <au>
                   <snm>Subramaniam</snm>
                   <fnm>SS</fnm>
                </au>
                <au>
                   <snm>Renganathan</snm>
                   <fnm>V</fnm>
                </au>
                <au>
                   <snm>Haltrich</snm>
                   <fnm>D</fnm>
                </au>
             </aug>
             <source>Appl Environ Microbiol</source>
             <pubdate>2001</pubdate>
             <volume>67</volume>
             <issue>4</issue>
             <fpage>1766</fpage>
             <lpage>1774</lpage>
             <xrefbib>
                <pubidlist>
                   <pubid idtype="doi">10.1128/AEM.67.4.1766-1774.2001</pubid>
                </pubidlist>
             </xrefbib>
          </bibl>
          <bibl id="B25">
             <aug>
                <au>
                   <snm>Van Dokkum</snm>
                   <fnm>W</fnm>
                </au>
                <au>
                   <snm>Wezendonk</snm>
                   <fnm>LJW</fnm>
                </au>
                <au>
                   <snm>van Aken-Schneider</snm>
                   <fnm>P</fnm>
                </au>
                <au>
                   <snm>Kistemaker</snm>
                   <fnm>C</fnm>
                </au>
             </aug>
             <source>The tolerance of lactobionic acid in man</source>
             <publisher>TNO Report, V94.115, TNO Nutrition and Food Research, Zeist, The Netherlands</publisher>
             <pubdate>1994</pubdate>
          </bibl>
          <bibl id="B26">
             <title>
                <p>Galacto-oligosaccharides and Other Products Derived from Lactose</p>
             </title>
             <aug>
                <au>
                   <snm>Playne</snm>
                   <fnm>MJ</fnm>
                </au>
                <au>
                   <snm>Crittenden</snm>
                   <fnm>RG</fnm>
                </au>
             </aug>
             <source>Advanced Dairy Chemistry, Volume 3: Lactose, Water, Salts and Minor Constituents</source>
             <publisher>Springer- Verlag, Heidelberg</publisher>
             <pubdate>2009</pubdate>
             <fpage>121</fpage>
             <lpage>201</lpage>
             <xrefbib>
                <pubidlist>
                   <pubid idtype="doi">10.1007/978-0-387-84865-5_5</pubid>
                </pubidlist>
             </xrefbib>
          </bibl>
          <bibl id="B27">
             <title>
                <p>Cryoprotective Effect of Saccharides on Denaturation of Catalase by Freeze-Drying</p>
             </title>
             <aug>
                <au>
                   <snm>Tanaka</snm>
                   <fnm>K</fnm>
                </au>
                <au>
                   <snm>Takeda</snm>
                   <fnm>T</fnm>
                </au>
                <au>
                   <snm>Miyajima</snm>
                   <fnm>K</fnm>
                </au>
             </aug>
             <source>Chem Pharm Bull (Tokyo)</source>
             <pubdate>1991</pubdate>
             <volume>39</volume>
             <issue>5</issue>
             <fpage>1091</fpage>
             <lpage>1094</lpage>
             <xrefbib>
                <pubidlist>
                   <pubid idtype="doi">10.1248/cpb.39.1091</pubid>
                </pubidlist>
             </xrefbib>
          </bibl>
          <bibl id="B28">
             <title>
                <p>Freeze-drying of lignin peroxidase: Influence of lyoprotectants on enzyme activity and stability</p>
             </title>
             <aug>
                <au>
                   <snm>Capolongo</snm>
                   <fnm>A</fnm>
                </au>
                <au>
                   <snm>Barresi</snm>
                   <fnm>AA</fnm>
                </au>
                <au>
                   <snm>Rovero</snm>
                   <fnm>G</fnm>
                </au>
             </aug>
             <source>J Chem Technol Biotechnol</source>
             <pubdate>2003</pubdate>
             <volume>78</volume>
             <issue>1</issue>
             <fpage>56</fpage>
             <lpage>63</lpage>
             <xrefbib>
                <pubidlist>
                   <pubid idtype="doi">10.1002/jctb.742</pubid>
                </pubidlist>
             </xrefbib>
          </bibl>
          <bibl id="B29">
             <title>
                <p>Effect of Lyoprotectants on Ascorbate Oxidase Activity after Freeze-Drying and Storage</p>
             </title>
             <aug>
                <au>
                   <snm>D'Andrea</snm>
                   <fnm>G</fnm>
                </au>
                <au>
                   <snm>Salucci</snm>
                   <fnm>ML</fnm>
                </au>
                <au>
                   <snm>Avigliano</snm>
                   <fnm>L</fnm>
                </au>
             </aug>
             <source>Process Biochem</source>
             <pubdate>1995</pubdate>
             <volume>31</volume>
             <issue>2</issue>
             <fpage>173</fpage>
             <lpage>178</lpage>
             <xrefbib>
                <pubidlist>
                   <pubid idtype="doi">10.1016/0032-9592(95)00045-3</pubid>
                </pubidlist>
             </xrefbib>
          </bibl>
          <bibl id="B30">
             <title>
                <p>Maltodextrins as Lyoprotectants in the Lyophilization of a Model Protein</p>
             </title>
             <aug>
                <au>
                   <snm>Corveleyn</snm>
                   <fnm>S</fnm>
                </au>
                <au>
                   <snm>Remon</snm>
                   <fnm>JP</fnm>
                </au>
             </aug>
             <source>LDH Pharm Res</source>
             <pubdate>1996</pubdate>
             <volume>13</volume>
             <issue>1</issue>
             <fpage>146</fpage>
             <lpage>150</lpage>
             <xrefbib>
                <pubidlist>
                   <pubid idtype="doi">10.1023/A:1016006106821</pubid>
                </pubidlist>
             </xrefbib>
          </bibl>
       </refgrp>
    </bm>
 </art>
