<art>
    <ui>s12879-014-0563-7</ui>
    <ji>1471-2334</ji>
    <fm>
       <dochead>Research article</dochead>
       <bibl>
          <title>
             <p>In-house ELISA screening using a locally-isolated <it>Leptospira</it> in Malaysia: determination of its cut-off points</p>
          </title>
          <aug>
             <au id="A1" ca="yes">
                <snm>Tan</snm>
                <fnm>Xue Ting</fnm>
                <insr iid="I1"/>
                <email>tanxt@imr.gov.my</email>
             </au>
             <au id="A2">
                <snm>Amran</snm>
                <fnm>Fairuz</fnm>
                <insr iid="I1"/>
                <email>fairuz@imr.gov.my</email>
             </au>
             <au id="A3">
                <snm>Chee Cheong</snm>
                <fnm>Kee</fnm>
                <insr iid="I2"/>
                <email>kee@imr.gov.my</email>
             </au>
             <au id="A4">
                <snm>Ahmad</snm>
                <fnm>Norazah</fnm>
                <insr iid="I1"/>
                <email>norazah@imr.gov.my</email>
             </au>
          </aug>
          <insg>
             <ins id="I1">
                <p>Bacteriology Unit, Infectious Disease Research Centre, Institute for Medical Research, 50588, Jalan Pahang, Kuala Lumpur, Malaysia</p>
             </ins>
             <ins id="I2">
                <p>Epidemiology and Biostatistics Unit, Medical Research Resource Centre, Institute for Medical Research, 50588, Jalan Pahang, Kuala Lumpur, Malaysia</p>
             </ins>
          </insg>
          <source>BMC Infectious Diseases</source>
          <issn>1471-2334</issn>
          <pubdate>2014</pubdate>
          <volume>14</volume>
          <issue>1</issue>
          <fpage>563</fpage>
          <url>http://www.biomedcentral.com/1471-2334/14/563</url>
          <xrefbib>
             <pubidlist>
                <pubid idtype="doi">10.1186/s12879-014-0563-7</pubid>
                <pubid idtype="pmpid"><!-- Need to check source for data--></pubid>
             </pubidlist>
          </xrefbib>
       </bibl>
       <history>
          <rec>
             <date>
                <day>8</day>
                <month>7</month>
                <year>2014</year>
             </date>
          </rec>
          <acc>
             <date>
                <day>14</day>
                <month>10</month>
                <year>2014</year>
             </date>
          </acc>
          <pub>
             <date>
                <day>23</day>
                <month>10</month>
                <year>2014</year>
             </date>
          </pub>
       </history>
       <cpyrt>
          <year>2014</year>
          <collab>Tan et al.; licensee BioMed Central Ltd.</collab>
          <note>This is an Open Access article distributed under the terms of the Creative Commons Attribution License (<url>http://creativecommons.org/licenses/by/4.0</url>), which permits unrestricted use, distribution, and reproduction in any medium, provided the original work is properly credited. The Creative Commons Public Domain Dedication waiver (<url>http://creativecommons.org/publicdomain/zero/1.0/</url>) applies to the data made available in this article, unless otherwise stated.</note>
       </cpyrt>
       <kwdg>
          <kwd>In-house ELISA</kwd>
          <kwd>Leptospirosis</kwd>
          <kwd>Malaysia</kwd>
          <kwd>Cut-off points</kwd>
       </kwdg>
       <abs>
          <sec>
             <st>
                <p>Abstract</p>
             </st>
             <sec>
                <st>
                   <p>Background</p>
                </st>
                <p>Leptospirosis is a zoonotic disease caused by <it>Leptospira</it> species and is distributed globally. Microscopic agglutination test (MAT) is the serological &#8216;gold standard&#8217; for diagnosis of leptospirosis but it is time-consuming and labour-intensive. An alternative serological method that is rapid, sensitive and specific is important for early treatment to reduce morbidity and mortality. The use of local <it>Leptospira</it> isolation may improve the sensitivity and specificity of the test because it may varies from one geographical region to another region. The objective of this study was to determine the sensitivity, specificity and cut-off points for an in-house Immunoglobulin M (IgM) enzyme-linked immunosorbent assay (ELISA) using a locally isolated Leptospiral strain IMR/175 as the antigen for the detection of anti-Leptospiral IgM.</p>
             </sec>
             <sec>
                <st>
                   <p>Methods</p>
                </st>
                <p>Serum samples from 270 patients with clinical symptoms of leptospirosis were subjected to the in-house IgM ELISA, MAT and Leptospirosis rapid test. The optimal cut-off values for positivity and negativity of the IgM ELISA were determined by Receiver Operating Characteristic curves and mean&#8201;&#177;&#8201;2 standard deviation (SD) analyses of the ELISA values.</p>
             </sec>
             <sec>
                <st>
                   <p>Results</p>
                </st>
                <p>The area under the curve (AUC) which indicates the diagnostic performance of the in-house IgM ELISA was 0.953 (95% Confidence Interval, CI: 0.928, 0.978). The sensitivity and specificity of 90.38% and 87.72% respectively were obtained with the cut-off point of 0.55. A higher sensitivity (96.15%) was obtained when the cut-off point was set at 0.45.</p>
             </sec>
             <sec>
                <st>
                   <p>Conclusions</p>
                </st>
                <p>The in-house IgM ELISA assay using local <it>Leptospira</it> isolation was shown to be sensitive and may be suitable to use for the serological diagnosis of leptospirosis for our local hospital setting.</p>
             </sec>
          </sec>
       </abs>
    </fm>
    <bdy>
       <sec>
          <st>
             <p>1
 						Background</p>
          </st>
          <p>Leptospirosis is an acute febrile disease with worldwide distribution <abbrgrp>
                <abbr bid="B1">1</abbr>
             </abbrgrp>,<abbrgrp>
                <abbr bid="B2">2</abbr>
             </abbrgrp>. It is a problem of developing countries due to humid tropical and subtropical weather. It is identified as a re-emerging infectious disease since large outbreaks have occurred in many countries including Malaysia <abbrgrp>
                <abbr bid="B3">3</abbr>
             </abbrgrp>. The overall incidence of leptospirosis in Malaysia was 13% <abbrgrp>
                <abbr bid="B4">4</abbr>
             </abbrgrp> with fatality percentage is estimated around 10% <abbrgrp>
                <abbr bid="B5">5</abbr>
             </abbrgrp>.</p>
          <p>Most of the human cases of leptospirosis are diagnosed by serological methods. The reference standard for serological test is the microscopic agglutination test (MAT) <abbrgrp>
                <abbr bid="B5">5</abbr>
             </abbrgrp>. However, MAT has many disadvantages including time-consuming, tedious maintenance of live <it>Leptospira</it>, risk of cross-contaminations and hazardous to workers because of the exposure to live bacteria <abbrgrp>
                <abbr bid="B6">6</abbr>
             </abbrgrp>. Besides that, MAT may not be useful for acute patient management because of the extensive technical resources requirements and is also not applicable in some routine diagnostic laboratory setting <abbrgrp>
                <abbr bid="B7">7</abbr>
             </abbrgrp>.</p>
          <p>By comparison, the Immunoglobulin M (IgM) enzyme-linked immunosorbent assay (ELISA) is relatively cheaper than MAT and is more sensitive because of IgM can be detected earlier <abbrgrp>
                <abbr bid="B6">6</abbr>
             </abbrgrp>,<abbrgrp>
                <abbr bid="B8">8</abbr>
             </abbrgrp>. This is important because treatment can be administered in time thus preventing the progression of the disease into severe stage.</p>
          <p>Most of the commercially available ELISA kits using non-pathogenic <it>L. biflexa strain patoc I</it> as the antigen <abbrgrp>
                <abbr bid="B6">6</abbr>
             </abbrgrp>,<abbrgrp>
                <abbr bid="B9">9</abbr>
             </abbrgrp>-<abbrgrp>
                <abbr bid="B11">11</abbr>
             </abbrgrp>. Since the prevalence of Leptospiral serogroups varies geographically <abbrgrp>
                <abbr bid="B12">12</abbr>
             </abbrgrp>, we developed an in-house ELISA using a locally isolated <it>Leptospira</it> strain IMR/175 as the antigen for the detection of <it>Leptospira</it> IgM antibodies among patients in Malaysia. To our knowledge, this is the first study about in-house ELISA on detecting Leptospirosis in Malaysia. The aim of this study was to determine the cut-off points of the in-house ELISA and their accuracy, sensitivity and specificity.</p>
       </sec>
       <sec>
          <st>
             <p>2
 						Methods</p>
          </st>
          <sec>
             <st>
                <p>2.1 Ethics statement</p>
             </st>
             <p>The study protocol which included participants providing written consent prior to the study, was approved by Malaysia Research &amp; Ethics Committee, Ministry of Health Malaysia, Malaysia.</p>
          </sec>
          <sec>
             <st>
                <p>2.2 Serum samples</p>
             </st>
             <p>A total of 270 sera received from patients presented with symptoms suggestive of leptospirosis during the year 2012 were subjected to a commercially available leptospirosis rapid test kit Leptorapid&#174;, MAT, and in-house IgM ELISA in our laboratory. The usual presentations of the patients were acute febrile illness, headache, myalgia, jaundice, cough, vomit, abdominal pain, diarrhea and haemorrhages. The sample size was calculated based on expected sensitivity of 85%, specificity of 90%, precision of 0.10 and 95% of confidence level <abbrgrp>
                   <abbr bid="B4">4</abbr>
                </abbrgrp>,<abbrgrp>
                   <abbr bid="B13">13</abbr>
                </abbrgrp>.</p>
          </sec>
          <sec>
             <st>
                <p>2.3 Leptospirosis rapid test</p>
             </st>
             <p>The rapid test was performed according to the instruction of Leptorapide&#174; (Linnodee Ltd, Northern Ireland). Briefly, about 5&#160;&#956;l of each leptorapide suspension and test sera were mixed on the agglutination card. The agglutination was examined within three minutes and the results were interpreted using a score card provided by manufacturer.</p>
          </sec>
          <sec>
             <st>
                <p>2.4 MAT</p>
             </st>
             <p>The MAT was performed as described by the World Health Organization <abbrgrp>
                   <abbr bid="B2">2</abbr>
                </abbrgrp>. Briefly, live <it>Leptospira</it> cell suspensions from 20 Leptospiral serovars were added to a two-fold serially diluted serum in 96-well U-bottomed microtiter plates and were incubated at room temperature for 2&#160;hours. The panel of leptospires consisted of IMR/1, IMR/22, IMR/27, IMR/115, IMR, 175, IMR/803, Australis, Autumnalis, Bataviae, Canicola, Celledoni. Grippotyphosa, Hardjoprajitno, Icterohaemorrhagiae, Javanica, Pyrogenes, Tarassovi, Djasiman, Patoc and Pomona.</p>
             <p>Micro-agglutination was examined by dark-field microscopy. The titer was calculated as the reciprocal of the highest dilution of serum which showed at least 50% of agglutination of the Leptospiral cells. Cases were defined as positive for leptospirosis if agglutination titer achieved &#8805;400 level to one or more <it>Leptospira</it> serovars. All samples were screened by MAT to determine the serum is positive or negative for leptospirosis.</p>
          </sec>
          <sec>
             <st>
                <p>2.5 IgM ELISA</p>
             </st>
             <p>The antigen was prepared from a nonpathogenic strain IMR/175 which was isolated from a water sample in a pond from Sarawak, Malaysia. The antigen was diluted 1:2 in phosphate buffered saline (PBS) pH&#160;7.2. The protocol of preparing antigen and coating plate was according to the protocol described by Goris <it>et al</it>. <abbrgrp>
                   <abbr bid="B14">14</abbr>
                </abbrgrp>. Briefly, the culture was grow in EMJH medium, killed by formalin (final concentration 0.2%&#160;v/v), heated in a boiling water bath for 30&#160;min and centrifuged for 30&#160;min at 10,000&#160;g. The 100&#160;&#956;l supernatant was pipetted into the well and left to be evaporated. Before the plate being used, it was washed twice with PBS containing 0.05% Tween 20. Serial serum dilutions of 80 and 160 were added into the coated plates and incubated for 30&#160;min at 37&#176;C. The plate was then washed again and subsequently 100&#160;&#956;l of Horseradish peroxidase-conjugated anti-human IgM (KPL) was added to the plate. After 30&#160;min incubation at 37&#176;C, the plate was washed again. Next, 100&#160;&#956;l of substrate (5-aminosalicyclic acid) was added and the plate incubated for one hour at room temperature. The absorbance of the suspensions was read at 490&#160;nm using Opsys Mr<sup>TM</sup> Microplate reader (Dynex Technologies). The sample was tested in duplicates and an average optical density was obtained for each sample. Each reading was recorded and statistically analysed as mentioned below.</p>
          </sec>
          <sec>
             <st>
                <p>2.6 Statistical analysis</p>
             </st>
             <p>All statistical analysis were performed with the statistical software package PASW statistics 18.0 for windows (SPSS Inc.). Receiver operating characteristic (ROC) curves were used to determine the optimal level of the IgM ELISA test for serum dilutions of 1:80 and 1:160. The sensitivities and specificities of IgM ELISA for diagnosis of leptospirosis (positive MAT) were also demonstrated at different cut-off values. In addition, the positive predictive value (PPV) and negative predictive value (NPV) were also calculated at different cut-off values.</p>
             <p>Sensitivity is defined as the probability of correctly identifying those with positive leptospirosis by MAT for a given ELISA cut-off value. Specificity is defined as the probability of correctly identifying those with negative leptospirosis by MAT at a given IgM ELISA cut-off value. PPV is the probability that subjects with a positive ELISA test truly have leptospirosis while NPV is the probability that subjects with a negative ELISA test truly do not have leptospirosis.</p>
             <p>The optimal IgM ELISA cut-off value was determined by comparing the mean&#8201;&#177;&#8201;2 standard deviation (SD) of IgM ELISA value for both positive and negative MAT samples. The area under the curve (AUC) with 95% confidence intervals was used to compare the predictive capability of the two IgM ELISA dilutions for identification of those diagnosed by MAT. Higher of the values of AUC indicates a higher predictive capability of IgM ELISA in diagnosing leptospirosis. For all analyses, <it>p</it> values less than 0.05 were considered as statistically significant.</p>
          </sec>
       </sec>
       <sec>
          <st>
             <p>3
 						Results and discussion</p>
          </st>
          <p>Out of 270 samples tested, 114 samples were negative while 156 were positive by both MAT and rapid test. The samples were further tested by in-house ELISA and all the obtained data were used for ROC curve analysis to determine the cutoff point from optimal sensitivity and specificity achieved in the assay.</p>
          <p>The AUC reflects how good of the test to distinguish between patients with and without disease <abbrgrp>
                <abbr bid="B14">14</abbr>
             </abbrgrp>. In the ROC curve analysis, it showed that the AUC for serum dilutions 1:80 and 1:160 were 0.953 (95% Confidence Interval, CI =0.928-0.978) and 0.927 (95% CI =0.896-0.958) respectively (Figures&#160;<figr fid="F1">1</figr> and <figr fid="F2">2</figr>). Although the diagnostic performances of our in-house IgM ELISA were high for both dilutions, the 1:80 dilution had better diagnostic performance than 1:160. Thus, we decided to select cut-off points from the 1:80 dilution.</p>
          
             <fig id="F1">
                <title>
                   <p>Figure 1</p>
                </title>
                <caption>
                   <p>ROC demonstrating the sensitivity and 1-specificity for diagnosis of leptospirosis at various IgM ELISA points for dilution 1:80.</p>
                </caption>
                <text>
                   <p>
                      <b>ROC demonstrating the sensitivity and 1-specificity for diagnosis of leptospirosis at various IgM ELISA points for dilution 1:80.</b>
                   </p>
                </text>
                <graphic file="s12879-014-0563-7-1"/>
             </fig>
          
          
             <fig id="F2">
                <title>
                   <p>Figure 2</p>
                </title>
                <caption>
                   <p>ROC demonstrating the sensitivity and 1-specificity for diagnosis of leptospirosis at various IgM ELISA points for dilution 1:160.</p>
                </caption>
                <text>
                   <p>
                      <b>ROC demonstrating the sensitivity and 1-specificity for diagnosis of leptospirosis at various IgM ELISA points for dilution 1:160.</b>
                   </p>
                </text>
                <graphic file="s12879-014-0563-7-2"/>
             </fig>
          
          <p>The mean&#8201;&#177;&#8201;2SD value for both positive and negative MAT samples of dilutions are listed in Table&#160;<tblr tid="T1">1</tblr>. To determine the negative and positive cut-off points, we referred to the value of mean&#8211;2SD of positive MAT samples and mean&#8201;+&#8201;2SD of negative MAT samples respectively. After that, the sensitivity and specificity of yielded cut- off values from ROC curves analysis were compared (Table&#160;<tblr tid="T2">2</tblr>). From the analysis of mean&#8201;&#177;&#8201;2SD of the 1:80 dilution, cut-off values of 0.45 and 0.64 were obtained. However, 0.64 was not selected as our positive cut-off point because it gave sensitivity of less than 90%. As the leptospirosis incidence and fatality of Leptospirosis in Malaysia is high, a very sensitive test is needed because it is very important not to miss a diagnosis <abbrgrp>
                <abbr bid="B15">15</abbr>
             </abbrgrp>. We decided the sensitivity of the positive cut-off shall be equal or greater than 90%, thus 0.45 and 0.55 were selected as negative and positive cut-off points respectively. The value between 0.45 and 0.55 is considered intermediate level and it is recommended to be repeated with follow-up sample.</p>
          
             <table id="T1">
                <title>
                   <p>Table 1</p>
                </title>
                <caption>
                   <p>
                      <b>Statistical values of both positive and negative MAT samples for ELISA with serum dilutions of 1</b>:<b>80</b>
                   </p>
                </caption>
                <tgroup align="left" cols="3">
                   <colspec align="left" colname="c1" colnum="1" colwidth="*"/>
                   <colspec align="left" colname="c2" colnum="2" colwidth="*"/>
                   <colspec align="left" colname="c3" colnum="3" colwidth="*"/>
                   <thead>
                      <row valign="top">
                         <entry colname="c1">
                            <p>
                               <b>Statistical value</b>
                            </p>
                         </entry>
                         <entry colname="c2">
                            <p>
                               <b>Positive MAT samples</b>
                            </p>
                         </entry>
                         <entry colname="c3">
                            <p>
                               <b>Negative MAT samples</b>
                            </p>
                         </entry>
                      </row>
                   </thead>
                   <tbody>
                      <row valign="top">
                         <entry colname="c1">
                            <p>Mean</p>
                         </entry>
                         <entry colname="c2">
                            <p>0.7783</p>
                         </entry>
                         <entry colname="c3">
                            <p>0.4316</p>
                         </entry>
                      </row>
                      <row valign="top">
                         <entry colname="c1">
                            <p>SD</p>
                         </entry>
                         <entry colname="c2">
                            <p>0.1627</p>
                         </entry>
                         <entry colname="c3">
                            <p>0.1057</p>
                         </entry>
                      </row>
                      <row valign="top">
                         <entry colname="c1">
                            <p>Mean&#8201;+&#8201;2 SD</p>
                         </entry>
                         <entry colname="c2">
                            <p>1.1037</p>
                         </entry>
                         <entry colname="c3">
                            <p>0.6430</p>
                         </entry>
                      </row>
                      <row valign="top">
                         <entry colname="c1">
                            <p>Mean-2 SD</p>
                         </entry>
                         <entry colname="c2">
                            <p>0.4529</p>
                         </entry>
                         <entry colname="c3">
                            <p>0.2202</p>
                         </entry>
                      </row>
                   </tbody>
                </tgroup>
             </table>
          
          
             <table id="T2">
                <title>
                   <p>Table 2</p>
                </title>
                <caption>
                   <p>
                      <b>Sensitivity and specificity of IgM ELISA for dilution 1</b>:<b>80 and 1</b>:<b>160 at different cut</b>-<b>off values</b>
                   </p>
                </caption>
                <tgroup align="left" cols="6">
                   <colspec align="left" colname="c1" colnum="1" colwidth="*"/>
                   <colspec align="left" colname="c2" colnum="2" colwidth="*"/>
                   <colspec align="left" colname="c3" colnum="3" colwidth="*"/>
                   <colspec align="left" colname="c4" colnum="4" colwidth="*"/>
                   <colspec align="left" colname="c5" colnum="5" colwidth="*"/>
                   <colspec align="left" colname="c6" colnum="6" colwidth="*"/>
                   <thead>
                      <row valign="top">
                         <entry colname="c1">
                            <p>
                               <b>Dilution</b>
                            </p>
                         </entry>
                         <entry colname="c2">
                            <p>
                               <b>Cut-off value</b>
                            </p>
                         </entry>
                         <entry colname="c3">
                            <p>
                               <b>Sensitivity (%)</b>
                            </p>
                         </entry>
                         <entry colname="c4">
                            <p>
                               <b>Specificity (%)</b>
                            </p>
                         </entry>
                         <entry colname="c5">
                            <p>
                               <b>Positive predictive value (%)</b>
                            </p>
                         </entry>
                         <entry colname="c6">
                            <p>
                               <b>Negative predictive value (%)</b>
                            </p>
                         </entry>
                      </row>
                   </thead>
                   <tbody>
                      <row valign="top">
                         <entry colname="c1"/>
                         <entry colname="c2">
                            <p>0.45</p>
                         </entry>
                         <entry colname="c3">
                            <p>96.15</p>
                         </entry>
                         <entry colname="c4">
                            <p>57.89</p>
                         </entry>
                         <entry colname="c5">
                            <p>75.76</p>
                         </entry>
                         <entry colname="c6">
                            <p>91.67</p>
                         </entry>
                      </row>
                      <row valign="top">
                         <entry colname="c1">
                            <p>1:80</p>
                         </entry>
                         <entry colname="c2">
                            <p>0.50</p>
                         </entry>
                         <entry colname="c3">
                            <p>94.87</p>
                         </entry>
                         <entry colname="c4">
                            <p>75.44</p>
                         </entry>
                         <entry colname="c5">
                            <p>84.09</p>
                         </entry>
                         <entry colname="c6">
                            <p>91.49</p>
                         </entry>
                      </row>
                      <row valign="top">
                         <entry colname="c1" morerows="2" rowsep="1"/>
                         <entry colname="c2">
                            <p>0.55</p>
                         </entry>
                         <entry colname="c3">
                            <p>90.38</p>
                         </entry>
                         <entry colname="c4">
                            <p>87.72</p>
                         </entry>
                         <entry colname="c5">
                            <p>86.96</p>
                         </entry>
                         <entry colname="c6">
                            <p>90.97</p>
                         </entry>
                      </row>
                      <row valign="top">
                         <entry colname="c2">
                            <p>0.60</p>
                         </entry>
                         <entry colname="c3">
                            <p>85.26</p>
                         </entry>
                         <entry colname="c4">
                            <p>93.86</p>
                         </entry>
                         <entry colname="c5">
                            <p>95.00</p>
                         </entry>
                         <entry colname="c6">
                            <p>82.31</p>
                         </entry>
                      </row>
                      <row rowsep="1" valign="top">
                         <entry colname="c2">
                            <p>0.65</p>
                         </entry>
                         <entry colname="c3">
                            <p>80.13</p>
                         </entry>
                         <entry colname="c4">
                            <p>97.37</p>
                         </entry>
                         <entry colname="c5">
                            <p>97.66</p>
                         </entry>
                         <entry colname="c6">
                            <p>78.17</p>
                         </entry>
                      </row>
                      <row valign="top">
                         <entry colname="c1"/>
                         <entry colname="c2">
                            <p>0.45</p>
                         </entry>
                         <entry colname="c3">
                            <p>88.46</p>
                         </entry>
                         <entry colname="c4">
                            <p>84.21</p>
                         </entry>
                         <entry colname="c5">
                            <p>88.46</p>
                         </entry>
                         <entry colname="c6">
                            <p>84.21</p>
                         </entry>
                      </row>
                      <row valign="top">
                         <entry colname="c1">
                            <p>1:160</p>
                         </entry>
                         <entry colname="c2">
                            <p>0.50</p>
                         </entry>
                         <entry colname="c3">
                            <p>83.33</p>
                         </entry>
                         <entry colname="c4">
                            <p>90.35</p>
                         </entry>
                         <entry colname="c5">
                            <p>92.20</p>
                         </entry>
                         <entry colname="c6">
                            <p>79.84</p>
                         </entry>
                      </row>
                      <row valign="top">
                         <entry colname="c1" morerows="2"/>
                         <entry colname="c2">
                            <p>0.55</p>
                         </entry>
                         <entry colname="c3">
                            <p>72.44</p>
                         </entry>
                         <entry colname="c4">
                            <p>92.98</p>
                         </entry>
                         <entry colname="c5">
                            <p>93.39</p>
                         </entry>
                         <entry colname="c6">
                            <p>71.14</p>
                         </entry>
                      </row>
                      <row valign="top">
                         <entry colname="c2">
                            <p>0.60</p>
                         </entry>
                         <entry colname="c3">
                            <p>66.67</p>
                         </entry>
                         <entry colname="c4">
                            <p>97.37</p>
                         </entry>
                         <entry colname="c5">
                            <p>97.20</p>
                         </entry>
                         <entry colname="c6">
                            <p>68.10</p>
                         </entry>
                      </row>
                      <row valign="top">
                         <entry colname="c2">
                            <p>0.65</p>
                         </entry>
                         <entry colname="c3">
                            <p>57.05</p>
                         </entry>
                         <entry colname="c4">
                            <p>97.37</p>
                         </entry>
                         <entry colname="c5">
                            <p>96.74</p>
                         </entry>
                         <entry colname="c6">
                            <p>62.36</p>
                         </entry>
                      </row>
                   </tbody>
                </tgroup>
             </table>
          
          <p>To emphasize, our institute is the main institute that carry out the leptospirosis routine diagnosis work which submitted from clinics and hospitals throughout the country <abbrgrp>
                <abbr bid="B16">16</abbr>
             </abbrgrp>. It is important to note that about 50% of the positive sera were agglutinated with this strain in our MAT test yearly. We had submitted the partial sequence of 16S ribosomal RNA gene of this strain to NCBI (GeneBank: JX292159) and research on this strain is still ongoing.</p>
          <p>As convalescent-phase serum is hardly available in Malaysia hospital, it is difficult to determine the fourfold or greater rise in MAT titers between acute- and convalescent-phase which define a leptospirosis case. Thus, we referred the guidelines given by Ministry of Health Malaysia <abbrgrp>
                <abbr bid="B17">17</abbr>
             </abbrgrp>. The case was defined positive if single serum titre was equal to or greater than 400 while fourfold or greater rise in MAT titre if paired sera were obtained. The same case definition also used in other studies <abbrgrp>
                <abbr bid="B11">11</abbr>
             </abbrgrp>,<abbrgrp>
                <abbr bid="B18">18</abbr>
             </abbrgrp>-<abbrgrp>
                <abbr bid="B20">20</abbr>
             </abbrgrp>. Besides, the case also can be defined positive if MAT is greater than or equal to 400 and supported by a positive IgM result <abbrgrp>
                <abbr bid="B21">21</abbr>
             </abbrgrp>. In this study, we had further increased the reliability of our result with including the samples which showed positive from both rapid and MAT tests. Lastly, further study on more clinical samples is necessary to determine the usefulness of our IgM ELISA.</p>
       </sec>
       <sec>
          <st>
             <p>4
 						Conclusions</p>
          </st>
          <p>This study showed that using the cut-off points determined from 1:80 dilution in our in-house ELISA using local Leptospira isolation is sensitive for the detection of leptospirosis cases when compared to the MAT results. The positive and negative cut-off points for this IgM ELISA are 0.55 and 0.45 respectively.</p>
       </sec>
       <sec>
          <st>
             <p>Abbreviations</p>
          </st>
          <p>AUC: Area under the curve</p>
          <p>CI: Confidence interval</p>
          <p>ELISA: Enzyme-linked immunosorbent assay</p>
          <p>IgM: Immunoglobulin M</p>
          <p>MAT: Microscopic agglutination test</p>
          <p>PBS: Phosphate buffered saline</p>
          <p>ROC: Receiver operating characteristic</p>
          <p>PPV: Positive predictive value</p>
          <p>NPV: Negative predictive value</p>
          <p>SD: Standard deviation</p>
       </sec>
       <sec>
          <st>
             <p>Competing interests</p>
          </st>
          <p>The authors declare that they have no competing interests.</p>
       </sec>
       <sec>
          <st>
             <p>Authors&#8217; contributions</p>
          </st>
          <p>XTT carried out the study, participated in the statistical analysis and drafted the manuscript. KCC performed the statistical analysis, interpretation of the data and drafted the manuscript. FA conceived the study, participated in study design and critical revision for important intellectual content. NA critically revised the manuscript and provided general support. All authors read and approved the final manuscript.</p>
       </sec>
    </bdy>
    <bm>
       <ack>
          <sec>
             <st>
                <p>Acknowledgments</p>
             </st>
             <p>The authors would like to thank the Director General of Health, Ministry of Health Malaysia for permission to publish this article. The authors would also like to express their appreciation to the Director of the Institute for Medical Research for her support in this study.</p>
          </sec>
       </ack>
       <refgrp>
          
          <bibl id="B1">
             <title>
                <p>Usefulness of serologic analysis as a predictor of the infecting serovar in patients with severe leptospirosis</p>
             </title>
             <aug>
                <au>
                   <snm>Levett</snm>
                   <fnm>PN</fnm>
                </au>
             </aug>
             <source>Clin Iinfect Dis</source>
             <pubdate>2003</pubdate>
             <volume>36</volume>
             <fpage>447</fpage>
             <lpage>452</lpage>
             <xrefbib>
                <pubidlist>
                   <pubid idtype="doi">10.1086/346208</pubid>
                </pubidlist>
             </xrefbib>
          </bibl>
          <bibl id="B2">
             
                <url>http://www.who.int/csr/don/en/WHO_CDS_CSR_EPH_2002.23.pdf</url>
             
<note>World Health Organization: <b>Human leptospirosis: guidance for diagnosis, surveillance and control.</b> 2003. .</note>
          </bibl>
          <bibl id="B3">
             <title>
                <p>Leptospirosis: epidemiology and preventive measures</p>
             </title>
             <aug>
                <au>
                   <snm>Zavitsanou</snm>
                   <fnm>A</fnm>
                </au>
                <au>
                   <snm>Babatsikou</snm>
                   <fnm>F</fnm>
                </au>
             </aug>
             <source>Health Sci J</source>
             <pubdate>2008</pubdate>
             <volume>2</volume>
             <issue>2</issue>
             <fpage>75</fpage>
             <lpage>82</lpage>
          </bibl>
          <bibl id="B4">
             <title>
                <p>A case study: leptospirosis in Malaysia</p>
             </title>
             <aug>
                <au>
                   <snm>Lim</snm>
                   <fnm>JK</fnm>
                </au>
                <au>
                   <snm>Murugaiyah</snm>
                   <fnm>VA</fnm>
                </au>
                <au>
                   <snm>Ramli</snm>
                   <fnm>A</fnm>
                </au>
                <au>
                   <snm>Abdul Rahman</snm>
                   <fnm>H</fnm>
                </au>
                <au>
                   <snm>Mohamed</snm>
                   <fnm>N</fnm>
                </au>
                <au>
                   <snm>Shamsudin</snm>
                   <fnm>N</fnm>
                </au>
                <au>
                   <snm>Tan</snm>
                   <fnm>JC</fnm>
                </au>
             </aug>
             <source>WebmedCentral Iinfect Dis</source>
             <pubdate>2011</pubdate>
             <volume>2</volume>
             <issue>12</issue>
             <fpage>WMC002764</fpage>
          </bibl>
          <bibl id="B5">
             <title>
                <p>Leptospirosis: a re-emerging infection</p>
             </title>
             <aug>
                <au>
                   <snm>Lim</snm>
                   <fnm>VKE</fnm>
                </au>
             </aug>
             <source>Malayas J Pathology</source>
             <pubdate>2011</pubdate>
             <volume>33</volume>
             <issue>1</issue>
             <fpage>1</fpage>
             <lpage>5</lpage>
          </bibl>
          <bibl id="B6">
             <title>
                <p>Laboratory diagnosis of leptospirosis</p>
             </title>
             <aug>
                <au>
                   <snm>Ahmad</snm>
                   <fnm>SN</fnm>
                </au>
                <au>
                   <snm>Shah</snm>
                   <fnm>S</fnm>
                </au>
                <au>
                   <snm>Ahmad</snm>
                   <fnm>FMS</fnm>
                </au>
             </aug>
             <source>J Postgrad Med</source>
             <pubdate>2005</pubdate>
             <volume>51</volume>
             <fpage>195</fpage>
             <lpage>200</lpage>
             <xrefbib>
                <pubidlist>
                   <pubid idtype="pmpid" link="fulltext">16333192</pubid>
                </pubidlist>
             </xrefbib>
          </bibl>
          <bibl id="B7">
             <title>
                <p>Leptospirosis</p>
             </title>
             <aug>
                <au>
                   <snm>Levett</snm>
                   <fnm>PN</fnm>
                </au>
             </aug>
             <source>Clin Microbiol Rev</source>
             <pubdate>2001</pubdate>
             <volume>14</volume>
             <issue>2</issue>
             <fpage>296</fpage>
             <lpage>326</lpage>
             <xrefbib>
                <pubidlist>
                   <pubid idtype="doi">10.1128/CMR.14.2.296-326.2001</pubid>
                   <pubid idtype="pmpid" link="fulltext">11292640</pubid>
                </pubidlist>
             </xrefbib>
          </bibl>
          <bibl id="B8">
             <title>
                <p>Accuracy of a commercial IgM ELISA for the diagnosis of human leptospirosis in Thailand</p>
             </title>
             <aug>
                <au>
                   <snm>Desakorn</snm>
                   <fnm>V</fnm>
                </au>
                <au>
                   <snm>Wuthiekanun</snm>
                   <fnm>V</fnm>
                </au>
                <au>
                   <snm>Thanachartwet</snm>
                   <fnm>V</fnm>
                </au>
                <au>
                   <snm>Sahassananda</snm>
                   <fnm>D</fnm>
                </au>
                <au>
                   <snm>Chierakul</snm>
                   <fnm>W</fnm>
                </au>
                <au>
                   <snm>Apiwattanaporn</snm>
                   <fnm>A</fnm>
                </au>
                <au>
                   <snm>Day</snm>
                   <fnm>NP</fnm>
                </au>
                <au>
                   <snm>Limmathurosakul</snm>
                   <fnm>D</fnm>
                </au>
                <au>
                   <snm>Peacock</snm>
                   <fnm>SJ</fnm>
                </au>
             </aug>
             <source>Am J Trop Med Hyg</source>
             <pubdate>2012</pubdate>
             <volume>86</volume>
             <issue>3</issue>
             <fpage>524</fpage>
             <lpage>527</lpage>
             <xrefbib>
                <pubidlist>
                   <pubid idtype="doi">10.4269/ajtmh.2012.11-0423</pubid>
                   <pubid idtype="pmpid" link="fulltext">22403329</pubid>
                </pubidlist>
             </xrefbib>
          </bibl>
          <bibl id="B9">
             <title>
                <p>Two methods for rapid serological diagnosis of acute leptospirosis</p>
             </title>
             <aug>
                <au>
                   <snm>Levett</snm>
                   <fnm>PN</fnm>
                </au>
                <au>
                   <snm>Branch</snm>
                   <fnm>SL</fnm>
                </au>
                <au>
                   <snm>Whittington</snm>
                   <fnm>CU</fnm>
                </au>
                <au>
                   <snm>Edwards</snm>
                   <fnm>CN</fnm>
                </au>
                <au>
                   <snm>Paxton</snm>
                   <fnm>H</fnm>
                </au>
             </aug>
             <source>Clin Diagn Lab Immun</source>
             <pubdate>2001</pubdate>
             <volume>8</volume>
             <issue>2</issue>
             <fpage>349</fpage>
             <lpage>351</lpage>
          </bibl>
          <bibl id="B10">
             <title>
                <p>Leptospirosis in India and the rest of the world</p>
             </title>
             <aug>
                <au>
                   <snm>Sambasiva</snm>
                   <fnm>RR</fnm>
                </au>
                <au>
                   <snm>Naveen</snm>
                   <fnm>G</fnm>
                </au>
                <au>
                   <snm>Bhalla</snm>
                   <fnm>P</fnm>
                </au>
                <au>
                   <snm>Agarwal</snm>
                   <fnm>SK</fnm>
                </au>
             </aug>
             <source>Braz J Iinfect Dis</source>
             <pubdate>2003</pubdate>
             <volume>7</volume>
             <issue>3</issue>
             <fpage>178</fpage>
             <lpage>193</lpage>
          </bibl>
          <bibl id="B11">
             <title>
                <p>Laboratory diagnosis of leptospirosis: a challenge</p>
             </title>
             <aug>
                <au>
                   <snm>Musso</snm>
                   <fnm>D</fnm>
                </au>
                <au>
                   <snm>Scola</snm>
                   <fnm>BL</fnm>
                </au>
             </aug>
             <source>J Microbiol Immunol</source>
             <pubdate>2013</pubdate>
             <volume>46</volume>
             <fpage>245</fpage>
             <lpage>252</lpage>
             <xrefbib>
                <pubidlist>
                   <pubid idtype="doi">10.1016/j.jmii.2013.03.001</pubid>
                </pubidlist>
             </xrefbib>
          </bibl>
          <bibl id="B12">
             <title>
                <p>Evaluation of eight rapid screening tests for acute leptospirosis in Hawaii</p>
             </title>
             <aug>
                <au>
                   <snm>Effler</snm>
                   <fnm>PV</fnm>
                </au>
                <au>
                   <snm>Bogard</snm>
                   <fnm>AK</fnm>
                </au>
                <au>
                   <snm>Domen</snm>
                   <fnm>HY</fnm>
                </au>
                <au>
                   <snm>Katz</snm>
                   <fnm>AR</fnm>
                </au>
                <au>
                   <snm>Higa</snm>
                   <fnm>HY</fnm>
                </au>
                <au>
                   <snm>Sasaki</snm>
                   <fnm>DM</fnm>
                </au>
             </aug>
             <source>J Clin Microbiol</source>
             <pubdate>2002</pubdate>
             <volume>40</volume>
             <issue>4</issue>
             <fpage>1464</fpage>
             <lpage>1469</lpage>
             <xrefbib>
                <pubidlist>
                   <pubid idtype="doi">10.1128/JCM.40.4.1464-1469.2002</pubid>
                   <pubid idtype="pmpid" link="fulltext">11923374</pubid>
                </pubidlist>
             </xrefbib>
          </bibl>
          <bibl id="B13">
             
                <url>http://www.kck.usm.my/ppsg/stats_resources.htm</url>
             
<note>Naing L: <b>Sample size calculator for sensitivity and specificity studies.</b>.</note>
          </bibl>
          <bibl id="B14">
             <title>
                <p>Establishment of valid laboratory case definition for human leptospirosis</p>
             </title>
             <aug>
                <au>
                   <snm>Goris</snm>
                   <fnm>MGA</fnm>
                </au>
                <au>
                   <snm>Leeflang</snm>
                   <fnm>MMG</fnm>
                </au>
                <au>
                   <snm>Boer</snm>
                   <fnm>KR</fnm>
                </au>
                <au>
                   <snm>Goeijenbier ECM Van</snm>
                   <fnm>G</fnm>
                </au>
                <au>
                   <snm>Wagenaar</snm>
                   <fnm>JFP</fnm>
                </au>
                <au>
                   <snm>Hartskeerl</snm>
                   <fnm>RA</fnm>
                </au>
             </aug>
             <source>J Bacteriol Parasitol</source>
             <pubdate>2012</pubdate>
             <volume>3</volume>
             <issue>2</issue>
             <fpage>1000132</fpage>
             <xrefbib>
                <pubidlist>
                   <pubid idtype="doi">10.4172/2155-9597.1000132</pubid>
                </pubidlist>
             </xrefbib>
          </bibl>
          <bibl id="B15">
             <title>
                <p>Understanding diagnostic tests 3: receiver operating characteristic curves</p>
             </title>
             <aug>
                <au>
                   <snm>Anthony</snm>
                   <fnm>K</fnm>
                </au>
             </aug>
             <source>Acta Paediatr</source>
             <pubdate>2007</pubdate>
             <volume>96</volume>
             <issue>5</issue>
             <fpage>644</fpage>
             <lpage>647</lpage>
             <xrefbib>
                <pubidlist>
                   <pubid idtype="doi">10.1111/j.1651-2227.2006.00178.x</pubid>
                </pubidlist>
             </xrefbib>
          </bibl>
          <bibl id="B16">
             <title>
                <p>A review of human leptospirosis in Malaysia</p>
             </title>
             <aug>
                <au>
                   <snm>El Jalii</snm>
                   <fnm>IM</fnm>
                </au>
                <au>
                   <snm>Bahaman</snm>
                   <fnm>A</fnm>
                </au>
             </aug>
             <source>Trop Biomed</source>
             <pubdate>2004</pubdate>
             <volume>21</volume>
             <issue>2</issue>
             <fpage>113</fpage>
             <lpage>119</lpage>
             <xrefbib>
                <pubidlist>
                   <pubid idtype="pmpid" link="fulltext">16493403</pubid>
                </pubidlist>
             </xrefbib>
          </bibl>
          <bibl id="B17">
             <source>Guidelines for the Diagnosis, Management, Prevention and Control of Leptospirosis in Malaysia</source>
             <pubdate>2011</pubdate>
          </bibl>
          <bibl id="B18">
             <title>
                <p>Clinical diagnosis and geographic distribution of leptospiroses</p>
             </title>
             <aug>
                <au>
                   <snm>Wuthiekanum</snm>
                   <fnm>V</fnm>
                </au>
                <au>
                   <snm>Sirisukkarn</snm>
                   <fnm>N</fnm>
                </au>
                <au>
                   <snm>Daengsupa</snm>
                   <fnm>P</fnm>
                </au>
                <au>
                   <snm>Sakaraserane</snm>
                   <fnm>P</fnm>
                </au>
                <au>
                   <snm>Sangkakam</snm>
                   <fnm>A</fnm>
                </au>
                <au>
                   <snm>Chierakul</snm>
                   <fnm>W</fnm>
                </au>
                <au>
                   <snm>Smythe</snm>
                   <fnm>LD</fnm>
                </au>
                <au>
                   <snm>Symonds</snm>
                   <fnm>ML</fnm>
                </au>
                <au>
                   <snm>Dohnt</snm>
                   <fnm>MF</fnm>
                </au>
                <au>
                   <snm>Slack</snm>
                   <fnm>AT</fnm>
                </au>
                <au>
                   <snm>Day</snm>
                   <fnm>NP</fnm>
                </au>
                <au>
                   <snm>Peacock</snm>
                   <fnm>SJ</fnm>
                </au>
             </aug>
             <source>Thailand Emerg Infect Dis</source>
             <pubdate>2007</pubdate>
             <volume>13</volume>
             <issue>1</issue>
             <fpage>124</fpage>
             <lpage>126</lpage>
             <xrefbib>
                <pubidlist>
                   <pubid idtype="doi">10.3201/eid1301.060718</pubid>
                </pubidlist>
             </xrefbib>
          </bibl>
          <bibl id="B19">
             <title>
                <p>Detection of IgM specific antibody using indirect immunofluorescent assay for diagnosis of acute leptospirosis</p>
             </title>
             <aug>
                <au>
                   <snm>Pradutkanchana</snm>
                   <fnm>S</fnm>
                </au>
                <au>
                   <snm>Pradutkanchana</snm>
                   <fnm>J</fnm>
                </au>
                <au>
                   <snm>Khuntikij</snm>
                   <fnm>P</fnm>
                </au>
             </aug>
             <source>J Med Assoc Thai</source>
             <pubdate>2003</pubdate>
             <volume>86</volume>
             <fpage>641</fpage>
             <lpage>646</lpage>
             <xrefbib>
                <pubidlist>
                   <pubid idtype="pmpid" link="fulltext">12948259</pubid>
                </pubidlist>
             </xrefbib>
          </bibl>
          <bibl id="B20">
             <title>
                <p>Evaluation of the immunofluorescent antibody test for the diagnosis of human leptospirosis</p>
             </title>
             <aug>
                <au>
                   <snm>Appassakij</snm>
                   <fnm>H</fnm>
                </au>
                <au>
                   <snm>Silpapojakul</snm>
                   <fnm>K</fnm>
                </au>
                <au>
                   <snm>Wansit</snm>
                   <fnm>R</fnm>
                </au>
                <au>
                   <snm>Woodtayakorn</snm>
                   <fnm>J</fnm>
                </au>
             </aug>
             <source>Am J Trop Med Hyg</source>
             <pubdate>1995</pubdate>
             <volume>52</volume>
             <fpage>340</fpage>
             <lpage>343</lpage>
             <xrefbib>
                <pubidlist>
                   <pubid idtype="pmpid" link="fulltext">7741173</pubid>
                </pubidlist>
             </xrefbib>
          </bibl>
          <bibl id="B21">
             
                <url>http://www.health.qld.gov.au/cdcg/index/lepto.asp</url>
             
<note>Queensland Government: <b>Leptospirosis: Queensland Health Guidelines for Public Health Units.</b>. .</note>
          </bibl>
       </refgrp>
    </bm>
 </art>
