<art>
    <ui>s12887-014-0287-2</ui>
    <ji>1471-2431</ji>
    <fm>
       <dochead>Research article</dochead>
       <bibl>
          <title>
             <p>Late-onset volvulus without malrotation in extremely preterm infants - a case&#8211;control-study</p>
          </title>
          <aug>
             <au id="A1" ca="yes">
                <snm>Maas</snm>
                <fnm>Christoph</fnm>
                <insr iid="I1"/>
                <email>Christoph.Maas@med.uni-tuebingen.de</email>
             </au>
             <au id="A2">
                <snm>Hammer</snm>
                <fnm>Stefanie</fnm>
                <insr iid="I1"/>
                <email>stefanie.hammer@student.uni-tuebingen.de</email>
             </au>
             <au id="A3">
                <snm>Kirschner</snm>
                <fnm>Hans-Joachim</fnm>
                <insr iid="I2"/>
                <email>Hans-Joachim.Kirschner@med.uni-tuebingen.de</email>
             </au>
             <au id="A4">
                <snm>Yarkin</snm>
                <fnm>Yasemin</fnm>
                <insr iid="I1"/>
                <email>Yasemin.Yarkin@med.uni-tuebingen.de</email>
             </au>
             <au id="A5">
                <snm>Poets</snm>
                <mi>F</mi>
                <fnm>Christian</fnm>
                <insr iid="I1"/>
                <email>Christian-f.poets@med.uni-tuebingen.de</email>
             </au>
             <au id="A6">
                <snm>Franz</snm>
                <mi>R</mi>
                <fnm>Axel</fnm>
                <insr iid="I1"/>
                <email>Axel.Franz@med.uni-tuebingen.de</email>
             </au>
          </aug>
          <insg>
             <ins id="I1">
                <p>Department of Neonatology, University Children`s Hospital, Calwerstr. 7, Tuebingen, 72076, Germany</p>
             </ins>
             <ins id="I2">
                <p>Department of Paediatric Surgery and Paediatric Urology, University Children`s Hospital, Tuebingen, Germany</p>
             </ins>
          </insg>
          <source>BMC Pediatrics</source>
          <section>
             <title>
                <p>Neonatology</p>
             </title>
          </section>
          <issn>1471-2431</issn>
          <pubdate>2014</pubdate>
          <volume>14</volume>
          <issue>1</issue>
          <fpage>287</fpage>
          <url>http://www.biomedcentral.com/1471-2431/14/287</url>
          <xrefbib>
             <pubidlist>
                <pubid idtype="doi">10.1186/s12887-014-0287-2</pubid>
             </pubidlist>
          </xrefbib>
       </bibl>
       <history>
          <rec>
             <date>
                <day>2</day>
                <month>9</month>
                <year>2014</year>
             </date>
          </rec>
          <acc>
             <date>
                <day>28</day>
                <month>10</month>
                <year>2014</year>
             </date>
          </acc>
          <pub>
             <date>
                <day>12</day>
                <month>11</month>
                <year>2014</year>
             </date>
          </pub>
       </history>
       <cpyrt>
          <year>2014</year>
          <collab>Maas et al.; licensee BioMed Central Ltd.</collab>
          <note>This is an Open Access article distributed under the terms of the Creative Commons Attribution License (<url>http://creativecommons.org/licenses/by/4.0</url>), which permits unrestricted use, distribution, and reproduction in any medium, provided the original work is properly credited. The Creative Commons Public Domain Dedication waiver (<url>http://creativecommons.org/publicdomain/zero/1.0/</url>) applies to the data made available in this article, unless otherwise stated.</note>
       </cpyrt>
       <kwdg>
          <kwd>Intestinal volvulus</kwd>
          <kwd>Acute abdomen</kwd>
          <kwd>Newborn</kwd>
          <kwd>Infant premature</kwd>
          <kwd>Necrotising enterocolitis</kwd>
       </kwdg>
       <abs>
          <sec>
             <st>
                <p>Abstract</p>
             </st>
             <sec>
                <st>
                   <p>Background</p>
                </st>
                <p>Volvulus without malrotation in preterm infants is a rare but potentially life-threatening event of unknown aetiology. Confusion with necrotising enterocolitis may delay surgical intervention thereby aggravating morbidity and mortality.</p>
                <p>We aimed at elucidating potential risk factors for, and characteristic clinical signs of, volvulus without malrotation in preterm infants.</p>
             </sec>
             <sec>
                <st>
                   <p>Methods</p>
                </st>
                <p>Retrospective, single-centre case&#8211;control study (2007&#8211;2011). For every index patient, five infants of similar gestational age, birth weight and birth year were evaluated. Additionally, all 9 cases of necrotising enterocolitis occurring during the above period were evaluated. Data are presented as median (interquartile range).</p>
             </sec>
             <sec>
                <st>
                   <p>Results</p>
                </st>
                <p>Five extremely premature infants suffering from volvulus without malrotation were identified (gestational age at birth 24.4 (23.6-25.5) weeks, birth weight 480 (370&#8211;530) g). All were small for gestational age and female; three out of five died. Volvulus occurred several weeks after birth, whereas necrotising enterocolitis occurred significantly earlier. Beyond that, no striking differences in clinical or laboratory presentation of volvulus without malrotation and necrotising enterocolitis were found. Infants with volvulus had significantly more frequent manipulations with rectal tubes for flatulence, but there were no differences in the frequency of enemas, abdominal massage or defecation. In infants with volvulus, nasal high-frequency oscillation was used more frequently for respiratory support, and PEEP-level tended to be higher.</p>
             </sec>
             <sec>
                <st>
                   <p>Conclusions</p>
                </st>
                <p>In extremely premature infants volvulus without malrotation represents a life-threatening event that occurs typically several weeks after birth with an acute abdomen and seems to affect predominantly girls. Infants requiring intensive non-invasive respiratory support might be at highest risk.</p>
             </sec>
          </sec>
       </abs>
    </fm>
    <bdy>
       <sec>
          <st>
             <p>Background</p>
          </st>
          <p>Intestinal volvulus in association with malrotation is a well recognized condition in the newborn <abbrgrp>
                <abbr bid="B1">1</abbr>
             </abbrgrp> and an important cause of gastrointestinal emergency in the preterm infant <abbrgrp>
                <abbr bid="B2">2</abbr>
             </abbrgrp>.</p>
          <p>In contrast, primary volvulus without malrotation (VWM) is expected to be a very rare event. However, there is no reliable data on the incidence of VWM. Case series on primary VWM in the perinatal period report a predominance of infants born prematurely <abbrgrp>
                <abbr bid="B3">3</abbr>
             </abbrgrp>-<abbrgrp>
                <abbr bid="B7">7</abbr>
             </abbrgrp>, particularly before 30&#160;weeks gestational age and with a birth weight &lt;1000 g; many were affected several weeks after birth. Furthermore, there are case reports that describe the occurrence of VWM in utero <abbrgrp>
                <abbr bid="B7">7</abbr>
             </abbrgrp>-<abbrgrp>
                <abbr bid="B9">9</abbr>
             </abbrgrp>.</p>
          <p>VWM generally presents as an acute abdomen with a rapid and dramatic deterioration of the infant&#8217;s general condition. In some infants, repeated episodes of abdominal distension and/or subacute intestinal obstruction were described as early clinical signs preceding the manifestation of VWM <abbrgrp>
                <abbr bid="B4">4</abbr>
             </abbrgrp>. Especially in the vulnerable population of very preterm infants, diagnosis before the occurrence of irreversible intestinal ischemia may be difficult due to a lack of specific radiological or ultrasound features revealing the underlying strangulating obstruction <abbrgrp>
                <abbr bid="B4">4</abbr>
             </abbrgrp> and the rapid progression of ischemic bowel damage. Additionally, volvulus may be mistaken for the more common entity of necrotising enterocolitis (NEC) <abbrgrp>
                <abbr bid="B2">2</abbr>
             </abbrgrp> which may delay the surgical intervention thereby aggravating morbidity and mortality. The ischemic changes of the twisted bowel in VWM are supposed to progress more rapidly because of a normal position and fixation of the uninvolved colon, whereas in cases of volvulus with malrotation and mobile cecum, the colon may attenuate ischemia and the sequelae of small bowel torsion <abbrgrp>
                <abbr bid="B10">10</abbr>
             </abbrgrp>-<abbrgrp>
                <abbr bid="B12">12</abbr>
             </abbrgrp>.</p>
          <p>Intrauterine foetal demise due to midgut volvulus is even more infrequent but may be of similar aetiology <abbrgrp>
                <abbr bid="B13">13</abbr>
             </abbrgrp>.</p>
          <p>The aetiology of VWM is unknown <abbrgrp>
                <abbr bid="B12">12</abbr>
             </abbrgrp>. The absence of a segment of small bowel musculature or a mesenteric defect have occasionally been described in VWM <abbrgrp>
                <abbr bid="B14">14</abbr>
             </abbrgrp>,<abbrgrp>
                <abbr bid="B15">15</abbr>
             </abbrgrp>. Furthermore, respiratory support with CPAP as well as abdominal massage and pelvic rotation were suspected as risk factors <abbrgrp>
                <abbr bid="B3">3</abbr>
             </abbrgrp>,<abbrgrp>
                <abbr bid="B4">4</abbr>
             </abbrgrp>,<abbrgrp>
                <abbr bid="B6">6</abbr>
             </abbrgrp>.</p>
          <p>The aim of this case&#8211;control-study was to re-evaluate potential risk factors and characteristic early clinical signs of VWM in very preterm infants to potentially inform strategies for prevention.</p>
       </sec>
       <sec>
          <st>
             <p>Patient and methods</p>
          </st>
          <p>This retrospective case&#8211;control study was performed at T&#252;bingen University Children&#8217;s Hospital. The ethics committee at the University of T&#252;bingen, Faculty of Medicine, approved the retrospective evaluation and waived the need for parental consent, hence parental consent was not asked for.</p>
          <p>All five inborn preterm infants with VWM identified among 554 life born infants with a birth weight &lt;1500 g (very low birth weight (VLBW) infants) at our institution between January 1, 2007, and December 31, 2011 were included. There have been no further cases of VMN until July 2014 (another 277 VLBW infants). For each case, five control infants without VWM or gastrointestinal conditions entailing surgical procedures were selected from inborn infants (n&#8201;=&#8201;507), matched for gestational age at birth, birth weight and year of admission, a priori excluding infants who had undergone laparotomy. Additionally, all 9 inborn VLBW infants with NEC Bell stage &#8805;2 in this period (2007&#8211;2011) were evaluated.</p>
          <p>Medical charts of included infants were meticulously analysed for pre-defined potential risk factors and clinical signs derived from previous reports and our own experience. Data included demographic variables, neonatal morbidities, parameters of gastrointestinal function, data on initiation, advancement and type of enteral nutrition, manipulations intended to promote regular gastrointestinal transport, duration, type and intensity of respiratory support, frequency and intensity of chart-documented apnoea of prematurity, clinical signs and laboratory abnormalities on the day of presentation as well as any administration of medications with suspected or proven gastrointestinal interactions. In control infants, these parameters were evaluated at the equivalent postnatal age of VWM-presentation in the corresponding index infant as well as pre-defined time periods prior to the presentation (prodromal stage). These pre-defined time periods included ten to four days (d-10 &#8211; d-4) and three to one days (d-3-d-1) prior to presentation.</p>
          <sec>
             <st>
                <p>Statistical analyses</p>
             </st>
             <p>Data are presented as medians (interquartile range). To evaluate weight gain, standard deviation score (SDS) for weight was computed using the Microsoft Excel add-in LMS Growth (version 2.14; <url>http://www.healthforallchildren.com/?product=lmsgrowth</url>). The reference population for this program is the British 1990 growth reference fitted by maximum penalized likelihood <abbrgrp>
                   <abbr bid="B16">16</abbr>
                </abbrgrp>,<abbrgrp>
                   <abbr bid="B17">17</abbr>
                </abbrgrp>. Comparisons between cohorts were performed using the Wilcoxon/Kruskal-Wallis test or fisher`s exact test. Statistical significance was assumed at p &lt;0.05. Analyses were performed with JMP&#174; 11.1.1 (SAS Institute Inc., USA).</p>
          </sec>
       </sec>
       <sec>
          <st>
             <p>Results</p>
          </st>
          <p>This case&#8211;control-study included five extremely premature infants with small bowel VWM. In all 5 infants, birth weight was &lt;600&#160;g and gestational age at birth &lt;26&#160;weeks, and all were small for gestational age and female (for demographic variables see Table&#160;<tblr tid="T1">1</tblr>). In two infants, necrotic small bowel was resected after detorsion, leaving 55&#8211;65 cm of small intestine for recovery. In three infants, laparotomy revealed complete small bowel necrosis without apparent recovery following detorsion, and the abdomen was closed without resection. One of these infants died within hours of multi-organ failure, the other two had re-laparotomy confirming complete intestinal necrosis and died after a decision for palliative care.</p>
          
             <table id="T1">
                <title>
                   <p>Table 1</p>
                </title>
                <caption>
                   <p>
                      <b>Demographic variables</b>
                   </p>
                </caption>
                <tgroup align="left" cols="5">
                   <colspec align="left" colname="c1" colnum="1" colwidth="*"/>
                   <colspec align="left" colname="c2" colnum="2" colwidth="*"/>
                   <colspec align="left" colname="c3" colnum="3" colwidth="*"/>
                   <colspec align="left" colname="c4" colnum="4" colwidth="*"/>
                   <colspec align="left" colname="c5" colnum="5" colwidth="*"/>
                   <thead>
                      <row valign="top">
                         <entry colname="c1"/>
                         <entry colname="c2">
                            <p>
                               <b>Volvulus without malrotation</b>
                            </p>
                         </entry>
                         <entry colname="c3">
                            <p>
                               <b>Matched controls</b>
                            </p>
                         </entry>
                         <entry colname="c4">
                            <p>
                               <b>Necrotising enterocolitis</b>
                            </p>
                         </entry>
                         <entry colname="c5">
                            <p>
                               <b>p-value</b>
                            </p>
                         </entry>
                      </row>
                   </thead>
                   <tfoot>
                      <p>f: female; m: male.</p>
                      <p>*: VWM-infants vs. NEC-infants.</p>
                      <p>**: VWM-infants vs. controls.</p>
                      <p>
                         <sup>#</sup>: Fisher`s exact test, two tailed.</p>
                      <p>
                         <sup>##</sup>: Wilcoxon test.</p>
                   </tfoot>
                   <tbody>
                      <row valign="top">
                         <entry colname="c1" morerows="1">
                            <p>
                               <b>Number of infants (f/m)</b>
                            </p>
                         </entry>
                         <entry colname="c2" morerows="1">
                            <p>5 (5/0)</p>
                         </entry>
                         <entry colname="c3" morerows="1">
                            <p>25 (12/13)</p>
                         </entry>
                         <entry colname="c4" morerows="1">
                            <p>9 (7/2)</p>
                         </entry>
                         <entry colname="c5">
                            <p>p&#8201;=&#8201;0.506*<sup>,#</sup>
                            </p>
                         </entry>
                      </row>
                      <row valign="top">
                         <entry colname="c5">
                            <p>p&#8201;=&#8201;0.052**<sup>,#</sup>
                            </p>
                         </entry>
                      </row>
                      <row valign="top">
                         <entry colname="c1" morerows="1">
                            <p>
                               <b>Gestational age at birth (weeks) (median (range))</b>
                            </p>
                         </entry>
                         <entry colname="c2" morerows="1">
                            <p>24.4 (23.6-25.4)</p>
                         </entry>
                         <entry colname="c3" morerows="1">
                            <p>24.8 (23.1-26.4)</p>
                         </entry>
                         <entry colname="c4" morerows="1">
                            <p>27 (23.6-33.6)</p>
                         </entry>
                         <entry colname="c5">
                            <p>p&#8201;=&#8201;0.402*</p>
                         </entry>
                      </row>
                      <row valign="top">
                         <entry colname="c5">
                            <p>p&#8201;=&#8201;0.160**</p>
                         </entry>
                      </row>
                      <row valign="top">
                         <entry colname="c1" morerows="1">
                            <p>
                               <b>Birth weight (g) (median (range))</b>
                            </p>
                         </entry>
                         <entry colname="c2" morerows="1">
                            <p>480 (370&#8211;530)</p>
                         </entry>
                         <entry colname="c3" morerows="1">
                            <p>570 (340&#8211;800)</p>
                         </entry>
                         <entry colname="c4" morerows="1">
                            <p>950 (395&#8211;1460)</p>
                         </entry>
                         <entry colname="c5">
                            <p>p&#8201;=&#8201;0.048*<sup>,##</sup>
                            </p>
                         </entry>
                      </row>
                      <row valign="top">
                         <entry colname="c5">
                            <p>p&#8201;=&#8201;0.016**<sup>,##</sup>
                            </p>
                         </entry>
                      </row>
                      <row valign="top">
                         <entry colname="c1">
                            <p>
                               <b>Weight at presentation (g) (median (range))</b>
                            </p>
                         </entry>
                         <entry colname="c2">
                            <p>970 (790&#8211;1180)</p>
                         </entry>
                         <entry colname="c3"/>
                         <entry colname="c4">
                            <p>1145 (670&#8211;2470)</p>
                         </entry>
                         <entry colname="c5">
                            <p>p&#8201;=&#8201;0.64<sup>##</sup>
                            </p>
                         </entry>
                      </row>
                      <row valign="top">
                         <entry colname="c1">
                            <p>
                               <b>Day of life at presentation (median (range))</b>
                            </p>
                         </entry>
                         <entry colname="c2">
                            <p>44 (37&#8211;52)</p>
                         </entry>
                         <entry colname="c3"/>
                         <entry colname="c4">
                            <p>17 (2&#8211;97)</p>
                         </entry>
                         <entry colname="c5">
                            <p>p&#8201;=&#8201;0.028<sup>##</sup>
                            </p>
                         </entry>
                      </row>
                      <row valign="top">
                         <entry colname="c1">
                            <p>
                               <b>Postmenstrual age at presentation (weeks) (median (range))</b>
                            </p>
                         </entry>
                         <entry colname="c2">
                            <p>31.0 (29.1-31.6)</p>
                         </entry>
                         <entry colname="c3"/>
                         <entry colname="c4">
                            <p>33.1 (24.3-38.0)</p>
                         </entry>
                         <entry colname="c5">
                            <p>p&#8201;=&#8201;0.739<sup>##</sup>
                            </p>
                         </entry>
                      </row>
                   </tbody>
                </tgroup>
             </table>
          
          <p>Demographic data of all 9 inborn infants who developed NEC within the same observational period are also depicted in Table&#160;<tblr tid="T1">1</tblr>.</p>
          <p>Infants with VWM were significantly older at presentation than infants with NEC and their birth weight was lower (Table&#160;<tblr tid="T1">1</tblr>). However, neither postmenstrual age at birth nor postmenstrual age and weight at presentation differed significantly (Table&#160;<tblr tid="T1">1</tblr>). Furthermore, we found no striking differences in clinical signs or laboratory parameters between the two disease entities (Table&#160;<tblr tid="T2">2</tblr>). On the other hand, there was apparently a marked but possibly because of small numbers statistically non-significant difference in survival rate (2/5 VWM infants (40%) and 7/9 infants with NEC (78%), p&#8201;=&#8201;0.27). Preoperative radiological findings in index infants were non-specific except for one patient who showed alignment of bowel loops compatible with volvulus (Figure&#160;<figr fid="F1">1</figr>A).</p>
          
             <table id="T2">
                <title>
                   <p>Table 2</p>
                </title>
                <caption>
                   <p>
                      <b>Clinical signs and selected laboratory parameters at day of presentation</b>
                   </p>
                </caption>
                <tgroup align="left" cols="4">
                   <colspec align="left" colname="c1" colnum="1" colwidth="*"/>
                   <colspec align="left" colname="c2" colnum="2" colwidth="*"/>
                   <colspec align="left" colname="c3" colnum="3" colwidth="*"/>
                   <colspec align="left" colname="c4" colnum="4" colwidth="*"/>
                   <thead>
                      <row valign="top">
                         <entry colname="c1"/>
                         <entry colname="c2">
                            <p>
                               <b>Volvulus without malrotation</b>
                            </p>
                         </entry>
                         <entry colname="c3">
                            <p>
                               <b>Necrotising enterocolitis</b>
                            </p>
                         </entry>
                         <entry colname="c4">
                            <p>
                               <b>p-value</b>
                            </p>
                         </entry>
                      </row>
                   </thead>
                   <tfoot>
                      <p>*: Fisher`s exact test, two tailed.</p>
                      <p>**: Wilcoxon test.</p>
                      <p>***=&#8201;all derived from venous blood samples.</p>
                   </tfoot>
                   <tbody>
                      <row valign="top">
                         <entry colname="c1">
                            <p>
                               <b>Bile stained gastric residuals (n/N)</b>
                            </p>
                         </entry>
                         <entry colname="c2">
                            <p>4/5</p>
                         </entry>
                         <entry colname="c3">
                            <p>6/9</p>
                         </entry>
                         <entry colname="c4">
                            <p>p&#8201;=&#8201;1.0*</p>
                         </entry>
                      </row>
                      <row valign="top">
                         <entry colname="c1">
                            <p>
                               <b>Blood in stool (n/N)</b>
                            </p>
                         </entry>
                         <entry colname="c2">
                            <p>1/5</p>
                         </entry>
                         <entry colname="c3">
                            <p>3/9</p>
                         </entry>
                         <entry colname="c4">
                            <p>p&#8201;=&#8201;1.0*</p>
                         </entry>
                      </row>
                      <row valign="top">
                         <entry colname="c1">
                            <p>
                               <b>Emesis (n/N)</b>
                            </p>
                         </entry>
                         <entry colname="c2">
                            <p>1/5</p>
                         </entry>
                         <entry colname="c3">
                            <p>3/9</p>
                         </entry>
                         <entry colname="c4">
                            <p>p&#8201;=&#8201;1.0*</p>
                         </entry>
                      </row>
                      <row valign="top">
                         <entry colname="c1">
                            <p>
                               <b>Blood pH at presentation ***(median (range))</b>
                            </p>
                         </entry>
                         <entry colname="c2">
                            <p>7.32 (6.6-7.37)</p>
                         </entry>
                         <entry colname="c3">
                            <p>7.25 (7.00-7.34)</p>
                         </entry>
                         <entry colname="c4">
                            <p>p&#8201;=&#8201;0.64**</p>
                         </entry>
                      </row>
                      <row valign="top">
                         <entry colname="c1">
                            <p>
                               <b>Base excess at presentation ***(median (range))</b>
                            </p>
                         </entry>
                         <entry colname="c2">
                            <p>&#8722;6.6 (&#8722;32.0- -1.5)</p>
                         </entry>
                         <entry colname="c3">
                            <p>&#8722;5.6 (&#8722;21.2-5.2)</p>
                         </entry>
                         <entry colname="c4">
                            <p>p&#8201;=&#8201;0.46**</p>
                         </entry>
                      </row>
                      <row valign="top">
                         <entry colname="c1">
                            <p>
                               <b>Blood lactate at presentation ***(median (range))</b>
                            </p>
                         </entry>
                         <entry colname="c2">
                            <p>3.3 (1.5-13.1)</p>
                         </entry>
                         <entry colname="c3">
                            <p>2.5 (0.8-6.7)</p>
                         </entry>
                         <entry colname="c4">
                            <p>p&#8201;=&#8201;0.35**</p>
                         </entry>
                      </row>
                   </tbody>
                </tgroup>
             </table>
          
          
             <fig id="F1">
                <title>
                   <p>Figure 1</p>
                </title>
                <caption>
                   <p>Abdominal X-rays at clinical presentation of volvulus.</p>
                </caption>
                <text>
                   <p>
                      <b>Abdominal X-rays at clinical presentation of volvulus.</b> Abdominal X-rays at clinical presentation of volvulus: Panel <b>A</b> shows possibly suggestive concentric alignement of bowel loops, Panels <b>A</b>, <b>B</b>, <b>E</b> display unspecific intestinal wall thickening, Panel <b>D</b> may well have been compatible with necrotising enterocolitis and Panel <b>C</b> is unspecific.</p>
                </text>
                <graphic file="s12887-014-0287-2-1"/>
             </fig>
          
          <p>Compared to matched control infants (n&#8201;=&#8201;25), full enteral feeds were established earlier in VWM infants (Table&#160;<tblr tid="T3">3</tblr>). All VWM infants were almost exclusively fed their own mother&#8217;s milk supplemented with a standard multi-component fortifier. In the days before clinical deterioration, VWM-infants had significantly more frequent manipulations with rectal tubes (Table&#160;<tblr tid="T3">3</tblr>) for perceived meteorism, but there were no differences in the frequency of enemas, abdominal massage or defecation. Weight gain until VWM was not significantly different between index patients and their matched counterparts (SDS for weight at presentation &#8211; SDS for weight at birth&#8201;=&#8201;&#8722;0.15(&#8722;1.26/0.19) for VWM-infants and &#8722;0.43(&#8722;1.17/-0.17) for controls).</p>
          
             <table id="T3">
                <title>
                   <p>Table 3</p>
                </title>
                <caption>
                   <p>
                      <b>Variables of gastrointestinal function and manipulations intended to promote regular gastrointestinal transport</b>
                   </p>
                </caption>
                <tgroup align="left" cols="4">
                   <colspec align="left" colname="c1" colnum="1" colwidth="*"/>
                   <colspec align="left" colname="c2" colnum="2" colwidth="*"/>
                   <colspec align="left" colname="c3" colnum="3" colwidth="*"/>
                   <colspec align="left" colname="c4" colnum="4" colwidth="*"/>
                   <thead>
                      <row valign="top">
                         <entry colname="c1"/>
                         <entry colname="c2">
                            <p>
                               <b>Volvulus without malrotation</b>
                            </p>
                         </entry>
                         <entry colname="c3">
                            <p>
                               <b>Controls</b>
                            </p>
                         </entry>
                         <entry colname="c4">
                            <p>
                               <b>p-value by Wilcoxon-test</b>
                            </p>
                         </entry>
                      </row>
                   </thead>
                   <tfoot>
                      <p>(d-3;d-1): time period from three days until one day before presentation of volvulus or corresponding postnatal age in controls.</p>
                      <p>IQR: Interquartile range.</p>
                      <p>
                         <sup>#</sup>=&#8201;median of individual medians and range of individual medians are reported.</p>
                      <p>Full feeds were defined as &#8805;140&#160;ml/kg/day of milk feeds actually administered for more than 72 h.</p>
                   </tfoot>
                   <tbody>
                      <row valign="top">
                         <entry colname="c1">
                            <p>
                               <b>Last meconium evacuation (days) (median (range))</b>
                            </p>
                         </entry>
                         <entry colname="c2">
                            <p>5 (3&#8211;8)</p>
                         </entry>
                         <entry colname="c3">
                            <p>7 (3&#8211;13)</p>
                         </entry>
                         <entry colname="c4">
                            <p>p&#8201;=&#8201;0.178</p>
                         </entry>
                      </row>
                      <row valign="top">
                         <entry colname="c1">
                            <p>
                               <b>Day of life, when full enteral feeds were reached (median (range))</b>
                            </p>
                         </entry>
                         <entry colname="c2">
                            <p>8 (6&#8211;10)</p>
                         </entry>
                         <entry colname="c3">
                            <p>10 (6&#8211;30)</p>
                         </entry>
                         <entry colname="c4">
                            <p>p&#8201;=&#8201;0.039</p>
                         </entry>
                      </row>
                      <row valign="top">
                         <entry colname="c1">
                            <p>
                               <b>Number of enemas/d (d-3;d-1) (median</b>
                               <sup>
                                  <b>#</b>
                               </sup>
                               <b>(range))</b>
                            </p>
                         </entry>
                         <entry colname="c2">
                            <p>0 (0&#8211;1)</p>
                         </entry>
                         <entry colname="c3">
                            <p>0 (0&#8211;2)</p>
                         </entry>
                         <entry colname="c4">
                            <p>p&#8201;=&#8201;0.564</p>
                         </entry>
                      </row>
                      <row valign="top">
                         <entry colname="c1">
                            <p>
                               <b>Number of manipulations with rectal tubes/d (d-3;d-1) (median</b>
                               <sup>
                                  <b>#</b>
                               </sup>
                               <b>(range; IQR))</b>
                            </p>
                         </entry>
                         <entry colname="c2">
                            <p>0 (0&#8211;3; 0&#8211;2)</p>
                         </entry>
                         <entry colname="c3">
                            <p>0 (0&#8211;1; 0&#8211;0)</p>
                         </entry>
                         <entry colname="c4">
                            <p>p&#8201;=&#8201;0.047</p>
                         </entry>
                      </row>
                      <row valign="top">
                         <entry colname="c1">
                            <p>
                               <b>Frequency of abdominal massage/d (d-3;d-1) (median</b>
                               <sup>
                                  <b>#</b>
                               </sup>
                               <b>(range))</b>
                            </p>
                         </entry>
                         <entry colname="c2">
                            <p>5 (4&#8211;6)</p>
                         </entry>
                         <entry colname="c3">
                            <p>4 (0&#8211;6)</p>
                         </entry>
                         <entry colname="c4">
                            <p>p&#8201;=&#8201;0.240</p>
                         </entry>
                      </row>
                      <row valign="top">
                         <entry colname="c1">
                            <p>
                               <b>Number of stools/d (d-3;d-1) (median</b>
                               <sup>
                                  <b>#</b>
                               </sup>
                               <b>(range))</b>
                            </p>
                         </entry>
                         <entry colname="c2">
                            <p>4 (3&#8211;6)</p>
                         </entry>
                         <entry colname="c3">
                            <p>5 (3&#8211;7)</p>
                         </entry>
                         <entry colname="c4">
                            <p>p&#8201;=&#8201;0.647</p>
                         </entry>
                      </row>
                   </tbody>
                </tgroup>
             </table>
          
          <p>All infants (VWMs and controls) were on some nasal respiratory support (CPAP, nasal intermittent positive pressure ventilation (NIPPV) or nasal high-frequency-oscillation-CPAP (nHFO-CPAP)) at presentation of the abdominal event or at corresponding age, but significantly more infants in the VWM-group were on nasal high-frequency oscillation and there was a trend towards higher PEEP in the VWM-group (see Table&#160;<tblr tid="T4">4</tblr>).</p>
          
             <table id="T4">
                <title>
                   <p>Table 4</p>
                </title>
                <caption>
                   <p>
                      <b>Respiratory support</b>
                   </p>
                </caption>
                <tgroup align="left" cols="4">
                   <colspec align="left" colname="c1" colnum="1" colwidth="*"/>
                   <colspec align="left" colname="c2" colnum="2" colwidth="*"/>
                   <colspec align="left" colname="c3" colnum="3" colwidth="*"/>
                   <colspec align="left" colname="c4" colnum="4" colwidth="*"/>
                   <thead>
                      <row valign="top">
                         <entry colname="c1"/>
                         <entry colname="c2">
                            <p>
                               <b>Volvulus without malrotation</b>
                            </p>
                         </entry>
                         <entry colname="c3">
                            <p>
                               <b>Controls</b>
                            </p>
                         </entry>
                         <entry colname="c4">
                            <p>
                               <b>p-value</b>
                            </p>
                         </entry>
                      </row>
                   </thead>
                   <tfoot>
                      <p>**: Wilcoxon test; *: Fisher`s exact test, two tailed; CPAP: continuous positive airway pressure; NIPPV: nasal intermittent positive pressure ventilation; nHFO-CPAP: nasal high-frequency-oscillation-CPAP.</p>
                      <p>IQR: Interquartile range.</p>
                   </tfoot>
                   <tbody>
                      <row valign="top">
                         <entry colname="c1">
                            <p>
                               <b>Duration of endotracheal mechanical ventilation until presentation/corresponding age (days) (median (range))</b>
                            </p>
                         </entry>
                         <entry colname="c2">
                            <p>7 (5&#8211;17)</p>
                         </entry>
                         <entry colname="c3">
                            <p>7 (1&#8211;22)</p>
                         </entry>
                         <entry colname="c4">
                            <p>p&#8201;=&#8201;0.80**</p>
                         </entry>
                      </row>
                      <row valign="top">
                         <entry colname="c1">
                            <p>
                               <b>Nasal respiratory support (CPAP, NIPPV, nHFO-CPAP) at presentation/corresponding age (n/N)</b>
                            </p>
                         </entry>
                         <entry colname="c2">
                            <p>5/5</p>
                         </entry>
                         <entry colname="c3">
                            <p>25/25</p>
                         </entry>
                         <entry colname="c4"/>
                      </row>
                      <row valign="top">
                         <entry colname="c1">
                            <p>
                               <b>nHFO-CPAP at presentation/corresponding age (n/N)</b>
                            </p>
                         </entry>
                         <entry colname="c2">
                            <p>2/5</p>
                         </entry>
                         <entry colname="c3">
                            <p>0/25</p>
                         </entry>
                         <entry colname="c4">
                            <p>p&#8201;=&#8201;0.023*</p>
                         </entry>
                      </row>
                      <row valign="top">
                         <entry colname="c1">
                            <p>
                               <b>Max. Peep at day of presentation/corresponding age (median (range; IQR))</b>
                            </p>
                         </entry>
                         <entry colname="c2">
                            <p>6.5 (6&#8211;8; 6.2-7.6)</p>
                         </entry>
                         <entry colname="c3">
                            <p>6 (4&#8211;8; 5.9-6.3)</p>
                         </entry>
                         <entry colname="c4">
                            <p>p&#8201;=&#8201;0.078**</p>
                         </entry>
                      </row>
                   </tbody>
                </tgroup>
             </table>
          
       </sec>
       <sec>
          <st>
             <p>Discussion</p>
          </st>
          <p>To our knowledge, this is the first case&#8211;control-study investigating clinical signs and potential risk factors for VWM in extremely premature infants. We compared characteristics of VWM-infants with a cohort of matched extremely preterm infants and with all inborn VLBW infants who suffered from NEC during the same observational period. All infants had been treated according to the same institutional guidelines.</p>
          <p>A striking finding and major trigger for initiating this study was the alarming mortality in our small cohort of infants with VWM. Whereas in other published case series in preterm infants the majority of infants survived <abbrgrp>
                <abbr bid="B3">3</abbr>
             </abbrgrp>,<abbrgrp>
                <abbr bid="B4">4</abbr>
             </abbrgrp>,<abbrgrp>
                <abbr bid="B6">6</abbr>
             </abbrgrp>, 3 out of 5 infants in our series eventually died. In comparison to other case series <abbrgrp>
                <abbr bid="B3">3</abbr>
             </abbrgrp>-<abbrgrp>
                <abbr bid="B6">6</abbr>
             </abbrgrp>, infants in this study were considerable more immature (all &lt;26&#160;weeks at birth) and had substantially lower birth weights (range 370 &#8211; 530 g), these factors potentially leading to a significantly higher risk for a fatal course following VWM. Nonetheless, a conservative management in extremely premature infants with suspected NEC might be an additional factor contributing to an unedifying disease course as specific radiological or ultrasound features revealing the underlying strangulating obstruction leading to bowel ischemia in cases of VWM are missing <abbrgrp>
                <abbr bid="B4">4</abbr>
             </abbrgrp>.</p>
          <p>In contrast to published case series, uniform growth restriction at birth and more pronounced immaturity in the present study are most striking. Consistent with previous case series, VWM predominantly occurred in girls and presented several weeks after birth. Particularly the &#8220;late-VWM-group&#8221; in the work of Drewett et al. presented at a very similar postnatal age (median age at presentation 45&#160;days) <abbrgrp>
                <abbr bid="B4">4</abbr>
             </abbrgrp>.</p>
          <p>Clinical presentation was that of an acute abdomen without any VWM-specific signs. Similarly, in earlier case series, there were also no specific clinical signs indicating VWM identified <abbrgrp>
                <abbr bid="B3">3</abbr>
             </abbrgrp>-<abbrgrp>
                <abbr bid="B5">5</abbr>
             </abbrgrp>. Just as previously reported <abbrgrp>
                <abbr bid="B4">4</abbr>
             </abbrgrp>,<abbrgrp>
                <abbr bid="B5">5</abbr>
             </abbrgrp>, neither preoperative ultrasound nor radiological imaging was successful in detecting volvulus-specific features except for one patient in whom radiological findings were suggestive of volvulus (Figure&#160;<figr fid="F1">1</figr>A).</p>
          <p>Unfortunately, there were no disease-specific clinical signs suitable for discriminating VWM and NEC. Thus, the dilemma between the necessity for prompt laparotomy to prevent irreversible intestinal ischemia in VWM and the preference for a conservative initial management of NEC persists in VLBW infants presenting with an acute abdomen. In the end, immediate surgical consultation in VLBW infants with sudden acute abdominal signs should be realized and prompt explorative laparotomy considered if the risk factors discussed below are present, the infant&#8217;s general condition deteriorates rapidly, and radiological and ultrasonographical signs that are more likely associated with NEC (such as portal venous gas, intramural gas) are absent. We appreciate that this recommendation contrasts with the widely practiced expectant management for suspected NEC but feel that there is no alternative for preventing bowel necrosis and death in case of (otherwise unrecognized) VWM.</p>
       </sec>
       <sec>
          <st>
             <p>Potential risk factors for VWM</p>
          </st>
          <sec>
             <st>
                <p>Gender</p>
             </st>
             <p>In our case series only girls were affected by VWM. Billiemaz et al. reported 6 girls out of 7 affected infants <abbrgrp>
                   <abbr bid="B3">3</abbr>
                </abbrgrp>, Zweifel et al. 2/3 <abbrgrp>
                   <abbr bid="B6">6</abbr>
                </abbrgrp>. Unfortunately, Drewett et al. <abbrgrp>
                   <abbr bid="B4">4</abbr>
                </abbrgrp> and Mark et al. <abbrgrp>
                   <abbr bid="B5">5</abbr>
                </abbrgrp> did not report the gender of affected children. Further population-based data are needed for a better assessment of this potential risk factor.</p>
          </sec>
          <sec>
             <st>
                <p>Intestinal immaturity</p>
             </st>
             <p>Immaturity of intestinal motor function in very preterm infants is common, frequently leading to prolonged intestinal transit time and stasis of bowel contents <abbrgrp>
                   <abbr bid="B18">18</abbr>
                </abbrgrp>,<abbrgrp>
                   <abbr bid="B19">19</abbr>
                </abbrgrp>. Since stasis of bowel contents and long-standing subacute obstruction are discussed as key factors in the aetiology of VWM in preterm infants <abbrgrp>
                   <abbr bid="B4">4</abbr>
                </abbrgrp>,<abbrgrp>
                   <abbr bid="B12">12</abbr>
                </abbrgrp>,<abbrgrp>
                   <abbr bid="B20">20</abbr>
                </abbrgrp>, one may speculate that extremely premature infants are at highest risk for developing VWM. This might apply even more for infants with a history of intrauterine growth restriction and potential intestinal hypoperfusion due to centralised prenatal circulation. All the more it is astonishing that all infants in our case series had an absolutely uneventful course of initial enteral feeding advancement, being completely enterally fed by day of life 8. In this series, VWM-infants reached full enteral feeds even earlier than matched controls. Additionally, no differences between VWM-infants and controls were observed regarding age at complete meconium evacuation and stool frequency prior to presentation.</p>
          </sec>
          <sec>
             <st>
                <p>Manipulations for promoting regular gastrointestinal transport</p>
             </st>
             <p>The only difference between VWM-infants and controls in measures for promoting gastrointestinal transport (see Table&#160;<tblr tid="T3">3</tblr>) was the significantly more frequent use of rectal tubes, most likely for gaseous distension in the VWM-group in the days before presentation. It is difficult to imagine how this (insufficiently evaluated) practice could contribute to small intestinal volvulus. Hence, this observation might be a clue to more pronounced meteorism as an early but unspecific sign of emerging intestinal obstruction. Gentle abdominal massage is regularly performed in the vast majority of preterm infants in our unit, and we did not see a significant difference in the frequency of abdominal massage between VWM-infants and controls. Abdominal massage was accused of being a relevant risk factor for VWM in 2 uncontrolled case series <abbrgrp>
                   <abbr bid="B3">3</abbr>
                </abbrgrp>,<abbrgrp>
                   <abbr bid="B6">6</abbr>
                </abbrgrp>, because many VWM cases received this intervention. Our case&#8211;control data, however, do not support this hypothesis. Although the practice of abdominal massage, rectal enemas or use of rectal tubes remained unchanged during and after the observational period, we did not observe any further infants with VWM for the following 2.5&#160;years.</p>
             <p>None of the infants investigated received erythromycin or any other prokinetic agent for promoting gastrointestinal transit prior to presentation.</p>
          </sec>
          <sec>
             <st>
                <p>Respiratory support/Factors enhancing bowel distension</p>
             </st>
             <p>Respiratory support with CPAP is discussed as a risk factor for the development of VWM in preterm infants <abbrgrp>
                   <abbr bid="B4">4</abbr>
                </abbrgrp>. Nasal CPAP is well known to contribute to increased gaseous bowel distension in extremely premature infants (&#8220;CPAP belly syndrome&#8221;) <abbrgrp>
                   <abbr bid="B21">21</abbr>
                </abbrgrp>,<abbrgrp>
                   <abbr bid="B22">22</abbr>
                </abbrgrp>. Nevertheless, respiratory support via nasal/pharyngeal CPAP is widely applied in these infants at different stages of their respiratory illness because of its positive effects on short- and long-term respiratory outcomes.</p>
             <p>It is conceivable that intestinal distension on top of immature intestinal motility might contribute to VWM. In our case series, all VWM-infants were on nasal CPAP or another form of nasal respiratory support at presentation. Yet, this was also true for all infants in the control group. Significantly more infants in the VWM-group had more intense respiratory support by nasal high-frequency oscillation-CPAP, although numbers are small; likewise PEEP levels tended to be higher in VWM infants. The increased use of rectal tubes in VWM patients may just reflect the increased abdominal distension associated with more intensive non-invasive respiratory support. Based on this observation, restriction of the use of nasal high-frequency oscillation may be considered and abdominal side effects of nasal ventilation modes other than CPAP should be carefully monitored and reported.</p>
             <p>Formula feeding is commonly associated with delayed gastrointestinal transport and constipation in very preterm infants <abbrgrp>
                   <abbr bid="B23">23</abbr>
                </abbrgrp> and potentially could lead to increased bowel distension. However, all VWM-infants in our study almost exclusively received expressed (yet fortified) breast milk.</p>
             <p>Appreciating the aforementioned potential risk factors linked to medical treatment in preterm infants after birth it is important to realize that VWM may occur in utero as well <abbrgrp>
                   <abbr bid="B7">7</abbr>
                </abbrgrp>-<abbrgrp>
                   <abbr bid="B9">9</abbr>
                </abbrgrp> without any preceding iatrogenic manipulation.</p>
          </sec>
          <sec>
             <st>
                <p>Strengths and limitations of this study</p>
             </st>
             <p>In comparison to previously published case series, the case&#8211;control-design of our study enabled a more systematic evaluation of disease specific clinical signs of and risk factors for VWM. Nevertheless, this retrospective analysis based on a small number of index cases failed to identify strategies for the prevention of VWM.</p>
          </sec>
       </sec>
       <sec>
          <st>
             <p>Conclusions</p>
          </st>
          <p>VWM in extremely premature infants represents a life-threatening event that typically occurs several weeks after birth with an acute abdomen. Female infants requiring intensive non-invasive (i.e., nasal) respiratory support with aggravated meteorism might be at highest risk, but a prospective population-based study is needed to learn more about the aetiology and risk factors for VWM in extremely premature infants.</p>
       </sec>
       <sec>
          <st>
             <p>Abbreviations</p>
          </st>
          <p>VWM: Volvulus without malrotation</p>
          <p>NEC: Necrotising enterocolitis</p>
          <p>VLBW: Very low birth weight</p>
          <p>SDS: Standard deviation score</p>
          <p>NIPPV: Nasal intermittend positive pressure ventilation</p>
          <p>nHF-CPAP: Nasal high-frequency-oscillation CPAP</p>
       </sec>
       <sec>
          <st>
             <p>Competing interests</p>
          </st>
          <p>The authors declare that they have no competing interests.</p>
       </sec>
       <sec>
          <st>
             <p>Authors&#8217; contributions</p>
          </st>
          <p>CM designed the study, performed the analyses, drafted the initial manuscript and revised the manuscript; SH was responsible for data collection and recording, additionally she reviewed and revised the manuscript making important intellectual contributions; HJK reviewed and revised the manuscript making important intellectual contributions; YY reviewed and revised the manuscript making important intellectual contributions and was involved in data analyses; CFP supervised the project as the head of department and reviewed and revised the manuscript making important intellectual contributions; ARF was co-coordinator of the project, he contributed to study design, supervised data analyses and reviewed and revised the manuscript making important intellectual contributions. All authors read and approved the final manuscript.</p>
       </sec>
    </bdy>
    <bm>
       <ack>
          <sec>
             <st>
                <p>Acknowledgements</p>
             </st>
             <p>We acknowledge the support by the Deutsche Forschungsgemeinschaft and the Open Access Publishing Fund of Tuebingen University granting the publication fee.</p>
          </sec>
       </ack>
       <refgrp>
          
          <bibl id="B1">
             <title>
                <p>Malrotation and volvulus in infancy and childhood</p>
             </title>
             <aug>
                <au>
                   <snm>Millar</snm>
                   <fnm>AJ</fnm>
                </au>
                <au>
                   <snm>Rode</snm>
                   <fnm>H</fnm>
                </au>
                <au>
                   <snm>Cywes</snm>
                   <fnm>S</fnm>
                </au>
             </aug>
             <source>Semin Pediatr Surg</source>
             <pubdate>2003</pubdate>
             <volume>12</volume>
             <fpage>229</fpage>
             <lpage>236</lpage>
             <xrefbib>
                <pubidlist>
                   <pubid idtype="doi">10.1053/j.sempedsurg.2003.08.003</pubid>
                   <pubid idtype="pmpid" link="fulltext">14655161</pubid>
                </pubidlist>
             </xrefbib>
          </bibl>
          <bibl id="B2">
             <title>
                <p>Necrotizing enterocolitis and volvulus in the premature neonate</p>
             </title>
             <aug>
                <au>
                   <snm>Boulton</snm>
                   <fnm>JE</fnm>
                </au>
                <au>
                   <snm>Ein</snm>
                   <fnm>SH</fnm>
                </au>
                <au>
                   <snm>Reilly</snm>
                   <fnm>BJ</fnm>
                </au>
                <au>
                   <snm>Smith</snm>
                   <fnm>BT</fnm>
                </au>
                <au>
                   <snm>Pape</snm>
                   <fnm>KE</fnm>
                </au>
             </aug>
             <source>J Pediatr Surg</source>
             <pubdate>1989</pubdate>
             <volume>24</volume>
             <fpage>901</fpage>
             <lpage>905</lpage>
             <xrefbib>
                <pubidlist>
                   <pubid idtype="doi">10.1016/S0022-3468(89)80592-5</pubid>
                   <pubid idtype="pmpid" link="fulltext">2778584</pubid>
                </pubidlist>
             </xrefbib>
          </bibl>
          <bibl id="B3">
             <title>
                <p>[Intestinal volvulus in extremely premature infants]</p>
             </title>
             <aug>
                <au>
                   <snm>Billiemaz</snm>
                   <fnm>K</fnm>
                </au>
                <au>
                   <snm>Varlet</snm>
                   <fnm>F</fnm>
                </au>
                <au>
                   <snm>Patural</snm>
                   <fnm>H</fnm>
                </au>
                <au>
                   <snm>Rayet</snm>
                   <fnm>I</fnm>
                </au>
                <au>
                   <snm>Tardieu</snm>
                   <fnm>D</fnm>
                </au>
                <au>
                   <snm>Lavocat</snm>
                   <fnm>MP</fnm>
                </au>
                <au>
                   <snm>Teyssier</snm>
                   <fnm>G</fnm>
                </au>
             </aug>
             <source>Arch Pediatr</source>
             <pubdate>2001</pubdate>
             <volume>8</volume>
             <fpage>1181</fpage>
             <lpage>1184</lpage>
             <xrefbib>
                <pubidlist>
                   <pubid idtype="doi">10.1016/S0929-693X(01)00632-7</pubid>
                   <pubid idtype="pmpid" link="fulltext">11760668</pubid>
                </pubidlist>
             </xrefbib>
          </bibl>
          <bibl id="B4">
             <title>
                <p>Late-onset volvulus without malrotation in preterm infants</p>
             </title>
             <aug>
                <au>
                   <snm>Drewett</snm>
                   <fnm>M</fnm>
                </au>
                <au>
                   <snm>Burge</snm>
                   <fnm>DM</fnm>
                </au>
             </aug>
             <source>J Pediatr Surg</source>
             <pubdate>2009</pubdate>
             <volume>44</volume>
             <fpage>358</fpage>
             <lpage>361</lpage>
             <xrefbib>
                <pubidlist>
                   <pubid idtype="doi">10.1016/j.jpedsurg.2008.10.090</pubid>
                   <pubid idtype="pmpid" link="fulltext">19231534</pubid>
                </pubidlist>
             </xrefbib>
          </bibl>
          <bibl id="B5">
             <title>
                <p>Verfall des Allgemeinzustands eines Fr&#252;hgeborenen</p>
             </title>
             <aug>
                <au>
                   <snm>Mark</snm>
                   <fnm>S</fnm>
                </au>
                <au>
                   <snm>Schl&#246;&#946;er</snm>
                   <fnm>R</fnm>
                </au>
                <au>
                   <snm>Gfroerer</snm>
                   <fnm>S</fnm>
                </au>
                <au>
                   <snm>Rolle</snm>
                   <fnm>U</fnm>
                </au>
                <au>
                   <snm>B&#246;ckelmann</snm>
                   <fnm>S</fnm>
                </au>
                <au>
                   <snm>Weltzien</snm>
                   <fnm>A</fnm>
                </au>
                <au>
                   <snm>Mildenberger</snm>
                   <fnm>E</fnm>
                </au>
             </aug>
             <source>Monatsschr Kinderheilk</source>
             <pubdate>2013</pubdate>
             <volume>161</volume>
             <fpage>296</fpage>
             <lpage>298</lpage>
             <xrefbib>
                <pubidlist>
                   <pubid idtype="doi">10.1007/s00112-012-2784-4</pubid>
                </pubidlist>
             </xrefbib>
          </bibl>
          <bibl id="B6">
             <title>
                <p>Manufactured volvulus</p>
             </title>
             <aug>
                <au>
                   <snm>Zweifel</snm>
                   <fnm>N</fnm>
                </au>
                <au>
                   <snm>Meuli</snm>
                   <fnm>M</fnm>
                </au>
                <au>
                   <snm>Subotic</snm>
                   <fnm>U</fnm>
                </au>
                <au>
                   <snm>Moehrlen</snm>
                   <fnm>U</fnm>
                </au>
                <au>
                   <snm>Mazzone</snm>
                   <fnm>L</fnm>
                </au>
                <au>
                   <snm>Arlettaz</snm>
                   <fnm>R</fnm>
                </au>
             </aug>
             <source>Eur J Pediatr Surg</source>
             <pubdate>2013</pubdate>
             <volume>23</volume>
             <fpage>234</fpage>
             <lpage>237</lpage>
             <xrefbib>
                <pubidlist>
                   <pubid idtype="pmpid" link="fulltext">23172568</pubid>
                </pubidlist>
             </xrefbib>
          </bibl>
          <bibl id="B7">
             <title>
                <p>[Prenatal intestinal volvulus: a life-threatening event with good long-term outcome]</p>
             </title>
             <aug>
                <au>
                   <snm>Raherison</snm>
                   <fnm>R</fnm>
                </au>
                <au>
                   <snm>Grosos</snm>
                   <fnm>C</fnm>
                </au>
                <au>
                   <snm>Lemale</snm>
                   <fnm>J</fnm>
                </au>
                <au>
                   <snm>Blondiaux</snm>
                   <fnm>E</fnm>
                </au>
                <au>
                   <snm>Sabourdin</snm>
                   <fnm>N</fnm>
                </au>
                <au>
                   <snm>Dahan</snm>
                   <fnm>S</fnm>
                </au>
                <au>
                   <snm>Rosenblatt</snm>
                   <fnm>J</fnm>
                </au>
                <au>
                   <snm>Guilbert</snm>
                   <fnm>J</fnm>
                </au>
                <au>
                   <snm>Jouannic</snm>
                   <fnm>JM</fnm>
                </au>
                <au>
                   <snm>Mitanchez</snm>
                   <fnm>D</fnm>
                </au>
                <au>
                   <snm>Audry</snm>
                   <fnm>G</fnm>
                </au>
                <au>
                   <snm>Auber</snm>
                   <fnm>F</fnm>
                </au>
             </aug>
             <source>Arch Pediatrie</source>
             <pubdate>2012</pubdate>
             <volume>19</volume>
             <fpage>361</fpage>
             <lpage>367</lpage>
             <xrefbib>
                <pubidlist>
                   <pubid idtype="doi">10.1016/j.arcped.2012.01.012</pubid>
                </pubidlist>
             </xrefbib>
          </bibl>
          <bibl id="B8">
             <title>
                <p>Intrauterine volvulus without malrotation in a very low-birth-weight preterm infant</p>
             </title>
             <aug>
                <au>
                   <snm>Di Maggio</snm>
                   <fnm>G</fnm>
                </au>
                <au>
                   <snm>De Felice</snm>
                   <fnm>C</fnm>
                </au>
                <au>
                   <snm>Messina</snm>
                   <fnm>M</fnm>
                </au>
                <au>
                   <snm>Biagini</snm>
                   <fnm>G</fnm>
                </au>
                <au>
                   <snm>Tota</snm>
                   <fnm>G</fnm>
                </au>
                <au>
                   <snm>Bracci</snm>
                   <fnm>R</fnm>
                </au>
             </aug>
             <source>Eur J Pediatr Surg</source>
             <pubdate>1997</pubdate>
             <volume>7</volume>
             <fpage>364</fpage>
             <lpage>366</lpage>
             <xrefbib>
                <pubidlist>
                   <pubid idtype="doi">10.1055/s-2008-1071193</pubid>
                   <pubid idtype="pmpid" link="fulltext">9493990</pubid>
                </pubidlist>
             </xrefbib>
          </bibl>
          <bibl id="B9">
             <title>
                <p>Intrauterine volvulus without malrotation</p>
             </title>
             <aug>
                <au>
                   <snm>Usmani</snm>
                   <fnm>SS</fnm>
                </au>
                <au>
                   <snm>Kenigsberg</snm>
                   <fnm>K</fnm>
                </au>
             </aug>
             <source>J Pediatr Surg</source>
             <pubdate>1991</pubdate>
             <volume>26</volume>
             <fpage>1409</fpage>
             <lpage>1410</lpage>
             <xrefbib>
                <pubidlist>
                   <pubid idtype="doi">10.1016/0022-3468(91)91049-5</pubid>
                   <pubid idtype="pmpid" link="fulltext">1765923</pubid>
                </pubidlist>
             </xrefbib>
          </bibl>
          <bibl id="B10">
             <title>
                <p>Primary volvulus of the small intestine in infants</p>
             </title>
             <aug>
                <au>
                   <snm>Kurashige</snm>
                   <fnm>T</fnm>
                </au>
                <au>
                   <snm>Matsuyama</snm>
                   <fnm>S</fnm>
                </au>
             </aug>
             <source>Jpn J Surg</source>
             <pubdate>1978</pubdate>
             <volume>8</volume>
             <fpage>228</fpage>
             <lpage>235</lpage>
             <xrefbib>
                <pubidlist>
                   <pubid idtype="doi">10.1007/BF02469448</pubid>
                   <pubid idtype="pmpid" link="fulltext">723016</pubid>
                </pubidlist>
             </xrefbib>
          </bibl>
          <bibl id="B11">
             <title>
                <p>[Primary volvulus of the small intestine without malrotation. Apropos of 7 cases]</p>
             </title>
             <aug>
                <au>
                   <snm>Vergnes</snm>
                   <fnm>P</fnm>
                </au>
                <au>
                   <snm>Boissinot</snm>
                   <fnm>F</fnm>
                </au>
                <au>
                   <snm>Pontailler</snm>
                   <fnm>JR</fnm>
                </au>
                <au>
                   <snm>Demarquez</snm>
                   <fnm>JL</fnm>
                </au>
                <au>
                   <snm>Laloge</snm>
                   <fnm>V</fnm>
                </au>
                <au>
                   <snm>Bondonny</snm>
                   <fnm>JM</fnm>
                </au>
             </aug>
             <source>Annales de Pediatrie</source>
             <pubdate>1989</pubdate>
             <volume>36</volume>
             <fpage>141</fpage>
             <lpage>147</lpage>
             <xrefbib>
                <pubidlist>
                   <pubid idtype="pmpid" link="fulltext">2784653</pubid>
                </pubidlist>
             </xrefbib>
          </bibl>
          <bibl id="B12">
             <title>
                <p>Segmental small-bowel volvulus not associated with malrotation in childhood</p>
             </title>
             <aug>
                <au>
                   <snm>Kitano</snm>
                   <fnm>Y</fnm>
                </au>
                <au>
                   <snm>Hashizume</snm>
                   <fnm>K</fnm>
                </au>
                <au>
                   <snm>Ohkura</snm>
                   <fnm>M</fnm>
                </au>
             </aug>
             <source>Pediatr Surg Int</source>
             <pubdate>1995</pubdate>
             <volume>10</volume>
             <fpage>335</fpage>
             <lpage>338</lpage>
             <xrefbib>
                <pubidlist>
                   <pubid idtype="doi">10.1007/BF00182217</pubid>
                </pubidlist>
             </xrefbib>
          </bibl>
          <bibl id="B13">
             <title>
                <p>Midgut volvulus causing fetal demise in utero</p>
             </title>
             <aug>
                <au>
                   <snm>Steffensen</snm>
                   <fnm>TS</fnm>
                </au>
                <au>
                   <snm>Gilbert-Barness</snm>
                   <fnm>E</fnm>
                </au>
                <au>
                   <snm>DeStefano</snm>
                   <fnm>KA</fnm>
                </au>
                <au>
                   <snm>Kontopoulos</snm>
                   <fnm>EV</fnm>
                </au>
             </aug>
             <source>Fetal Pediatr Pathol</source>
             <pubdate>2008</pubdate>
             <volume>27</volume>
             <fpage>223</fpage>
             <lpage>231</lpage>
             <xrefbib>
                <pubidlist>
                   <pubid idtype="doi">10.1080/15513810802319608</pubid>
                   <pubid idtype="pmpid" link="fulltext">18800265</pubid>
                </pubidlist>
             </xrefbib>
          </bibl>
          <bibl id="B14">
             <title>
                <p>Intrauterine volvulus without malrotation associated with segmental absence of small intestinal musculature</p>
             </title>
             <aug>
                <au>
                   <snm>Morikawa</snm>
                   <fnm>N</fnm>
                </au>
                <au>
                   <snm>Namba</snm>
                   <fnm>S</fnm>
                </au>
                <au>
                   <snm>Fujii</snm>
                   <fnm>Y</fnm>
                </au>
                <au>
                   <snm>Sato</snm>
                   <fnm>Y</fnm>
                </au>
                <au>
                   <snm>Fukuba</snm>
                   <fnm>K</fnm>
                </au>
             </aug>
             <source>J Pediatr Surg</source>
             <pubdate>1999</pubdate>
             <volume>34</volume>
             <fpage>1549</fpage>
             <lpage>1551</lpage>
             <xrefbib>
                <pubidlist>
                   <pubid idtype="doi">10.1016/S0022-3468(99)90127-6</pubid>
                   <pubid idtype="pmpid" link="fulltext">10549771</pubid>
                </pubidlist>
             </xrefbib>
          </bibl>
          <bibl id="B15">
             <title>
                <p>Mesenteric defects as a cause of intestinal volvulus without malrotation and as the possible primary etiology of intestinal atresia</p>
             </title>
             <aug>
                <au>
                   <snm>Black</snm>
                   <fnm>PR</fnm>
                </au>
                <au>
                   <snm>Mueller</snm>
                   <fnm>D</fnm>
                </au>
                <au>
                   <snm>Crow</snm>
                   <fnm>J</fnm>
                </au>
                <au>
                   <snm>Morris</snm>
                   <fnm>RC</fnm>
                </au>
                <au>
                   <snm>Husain</snm>
                   <fnm>AN</fnm>
                </au>
             </aug>
             <source>J Pediatr Surg</source>
             <pubdate>1994</pubdate>
             <volume>29</volume>
             <fpage>1339</fpage>
             <lpage>1343</lpage>
             <xrefbib>
                <pubidlist>
                   <pubid idtype="doi">10.1016/0022-3468(94)90111-2</pubid>
                   <pubid idtype="pmpid" link="fulltext">7807321</pubid>
                </pubidlist>
             </xrefbib>
          </bibl>
          <bibl id="B16">
             <title>
                <p>British 1990 growth reference centiles for weight, height, body mass index and head circumference fitted by maximum penalized likelihood</p>
             </title>
             <aug>
                <au>
                   <snm>Cole</snm>
                   <fnm>T</fnm>
                </au>
                <au>
                   <snm>Freeman</snm>
                   <fnm>JV</fnm>
                </au>
                <au>
                   <snm>Preece</snm>
                   <fnm>MA</fnm>
                </au>
             </aug>
             <source>Stat Med</source>
             <pubdate>1998</pubdate>
             <volume>17</volume>
             <fpage>407</fpage>
             <lpage>429</lpage>
             <xrefbib>
                <pubidlist>
                   <pubid idtype="doi">10.1002/(SICI)1097-0258(19980228)17:4&lt;407::AID-SIM742&gt;3.0.CO;2-L</pubid>
                   <pubid idtype="pmpid" link="fulltext">9496720</pubid>
                </pubidlist>
             </xrefbib>
          </bibl>
          <bibl id="B17">
             <title>
                <p>Cross sectional stature and weight reference curves for the UK</p>
             </title>
             <aug>
                <au>
                   <snm>Freeman</snm>
                   <fnm>JV</fnm>
                </au>
                <au>
                   <snm>Cole</snm>
                   <fnm>TJ</fnm>
                </au>
                <au>
                   <snm>Chinn</snm>
                   <fnm>S</fnm>
                </au>
                <au>
                   <snm>Jones</snm>
                   <fnm>PR</fnm>
                </au>
                <au>
                   <snm>White</snm>
                   <fnm>EM</fnm>
                </au>
                <au>
                   <snm>Preece</snm>
                   <fnm>MA</fnm>
                </au>
             </aug>
             <source>Arch Dis Child</source>
             <pubdate>1990</pubdate>
             <volume>1995</volume>
             <fpage>17</fpage>
             <lpage>24</lpage>
          </bibl>
          <bibl id="B18">
             <title>
                <p>Hydrolyzed protein accelerates feeding advancement in very low birth weight infants</p>
             </title>
             <aug>
                <au>
                   <snm>Mihatsch</snm>
                   <fnm>WA</fnm>
                </au>
                <au>
                   <snm>Franz</snm>
                   <fnm>AR</fnm>
                </au>
                <au>
                   <snm>Hogel</snm>
                   <fnm>J</fnm>
                </au>
                <au>
                   <snm>Pohlandt</snm>
                   <fnm>F</fnm>
                </au>
             </aug>
             <source>Pediatrics</source>
             <pubdate>2002</pubdate>
             <volume>110</volume>
             <fpage>1199</fpage>
             <lpage>1203</lpage>
             <xrefbib>
                <pubidlist>
                   <pubid idtype="doi">10.1542/peds.110.6.1199</pubid>
                   <pubid idtype="pmpid" link="fulltext">12456919</pubid>
                </pubidlist>
             </xrefbib>
          </bibl>
          <bibl id="B19">
             <title>
                <p>Acquisition of full enteral feeds may depend on stooling pattern in very premature infants</p>
             </title>
             <aug>
                <au>
                   <snm>de Pipaon Marcos</snm>
                   <fnm>MS</fnm>
                </au>
                <au>
                   <snm>Montes Bueno</snm>
                   <fnm>MT</fnm>
                </au>
                <au>
                   <snm>SanJose</snm>
                   <fnm>B</fnm>
                </au>
                <au>
                   <snm>Torralba</snm>
                   <fnm>E</fnm>
                </au>
                <au>
                   <snm>Gil</snm>
                   <fnm>M</fnm>
                </au>
                <au>
                   <snm>Parada</snm>
                   <fnm>I</fnm>
                </au>
                <au>
                   <snm>Amo</snm>
                   <fnm>P</fnm>
                </au>
             </aug>
             <source>J Perinat Med</source>
             <pubdate>2012</pubdate>
             <volume>40</volume>
             <fpage>427</fpage>
             <lpage>431</lpage>
             <xrefbib>
                <pubidlist>
                   <pubid idtype="doi">10.1515/jpm-2011-0227</pubid>
                   <pubid idtype="pmpid" link="fulltext">22752775</pubid>
                </pubidlist>
             </xrefbib>
          </bibl>
          <bibl id="B20">
             <title>
                <p>Primary volvulus of the ileum in a preterm infant</p>
             </title>
             <aug>
                <au>
                   <snm>Chen</snm>
                   <fnm>Y</fnm>
                </au>
                <au>
                   <snm>Tseng</snm>
                   <fnm>SH</fnm>
                </au>
                <au>
                   <snm>Lai</snm>
                   <fnm>HS</fnm>
                </au>
                <au>
                   <snm>Chen</snm>
                   <fnm>WJ</fnm>
                </au>
             </aug>
             <source>J Formos Med Assoc</source>
             <pubdate>2003</pubdate>
             <volume>102</volume>
             <fpage>896</fpage>
             <lpage>898</lpage>
             <xrefbib>
                <pubidlist>
                   <pubid idtype="pmpid" link="fulltext">14976572</pubid>
                </pubidlist>
             </xrefbib>
          </bibl>
          <bibl id="B21">
             <title>
                <p>Benign gaseous distension of the bowel in premature infants treated with nasal continuous airway pressure: a study of contributing factors</p>
             </title>
             <aug>
                <au>
                   <snm>Jaile</snm>
                   <fnm>JC</fnm>
                </au>
                <au>
                   <snm>Levin</snm>
                   <fnm>T</fnm>
                </au>
                <au>
                   <snm>Wung</snm>
                   <fnm>JT</fnm>
                </au>
                <au>
                   <snm>Abramson</snm>
                   <fnm>SJ</fnm>
                </au>
                <au>
                   <snm>Ruzal-Shapiro</snm>
                   <fnm>C</fnm>
                </au>
                <au>
                   <snm>Berdon</snm>
                   <fnm>WE</fnm>
                </au>
             </aug>
             <source>AJR Am J Roentgenol</source>
             <pubdate>1992</pubdate>
             <volume>158</volume>
             <fpage>125</fpage>
             <lpage>127</lpage>
             <xrefbib>
                <pubidlist>
                   <pubid idtype="doi">10.2214/ajr.158.1.1727337</pubid>
                   <pubid idtype="pmpid" link="fulltext">1727337</pubid>
                </pubidlist>
             </xrefbib>
          </bibl>
          <bibl id="B22">
             <title>
                <p>CPAP review</p>
             </title>
             <aug>
                <au>
                   <snm>Chowdhury</snm>
                   <fnm>O</fnm>
                </au>
                <au>
                   <snm>Wedderburn</snm>
                   <fnm>CJ</fnm>
                </au>
                <au>
                   <snm>Duffy</snm>
                   <fnm>D</fnm>
                </au>
                <au>
                   <snm>Greenough</snm>
                   <fnm>A</fnm>
                </au>
             </aug>
             <source>Eur J Pediatr</source>
             <pubdate>2012</pubdate>
             <volume>171</volume>
             <fpage>1441</fpage>
             <lpage>1448</lpage>
             <xrefbib>
                <pubidlist>
                   <pubid idtype="doi">10.1007/s00431-011-1648-6</pubid>
                   <pubid idtype="pmpid" link="fulltext">22173399</pubid>
                </pubidlist>
             </xrefbib>
          </bibl>
          <bibl id="B23">
             <title>
                <p>The effect of neutral and acidic oligosaccharides on stool viscosity, stool frequency and stool pH in preterm infants</p>
             </title>
             <aug>
                <au>
                   <snm>Westerbeek</snm>
                   <fnm>EA</fnm>
                </au>
                <au>
                   <snm>Hensgens</snm>
                   <fnm>RL</fnm>
                </au>
                <au>
                   <snm>Mihatsch</snm>
                   <fnm>WA</fnm>
                </au>
                <au>
                   <snm>Boehm</snm>
                   <fnm>G</fnm>
                </au>
                <au>
                   <snm>Lafeber</snm>
                   <fnm>HN</fnm>
                </au>
                <au>
                   <snm>van Elburg</snm>
                   <fnm>RM</fnm>
                </au>
             </aug>
             <source>Acta Paediatr</source>
             <pubdate>2011</pubdate>
             <volume>100</volume>
             <fpage>1426</fpage>
             <lpage>1431</lpage>
             <xrefbib>
                <pubidlist>
                   <pubid idtype="doi">10.1111/j.1651-2227.2011.02295.x</pubid>
                   <pubid idtype="pmpid" link="fulltext">21449921</pubid>
                </pubidlist>
             </xrefbib>
          </bibl>
       </refgrp>
    </bm>
 </art>
