<art>
    <ui>s12888-014-0234-7</ui>
    <ji>1471-244X</ji>
    <fm>
       <dochead>Research article</dochead>
       <bibl>
          <title>
             <p>The effectiveness of specialist roles in mental health metabolic monitoring: a retrospective cross-sectional comparison study</p>
          </title>
          <aug>
             <au ca="yes" id="A1">
                <snm>McKenna</snm>
                <fnm>Brian</fnm>
                <insr iid="I1"/>
                <insr iid="I2"/>
                <email>brian.mckenna@mh.org.au</email>
             </au>
             <au id="A2">
                <snm>Furness</snm>
                <fnm>Trentham</fnm>
                <insr iid="I1"/>
                <insr iid="I2"/>
                <email>trentham.furness@acu.edu.au</email>
             </au>
             <au id="A3">
                <snm>Wallace</snm>
                <fnm>Elizabeth</fnm>
                <insr iid="I1"/>
                <email>elizabeth.wallace@mh.org.au</email>
             </au>
             <au id="A4">
                <snm>Happell</snm>
                <fnm>Brenda</fnm>
                <insr iid="I3"/>
                <email>b.happell@cqu.edu.au</email>
             </au>
             <au id="A5">
                <snm>Stanton</snm>
                <fnm>Robert</fnm>
                <insr iid="I3"/>
                <email>r.stanton@cqu.edu.au</email>
             </au>
             <au id="A6">
                <snm>Platania-Phung</snm>
                <fnm>Chris</fnm>
                <insr iid="I3"/>
                <email>c.platania-phung@cqu.edu.au</email>
             </au>
             <au id="A7">
                <snm>Edward</snm>
                <fnm>Karen-leigh</fnm>
                <insr iid="I4"/>
                <insr iid="I5"/>
                <email>karen-leigh.edward@acu.edu.au</email>
             </au>
             <au id="A8">
                <snm>Castle</snm>
                <fnm>David</fnm>
                <insr iid="I5"/>
                <insr iid="I6"/>
                <insr iid="I7"/>
                <email>david.castle@svhm.org.au</email>
             </au>
          </aug>
          <insg>
             <ins id="I1">
                <p>NorthWestern Mental Health, The Royal Melbourne Hospital, Level 1 North, City Campus, Grattan Street, Parkville 3050, Victoria, Australia</p>
             </ins>
             <ins id="I2">
                <p>School of Nursing, Midwifery and Paramedicine, Australian Catholic University, 115 Victoria Parade, Fitzroy 3065, Victoria, Australia</p>
             </ins>
             <ins id="I3">
                <p>Institute for Health and Social Science Research Centre for Mental Health Nursing Innovation, School of Nursing and Midwifery, CQUniversity, Bruce Highway, Rockhampton 4702, Queensland, Australia</p>
             </ins>
             <ins id="I4">
                <p>St. Vincent&#8217;s Private Hospital Melbourne Nursing Research Unit, St. Vincent&#8217;s Private Hospital Melbourne, 59-61 Victoria Parade, Fitzroy 3065, Victoria, Australia</p>
             </ins>
             <ins id="I5">
                <p>Faculty of Health Sciences, Australian Catholic University, 115 Victoria Parade, Fitzroy 3065, Victoria, Australia</p>
             </ins>
             <ins id="I6">
                <p>St. Vincent&#8217;s Hospital Mental Health, St. Vincent&#8217;s Private Hospital Melbourne, 59-61 Victoria Parade, Fitzroy 3065, Victoria, Australia</p>
             </ins>
             <ins id="I7">
                <p>Department of Psychiatry, University of Melbourne, Grattan Street, Parkville 3050, Victoria, Australia</p>
             </ins>
          </insg>
          <source>BMC Psychiatry</source>
          <issn>1471-244X</issn>
          <pubdate>2014</pubdate>
          <volume>14</volume>
          <issue>1</issue>
          <fpage>234</fpage>
          <url>http://www.biomedcentral.com/1471-244X/14/234</url>
          <xrefbib>
             <pubidlist>
                <pubid idtype="doi">10.1186/s12888-014-0234-7</pubid>
                <pubid idtype="pmpid">25196125</pubid>
             </pubidlist>
          </xrefbib>
       </bibl>
       <history>
          <rec>
             <date>
                <day>5</day>
                <month>3</month>
                <year>2014</year>
             </date>
          </rec>
          <acc>
             <date>
                <day>7</day>
                <month>8</month>
                <year>2014</year>
             </date>
          </acc>
          <pub>
             <date>
                <day>2</day>
                <month>9</month>
                <year>2014</year>
             </date>
          </pub>
       </history>
       <cpyrt>
          <year>2014</year>
          <collab>McKenna et al.; licensee BioMed Central Ltd.</collab>
          <note>This is an Open Access article distributed under the terms of the Creative Commons Attribution License (<url>http://creativecommons.org/licenses/by/4.0</url>), which permits unrestricted use, distribution, and reproduction in any medium, provided the original work is properly credited. The Creative Commons Public Domain Dedication waiver (<url>http://creativecommons.org/publicdomain/zero/1.0/</url>) applies to the data made available in this article, unless otherwise stated.</note>
       </cpyrt>
       <kwdg>
          <kwd>Mental health</kwd>
          <kwd>Metabolic monitoring</kwd>
          <kwd>Nursing</kwd>
          <kwd>Cardiovascular diseases</kwd>
       </kwdg>
       <abs>
          <sec>
             <st>
                <p>Abstract</p>
             </st>
             <sec>
                <st>
                   <p>Background</p>
                </st>
                <p>People with serious mental illness (SMI) exhibit a high prevalence of cardiovascular diseases. Mental health services have a responsibility to address poor physical health in their consumers. One way of doing this is to conduct metabolic monitoring (MM) of risk factors for cardiovascular diseases. This study compares two models of MM among consumers with SMI and describes referral pathways for those at high risk of cardiovascular diseases.</p>
             </sec>
             <sec>
                <st>
                   <p>Methods</p>
                </st>
                <p>A retrospective cross-sectional comparison design was used. The two models were: (1) MM integrated with case managers, and (2) MM integrated with case managers and specialist roles. Retrospective data were collected for all new episodes at two community mental health services (CMHS) over a 12-month period (September 2012 &#8211; August 2013).</p>
             </sec>
             <sec>
                <st>
                   <p>Results</p>
                </st>
                <p>A total of 432 consumers with SMI across the two community mental health services were included in the analysis. At the service with the specialist roles, MM was undertaken for 78% of all new episode consumers, compared with 3% at the mental health service with case managers undertaking the role. Incomplete MM was systemic to both CMHS, although all consumers identified with high risk of cardiovascular diseases were referred to a general practitioner or other community based health services. The specialist roles enabled more varied referral options.</p>
             </sec>
             <sec>
                <st>
                   <p>Conclusions</p>
                </st>
                <p>The results of this study support incorporating specialist roles over case manager only roles for more effective MM among new episode consumers with SMI.</p>
             </sec>
          </sec>
       </abs>
    </fm>
    <bdy>
       <sec>
          <st>
             <p>Background</p>
          </st>
          <p>People with serious mental illness (SMI: psychotic illnesses primarily schizophrenia spectrum or bipolar affective disorder) have a reduced life expectancy compared with the general population <abbrgrp>
                <abbr bid="B1">1</abbr>
             </abbrgrp>. People with SMI exhibit a substantially higher prevalence of co-existing conditions such as cardiovascular diseases <abbrgrp>
                <abbr bid="B1">1</abbr>
             </abbrgrp> and its precursor, metabolic syndrome <abbrgrp>
                <abbr bid="B2">2</abbr>
             </abbrgrp>,<abbrgrp>
                <abbr bid="B3">3</abbr>
             </abbrgrp>. Such is the sub-optimal combination of mental and physical health that the risk of cardiovascular diseases alone, is between two <abbrgrp>
                <abbr bid="B2">2</abbr>
             </abbrgrp> and 12 times greater among people with SMI than the general population <abbrgrp>
                <abbr bid="B4">4</abbr>
             </abbrgrp>. Australian mental health services have a responsibility to address poor physical health <abbrgrp>
                <abbr bid="B5">5</abbr>
             </abbrgrp>, and this will involve a shift in provider culture, practice, and service delivery <abbrgrp>
                <abbr bid="B6">6</abbr>
             </abbrgrp>.</p>
          <p>A necessary process in the shift of provider practice is to conduct metabolic monitoring (MM). Such monitoring involves quantifying risk factors for cardiovascular diseases such as blood pressure, cholesterol, blood sugar levels, waist and hip circumference, and body mass and stature <abbrgrp>
                <abbr bid="B6">6</abbr>
             </abbrgrp>,<abbrgrp>
                <abbr bid="B7">7</abbr>
             </abbrgrp>, along with modifiable lifestyle behaviours (e.g., tobacco smoking, alcohol consumption, physical activity, and nutrition) and antipsychotic medication prescription. However, selecting and implementing a MM model can be problematic due to perceptions of efficacy within services and staff <abbrgrp>
                <abbr bid="B6">6</abbr>
             </abbrgrp>,<abbrgrp>
                <abbr bid="B8">8</abbr>
             </abbrgrp>&#8211;<abbrgrp>
                <abbr bid="B10">10</abbr>
             </abbrgrp>. Furthermore, pessimism persists about the effect of healthy lifestyle recommendations post MM on consumer behaviours <abbrgrp>
                <abbr bid="B1">1</abbr>
             </abbrgrp> and health outcomes <abbrgrp>
                <abbr bid="B11">11</abbr>
             </abbrgrp>.</p>
          <p>The principle aim of effective MM of people with SMI is to obtain metabolic information that can be used to tailor physical health interventions <abbrgrp>
                <abbr bid="B12">12</abbr>
             </abbrgrp>. However, a generic MM model may be challenged by the aforementioned reasons <abbrgrp>
                <abbr bid="B12">12</abbr>
             </abbrgrp>. Furthermore, effectiveness of MM has not been described with randomised controlled trials at this time <abbrgrp>
                <abbr bid="B12">12</abbr>
             </abbrgrp>. Therefore, clinicians are without a clear MM model and confusion among who is responsible for MM (i.e., primary or secondary care) persists <abbrgrp>
                <abbr bid="B13">13</abbr>
             </abbrgrp>,<abbrgrp>
                <abbr bid="B14">14</abbr>
             </abbrgrp>.</p>
          <p>Despite evidence supporting the need for MM of people with SMI and the development of clinical guidelines for the physical health care of consumers <abbrgrp>
                <abbr bid="B15">15</abbr>
             </abbrgrp>&#8211;<abbrgrp>
                <abbr bid="B17">17</abbr>
             </abbrgrp>, the process of monitoring is often incomplete <abbrgrp>
                <abbr bid="B6">6</abbr>
             </abbrgrp>,<abbrgrp>
                <abbr bid="B18">18</abbr>
             </abbrgrp>,<abbrgrp>
                <abbr bid="B19">19</abbr>
             </abbrgrp>. Incomplete monitoring implies poor identification of cardiovascular diseases risk factors <abbrgrp>
                <abbr bid="B20">20</abbr>
             </abbrgrp>,<abbrgrp>
                <abbr bid="B21">21</abbr>
             </abbrgrp> and subsequent increased morbidity <abbrgrp>
                <abbr bid="B17">17</abbr>
             </abbrgrp>. Furthermore, adequate and responsible referral once risk has been identified should also supplement MM as a fundamental component in addressing identified risks <abbrgrp>
                <abbr bid="B22">22</abbr>
             </abbrgrp>,<abbrgrp>
                <abbr bid="B23">23</abbr>
             </abbrgrp>, cognisant of the reported communication barriers among mental health and community health services <abbrgrp>
                <abbr bid="B24">24</abbr>
             </abbrgrp>.</p>
          <p>Given the known risk of people with SMI to cardiovascular diseases, more knowledge is needed about the effectiveness of MM models and associated referral pathways for high risk consumers to inform future physical health policy across mental health services. Therefore, the aims of this study were to; (1) describe the effectiveness of MM and scope of referral pathways within one of Australia&#8217;s largest mental health services, and (2) compare MM in an area with specialist MM roles with an area reliant of existing case manager roles.</p>
       </sec>
       <sec>
          <st>
             <p>Methods</p>
          </st>
          <sec>
             <st>
                <p>Setting</p>
             </st>
             <p>Responding to the challenges of effective MM, one of Australia&#8217;s largest mental health services introduced a MM policy to improve the early detection, treatment, and use of referral pathways among consumers with SMI. The policy initiative was coupled with staff education that occurred across all community mental health services (CMHS) in 2011&#8211;12. Metabolic monitoring was supported with the provision of a generic MM data collection form and a risk identification/referral pathway algorithm. The identification of risk was based on national (e.g., Heart Foundation <abbrgrp>
                   <abbr bid="B25">25</abbr>
                </abbrgrp>) and international (e.g., World Health Organization <abbrgrp>
                   <abbr bid="B26">26</abbr>
                </abbrgrp>) guidelines. As such, the responsibility for MM and associated referral pathways was integrated into existing case manager roles for all CMHS. As per the MM policy, medical staff and case managers have the shared responsibility to ensure that each consumer has had MM. Furthermore, case managers should support consumers to access appropriate investigations and treatments including facilitating attendance to general practitioners or other medical appointments. In the instance of detected high risk of cardiovascular diseases, the case manager should facilitate referral to and attendance at the consumer&#8217;s general practitioner. The procedure for collection of MM information in line with the service policy is for case managers to collect data (e.g., body mass and blood pressure), which is recorded on the generic MM data collection form. Case managers are required to facilitate medical investigations such as collection of bloods for fats and sugar investigations.</p>
             <p>In addition, one CMHS saw value in developing specialist roles within existing mental health nursing staff resource to support case managers undertaking MM and physical health assessment of consumers. The equivalent of 0.5 EFT of Registered Nurse and 0.8 EFT Enrolled Nurse was allocated to focus on supporting case managers undertake MM and to ensure the form has been completed and missing information is updated.</p>
          </sec>
          <sec>
             <st>
                <p>Design</p>
             </st>
             <p>A retrospective cross-sectional comparison study was undertaken to address the research aims. Two CMHS within the mental health service were selected for comparison; (1) a CMHS with the specialist MM roles and (2) a CMHS with the responsibility for MM resting with case managers. The populations of both CMHS catchment areas are characterised with low socio-economic status and high immigrant and ethnic diversity compared with the remainder of the state of Victoria. All new consumer episodes referred to each CMHS for the first time, inclusive of September 2012 to August 2013 were assessed for MM data. A retrospective electronic file audit was undertaken and data were collected based on the presence of the aforementioned generic MM data collection form. The absence of the form was indicative of MM not having been undertaken. From the form, the presence of monitoring specific risk factors of cardiovascular diseases was determined. The MM variables were body mass index, fasting blood glucose, blood pressure, waist circumference, total cholesterol, triglycerides, low density lipoprotein level, high density lipoprotein level, exercise status, and smoking status. Metabolic monitoring outcome variables were categorised for cardiovascular diseases risk as &#8216;high risk&#8217;, &#8216;moderate risk&#8217;, and &#8216;low risk&#8217; in accordance with national and international guidelines. The scope of referral pathways were described relative to primary health and preventative health providers. The conduct of the study was ethically approved by the Melbourne Health Office for Research (QA2013174).</p>
          </sec>
          <sec>
             <st>
                <p>Statistical analyses</p>
             </st>
             <p>Descriptive statistics were computed for consumer demographics, MM variables, and referral pathways. A univariate Chi-square (<it>&#967;</it>
                <sup>
                   <it>2</it>
                </sup>) analysis was conducted to compare the difference among frequency counts of the generic MM data collection form across the two CMHS with Statistical Package for Social Scientists 20.0 for Windows (IBM Corp, Armonk, USA). Significance was accepted at <it>p</it>&#8201;&#8804;&#8201;0.05.</p>
          </sec>
       </sec>
       <sec>
          <st>
             <p>Results</p>
          </st>
          <p>A total of 432 new episode consumers were eligible for MM across the two CMHS (see Table&#160;<tblr tid="T1">1</tblr>). The samples were evenly matched according to gender. Consumer age range was 19&#160;years to 65&#160;years. Most consumers were diagnosed with a psychotic illness (schizophrenia, schizoaffective disorder, or psychotic illness unspecified).</p>
          
             <table id="T1">
                <title>
                   <p>Table 1</p>
                </title>
                <caption>
                   <p>
                      <b>Sample descriptors (N&#8201;=&#8201;432) across the two CMHS</b>
                   </p>
                </caption>
                <tgroup align="left" cols="4">
                   <colspec align="left" colname="c1" colnum="1" colwidth="*"/>
                   <colspec align="left" colname="c2" colnum="2" colwidth="*"/>
                   <colspec align="left" colname="c3" colnum="3" colwidth="*"/>
                   <colspec align="left" colname="c4" colnum="4" colwidth="*"/>
                   <thead>
                      <row valign="top">
                         <entry morerows="1" nameend="c2" namest="c1" rowsep="1"/>
                         <entry colname="c3">
                            <p>
                               <b>SR</b>
                               <sup>
                                  <b>1</b>
                               </sup>
                               <b>CMHS</b>
                            </p>
                         </entry>
                         <entry colname="c4">
                            <p>
                               <b>CM</b>
                               <sup>
                                  <b>2</b>
                               </sup>
                               <b>CMHS</b>
                            </p>
                         </entry>
                      </row>
                      <row valign="top">
                         <entry colname="c3">
                            <p>
                               <b>(</b>
                               <b>
                                  <it>n</it>
                               </b>&#8201;
                                           <b>=&#8201;134)</b>
                            </p>
                         </entry>
                         <entry colname="c4">
                            <p>
                               <b>(</b>
                               <b>
                                  <it>n</it>
                               </b>&#8201;
                                           <b>=&#8201;298)</b>
                            </p>
                         </entry>
                      </row>
                   </thead>
                   <tfoot>
                      <p>NOTE: SR CMHS case manager EFT&#8201;=&#8201;10.6. CM CMHS case manager EFT&#8201;=&#8201;17.4.</p>
                      <p>
                         <sup>1</sup>Specialist roles.</p>
                      <p>
                         <sup>2</sup>Case manager only roles.</p>
                      <p>
                         <sup>3</sup>Schizophrenia, schizoaffective disorder, psychotic disorder unspecified.</p>
                      <p>
                         <sup>4</sup>Other ICD-10-AM &#8216;F&#8217; codes.</p>
                   </tfoot>
                   <tbody>
                      <row valign="top">
                         <entry colname="c1">
                            <p>Gender (%)</p>
                         </entry>
                         <entry colname="c2">
                            <p>Male</p>
                         </entry>
                         <entry colname="c3">
                            <p>67 (50)</p>
                         </entry>
                         <entry colname="c4">
                            <p>159 (53)</p>
                         </entry>
                      </row>
                      <row valign="top">
                         <entry colname="c1"/>
                         <entry colname="c2">
                            <p>Female</p>
                         </entry>
                         <entry colname="c3">
                            <p>67 (50)</p>
                         </entry>
                         <entry colname="c4">
                            <p>139 (47)</p>
                         </entry>
                      </row>
                      <row valign="top">
                         <entry colname="c1">
                            <p>Age (years)</p>
                         </entry>
                         <entry colname="c2">
                            <p>Male mean (SD)</p>
                         </entry>
                         <entry colname="c3">
                            <p>38 (11)</p>
                         </entry>
                         <entry colname="c4">
                            <p>38 (10)</p>
                         </entry>
                      </row>
                      <row valign="top">
                         <entry colname="c1"/>
                         <entry colname="c2">
                            <p>Range</p>
                         </entry>
                         <entry colname="c3">
                            <p>19-63</p>
                         </entry>
                         <entry colname="c4">
                            <p>19-64</p>
                         </entry>
                      </row>
                      <row valign="top">
                         <entry colname="c1"/>
                         <entry colname="c2">
                            <p>Female mean (SD)</p>
                         </entry>
                         <entry colname="c3">
                            <p>38 (11)</p>
                         </entry>
                         <entry colname="c4">
                            <p>41 (12)</p>
                         </entry>
                      </row>
                      <row valign="top">
                         <entry colname="c1"/>
                         <entry colname="c2">
                            <p>Range</p>
                         </entry>
                         <entry colname="c3">
                            <p>18-64</p>
                         </entry>
                         <entry colname="c4">
                            <p>20-65</p>
                         </entry>
                      </row>
                      <row valign="top">
                         <entry colname="c1">
                            <p>Diagnosis (%)</p>
                         </entry>
                         <entry colname="c2">
                            <p>Psychotic illness<sup>3</sup>
                            </p>
                         </entry>
                         <entry colname="c3">
                            <p>84 (63)</p>
                         </entry>
                         <entry colname="c4">
                            <p>188 (63)</p>
                         </entry>
                      </row>
                      <row valign="top">
                         <entry colname="c1"/>
                         <entry colname="c2">
                            <p>Bipolar affective disorder unspecified</p>
                         </entry>
                         <entry colname="c3">
                            <p>18 (12)</p>
                         </entry>
                         <entry colname="c4">
                            <p>22 (7)</p>
                         </entry>
                      </row>
                      <row valign="top">
                         <entry colname="c1"/>
                         <entry colname="c2">
                            <p>Major depression</p>
                         </entry>
                         <entry colname="c3">
                            <p>3 (2)</p>
                         </entry>
                         <entry colname="c4">
                            <p>17 (6)</p>
                         </entry>
                      </row>
                      <row valign="top">
                         <entry colname="c1"/>
                         <entry colname="c2">
                            <p>Other diagnosis<sup>4</sup>
                            </p>
                         </entry>
                         <entry colname="c3">
                            <p>31 (23)</p>
                         </entry>
                         <entry colname="c4">
                            <p>71 (24)</p>
                         </entry>
                      </row>
                   </tbody>
                </tgroup>
             </table>
          
          <p>At the CMHS with specialist roles, MM was undertaken for 105 (78%) of 134 new episode consumers. At the CMHS with case manager only roles, MM was undertaken for 8 (3%) of the 298 new episodes, <it>&#967;</it>
             <sup>2</sup>(1, N&#8201;=&#8201;113)&#8201;=&#8201;83.27, <it>p</it>&#8201;=&#8201;0.01.</p>
          <p>At the CMHS with the specialist MM roles smoking status, exercise frequency, low density lipoprotein level, and waist circumference were the most common &#8216;high risk&#8217; variables for cardiovascular diseases (see Table&#160;<tblr tid="T2">2</tblr>). Of new episode consumers that were metabolically monitored at the specialist roles CMHS, the range of monitoring of outcome variables was 53% (low density lipoprotein) to 100% (smoking status). At the CMHS with case managers responsible for undertaking MM, a lack of effectiveness of MM was found.</p>
          
             <table id="T2">
                <title>
                   <p>Table 2</p>
                </title>
                <caption>
                   <p>
                      <b>Metabolic monitoring risk outcomes of new episode consumers across the two CMHS</b>
                   </p>
                </caption>
                <tgroup align="left" cols="5">
                   <colspec align="left" colname="c1" colnum="1" colwidth="*"/>
                   <colspec align="left" colname="c2" colnum="2" colwidth="*"/>
                   <colspec align="left" colname="c3" colnum="3" colwidth="*"/>
                   <colspec align="left" colname="c4" colnum="4" colwidth="*"/>
                   <colspec align="left" colname="c5" colnum="5" colwidth="*"/>
                   <thead>
                      <row valign="top">
                         <entry colname="c1">
                            <p>
                               <b>Metabolic monitoring outcome variables at the CMHS with specialist roles</b>
                            </p>
                         </entry>
                         <entry nameend="c5" namest="c2" rowsep="1">
                            <p>
                               <b>Cardiovascular diseases risk factors</b>
                            </p>
                         </entry>
                      </row>
                      <row valign="top">
                         <entry colname="c1">
                            <p>
                               <b>(</b>
                               <b>
                                  <it>n</it>
                               </b>&#8201;
                                           <b>=&#8201;105)</b>
                            </p>
                         </entry>
                         <entry nameend="c5" namest="c2">
                            <p>
                               <b>
                                  <it>n</it>
                               </b>
                               <b>(%)</b>
                            </p>
                         </entry>
                      </row>
                      <row valign="top">
                         <entry colname="c1"/>
                         <entry colname="c2">
                            <p>
                               <b>High</b>
                            </p>
                         </entry>
                         <entry colname="c3">
                            <p>
                               <b>Moderate</b>
                            </p>
                         </entry>
                         <entry colname="c4">
                            <p>
                               <b>Low</b>
                            </p>
                         </entry>
                         <entry colname="c5">
                            <p>
                               <b>Missing</b>
                            </p>
                         </entry>
                      </row>
                   </thead>
                   <tfoot>
                      <p>
                         <sup>1</sup>High&#8201;&gt;&#8201;30&#160;kg.m<sup>&#8722;2</sup>, Moderate 25&#8211;30&#160;kg.m<sup>&#8722;2</sup>, Low&#8201;&lt;&#8201;25&#160;kg.m<sup>&#8722;2</sup>.</p>
                      <p>
                         <sup>2</sup>High 7.0&#160;mmol.L<sup>&#8722;1</sup>, Moderate 5.5-6.9&#160;mmol.L<sup>&#8722;1</sup>, Low&#8201;&lt;&#8201;5.5&#160;mmol.L<sup>&#8722;1</sup>.</p>
                      <p>
                         <sup>3</sup>High&#8201;&gt;&#8201;180&#160;mm.Hg<sup>&#8722;1</sup> systolic and&#8201;&gt;&#8201;110&#160;mm.Hg<sup>&#8722;1</sup> diastolic, Moderate 140-180&#160;mm.Hg<sup>&#8722;1</sup> systolic and 90&#8211;110&#160;mm.Hg<sup>&#8722;1</sup>, Low&#8201;&lt;&#8201;140&#160;mm.Hg<sup>&#8722;1</sup> systolic and&#8201;&lt;&#8201;90&#160;mm.Hg<sup>&#8722;1</sup>.</p>
                      <p>
                         <sup>4</sup>High female &#8805; 88 cm, male &#8805; 102 cm, Moderate female &#8805; 80 cm, male &#8805; 94 cm, Low female &lt; 80 cm, male &lt; 94 cm.</p>
                      <p>
                         <sup>5</sup>High&#8201;&gt;&#8201;5.5&#160;mmol.L<sup>&#8722;1</sup>, Low&#8201;&#8804;&#8201;5.5&#160;mmol.L<sup>&#8722;1</sup>.</p>
                      <p>
                         <sup>6</sup>High&#8201;&gt;&#8201;2.0&#160;mmol.L<sup>&#8722;1</sup>, Low&#8201;&#8804;&#8201;2.0&#160;mmol.L<sup>&#8722;1</sup>.</p>
                      <p>
                         <sup>7</sup>High&#8201;&gt;&#8201;2.5&#160;mmol.L<sup>&#8722;1</sup>, Low&#8201;&#8804;&#8201;2.5&#160;mmol.L<sup>&#8722;1</sup>.</p>
                      <p>
                         <sup>8</sup>High&#8201;&lt;&#8201;1.0&#160;mmol.L<sup>&#8722;1</sup>, Low&#8201;&#8805;&#8201;1.0&#160;mmol.L<sup>&#8722;1</sup>.</p>
                      <p>
                         <sup>9</sup>High&#8201;&lt;&#8201;every day, Low&#8201;=&#8201;every day.</p>
                      <p>
                         <sup>10</sup>High&#8201;=&#8201;current smoker, Low&#8201;=&#8201;does not smoke.</p>
                      <p>
                         <sup>11</sup>Percentage not reported for the case manager only roles CMHS due to low <it>n</it>.</p>
                   </tfoot>
                   <tbody>
                      <row valign="top">
                         <entry colname="c1">
                            <p>Body mass index<sup>1</sup>
                            </p>
                         </entry>
                         <entry colname="c2">
                            <p>21 (30)</p>
                         </entry>
                         <entry colname="c3">
                            <p>22 (31)</p>
                         </entry>
                         <entry colname="c4">
                            <p>27 (39)</p>
                         </entry>
                         <entry colname="c5">
                            <p>35</p>
                         </entry>
                      </row>
                      <row valign="top">
                         <entry colname="c1">
                            <p>Fasting blood glucose<sup>2</sup>
                            </p>
                         </entry>
                         <entry colname="c2">
                            <p>5 (8)</p>
                         </entry>
                         <entry colname="c3">
                            <p>12 (20)</p>
                         </entry>
                         <entry colname="c4">
                            <p>44 (72)</p>
                         </entry>
                         <entry colname="c5">
                            <p>44</p>
                         </entry>
                      </row>
                      <row valign="top">
                         <entry colname="c1">
                            <p>Blood pressure<sup>3</sup>
                            </p>
                         </entry>
                         <entry colname="c2">
                            <p>2 (3)</p>
                         </entry>
                         <entry colname="c3">
                            <p>4 (6)</p>
                         </entry>
                         <entry colname="c4">
                            <p>59 (91)</p>
                         </entry>
                         <entry colname="c5">
                            <p>40</p>
                         </entry>
                      </row>
                      <row valign="top">
                         <entry colname="c1">
                            <p>Waist circumference<sup>4</sup>
                            </p>
                         </entry>
                         <entry colname="c2">
                            <p>33 (51)</p>
                         </entry>
                         <entry colname="c3">
                            <p>16 (24.5)</p>
                         </entry>
                         <entry colname="c4">
                            <p>16 (24.5)</p>
                         </entry>
                         <entry colname="c5">
                            <p>40</p>
                         </entry>
                      </row>
                      <row valign="top">
                         <entry colname="c1">
                            <p>Total cholesterol<sup>5</sup>
                            </p>
                         </entry>
                         <entry colname="c2">
                            <p>24 (36)</p>
                         </entry>
                         <entry colname="c3">
                            <p>-</p>
                         </entry>
                         <entry colname="c4">
                            <p>42 (64)</p>
                         </entry>
                         <entry colname="c5">
                            <p>39</p>
                         </entry>
                      </row>
                      <row valign="top">
                         <entry colname="c1">
                            <p>Triglycerides<sup>6</sup>
                            </p>
                         </entry>
                         <entry colname="c2">
                            <p>23 (35)</p>
                         </entry>
                         <entry colname="c3">
                            <p>-</p>
                         </entry>
                         <entry colname="c4">
                            <p>43 (65)</p>
                         </entry>
                         <entry colname="c5">
                            <p>39</p>
                         </entry>
                      </row>
                      <row valign="top">
                         <entry colname="c1">
                            <p>Low density lipoproteins<sup>7</sup>
                            </p>
                         </entry>
                         <entry colname="c2">
                            <p>37 (66)</p>
                         </entry>
                         <entry colname="c3">
                            <p>-</p>
                         </entry>
                         <entry colname="c4">
                            <p>19 (34)</p>
                         </entry>
                         <entry colname="c5">
                            <p>49</p>
                         </entry>
                      </row>
                      <row valign="top">
                         <entry colname="c1">
                            <p>High density lipoproteins<sup>8</sup>
                            </p>
                         </entry>
                         <entry colname="c2">
                            <p>5 (9)</p>
                         </entry>
                         <entry colname="c3">
                            <p>-</p>
                         </entry>
                         <entry colname="c4">
                            <p>52 (96)</p>
                         </entry>
                         <entry colname="c5">
                            <p>48</p>
                         </entry>
                      </row>
                      <row valign="top">
                         <entry colname="c1">
                            <p>Exercise status<sup>9</sup>
                            </p>
                         </entry>
                         <entry colname="c2">
                            <p>44 (76)</p>
                         </entry>
                         <entry colname="c3">
                            <p>-</p>
                         </entry>
                         <entry colname="c4">
                            <p>14 (24)</p>
                         </entry>
                         <entry colname="c5">
                            <p>47</p>
                         </entry>
                      </row>
                      <row rowsep="1" valign="top">
                         <entry colname="c1">
                            <p>Smoking status<sup>10</sup>
                            </p>
                         </entry>
                         <entry colname="c2">
                            <p>34 (32)</p>
                         </entry>
                         <entry colname="c3">
                            <p>-</p>
                         </entry>
                         <entry colname="c4">
                            <p>71 (68)</p>
                         </entry>
                         <entry colname="c5">
                            <p>0</p>
                         </entry>
                      </row>
                      <row valign="top">
                         <entry colname="c1">
                            <p>
                               <b>Metabolic monitoring outcome variables at the CMHS with case manager only roles</b>
                            </p>
                         </entry>
                         <entry nameend="c5" namest="c2" rowsep="1">
                            <p>
                               <b>Cardiovascular diseases risk factors</b>
                            </p>
                         </entry>
                      </row>
                      <row valign="top">
                         <entry colname="c1">
                            <p>
                               <b>(</b>
                               <b>
                                  <it>n</it>
                               </b>&#8201;
                                           <b>=&#8201;8)</b>
                            </p>
                         </entry>
                         <entry nameend="c5" namest="c2">
                            <p>
                               <b>
                                  <it>n</it>
                               </b>
                               <sup>
                                  <b>11</b>
                               </sup>
                            </p>
                         </entry>
                      </row>
                      <row rowsep="1" valign="top">
                         <entry colname="c1"/>
                         <entry colname="c2">
                            <p>
                               <b>High</b>
                            </p>
                         </entry>
                         <entry colname="c3">
                            <p>
                               <b>Moderate</b>
                            </p>
                         </entry>
                         <entry colname="c4">
                            <p>
                               <b>Low</b>
                            </p>
                         </entry>
                         <entry colname="c5">
                            <p>
                               <b>Missing</b>
                            </p>
                         </entry>
                      </row>
                      <row valign="top">
                         <entry colname="c1">
                            <p>Body mass index</p>
                         </entry>
                         <entry colname="c2">
                            <p>2</p>
                         </entry>
                         <entry colname="c3">
                            <p>2</p>
                         </entry>
                         <entry colname="c4">
                            <p>3</p>
                         </entry>
                         <entry colname="c5">
                            <p>1</p>
                         </entry>
                      </row>
                      <row valign="top">
                         <entry colname="c1">
                            <p>Fasting blood glucose</p>
                         </entry>
                         <entry colname="c2">
                            <p>0</p>
                         </entry>
                         <entry colname="c3">
                            <p>1</p>
                         </entry>
                         <entry colname="c4">
                            <p>4</p>
                         </entry>
                         <entry colname="c5">
                            <p>3</p>
                         </entry>
                      </row>
                      <row valign="top">
                         <entry colname="c1">
                            <p>Blood pressure</p>
                         </entry>
                         <entry colname="c2">
                            <p>0</p>
                         </entry>
                         <entry colname="c3">
                            <p>2</p>
                         </entry>
                         <entry colname="c4">
                            <p>5</p>
                         </entry>
                         <entry colname="c5">
                            <p>3</p>
                         </entry>
                      </row>
                      <row valign="top">
                         <entry colname="c1">
                            <p>Waist circumference</p>
                         </entry>
                         <entry colname="c2">
                            <p>3</p>
                         </entry>
                         <entry colname="c3">
                            <p>1</p>
                         </entry>
                         <entry colname="c4">
                            <p>0</p>
                         </entry>
                         <entry colname="c5">
                            <p>4</p>
                         </entry>
                      </row>
                      <row valign="top">
                         <entry colname="c1">
                            <p>Total cholesterol</p>
                         </entry>
                         <entry colname="c2">
                            <p>3</p>
                         </entry>
                         <entry colname="c3">
                            <p>-</p>
                         </entry>
                         <entry colname="c4">
                            <p>1</p>
                         </entry>
                         <entry colname="c5">
                            <p>4</p>
                         </entry>
                      </row>
                      <row valign="top">
                         <entry colname="c1">
                            <p>Triglycerides</p>
                         </entry>
                         <entry colname="c2">
                            <p>0</p>
                         </entry>
                         <entry colname="c3">
                            <p>-</p>
                         </entry>
                         <entry colname="c4">
                            <p>2</p>
                         </entry>
                         <entry colname="c5">
                            <p>6</p>
                         </entry>
                      </row>
                      <row valign="top">
                         <entry colname="c1">
                            <p>Low density lipoproteins</p>
                         </entry>
                         <entry colname="c2">
                            <p>2</p>
                         </entry>
                         <entry colname="c3">
                            <p>-</p>
                         </entry>
                         <entry colname="c4">
                            <p>2</p>
                         </entry>
                         <entry colname="c5">
                            <p>4</p>
                         </entry>
                      </row>
                      <row valign="top">
                         <entry colname="c1">
                            <p>High density lipoproteins</p>
                         </entry>
                         <entry colname="c2">
                            <p>1</p>
                         </entry>
                         <entry colname="c3">
                            <p>-</p>
                         </entry>
                         <entry colname="c4">
                            <p>2</p>
                         </entry>
                         <entry colname="c5">
                            <p>5</p>
                         </entry>
                      </row>
                      <row valign="top">
                         <entry colname="c1">
                            <p>Exercise status</p>
                         </entry>
                         <entry colname="c2">
                            <p>4</p>
                         </entry>
                         <entry colname="c3">
                            <p>-</p>
                         </entry>
                         <entry colname="c4">
                            <p>1</p>
                         </entry>
                         <entry colname="c5">
                            <p>3</p>
                         </entry>
                      </row>
                      <row valign="top">
                         <entry colname="c1">
                            <p>Smoking status</p>
                         </entry>
                         <entry colname="c2">
                            <p>7</p>
                         </entry>
                         <entry colname="c3">
                            <p>-</p>
                         </entry>
                         <entry colname="c4">
                            <p>0</p>
                         </entry>
                         <entry colname="c5">
                            <p>1</p>
                         </entry>
                      </row>
                   </tbody>
                </tgroup>
             </table>
          
          <p>Of new episode consumers who underwent MM (n&#8201;=&#8201;113), referral pathways were established for each identified as &#8216;high risk&#8217; of cardiovascular diseases across both CMHS. Referral pathways at the specialist roles CMHS included; a dietician, an exercise physiologist, a well women&#8217;s group, a diabetic educator, a podiatrist, council initiatives (Jamie's Ministry of Food and a leisure programme), a YMCA exercise programme, a Quit programme for smoking cessation, a volunteer fitness instructor, and general practitioners. The referral pathway at the CMHS with case manager only roles was to each consumer&#8217;s general practitioner.</p>
       </sec>
       <sec>
          <st>
             <p>Discussion</p>
          </st>
          <p>The results of this study underline the importance of specialist roles to more effectively support MM in CMHS. In this study, specialist roles were able to document varying levels of cardiovascular diseases risk among 78% of new episode consumers compared with 3% at the CMHS where MM was a usual work task of case managers. These results support the opinions of many clinicians; that an individual should be tasked with MM within mental health services and that extra discrete resourcing is required <abbrgrp>
                <abbr bid="B27">27</abbr>
             </abbrgrp>&#8211;<abbrgrp>
                <abbr bid="B29">29</abbr>
             </abbrgrp>. However, the specialist roles described in the current study were created by reconfiguring existing mental health nursing roles rather than a requirement of additional resource incurred by the CMHS.</p>
          <p>Despite specialist roles in the current study, smoking status was the only outcome variable with complete monitoring among all 113 new episode consumers with SMI. Gaps were found in the reporting of specific risk factors, despite the gains made in undertaking MM with the total caseload. These findings support literature describing the absence or neglect of blood pressure <abbrgrp>
                <abbr bid="B24">24</abbr>
             </abbrgrp>, waist circumference, and body mass monitoring <abbrgrp>
                <abbr bid="B6">6</abbr>
             </abbrgrp>. Retrospective informal discussion with the specialist role mental health nurses revealed several factors limiting thorough and systemic MM at the CMHS; poor adherence to blood profiling attributed to consumer anxiety towards needles, procedural complexity in collecting fasting blood glucose, the logistical barriers to attending community based pathology services, and poor communication between the mental health service and local medical officers regarding the transfer of diagnostic results. Similar opinions have been expressed and reported in previous research <abbrgrp>
                <abbr bid="B28">28</abbr>
             </abbrgrp>,<abbrgrp>
                <abbr bid="B30">30</abbr>
             </abbrgrp>&#8211;<abbrgrp>
                <abbr bid="B32">32</abbr>
             </abbrgrp>. Acuity among some consumers and refusal to consent to participate in MM were also discussed and are commonly identified as potential barriers to MM <abbrgrp>
                <abbr bid="B33">33</abbr>
             </abbrgrp>.</p>
          <p>Additional barriers to completing MM have included across-discipline confusion about who should be responsible for the role <abbrgrp>
                <abbr bid="B6">6</abbr>
             </abbrgrp>,<abbrgrp>
                <abbr bid="B11">11</abbr>
             </abbrgrp>,<abbrgrp>
                <abbr bid="B28">28</abbr>
             </abbrgrp> and a lack of supporting procedures <abbrgrp>
                <abbr bid="B23">23</abbr>
             </abbrgrp>. Furthermore, MM has also been limited by exclusion of the supportive capacity of carers <abbrgrp>
                <abbr bid="B1">1</abbr>
             </abbrgrp>. Such barriers may explain the poor MM at the CMHS in this study, where the responsibility of monitoring relied on case managers completing the process as specified in the service policy. Regardless of the consumer and service barriers, the volume of missing data among consumers with SMI in the current study is alarming considering the number of consumers identified at high risk of cardiovascular diseases.</p>
          <p>The scope of referral pathways for high risk consumers in this study provided evidence of collaboration with primary health and preventative health providers. For the CMHS without specialist roles, referral followed service policy (i.e., to the consumer&#8217;s general practitioner). For the CMHS with specialist roles, referral pathways were tailored to the MM risk factor identified. These results support the importance of tailored referral pathways established by a specialist nurse role in the United Kingdom <abbrgrp>
                <abbr bid="B23">23</abbr>
             </abbrgrp>. Referrals to physical activity and body mass management groups <abbrgrp>
                <abbr bid="B23">23</abbr>
             </abbrgrp>,<abbrgrp>
                <abbr bid="B34">34</abbr>
             </abbrgrp> and one-to-one tailored health interventions <abbrgrp>
                <abbr bid="B35">35</abbr>
             </abbrgrp> have been effective in eliciting positive lifestyle changes among consumers with SMI.</p>
          <p>Future research should focus on mental health services developing strategies to engage consumers with MM, so that all recommended cardiovascular diseases risks are disclosed. Furthermore, given the emerging knowledge of preferences for interventions among consumers with SMI <abbrgrp>
                <abbr bid="B34">34</abbr>
             </abbrgrp>,<abbrgrp>
                <abbr bid="B35">35</abbr>
             </abbrgrp>, guidance is also required about efficacy of interventions to reduce cardiovascular diseases risk once MM is systemic to mental health services.</p>
          <sec>
             <st>
                <p>Limitations</p>
             </st>
             <p>This study was delimited to the comparison of two CMHS within one of Australia&#8217;s largest mental health services. A more thorough understanding of the effectiveness of the MM policy within the mental health service could be described if all CMHS were retrospectively audited. Furthermore, we are only able to anecdotally speculate why MM did not occur for 22% of consumers at the specialist roles CMHS and 97% of consumers at the case manager roles CMHS. This study focused on two aims; (1) effectiveness of two MM models and (2) referral pathways of consumers identified at high risk of cardiovascular diseases. Given that the specialist roles occurred within existing budget and required a re-configuration of existing mental health nursing roles, there is no indication of the impact of the re-configuration on overall service delivery.</p>
          </sec>
       </sec>
       <sec>
          <st>
             <p>Conclusions</p>
          </st>
          <p>The results of this study support CMHS specialist roles over case manager only roles for more effective MM among new episode consumers with SMI. The specialist roles were also able to provide consumers with more tailored referral options.</p>
       </sec>
       <sec>
          <st>
             <p>Abbreviations</p>
          </st>
          <p>SMI: Serious mental illness</p>
          <p>MM: Metabolic monitoring</p>
          <p>CMHS: Community mental health service</p>
          <p>EFT: Equivalent full time</p>
       </sec>
       <sec>
          <st>
             <p>Competing interests</p>
          </st>
          <p>The authors declare that they have no competing interests.</p>
       </sec>
       <sec>
          <st>
             <p>Authors&#8217; contributions</p>
          </st>
          <p>All authors contributed to concept and design of the study. Data were collected by EW and TF. Data were analysed by BM and TF. The manuscript was prepared and approved by all authors.</p>
       </sec>
    </bdy>
    <bm>
       <ack>
          <sec>
             <st>
                <p>Acknowledgements</p>
             </st>
             <p>The authors acknowledge the assistance of clinical director Associate Professor Suresh Sundram and services managers Patrick Roe at NAMHS and Christine Brown at MWAMHS. This study was not funded.</p>
          </sec>
       </ack>
       <refgrp>
          
          <bibl id="B1">
             <title>
                <p>Serious mental illness and physical problems: a discussion paper</p>
             </title>
             <aug>
                <au>
                   <snm>Robson</snm>
                   <fnm>D</fnm>
                </au>
                <au>
                   <snm>Gray</snm>
                   <fnm>R</fnm>
                </au>
             </aug>
             <source>Int J Nurs Stud</source>
             <pubdate>2007</pubdate>
             <volume>44</volume>
             <fpage>457</fpage>
             <lpage>466</lpage>
             <xrefbib>
                <pubidlist>
                   <pubid idtype="doi">10.1016/j.ijnurstu.2006.07.013</pubid>
                   <pubid idtype="pmpid" link="fulltext">17007859</pubid>
                </pubidlist>
             </xrefbib>
          </bibl>
          <bibl id="B2">
             <title>
                <p>Prevalence of the metabolic syndrome in patients with schizophrenia: baseline results from the clinical antipsychotic trials of intervention effectiveness (CATIE) schizophrenia trial and comparison with national estimates from NHANES III</p>
             </title>
             <aug>
                <au>
                   <snm>McEvoy</snm>
                   <fnm>J</fnm>
                </au>
                <au>
                   <snm>Meyer</snm>
                   <fnm>J</fnm>
                </au>
                <au>
                   <snm>Goff</snm>
                   <fnm>D</fnm>
                </au>
                <au>
                   <snm>Nasrallah</snm>
                   <fnm>H</fnm>
                </au>
                <au>
                   <snm>Davis</snm>
                   <fnm>S</fnm>
                </au>
                <au>
                   <snm>Sullivan</snm>
                   <fnm>L</fnm>
                </au>
                <au>
                   <snm>Meltzer</snm>
                   <fnm>H</fnm>
                </au>
                <au>
                   <snm>Hsiao</snm>
                   <fnm>J</fnm>
                </au>
                <au>
                   <snm>Scott Stroup</snm>
                   <fnm>T</fnm>
                </au>
                <au>
                   <snm>Lieberman</snm>
                   <fnm>J</fnm>
                </au>
             </aug>
             <source>Schizophr Res</source>
             <pubdate>2005</pubdate>
             <volume>80</volume>
             <issue>1</issue>
             <fpage>19</fpage>
             <lpage>32</lpage>
             <xrefbib>
                <pubidlist>
                   <pubid idtype="doi">10.1016/j.schres.2005.07.014</pubid>
                   <pubid idtype="pmpid" link="fulltext">16137860</pubid>
                </pubidlist>
             </xrefbib>
          </bibl>
          <bibl id="B3">
             <title>
                <p>Depression and metabolic syndrome a systematic review and meta-analysis of epidemiological studies</p>
             </title>
             <aug>
                <au>
                   <snm>Pan</snm>
                   <fnm>A</fnm>
                </au>
                <au>
                   <snm>Keum</snm>
                   <fnm>N</fnm>
                </au>
                <au>
                   <snm>Okereke</snm>
                   <fnm>O</fnm>
                </au>
                <au>
                   <snm>Sun</snm>
                   <fnm>Q</fnm>
                </au>
                <au>
                   <snm>Kivimaki</snm>
                   <fnm>M</fnm>
                </au>
                <au>
                   <snm>Rubin</snm>
                   <fnm>R</fnm>
                </au>
                <au>
                   <snm>Hu</snm>
                   <fnm>F</fnm>
                </au>
             </aug>
             <source>Diabetes Care</source>
             <pubdate>2012</pubdate>
             <volume>35</volume>
             <fpage>1171</fpage>
             <lpage>1180</lpage>
             <xrefbib>
                <pubidlist>
                   <pubid idtype="doi">10.2337/dc11-2055</pubid>
                   <pubid idtype="pmpid" link="fulltext">22517938</pubid>
                </pubidlist>
             </xrefbib>
          </bibl>
          <bibl id="B4">
             <title>
                <p>Obesity in schizophrenia: screening, monitoring, and health promotion</p>
             </title>
             <aug>
                <au>
                   <snm>Beebe</snm>
                   <fnm>L</fnm>
                </au>
             </aug>
             <source>Perspect Psychiatr Care</source>
             <pubdate>2008</pubdate>
             <volume>44</volume>
             <issue>1</issue>
             <fpage>25</fpage>
             <lpage>31</lpage>
             <xrefbib>
                <pubidlist>
                   <pubid idtype="doi">10.1111/j.1744-6163.2008.00144.x</pubid>
                   <pubid idtype="pmpid" link="fulltext">18177275</pubid>
                </pubidlist>
             </xrefbib>
          </bibl>
          <bibl id="B5">
             <source>Improving the Physical Health of People with Severe Mental Illness. No Mental Health without Physical Health</source>
             <publisher>Department of Health, Melbourne</publisher>
             <pubdate>2011</pubdate>
          </bibl>
          <bibl id="B6">
             <title>
                <p>Implementing a physical health strategy in a mental health service</p>
             </title>
             <aug>
                <au>
                   <snm>Organ</snm>
                   <fnm>B</fnm>
                </au>
                <au>
                   <snm>Nicholson</snm>
                   <fnm>E</fnm>
                </au>
                <au>
                   <snm>Castle</snm>
                   <fnm>D</fnm>
                </au>
             </aug>
             <source>Australas Psychiatry</source>
             <pubdate>2010</pubdate>
             <volume>18</volume>
             <issue>5</issue>
             <fpage>456</fpage>
             <lpage>459</lpage>
             <xrefbib>
                <pubidlist>
                   <pubid idtype="doi">10.3109/10398562.2010.506217</pubid>
                   <pubid idtype="pmpid" link="fulltext">20863187</pubid>
                </pubidlist>
             </xrefbib>
          </bibl>
          <bibl id="B7">
             <title>
                <p>International Diabetes Federation Task Force on Epidemiology and Prevention, National Heart, Lung, and Blood Institute, American Heart Association, World Heart Foundation, International Atherosclerosis Society, International Association for the Study of Obesity: Harmonizing the metabolic syndrome</p>
             </title>
             <aug>
                <au>
                   <snm>Alberti</snm>
                   <fnm>K</fnm>
                </au>
                <au>
                   <snm>Eckel</snm>
                   <fnm>R</fnm>
                </au>
                <au>
                   <snm>Grundy</snm>
                   <fnm>S</fnm>
                </au>
                <au>
                   <snm>Zimmet</snm>
                   <fnm>P</fnm>
                </au>
                <au>
                   <snm>Cleeman</snm>
                   <fnm>J</fnm>
                </au>
                <au>
                   <snm>Donato</snm>
                   <fnm>K</fnm>
                </au>
                <au>
                   <snm>Fruchart</snm>
                   <fnm>J</fnm>
                </au>
                <au>
                   <snm>James</snm>
                   <fnm>W</fnm>
                </au>
                <au>
                   <snm>Loria</snm>
                   <fnm>C</fnm>
                </au>
                <au>
                   <snm>Smith</snm>
                   <fnm>S</fnm>
                   <suf>Jr</suf>
                </au>
             </aug>
             <source>Circulation</source>
             <pubdate>2009</pubdate>
             <volume>120</volume>
             <fpage>1640</fpage>
             <lpage>1645</lpage>
             <xrefbib>
                <pubidlist>
                   <pubid idtype="doi">10.1161/CIRCULATIONAHA.109.192644</pubid>
                   <pubid idtype="pmpid" link="fulltext">19805654</pubid>
                </pubidlist>
             </xrefbib>
          </bibl>
          <bibl id="B8">
             <title>
                <p>Identifying barriers to improving wellness of persons with severe mental illness in community residential mental health facilities</p>
             </title>
             <aug>
                <au>
                   <snm>Shor</snm>
                   <fnm>R</fnm>
                </au>
                <au>
                   <snm>Shalev</snm>
                   <fnm>A</fnm>
                </au>
             </aug>
             <source>Soc Work Ment Health</source>
             <pubdate>2013</pubdate>
             <volume>11</volume>
             <issue>4</issue>
             <fpage>334</fpage>
             <lpage>348</lpage>
             <xrefbib>
                <pubidlist>
                   <pubid idtype="doi">10.1080/15332985.2013.779360</pubid>
                </pubidlist>
             </xrefbib>
          </bibl>
          <bibl id="B9">
             <title>
                <p>A role for mental health nursing in the physical health care of consumers with severe mental illness</p>
             </title>
             <aug>
                <au>
                   <snm>Happell</snm>
                   <fnm>B</fnm>
                </au>
                <au>
                   <snm>Platania-Phung</snm>
                   <fnm>C</fnm>
                </au>
                <au>
                   <snm>Gray</snm>
                   <fnm>R</fnm>
                </au>
                <au>
                   <snm>Hardy</snm>
                   <fnm>S</fnm>
                </au>
                <au>
                   <snm>Lambert</snm>
                   <fnm>T</fnm>
                </au>
                <au>
                   <snm>McAllister</snm>
                   <fnm>M</fnm>
                </au>
                <au>
                   <snm>Davies</snm>
                   <fnm>C</fnm>
                </au>
             </aug>
             <source>J Psychiatr Ment Health Nurs</source>
             <pubdate>2011</pubdate>
             <volume>18</volume>
             <fpage>706</fpage>
             <lpage>711</lpage>
             <xrefbib>
                <pubidlist>
                   <pubid idtype="doi">10.1111/j.1365-2850.2010.01666.x</pubid>
                   <pubid idtype="pmpid" link="fulltext">21896113</pubid>
                </pubidlist>
             </xrefbib>
          </bibl>
          <bibl id="B10">
             <title>
                <p>The development of the serious mental illness physical health improvement profile</p>
             </title>
             <aug>
                <au>
                   <snm>White</snm>
                   <fnm>J</fnm>
                </au>
                <au>
                   <snm>Gray</snm>
                   <fnm>R</fnm>
                </au>
                <au>
                   <snm>Jones</snm>
                   <fnm>M</fnm>
                </au>
             </aug>
             <source>J Psychiatr Ment Health Nurs</source>
             <pubdate>2009</pubdate>
             <volume>16</volume>
             <fpage>493</fpage>
             <lpage>498</lpage>
             <xrefbib>
                <pubidlist>
                   <pubid idtype="doi">10.1111/j.1365-2850.2009.01375.x</pubid>
                   <pubid idtype="pmpid" link="fulltext">19538607</pubid>
                </pubidlist>
             </xrefbib>
          </bibl>
          <bibl id="B11">
             <title>
                <p>Primary care providers&#8217; views on metabolic monitoring of outpatients taking antipsychotic medication</p>
             </title>
             <aug>
                <au>
                   <snm>Mangurian</snm>
                   <fnm>C</fnm>
                </au>
                <au>
                   <snm>Giwa</snm>
                   <fnm>F</fnm>
                </au>
                <au>
                   <snm>Shumway</snm>
                   <fnm>M</fnm>
                </au>
                <au>
                   <snm>Fuentes-Afflick</snm>
                   <fnm>E</fnm>
                </au>
                <au>
                   <snm>P&#233;rez-Stable</snm>
                   <fnm>E</fnm>
                </au>
                <au>
                   <snm>Dilley</snm>
                   <fnm>J</fnm>
                </au>
                <au>
                   <snm>Schillinger</snm>
                   <fnm>D</fnm>
                </au>
             </aug>
             <source>Psychiatr Serv</source>
             <pubdate>2013</pubdate>
             <volume>64</volume>
             <issue>6</issue>
             <fpage>597</fpage>
             <lpage>599</lpage>
             <xrefbib>
                <pubidlist>
                   <pubid idtype="doi">10.1176/appi.ps.002542012</pubid>
                   <pubid idtype="pmpid" link="fulltext">23728604</pubid>
                </pubidlist>
             </xrefbib>
          </bibl>
          <bibl id="B12">
             <title>
                <p>Physical health care monitoring for people with serious mental illness</p>
             </title>
             <aug>
                <au>
                   <snm>Tosh</snm>
                   <fnm>G</fnm>
                </au>
                <au>
                   <snm>Clifton</snm>
                   <fnm>A</fnm>
                </au>
                <au>
                   <snm>Xia</snm>
                   <fnm>J</fnm>
                </au>
                <au>
                   <snm>White</snm>
                   <fnm>M</fnm>
                </au>
             </aug>
             <source>Cochrane Database Syst Rev</source>
             <pubdate>2014</pubdate>
             <volume>1</volume>
             <xrefbib>
                <pubidlist>
                   <pubid idtype="pmpid" link="fulltext">24442580</pubid>
                </pubidlist>
             </xrefbib>
          </bibl>
          <bibl id="B13">
             <title>
                <p>Prevention of coronary heart disease in people with severe mental illnesses: a qualitative study of patient and professionals&#8217; preferences for care</p>
             </title>
             <aug>
                <au>
                   <snm>Wright</snm>
                   <fnm>C</fnm>
                </au>
                <au>
                   <snm>Osborn</snm>
                   <fnm>D</fnm>
                </au>
                <au>
                   <snm>Nazareth</snm>
                   <fnm>I</fnm>
                </au>
                <au>
                   <snm>King</snm>
                   <fnm>M</fnm>
                </au>
             </aug>
             <source>BMC Psychiatry</source>
             <pubdate>2006</pubdate>
             <volume>6</volume>
             <fpage>16</fpage>
             <xrefbib>
                <pubidlist>
                   <pubid idtype="doi">10.1186/1471-244X-6-16</pubid>
                   <pubid idtype="pmpid" link="fulltext">16630335</pubid>
                </pubidlist>
             </xrefbib>
          </bibl>
          <bibl id="B14">
             <title>
                <p>Cardiovascular risk assessment and management in mental health clients: whose role is it anyway?</p>
             </title>
             <aug>
                <au>
                   <snm>Wheeler</snm>
                   <fnm>A</fnm>
                </au>
                <au>
                   <snm>Harrison</snm>
                   <fnm>J</fnm>
                </au>
                <au>
                   <snm>Mohini</snm>
                   <fnm>P</fnm>
                </au>
                <au>
                   <snm>Nardan</snm>
                   <fnm>J</fnm>
                </au>
                <au>
                   <snm>Tsai</snm>
                   <fnm>A</fnm>
                </au>
                <au>
                   <snm>Tsai</snm>
                   <fnm>E</fnm>
                </au>
             </aug>
             <source>Community Ment Health J</source>
             <pubdate>2010</pubdate>
             <volume>46</volume>
             <fpage>531</fpage>
             <lpage>539</lpage>
             <xrefbib>
                <pubidlist>
                   <pubid idtype="doi">10.1007/s10597-009-9237-0</pubid>
                   <pubid idtype="pmpid" link="fulltext">19688593</pubid>
                </pubidlist>
             </xrefbib>
          </bibl>
          <bibl id="B15">
             <title>
                <p>Metabolic testing rates in 3 state Medicaid programs after FDA warnings and ADA/APA recommendations for second-generation antipsychotic drugs</p>
             </title>
             <aug>
                <au>
                   <snm>Morrato</snm>
                   <fnm>E</fnm>
                </au>
                <au>
                   <snm>Druss</snm>
                   <fnm>B</fnm>
                </au>
                <au>
                   <snm>Hartung</snm>
                   <fnm>D</fnm>
                </au>
                <au>
                   <snm>Valuck</snm>
                   <fnm>R</fnm>
                </au>
                <au>
                   <snm>Allen</snm>
                   <fnm>R</fnm>
                </au>
                <au>
                   <snm>Campagna</snm>
                   <fnm>E</fnm>
                </au>
                <au>
                   <snm>Newsomer</snm>
                   <fnm>J</fnm>
                </au>
             </aug>
             <source>Arch Gen Psychiatry</source>
             <pubdate>2010</pubdate>
             <volume>67</volume>
             <issue>1</issue>
             <fpage>17</fpage>
             <lpage>24</lpage>
             <xrefbib>
                <pubidlist>
                   <pubid idtype="doi">10.1001/archgenpsychiatry.2009.179</pubid>
                   <pubid idtype="pmpid" link="fulltext">20048219</pubid>
                </pubidlist>
             </xrefbib>
          </bibl>
          <bibl id="B16">
             <title>
                <p>Clinical guidelines for the physical care of mental health consumers: a comprehensive assessment and monitoring package for mental health and primary care clinicians</p>
             </title>
             <aug>
                <au>
                   <snm>Stanley</snm>
                   <fnm>S</fnm>
                </au>
                <au>
                   <snm>Laugharne</snm>
                   <fnm>J</fnm>
                </au>
             </aug>
             <source>Aust N Z J Psychiatry</source>
             <pubdate>2011</pubdate>
             <volume>45</volume>
             <fpage>824</fpage>
             <lpage>829</lpage>
             <xrefbib>
                <pubidlist>
                   <pubid idtype="doi">10.3109/00048674.2011.614591</pubid>
                   <pubid idtype="pmpid" link="fulltext">21980931</pubid>
                </pubidlist>
             </xrefbib>
          </bibl>
          <bibl id="B17">
             <title>
                <p>American Psychiatric Association, American Association of Clinical Endocrinologists, North American Association for the Study of Obesity, North American Association for the Study of Obesity: Consensus development conference on antipsychotic drugs and obesity and diabetes</p>
             </title>
             <source>Diabetes Care</source>
             <pubdate>2004</pubdate>
             <volume>27</volume>
             <issue>2</issue>
             <fpage>596</fpage>
             <lpage>601</lpage>
             <xrefbib>
                <pubidlist>
                   <pubid idtype="doi">10.2337/diacare.27.2.596</pubid>
                </pubidlist>
             </xrefbib>
          </bibl>
          <bibl id="B18">
             <title>
                <p>Detection of metabolic syndrome in schizophrenia and implications for antipsychotic therapy</p>
             </title>
             <aug>
                <au>
                   <snm>Burghardt</snm>
                   <fnm>K</fnm>
                </au>
                <au>
                   <snm>Ellingrod</snm>
                   <fnm>V</fnm>
                </au>
             </aug>
             <source>Mol Diagn Ther</source>
             <pubdate>2013</pubdate>
             <volume>17</volume>
             <issue>1</issue>
             <fpage>21</fpage>
             <lpage>30</lpage>
             <xrefbib>
                <pubidlist>
                   <pubid idtype="doi">10.1007/s40291-013-0017-8</pubid>
                   <pubid idtype="pmpid" link="fulltext">23341251</pubid>
                </pubidlist>
             </xrefbib>
          </bibl>
          <bibl id="B19">
             <title>
                <p>Metabolic monitoring of patients prescribed second-generation antipsychotics</p>
             </title>
             <aug>
                <au>
                   <snm>Dhamane</snm>
                   <fnm>A</fnm>
                </au>
                <au>
                   <snm>Martin</snm>
                   <fnm>B</fnm>
                </au>
                <au>
                   <snm>Brixner</snm>
                   <fnm>D</fnm>
                </au>
                <au>
                   <snm>Hudson</snm>
                   <fnm>T</fnm>
                </au>
                <au>
                   <snm>Said</snm>
                   <fnm>Q</fnm>
                </au>
             </aug>
             <source>J Psychiatr Pract</source>
             <pubdate>2013</pubdate>
             <volume>19</volume>
             <issue>5</issue>
             <fpage>360</fpage>
             <lpage>374</lpage>
             <xrefbib>
                <pubidlist>
                   <pubid idtype="doi">10.1097/01.pra.0000435035.45308.03</pubid>
                   <pubid idtype="pmpid" link="fulltext">24042242</pubid>
                </pubidlist>
             </xrefbib>
          </bibl>
          <bibl id="B20">
             <title>
                <p>Overweight and obesity in patients with bipolar disorder or schizophrenia compared with a non-psychiatric sample</p>
             </title>
             <aug>
                <au>
                   <snm>Gurpegui</snm>
                   <fnm>M</fnm>
                </au>
                <au>
                   <snm>Mart&#237;nez-Ortega</snm>
                   <fnm>J</fnm>
                </au>
                <au>
                   <snm>Guti&#233;rrez-Rojas</snm>
                   <fnm>L</fnm>
                </au>
                <au>
                   <snm>Rivero</snm>
                   <fnm>J</fnm>
                </au>
                <au>
                   <snm>Rojas</snm>
                   <fnm>C</fnm>
                </au>
                <au>
                   <snm>Jurado</snm>
                   <fnm>D</fnm>
                </au>
             </aug>
             <source>Prog Neuropsychopharmacol Biol Psychiatry</source>
             <pubdate>2012</pubdate>
             <volume>37</volume>
             <issue>1</issue>
             <fpage>169</fpage>
             <lpage>175</lpage>
             <xrefbib>
                <pubidlist>
                   <pubid idtype="doi">10.1016/j.pnpbp.2012.01.014</pubid>
                   <pubid idtype="pmpid" link="fulltext">22326681</pubid>
                </pubidlist>
             </xrefbib>
          </bibl>
          <bibl id="B21">
             <title>
                <p>Interventions to reduce weight gain in schizophrenia</p>
             </title>
             <aug>
                <au>
                   <snm>Faulkner</snm>
                   <fnm>G</fnm>
                </au>
                <au>
                   <snm>Cohn</snm>
                   <fnm>T</fnm>
                </au>
                <au>
                   <snm>Remington</snm>
                   <fnm>G</fnm>
                </au>
             </aug>
             <source>Cochrane Database Syst Rev</source>
             <pubdate>2007</pubdate>
             <volume>24</volume>
          </bibl>
          <bibl id="B22">
             <title>
                <p>Physical illness in patients with severe mental disorders. II. Barriers to care, monitoring and treatment guidelines, plus recommendations at the system and individual level</p>
             </title>
             <aug>
                <au>
                   <snm>De Hert</snm>
                   <fnm>M</fnm>
                </au>
                <au>
                   <snm>Cohen</snm>
                   <fnm>D</fnm>
                </au>
                <au>
                   <snm>Bobes</snm>
                   <fnm>J</fnm>
                </au>
                <au>
                   <snm>Cetkovich-Bakmas</snm>
                   <fnm>M</fnm>
                </au>
                <au>
                   <snm>Leucht</snm>
                   <fnm>S</fnm>
                </au>
                <au>
                   <snm>Ndetei</snm>
                   <fnm>D</fnm>
                </au>
                <au>
                   <snm>Newcorner</snm>
                   <fnm>J</fnm>
                </au>
                <au>
                   <snm>Uwakwe</snm>
                   <fnm>R</fnm>
                </au>
                <au>
                   <snm>Asai</snm>
                   <fnm>I</fnm>
                </au>
                <au>
                   <snm>M&#246;ller</snm>
                   <fnm>H</fnm>
                </au>
                <au>
                   <snm>Gautam</snm>
                   <fnm>S</fnm>
                </au>
                <au>
                   <snm>Detraux</snm>
                   <fnm>J</fnm>
                </au>
                <au>
                   <snm>Correll</snm>
                   <fnm>C</fnm>
                </au>
             </aug>
             <source>World Psychiatry</source>
             <pubdate>2011</pubdate>
             <volume>10</volume>
             <fpage>138</fpage>
             <lpage>151</lpage>
             <xrefbib>
                <pubidlist>
                   <pubid idtype="pmpid" link="fulltext">21633691</pubid>
                </pubidlist>
             </xrefbib>
          </bibl>
          <bibl id="B23">
             <title>
                <p>Developing a service to monitor and improve physical health in people with serious mental illness</p>
             </title>
             <aug>
                <au>
                   <snm>Ohlsen</snm>
                   <fnm>R</fnm>
                </au>
                <au>
                   <snm>Peacock</snm>
                   <fnm>G</fnm>
                </au>
                <au>
                   <snm>Smith</snm>
                   <fnm>S</fnm>
                </au>
             </aug>
             <source>J Psychiatr Ment Health Nurs</source>
             <pubdate>2005</pubdate>
             <volume>12</volume>
             <fpage>614</fpage>
             <lpage>619</lpage>
             <xrefbib>
                <pubidlist>
                   <pubid idtype="doi">10.1111/j.1365-2850.2005.00884.x</pubid>
                   <pubid idtype="pmpid" link="fulltext">16164514</pubid>
                </pubidlist>
             </xrefbib>
          </bibl>
          <bibl id="B24">
             <title>
                <p>Case managers&#8217; attitudes to the physical health of their patients</p>
             </title>
             <aug>
                <au>
                   <snm>Hyland</snm>
                   <fnm>B</fnm>
                </au>
                <au>
                   <snm>Judd</snm>
                   <fnm>F</fnm>
                </au>
                <au>
                   <snm>Davidson</snm>
                   <fnm>S</fnm>
                </au>
                <au>
                   <snm>Jolley</snm>
                   <fnm>D</fnm>
                </au>
                <au>
                   <snm>Hocking</snm>
                   <fnm>B</fnm>
                </au>
             </aug>
             <source>Aust N Z J Psychiatry</source>
             <pubdate>2003</pubdate>
             <volume>37</volume>
             <issue>6</issue>
             <fpage>710</fpage>
             <lpage>714</lpage>
             <xrefbib>
                <pubidlist>
                   <pubid idtype="doi">10.1080/j.1440-1614.2003.01264.x</pubid>
                   <pubid idtype="pmpid" link="fulltext">14636386</pubid>
                </pubidlist>
             </xrefbib>
          </bibl>
          <bibl id="B25">
             <url>http://www.heartfoundation.org.au/your-heart/cardiovascular-conditions/Pages/blood-pressure.aspx</url>
<note>Heart Foundation: <b>High blood pressure. </b>[]</note>
          </bibl>
          <bibl id="B26">
             <url>http://apps.who.int/bmi/index.jsp</url>
<note>World Health Organization: <b>Global database on body mass index. </b>[]</note>
          </bibl>
          <bibl id="B27">
             <title>
                <p>Screening physical health? Yes! But&#8230;: nurses&#8217; views on physical health screening in mental health care</p>
             </title>
             <aug>
                <au>
                   <snm>Happell</snm>
                   <fnm>B</fnm>
                </au>
                <au>
                   <snm>Scott</snm>
                   <fnm>D</fnm>
                </au>
                <au>
                   <snm>Nankivell</snm>
                   <fnm>J</fnm>
                </au>
                <au>
                   <snm>Platania-Phung</snm>
                   <fnm>C</fnm>
                </au>
             </aug>
             <source>J Clin Nurs</source>
             <pubdate>2013</pubdate>
             <volume>22</volume>
             <fpage>2286</fpage>
             <lpage>2297</lpage>
             <xrefbib>
                <pubidlist>
                   <pubid idtype="doi">10.1111/j.1365-2702.2012.04325.x</pubid>
                   <pubid idtype="pmpid" link="fulltext">23829406</pubid>
                </pubidlist>
             </xrefbib>
          </bibl>
          <bibl id="B28">
             <title>
                <p>From silos to bridges: meeting the general health care needs of adults with severe mental illnesses</p>
             </title>
             <aug>
                <au>
                   <snm>Horvitz-Lennon</snm>
                   <fnm>M</fnm>
                </au>
                <au>
                   <snm>Kilbourne</snm>
                   <fnm>A</fnm>
                </au>
                <au>
                   <snm>Pincus</snm>
                   <fnm>H</fnm>
                </au>
             </aug>
             <source>Health Aff</source>
             <pubdate>2006</pubdate>
             <volume>25</volume>
             <issue>3</issue>
             <fpage>659</fpage>
             <lpage>659</lpage>
             <xrefbib>
                <pubidlist>
                   <pubid idtype="doi">10.1377/hlthaff.25.3.659</pubid>
                </pubidlist>
             </xrefbib>
          </bibl>
          <bibl id="B29">
             <title>
                <p>Reliability and practicality of measuring waist circumference to monitor cardiovascular risk among community mental health center patients</p>
             </title>
             <aug>
                <au>
                   <snm>Barber</snm>
                   <fnm>J</fnm>
                </au>
                <au>
                   <snm>Palmese</snm>
                   <fnm>L</fnm>
                </au>
                <au>
                   <snm>Chwastiak</snm>
                   <fnm>L</fnm>
                </au>
                <au>
                   <snm>Ratliff</snm>
                   <fnm>J</fnm>
                </au>
                <au>
                   <snm>Reutenauer</snm>
                   <fnm>E</fnm>
                </au>
                <au>
                   <snm>Jean-Baptiste</snm>
                   <fnm>M</fnm>
                </au>
                <au>
                   <snm>Tek</snm>
                   <fnm>C</fnm>
                </au>
             </aug>
             <source>Community Ment Health J</source>
             <pubdate>2014</pubdate>
             <volume>50</volume>
             <issue>1</issue>
             <fpage>68</fpage>
             <lpage>74</lpage>
             <xrefbib>
                <pubidlist>
                   <pubid idtype="doi">10.1007/s10597-012-9590-2</pubid>
                   <pubid idtype="pmpid" link="fulltext">23306677</pubid>
                </pubidlist>
             </xrefbib>
          </bibl>
          <bibl id="B30">
             <title>
                <p>UK Prescribing Observatory for Mental Health: A UK audit of screening for the metabolic side effects of antipsychotics in community patients</p>
             </title>
             <aug>
                <au>
                   <snm>Barnes</snm>
                   <fnm>T</fnm>
                </au>
                <au>
                   <snm>Paton</snm>
                   <fnm>C</fnm>
                </au>
                <au>
                   <snm>Cavanagh</snm>
                   <fnm>M</fnm>
                </au>
                <au>
                   <snm>Hancock</snm>
                   <fnm>E</fnm>
                </au>
                <au>
                   <snm>Taylor</snm>
                   <fnm>D</fnm>
                </au>
             </aug>
             <source>Schizophr Bull</source>
             <pubdate>2007</pubdate>
             <volume>33</volume>
             <issue>6</issue>
             <fpage>1397</fpage>
             <lpage>1403</lpage>
             <xrefbib>
                <pubidlist>
                   <pubid idtype="doi">10.1093/schbul/sbm038</pubid>
                   <pubid idtype="pmpid" link="fulltext">17483101</pubid>
                </pubidlist>
             </xrefbib>
          </bibl>
          <bibl id="B31">
             <title>
                <p>Improving cardiovascular disease screening in community mental health centers</p>
             </title>
             <aug>
                <au>
                   <snm>Maki</snm>
                   <fnm>M</fnm>
                </au>
                <au>
                   <snm>Bjorklund</snm>
                   <fnm>P</fnm>
                </au>
             </aug>
             <source>Perspect Psychiatr Care</source>
             <pubdate>2013</pubdate>
             <volume>49</volume>
             <issue>3</issue>
             <fpage>179</fpage>
             <lpage>186</lpage>
             <xrefbib>
                <pubidlist>
                   <pubid idtype="doi">10.1111/j.1744-6163.2012.00348.x</pubid>
                   <pubid idtype="pmpid" link="fulltext">23819668</pubid>
                </pubidlist>
             </xrefbib>
          </bibl>
          <bibl id="B32">
             <title>
                <p>A behavioral weight-loss intervention in persons with serious mental illness</p>
             </title>
             <aug>
                <au>
                   <snm>Daumit</snm>
                   <fnm>G</fnm>
                </au>
                <au>
                   <snm>Dickenson</snm>
                   <fnm>F</fnm>
                </au>
                <au>
                   <snm>Wang</snm>
                   <fnm>N-Y</fnm>
                </au>
                <au>
                   <snm>Dalcin</snm>
                   <fnm>A</fnm>
                </au>
                <au>
                   <snm>Jerome</snm>
                   <fnm>G</fnm>
                </au>
                <au>
                   <snm>Anderson</snm>
                   <fnm>C</fnm>
                </au>
                <au>
                   <snm>Young</snm>
                   <fnm>D</fnm>
                </au>
                <au>
                   <snm>Frick</snm>
                   <fnm>K</fnm>
                </au>
                <au>
                   <snm>Yu</snm>
                   <fnm>A</fnm>
                </au>
                <au>
                   <snm>Gennusa</snm>
                   <fnm>J</fnm>
                   <suf>III</suf>
                </au>
                <au>
                   <snm>Oefinger</snm>
                   <fnm>M</fnm>
                </au>
                <au>
                   <snm>Crum</snm>
                   <fnm>R</fnm>
                </au>
                <au>
                   <snm>Charleston</snm>
                   <fnm>J</fnm>
                </au>
                <au>
                   <snm>Casagrande</snm>
                   <fnm>S</fnm>
                </au>
                <au>
                   <snm>Guallar</snm>
                   <fnm>E</fnm>
                </au>
                <au>
                   <snm>Goldberg</snm>
                   <fnm>R</fnm>
                </au>
                <au>
                   <snm>Campbell</snm>
                   <fnm>L</fnm>
                </au>
                <au>
                   <snm>Appel</snm>
                   <fnm>L</fnm>
                </au>
             </aug>
             <source>N Eng J Med</source>
             <pubdate>2013</pubdate>
             <volume>368</volume>
             <fpage>1594</fpage>
             <lpage>1602</lpage>
             <xrefbib>
                <pubidlist>
                   <pubid idtype="doi">10.1056/NEJMoa1214530</pubid>
                </pubidlist>
             </xrefbib>
          </bibl>
          <bibl id="B33">
             <title>
                <p>A well-being support program for patients with severe mental illness: a service evaluation</p>
             </title>
             <aug>
                <au>
                   <snm>Eldridge</snm>
                   <fnm>D</fnm>
                </au>
                <au>
                   <snm>Dawber</snm>
                   <fnm>N</fnm>
                </au>
                <au>
                   <snm>Gray</snm>
                   <fnm>R</fnm>
                </au>
             </aug>
             <source>BMC Psychiatry</source>
             <pubdate>2011</pubdate>
             <volume>11</volume>
             <fpage>46</fpage>
             <xrefbib>
                <pubidlist>
                   <pubid idtype="doi">10.1186/1471-244X-11-46</pubid>
                   <pubid idtype="pmpid" link="fulltext">21418627</pubid>
                </pubidlist>
             </xrefbib>
          </bibl>
          <bibl id="B34">
             <title>
                <p>The ethos of physical activity delivery in mental health: a narrative study of service user experiences</p>
             </title>
             <aug>
                <au>
                   <snm>Carless</snm>
                   <fnm>D</fnm>
                </au>
                <au>
                   <snm>Douglas</snm>
                   <fnm>K</fnm>
                </au>
             </aug>
             <source>Issues Ment Health Nurs</source>
             <pubdate>2012</pubdate>
             <volume>33</volume>
             <fpage>165</fpage>
             <lpage>171</lpage>
             <xrefbib>
                <pubidlist>
                   <pubid idtype="doi">10.3109/01612840.2011.637659</pubid>
                   <pubid idtype="pmpid" link="fulltext">22364428</pubid>
                </pubidlist>
             </xrefbib>
          </bibl>
          <bibl id="B35">
             <title>
                <p>Physical activity preferences and perceived barriers to activity among persons with severe mental illness in the United Kingdom</p>
             </title>
             <aug>
                <au>
                   <snm>Ussher</snm>
                   <fnm>M</fnm>
                </au>
                <au>
                   <snm>Stanbury</snm>
                   <fnm>L</fnm>
                </au>
                <au>
                   <snm>Cheeseman</snm>
                   <fnm>V</fnm>
                </au>
                <au>
                   <snm>Faulkner</snm>
                   <fnm>G</fnm>
                </au>
             </aug>
             <source>Psychiatr Serv</source>
             <pubdate>2007</pubdate>
             <volume>58</volume>
             <issue>3</issue>
             <fpage>405</fpage>
             <lpage>408</lpage>
             <xrefbib>
                <pubidlist>
                   <pubid idtype="doi">10.1176/appi.ps.58.3.405</pubid>
                   <pubid idtype="pmpid" link="fulltext">17325117</pubid>
                </pubidlist>
             </xrefbib>
          </bibl>
       </refgrp>
    </bm>
 </art>