<art>
    <ui>s12939-014-0079-1</ui>
    <ji>1475-9276</ji>
    <fm>
       <dochead>Research</dochead>
       <bibl>
          <title>
             <p>Economic crisis, immigrant women and changing availability of intimate partner violence services: a qualitative study of professionals&#8217; perceptions in Spain</p>
          </title>
          <aug>
             <au ca="yes" id="A1">
                <snm>Briones-Vozmediano</snm>
                <fnm>Erica</fnm>
                <insr iid="I1"/>
                <email>erica.briones@ua.es</email>
             </au>
             <au id="A2">
                <snm>Agudelo-Suarez</snm>
                <mi>A</mi>
                <fnm>Andres</fnm>
                <insr iid="I2"/>
                <email>oleduga@gmail.com</email>
             </au>
             <au id="A3">
                <snm>Goicolea</snm>
                <fnm>Isabel</fnm>
                <insr iid="I3"/>
                <email>isabel.goicolea@epiph.umu.se</email>
             </au>
             <au id="A4">
                <snm>Vives-Cases</snm>
                <fnm>Carmen</fnm>
                <insr iid="I1"/>
                <insr iid="I4"/>
                <email>carmen.vives@ua.es</email>
             </au>
          </aug>
          <insg>
             <ins id="I1">
                <p>Department of Community Nursing, Preventive Medicine and Public Health and History of Science, University of Alicante Public Health Research Group, (San Vicente del Raspeig Road), Alicante (03690), Spain</p>
             </ins>
             <ins id="I2">
                <p>Faculty of Dentistry, University of Antioquia, (Street 67), Medell&#237;n, Colombia</p>
             </ins>
             <ins id="I3">
                <p>Department of Public Health and Clinical Medicine, Epidemiology and Global Health Unit, and Ume&#229; Center for Gender Studies, Ume&#229; University, Ume&#229; (SE-901 87), Sweden</p>
             </ins>
             <ins id="I4">
                <p>CIBER of Epidemiology and Public Health, Carlos III Institute of Health, (Street Melchor Fern&#225;ndez Almagro), Madrid (28029), Spain</p>
             </ins>
          </insg>
          <source>International Journal for Equity in Health</source>
          <issn>1475-9276</issn>
          <pubdate>2014</pubdate>
          <volume>13</volume>
          <issue>1</issue>
          <fpage>79</fpage>
          <url>http://www.equityhealthj.com/content/13/1/79</url>
          <xrefbib>
             <pubidlist>
                <pubid idtype="doi">10.1186/s12939-014-0079-1</pubid>
                <pubid idtype="pmpid">25205287</pubid>
             </pubidlist>
          </xrefbib>
       </bibl>
       <history>
          <rec>
             <date>
                <day>10</day>
                <month>4</month>
                <year>2014</year>
             </date>
          </rec>
          <acc>
             <date>
                <day>29</day>
                <month>8</month>
                <year>2014</year>
             </date>
          </acc>
          <pub>
             <date>
                <day>10</day>
                <month>9</month>
                <year>2014</year>
             </date>
          </pub>
       </history>
       <cpyrt>
          <year>2014</year>
          <collab>Briones-Vozmediano et al.; licensee BioMed Central Ltd.</collab>
          <note>This is an Open Access article distributed under the terms of the Creative Commons Attribution License (<url>http://creativecommons.org/licenses/by/4.0</url>), which permits unrestricted use, distribution, and reproduction in any medium, provided the original work is properly credited. The Creative Commons Public Domain Dedication waiver (<url>http://creativecommons.org/publicdomain/zero/1.0/</url>) applies to the data made available in this article, unless otherwise stated.</note>
       </cpyrt>
       <kwdg>
          <kwd>Intimate partner violence</kwd>
          <kwd>Immigrant women</kwd>
          <kwd>Crisis</kwd>
          <kwd>Qualitative study</kwd>
          <kwd>Spain</kwd>
       </kwdg>
       <trans-kwdg-grp>
          <kwdg lang="es">
             <kwd>Violencia del Compa&#241;ero &#205;ntimo</kwd>
             <kwd>Mujeres inmigrantes</kwd>
             <kwd>Crisis</kwd>
             <kwd>Estudio cualitativo</kwd>
             <kwd>Espa&#241;a</kwd>
          </kwdg>
       </trans-kwdg-grp>
       <abs>
          <sec>
             <st>
                <p>Abstract</p>
             </st>
             <sec>
                <st>
                   <p>Introduction</p>
                </st>
                <p>Since 2008, Spain has been in the throes of an economic crisis. This recession particularly affects the living conditions of vulnerable populations, and has also led to a reversal in social policies and a reduction in resources. In this context, the aim of this study was to explore intimate partner violence (IPV) service providers&#8217; perceptions of the impact of the current economic crisis on these resources in Spain and on their capacity to respond to immigrant women&#8217;s needs experiencing IPV.</p>
             </sec>
             <sec>
                <st>
                   <p>Methods</p>
                </st>
                <p>A qualitative study was performed based on 43 semi-structured in-depth interviews to social workers, psychologists, intercultural mediators, judges, lawyers, police officers and health professionals from different services dealing with IPV (both, public and NGO&#8217;s) and cities in Spain (Barcelona, Madrid, Valencia and Alicante) in 2011. Transcripts were imported into qualitative analysis software (Atlas.ti), and analysed using qualitative content analysis.</p>
             </sec>
             <sec>
                <st>
                   <p>Results</p>
                </st>
                <p>We identified four categories related to the perceived impact of the current economic crisis: a) &#8220;Immigrant women have it harder now&#8221;, b) &#8220;IPV and immigration resources are the first in line for cuts&#8221;, c) &#8220; Fewer staff means a less effective service&#8221; and d) &#8220;Equality and IPV policies are no longer a government priority&#8221;. A cross-cutting theme emerged from these categories: immigrant women are triply affected; by IPV, by the crisis, and by structural violence.</p>
             </sec>
             <sec>
                <st>
                   <p>Conclusion</p>
                </st>
                <p>The professionals interviewed felt that present resources in Spain are insufficient to meet the needs of immigrant women, and that the situation might worsen in the future.</p>
             </sec>
          </sec>
       </abs>
       <trans-abs-grp>
          <abs lang="es">
             <sec>
                <st>
                   <p>Resumen</p>
                </st>
                <sec>
                   <st>
                      <p>Introducci&#243;n</p>
                   </st>
                   <p>Desde 2008, Espa&#241;a est&#225; atravesando una fuerte recesi&#243;n econ&#243;mica con consecuencias negativas en las condiciones de vida de los grupos vulnerables de poblaci&#243;n, las pol&#237;ticas sociales y los recursos. En este contexto, el objetivo de este estudio es explorar la percepci&#243;n de los profesionales de servicios de atenci&#243;n a la violencia del compa&#241;ero &#237;ntimo (VCI) en Espa&#241;a sobre el impacto de la actual crisis econ&#243;mica en estos recursos y su capacidad de respuesta a las necesidades de las mujeres inmigrantes que se encuentren en esta situaci&#243;n.</p>
                </sec>
                <sec>
                   <st>
                      <p>M&#233;todo</p>
                   </st>
                   <p>Se llev&#243; a cabo un estudio cualitativo basado en 43 entrevistas en profundidad semiestructuradas con profesionales de trabajo social, psicolog&#237;a, mediaci&#243;n intercultural, justicia, abogac&#237;a, polic&#237;a y salud trabajando en diferentes servicios de atenci&#243;n a la VCI (tanto p&#250;blicos como ONG&#8217;s) en diferentes ciudades en Espa&#241;a (Barcelona, Madrid, Valencia and Alicante) en 2011. Las transcripciones se importaron al software de an&#225;lisis cualitativo (Atlas.ti) y se realiz&#243; un an&#225;lisis de contenido cualitativo.</p>
                </sec>
                <sec>
                   <st>
                      <p>Resultados</p>
                   </st>
                   <p>Se identificaron 4 categor&#237;as relacionadas con el impacto percibido de la actual crisis econ&#243;mica: a) &#8220;Las mujeres inmigrantes lo tienen ahora m&#225;s dif&#237;cil&#8221;; b) &#8220;Los recursos de VCI e inmigraci&#243;n en el punto de mira de los recortes&#8221;, c) &#8220;Reducci&#243;n del personal y aumento de las listas de espera&#8221; and d) &#8220;Las pol&#237;ticas de igualdad y VCI ya no son una prioridad gubernamental&#8221;. Emergi&#243; un tema transversal a estas categor&#237;as: las mujeres inmigrantes se ven tr&#237;plemente afectadas por la crisis, la violencia estructural y la VCI.</p>
                </sec>
                <sec>
                   <st>
                      <p>Conclusi&#243;n</p>
                   </st>
                   <p>Los profesionales entrevistados perciben que la disponibilidad de recursos en Espa&#241;a es insuficiente para satisfacer las necesidades de las mujeres inmigrantes, y que esta situaci&#243;n puede empeorar en el futuro.</p>
                </sec>
             </sec>
          </abs>
       </trans-abs-grp>
    </fm>
    <bdy>
       <sec>
          <st>
             <p>1 Introduction</p>
          </st>
          <p>Violence against women (VAW) is an extreme manifestation of gender inequality in society and a serious violation of fundamental human rights. The United Nations declaration on the Elimination of VAW defines it as any act of gender-based violence that results in, or is likely to result in, physical, sexual or psychological harm or suffering to women, including threats of acts such as coercion or arbitrary deprivation of liberty, whether occurring in public or private life <abbrgrp>
                <abbr bid="B1">1</abbr>
             </abbrgrp>. Intimate Partner Violence (IPV) against women is the most common type of male VAW. It takes place within couples, and the perpetrators are almost exclusively men who are or who have been in an intimate relationship with the woman <abbrgrp>
                <abbr bid="B2">2</abbr>
             </abbrgrp>.</p>
          <p>IPV against women occurs without exception in all countries, all cultures and at every level of society <abbrgrp>
                <abbr bid="B3">3</abbr>
             </abbrgrp>. In the EU-27, it affects between 20% and 25% of adult women who have ever had an intimate partner <abbrgrp>
                <abbr bid="B4">4</abbr>
             </abbrgrp>. However, within countries, some populations of women may be at greater vulnerable situation such is the case of migrant women due to different factors related to social exclusion: expatriation, lack of legal immigrant status, economic hardship and economic dependence on their partners <abbrgrp>
                <abbr bid="B5">5</abbr>
             </abbrgrp>-<abbrgrp>
                <abbr bid="B11">11</abbr>
             </abbrgrp>.</p>
          <p>At the end of 2012, a total of 314,358 persons from abroad set up residence in Spain. Although males traditionally maintained a slightly higher prevalence, women accounted at least for 48% of the total of foreigners that arrived to Spain <abbrgrp>
                <abbr bid="B12">12</abbr>
             </abbrgrp>. The majority of immigrant women living in Spain come from Morocco, East Europe, Ecuador and Colombia. A cross-sectional study of 10,202 women attending primary health care centres showed an IPV of 27.9% in migrants compared to 14.3% in Spanish women <abbrgrp>
                <abbr bid="B13">13</abbr>
             </abbrgrp>. According to the Annual Report of The National Observatory on Violence against women, in 2012, 47% of intimate partner violence-related murders in Spain were produced among migrant women <abbrgrp>
                <abbr bid="B14">14</abbr>
             </abbrgrp>.</p>
          <p>Several advances in IPV and immigration policies have been achieved in recent years in Spain which have facilitated immigrant women&#8217;s access to resources, including the Organic Law/2004 <abbrgrp>
                <abbr bid="B15">15</abbr>
             </abbrgrp>. According to this one, the public sector in Spain (state, regional and local government) is required to provide support to female victims of IPV in the form of information, comprehensive welfare services and free legal aid. This is delivered through 24-hour specialist emergency services, IPV-based courts and specialist units in the state security bodies, and involves professionals from different disciplines (physicians, psychologists, psychiatrists, lawyers, sociologists, educators, social workers, employment specialists). Provided support encompasses health care, emergency services, assistance, accommodation and comprehensive recovery. Support also includes social welfare benefits (unemployment benefit, income support), protection measures, job placement programmes, general and specialised social services (information, counselling, social support, follow up on women&#8217;s rights claims, educational support for the family, preventive education and support for vocational training and job seeking), a mobile telecare service, women&#8217;s shelters, and priority access to public housing and public residential homes for senior citizens. According to the 2004 law all these resources should be available to all women once an official complaint has been lodged. However, the lack of reports informing on the nationality of women accessing such resources does not allow to point out differences/inequalities on access to such services between immigrant and non-immigrant women exposed to IPV in Spain.</p>
          <p>The Organic Law 10/2011 of July 27, 2011 extends the rights of battered immigrant women in an irregular situation, establishing the possibility of requesting permission to reside (including their children) and work due to exceptional circumstances once a restraining order has been granted. Such permission is not definitively approved until criminal proceedings have concluded. They can also apply for provisional authorization to reside and work due to exceptional circumstances at the time of filing the official complaint <abbrgrp>
                <abbr bid="B16">16</abbr>
             </abbrgrp>. NGOs also play a key role in providing care for immigrant women, particularly immigrant associations, since translation and cultural mediation services are not required by law, and are even less likely to be provided now that funding for these resources has been removed. In addition to these State policies, it is important to note that Spain is divided into Autonomous Communities at regional level. Each of the Autonomous Communities has its own government and adopts its own policies, although following some common national policy guidelines. For example, the afore mentioned Organic Law 1/2004 on Comprehensive Protection Measures against Gender-Based Violence is applicable throughout the country, but each region can also have its own law on gender-based violence. Meanwhile, there are 17 Social Services Acts, one for each of the Autonomous Communities. These Acts differ in terms of social rights, social services, and social expenditure. In terms of the health-sector response to IPV whilst all the regions have developed protocols and guidelines, great variation exist between regions in terms of training programs, intersectorial coordination and monitoring systems <abbrgrp>
                <abbr bid="B17">17</abbr>
             </abbrgrp>.</p>
          <p>The current global recession has prompted a wide range of economic, political and social reforms in Europe and Spain which involve cutbacks in social investment <abbrgrp>
                <abbr bid="B18">18</abbr>
             </abbrgrp>-<abbrgrp>
                <abbr bid="B20">20</abbr>
             </abbrgrp>. These policies reflect the priority given by governments to reduce their fiscal deficits by cutting back on social expenditure <abbrgrp>
                <abbr bid="B21">21</abbr>
             </abbrgrp>. The concomitant dismantling of the welfare state means that social and health care services are the first to be affected by government austerity measures <abbrgrp>
                <abbr bid="B22">22</abbr>
             </abbrgrp>,<abbrgrp>
                <abbr bid="B23">23</abbr>
             </abbrgrp>. For example, between 2006 and 2011 the percentage of the total Spanish State Budget allocated to health care fell from 35.2% to 33.7% (almost 2 points), representing a reduction of more than 8 million Euros <abbrgrp>
                <abbr bid="B19">19</abbr>
             </abbrgrp>. Other institutional reports have indicated that per capita social expenditure in the period 2009&#8211;2011 fell significantly by a state-wide average of 4.4% <abbrgrp>
                <abbr bid="B24">24</abbr>
             </abbrgrp>. In 2011, the at-risk-of-poverty rate stood at 21.8% for the population of Spain, and one in four people under the age of 16 were living below the poverty line <abbrgrp>
                <abbr bid="B25">25</abbr>
             </abbrgrp>.</p>
          <p>Austerity measures are harming the social well-being of the populations affected <abbrgrp>
                <abbr bid="B26">26</abbr>
             </abbrgrp>,<abbrgrp>
                <abbr bid="B27">27</abbr>
             </abbrgrp>. Previous research has shown that due to their effects on the labour market and resource access, economic downturns have negative consequences for public health <abbrgrp>
                <abbr bid="B23">23</abbr>
             </abbrgrp>,<abbrgrp>
                <abbr bid="B28">28</abbr>
             </abbrgrp>,<abbrgrp>
                <abbr bid="B29">29</abbr>
             </abbrgrp>. Similarly, social inequalities between population groups widen during recessions; rising unemployment and poverty hit the most disadvantaged hardest and increase their vulnerability <abbrgrp>
                <abbr bid="B30">30</abbr>
             </abbrgrp>,<abbrgrp>
                <abbr bid="B31">31</abbr>
             </abbrgrp>. In the particular case of the immigrant population in Spain, it has already been observed that those who still do not return to their country of origin are among the many unemployed who struggle to meet very basic needs for food, housing, health, education, and social protection <abbrgrp>
                <abbr bid="B32">32</abbr>
             </abbrgrp>.</p>
          <p>Implementation of public IPV policies depends heavily on the service providers <abbrgrp>
                <abbr bid="B33">33</abbr>
             </abbrgrp>, and they can also be an important source of information about the impact of the economic crisis on social strategies targeting immigrant women. Therefore, an analysis which takes into account the perspectives of those involved might identify the factors which could prevent the crisis from affecting public health <abbrgrp>
                <abbr bid="B23">23</abbr>
             </abbrgrp>,<abbrgrp>
                <abbr bid="B34">34</abbr>
             </abbrgrp>. The effects of the reforms prompted by the current economic crisis on IPV resources have not been explored in Spain <abbrgrp>
                <abbr bid="B35">35</abbr>
             </abbrgrp>. An exploration of service providers&#8217; opinions and concerns about areas under threat could serve as a first step in formulating policy and research actions <abbrgrp>
                <abbr bid="B36">36</abbr>
             </abbrgrp>-<abbrgrp>
                <abbr bid="B38">38</abbr>
             </abbrgrp>. Meanwhile, at an organisational level, it is necessary to study how professionals tackle changing conditions <abbrgrp>
                <abbr bid="B39">39</abbr>
             </abbrgrp>.</p>
          <p>This study formed part of a wider research project examining the determinants of access to the health and social services available in Spain for tackling IPV in general, and among immigrant women in particular <abbrgrp>
                <abbr bid="B40">40</abbr>
             </abbrgrp>. Concern about anticipated spending cuts prompted by the crisis and their impact on resources was a theme that emerged from the interviews, since the fieldwork was conducted in a context of an economic recession (March-December, 2011). Therefore, the aim of the present study was to explore IPV service providers&#8217; perceptions concerning the impact of the economic crisis on both the changing availability of IPV-related services and their own capacity to respond to immigrant women experiencing IPV in Spain.</p>
       </sec>
       <sec>
          <st>
             <p>2 Methods</p>
          </st>
          <sec>
             <st>
                <p>2.1 Design and participants</p>
             </st>
             <p>Twenty nine in-depth personal interviews were conducted and four multiple interviews (interviews with two or three interviewees) held with a total of 43 professionals working in NGOs, public institutions and specialised services who gave legal, social, health, employment, family and psychological support to immigrant women (Additional file <supplr sid="S1">1</supplr>: Table S1). The interviewees came from different cities in Spain (Barcelona, Madrid, Valencia and Alicante). Those cities concentrate 46% of the migrant women population of Spain <abbrgrp>
                   <abbr bid="B12">12</abbr>
                </abbrgrp>. We aimed to gain an integrated overview of service provision by including multiple voices and asking different kinds of questions to different participants, adjusting each interview to address the questions appropriate to that participant&#8217;s profile <abbrgrp>
                   <abbr bid="B41">41</abbr>
                </abbrgrp>.</p>
             <suppl id="S1">
                <title>
                   <p>Additional file 1: Table S1.</p>
                </title>
                <text>
                   <p>Professionals interviewed (n=43).</p>
                </text>
                <file name="s12939-014-0079-1-S1.doc">
                   <p>Click here for file</p>
                </file>
             </suppl><p>Theoretical sampling was carried out, including participants with different profiles working in public and private institutions and NGOs capable of contributing to our research question. The first strategy employed to recruit participants was to contact a shelter in Alicante. Next, we recruited professionals working with NGOs via a social worker, and also employed the snowball method - in each interview, information was requested concerning possible contacts.</p>
          </sec>
          <sec>
             <st>
                <p>2.2 Data collection</p>
             </st>
             <p>The interview guide included a series of topics to be discussed during the interview. A list of lines of inquiry was drawn up to provide guidelines for interaction with interviewees and subsequent organisation of the information. There was no predetermined sequential order, and questions were open-ended. The interview guide was drawn up after reviewing the literature, and also reflected the experience and knowledge of the research team (See Interview guide on Additional file <supplr sid="S2">2</supplr>).</p>
             <suppl id="S2">
                <title>
                   <p>Additional file 2</p>
                </title>
                <text>
                   <p>
                      <b>Outline of questions to ask during the interviews*.</b>
                   </p>
                </text>
                <file name="s12939-014-0079-1-S2.doc">
                   <p>Click here for file</p>
                </file>
             </suppl><p>The interview was divided into two sections, with an opening question concerning the professional competences of the interviewees&#8217; specialist areas in the provision of support to immigrant battered women, and a closing question about their general evaluation and the possibility of improving support to immigrant battered women. The first section dealt with their experience with immigrant battered women and the problems encountered, and the second with the interventions carried out and their perceptions about immigrant women&#8217;s satisfaction with these interventions and resources.</p>
             <p>The interviews were carried out by one member of the research team and lasted between 35 and 90&#160;min. All the interviews were conducted in Spanish, which was the mother tongue for both interviewer and participants. The professionals were interviewed at their workplace. We continued to conduct interviews until data saturation was achieved, meaning that no new information related to the research question was emerging <abbrgrp>
                   <abbr bid="B42">42</abbr>
                </abbrgrp>. In keeping with the principles of the Declaration of Helsinki and the Belmont Report, the purpose and procedure of the study were explained, an opportunity to ask questions was provided, and written informed consent was obtained from each participant prior to data collection. During the multiple interviews, the interviewer stressed the importance of respecting others&#8217; opinions and maintaining the privacy of what was said within the group. Ethical approval was sought from the Ethics Committee of the University of Alicante.</p>
          </sec>
          <sec>
             <st>
                <p>2.3 Data analysis</p>
             </st>
             <p>We digitally recorded the interviews and then transcribed them verbatim. Each of the authors examined all the interviews independently, and then met to compare and combine their analyses. Transcripts were imported into qualitative analysis software (Atlas.ti) as a tool for organizing the information, through which the authors analysed the transcripts using qualitative content analysis <abbrgrp>
                   <abbr bid="B43">43</abbr>
                </abbrgrp>. Through the texts, we identified meaning units of a sentence or paragraph with the same content. Then we drew up condensed meaning units, namely summarised versions of the initially identified units. These condensed versions were used to generate codes, which were grouped together in order to create categories reflecting the manifest content of the text, namely what the providers explicitly expressed about the impact of the crisis on IPV resources in Spain. Finally, a cross-cutting theme emerged from the categories that reflected the latent content of the interviews.</p>
          </sec>
       </sec>
       <sec>
          <st>
             <p>3 Results</p>
          </st>
          <p>The analysis of the interviews with service providers revealed four categories related to the negative impact of the reforms prompted by the economic crisis, as perceived by professionals: a) &#8220;Immigrant women have it harder now&#8221;, b) &#8220;IPV and immigration resources are the first in line for cuts&#8221;, c) &#8220;Fewer staff means a less effective service&#8221; and d) &#8220;Equality and IPV policies are no longer a government priority&#8221;. These categories described the perceived and anticipated effects of changes in the allocation of resources for IPV support (Additional file <supplr sid="S3">3</supplr>: Figure S1).</p>
          <suppl id="S3">
             <title>
                <p>Additional file 3: Figure S1.</p>
             </title>
             <text>
                <p>Categories and theme identified in the interviews with participants (n=43).</p>
             </text>
             <file name="s12939-014-0079-1-S3.doc">
                <p>Click here for file</p>
             </file>
          </suppl><p>A cross-cutting theme emerged from the categories, which expressed the latent content of the interviews: <it>Immigrant women are triply affected; by IPV, by the economic crisis and by structural violence.</it> Service providers perceived immigrant women to be particularly vulnerable to IPV, on the one hand, and to the effects of the recession on the other. In the opinion of the professionals interviewed, the economic crisis could lead to structural violence against immigrant women who experience IPV; they anticipated a reduction in support resources for these women as a result of budget cuts, and consequently, fewer opportunities for the empowerment which would enable them escape from situations of IPV (Additional file <supplr sid="S3">3</supplr>: Figure S1).</p><sec>
             <st>
                <p>3.1 &#8220;Immigrant women have it harder now&#8221;</p>
             </st>
             <p>Service providers perceived additional obstacles for immigrant women attempting to leave violent relationships, which stemmed from the migration process: no legally valid documentation, language barriers and the lack of support networks, among others. These factors may provoke a situation of greater vulnerability compared with Spanish women and can act as barriers to resource access, making it more difficult for immigrant women to break free from situations of IPV. Furthermore, any difficulties arising from the migration process are exacerbated by the economic crisis.</p>
             <p>The recession has hit immigrants much harder than Spanish people because in most cases their situation is much more complicated: they&#8217;re more vulnerable, they have fewer social networks, I mean, everything is more complex in these cases. (Interview 18 - psychologist)</p>
             <p>The professionals interviewed considered that being an immigrant frequently entailed exploitative working conditions and socio-economic insecurity. In addition, the economic crisis has intensified women&#8217;s economic insecurity.</p>
             <p>Another consequence of being an immigrant is lack of money, and it&#8217;s much worse now with the economic crisis because there&#8217;s a lot of non-payment, [they] don&#8217;t have any income, they&#8217;ve got children, they&#8217;re living in very bad conditions, all packed into one rented room&#8230; (Interview 33 - judge)</p>
             <p>As long as the employment situation stays the same, you know that any immigrant, or any woman, with no training, support, personal resources, family or social services, is going to be exposed to all kinds of exploitation. (Interview 31 - social workers and psychologists)</p>
             <p>They believe that the recession in Spain is having a negative effect on immigrant women&#8217;s opportunities for economic empowerment, because high unemployment rates and scarce job opportunities have reduced immigrant women&#8217;s possibilities of entering the workforce and achieving the economic independence. Thus, not only are their opportunities for attaining independence diminished, but their ties of economic dependence on the abuser are strengthened, rendering it more difficult for them to leave a violent relationship.</p>
             <p>And the labour market, who is going to be hit hardest in the labour market? Women, and even more so, immigrant women, make no mistake. I mean, the groups in the most vulnerable situations are the ones who get hit the hardest. And in the labour market, women occupy a more tenuous position, and the position of immigrant women is even more precarious. So obviously it&#8217;s indirectly going to affect women&#8217;s recovery process. (Interview 25 &#8211; social worker)</p>
          </sec>
          <sec>
             <st>
                <p>3.2 &#8220;IPV and immigration resources are the first in line for cuts&#8221;</p>
             </st>
             <p>At the time of the interviews, the service providers were already reporting shortages and a lack of the resources necessary to provide support in cases of IPV, even before the reforms prompted by the economic crisis had begun to take their toll.</p>
             <p>Both you and I know perfectly well that services in the public sector do not work, and especially nowadays. (Interview 10 - mediator)</p>
             <p>Health services, for example, the way they&#8217;re set up they&#8217;re no use. They&#8217;re no use because of the timetables, are they any use to you? (Interview 18 - psychologist)</p>
             <p>They expressed concern about resource provision as the recession deepens, anticipating a reduction in IPV services and resources due to budget cuts as a result of dwindling funding for these purposes.</p>
             <p>There aren&#8217;t many resources, and now that the welfare state is being dismantled there&#8217;ll be even fewer, we&#8217;re being merged, I don&#8217;t know how long these specialist services will continue to exist, and the future looks bleak in that respect. (Interview 29 - social worker)</p>
             <p>They felt that cutbacks in social programmes would affect the availability of essential resources for immigrant women in situations of abuse. There was also concern that economic and social cuts by the new government would adversely affect the allocation of IPV resources nationally, as would the government&#8217;s policies on changing the administrative structure of assistance.</p>
             <p>Let&#8217;s see, I think the economic situation means that our response capacity is lower because there are fewer resources, and there will definitely be fewer resources in the future. (Interview 31-social workers and psychologists)</p>
             <p>If we&#8217;re noticing it now in associations, just imagine what&#8217;s going to happen in terms of grants, just imagine. (Interview 25 &#8211; social worker)</p>
             <p>Providers also suspected that there would be cutbacks in financial aid such as income support for battered women, an essential resource to ensure women&#8217;s economic independence from aggressors. However, there were also more positive opinions expressed about the continuity of IPV support despite the crisis, linked to the personal motivation of some professionals rather than to faith in the structures. In spite of the cuts they anticipated as a result of the economic crisis, some participants expressed positive feelings, mainly about their work as professionals supporting immigrant women. As one of the participants stated &#8220;Large or small, every stone helps build a wall&#8221; (Interview 5- social worker).</p>
             <p>I think that many things are being scrutinised, although it&#8217;s also true that the political situation at the moment is difficult. A lot&#8217;s been changed, there are plans to improve, I think that even from within the service there are new proposals, but of course with the budget as it is, on hold&#8230; a lot&#8217;s been done and must continue to be done, but it&#8217;s a difficult time, politically and economically, and I really don&#8217;t know how it will all end. (Interview 32 - psychologist)</p>
             <p>Participants expected or anticipated that the scope of activities would continue as before, but that any new programmes or initiatives would be cancelled or delayed due to the crisis. Despite these difficulties, the professionals attempted to compensate for cuts with their own personal efforts and motivation, and continued working.</p>
             <p>Obviously there are strengths and good points, a lot&#8217;s been done in all this time and progress has been made even though they&#8217;re cutting back on resources and we can&#8217;t do the practical things that we were doing before, but there have been huge advances in education. (Interview 31 - social workers and psychologists)</p>
          </sec>
          <sec>
             <st>
                <p>3.3 &#8220;Fewer staff means a less effective service&#8221;</p>
             </st>
             <p>Professionals criticised the lack of human resources in IPV support services and highlighted the need for more specialist staff to meet the specific needs of immigrant women, such as translators or cultural mediators.</p>
             <p>We don&#8217;t have mediators, we don&#8217;t have interpreters. If someone goes to the doctor and you don&#8217;t understand Arabic, and their child is in school, obviously you aren&#8217;t going to talk in Arabic because you don&#8217;t speak it, so how do you communicate with this person? What&#8217;s more, what do you know? What do you know about the culture this person comes from? (Interview 18 - psychologist)</p>
             <p>Staff cuts as a result of reduced budgets impaired the quality of the services offered. Interviewees thought that cuts in IPV services would have an impact on the quality of the support given to the immigrant battered women, because fewer staff meant more work for the remaining professionals and less time for each individual client.</p>
             <p>For example, there&#8217;s this long wait between one appointment and another, you need a lot of resources for the woman to retain the trust that you&#8217;ve tried to instil in her, you know? So that she lets you help her. You need a lot of resources. I don&#8217;t care about the crisis, you need one social worker per case, not fourteen cases per social worker because that gets you nowhere, but hey, the reality&#8217;s different. (Interview 10 - mediator)</p>
             <p>Another result of the recession is that working conditions in IPV services have become harsher, with increased workloads, a freeze on recruitment and reduced shifts and salaries. These shortcomings were highlighted as an obstacle to interventions with women, hampering the provision of effective attention.</p>
             <p>with the hours we do and the low salary, I don&#8217;t think our work is really appreciated, given all the responsibility we have and all the work we have to do. The service is put out to tender, and so they award it to the company that presents the cheapest project and so on, or they don&#8217;t get paid on time, sometimes months and years go by without paying the company, and that&#8217;s detrimental to the people working there. (Interview 29 - social worker)</p>
          </sec>
          <sec>
             <st>
                <p>3.4 &#8220;Equality and IPV policies are no longer a government priority&#8221;</p>
             </st>
             <p>The professionals interviewed were concerned and uncertain about the immediate future in Spain as regards IPV policies, anticipating reversals in policy prompted by the economic crisis and the arrival of a new government different to the one that enacted the IPV Law.</p>
             <p>Well, they say they want to change the law on gender-based violence in the courts and I don&#8217;t know in what way they want to do that, the new government, I&#8217;ve got no idea. So I suppose we&#8217;ll have to wait and see. (Interview 33 - judge)</p>
             <p>They expressed concern about possible amendments to IPV legislation and the potential effects on social policies aimed at the immigrant population of the new government&#8217;s reforms in the context of an economic crisis. They felt that this situation represented a step backwards in terms of the advances that Spanish society had achieved through the time and efforts of social and individual stakeholders, such as the people working in IPV services themselves. For example, the politicians were threatening to change the specialised IPV courts or the law on IPV, which the politicians were threatening to change.</p>
             <p>Specialised IPV courts have been a great step forwards, I&#8217;m scared of what&#8217;s going to happen, I&#8217;m not at all clear what they&#8217;re going to do. I don&#8217;t know, what with the crisis, the cuts, I don&#8217;t know what they&#8217;re going to do&#8230; (Interview 31 - social workers and psychologists)</p>
             <p>Participants warned that economic crises threaten advances in social policies and equality. They believed that equality policies constituted a structural battle against gender-based violence, and feared that these would stagnate or even be reversed, largely to the detriment of victims. They felt that gender equality, the fight against IPV and the specific needs of the immigrant population were not priorities for policy-makers.</p>
             <p>What&#8217;s more, when there&#8217;s an economic crisis, the government pushes equality to the sidelines, and we&#8217;re always hearing that equality is a cross-cutting objective that should be in place everywhere, in culture, in the economy, in politics, in everything, but it&#8217;s no longer a priority and we&#8217;re already seeing that. (Interview 31 - social workers and psychologists)</p>
          </sec>
       </sec>
       <sec>
          <st>
             <p>4 Discussion</p>
          </st>
          <p>This study points out two important aspects regarding how professionals perceived the effect of austerity measures on the resources available for immigrant women exposed to IPV. First, they considered that the economic crisis was hitting harder immigrant women compared to non immigrant women. They also considered that the crisis had led to cutbacks of funding that were affecting the quality of the services they were offering to women exposed to IPV in general, and to immigrant women in particular. Secondly, they were pessimistic in terms of the future. Policy changes and economic cuts in health and social services were identified as the main threats to IPV services. These changes were expected to set drawbacks in policies and programs related to migrants&#8217; rights and gender equality.</p>
          <p>The results are consistent with those reported in other studies, in that they indicate that the economic crisis may contribute to increasing the risk of social exclusion among certain populations, which in the specific case of this study would imply increased vulnerability among immigrant women to remaining in a situation of IPV <abbrgrp>
                <abbr bid="B44">44</abbr>
             </abbrgrp>. It is well known that the context of migration poses additional difficulties associated with situations of greater social vulnerability, such as the lack of a residence permit, existence of language barriers and the lack of support networks in the event of difficulties or problems <abbrgrp>
                <abbr bid="B45">45</abbr>
             </abbrgrp>,<abbrgrp>
                <abbr bid="B46">46</abbr>
             </abbrgrp>,<abbrgrp>
                <abbr bid="B10">10</abbr>
             </abbrgrp>. The crisis adds to this burden by increasing unemployment rates among immigrant women, with the consequent deterioration in their standard of living, increased economic dependence on violent partners and decreased chances of finding employment.</p>
          <p>The results indicate that service providers experience an overwhelming amount of work followed by burnout, which in turn affects the care given to women. On the one hand, the professionals interviewed were already beginning to experience funding cuts, in line with the general tendency among governments in times of recession to reduce public spending by implementing changes in funding, prioritisation and governmental regulation, and by decentralising health services <abbrgrp>
                <abbr bid="B38">38</abbr>
             </abbrgrp>. That could be explained because they are considered as &#8220;unproductive&#8221; components of government spending <abbrgrp>
                <abbr bid="B20">20</abbr>
             </abbrgrp>. In consequence, and as the results show, such services are subject to staff cuts, leading to an overload of work and the risk of burnout among the staff who are still employed. Other studies have indicated that one of the main barriers to the provision of effective care in cases of IPV is understaffing, given that in times of economic recession it is more difficult to ensure the quality of care by hiring interpreters or staff with specialised training in matters related to immigration and intercultural skills <abbrgrp>
                <abbr bid="B47">47</abbr>
             </abbrgrp>,<abbrgrp>
                <abbr bid="B48">48</abbr>
             </abbrgrp>. This reduction in staffing levels is worrying because when other resources are being cut at national level (macro level) or regional level (meso level), the professional role of human resources (micro level) becomes decisive <abbrgrp>
                <abbr bid="B47">47</abbr>
             </abbrgrp>,<abbrgrp>
                <abbr bid="B49">49</abbr>
             </abbrgrp>.</p>
          <p>As regards future expectations, the service providers interviewed in this study anticipated that IPV services and services aimed at vulnerable populations were particularly at risk in the current economic climate. Participants thought that the new government would cut public services, and that the lack of economic resources would lead to a reduction in infrastructures and staff and the closure of some services. This would have a negative impact on their ability to respond to IPV, especially in the case of immigrant women because these are exposed to multiple factors of social exclusion. These predictions have subsequently been confirmed: several services frequently utilised by immigrants, such as NGOs, are closing due to budget cuts, and immigrants&#8217; free access to health services has been curtailed <abbrgrp>
                <abbr bid="B27">27</abbr>
             </abbrgrp>,<abbrgrp>
                <abbr bid="B50">50</abbr>
             </abbrgrp>. Current health reforms will hinder the protection of immigrant women living in Spain &#8211;those without official immigrant status and experiencing IPV- as they will be excluded from the health system. Consequently, they will not be able to provide crucial evidence when they need to apply for a restraining order against their aggressor. Both their perceptions and the confirmed facts indicate that the effect of macroeconomic and neo-liberal political reforms is to impose structural violence on vulnerable populations because, on the one hand, such reforms increase individual and community vulnerability to specific problems, and on the other hand, they lead to a dismantling of already debilitated public services <abbrgrp>
                <abbr bid="B51">51</abbr>
             </abbrgrp>.</p>
          <p>As well, they were right about the change of government and the impact on IPV support policies and strategies. In Spain, from 2004 to 2011, the previous socialist government was heavily committed to the implementation of IPV services, especially following enactment of Organic Law 1/2004 on gender-based violence. These facts confirm that, what the professionals considered to be consequences of the crisis, however, were in fact the effects of government priorities prompted by the recession, priorities which have meant that today, the health and social services are facing financial constraints <abbrgrp>
                <abbr bid="B36">36</abbr>
             </abbrgrp>. Proof of this is that spending on equality policies has been changed and some of these policies are being reformulated to the detriment of women&#8217;s fundamental rights, such as the right to abortion. In this sense, there is a need for further research about how policies towards mitigating IPV in immigrant women operate in other European countries and whether EU countries have introduced similar cuts.</p>
       </sec>
       <sec>
          <st>
             <p>5 Conclusions</p>
          </st>
          <p>These findings lead us to conclude that the policy changes prompted by the crisis hinder effective coverage of services for women victims of IPV in general, and more specifically, for immigrant women in this situation. The present study revealed that service providers tended to think that IPV services and programmes, and especially those for immigrant women, were under threat, since politicians might considered them the most dispensable aspect of the health and social services. Although the maintenance of services and programmes for immigrant battered women is a question of equality, the interviewees felt that this principle was being flouted as a result of government responses to the economic crisis.</p>
          <sec>
             <st>
                <p>5.1 Limitations and strengths</p>
             </st>
             <p>This study has several limitations. First, the issues addressed in this paper emerged spontaneously during the interviews with service providers; the impact of the recession being not the main focus of the study. During data collection and interview analysis alike, the issue of the possible effect on IPV resources of changes prompted by the crisis emerged as a strong theme; we therefore decided to explore this issue further in the present study. Second, this study focused on professionals&#8217; perceptions about what might happen, because the interviews were conducted before the change of government and implementation of the first spending cuts. As the participants had anticipated, several reforms were implemented which affected health and social services. Nevertheless, the reforms had begun some time previously; for example, the responsibilities of the Spanish Ministry for Equality were reduced and the Ministry itself was absorbed by the Spanish Ministry for Health and Social Policy in 2010, and several regional Institutes for Women began to disappear. Furthermore, key national NGOs working in IPV also disappeared as a consequence of the lack of public funding <abbrgrp>
                   <abbr bid="B50">50</abbr>
                </abbrgrp>.</p>
             <p>To the best of our knowledge, this study represents the first attempt to obtain and synthesise service providers&#8217; opinions about the impact of the current economic crisis on the IPV support services in which they work. The methodology employed in this study and the results on IPV resources are not statistically generalizable; however, they can be used to theorise about how professionals perceive a deterioration in services in times of economic crisis <abbrgrp>
                   <abbr bid="B52">52</abbr>
                </abbrgrp>. Thus, the study could be used to inform policy-making in Spain, especially in the current context of severe recession, and may also be of interest to other European countries facing similar challenges in resource allocation <abbrgrp>
                   <abbr bid="B47">47</abbr>
                </abbrgrp>.</p>
          </sec>
       </sec>
       <sec>
          <st>
             <p>Competing interests</p>
          </st>
          <p>The authors declare that they have no competing interests.</p>
       </sec>
       <sec>
          <st>
             <p>Authors&#8217; contributions</p>
          </st>
          <p>EB and AA carried out the analysis and drafted the manuscript. IG and CV supervised the work and contributed to the new versions of the manuscript. All authors read and approved the final manuscript.</p>
       </sec>
       <sec>
          <st>
             <p>Additional files</p>
          </st>
          
       </sec>
    </bdy>
    <bm>
       <refgrp>
          
          <bibl id="B1">
             <source>Declarations on the Elimination of Violence Against Women</source>
             <publisher>United Nations General Assembly, New York</publisher>
             <pubdate>1993</pubdate>
          </bibl>
          <bibl id="B2">
             <source>World Report on Violence and Health</source>
             <publisher>World Health Organization, Geneva</publisher>
             <pubdate>2002</pubdate>
          </bibl>
          <bibl id="B3">
             <title>
                <p>Prevalence of intimate partner violence: findings from the WHO multi-country study on women&#8217;s health and domestic violence</p>
             </title>
             <aug>
                <au>
                   <snm>Garcia-Moreno</snm>
                   <fnm>C</fnm>
                </au>
                <au>
                   <snm>Jansen</snm>
                   <fnm>HA</fnm>
                </au>
                <au>
                   <snm>Ellsberg</snm>
                   <fnm>M</fnm>
                </au>
                <au>
                   <snm>Heise</snm>
                   <fnm>L</fnm>
                </au>
                <au>
                   <snm>Watts</snm>
                   <fnm>CH</fnm>
                </au>
             </aug>
             <source>Lancet</source>
             <pubdate>2006</pubdate>
             <volume>368</volume>
             <fpage>1260</fpage>
             <lpage>1269</lpage>
             <xrefbib>
                <pubidlist>
                   <pubid idtype="doi">10.1016/S0140-6736(06)69523-8</pubid>
                   <pubid idtype="pmpid" link="fulltext">17027732</pubid>
                </pubidlist>
             </xrefbib>
          </bibl>
          <bibl id="B4">
             <source>Review of the Implementation of the Beijing Platform for Action in the EU Member States: Violence against Women - Victim Support</source>
             <publisher>Publications Office of the European Union, Luxembourg</publisher>
             <pubdate>2012</pubdate>
          </bibl>
          <bibl id="B5">
             <title>
                <p>Mortality due to intimate partner violence in foreign women living in Spain (1999&#8211;2006)</p>
             </title>
             <aug>
                <au>
                   <snm>Vives-Cases</snm>
                   <fnm>C</fnm>
                </au>
                <au>
                   <snm>Alvarez-Dardet</snm>
                   <fnm>C</fnm>
                </au>
                <au>
                   <snm>Torrubiano-Dominguez</snm>
                   <fnm>J</fnm>
                </au>
                <au>
                   <snm>Gil-Gonzalez</snm>
                   <fnm>D</fnm>
                </au>
             </aug>
             <source>Gac Sanit</source>
             <pubdate>2008</pubdate>
             <volume>22</volume>
             <fpage>232</fpage>
             <lpage>235</lpage>
             <xrefbib>
                <pubidlist>
                   <pubid idtype="doi">10.1157/13123969</pubid>
                   <pubid idtype="pmpid" link="fulltext">18579049</pubid>
                </pubidlist>
             </xrefbib>
          </bibl>
          <bibl id="B6">
             <title>
                <p>Identifying sociodemographic differences in Intimate Partner Violence among immigrant and native women in Spain: a cross-sectional study</p>
             </title>
             <aug>
                <au>
                   <snm>Vives-Cases</snm>
                   <fnm>C</fnm>
                </au>
                <au>
                   <snm>Gil-Gonzalez</snm>
                   <fnm>D</fnm>
                </au>
                <au>
                   <snm>Ruiz-Perez</snm>
                   <fnm>I</fnm>
                </au>
                <au>
                   <snm>Escriba-Aguir</snm>
                   <fnm>V</fnm>
                </au>
                <au>
                   <snm>Plazaola-Castano</snm>
                   <fnm>J</fnm>
                </au>
                <au>
                   <snm>Montero-Pinar</snm>
                   <fnm>MI</fnm>
                </au>
                <au>
                   <snm>Torrubiano-Dominguez</snm>
                   <fnm>J</fnm>
                </au>
             </aug>
             <source>Prev Med</source>
             <pubdate>2010</pubdate>
             <volume>51</volume>
             <fpage>85</fpage>
             <lpage>87</lpage>
             <xrefbib>
                <pubidlist>
                   <pubid idtype="doi">10.1016/j.ypmed.2010.03.017</pubid>
                   <pubid idtype="pmpid" link="fulltext">20362609</pubid>
                </pubidlist>
             </xrefbib>
          </bibl>
          <bibl id="B7">
             <title>
                <p>Intangible obstacles: health implications of stigmatization, structural violence, and fear among undocumented immigrants in France</p>
             </title>
             <aug>
                <au>
                   <snm>Larchanche</snm>
                   <fnm>S</fnm>
                </au>
             </aug>
             <source>Soc Sci Med</source>
             <pubdate>2012</pubdate>
             <volume>74</volume>
             <fpage>858</fpage>
             <lpage>863</lpage>
             <xrefbib>
                <pubidlist>
                   <pubid idtype="doi">10.1016/j.socscimed.2011.08.016</pubid>
                   <pubid idtype="pmpid" link="fulltext">22000263</pubid>
                </pubidlist>
             </xrefbib>
          </bibl>
          <bibl id="B8">
             <title>
                <p>Intimate partner violence and barriers to mental health care for ethnically diverse populations of women</p>
             </title>
             <aug>
                <au>
                   <snm>Rodr&#237;guez</snm>
                   <fnm>M</fnm>
                </au>
                <au>
                   <snm>Valentine</snm>
                   <fnm>JM</fnm>
                </au>
                <au>
                   <snm>Son</snm>
                   <fnm>JB</fnm>
                </au>
                <au>
                   <snm>Muhammad</snm>
                   <fnm>M</fnm>
                </au>
             </aug>
             <source>Trauma Violence Abuse</source>
             <pubdate>2009</pubdate>
             <volume>10</volume>
             <fpage>358</fpage>
             <lpage>374</lpage>
             <xrefbib>
                <pubidlist>
                   <pubid idtype="doi">10.1177/1524838009339756</pubid>
                   <pubid idtype="pmpid" link="fulltext">19638359</pubid>
                </pubidlist>
             </xrefbib>
          </bibl>
          <bibl id="B9">
             <title>
                <p>Barriers affecting access to and use of formal social supports among abused immigrant women</p>
             </title>
             <aug>
                <au>
                   <snm>Guruge</snm>
                   <fnm>S</fnm>
                </au>
                <au>
                   <snm>Humphreys</snm>
                   <fnm>J</fnm>
                </au>
             </aug>
             <source>CJNR</source>
             <pubdate>2009</pubdate>
             <volume>41</volume>
             <fpage>64</fpage>
             <lpage>84</lpage>
             <xrefbib>
                <pubidlist>
                   <pubid idtype="pmpid" link="fulltext">19831055</pubid>
                </pubidlist>
             </xrefbib>
          </bibl>
          <bibl id="B10">
             <title>
                <p>Intersections of immigration and domestic violence</p>
             </title>
             <aug>
                <au>
                   <snm>Erez</snm>
                   <fnm>E</fnm>
                </au>
                <au>
                   <snm>Adelman</snm>
                   <fnm>M</fnm>
                </au>
                <au>
                   <snm>Gregory</snm>
                   <fnm>C</fnm>
                </au>
             </aug>
             <source>Fem Criminol</source>
             <pubdate>2009</pubdate>
             <volume>4</volume>
             <fpage>32</fpage>
             <lpage>56</lpage>
             <xrefbib>
                <pubidlist>
                   <pubid idtype="doi">10.1177/1557085108325413</pubid>
                </pubidlist>
             </xrefbib>
          </bibl>
          <bibl id="B11">
             <title>
                <p>Compounding vulnerabilities: the impact of immigration status and circumstances on battered immigrant women</p>
             </title>
             <aug>
                <au>
                   <snm>Erez</snm>
                   <fnm>E</fnm>
                </au>
                <au>
                   <snm>Globokar</snm>
                   <fnm>J</fnm>
                </au>
             </aug>
             <source>Sociol Crime Law Deviance</source>
             <pubdate>2009</pubdate>
             <volume>13</volume>
             <fpage>129</fpage>
             <lpage>145</lpage>
             <xrefbib>
                <pubidlist>
                   <pubid idtype="doi">10.1108/S1521-6136(2009)0000013011</pubid>
                </pubidlist>
             </xrefbib>
          </bibl>
          <bibl id="B12">
             <url>http://www.ine.es/en/prensa/np788_en.pdf</url>
<note>National Institute of Statistics (INE): <b>Population 2013.</b>.</note>
          </bibl>
          <bibl id="B13">
             <title>
                <p>Gender-based violence against immigrant and Spanish women: scale of the problem, responses and current policies</p>
             </title>
             <aug>
                <au>
                   <snm>Vives-Cases</snm>
                   <fnm>C</fnm>
                </au>
                <au>
                   <snm>Gil-Gonzalez</snm>
                   <fnm>D</fnm>
                </au>
                <au>
                   <snm>Plazaola-Castano</snm>
                   <fnm>J</fnm>
                </au>
                <au>
                   <snm>Montero-Pinar</snm>
                   <fnm>MI</fnm>
                </au>
                <au>
                   <snm>Ruiz-Perez</snm>
                   <fnm>I</fnm>
                </au>
                <au>
                   <snm>Escriba-Aguir</snm>
                   <fnm>V</fnm>
                </au>
                <au>
                   <snm>Ortiz-Barreda</snm>
                   <fnm>G</fnm>
                </au>
                <au>
                   <snm>Torrubiano-Dominguez</snm>
                   <fnm>J</fnm>
                </au>
             </aug>
             <source>Gac Sanit</source>
             <pubdate>2009</pubdate>
             <volume>23</volume>
             <fpage>100</fpage>
             <lpage>106</lpage>
             <xrefbib>
                <pubidlist>
                   <pubid idtype="doi">10.1016/j.gaceta.2009.07.008</pubid>
                   <pubid idtype="pmpid" link="fulltext">19892440</pubid>
                </pubidlist>
             </xrefbib>
          </bibl>
          <bibl id="B14">
             <source>[Report on victims of gender violence and domestic violence by partner or former partner]</source>
             <publisher>Consejo General del Poder Judicial, Madrid</publisher>
             <pubdate>2012</pubdate>
          </bibl>
          <bibl id="B15">
             <url>http://www.boe.es/boe/dias/2004/12/29/pdfs/A42166-42197.pdf</url>
<note>Official Spanish State Gazette: <it>Organic Law 1/2004, of 28th December, on Comprehensive Protection Measures against Gender-based Violence.</it> Spain: 2004. .</note>
          </bibl>
          <bibl id="B16">
             <source>Ley Org&#225;nica 10/2011, de 27 de julio, de modificaci&#243;n de los art&#237;culos 31 bis y 59 bis de la Ley Org&#225;nica 4/2000, de 11 de enero, sobre derechos y libertades de los extranjeros en Espa&#241;a y su integraci&#243;n social</source>
             <pubdate>2011</pubdate>
          </bibl>
          <bibl id="B17">
             <title>
                <p>Applying the WHO recommendations on health-sector response to violence against women to assess the Spanish health system. A mixed methods approach</p>
             </title>
             <aug>
                <au>
                   <snm>Goicolea</snm>
                   <fnm>I</fnm>
                </au>
                <au>
                   <snm>Vives-Cases</snm>
                   <fnm>C</fnm>
                </au>
                <au>
                   <snm>Minvielle</snm>
                   <fnm>F</fnm>
                </au>
                <au>
                   <snm>Briones-Vozmediano</snm>
                   <fnm>E</fnm>
                </au>
                <au>
                   <snm>Ohman</snm>
                   <fnm>A</fnm>
                </au>
             </aug>
             <source>Gac Sanit</source>
             <pubdate>2014</pubdate>
             <volume>28</volume>
             <issue>3</issue>
             <fpage>238</fpage>
             <lpage>241</lpage>
             <xrefbib>
                <pubidlist>
                   <pubid idtype="doi">10.1016/j.gaceta.2013.08.002</pubid>
                   <pubid idtype="pmpid" link="fulltext">24440120</pubid>
                </pubidlist>
             </xrefbib>
          </bibl>
          <bibl id="B18">
             <title>
                <p>Have health trends worsened in Greece as a result of the financial crisis? A quasi-experimental approach</p>
             </title>
             <aug>
                <au>
                   <snm>Vandoros</snm>
                   <fnm>S</fnm>
                </au>
                <au>
                   <snm>Hessel</snm>
                   <fnm>P</fnm>
                </au>
                <au>
                   <snm>Leone</snm>
                   <fnm>T</fnm>
                </au>
                <au>
                   <snm>Avendano</snm>
                   <fnm>M</fnm>
                </au>
             </aug>
             <source>Eur J Pub Health</source>
             <pubdate>2013</pubdate>
             <volume>23</volume>
             <fpage>727</fpage>
             <lpage>731</lpage>
             <xrefbib>
                <pubidlist>
                   <pubid idtype="doi">10.1093/eurpub/ckt020</pubid>
                </pubidlist>
             </xrefbib>
          </bibl>
          <bibl id="B19">
             <note>De Vogli R: <b>Financial crisis, austerity, and health in Europe.</b>
                <it>Lancet</it> 2013, <b>382:</b>391.</note>
          </bibl>
          <bibl id="B20">
             <note>Reeves A, Basu S, McKee M, Meissner C, Stuckler D: <b>Does investment in the health sector promote or inhibit economic growth?</b>
                <it>Global Health</it> 2013, <b>9:</b>43.</note>
          </bibl>
          <bibl id="B21">
             <title>
                <p>El papel de las pol&#237;ticas sociales para paliar las necesidades generadas por la crisis</p>
             </title>
             <aug>
                <au>
                   <snm>Guill&#233;n</snm>
                   <fnm>AM</fnm>
                </au>
                <au>
                   <snm>Pavolini</snm>
                   <fnm>E</fnm>
                </au>
                <au>
                   <snm>Luque</snm>
                   <fnm>D</fnm>
                </au>
                <au>
                   <snm>Anaut</snm>
                   <fnm>S</fnm>
                </au>
             </aug>
             <source>Crisis y fractura social en Europa Causas y efectos en Espa&#241;a. Volume 35</source>
             <publisher>Obra Social La Caixa, Barcelona</publisher>
             <editor>Laparra M, P&#233;rez Eransus B</editor>
             <pubdate>2012</pubdate>
          </bibl>
          <bibl id="B22">
             <title>
                <p>Effects of the 2008 recession on health: a first look at European data</p>
             </title>
             <aug>
                <au>
                   <snm>Stuckler</snm>
                   <fnm>D</fnm>
                </au>
                <au>
                   <snm>Basu</snm>
                   <fnm>S</fnm>
                </au>
                <au>
                   <snm>Suhrcke</snm>
                   <fnm>M</fnm>
                </au>
                <au>
                   <snm>Coutts</snm>
                   <fnm>A</fnm>
                </au>
                <au>
                   <snm>McKee</snm>
                   <fnm>M</fnm>
                </au>
             </aug>
             <source>Lancet</source>
             <pubdate>2011</pubdate>
             <volume>378</volume>
             <fpage>124</fpage>
             <lpage>125</lpage>
             <xrefbib>
                <pubidlist>
                   <pubid idtype="doi">10.1016/S0140-6736(11)61079-9</pubid>
                   <pubid idtype="pmpid" link="fulltext">21742166</pubid>
                </pubidlist>
             </xrefbib>
          </bibl>
          <bibl id="B23">
             <title>
                <p>Historical Perspectives on economic crises and health</p>
             </title>
             <aug>
                <au>
                   <snm>Walker</snm>
                   <fnm>K</fnm>
                </au>
             </aug>
             <source>Hist J</source>
             <pubdate>2010</pubdate>
             <volume>53</volume>
             <issue>2</issue>
             <fpage>477</fpage>
             <lpage>494</lpage>
             <xrefbib>
                <pubidlist>
                   <pubid idtype="doi">10.1017/S0018246X10000130</pubid>
                </pubidlist>
             </xrefbib>
          </bibl>
          <bibl id="B24">
             <aug>
                <au>
                   <snm>Laparra</snm>
                   <fnm>M</fnm>
                </au>
                <au>
                   <snm>Eransus</snm>
                   <fnm>BP</fnm>
                </au>
                <au>
                   <snm>Lasheras</snm>
                   <fnm>R</fnm>
                </au>
                <au>
                   <snm>Gamund&#237;</snm>
                   <fnm>MAC</fnm>
                </au>
                <au>
                   <snm>Guinea-Mart&#237;n</snm>
                   <fnm>D</fnm>
                </au>
                <au>
                   <snm>Zugast</snm>
                   <fnm>N</fnm>
                </au>
                <au>
                   <snm>Ca&#241;&#243;n</snm>
                   <fnm>LA</fnm>
                </au>
                <au>
                   <snm>Mart&#237;nez Virto</snm>
                   <fnm>L</fnm>
                </au>
                <au>
                   <snm>Sarasa</snm>
                   <fnm>S</fnm>
                </au>
                <au>
                   <snm>Garc&#237;a</snm>
                   <fnm>A</fnm>
                </au>
                <au>
                   <snm>Guill&#233;n</snm>
                   <fnm>AM</fnm>
                </au>
                <au>
                   <snm>Pavolini</snm>
                   <fnm>E</fnm>
                </au>
                <au>
                   <snm>Luque</snm>
                   <fnm>D</fnm>
                </au>
                <au>
                   <snm>Sagrario</snm>
                   <fnm>A</fnm>
                </au>
             </aug>
             <source>Crisis y fractura social en Europa.Causas y efectos en Espa&#241;a. vol. 35</source>
             <publisher>Obra Social &#8220;La Caixa&#8221;, Barcelona</publisher>
             <pubdate>2012</pubdate>
          </bibl>
          <bibl id="B25">
             <source>Living Conditions Survey (LCS) Year 2011</source>
             <publisher>INE, Madrid</publisher>
             <pubdate>2012</pubdate>
          </bibl>
          <bibl id="B26">
             <note>Karanikolos M, Rechel B, Stuckler D, McKee M: <b>Financial crisis, austerity, and health in Europe - Authors&#8217; reply.</b>
                <it>Lancet</it> 2013, <b>382:</b>392.</note>
          </bibl>
          <bibl id="B27">
             <note>Legido-Quigley H, Otero L, Parra D, Alvarez-Dardet C, Martin-Moreno JM, McKee M: <b>Will austerity cuts dismantle the Spanish healthcare system?</b>
                <it>BMJ</it> 2013, <b>Jun</b>(346):f2363.</note>
          </bibl>
          <bibl id="B28">
             <source>Impact of Economic Crises on Mental Health</source>
             <publisher>WHO Regional Office for Europe, Copenhagen</publisher>
             <pubdate>2011</pubdate>
          </bibl>
          <bibl id="B29">
             <title>
                <p>The Impact of the Global Recession on the Health of the People in Asia</p>
             </title>
             <aug>
                <au>
                   <snm>Kwon</snm>
                   <fnm>S</fnm>
                </au>
                <au>
                   <snm>Jung</snm>
                   <fnm>Y</fnm>
                </au>
                <au>
                   <snm>Islam</snm>
                   <fnm>A</fnm>
                </au>
                <au>
                   <snm>Pande</snm>
                   <fnm>B</fnm>
                </au>
                <au>
                   <snm>Yao</snm>
                   <fnm>L</fnm>
                </au>
             </aug>
             <source>Poverty and Sustainable Development in Asia Impacts and Responses to the Global Economic Crisis</source>
             <publisher>Asian Development Bank, Manila</publisher>
             <editor>Bauer MT A</editor>
             <pubdate>2010</pubdate>
          </bibl>
          <bibl id="B30">
             <url>http://www.realinstitutoelcano.org/wps/wcm/connect/f91c0c8041353aec9656f66d616c2160/ARI21-2010_crisis_laboral_poblacion_inmigrante.pdf?MOD=AJPERES&amp;CACHEID=f91c0c8041353aec9656f66d616c2160</url>
<note>Casado RM, de Arce Borda R: <it>Impacto de la crisis laboral sobre la poblaci&#243;n inmigrante.</it> An&#225;lisis del Real Instituto Elcano (ARI); 2010:1&#8211;11. .</note>
          </bibl>
          <bibl id="B31">
             <url>http://www.colectivoioe.org/uploads/0bae582aa3b0842a9eaf50cde16f4f97d9527bcb.pdf</url>
<note>Colectivo Io&#233;: <b>Impactos de la crisis laboral sobre la poblaci&#243;n inmigrante.</b>: Colectivo Io&#233;-Organizaci&#243;n Internacional de las Migraciones.</note>
          </bibl>
          <bibl id="B32">
             <source>Informe Anual sobre Migraciones e Integraci&#243;n. Nuevos retos para las pol&#237;ticas de inmigraci&#243;n e integraci&#243;n</source>
             <publisher>Tirant Lo Blanch, Valencia</publisher>
             <pubdate>2012</pubdate>
          </bibl>
          <bibl id="B33">
             <note>Ramsay J, Carter Y, Davidson L, Dunne D, Eldridge S, Feder G, Hegarty K, Rivas C, Taft A, Warburton A: <b>Advocacy interventions to reduce or eliminate violence and promote the physical and psychosocial well-being of women who experience intimate partner abuse.</b>
                <it>Cochrane Database Syst Rev</it> 2009, <b>8</b>(3):CD005043.</note>
          </bibl>
          <bibl id="B34">
             <title>
                <p>
                   <b>C</b>onsensus methods for medical and health services research</p>
             </title>
             <aug>
                <au>
                   <snm>Jones</snm>
                   <fnm>J</fnm>
                </au>
                <au>
                   <snm>Hunter</snm>
                   <fnm>H</fnm>
                </au>
             </aug>
             <source>Br Med J</source>
             <pubdate>1995</pubdate>
             <volume>311</volume>
             <issue>7001</issue>
             <fpage>376</fpage>
             <lpage>380</lpage>
             <xrefbib>
                <pubidlist>
                   <pubid idtype="doi">10.1136/bmj.311.7001.376</pubid>
                </pubidlist>
             </xrefbib>
          </bibl>
          <bibl id="B35">
             <title>
                <p>The Impact of the Recession on Domestic Violence Against Women and Support Services in Ireland: An Exploratory Study</p>
             </title>
             <aug>
                <au>
                   <snm>Harney</snm>
                   <fnm>C</fnm>
                </au>
             </aug>
             <source>Critical Social Thinking: Policy and Practice</source>
             <pubdate>2011</pubdate>
             <fpage>3</fpage>
             <url>http://www.ucc.ie/en/appsoc/researchconference/conf/cstj/cstjournalvolume32011/claireharney/ClaireHarney.PDF</url>
             <note>http://www.ucc.ie/en/appsoc/researchconference/conf/cstj/cstjournalvolume32011/claireharney/ClaireHarney.PDF</note>
          </bibl>
          <bibl id="B36">
             <note>Allebeck P: <b>Health effects of the crisis: challenges for science and policy.</b>
                <it>Eur J Pub Health</it> 2013, <b>23:</b>721.</note>
          </bibl>
          <bibl id="B37">
             <note>Browne J, Sorensen TI: <b>European public health research in Horizon 2020.</b>
                <it>Eur J Pub Health</it> 2013, <b>23:</b>722.</note>
          </bibl>
          <bibl id="B38">
             <title>
                <p>Economic crisis and communicable disease control in Europe: a scoping study among national experts</p>
             </title>
             <aug>
                <au>
                   <snm>Rechel</snm>
                   <fnm>B</fnm>
                </au>
                <au>
                   <snm>Suhrcke</snm>
                   <fnm>M</fnm>
                </au>
                <au>
                   <snm>Tsolova</snm>
                   <fnm>S</fnm>
                </au>
                <au>
                   <snm>Suk</snm>
                   <fnm>JE</fnm>
                </au>
                <au>
                   <snm>Desai</snm>
                   <fnm>M</fnm>
                </au>
                <au>
                   <snm>McKee</snm>
                   <fnm>M</fnm>
                </au>
                <au>
                   <snm>Stuckler</snm>
                   <fnm>D</fnm>
                </au>
                <au>
                   <snm>Abubakar</snm>
                   <fnm>I</fnm>
                </au>
                <au>
                   <snm>Hunter</snm>
                   <fnm>P</fnm>
                </au>
                <au>
                   <snm>Senek</snm>
                   <fnm>M</fnm>
                </au>
                <au>
                   <snm>Semenza</snm>
                   <fnm>JC</fnm>
                </au>
             </aug>
             <source>Health Policy</source>
             <pubdate>2011</pubdate>
             <volume>103</volume>
             <fpage>168</fpage>
             <lpage>175</lpage>
             <xrefbib>
                <pubidlist>
                   <pubid idtype="doi">10.1016/j.healthpol.2011.06.013</pubid>
                   <pubid idtype="pmpid" link="fulltext">21820196</pubid>
                </pubidlist>
             </xrefbib>
          </bibl>
          <bibl id="B39">
             <note>Iacobucci G: <b>Future gaps in workforce pose an impending crisis for the NHS, report warns.</b>
                <it>Br Med J</it> 2013, <b>347:</b>f4696.</note>
          </bibl>
          <bibl id="B40">
             <title>
                <p>Professionals&#8217;percepctions of support resources for immigrant battered women: chronicle of an anticipated failure</p>
             </title>
             <aug>
                <au>
                   <snm>Briones-Vozmediano</snm>
                   <fnm>E</fnm>
                </au>
                <au>
                   <snm>Goicolea</snm>
                   <fnm>I</fnm>
                </au>
                <au>
                   <snm>Ortiz-Barreda</snm>
                   <fnm>GM</fnm>
                </au>
                <au>
                   <snm>Gil-Gonz&#225;lez</snm>
                   <fnm>D</fnm>
                </au>
                <au>
                   <snm>Vives-Cases</snm>
                   <fnm>C</fnm>
                </au>
             </aug>
             <source>J Interpers Violence</source>
             <pubdate>2014</pubdate>
             <volume>29</volume>
             <issue>6</issue>
             <fpage>1006</fpage>
             <lpage>1027</lpage>
             <xrefbib>
                <pubidlist>
                   <pubid idtype="doi">10.1177/0886260513506059</pubid>
                   <pubid idtype="pmpid" link="fulltext">24288189</pubid>
                </pubidlist>
             </xrefbib>
          </bibl>
          <bibl id="B41">
             <aug>
                <au>
                   <snm>Denzin</snm>
                   <fnm>N</fnm>
                </au>
                <au>
                   <snm>Lincoln</snm>
                   <fnm>Y</fnm>
                </au>
             </aug>
             <source>The Sage Handbook of Qualitative Research</source>
             <publisher>Sage Publications, London</publisher>
             <pubdate>2005</pubdate>
          </bibl>
          <bibl id="B42">
             <aug>
                <au>
                   <snm>Patton</snm>
                   <fnm>M</fnm>
                </au>
             </aug>
             <source>Qualitative Evaluation and Research Methods</source>
             <publisher>Sage Publications, Newbury Park</publisher>
             <pubdate>1990</pubdate>
          </bibl>
          <bibl id="B43">
             <title>
                <p>Qualitative content analysis in nursing research: concepts, procedures and measures to achieve trustworthiness</p>
             </title>
             <aug>
                <au>
                   <snm>Graneheim</snm>
                   <fnm>UH</fnm>
                </au>
                <au>
                   <snm>Lundman</snm>
                   <fnm>B</fnm>
                </au>
             </aug>
             <source>Nurse Educ Today</source>
             <pubdate>2004</pubdate>
             <volume>24</volume>
             <fpage>105</fpage>
             <lpage>112</lpage>
             <xrefbib>
                <pubidlist>
                   <pubid idtype="doi">10.1016/j.nedt.2003.10.001</pubid>
                   <pubid idtype="pmpid" link="fulltext">14769454</pubid>
                </pubidlist>
             </xrefbib>
          </bibl>
          <bibl id="B44">
             <title>
                <p>Global Perspectives on the Social Organization of Care in Times of Crisis: Assessing the Policy Challenges</p>
             </title>
             <aug>
                <au>
                   <snm>Perez Orozco</snm>
                   <fnm>A</fnm>
                </au>
             </aug>
             <source>Gender, Migration and Development Series Working Paper</source>
             <publisher>United Nations International Research and Training- Institute for the Advancement of Women (INSTRAW), Santo Domingo (Dominican Republican)</publisher>
             <pubdate>2009</pubdate>
          </bibl>
          <bibl id="B45">
             <title>
                <p>Immigrant women and domestic violence</p>
             </title>
             <aug>
                <au>
                   <snm>Menj&#237;var</snm>
                   <fnm>C</fnm>
                </au>
                <au>
                   <snm>Salcido</snm>
                   <fnm>O</fnm>
                </au>
             </aug>
             <source>Gend Soc</source>
             <pubdate>2002</pubdate>
             <volume>16</volume>
             <fpage>898</fpage>
             <lpage>920</lpage>
             <xrefbib>
                <pubidlist>
                   <pubid idtype="doi">10.1177/089124302237894</pubid>
                </pubidlist>
             </xrefbib>
          </bibl>
          <bibl id="B46">
             <title>
                <p>Domestic violence and minoritisation: legal and policy barriers facing minoritized women leaving violent relationships</p>
             </title>
             <aug>
                <au>
                   <snm>Burman</snm>
                   <fnm>E</fnm>
                </au>
                <au>
                   <snm>Chantler</snm>
                   <fnm>K</fnm>
                </au>
             </aug>
             <source>Int J Law Psychiatry</source>
             <pubdate>2005</pubdate>
             <volume>28</volume>
             <fpage>59</fpage>
             <lpage>74</lpage>
             <xrefbib>
                <pubidlist>
                   <pubid idtype="doi">10.1016/j.ijlp.2004.12.004</pubid>
                   <pubid idtype="pmpid" link="fulltext">15710449</pubid>
                </pubidlist>
             </xrefbib>
          </bibl>
          <bibl id="B47">
             <note>Sbarouni V, Tsimtsiou Z, Symvoulakis E, Kamekis A, Petelos E, Saridaki A, Papadakis N, Lionis C: <b>Perceptions of primary care professionals on quality of services in rural Greece: a qualitative study.</b>
                <it>Rural Remote Health</it> 2012, <b>12:</b>2156.</note>
          </bibl>
          <bibl id="B48">
             <title>
                <p>Health-reception of newly arrived documented migrants in Europe&#8211;why, whom, what and how?</p>
             </title>
             <aug>
                <au>
                   <snm>Frederiksen</snm>
                   <fnm>HW</fnm>
                </au>
                <au>
                   <snm>Kamper-Jorgensen</snm>
                   <fnm>Z</fnm>
                </au>
                <au>
                   <snm>Agyemang</snm>
                   <fnm>C</fnm>
                </au>
                <au>
                   <snm>Krasnik</snm>
                   <fnm>A</fnm>
                </au>
                <au>
                   <snm>Norredam</snm>
                   <fnm>M</fnm>
                </au>
             </aug>
             <source>Eur J Pub Health</source>
             <pubdate>2013</pubdate>
             <volume>23</volume>
             <fpage>725</fpage>
             <lpage>726</lpage>
             <xrefbib>
                <pubidlist>
                   <pubid idtype="doi">10.1093/eurpub/ckt110</pubid>
                </pubidlist>
             </xrefbib>
          </bibl>
          <bibl id="B49">
             <title>
                <p>The economic crisis and cancer chemotherapy: the role of the oncologist</p>
             </title>
             <aug>
                <au>
                   <snm>Rescigno</snm>
                   <fnm>P</fnm>
                </au>
                <au>
                   <snm>Imbevaro</snm>
                   <fnm>S</fnm>
                </au>
                <au>
                   <snm>Jirillo</snm>
                   <fnm>A</fnm>
                </au>
             </aug>
             <source>Tumori</source>
             <pubdate>2012</pubdate>
             <volume>98</volume>
             <fpage>532</fpage>
             <lpage>533</lpage>
             <xrefbib>
                <pubidlist>
                   <pubid idtype="pmpid" link="fulltext">23052172</pubid>
                </pubidlist>
             </xrefbib>
          </bibl>
          <bibl id="B50">
             <title>
                <p>ONG&#8217;s en crisis y crisis en las ONG&#8217;sun fin de ciclo en el &#8220;oenege&#237;smo&#8221; en Espa&#241;a</p>
             </title>
             <aug>
                <au>
                   <snm>G&#243;mez Gil</snm>
                   <fnm>C</fnm>
                </au>
             </aug>
             <source>Temas para el debate, abr</source>
             <pubdate>2013</pubdate>
             <volume>221</volume>
             <fpage>23</fpage>
             <lpage>25</lpage>
          </bibl>
          <bibl id="B51">
             <title>
                <p>The impact of the International Monetary Fund&#8217;s macroeconomic policies on the AIDS pandemic</p>
             </title>
             <aug>
                <au>
                   <snm>Baker</snm>
                   <fnm>BK</fnm>
                </au>
             </aug>
             <source>Int J Health Serv</source>
             <pubdate>2010</pubdate>
             <volume>40</volume>
             <fpage>347</fpage>
             <lpage>363</lpage>
             <xrefbib>
                <pubidlist>
                   <pubid idtype="doi">10.2190/HS.40.2.p</pubid>
                   <pubid idtype="pmpid" link="fulltext">20440979</pubid>
                </pubidlist>
             </xrefbib>
          </bibl>
          <bibl id="B52">
             <aug>
                <au>
                   <snm>Lincoln</snm>
                   <fnm>YS</fnm>
                </au>
                <au>
                   <snm>Guba</snm>
                   <fnm>EG</fnm>
                </au>
             </aug>
             <source>Naturalistic Inquiry</source>
             <publisher>Sage Publications, London</publisher>
             <pubdate>1985</pubdate>
          </bibl>
       </refgrp>
    </bm>
 </art>