<art>
    <ui>s12935-014-0093-9</ui>
    <ji>1475-2867</ji>
    <fm>
       <dochead>Primary research</dochead>
       <bibl>
          <title>
             <p>Human umbilical cord mesenchymal stem cells promote carcinoma growth and lymph node metastasis when co-injected with esophageal carcinoma cells in nude mice</p>
          </title>
          <aug>
             <au id="A1">
                <snm>Yang</snm>
                <fnm>Xiaoya</fnm>
                <insr iid="I1"/>
                <email>yangxy1979@gmail.com</email>
             </au>
             <au id="A2">
                <snm>Li</snm>
                <fnm>Zhu</fnm>
                <insr iid="I1"/>
                <email>22544902@qq.com</email>
             </au>
             <au id="A3">
                <snm>Ma</snm>
                <fnm>Yintu</fnm>
                <insr iid="I1"/>
                <email>27369342@qq.com</email>
             </au>
             <au id="A4">
                <snm>Gao</snm>
                <fnm>Jun</fnm>
                <insr iid="I1"/>
                <email>dengaiai1415@yahoo.com.cn</email>
             </au>
             <au id="A5">
                <snm>Liu</snm>
                <fnm>Surui</fnm>
                <insr iid="I1"/>
                <email>13933112674@139.com</email>
             </au>
             <au id="A6">
                <snm>Gao</snm>
                <fnm>Yuhua</fnm>
                <insr iid="I1"/>
                <email>18033827074@139.com</email>
             </au>
             <au ca="yes" id="A7">
                <snm>Wang</snm>
                <fnm>Gengyin</fnm>
                <insr iid="I1"/>
                <email>shuxueke12@gmail.com</email>
             </au>
          </aug>
          <insg>
             <ins id="I1">
                <p>Blood Transfusion Department, The Bethune International Peace Hospital, Shijiazhuang 050082, Hebei, P R. China</p>
             </ins>
          </insg>
          <source>Cancer Cell International</source>
          <issn>1475-2867</issn>
          <pubdate>2014</pubdate>
          <volume>14</volume>
          <issue>1</issue>
          <fpage>93</fpage>
          <url>http://www.cancerci.com/content/14/1/93</url>
          <xrefbib>
             <pubidlist>
                <pubid idtype="doi">10.1186/s12935-014-0093-9</pubid>
                <pubid idtype="pmpid">25298750</pubid>
             </pubidlist>
          </xrefbib>
       </bibl>
       <history>
          <rec>
             <date>
                <day>23</day>
                <month>1</month>
                <year>2014</year>
             </date>
          </rec>
          <acc>
             <date>
                <day>5</day>
                <month>9</month>
                <year>2014</year>
             </date>
          </acc>
          <pub>
             <date>
                <day>24</day>
                <month>9</month>
                <year>2014</year>
             </date>
          </pub>
       </history>
       <cpyrt>
          <year>2014</year>
          <collab>Yang et al.; licensee BioMed Central Ltd.</collab>
          <note>This is an Open Access article distributed under the terms of the Creative Commons Attribution License (<url>http://creativecommons.org/licenses/by/2.0</url>), which permits unrestricted use, distribution, and reproduction in any medium, provided the original work is properly credited. The Creative Commons Public Domain Dedication waiver (<url>http://creativecommons.org/publicdomain/zero/1.0/</url>) applies to the data made available in this article, unless otherwise stated.</note>
       </cpyrt>
       <kwdg>
          <kwd>Umbilical cord</kwd>
          <kwd>Mesenchymal stem cells</kwd>
          <kwd>Esophageal carcinoma</kwd>
          <kwd>Metastasis</kwd>
          <kwd>Tumor growth</kwd>
       </kwdg>
       <abs>
          <sec>
             <st>
                <p>Abstract</p>
             </st>
             <sec>
                <st>
                   <p>Background</p>
                </st>
                <p>Human umbilical cord blood derived-mesenchymal stem cells (hUCMSCs) offer an attractive alternative to bone marrow-derived MSCs (BMMSCs) for cell-based therapy as it is a less invasive source of biological material. However, limited studies have been conducted with hUCMSCs as compared to BMMSCs. The present study was conducted to evaluate the effects of hUCMSCs in esophageal carcinoma (EC).</p>
             </sec>
             <sec>
                <st>
                   <p>Methods</p>
                </st>
                <p>hUCMSCs together with EC cells were transplanted subcutaneously into BALB/c nude mice to observe the effects of hUCMSCs on tumor establishment. hUCMSCs injected through the caudal vein to the mice with pre-established EC to observe the effects of hUCMSCs on tumor outgrowth. In order to elucidate the underlying mechanisms, we also performed in vitro experiments including directly co-culture, transwell assay, proliferation assay and western blotting analysis.</p>
             </sec>
             <sec>
                <st>
                   <p>Results</p>
                </st>
                <p>hUCMSCs promoted EC formation in nude mice. In the in vivo model of pre-established EC, intravenously injected hUCMSCs potently promoted tumor growth. When in vitro co-cultured with hUCMSCs, EC cells proliferation increased. After co-cultured with hUCMSCs through transwell system, EC cells showed increased proliferation. Through transwell assay, we also observed that EC cells recruited MSCs, and MSCs promoted EC cells migration and invasion. Western blotting data showed that the expressions of proliferation related proteins Bcl-2, survivin and metastasis related proteins MMP-2 and MMP-9 were up-regulated in the EC cells transwell co-cultured with hUCMSCs.</p>
             </sec>
             <sec>
                <st>
                   <p>Conclusions</p>
                </st>
                <p>Our results indicated that hUCMSCs could favor tumor growth in vivo and in vitro. Thus, the exploitation of hUCMSCs in new therapeutic strategies should be cautious under the malignant conditions.</p>
             </sec>
          </sec>
       </abs>
    </fm>
    <bdy>
       <sec>
          <st>
             <p>1
 						Background</p>
          </st>
          <p>Mesenchymal stem cells (MSCs) were first identified by Friedenstein and were described as an adherent, fibroblast-like population in the in vitro culture of bone marrow, which were also found to be able to differentiate into bone in vivo <abbrgrp>
                <abbr bid="B1">1</abbr>
             </abbrgrp> Subsequently, the concept expanded, it proved that MSCs are not only bone marrow resident cells but are also found in many other tissues of the body including adipose, umbilical cord, fetal liver, muscle and lung <abbrgrp>
                <abbr bid="B2">2</abbr>
             </abbrgrp>-<abbrgrp>
                <abbr bid="B4">4</abbr>
             </abbrgrp>. MSCs possess an innate ability for self-renewal and can differentiate into multiple cell types, such as osteocytes, adipocytes, chondrocytes, myocytes, cardiomyocytes, fibroblasts, myofibroblasts, epithelial cells, and neurons <abbrgrp>
                <abbr bid="B5">5</abbr>
             </abbrgrp>. Accumulating studies of the past few years support their use for treating both genetic and acquired human diseases associated to loss of specialized tissues <abbrgrp>
                <abbr bid="B6">6</abbr>
             </abbrgrp>,<abbrgrp>
                <abbr bid="B7">7</abbr>
             </abbrgrp>. In addition, MSCs have received intensive attention in the field of tumors. Tumor tissue contains abundant growth factors, cytokines and matrix-remodeling proteins, explaining why tumors are likened to wounds that never heal <abbrgrp>
                <abbr bid="B8">8</abbr>
             </abbrgrp>. It has been reported that MSCs migrate to a variety of tumors, this migratory ability points to MSCs as attractive candidates for delivery vehicles of antitumor agents <abbrgrp>
                <abbr bid="B9">9</abbr>
             </abbrgrp>,<abbrgrp>
                <abbr bid="B10">10</abbr>
             </abbrgrp>. However, several co-injection experiments in animal studies revealed that MSCs promote tumor growth and metastasis <abbrgrp>
                <abbr bid="B11">11</abbr>
             </abbrgrp>,<abbrgrp>
                <abbr bid="B12">12</abbr>
             </abbrgrp> which would present a serious obstacle to using MSCs as delivery vehicles for anti-cancer therapy. But prior studies on the biology and therapeutic application of human MSCs in human malignancies have reported mixed results. MSCs injected intravenously in a mouse model of Kaposi&#8217;s sarcoma were shown to home to sites of tumorigenesis and potently inhibit tumor growth <abbrgrp>
                <abbr bid="B13">13</abbr>
             </abbrgrp>. MSCs have also been shown to have anti-angiogenic effect both in vitro and in mouse models of melanoma <abbrgrp>
                <abbr bid="B14">14</abbr>
             </abbrgrp>. The inconsistent results are clear indicators that the effect of MSCs on tumor cells is poorly understood and need further investigation.</p>
          <p>Mesenchymal stem cells used in the experiment are mostly acquired from adult BM. Wharton&#8217;s jelly (WJ) of the umbilical cord exhibits the characteristics of stromal cells and is a novel source of mesenchymal stem cells <abbrgrp>
                <abbr bid="B15">15</abbr>
             </abbrgrp>. Mesenchymal stem cells that are derived from WJ of human umbilical cord (hUCMSCs) have been shown to evidence characteristics similar to those of bone marrow stromal cells (BMSCs). Compared to BMMSCs, UCMSCs have many advantages to use in cell-based therapy because of their relatively large ex vivo expansion capacity, low risk of viral infection, lack of donor morbidity, and less pronounced immunogenicity <abbrgrp>
                <abbr bid="B16">16</abbr>
             </abbrgrp>-<abbrgrp>
                <abbr bid="B18">18</abbr>
             </abbrgrp>. So, it offers an attractive alternative to BMSCs for cell-based therapy. However, the MSCs used in the foundation researches and clinical experiments are mostly acquired from adult BM. Though similarly, there were evidence showed that hUCMSCs have unique properties compared to BMMSCs <abbrgrp>
                <abbr bid="B19">19</abbr>
             </abbrgrp>. However, there is little data on the relationship between hUCMSCs and tumors.</p>
          <p>To explore the role of hUCMSCs on tumors, we studied the effects of human hUCMSCs on the esophageal carcinoma (EC) because it occurs with high prevalence in many areas of the world especially in China <abbrgrp>
                <abbr bid="B20">20</abbr>
             </abbrgrp>,<abbrgrp>
                <abbr bid="B21">21</abbr>
             </abbrgrp>. We investigated the influence of hUCMSCs on EC growth in vivo. We also investigate in vitro co-culture of two different types of EC cell lines with hUCMSCs to explore the mechanism that how hUCMSCs affected tumor growth.</p>
       </sec>
       <sec>
          <st>
             <p>2
 						Results</p>
          </st>
          <sec>
             <st>
                <p>2.1 Characteristics of hUCMSCs derived from human umbilical cord</p>
             </st>
             <p>The isolated clonogenic hUCMSCs were analyzed by the flow cytometry analysis and gated for granularity, size and surface markers. The gated cells were analyzed for the expression of cell membrane proteins markers and found to be negative for the expression of hematopoietic markers such as CD45, CD14, CD19 and also HLA-DR (MHC II) and CD34 (endothelial/hematopoietic stem cell markers), but were positive for CD29, CD44, CD73, CD90 and CD105, which are generally considered for markers of mesenchymal stem cells (Figure&#160;<figr fid="F1">1</figr>A). These observations demonstrate that cells that are isolated from WJ of the human umbilical cord have the same surface markers as BMMSCs. The cultured cells were also tested for their potential to differentiate into osteogenic or adipogenic cells prior to use. The effectiveness of osteogenic differentiation was confirmed by histochemical staining for the identification of Ca2+ crystals by Alizarin Red staining (Figure&#160;<figr fid="F1">1</figr>B). The effectiveness of adipogenic differentiation was confirmed by histochemical staining for the identification of neutral lipid vacuoles by Oil red O staining (Figure&#160;<figr fid="F1">1</figr>C). Thus, the isolated cells met the essential criteria used to define MSCs.</p>
             
                <fig id="F1">
                   <title>
                      <p>Figure 1</p>
                   </title>
                   <caption>
                      <p>Characteristics of hUCMSCs derived from human umbilical cord. (A)</p>
                   </caption>
                   <text>
                      <p>
                         <b>Characteristics of hUCMSCs derived from human umbilical cord. (A)</b> Flow cytometric histograms showing the immunophenotype of umbilical vein mesenchymal stem cells. The cells were analyzed by their physical parameters: granularity and size. The gated cells were negative for the hematopoietic line markers CD45, CD14, CD19 and for HLA-DR and CD34. Analyzed cells were positive for CD29, CD73, CD90, CD44 and CD105, which are considered to be markers of mesenchymal stem cells. Isotype controls show non-specific fluorescence. <b>(B)</b> HUCMSCs differentiate into osteoblasts. Calcium deposition, indicative of osteoblasts, was stained with Alizarin Red stain. <b>(C)</b> HUCMSCs differentiate into adipocytes. The presence of triglycerides, characteristic of adipocytes, was revealed by staining with oil red O.</p>
                   </text>
                   <graphic file="s12935-014-0093-9-1"/>
                </fig>
             
          </sec>
          <sec>
             <st>
                <p>2.2 hUCMSCs favor esophageal cancer growth in vivo</p>
             </st>
             <p>To assess the effect of hUCMSCs on esophageal cancer formation <it>in vivo</it>, human esophageal squamous cancer cells (Eca109 cell line, 5&#8201;&#215;&#8201;10<sup>6</sup> per mouse) were injected subcutaneously into the Armpit region of nude mice alone or mixed with hUCMSCs (5&#8201;&#215;&#8201;10<sup>6</sup> per mouse). All of the mice developed growing tumors at the injection sites, and the mice that had received injections of Eca109 and hUCMSCs mixed cells (marked as Eca109&#8201;+&#8201;hUCMSCs group, n&#8201;=&#8201;5) developed bigger tumors than that were observed in the mice injected solely with cancer cells (Eca109 group, n&#8201;=&#8201;5) (Figure&#160;<figr fid="F2">2</figr>A). This observation implied that hUCMSCs could promote esophageal cancer formation in nude mice. Because tumor establishment and subsequent tumor growth are distinct biological processes, we sought to determine whether hUCMSCs exerted similar effects in animals with pre-established esophageal tumors. To test this, 5&#8201;&#215;&#8201;10<sup>6</sup> Eca109 cells were inoculated in the right Armpit on day 0. Palpable tumors were appreciated in all animals by day 20. A subset of animals was then injected with 5&#8201;&#215;&#8201;10<sup>6</sup> hUCMSCs on days 20, 25, and 30 through their caudal vein. These mice were marked as Eca109, iv hUCMSCs group (n&#8201;=&#8201;6). After injection of exogenous hUCMSCs through the caudal vein, the volume of tumor was measured at four-day intervals until sacrifice of the animal. Enhanced tumor volume was observed from day16 after injection of hUCMSCs. (p&#8201;&lt;&#8201;0.05) (Figure&#160;<figr fid="F2">2</figr>B). We also found that tumors formed by Eca109 cells admixed with hUCMSCs also increased in blood vessel formation in gross analysis, compared with tumors formed by Eca109 alone (Figure&#160;<figr fid="F2">2</figr>C).</p>
             
                <fig id="F2">
                   <title>
                      <p>Figure 2</p>
                   </title>
                   <caption>
                      <p>hUCMSCs favor esophageal cancer growth in vivo. (A)</p>
                   </caption>
                   <text>
                      <p>
                         <b>hUCMSCs favor esophageal cancer growth in vivo. (A)</b> HUCMSCs promoted the esophageal tumors formation in nude mice. The results were expressed as mean&#8201;&#177;&#8201;S.D. *P&#8201;&lt;&#8201;0.05, Eca109&#8201;+&#8201;hUCMSCs versus Eca109. <b>(B)</b> HUCMSCs promoted the pre-established esophageal tumors growth in nude mice. *P&#8201;&lt;&#8201;0.05, Eca109, i.v. hUCMSCs versus Eca109. <b>(C)</b> On the 44th day after implantation, the mice were killed. Tumors formed by Eca109 cells admixed with hUCMSCs increased in blood vessel formation in gross analysis. <b>(D)</b> Lymph node metastasis was seen in the group that mixed Eca109 cells and hUCMSCs were injected.</p>
                   </text>
                   <graphic file="s12935-014-0093-9-2"/>
                </fig>
             
             <p>Taken together, these observations implied that the formation and development of esophageal cancer were promoted in response to exogenous hUCMSCs.</p>
          </sec>
          <sec>
             <st>
                <p>2.3 Increase in the number of lymph node metastases by injection of Eca109 cells mixed with hUCMSCs</p>
             </st>
             <p>The 16 mice are all alive on day 44. Surviving nude mice were killed. The ipsilateral and contralateral axillary lymph nodes of the nude mice were collected. Every mouse has two ipsilateral axillary lymph nodes and two contralateral axillary lymph nodes. After H&amp;E staining, we found 2 lymph nodes metastases in the 20 lymph nodes of 5 mice that received mixed-cell (Figure&#160;<figr fid="F2">2</figr>D). In contrast, lymphatic metastasis was not detected in the other two groups of mice. This result indicated, in a manner, that hUCMSCs enhanced lymph node metastasis of esophageal carcinoma.</p>
          </sec>
          <sec>
             <st>
                <p>2.4 hUCMSCs promote the proliferation of tumor cells in vitro</p>
             </st>
             <p>To understand the mechanisms underlying the in vivo promotion of tumor growth by the injected hUCMSCs, we assessed the proliferation of esophageal squamous cancer cells during their co-culture with hUCMSCs. Considering that using only one esophageal squamous cancer cell line had its limitations in supporting any conclusion, we used two esophageal squamous cancer cell lines, Eca109 and TE-1, in the following experiments. When esophageal cancer cells were directly co-cultured with hUCMSCs in a 24-well plate, the cells proliferation increased significantly when compared with the control group (Figure&#160;<figr fid="F3">3</figr>A). To investigate whether hUCMSCs promote tumor cells proliferation through secreting soluble factors, a transwell assay that physically separated hUCMSCs from tumor cells in co-culture system was performed in parallel. Transwell system allows for the effect of soluble factors, but prevents direct cell-cell contact. The statistically significant difference was observed between transwell co-culture group and the control group (Figure&#160;<figr fid="F3">3</figr>B). The result suggested that hUCMSCs could promote esophageal cancer cell proliferation through the soluble factors they secrete.</p>
             
                <fig id="F3">
                   <title>
                      <p>Figure 3</p>
                   </title>
                   <caption>
                      <p>Proliferation of esophageal cancer cells is promoted by hUCMSCs in vitro. (A)</p>
                   </caption>
                   <text>
                      <p>
                         <b>Proliferation of esophageal cancer cells is promoted by hUCMSCs in vitro. (A)</b> Esophageal cancer cells and hUCMSCs were performed directly contacting co-culture. Before co-cultured with esophageal cancer cells, hUCMSCs were treated with mitomycin C (20&#160;&#956;g/ml) to prevent cell proliferation. Then esophageal cancer cells were co-cultured with hUCMSCs for 48&#160;hours. Separately cultured cancer cells and mitomycin-treated hUCMSCs were used as control. <b>(B)</b> Eca109 and TE-1 cells were co-cultured with hUCMSCs by using the transwell co-culture systems for 48&#160;h, and then, cells were harvested for proliferation assays. The results are shown as mean&#8201;&#177;&#8201;SD of three independent experiments in comparison with that of controls not co-cultured with hUCMSCs (*P&#8201;&lt;&#8201;0.05 versus control).</p>
                   </text>
                   <graphic file="s12935-014-0093-9-3"/>
                </fig>
             
          </sec>
          <sec>
             <st>
                <p>2.5 Esophageal cancer cells attracted hUCMSCs in vitro</p>
             </st>
             <p>have the ability to attract hUCMSCs in vitro, migration assay was performed. We found that more hUCMSCs migrated toward the Eca109 or TE-1 cell culture than toward the medium without esophageal cancer cells (Figure&#160;<figr fid="F4">4</figr>). Co-cultured with Eca109 cells resulted in an 8.9 fold increased number of migrated cells compared with the controls. Co-cultured with TE-1 cells resulted in a 7.8 fold increased number of migrated hUCMSCs compared with the controls.</p>
             
                <fig id="F4">
                   <title>
                      <p>Figure 4</p>
                   </title>
                   <caption>
                      <p>Esophageal cancer cells attract hUCMSCs in vitro.</p>
                   </caption>
                   <text>
                      <p>
                         <b>Esophageal cancer cells attract hUCMSCs in vitro.</b> The migratory ability of hUCMSCs was analyzed by transwell assay. A significantly greater number of hUCMSCs migrated toward the culture of esophageal cancer cells (Eca109 or TE-1) than toward the medium without esophageal cancer cells. The number of cells was counted in five fields per Transwell membrane. Each group consisted of three duplicates. (&#8727;p&#8201;&lt;&#8201;0.05 versus control).</p>
                   </text>
                   <graphic file="s12935-014-0093-9-4"/>
                </fig>
             
          </sec>
          <sec>
             <st>
                <p>2.6 hUCMSCs promoted esophageal cancer cells migration and invasion in vitro</p>
             </st>
             <p>Migration and invasion of cancer cells is an essential step of cancer metastasis. Since we found that hUCMSCs enhanced the lymph node metastasis of esophageal cancer, the impact of hUCMSCs on esophageal cancer cell migration and invasion was further investigated using transwell assay. Esophageal cancer cells (Eca109 and TE-1 cells) co-cultured with hUCMSCs showed a relative higher ability of migration. Co-cultured with hUCMSCs resulted in an increased number of migrated cells (2.3 fold for Eca109 and 3.3 fold for TE-1) compared with the controls (Figure&#160;<figr fid="F5">5</figr>A). In the invasion assay, esophageal cancer cells were seeded into transwell millicell precoated with Matrigel which imitates the extracellular matrix. Cells migrating through the matrix were stained. For Eca109 cells, the ratio of cells invading through matrigel was 110% more in hUCMSCs co-cultured cells than control cells. And co-culturing with hUCMSCs increased TE-1 cells invasion by 220% (Figure&#160;<figr fid="F5">5</figr>B).</p>
             
                <fig id="F5">
                   <title>
                      <p>Figure 5</p>
                   </title>
                   <caption>
                      <p>hUCMSCs promotes migration and invasion of esophageal cancer cells in vitro. (A)</p>
                   </caption>
                   <text>
                      <p>
                         <b>hUCMSCs promotes migration and invasion of esophageal cancer cells in vitro. (A)</b> Effects of hUCMSCs on esophageal cancer cells migration. <b>(B)</b> Effects of hUCMSCs on esophageal cancer cells invasion. The number of cells was counted in five fields per Transwell membrane. Each group consisted of three duplicates. (&#8727;p&#8201;&lt;&#8201;0.05 versus control).</p>
                   </text>
                   <graphic file="s12935-014-0093-9-5"/>
                </fig>
             
          </sec>
          <sec>
             <st>
                <p>2.7 Molecular expression changes in esophageal cancer cells co-cultured with hUCMSCs by transwell system</p>
             </st>
             <p>Bcl-2, Bax and survivin are molecules associated with the proliferation and apoptosis of tumor cells. MMP-2 and MMP-9 are the important proteins associated with tumor cells invasion characteristic. In order to find out the molecular mechanism underlying the promotion effect of hUCMSCs on tumor cells in vitro, we investigated the expressions of these proteins in tumor cells by Real-time RT-PCR (Figure&#160;<figr fid="F6">6</figr>A) and Western blotting (Figure&#160;<figr fid="F6">6</figr>B and C). The results showed that co-cultured Eca109 cells with hUCMSCs by transwell chamber for 48&#160;h resulted in the significant up-regulation of expression levels of Bcl-2, survivin, MMP-2 and MMP-9 as compared to controls. TE-1 cells co-cultured with hUCMSCs for 48&#160;h resulted in increased Bcl-2, survivin and MMP-2 protein levels as compared to controls.</p>
             
                <fig id="F6">
                   <title>
                      <p>Figure 6</p>
                   </title>
                   <caption>
                      <p>Molecular changes in esophageal cancer cells co-cultured with hUCMSCs.</p>
                   </caption>
                   <text>
                      <p>
                         <b>Molecular changes in esophageal cancer cells co-cultured with hUCMSCs.</b> The expressions of Bcl-2, Bax, survivin, MMP-2, MMP-9 in Eca109 cells or TE-1 cells were detected by qRT-PCR and Western blotting. Quantitative analysis showed that co-cultured Eca109 cells with hUCMSCs by transwell chamber significantly increased mRNA <b>(A)</b> levels and protein <b>(C)</b> levels of Bcl-2, survivin, MMP-2 and MMP-9. TE-1 cells co-cultured with hUCMSCs resulted in increased Bcl-2, survivin and MMP-2 mRNA <b>(A)</b> levels and protein <b>(C)</b> levels as compared to controls. <b>(B)</b> Representative Western blotting images. The results were the means&#8201;&#177;&#8201;SD of three independent experiments (*P&#8201;&lt;&#8201;0.05 versus control).</p>
                   </text>
                   <graphic file="s12935-014-0093-9-6"/>
                </fig>
             
          </sec>
       </sec>
       <sec>
          <st>
             <p>3
 						Discussion</p>
          </st>
          <p>The aim of the current study was to study the interaction between hUCMSCs and esophageal carcinoma. hUCMSCs were transplanted into BALB/c nude mice in an effort to observe the outgrowth of the tumor. The results indicated that all of the groups into which mixed cells were injected evidenced larger tumor size than the groups injected solely with Eca109 cells, thereby indicating that hUCMSCs could favor esophageal tumor formation. Furthermore, we also found that in the mice with pre-established esophageal carcinoma, i.v. injection of hUCMSCs also promoted the tumor growth.</p>
          <p>Multiple mechanisms may be responsible for the hUCMSCs induced increase of tumorigenesis and tumor growths. hUCMSCs have been shown to have immunmodulatory action in vivo and in vitro <abbrgrp>
                <abbr bid="B22">22</abbr>
             </abbrgrp>,<abbrgrp>
                <abbr bid="B23">23</abbr>
             </abbrgrp>. In this experiment, we used nude mice for xenotransplantation. Therefore, increased allogenic tolerance via co-injection with hUCMSCs cannot provide a reasonable explanation for this phenomenon.</p>
          <p>In this study, we offer two possible explanations for the enhanced tumor growth in response to hUCMSCs. Firstly, hUCMSCs directly stimulate the growth of esophageal cancer cells. The findings of this study, namely that the mixed culture or cultured by transwell system with hUCMSCs increased the proliferation of esophageal cancer cells in vitro, indicated that hUCMSCs induce the increased proliferation of transplanted tumor cells. It also appears that the promoted effects of hUCMSCs on esophageal carcinoma cells may be both cell-contact dependent as well as mediated via diffusible factors secreted by the hUCMSCs. It was difficult to distinguish tumor cells from hUCMSCs directly cocultured with them, so we only detected the molecular changes in the tumor cells induced by the hUCMSCs-transwell co-culture. The in vitro molecular data showed that the increase in the proliferation of tumor cells were associated with the up-regulation of Bcl-2 and survivin expressions.</p>
          <p>In vivo, we observed that tumors formed by Eca109 cells admixed with hUCMSCs increased in blood vessel formation in gross analysis, compared with tumors formed by Eca109 alone. Angiogenesis is critical for tumor growth so that the blood vessel in the tumor environment could provide sufficient nutrients and oxygen to the cells, which are essential for the growth and survival of tumor cells <abbrgrp>
                <abbr bid="B24">24</abbr>
             </abbrgrp>. It is known that MSCs could produce various growth factors that stimulate angiogenesis, <abbrgrp>
                <abbr bid="B25">25</abbr>
             </abbrgrp> so it is possible that enhanced angiogenesis may account for the esophageal tumor growth-promoting effects by hUCMSCs.</p>
          <p>In addition, we noticed that in the 20 axillary lymph nodes of 5 mice received mixed-cell 2 lymph nodes metastases were observed, but lymphatic metastasis was not detected in the other two groups of mice. Our results from in vitro assays showed that hUCMSCs promoted migration and invasion ability of esophageal carcinoma cells in vitro. In our in vitro molecular experiment, MMP-2 and MMP-9 were found to be up regulated in EC cells co cultured with hUCMSCs. Since MMP-2 and MMP-9 promotes cell migration and invasion, <abbrgrp>
                <abbr bid="B26">26</abbr>
             </abbrgrp>,<abbrgrp>
                <abbr bid="B27">27</abbr>
             </abbrgrp> this may be possible mechanism in which hUCMSCs promote esophageal carcinoma cells invasion and thus may be a possible explanation for hUCMSCs promoted the lymph node metastasis of esophageal cancer.</p>
          <p>In a paper published in 2010, Li&#8217;s results revealed that hMSCs inhibited the proliferation and invasion of Eca-109 cells in vitro <abbrgrp>
                <abbr bid="B28">28</abbr>
             </abbrgrp>. It&#8217; seems that their result is quite different from ours. But the MSCs they investigated were derived from bone marrow. The different sources of MSCs for assessment may be one of the factors accounting for the variability results of pro-tumorigenic or anti-tumorigenic effects. In agreement with this, results of Akimoto&#8217;s study demonstrated that umbilical cord blood-derived mesenchymal stem cells inhibit, but adipose tissue-derived mesenchymal stem cells promote glioblastoma multiforme proliferation <abbrgrp>
                <abbr bid="B29">29</abbr>
             </abbrgrp>. So, differences must be considered when choosing a stem cell source for safety in clinical application.</p>
       </sec>
       <sec>
          <st>
             <p>4
 						Conclusions</p>
          </st>
          <p>hUCMSCs offers an attractive alternative to hBMMSCs for cell-based therapy as it is a less invasive source of biological material. However, our results indicated that hUCMSCs could favor esophageal carcinoma growth in vitro and in nude mice model. There were a potential limitation of our experimental designs, as the immune deficient mice does not reflect the real conditions of human beings, whether our results can be extrapolated to humans requires further investigation. However, the data obtained in this study still ringed alarm in using hUCMSCs as therapeutic application for humans in the future. So we suggested that exploitation of hUCMSCs in new therapeutic strategies should be cautious under the malignant conditions, at least under the esophageal carcinoma condition.</p>
       </sec>
       <sec>
          <st>
             <p>5
 						Methods</p>
          </st>
          <sec>
             <st>
                <p>5.1 Cell culture</p>
             </st>
             <p>The human esophageal cancer cell lines Eca109 and TE-1 was purchased from the Cell Bank of the Chinese Academy of Sciences (Shanghai, China), where they were characterized by mycoplasma detection, DNA-Fingerprinting, isozyme detection and cell vitality detection. The cell lines were maintained in culture as an adherent monolayer in RPMI-1640 (GIBCO) medium supplemented with 10% FBS. All cells were incubated at 37&#176;C in 5% CO<sub>2</sub> humidified cell culture incubator.</p>
          </sec>
          <sec>
             <st>
                <p>5.2 hUCMSCs preparation</p>
             </st>
             <p>Human umbilical cord samples were collected from 8 healthy donors. Written informed consent was obtained from the pregnant women before labor. The umbilical cord samples were collected in sterile boxes that contained PBS solution. The collected human umbilical cord tissues were washed three times with Ca2+ and Mg2&#8201;+&#8201;&#8722;free PBS. They were mechanically cut by scissors in a midline direction and the vessels of the umbilical artery, vein and outlining membrane were dissociated from the WJ. The jelly was then extensively cut into pieces smaller than 0.5&#160;cm<sup>3</sup>. The explants then were cultured in DMEM/F12 (1:1) containing 10% fetal calf serum (FCS). They were left undisturbed for five to seven days to allow for migration of the cells from the explants. The cellular morphology became homogenously spindle-shaped in cultures after 4&#8211;8 passages.</p>
          </sec>
          <sec>
             <st>
                <p>5.3 HUCMSCs identification</p>
             </st>
             <p>The ability of MSCs to differentiate into osteoblasts and adipocytes was confirmed prior to use. Osteogenic differentiation was evaluated by calcium deposition staining using the Alizarin Red staining. The induction of adipogenic differentiation was apparent by intracellular accumulation of lipid-rich vacuoles that stained with Oil Red O. The specific surface molecules of HUCMSCs were characterized by flow cytometric analysis. The cells were stained with the following antibodies: CD14-FITC, CD19-ECD, CD29-FITC, CD34-PE, CD44-FITC, CD45-FITC, CD73-PE, CD90-FITC, CD105-PE, HLA-DR-FITC (BD Pharmingen, USA). Thereafter, the cells were analyzed using a Becton Dickinson flow cytometer (Becton Dickinson, San Jose, CA).</p>
          </sec>
          <sec>
             <st>
                <p>5.4 Animal experiments</p>
             </st>
             <p>36 female BALB/c nude mice (4-week-old) were purchased from the Beijing HFK Bioscience CO., LTD. Animals used in this study were maintained in accordance with the Policy of Animal Care and Use Committee of Bethune International Peace Hospital. Animals were housed in micro-isolator cages under sterile conditions and observed for at least 1&#160;week to ensure proper health before study initiation. Animals were injected with 5&#8201;&#215;&#8201;10<sup>6</sup> Eca109 cells alone or mixed with an equal number of hUCMSCs, subcutaneously into the Armpit region. Treatment with hUCMSCs was also conducted in animals with pre-established tumors by i.v. tail vein injection at a dose of 5&#8201;&#215;&#8201;10<sup>6</sup> per mouse. In some experiments, mice were given additional doses of hUCMSCs by tail vein injection. Tumor growth and progression were monitored by every four days measurements of tumors with calipers. The volume of tumor was calculated by using the following equation as reported previously <abbrgrp>
                   <abbr bid="B30">30</abbr>
                </abbrgrp>: volume&#8201;=&#8201;Length&#8201;&#215;&#8201;Width<sup>2</sup>/2.</p>
          </sec>
          <sec>
             <st>
                <p>5.5 Histopathology and immunhistochemistry</p>
             </st>
             <p>At the indicated time points, the animals were sacrificed. After which tumors were dissected out. The ipsilateral and contralateral axillary lymph nodes of the nude mice were also collected. Then the tumor tissues and the lymph nodes were fixed in 10% formaldehyde and processed using standard methods. The sections were stained using hematoxylin and eosin (H&amp;E) in order to examine the histopathology.</p>
          </sec>
          <sec>
             <st>
                <p>5.6 Cell migration and invasion experiment</p>
             </st>
             <p>For the invasion assay, 24 well Transwell chambers (8.0&#160;&#956;m pore, Corning, USA) were coated with a 50&#160;&#956;l Matrigel (BD, Franklin Lakes). For migration assays, the ECMgel was not needed. Tumor cells were cultured for 24&#160;h in the mixture of tumor cell culture medium and hUCMSCs-conditioned medium (1:1), and in control groups tumor cells were cultured for 24&#160;h in the tumor cell culture medium supplemented with 50% DMEM/F12 (1:1) medium, and then tumor cells were collected and resuspended in the FBS-free RPMI 1640 medium at a concentration of 5&#8201;&#215;&#8201;10<sup>5</sup> cell per ml by cell counting for three times. Then, the cell suspensions were put into the upper compartment of the transwell chambers (200&#160;&#956;l/well), and hUCMSCs (5000/well) was put into the lower compartment. After cultured for 24&#160;h, the cells that did not penetrate the polycarbonate membrane at the bottom of the chamber were wiped off with cotton stickers. The membrane was removed and fixed with methanol and stained with Crystal Violet. Five vision fields were randomly selected under microscope and the number of cells that penetrated the membrane was counted. Each group consisted of three duplicates.</p>
             <p>The migratory ability of hUCMSCs was also assayed by means of a 24-well microchamber plate with uncoated inserts (8.0&#160;&#956;m pore). Either 2.0&#8201;&#215;&#8201;10<sup>4</sup> Eca109 or TE-1 cells in DMEM with 0.5% FBS or medium alone was plated into the lower chambers. After 4&#160;hours of incubation at 37&#176;C, upper chambers containing 2.0&#8201;&#215;&#8201;10<sup>4</sup> hUCMSCs in DMEM were set into the lower chambers. Three wells were used for each experiment. After 16&#160;hours of incubation, inserts were fixed with methanol and stained with Crystal Violet. The number of migrating cells was determined as described above.</p>
          </sec>
          <sec>
             <st>
                <p>5.7 Cells co-culture and measurement of cell proliferation</p>
             </st>
             <p>Esophageal cancer cells (Eca109 or TE-1 cells) were cultured either in directly contacting co-cultured or in indirectly co-cultured (transwell system) with hUCMSCs. Esophageal cancer cells and hUCMSCs directly contacting co-cultured was performed as follow: hUCMSCs were first seeded into 24 well plates (5&#8201;&#215;&#8201;10<sup>4</sup>/ml, 500ul/well). Following 24&#160;hours of incubation, hUCMSCs were found tight attached to the bottom of the well. Before co-cultured with esophageal cancer cells, hUCMSCs were treated with mitomycin C (20&#160;&#956;g/ml) to prevent cell proliferation. Then esophageal cancer cells (5&#8201;&#215;&#8201;10<sup>4</sup>/ml, 500ul/well) were added to the 24 well plates and co-cultured with hUCMSCs at 37&#176;C for 48&#160;hours. Separately cultured cancer cells and mitomycin-treated hUCMSCs were used as control. Then cell proliferation was determined by Cell Counting Kit-8 (CCK-8, Dojindo, Japan), which allows sensitive colorimetric assays for the determination of the number of viable cells. Before CCK-8 assay, the co-cultured cells and control group cells were detached from the plates. Because the cancer cells can&#8217;t easily separated from direct contact co-cultured hUCMSCs, the separately cultured hUCMSCs and cancer cells were put together as controls.</p>
             <p>In transwell system, hUCMSCs were physically separated from esophageal cancer cells by a transwell membrane with 0.4-&#956;m pore size (Corning, USA.). hUCMSCs were seeded on upper chamber of 24 well stranswell plate and Eca109 or TE-1 cells were seeded on the lower chamber of transwell plate. The cells were co-cultured for 48&#160;hours. The proliferation of cancer cells was assessed by CCK-8 kit (Dojindo, Japan).</p>
             <p>Every group had five wells. All the proliferation experiments were run in triplicate and the results expressed as mean&#8201;&#177;&#8201;SD.</p>
          </sec>
          <sec>
             <st>
                <p>5.8 Real-time RT-PCR</p>
             </st>
             <p>Quantitative PCR was performed using the SYBR Green realtime PCR method. Esophageal cancer cells and hUCMSCs were co-cultured by transwell system for 48&#160;hours. Then, hUCMSCs were collected. Total RNA was isolated from hUCMSCs using an Rneasy Mini Kit (Qiagen, Valencia, CA, USA) and Trizol Reagent (Invitrogen). Quantitative RT-PCR was performed using an ABI 7000 PCR instrument (Applied Biosystems, Foster City, CA, USA). Each sample was tested in triplicate, and the samples obtained from three independent experiments were used for the analysis of relative gene expression using the 2<sup>&#8722;&#9651;&#9651;Ct</sup> method. The following primers were used for real-time PCR:</p><p> human &#946;-actin, F 5&#8242;-cctcgcctttgccgatcc-3&#8242;, R 5&#8242;-ggatcttcatgaggtagtcagtc-3&#8242;;</p>
                <p> human survivin, F 5&#8242;-agccctttcaaggaccac-3&#8242;, R 5&#8242;-gcactttcttcgcagtttcc-3&#8242;;</p>
                <p> human Bcl-2, F 5&#8242;-tggccagggtcagagttaaa-3&#8242;, R 5&#8242;-tggcctctcttgcggagta-3&#8242;;</p>
                <p> human Bax, F 5&#8242;-ttgcttcagggtttcatcca-3&#8242;,R 5&#8242;-agacactcgctcagcttcttg-3&#8242;;</p>
                <p> human MMP-2, F 5&#8242;-tctcctgacattgaccttggc-3&#8242;, R 5&#8242;-caaggtgctggctgagtagatc-3&#8242;;</p>
                <p> human MMP-9, F 5&#8242;-ttggcgacaagaagtgg-3&#8242;, R 5&#8242;-gccattcacgtcgtccttat-3&#8242;.</p>
          </sec>
          <sec>
             <st>
                <p>5.9 Western blotting</p>
             </st>
             <p>Esophageal cancer cells and hUCMSCs were co-cultured by transwell system for 48&#160;hours. Then, hUCMSCs were collected. Equal amounts of whole cell lysates were resolved by SDS-PAGE and electrotransferred on a PVDF membrane. Primary antibody [anti-human survivin (1:2000; Cell Signaling, USA); anti-human Bcl-2, anti-human BAX and anti-human &#946;-actin (1:1000; Dingguo, China), anti-human MMP-2, anti-human MMP-9 (1:1000; proteintech, USA)] incubation was carried out overnight at 4&#176;C. The immunoreactive signals were detected with an enhanced chemiluminescence kit (Millipore). Quantitative analyses were performed using a Gel Doc 2000 scanner system and Quantity One image analysis software (Bio-Rad).</p>
          </sec>
          <sec>
             <st>
                <p>5.10 Statistical analysis</p>
             </st>
             <p>All statistical analyses were performed using SPSS 13.0 software package. Statistical significance was assessed by comparing mean values (means&#8201;&#177;&#8201;SD). The two-tailed student&#8217;s t-test was used to test the probability of significant differences between samples. The significance level was set at P&#8201;&lt;&#8201;0.05.</p>
          </sec>
       </sec>
       <sec>
          <st>
             <p>Abbreviations</p>
          </st>
          <p>hUCMSCs: Mesenchymal stem cells that are derived from WJ of human umbilical cord</p>
          <p>WJ: Wharton&#8217;s jelly</p>
          <p>EC: Esophageal carcinoma</p>
          <p>BMMSCs: Bone marrow-derived Mesenchymal stem cells</p>
          <p>MSCs: Mesenchymal stem cells</p>
       </sec>
       <sec>
          <st>
             <p>Competing interests</p>
          </st>
          <p>The authors declare that they have no competing interests.</p>
       </sec>
       <sec>
          <st>
             <p>Authors&#8217; contributions</p>
          </st>
          <p>XY carried out the cell culture, Real-time RT-PCR, participated in the animal experiments and drafted the manuscript. ZL carried out the immunoassays. YM carried out the cell migration and invasion experiment. SL and YG carried out the animal experiments. GJ performed the statistical analysis. GW conceived of the study, and participated in its design and coordination and helped to draft the manuscript. All authors read and approved the final manuscript.</p>
       </sec>
    </bdy>
    <bm>
       <ack>
          <sec>
             <st>
                <p>Acknowledgments</p>
             </st>
             <p>This work was supported by the National Natural Science Foundation of China (No. 81001106).</p>
          </sec>
       </ack>
       <refgrp>
          
          <bibl id="B1">
             <title>
                <p>Fibroblast precursors in normal and irradiated mouse hematopoietic organs</p>
             </title>
             <aug>
                <au>
                   <snm>Friedenstein</snm>
                   <fnm>AJ</fnm>
                </au>
                <au>
                   <snm>Gorskaja</snm>
                   <fnm>JF</fnm>
                </au>
                <au>
                   <snm>Kulagina</snm>
                   <fnm>NN</fnm>
                </au>
             </aug>
             <source>Exp Hematol</source>
             <pubdate>1976</pubdate>
             <volume>4</volume>
             <issue>5</issue>
             <fpage>267</fpage>
             <lpage>274</lpage>
             <xrefbib>
                <pubidlist>
                   <pubid idtype="pmpid" link="fulltext">976387</pubid>
                </pubidlist>
             </xrefbib>
          </bibl>
          <bibl id="B2">
             <title>
                <p>Mesenchymal stem cells: revisiting history, concepts, and assays</p>
             </title>
             <aug>
                <au>
                   <snm>Bianco</snm>
                   <fnm>P</fnm>
                </au>
                <au>
                   <snm>Robey</snm>
                   <fnm>PG</fnm>
                </au>
                <au>
                   <snm>Simmons</snm>
                   <fnm>PJ</fnm>
                </au>
             </aug>
             <source>Cell Stem Cell</source>
             <pubdate>2008</pubdate>
             <volume>2</volume>
             <issue>4</issue>
             <fpage>313</fpage>
             <lpage>319</lpage>
             <xrefbib>
                <pubidlist>
                   <pubid idtype="doi">10.1016/j.stem.2008.03.002</pubid>
                   <pubid idtype="pmpid" link="fulltext">18397751</pubid>
                </pubidlist>
             </xrefbib>
          </bibl>
          <bibl id="B3">
             <title>
                <p>Multilineage cells from human adipose tissue: implications for cell-based therapies</p>
             </title>
             <aug>
                <au>
                   <snm>Zuk</snm>
                   <fnm>PA</fnm>
                </au>
                <au>
                   <snm>Zhu</snm>
                   <fnm>M</fnm>
                </au>
                <au>
                   <snm>Mizuno</snm>
                   <fnm>H</fnm>
                </au>
                <au>
                   <snm>Huang</snm>
                   <fnm>J</fnm>
                </au>
                <au>
                   <snm>Futrell</snm>
                   <fnm>JW</fnm>
                </au>
                <au>
                   <snm>Katz</snm>
                   <fnm>AJ</fnm>
                </au>
                <au>
                   <snm>Benhaim</snm>
                   <fnm>P</fnm>
                </au>
                <au>
                   <snm>Lorenz</snm>
                   <fnm>HP</fnm>
                </au>
                <au>
                   <snm>Hedrick</snm>
                   <fnm>MH</fnm>
                </au>
             </aug>
             <source>Tissue Eng</source>
             <pubdate>2001</pubdate>
             <volume>7</volume>
             <issue>2</issue>
             <fpage>211</fpage>
             <lpage>228</lpage>
             <xrefbib>
                <pubidlist>
                   <pubid idtype="doi">10.1089/107632701300062859</pubid>
                   <pubid idtype="pmpid" link="fulltext">11304456</pubid>
                </pubidlist>
             </xrefbib>
          </bibl>
          <bibl id="B4">
             <title>
                <p>Multilineage potential of adult human mesenchymal stem cells</p>
             </title>
             <aug>
                <au>
                   <snm>Pittenger</snm>
                   <fnm>MF</fnm>
                </au>
                <au>
                   <snm>Mackay</snm>
                   <fnm>AM</fnm>
                </au>
                <au>
                   <snm>Beck</snm>
                   <fnm>SC</fnm>
                </au>
                <au>
                   <snm>Jaiswal</snm>
                   <fnm>RK</fnm>
                </au>
                <au>
                   <snm>Douglas</snm>
                   <fnm>R</fnm>
                </au>
                <au>
                   <snm>Mosca</snm>
                   <fnm>JD</fnm>
                </au>
                <au>
                   <snm>Moorman</snm>
                   <fnm>MA</fnm>
                </au>
                <au>
                   <snm>Simonetti</snm>
                   <fnm>DW</fnm>
                </au>
                <au>
                   <snm>Craig</snm>
                   <fnm>S</fnm>
                </au>
                <au>
                   <snm>Marshak</snm>
                   <fnm>DR</fnm>
                </au>
             </aug>
             <source>Science</source>
             <pubdate>1999</pubdate>
             <volume>284</volume>
             <issue>5411</issue>
             <fpage>143</fpage>
             <lpage>147</lpage>
             <xrefbib>
                <pubidlist>
                   <pubid idtype="doi">10.1126/science.284.5411.143</pubid>
                   <pubid idtype="pmpid" link="fulltext">10102814</pubid>
                </pubidlist>
             </xrefbib>
          </bibl>
          <bibl id="B5">
             <title>
                <p>Mesenchymal stem cells: clinical applications and biological characterization</p>
             </title>
             <aug>
                <au>
                   <snm>Barry</snm>
                   <fnm>FP</fnm>
                </au>
                <au>
                   <snm>Murphy</snm>
                   <fnm>JM</fnm>
                </au>
             </aug>
             <source>Int J Biochem Cell Biol</source>
             <pubdate>2004</pubdate>
             <volume>36</volume>
             <issue>4</issue>
             <fpage>568</fpage>
             <lpage>584</lpage>
             <xrefbib>
                <pubidlist>
                   <pubid idtype="doi">10.1016/j.biocel.2003.11.001</pubid>
                   <pubid idtype="pmpid" link="fulltext">15010324</pubid>
                </pubidlist>
             </xrefbib>
          </bibl>
          <bibl id="B6">
             <title>
                <p>Mesenchymal stem cells for clinical application</p>
             </title>
             <aug>
                <au>
                   <snm>Sensebe</snm>
                   <fnm>L</fnm>
                </au>
                <au>
                   <snm>Krampera</snm>
                   <fnm>M</fnm>
                </au>
                <au>
                   <snm>Schrezenmeier</snm>
                   <fnm>H</fnm>
                </au>
                <au>
                   <snm>Bourin</snm>
                   <fnm>P</fnm>
                </au>
                <au>
                   <snm>Giordano</snm>
                   <fnm>R</fnm>
                </au>
             </aug>
             <source>Vox Sang</source>
             <pubdate>2009</pubdate>
             <volume>98</volume>
             <issue>2</issue>
             <fpage>93</fpage>
             <lpage>107</lpage>
             <xrefbib>
                <pubidlist>
                   <pubid idtype="doi">10.1111/j.1423-0410.2009.01227.x</pubid>
                   <pubid idtype="pmpid" link="fulltext">19663934</pubid>
                </pubidlist>
             </xrefbib>
          </bibl>
          <bibl id="B7">
             <title>
                <p>Safety of cell therapy with mesenchymal stromal cells (SafeCell): a systematic review and meta-analysis of clinical trials</p>
             </title>
             <aug>
                <au>
                   <snm>Lalu</snm>
                   <fnm>MM</fnm>
                </au>
                <au>
                   <snm>McIntyre</snm>
                   <fnm>L</fnm>
                </au>
                <au>
                   <snm>Pugliese</snm>
                   <fnm>C</fnm>
                </au>
                <au>
                   <snm>Fergusson</snm>
                   <fnm>D</fnm>
                </au>
                <au>
                   <snm>Winston</snm>
                   <fnm>BW</fnm>
                </au>
                <au>
                   <snm>Marshall</snm>
                   <fnm>JC</fnm>
                </au>
                <au>
                   <snm>Granton</snm>
                   <fnm>J</fnm>
                </au>
                <au>
                   <snm>Stewart</snm>
                   <fnm>DJ</fnm>
                </au>
             </aug>
             <source>PLoS One</source>
             <pubdate>2012</pubdate>
             <volume>7</volume>
             <issue>10</issue>
             <fpage>e47559</fpage>
             <xrefbib>
                <pubidlist>
                   <pubid idtype="doi">10.1371/journal.pone.0047559</pubid>
                   <pubid idtype="pmpid" link="fulltext">23133515</pubid>
                </pubidlist>
             </xrefbib>
          </bibl>
          <bibl id="B8">
             <title>
                <p>Tumors: wounds that do not heal. Similarities between tumor stroma generation and wound healing</p>
             </title>
             <aug>
                <au>
                   <snm>Dvorak</snm>
                   <fnm>HF</fnm>
                </au>
             </aug>
             <source>N Engl J Med</source>
             <pubdate>1986</pubdate>
             <volume>315</volume>
             <issue>26</issue>
             <fpage>1650</fpage>
             <lpage>1659</lpage>
             <xrefbib>
                <pubidlist>
                   <pubid idtype="doi">10.1056/NEJM198612253152606</pubid>
                   <pubid idtype="pmpid" link="fulltext">3537791</pubid>
                </pubidlist>
             </xrefbib>
          </bibl>
          <bibl id="B9">
             <title>
                <p>Mesenchymal stem cells: potential precursors for tumor stroma and targeted-delivery vehicles for anticancer agents</p>
             </title>
             <aug>
                <au>
                   <snm>Studeny</snm>
                   <fnm>M</fnm>
                </au>
                <au>
                   <snm>Marini</snm>
                   <fnm>FC</fnm>
                </au>
                <au>
                   <snm>Dembinski</snm>
                   <fnm>JL</fnm>
                </au>
                <au>
                   <snm>Zompetta</snm>
                   <fnm>C</fnm>
                </au>
                <au>
                   <snm>Cabreira-Hansen</snm>
                   <fnm>M</fnm>
                </au>
                <au>
                   <snm>Bekele</snm>
                   <fnm>BN</fnm>
                </au>
                <au>
                   <snm>Champlin</snm>
                   <fnm>RE</fnm>
                </au>
                <au>
                   <snm>Andreeff</snm>
                   <fnm>M</fnm>
                </au>
             </aug>
             <source>J Natl Cancer Inst</source>
             <pubdate>2004</pubdate>
             <volume>96</volume>
             <issue>21</issue>
             <fpage>1593</fpage>
             <lpage>1603</lpage>
             <xrefbib>
                <pubidlist>
                   <pubid idtype="doi">10.1093/jnci/djh299</pubid>
                   <pubid idtype="pmpid" link="fulltext">15523088</pubid>
                </pubidlist>
             </xrefbib>
          </bibl>
          <bibl id="B10">
             <title>
                <p>A tumor-selective biotherapy with prolonged impact on established metastases based on cytokine gene-engineered MSCs</p>
             </title>
             <aug>
                <au>
                   <snm>Chen</snm>
                   <fnm>X</fnm>
                </au>
                <au>
                   <snm>Lin</snm>
                   <fnm>X</fnm>
                </au>
                <au>
                   <snm>Zhao</snm>
                   <fnm>J</fnm>
                </au>
                <au>
                   <snm>Shi</snm>
                   <fnm>W</fnm>
                </au>
                <au>
                   <snm>Zhang</snm>
                   <fnm>H</fnm>
                </au>
                <au>
                   <snm>Wang</snm>
                   <fnm>Y</fnm>
                </au>
                <au>
                   <snm>Kan</snm>
                   <fnm>B</fnm>
                </au>
                <au>
                   <snm>Du</snm>
                   <fnm>L</fnm>
                </au>
                <au>
                   <snm>Wang</snm>
                   <fnm>B</fnm>
                </au>
                <au>
                   <snm>Wei</snm>
                   <fnm>Y</fnm>
                </au>
                <au>
                   <snm>Liu</snm>
                   <fnm>Y</fnm>
                </au>
                <au>
                   <snm>Zhao</snm>
                   <fnm>X</fnm>
                </au>
             </aug>
             <source>Mol Ther</source>
             <pubdate>2008</pubdate>
             <volume>16</volume>
             <issue>4</issue>
             <fpage>749</fpage>
             <lpage>756</lpage>
             <xrefbib>
                <pubidlist>
                   <pubid idtype="doi">10.1038/mt.2008.3</pubid>
                   <pubid idtype="pmpid" link="fulltext">18362930</pubid>
                </pubidlist>
             </xrefbib>
          </bibl>
          <bibl id="B11">
             <title>
                <p>Human bone marrow-derived MSCs can home to orthotopic breast cancer tumors and promote bone metastasis</p>
             </title>
             <aug>
                <au>
                   <snm>Goldstein</snm>
                   <fnm>RH</fnm>
                </au>
                <au>
                   <snm>Reagan</snm>
                   <fnm>MR</fnm>
                </au>
                <au>
                   <snm>Anderson</snm>
                   <fnm>K</fnm>
                </au>
                <au>
                   <snm>Kaplan</snm>
                   <fnm>DL</fnm>
                </au>
                <au>
                   <snm>Rosenblatt</snm>
                   <fnm>M</fnm>
                </au>
             </aug>
             <source>Cancer Res</source>
             <pubdate>2010</pubdate>
             <volume>70</volume>
             <issue>24</issue>
             <fpage>10044</fpage>
             <lpage>10050</lpage>
             <xrefbib>
                <pubidlist>
                   <pubid idtype="doi">10.1158/0008-5472.CAN-10-1254</pubid>
                   <pubid idtype="pmpid" link="fulltext">21159629</pubid>
                </pubidlist>
             </xrefbib>
          </bibl>
          <bibl id="B12">
             <title>
                <p>Mesenchymal stem cells enhance growth and metastasis of colon cancer</p>
             </title>
             <aug>
                <au>
                   <snm>Shinagawa</snm>
                   <fnm>K</fnm>
                </au>
                <au>
                   <snm>Kitadai</snm>
                   <fnm>Y</fnm>
                </au>
                <au>
                   <snm>Tanaka</snm>
                   <fnm>M</fnm>
                </au>
                <au>
                   <snm>Sumida</snm>
                   <fnm>T</fnm>
                </au>
                <au>
                   <snm>Kodama</snm>
                   <fnm>M</fnm>
                </au>
                <au>
                   <snm>Higashi</snm>
                   <fnm>Y</fnm>
                </au>
                <au>
                   <snm>Tanaka</snm>
                   <fnm>S</fnm>
                </au>
                <au>
                   <snm>Yasui</snm>
                   <fnm>W</fnm>
                </au>
                <au>
                   <snm>Chayama</snm>
                   <fnm>K</fnm>
                </au>
             </aug>
             <source>Int J Cancer</source>
             <pubdate>2010</pubdate>
             <volume>127</volume>
             <issue>10</issue>
             <fpage>2323</fpage>
             <lpage>2333</lpage>
             <xrefbib>
                <pubidlist>
                   <pubid idtype="doi">10.1002/ijc.25440</pubid>
                   <pubid idtype="pmpid" link="fulltext">20473928</pubid>
                </pubidlist>
             </xrefbib>
          </bibl>
          <bibl id="B13">
             <title>
                <p>Human mesenchymal stem cells exert potent antitumorigenic effects in a model of Kaposi&#8217;s sarcoma</p>
             </title>
             <aug>
                <au>
                   <snm>Khakoo</snm>
                   <fnm>AY</fnm>
                </au>
                <au>
                   <snm>Pati</snm>
                   <fnm>S</fnm>
                </au>
                <au>
                   <snm>Anderson</snm>
                   <fnm>SA</fnm>
                </au>
                <au>
                   <snm>Reid</snm>
                   <fnm>W</fnm>
                </au>
                <au>
                   <snm>Elshal</snm>
                   <fnm>MF</fnm>
                </au>
                <au>
                   <snm>Rovira</snm>
                   <fnm>II</fnm>
                </au>
                <au>
                   <snm>Nguyen</snm>
                   <fnm>AT</fnm>
                </au>
                <au>
                   <snm>Malide</snm>
                   <fnm>D</fnm>
                </au>
                <au>
                   <snm>Combs</snm>
                   <fnm>CA</fnm>
                </au>
                <au>
                   <snm>Hall</snm>
                   <fnm>G</fnm>
                </au>
                <au>
                   <snm>Zhang</snm>
                   <fnm>J</fnm>
                </au>
                <au>
                   <snm>Raffeld</snm>
                   <fnm>M</fnm>
                </au>
                <au>
                   <snm>Rogers</snm>
                   <fnm>TB</fnm>
                </au>
                <au>
                   <snm>Stetler-Stevenson</snm>
                   <fnm>W</fnm>
                </au>
                <au>
                   <snm>Frank</snm>
                   <fnm>JA</fnm>
                </au>
                <au>
                   <snm>Reitz</snm>
                   <fnm>M</fnm>
                </au>
                <au>
                   <snm>Finkel</snm>
                   <fnm>T</fnm>
                </au>
             </aug>
             <source>J Exp Med</source>
             <pubdate>2006</pubdate>
             <volume>203</volume>
             <issue>5</issue>
             <fpage>1235</fpage>
             <lpage>1247</lpage>
             <xrefbib>
                <pubidlist>
                   <pubid idtype="doi">10.1084/jem.20051921</pubid>
                   <pubid idtype="pmpid" link="fulltext">16636132</pubid>
                </pubidlist>
             </xrefbib>
          </bibl>
          <bibl id="B14">
             <title>
                <p>Concentration-dependent inhibition of angiogenesis by mesenchymal stem cells</p>
             </title>
             <aug>
                <au>
                   <snm>Otsu</snm>
                   <fnm>K</fnm>
                </au>
                <au>
                   <snm>Das</snm>
                   <fnm>S</fnm>
                </au>
                <au>
                   <snm>Houser</snm>
                   <fnm>SD</fnm>
                </au>
                <au>
                   <snm>Quadri</snm>
                   <fnm>SK</fnm>
                </au>
                <au>
                   <snm>Bhattacharya</snm>
                   <fnm>S</fnm>
                </au>
                <au>
                   <snm>Bhattacharya</snm>
                   <fnm>J</fnm>
                </au>
             </aug>
             <source>Blood</source>
             <pubdate>2009</pubdate>
             <volume>113</volume>
             <issue>18</issue>
             <fpage>4197</fpage>
             <lpage>4205</lpage>
             <xrefbib>
                <pubidlist>
                   <pubid idtype="doi">10.1182/blood-2008-09-176198</pubid>
                   <pubid idtype="pmpid" link="fulltext">19036701</pubid>
                </pubidlist>
             </xrefbib>
          </bibl>
          <bibl id="B15">
             <title>
                <p>Mesenchymal stem cells in the Wharton&#8217;s jelly of the human umbilical cord</p>
             </title>
             <aug>
                <au>
                   <snm>Wang</snm>
                   <fnm>HS</fnm>
                </au>
                <au>
                   <snm>Hung</snm>
                   <fnm>SC</fnm>
                </au>
                <au>
                   <snm>Peng</snm>
                   <fnm>ST</fnm>
                </au>
                <au>
                   <snm>Huang</snm>
                   <fnm>CC</fnm>
                </au>
                <au>
                   <snm>Wei</snm>
                   <fnm>HM</fnm>
                </au>
                <au>
                   <snm>Guo</snm>
                   <fnm>YJ</fnm>
                </au>
                <au>
                   <snm>Fu</snm>
                   <fnm>YS</fnm>
                </au>
                <au>
                   <snm>Lai</snm>
                   <fnm>MC</fnm>
                </au>
                <au>
                   <snm>Chen</snm>
                   <fnm>CC</fnm>
                </au>
             </aug>
             <source>Stem Cells</source>
             <pubdate>2004</pubdate>
             <volume>22</volume>
             <issue>7</issue>
             <fpage>1330</fpage>
             <lpage>1337</lpage>
             <xrefbib>
                <pubidlist>
                   <pubid idtype="doi">10.1634/stemcells.2004-0013</pubid>
                   <pubid idtype="pmpid" link="fulltext">15579650</pubid>
                </pubidlist>
             </xrefbib>
          </bibl>
          <bibl id="B16">
             <title>
                <p>Hypoxia responsive mesenchymal stem cells derived from human umbilical cord blood are effective for bone repair</p>
             </title>
             <aug>
                <au>
                   <snm>Nagano</snm>
                   <fnm>M</fnm>
                </au>
                <au>
                   <snm>Kimura</snm>
                   <fnm>K</fnm>
                </au>
                <au>
                   <snm>Yamashita</snm>
                   <fnm>T</fnm>
                </au>
                <au>
                   <snm>Ohneda</snm>
                   <fnm>K</fnm>
                </au>
                <au>
                   <snm>Nozawa</snm>
                   <fnm>D</fnm>
                </au>
                <au>
                   <snm>Hamada</snm>
                   <fnm>H</fnm>
                </au>
                <au>
                   <snm>Yoshikawa</snm>
                   <fnm>H</fnm>
                </au>
                <au>
                   <snm>Ochiai</snm>
                   <fnm>N</fnm>
                </au>
                <au>
                   <snm>Ohneda</snm>
                   <fnm>O</fnm>
                </au>
             </aug>
             <source>Stem Cells Dev</source>
             <pubdate>2010</pubdate>
             <volume>19</volume>
             <issue>8</issue>
             <fpage>1195</fpage>
             <lpage>1210</lpage>
             <xrefbib>
                <pubidlist>
                   <pubid idtype="doi">10.1089/scd.2009.0447</pubid>
                   <pubid idtype="pmpid" link="fulltext">20345248</pubid>
                </pubidlist>
             </xrefbib>
          </bibl>
          <bibl id="B17">
             <title>
                <p>Critical parameters for the isolation of mesenchymal stem cells from umbilical cord blood</p>
             </title>
             <aug>
                <au>
                   <snm>Bieback</snm>
                   <fnm>K</fnm>
                </au>
                <au>
                   <snm>Kern</snm>
                   <fnm>S</fnm>
                </au>
                <au>
                   <snm>Kluter</snm>
                   <fnm>H</fnm>
                </au>
                <au>
                   <snm>Eichler</snm>
                   <fnm>H</fnm>
                </au>
             </aug>
             <source>Stem Cells</source>
             <pubdate>2004</pubdate>
             <volume>22</volume>
             <issue>4</issue>
             <fpage>625</fpage>
             <lpage>634</lpage>
             <xrefbib>
                <pubidlist>
                   <pubid idtype="doi">10.1634/stemcells.22-4-625</pubid>
                   <pubid idtype="pmpid" link="fulltext">15277708</pubid>
                </pubidlist>
             </xrefbib>
          </bibl>
          <bibl id="B18">
             <title>
                <p>Mesenchymal stem cells: a new promise in anticancer therapy</p>
             </title>
             <aug>
                <au>
                   <snm>Ciavarella</snm>
                   <fnm>S</fnm>
                </au>
                <au>
                   <snm>Dominici</snm>
                   <fnm>M</fnm>
                </au>
                <au>
                   <snm>Dammacco</snm>
                   <fnm>F</fnm>
                </au>
                <au>
                   <snm>Silvestris</snm>
                   <fnm>F</fnm>
                </au>
             </aug>
             <source>Stem Cells Dev</source>
             <pubdate>2011</pubdate>
             <volume>20</volume>
             <issue>1</issue>
             <fpage>1</fpage>
             <lpage>10</lpage>
             <xrefbib>
                <pubidlist>
                   <pubid idtype="doi">10.1089/scd.2010.0223</pubid>
                   <pubid idtype="pmpid" link="fulltext">20670160</pubid>
                </pubidlist>
             </xrefbib>
          </bibl>
          <bibl id="B19">
             <title>
                <p>Human Wharton&#8217;s jelly stem cells have unique transcriptome profiles compared to human embryonic stem cells and other mesenchymal stem cells</p>
             </title>
             <aug>
                <au>
                   <snm>Fong</snm>
                   <fnm>CY</fnm>
                </au>
                <au>
                   <snm>Chak</snm>
                   <fnm>LL</fnm>
                </au>
                <au>
                   <snm>Biswas</snm>
                   <fnm>A</fnm>
                </au>
                <au>
                   <snm>Tan</snm>
                   <fnm>JH</fnm>
                </au>
                <au>
                   <snm>Gauthaman</snm>
                   <fnm>K</fnm>
                </au>
                <au>
                   <snm>Chan</snm>
                   <fnm>WK</fnm>
                </au>
                <au>
                   <snm>Bongso</snm>
                   <fnm>A</fnm>
                </au>
             </aug>
             <source>Stem Cell Rev</source>
             <pubdate>2011</pubdate>
             <volume>7</volume>
             <issue>1</issue>
             <fpage>1</fpage>
             <lpage>16</lpage>
             <xrefbib>
                <pubidlist>
                   <pubid idtype="doi">10.1007/s12015-010-9166-x</pubid>
                   <pubid idtype="pmpid" link="fulltext">20602182</pubid>
                </pubidlist>
             </xrefbib>
          </bibl>
          <bibl id="B20">
             <title>
                <p>Cancer trends in China</p>
             </title>
             <aug>
                <au>
                   <snm>Zhao</snm>
                   <fnm>P</fnm>
                </au>
                <au>
                   <snm>Dai</snm>
                   <fnm>M</fnm>
                </au>
                <au>
                   <snm>Chen</snm>
                   <fnm>W</fnm>
                </au>
                <au>
                   <snm>Li</snm>
                   <fnm>N</fnm>
                </au>
             </aug>
             <source>Jpn J Clin Oncol</source>
             <pubdate>2010</pubdate>
             <volume>40</volume>
             <issue>4</issue>
             <fpage>281</fpage>
             <lpage>285</lpage>
             <xrefbib>
                <pubidlist>
                   <pubid idtype="doi">10.1093/jjco/hyp187</pubid>
                   <pubid idtype="pmpid" link="fulltext">20085904</pubid>
                </pubidlist>
             </xrefbib>
          </bibl>
          <bibl id="B21">
             <title>
                <p>Prevalence and risk factors for esophageal squamous cell cancer and precursor lesions in Anyang, China: a population-based endoscopic survey</p>
             </title>
             <aug>
                <au>
                   <snm>He</snm>
                   <fnm>Z</fnm>
                </au>
                <au>
                   <snm>Zhao</snm>
                   <fnm>Y</fnm>
                </au>
                <au>
                   <snm>Guo</snm>
                   <fnm>C</fnm>
                </au>
                <au>
                   <snm>Liu</snm>
                   <fnm>Y</fnm>
                </au>
                <au>
                   <snm>Sun</snm>
                   <fnm>M</fnm>
                </au>
                <au>
                   <snm>Liu</snm>
                   <fnm>F</fnm>
                </au>
                <au>
                   <snm>Wang</snm>
                   <fnm>X</fnm>
                </au>
                <au>
                   <snm>Guo</snm>
                   <fnm>F</fnm>
                </au>
                <au>
                   <snm>Chen</snm>
                   <fnm>K</fnm>
                </au>
                <au>
                   <snm>Gao</snm>
                   <fnm>L</fnm>
                </au>
                <au>
                   <snm>Ning</snm>
                   <fnm>T</fnm>
                </au>
                <au>
                   <snm>Pan</snm>
                   <fnm>Y</fnm>
                </au>
                <au>
                   <snm>Li</snm>
                   <fnm>Y</fnm>
                </au>
                <au>
                   <snm>Zhang</snm>
                   <fnm>S</fnm>
                </au>
                <au>
                   <snm>Lu</snm>
                   <fnm>C</fnm>
                </au>
                <au>
                   <snm>Wang</snm>
                   <fnm>Z</fnm>
                </au>
                <au>
                   <snm>Cai</snm>
                   <fnm>H</fnm>
                </au>
                <au>
                   <snm>Ke</snm>
                   <fnm>Y</fnm>
                </au>
             </aug>
             <source>Br J Cancer</source>
             <pubdate>2010</pubdate>
             <volume>103</volume>
             <issue>7</issue>
             <fpage>1085</fpage>
             <lpage>1088</lpage>
             <xrefbib>
                <pubidlist>
                   <pubid idtype="doi">10.1038/sj.bjc.6605843</pubid>
                   <pubid idtype="pmpid" link="fulltext">20700119</pubid>
                </pubidlist>
             </xrefbib>
          </bibl>
          <bibl id="B22">
             <title>
                <p>Immunosuppressive properties of mesenchymal stromal cells derived from amnion, placenta, Wharton&#8217;s jelly and umbilical cord</p>
             </title>
             <aug>
                <au>
                   <snm>Manochantr</snm>
                   <fnm>S</fnm>
                </au>
                <au>
                   <snm>Up</snm>
                   <fnm>Y</fnm>
                </au>
                <au>
                   <snm>Kheolamai</snm>
                   <fnm>P</fnm>
                </au>
                <au>
                   <snm>Rojphisan</snm>
                   <fnm>S</fnm>
                </au>
                <au>
                   <snm>Chayosumrit</snm>
                   <fnm>M</fnm>
                </au>
                <au>
                   <snm>Tantrawatpan</snm>
                   <fnm>C</fnm>
                </au>
                <au>
                   <snm>Supokawej</snm>
                   <fnm>A</fnm>
                </au>
                <au>
                   <snm>Issaragrisil</snm>
                   <fnm>S</fnm>
                </au>
             </aug>
             <source>Intern Med J</source>
             <pubdate>2013</pubdate>
             <volume>43</volume>
             <issue>4</issue>
             <fpage>430</fpage>
             <lpage>439</lpage>
             <xrefbib>
                <pubidlist>
                   <pubid idtype="doi">10.1111/imj.12044</pubid>
                   <pubid idtype="pmpid" link="fulltext">23176558</pubid>
                </pubidlist>
             </xrefbib>
          </bibl>
          <bibl id="B23">
             <title>
                <p>Wharton&#8217;s jelly-derived mesenchymal stem cells: phenotypic characterization and optimizing their therapeutic potential for clinical applications</p>
             </title>
             <aug>
                <au>
                   <snm>Kim</snm>
                   <fnm>DW</fnm>
                </au>
                <au>
                   <snm>Staples</snm>
                   <fnm>M</fnm>
                </au>
                <au>
                   <snm>Shinozuka</snm>
                   <fnm>K</fnm>
                </au>
                <au>
                   <snm>Pantcheva</snm>
                   <fnm>P</fnm>
                </au>
                <au>
                   <snm>Kang</snm>
                   <fnm>SD</fnm>
                </au>
                <au>
                   <snm>Borlongan</snm>
                   <fnm>CV</fnm>
                </au>
             </aug>
             <source>Int J Mol Sci</source>
             <pubdate>2013</pubdate>
             <volume>14</volume>
             <issue>6</issue>
             <fpage>11692</fpage>
             <lpage>11712</lpage>
             <xrefbib>
                <pubidlist>
                   <pubid idtype="doi">10.3390/ijms140611692</pubid>
                   <pubid idtype="pmpid" link="fulltext">23727936</pubid>
                </pubidlist>
             </xrefbib>
          </bibl>
          <bibl id="B24">
             <title>
                <p>Mechanisms of normal and tumor-derived angiogenesis</p>
             </title>
             <aug>
                <au>
                   <snm>Papetti</snm>
                   <fnm>M</fnm>
                </au>
                <au>
                   <snm>Herman</snm>
                   <fnm>IM</fnm>
                </au>
             </aug>
             <source>Am J Physiol Cell Physiol</source>
             <pubdate>2002</pubdate>
             <volume>282</volume>
             <issue>5</issue>
             <fpage>C947</fpage>
             <lpage>C970</lpage>
             <xrefbib>
                <pubidlist>
                   <pubid idtype="doi">10.1152/ajpcell.00389.2001</pubid>
                   <pubid idtype="pmpid" link="fulltext">11940508</pubid>
                </pubidlist>
             </xrefbib>
          </bibl>
          <bibl id="B25">
             <title>
                <p>Mesenchymal stem cells from human umbilical cord express preferentially secreted factors related to neuroprotection, neurogenesis, and angiogenesis</p>
             </title>
             <aug>
                <au>
                   <snm>Hsieh</snm>
                   <fnm>JY</fnm>
                </au>
                <au>
                   <snm>Wang</snm>
                   <fnm>HW</fnm>
                </au>
                <au>
                   <snm>Chang</snm>
                   <fnm>SJ</fnm>
                </au>
                <au>
                   <snm>Liao</snm>
                   <fnm>KH</fnm>
                </au>
                <au>
                   <snm>Lee</snm>
                   <fnm>IH</fnm>
                </au>
                <au>
                   <snm>Lin</snm>
                   <fnm>WS</fnm>
                </au>
                <au>
                   <snm>Wu</snm>
                   <fnm>CH</fnm>
                </au>
                <au>
                   <snm>Lin</snm>
                   <fnm>WY</fnm>
                </au>
                <au>
                   <snm>Cheng</snm>
                   <fnm>SM</fnm>
                </au>
             </aug>
             <source>PLoS One</source>
             <pubdate>2013</pubdate>
             <volume>8</volume>
             <issue>8</issue>
             <fpage>e72604</fpage>
             <xrefbib>
                <pubidlist>
                   <pubid idtype="doi">10.1371/journal.pone.0072604</pubid>
                   <pubid idtype="pmpid" link="fulltext">23991127</pubid>
                </pubidlist>
             </xrefbib>
          </bibl>
          <bibl id="B26">
             <title>
                <p>The role of matrix metalloproteinases (MMPs) and their inhibitors (TIMPs) in the development of esophageal cancer</p>
             </title>
             <aug>
                <au>
                   <snm>Groblewska</snm>
                   <fnm>M</fnm>
                </au>
                <au>
                   <snm>Siewko</snm>
                   <fnm>M</fnm>
                </au>
                <au>
                   <snm>Mroczko</snm>
                   <fnm>B</fnm>
                </au>
                <au>
                   <snm>Szmitkowski</snm>
                   <fnm>M</fnm>
                </au>
             </aug>
             <source>Folia Histochem Cytobiol</source>
             <pubdate>2012</pubdate>
             <volume>50</volume>
             <issue>1</issue>
             <fpage>12</fpage>
             <lpage>19</lpage>
             <xrefbib>
                <pubidlist>
                   <pubid idtype="doi">10.5603/FHC.2012.0002</pubid>
                   <pubid idtype="pmpid" link="fulltext">22532131</pubid>
                </pubidlist>
             </xrefbib>
          </bibl>
          <bibl id="B27">
             <title>
                <p>Interleukin 17A promotes hepatocellular carcinoma metastasis via NF-kB induced matrix metalloproteinases 2 and 9 expression</p>
             </title>
             <aug>
                <au>
                   <snm>Li</snm>
                   <fnm>J</fnm>
                </au>
                <au>
                   <snm>Lau</snm>
                   <fnm>GK</fnm>
                </au>
                <au>
                   <snm>Chen</snm>
                   <fnm>L</fnm>
                </au>
                <au>
                   <snm>Dong</snm>
                   <fnm>SS</fnm>
                </au>
                <au>
                   <snm>Lan</snm>
                   <fnm>HY</fnm>
                </au>
                <au>
                   <snm>Huang</snm>
                   <fnm>XR</fnm>
                </au>
                <au>
                   <snm>Li</snm>
                   <fnm>Y</fnm>
                </au>
                <au>
                   <snm>Luk</snm>
                   <fnm>JM</fnm>
                </au>
                <au>
                   <snm>Yuan</snm>
                   <fnm>YF</fnm>
                </au>
                <au>
                   <snm>Guan</snm>
                   <fnm>XY</fnm>
                </au>
             </aug>
             <source>PLoS One</source>
             <pubdate>2011</pubdate>
             <volume>6</volume>
             <issue>7</issue>
             <fpage>e21816</fpage>
             <xrefbib>
                <pubidlist>
                   <pubid idtype="doi">10.1371/journal.pone.0021816</pubid>
                   <pubid idtype="pmpid" link="fulltext">21760911</pubid>
                </pubidlist>
             </xrefbib>
          </bibl>
          <bibl id="B28">
             <title>
                <p>Human mesenchymal stem cells play a dual role on tumor cell growth in vitro and in vivo</p>
             </title>
             <aug>
                <au>
                   <snm>Tian</snm>
                   <fnm>LL</fnm>
                </au>
                <au>
                   <snm>Yue</snm>
                   <fnm>W</fnm>
                </au>
                <au>
                   <snm>Zhu</snm>
                   <fnm>F</fnm>
                </au>
                <au>
                   <snm>Li</snm>
                   <fnm>S</fnm>
                </au>
                <au>
                   <snm>Li</snm>
                   <fnm>W</fnm>
                </au>
             </aug>
             <source>J Cell Physiol</source>
             <pubdate>2011</pubdate>
             <volume>226</volume>
             <issue>7</issue>
             <fpage>1860</fpage>
             <lpage>1867</lpage>
             <xrefbib>
                <pubidlist>
                   <pubid idtype="doi">10.1002/jcp.22511</pubid>
                   <pubid idtype="pmpid" link="fulltext">21442622</pubid>
                </pubidlist>
             </xrefbib>
          </bibl>
          <bibl id="B29">
             <title>
                <p>Umbilical cord blood-derived mesenchymal stem cells inhibit, but adipose tissue-derived mesenchymal stem cells promote, glioblastoma multiforme proliferation</p>
             </title>
             <aug>
                <au>
                   <snm>Akimoto</snm>
                   <fnm>K</fnm>
                </au>
                <au>
                   <snm>Kimura</snm>
                   <fnm>K</fnm>
                </au>
                <au>
                   <snm>Nagano</snm>
                   <fnm>M</fnm>
                </au>
                <au>
                   <snm>Takano</snm>
                   <fnm>S</fnm>
                </au>
                <au>
                   <snm>To&#8217;a Salazar</snm>
                   <fnm>G</fnm>
                </au>
                <au>
                   <snm>Yamashita</snm>
                   <fnm>T</fnm>
                </au>
                <au>
                   <snm>Ohneda</snm>
                   <fnm>O</fnm>
                </au>
             </aug>
             <source>Stem Cells Dev</source>
             <pubdate>2013</pubdate>
             <volume>22</volume>
             <issue>9</issue>
             <fpage>1370</fpage>
             <lpage>1386</lpage>
             <xrefbib>
                <pubidlist>
                   <pubid idtype="doi">10.1089/scd.2012.0486</pubid>
                   <pubid idtype="pmpid" link="fulltext">23231075</pubid>
                </pubidlist>
             </xrefbib>
          </bibl>
          <bibl id="B30">
             <title>
                <p>Growth and metastasis of tumor cells isolated from a human renal cell carcinoma implanted into different organs of nude mice</p>
             </title>
             <aug>
                <au>
                   <snm>Naito</snm>
                   <fnm>S</fnm>
                </au>
                <au>
                   <snm>von Eschenbach</snm>
                   <fnm>AC</fnm>
                </au>
                <au>
                   <snm>Giavazzi</snm>
                   <fnm>R</fnm>
                </au>
                <au>
                   <snm>Fidler</snm>
                   <fnm>IJ</fnm>
                </au>
             </aug>
             <source>Cancer Res</source>
             <pubdate>1986</pubdate>
             <volume>46</volume>
             <issue>8</issue>
             <fpage>4109</fpage>
             <lpage>4115</lpage>
             <xrefbib>
                <pubidlist>
                   <pubid idtype="pmpid" link="fulltext">3731078</pubid>
                </pubidlist>
             </xrefbib>
          </bibl>
       </refgrp>
    </bm>
 </art>