<art>
    <ui>s12935-014-0110-z</ui>
    <ji>1475-2867</ji>
    <fm>
       <dochead>Primary research</dochead>
       <bibl>
          <title>
             <p>The effects of phenoxodiol on the cell cycle of prostate cancer cell lines</p>
          </title>
          <aug>
             <au id="A1">
                <snm>Mahoney</snm>
                <fnm>Simon</fnm>
                <insr iid="I1"/>
                <email>simon.mahoney@gmail.com</email>
             </au>
             <au id="A2">
                <snm>Arfuso</snm>
                <fnm>Frank</fnm>
                <insr iid="I1"/>
                <insr iid="I2"/>
                <email>frank.arfuso@uwa.edu.au</email>
             </au>
             <au id="A3">
                <snm>Millward</snm>
                <fnm>Michael</fnm>
                <insr iid="I3"/>
                <email>michael.millward@uwa.edu.au</email>
             </au>
             <au ca="yes" id="A4">
                <snm>Dharmarajan</snm>
                <fnm>Arun</fnm>
                <insr iid="I1"/>
                <insr iid="I2"/>
                <email>a.dharmarajan@curtin.edu.au</email>
             </au>
          </aug>
          <insg>
             <ins id="I1">
                <p>School of Anatomy, Physiology and Human Biology, Faculty of Science, The University of Western Australia, Crawley, Perth 6009, WA, Australia</p>
             </ins>
             <ins id="I2">
                <p>Curtin Health Innovation Research Institute, Biosciences Research Precinct, School of Biomedical Sciences, Faculty of Health Sciences, Curtin University, Perth, 6845, WA, Australia</p>
             </ins>
             <ins id="I3">
                <p>School of Medicine and Pharmacology, The University of Western Australia, Crawley, Perth 6009, WA, Australia</p>
             </ins>
          </insg>
          <source>Cancer Cell International</source>
          <issn>1475-2867</issn>
          <pubdate>2014</pubdate>
          <volume>14</volume>
          <issue>1</issue>
          <fpage>110</fpage>
          <url>http://www.cancerci.com/content/14/1/110</url>
          <xrefbib>
             <pubidlist>
                <pubid idtype="doi">10.1186/s12935-014-0110-z</pubid>
             <pubid idtype="pmpid">25400509</pubid></pubidlist>
          </xrefbib>
       </bibl>
       <history>
          <rec>
             <date>
                <day>12</day>
                <month>6</month>
                <year>2014</year>
             </date>
          </rec>
          <acc>
             <date>
                <day>21</day>
                <month>10</month>
                <year>2014</year>
             </date>
          </acc>
          <pub>
             <date>
                <day>8</day>
                <month>11</month>
                <year>2014</year>
             </date>
          </pub>
       </history>
       <cpyrt>
          <year>2014</year>
          <collab>Mahoney et al.; licensee BioMed Central Ltd.</collab>
          <note>This is an Open Access article distributed under the terms of the Creative Commons Attribution License (<url>http://creativecommons.org/licenses/by/4.0</url>), which permits unrestricted use, distribution, and reproduction in any medium, provided the original work is properly credited. The Creative Commons Public Domain Dedication waiver (<url>http://creativecommons.org/publicdomain/zero/1.0/</url>) applies to the data made available in this article, unless otherwise stated.</note>
       </cpyrt>
       <kwdg>
          <kwd>Phenoxodiol</kwd>
          <kwd>Cell cycle</kwd>
          <kwd>Prostate cancer</kwd>
          <kwd>Cytotoxicity</kwd>
       </kwdg>
       <abs>
          <sec>
             <st>
                <p>Abstract</p>
             </st>
             <sec>
                <st>
                   <p>Background</p>
                </st>
                <p>Prostate cancer is associated with a poor survival rate. The ability of cancer cells to evade apoptosis and exhibit limitless replication potential allows for progression of cancer from a benign to a metastatic phenotype. The aim of this study was to investigate <it>in vitro</it> the effect of the isoflavone phenoxodiol on the expression of cell cycle genes.</p>
             </sec>
             <sec>
                <st>
                   <p>Methods</p>
                </st>
                <p>Three prostate cancer cell lines-LNCaP, DU145, and PC3 were cultured <it>in vitro</it>, and then treated with phenoxodiol (10&#160;&#956;M and 30&#160;&#956;M) for 24 and 48&#160;h. The expression of cell cycle genes p21<sup>WAF1</sup>, c-Myc, Cyclin-D1, and Ki-67 was investigated by Real Time PCR.</p>
             </sec>
             <sec>
                <st>
                   <p>Results</p>
                </st>
                <p>Here we report that phenoxodiol induces cell cycle arrest in the G1/S phase of the cell cycle, with the resultant arrest due to the upregulation of p21<sup>WAF1</sup> in all the cell lines in response to treatment, indicating that activation of p21<sup>WAF1</sup> and subsequent cell arrest was occurring via a p53 independent manner, with induction of cytotoxicity independent of caspase activation. We found that c-Myc and Cyclin-D1 expression was not consistently altered across all cell lines but Ki-67 signalling expression was decreased in line with the cell cycle arrest.</p>
             </sec>
             <sec>
                <st>
                   <p>Conclusions</p>
                </st>
                <p>Phenoxodiol demonstrates an ability in prostate cancer cells to induce significant cytotoxicity in cells by interacting with p21<sup>WAF1</sup> and inducing cell cycle arrest irrespective of p53 status or caspase pathway interactions. These data indicate that phenoxodiol would be effective as a potential future treatment modality for both hormone sensitive and hormone refractory prostate cancer.</p>
             </sec>
          </sec>
       </abs>
    </fm>
    <bdy>
       <sec>
          <st>
             <p>Background</p>
          </st>
          <p>Advanced prostate cancer has a 5-year survival of only 30%. Historically, chemotherapy has been used with palliative intent but unclear survival benefit for these advanced-stage patients <abbrgrp>
                <abbr bid="B1">1</abbr>
             </abbrgrp>. Current practices for hormone-refractory/castrate resistant, metastatic prostate cancer incorporate the use of taxanes. Docetaxel, in particular, is being incorporated in numerous current clinical trials either as a single or combination agent against androgen-independent prostate cancer, and it is also being investigated for its use as a neoadjuvant or adjuvant agent in hormone sensitive, locally aggressive prostate cancer <abbrgrp>
                <abbr bid="B2">2</abbr>
             </abbrgrp>.</p>
          <p>Two of the hallmarks of cancer are the ability to be self-sufficient in growth signals and to have infinite replicative potential, which can be initiated through damaging the cell cycle restriction points, thereby allowing for progression of cancer from benign to metastatic states <abbrgrp>
                <abbr bid="B3">3</abbr>
             </abbrgrp>. The cell cycle is composed of G1, S, G2, and M phases, which represent normal function, DNA replication, organelle replication, and mitotic separation respectively <abbrgrp>
                <abbr bid="B4">4</abbr>
             </abbrgrp>. Any errors that may occur at these steps could be catastrophic for normal cell functioning and, as such, the cell cycle apparatus retains potent signalling molecules that can search for errors and rapidly induce apoptosis <abbrgrp>
                <abbr bid="B5">5</abbr>
             </abbrgrp>. The initial point where this process can occur is referred to as the G1 restriction point <abbrgrp>
                <abbr bid="B6">6</abbr>
             </abbrgrp>.</p>
          <p>Docetaxel and paclitaxel are taxanes that bind to and stabilize microtubules, causing G2/M cell-cycle arrest and apoptosis. Although the action and anti-cancer activity of paclitaxel and docetaxel are much the same, key differences exist clinically; docetaxel shows activity in patients with metastatic solid tumors that are resistant to paclitaxel <abbrgrp>
                <abbr bid="B7">7</abbr>
             </abbrgrp>. The actual mechanisms that lead to cell death remain unclear but may include activation of intrinsic pathways essential for apoptosis, induction of bcl-2 phosphorylation facilitating apoptosis, and inhibition of angiogenesis. Cell death after exposure to docetaxel appears to involve apoptotic mechanisms, including classic features such as DNA fragmentation, cell volume shrinkage, and membrane-bound apoptotic bodies <abbrgrp>
                <abbr bid="B7">7</abbr>
             </abbrgrp>. Studies have also shown that apoptosis induced by taxanes involves several apoptotic signal molecules, such as JNK, protein kinase A, c-Raf-1/Ras/Bcl-2, p53/p21<sup>WAF1</sup>, and mitogen-activated protein kinases (ERK and p38). However, the mode of apoptotic action in different tumors is far from clear <abbrgrp>
                <abbr bid="B8">8</abbr>
             </abbrgrp>.</p>
          <p>In this study, we explored the ability of phenoxodiol to impact the cell cycle of prostate cancer cells and investigate the underlying signalling pathways c-Myc, Cyclin-D1, Ki-67 and p21<sup>WAF1</sup>. Phenoxodiol, [2H-1-benzopyran-7-0, 1,3-(4-hydroxyphenyl)], is a synthetic isoflavone molecule first isolated from soy beans and now currently undergoing Phase III clinical trials for the treatment of platinum and taxane refractory ovarian cancer <abbrgrp>
                <abbr bid="B9">9</abbr>
             </abbrgrp>,<abbrgrp>
                <abbr bid="B10">10</abbr>
             </abbrgrp>. We examined three cell lines: LNCaP cells are responsive to 5-alpha-dihydrotestosterone (DHT), which means they contain a functioning androgen receptor (AR) and are indicative of an early stage prostate cancer cell line even though they are metastatic in nature. DU145 cells are used as a classical example of late stage prostate cancer and have moderate metastatic potential. The cell line is only weakly positive for acid phosphatase and exhibits very low DHT activity and is considered androgen receptor (AR) negative. PC3 cells are used as an example of late stage prostate cancer and exhibit high metastatic potential. It has been determined that DU145 and PC3 cells do not respond to AR stimulation and therefore have a broken pathway, but are not truly AR negative as they do express a form of the receptor, just an inactive form.</p>
       </sec>
       <sec>
          <st>
             <p>Results</p>
          </st>
          <p>We have previously determined a growth response curve for all three cell lines <abbrgrp>
                <abbr bid="B11">11</abbr>
             </abbrgrp> (See Figure&#160;<figr fid="F1">1</figr> in that paper) that was subsequently used as the basis for the treatment times and doses used in our current study. We also determined that apoptotic signalling was not consistently altered in response to phenoxodiol treatment and, therefore, it was not directly targeting one specific pathway tested <abbrgrp>
                <abbr bid="B11">11</abbr>
             </abbrgrp>. Another of the hallmarks of cancer, the ability to limitlessly replicate, was investigated through looking at the cell cycle response to phenoxodiol treatment. After 24 or 48&#160;hours of phenoxodiol treatment, cells were stained with propidium iodide and analysed to determine DNA content, which was then assessed into cell cycle phase populations G1, S, and G2 phase using FlowJo software.</p>
          
             <fig id="F1">
                <title>
                   <p>Figure 1</p>
                </title>
                <caption>
                   <p>LNCaP cycle analysis after 24 and 48&#160;hours of 10&#160;&#956;M and 30&#160;&#956;M phenoxodiol treatment.</p>
                </caption>
                <text>
                   <p>
                      <b>LNCaP cycle analysis after 24 and 48&#160;hours of 10&#160;&#956;M and 30&#160;&#956;M phenoxodiol treatment.</b>
                   </p>
                </text>
                <graphic file="s12935-014-0110-z-1"/>
             </fig>
          
          <sec>
             <st>
                <p>LNCaP: cell cycle analysis after 24 and 48&#160;hours of 10 um and 30 um phenoxodiol treatment</p>
             </st>
             <p>Figure&#160;<figr fid="F1">1</figr> demonstrates LNCaP cell line cell cycle response to 10&#160;&#956;M and 30&#160;&#956;M phenoxodiol treatment over 24 and 48&#160;hours by assessing the cell cycle phase populations differentiated by DNA content. Phenoxodiol induced significantly decreased G2 phase cell populations versus DMSO vehicle control, over 24&#160;hours for both 10&#160;&#956;M (p&#8201;&lt;&#8201;0.001) and 30&#160;&#956;M (p&#8201;&lt;&#8201;0.001) phenoxodiol treatments in LNCaP cells. The S phase cell population was found to increase versus DMSO vehicle control following 24&#160;hours of 10&#160;&#956;M (p&#8201;&lt;&#8201;0.0021) and 30&#160;&#956;M (p&#8201;=&#8201;0.0016) phenoxodiol treatment. The 10&#160;&#956;M and 30&#160;&#956;M phenoxodiol treatment groups were not significantly different versus each other after 24&#160;hours.</p>
          </sec>
          <sec>
             <st>
                <p>DU145: cell cycle analysis after 24 and 48&#160;hours of 10 um and 30 um phenoxodiol treatment</p>
             </st>
             <p>Figure&#160;<figr fid="F2">2</figr> demonstrates the DU145 cell line cell cycle response to 10&#160;&#956;M and 30&#160;&#956;M phenoxodiol treatment over 24 and 48&#160;hours by assessing the cell cycle phase populations differentiated by DNA content. Following 24&#160;hours of phenoxodiol treatment, the DU145 cell line&#8217;s G2 phase cell population was significantly decreased versus DMSO vehicle control in both 10&#160;&#956;M (p&#8201;=&#8201;0.0028) and 30&#160;&#956;M (p&#8201;=&#8201;0.0021) concentrations. Only the 10&#160;&#956;M phenoxodiol treatment had an increased S phase cell population versus DMSO vehicle control (p&#8201;&lt;&#8201;0.001) but the 30&#160;&#956;M treatment had an increased G1 phase cell population versus DMSO vehicle control (p&#8201;=&#8201;0.0038) and 10&#160;&#956;M (p&#8201;=&#8201;0.0049).</p>
             
                <fig id="F2">
                   <title>
                      <p>Figure 2</p>
                   </title>
                   <caption>
                      <p>DU145 cycle analysis after 24 and 48&#160;hours of 10&#160;&#956;M and 30&#160;&#956;M phenoxodiol treatment.</p>
                   </caption>
                   <text>
                      <p>
                         <b>DU145 cycle analysis after 24 and 48&#160;hours of 10&#160;&#956;M and 30&#160;&#956;M phenoxodiol treatment.</b>
                      </p>
                   </text>
                   <graphic file="s12935-014-0110-z-2"/>
                </fig>
             
             <p>Phenoxodiol induced significantly decreased G2 phase cell populations in DU145 cells over 48&#160;hours for both 10&#160;&#956;M (p&#8201;&lt;&#8201;0.001) and 30&#160;&#956;M (P&#8201;&lt;&#8201;0.001) treatments versus DMSO vehicle control and between the treatment concentrations (P&#8201;&lt;&#8201;0.001). The S phase cell population was significantly increased versus DMSO vehicle control in both 10&#160;&#956;M (p&#8201;&lt;&#8201;0.001) and 30&#160;&#956;M (p&#8201;&lt;&#8201;0.001) treatments, as well as significantly different between treatments (p&#8201;&lt;&#8201;0.001). The G1 phase cell population was significantly decreased versus DMSO vehicle control for the 10&#160;&#956;M treatment (p&#8201;&lt;&#8201;0.001) and significantly increased versus DMSO vehicle control (p&#8201;&lt;&#8201;0.001) and 10&#160;&#956;M (p&#8201;&lt;&#8201;0.001) for the 30&#160;&#956;M treatment group. In DU145 cells, phenoxodiol was determined to consistently decrease G2 phase cell population over 24 and 48&#160;hours following treatment with 10&#160;&#956;M and 30&#160;&#956;M concentrations.</p>
          </sec>
          <sec>
             <st>
                <p>PC3: cell cycle analysis after 24 and 48&#160;hours of 10 um and 30 um phenoxodiol treatment</p>
             </st>
             <p>Figure&#160;<figr fid="F3">3</figr> demonstrates the PC3 cell line cell cycle response to 10&#160;&#956;M and 30&#160;&#956;M phenoxodiol treatment over 24 and 48&#160;hours by assessing the cell cycle phase populations differentiated by DNA content. Following 24&#160;hours of phenoxodiol treatment, the PC3 cell line&#8217;s G2 phase cell population was significantly decreased versus DMSO vehicle control in both 10&#160;&#956;M (p&#8201;&lt;&#8201;0.001) and 30&#160;&#956;M (p&#8201;=&#8201;0.0071) concentrations. No significant differences were detected in G1 phase cell population, but S phase cell populations were significantly increased versus DMSO vehicle control for 10&#160;&#956;M (p&#8201;&lt;&#8201;0.001) and 30&#160;&#956;M (p&#8201;= 0.0022) treatments.</p>
             
                <fig id="F3">
                   <title>
                      <p>Figure 3</p>
                   </title>
                   <caption>
                      <p>PC3 cycle analysis after 24 and 48 hours of 10 &#956;M and 30 &#956;M phenoxodiol treatment.</p>
                   </caption>
                   <text>
                      <p>
                         <b>PC3 cycle analysis after 24 and 48 hours of 10 &#956;M and 30 &#956;M phenoxodiol treatment.</b>
                      </p>
                   </text>
                   <graphic file="s12935-014-0110-z-3"/>
                </fig>
             
             <p>Following 48&#160;hours of treatment, the PC3 G2 phase cell population was significantly decreased versus DMSO vehicle control in both 10&#160;&#956;M (p&#8201;&lt;&#8201;0.001) and 30&#160;&#956;M (p&#8201;&lt;&#8201;0.001) treatments as well as significantly different between the treatments (p&#8201;&lt;&#8201;0.001). The PC3 S phase cell population was significantly increased versus DMSO vehicle control in both 10&#160;&#956;M (p&#8201;&lt;&#8201;0.001) and 30&#160;&#956;M (p&#8201;&lt;&#8201;0.001) and significantly different between treatments (p&#8201;&lt;&#8201;0.001). The PC3 G1 phase cell population was significantly decreased versus DMSO vehicle control in both 10&#160;&#956;M (p&#8201;&lt;&#8201;0.001) and 30&#160;&#956;M (p&#8201;&lt;&#8201;0.022) treatments and significantly different between the treatments (p&#8201;&lt;&#8201;0.001). In PC3 cells, phenoxodiol was determined to consistently decrease G2 phase cell population over 24 and 48&#160;hours following treatment with 10&#160;&#956;M and 30&#160;&#956;M concentrations.</p>
          </sec>
          <sec>
             <st>
                <p>Quantitative PCR expression of signalling pathways following phenoxodiol treatment</p>
             </st>
             <p>Once it was determined that phenoxodiol had an impact on the cell cycle, it was necessary to explore the underlying cell cycle and cell proliferation signalling that could be the target of phenoxodiol treatment. Quantitative PCR (qPCR) analysis was performed on all three cell lines, with the housekeeping gene L19 used as a standardising agent; control expression was designated as one.</p>
          </sec>
          <sec>
             <st>
                <p>Quantitative PCR analysis of <it>c-Myc</it>, <it>Cyclin D1</it>, <it>Ki-67</it>, and <it>p21</it>
                </p>
             </st>
             <p>
                <it>c-Myc</it> is a potent initiator of cell replication and has been implicated in increasing the rate at which cells enter S phase <abbrgrp>
                   <abbr bid="B12">12</abbr>
                </abbrgrp>. Figure&#160;<figr fid="F4">4</figr> demonstrates the quantitative mRNA expression of <it>c-Myc</it> in cells treated over 24 and 48&#160;hour periods with phenoxodiol. After 48&#160;hours of 30&#160;&#956;M phenoxodiol treatment, PC3 cells were found to significantly increase the expression of <it>c-Myc</it> versus DMSO vehicle control (p&#8201;=&#8201;0.033). Neither LNCaP nor DU145 cells were found to have any significant changes in <it>c-Myc</it> expression in response to phenoxodiol treatment.</p>
             
                <fig id="F4">
                   <title>
                      <p>Figure 4</p>
                   </title>
                   <text>
                      <p>
                         <b>
                            <it>c-Myc</it>
                         </b>
                         <b>mRNA expression analysis of prostate cancer cells over 24 and 48&#160;hours post phenoxodiol treatment.</b>
                      </p>
                   </text>
                   <graphic file="s12935-014-0110-z-4"/>
                </fig>
             
             <p>
                <it>Cyclin-D1</it> is recognised as potent initiator of cell cycle progression from G1 through to S phase by the Cyclin-D1 Cdk4 complex activating the Cyclin E Cdk2 complex, which results in inhibition of the cell cycle inhibiting Rb protein <abbrgrp>
                   <abbr bid="B13">13</abbr>
                </abbrgrp>. Figure&#160;<figr fid="F5">5</figr> demonstrates the quantitative mRNA expression of the cell cycle regulator gene <it>Cyclin-D1</it> over 24 and 48&#160;hours post phenoxodiol treatment in prostate cancer cells. Decreasing <it>Cyclin-D1</it> expression, in response to phenoxodiol treatment, could result in quiescent and apoptotically sensitive cells. LNCaP cells did not have a detectable change in <it>Cyclin-D1</it> expression level under the influence of phenoxodiol treatment. DU145 cells were found to have a significant decrease in the expression of <it>Cyclin-D1</it> versus DMSO vehicle control (p&#8201;=&#8201;0.0071) after 24&#160;hours of treatment with 30&#160;&#956;M phenoxodiol no other changes in expression were detected in the DU145 cell line. PC3 cells exhibited a similar trend to treatment as the DU145 cells, with both the 10&#160;&#956;M phenoxodiol (p&#8201;=&#8201;0.026) and 30&#160;&#956;M phenoxodiol (p&#8201;=&#8201;0.0011) treatments significantly decreased in expression versus DMSO vehicle control after a 24&#160;hour period of treatment.</p>
             
                <fig id="F5">
                   <title>
                      <p>Figure 5</p>
                   </title>
                   <text>
                      <p>
                         <b>
                            <it>cyclin-d1</it>
                         </b>
                         <b>mRNA expression analysis of prostate cancer cells over 24 and 48&#160;hours post phenoxodiol treatment.</b>
                      </p>
                   </text>
                   <graphic file="s12935-014-0110-z-5"/>
                </fig>
             
             <p>
                <it>Ki-67</it> expression is an effective indicator of rate of proliferation in cells <abbrgrp>
                   <abbr bid="B14">14</abbr>
                </abbrgrp>. Figure&#160;<figr fid="F6">6</figr> demonstrates the quantitative mRNA expression of the cell proliferation gene <it>Ki-67</it> over 24 and 48&#160;hours post phenoxodiol treatment in prostate cancer cells. LNCaP cells were significantly decreased in <it>Ki-67</it> mRNA signalling over 24&#160;hours with both 10&#160;&#956;M (p&#8201;=&#8201;0.0043) and 30&#160;&#956;M (p&#8201;=&#8201;0.0065) phenoxodiol treatments exhibiting decreased mRNA expression versus DMSO vehicle control. DU145 cells had no significant difference in <it>Ki-67</it> mRNA expression over 24 and 48&#160;hours of treatment with 10&#160;&#956;M and 30&#160;&#956;M PXD although a biological trend towards decreased expression was indicated (p&#8201;=&#8201;0.082, p&#8201;=&#8201;0.1 respectively). PC3 cells exhibited a significant decrease in <it>Ki-67</it> mRNA signalling, over 24&#160;hours, in both 10&#160;&#956;M (p&#8201;=&#8201;0.034) and 30&#160;&#956;M (p&#8201;=&#8201;0.036) phenoxodiol treatments while the 48&#160;hour 10&#160;&#956;M phenoxodiol treatment exhibited significantly decreased mRNA expression versus DMSO vehicle control (p&#8201;&lt;&#8201;0.05) and 30&#160;&#956;M phenoxodiol (p&#8201;=&#8201;0.032).</p>
             
                <fig id="F6">
                   <title>
                      <p>Figure 6</p>
                   </title>
                   <text>
                      <p>
                         <b>
                            <it>Ki-67</it>
                         </b>
                         <b>mRNA expression analysis of prostate cancer cells over 24 and 48&#160;hours post phenoxodiol treatment.</b>
                      </p>
                   </text>
                   <graphic file="s12935-014-0110-z-6"/>
                </fig>
             
             <p>Figure&#160;<figr fid="F7">7</figr> demonstrates the quantitative mRNA expression of the cell proliferation gene <it>p21</it>
                <sup>
                   <it>WAF1</it>
                </sup> over 24 and 48&#160;hours post phenoxodiol treatment in prostate cancer cells. <it>P21</it>
                <sup>
                   <it>WAF1</it>
                </sup> is a cell cycle inhibiting factor that can prevent the formation of the Cyclin E Cdk2 complex. This inhibition prevents the progression of the cell through G1 to S phase <abbrgrp>
                   <abbr bid="B15">15</abbr>
                </abbrgrp>. LNCaP cells exhibited a significant increase in <it>p21</it> mRNA expression versus DMSO vehicle control over 24&#160;hours of treatment with 10&#160;&#956;M phenoxodiol (p&#8201;=&#8201;0.0099), and over 48&#160;hours of treatment with both 10&#160;&#956;M (p&#8201;&lt;&#8201;0.050) and 30&#160;&#956;M phenoxodiol (p&#8201;=&#8201;0.011) concentrations. DU145 cells exhibited a significant increase in <it>p21</it> mRNA expression versus DMSO vehicle control after 48&#160;hours of treatment with both 10&#160;&#956;M (p&#8201;=&#8201;0.0048) and 30&#160;&#956;M (p&#8201;=&#8201;0.028) phenoxodiol concentrations. PC3 cells exhibited a significant increase in <it>p21</it> mRNA expression over both 24 and 48&#160;hours of treatment (p&#8201;=&#8201;0.042 and p&#8201;=&#8201;0.0044 respectively) with the 30&#160;&#956;M phenoxodiol treatment group.</p>
             
                <fig id="F7">
                   <title>
                      <p>Figure 7</p>
                   </title>
                   <text>
                      <p>
                         <b>
                            <it>P21</it>
                         </b>
                         <b>mRNA expression analysis of prostate cancer cells over 24 and 48&#160;hours post phenoxodiol treatment.</b>
                      </p>
                   </text>
                   <graphic file="s12935-014-0110-z-7"/>
                </fig>
             
          </sec>
       </sec>
       <sec>
          <st>
             <p>Discussion</p>
          </st>
          <p>Two of the hallmarks of cancer are the ability to be self-sufficient in growth signals and to have infinite replicative potential, which can be initiated through damaging the cell cycle restriction points, allowing for progression of cancer from benign to metastatic <abbrgrp>
                <abbr bid="B3">3</abbr>
             </abbrgrp>,<abbrgrp>
                <abbr bid="B16">16</abbr>
             </abbrgrp>. Here we report that phenoxodiol induces cell cycle arrest in the G1/S phase of the cell cycle, with the resultant arrest due to the up regulation of <it>p21</it>
             <sup>
                <it>WAF1</it>
             </sup>. The cytotoxicity may be due to downstream signalling of molecules such as Akt and ASK1 <abbrgrp>
                <abbr bid="B17">17</abbr>
             </abbrgrp>-<abbrgrp>
                <abbr bid="B19">19</abbr>
             </abbrgrp>. <it>c-Myc</it> is a potent oncogene and expression was found to alter in PC3 cells in response to phenoxodiol. We also report that the expression of <it>Ki-67</it> and <it>Cyclin-D1</it> was altered after phenoxodiol treatment. Upon activation of mitogenic signalling, cells commit to entry into a series of regulated steps allowing completion of the cell cycle. Cells begin in G1 phase, the time between M and S phases, and before entry into S phase, where DNA is replicated, must pass through a restriction point <abbrgrp>
                <abbr bid="B6">6</abbr>
             </abbrgrp> that analyses and attempts to repair DNA damage. After S phase, cells enter G2 phase (the time between the S and M phases), where cells can repair errors that occurred during DNA duplication, preventing the propagation of these errors to daughter cells. Finally, the separation into two daughter cells by chromatid separation occurs and is called M phase <abbrgrp>
                <abbr bid="B20">20</abbr>
             </abbrgrp>. The sequence of events in cell cycle progression is highly orchestrated and depends on the cyclic activation and inactivation of cyclin dependent kinases (CDK), which govern the progression of the cells from one phase to another. In the event of tumourigenesis, constitutive mitogenic signalling as well as mutations in tumour suppressor genes and proto-oncogenes leads to cell cycle deregulation and uncontrolled proliferation <abbrgrp>
                <abbr bid="B15">15</abbr>
             </abbrgrp>,<abbrgrp>
                <abbr bid="B21">21</abbr>
             </abbrgrp>.</p>
          <p>The tumour suppressor <it>p53</it> is the primary controller of cell cycle activity, which triggers cell cycle arrest, induces the repair of DNA damage or apoptosis by induction of <it>p21</it>
             <sup>
                <it>WAF1</it>
             </sup>, <it>p53R2</it>, <it>Bax</it>, and <it>Puma</it>
             <abbrgrp>
                <abbr bid="B22">22</abbr>
             </abbrgrp>. p21<sup>WAF1</sup> is a cyclin dependant kinase inhibitor (CdkI) family member, along with p27 and p57, which interfere with the cyclin dependant kinase-cyclin complex. The group is regulated both by internal and external signals with the expression of p21<sup>WAF1</sup> under transcriptional control of the p53 tumour suppressor gene <abbrgrp>
                <abbr bid="B23">23</abbr>
             </abbrgrp>. In this study we exhibited the ability of phenoxodiol to induce cell cycle arrest at both 10&#160;&#956;M and 30&#160;&#956;M concentrations over 24 and 48&#160;hours of treatment, with the resultant cells exhibiting significantly decreased cell populations of G2 cells and subsequent arrest of the cell cycle visible in the significant alteration of G1 and S phase cell populations. In all cell lines the decrease in G2 phase cell population was consistent and resulted in very low cell populations, while some treatments resulted in high S phase arrest and others in G1 phase arrest. It is clear that the method of phenoxodiol induced cell cycle arrest is independent of p53 status, with LNCaP (p53-wild type), DU145 (p53-mutated), and PC3 (p53-null) cells all representing different p53 status cell types.</p>
          <p>
             <it>p21</it>
             <sup>
                <it>WAF1</it>
             </sup> is a tumour suppressor gene that can induce disruption of the Cyclin-e/Cdk2 complex and prevent subsequent progression from G1 phase into S phase of the cell cycle <abbrgrp>
                <abbr bid="B18">18</abbr>
             </abbrgrp>,<abbrgrp>
                <abbr bid="B24">24</abbr>
             </abbrgrp>. Numerous studies have shown that up regulation of <it>p21</it>
             <sup>
                <it>WAF1</it>
             </sup> causes growth arrest in various cancer models and, though <it>p21</it>
             <sup>
                <it>WAF1</it>
             </sup> was initially identified to be transcriptionally up-regulated by <it>p53</it> in response to DNA damage, recent studies have shown that <it>p21</it>
             <sup>
                <it>WAF1</it>
             </sup> can also be induced by various transcription factors with subsequent mediation of cell cycle arrest, senescence, and apoptosis in a <it>p53</it> independent manner <abbrgrp>
                <abbr bid="B25">25</abbr>
             </abbrgrp>,<abbrgrp>
                <abbr bid="B26">26</abbr>
             </abbrgrp>. The ability of isoflavones, and specifically phenoxodiol, to induce cell cycle arrest has been previously reported with studies indicating that arrest was induced by <it>p21</it>
             <sup>
                <it>WAF1</it>
             </sup> stabilisation and expression increase <abbrgrp>
                <abbr bid="B25">25</abbr>
             </abbrgrp>,<abbrgrp>
                <abbr bid="B27">27</abbr>
             </abbrgrp>,<abbrgrp>
                <abbr bid="B28">28</abbr>
             </abbrgrp>. We investigated the expression of <it>p21</it>
             <sup>
                <it>WAF1</it>
             </sup> after the data indicated significant cell cycle arrest as a response to phenoxodiol treatment. <it>p21</it>
             <sup>
                <it>WAF1</it>
             </sup> signalling expression was found to be significantly increased across all the cell lines in response to treatment, indicating that activation of <it>p21</it>
             <sup>
                <it>WAF1</it>
             </sup> was occurring via a <it>p53</it> independent manner, with resulting cell cycle arrest. The induction of cytotoxicity in the cells was independent of caspase activation, as previously shown, and potentiated by induced mitotic depolarisation. This confirms previous studies that have indicated that isoflavones induce cell cycle arrest through activation and stabilisation of <it>p21</it>
             <sup>
                <it>WAF1</it>
             </sup>
             <abbrgrp>
                <abbr bid="B27">27</abbr>
             </abbrgrp>,<abbrgrp>
                <abbr bid="B28">28</abbr>
             </abbrgrp>.</p>
          <p>The assembly of Cyclin-D1, with its CDK4/6 partners, is a mitogen regulated process occurring in early G1; with the resultant Cyclin-D1-CDK4/CDK6 complexes promoting G1 progression by inhibiting the activity of the retinoblastoma protein (Rb), resulting in activation of E2F and subsequent cyclin/cdk signalling, which enters the cell into the cell cycle <abbrgrp>
                <abbr bid="B13">13</abbr>
             </abbrgrp>,<abbrgrp>
                <abbr bid="B29">29</abbr>
             </abbrgrp>. Many oncogenic signals induce <it>Cyclin-D1</it> expression <abbrgrp>
                <abbr bid="B30">30</abbr>
             </abbrgrp>-<abbrgrp>
                <abbr bid="B32">32</abbr>
             </abbrgrp> and do so through distinct DNA sequences in the Cyclin-D1 promoter, including Ras, Src,ErbB2, and &#946;-catenin. Decreasing the expression of <it>Cyclin-D1</it>, or interference with the cyclin/Cdk complex results in cell arrest in G1 phase and eventual senescence. We investigated the expression of <it>Cyclin-D1</it> after treatment with phenoxodiol and determined that DU145 and PC3 both had a significant decrease in signalling over 24&#160;hours but not over 48, while LNCaP cells did not change expression of <it>Cyclin-D1</it> signalling. While not a direct target of phenoxodiol treatment in prostate cancer cells, the role of <it>Cyclin-D1</it> seems to be tissue and oncogene specific, with <it>Cyclin-D1</it> linked to activation of the Wnt/&#946;-catenin signalling pathway <abbrgrp>
                <abbr bid="B33">33</abbr>
             </abbrgrp>.</p>
          <p>Ki-67 antigen is present in all proliferating cells (normal and neoplastic) and its evaluation allows determination of the rate of growth. <it>Ki-67</it> expression has been shown to have a strong relationship with Gleason&#8217;s grading, which has an important correlation with the prognosis of prostate cancer and, as such, it is an independent predictive factor in both patient survival assessment and disease recurrence <abbrgrp>
                <abbr bid="B14">14</abbr>
             </abbrgrp>,<abbrgrp>
                <abbr bid="B34">34</abbr>
             </abbrgrp>. <it>Ki-67</it> expression was found to significantly decrease in LNCaP and PC3 cells, while there was a biological trend towards this in DU145 cells but error margins resulted in no detection of significant alteration. The decreased <it>Ki-67</it> signalling expression confirms the cell cycle arrest data and indicates that prostate cancer cells are undergoing senescence induced cytotoxicity. <it>c-Myc</it> signalling has been shown to be a proto-oncogene, with regulation of <it>c-Myc</it> expression inducing the expression of other oncogenes, in response and leading to a neoplastic cell type. It is known that cell cycle regulation is altered under excess <it>c-Myc</it> expression, with a decrease in time taken to reach the restriction point of G1 <abbrgrp>
                <abbr bid="B12">12</abbr>
             </abbrgrp>. In this study we determined that <it>c-Myc</it> expression was only altered under the influence of phenoxodiol in PC3 cells after 48&#160;hours of treatment, with signalling potentially being a mechanism to drive the cell out of arrest.</p>
       </sec>
       <sec>
          <st>
             <p>Conclusions</p>
          </st>
          <p>In this study we determined that phenoxodiol treatment induced significant cell cycle arrest across 24 and 48&#160;hours of 10&#160;&#956;M and 30&#160;&#956;M phenoxodiol treatment. <it>p21</it>
             <sup>
                <it>WAF1</it>
             </sup> expression was found to be significantly increased across all the cell lines in response to treatment, indicating that activation of <it>p21</it>
             <sup>
                <it>WAF1</it>
             </sup> and subsequent cell arrest was occurring via a <it>p53</it> independent manner, with induction of cytotoxicity independent of caspase activation. We determined that <it>c-Myc</it> and <it>Cyclin-D1</it> expression was not consistently altered but that <it>Ki-67</it> signalling expression was decreased in line with the cell cycle arrest.</p>
          <p>Phenoxodiol demonstrates an ability in prostate cancer cells to induce significant cytotoxicity in cells by interacting with <it>p21</it>
             <sup>
                <it>WAF1</it>
             </sup> and inducing cell cycle arrest irrespective of <it>p53</it> status or caspase pathway interactions. These data indicate that phenoxodiol would be effective as a potential future treatment modality for both hormone sensitive and hormone refractory prostate cancer.</p>
       </sec>
       <sec>
          <st>
             <p>Materials and methods</p>
          </st>
          <sec>
             <st>
                <p>Cell culture</p>
             </st>
             <p>Cells were cultured as previously published <abbrgrp>
                   <abbr bid="B11">11</abbr>
                </abbrgrp>. LNCaP (ATCC: CRL-1740), DU145 (ATCC: HTB-81), and PC3 (ATCC: CRL-1435) human prostate cells were all grown with 10% FBS, 2&#160;mM&#160;L-glutamine and 1% penicillin/streptomycin media in a 5% CO<sub>2</sub> atmosphere at 37&#176;C. LNCaP cells were grown in RPMI 1640 media (Gibco) supplemented with 10&#160;mM HEPES, 2.5&#160;g/l glucose and 1&#160;mM sodium pyruvate. DU145 cells were grown in MEM with Earle&#8217;s BSS media (Gibco) supplemented with 1&#160;mM sodium pyruvate and 0.1&#160;mM Non-Essential Amino Acids. PC3 cells were grown in Hams F12K media (Gibco).</p>
          </sec>
          <sec>
             <st>
                <p>Cell cycle analyses</p>
             </st>
             <p>Analysing the population of cells in each cell cycle phase indicated whether phenoxodiol had a direct effect upon the cell cycle of prostate cancer cells. Briefly, cells were seeded into 6 well plates and incubated for 48&#160;hours before 24 or 48&#160;hours of treatment media were applied. Cell media were aspirated and centrifuged and cells were trypsinised, then placed into the same tube and centrifuged. Cells were washed with PBS and then -20&#176;C 70% ethanol was added drop wise, while vortexing to fixate the cells. Cells were stored at 4&#176;C then rehydrated with PBS and stained with propidium iodide before being placed into a FACS Canto II cytometer, which determined fluorescence and therefore DNA content. FlowJo software was utilised to further analyse the sample and distinguish quantitative populations of G1, S and G2 phase cells.</p>
          </sec>
          <sec>
             <st>
                <p>Phenoxodiol</p>
             </st>
             <p>Phenoxodiol (Sigma-Aldrich Cat#D7446) was made as a stock solution of 10&#160;mg/ml in DMSO and stored at -20&#176;C, protected from light. The stock was used within 7&#160;days. The stock solution was diluted 100-fold in growth medium as a working dilution. This was then further diluted in growth medium to a final concentration of 10&#160;&#956;M or 30&#160;&#956;M. Vehicle control and 10&#160;&#956;M phenoxodiol treatment were augmented accordingly with DMSO to ensure uniform concentration.</p>
          </sec>
          <sec>
             <st>
                <p>Reverse transcription and quantitative RT-PCR</p>
             </st>
             <p>Cells were seeded and treated as described for DNA 3&#8242;-end analysis. Cells floating in supernatant were centrifuged and combined with adherent cells per well. RNA was isolated using TriReagent (Astral Scientific) according to manufacturer&#8217;s instructions then treated with DNA-<it>Free</it>&#8482; (Ambion) according to manufacturer&#8217;s instructions, to remove contaminating genomic DNA. One microgram of RNA was reverse transcribed using M-MLV (Promega) and random primers (Promega) according to manufacturer&#8217;s instructions. The resulting cDNA was purified (MoBio PCR clean-up kit) prior to real-time quantitative RT-PCR. Primers used to amplify <it>AIF, BAX, Bcl-xL, Caspase-3, xIAP</it>, and <it>L19</it> (housekeeping gene) are outlined in Table&#160;<tblr tid="T1">1</tblr>. RT-PCR was performed in 10&#160;&#956;l reactions using iQ SYBR green supermix (Biorad) and 1&#160;&#956;l cDNA in the Rotor-Gene 3000 (Corbett Research). Cycling conditions were 95&#176;C (0-45&#160;s), annealing temperature as per Table&#160;<tblr tid="T1">1</tblr> (15-45&#160;s) and 72&#176;C (5-45&#160;s) for 45&#160;cycles. Amplification was checked by melt curve analysis and by electrophoresis in 2% agarose/ethidium bromide for product size. Threshold cycle values for cDNA samples were compared against a standard curve obtained by amplification of 10-fold dilutions of corresponding PCR product. Each cDNA sample was run in duplicate and an average obtained. All mRNA levels were normalized by dividing by L19 mRNA levels for each cDNA sample.</p>
             
                <table id="T1">
                   <title>
                      <p>Table 1</p>
                   </title>
                   <caption>
                      <p>
                         <b>Primer sequences, product size, and annealing temperature</b>
                      </p>
                   </caption>
                   <tgroup align="left" cols="4">
                      <colspec align="left" colname="c1" colnum="1" colwidth="*"/>
                      <colspec align="left" colname="c2" colnum="2" colwidth="*"/>
                      <colspec align="left" colname="c3" colnum="3" colwidth="*"/>
                      <colspec align="left" colname="c4" colnum="4" colwidth="*"/>
                      <thead>
                         <row valign="top">
                            <entry colname="c1">
                               <p>
                                  <b>Gene</b>
                               </p>
                            </entry>
                            <entry colname="c2">
                               <p>
                                  <b>Sequence</b>
                               </p>
                            </entry>
                            <entry colname="c3">
                               <p>
                                  <b>Product size (base pairs)</b>
                               </p>
                            </entry>
                            <entry colname="c4">
                               <p>
                                  <b>Annealing temperature</b>
                               </p>
                            </entry>
                         </row>
                      </thead>
                      <tbody>
                         <row valign="top">
                            <entry colname="c1" morerows="1">
                               <p>
                                  <b>AIF</b>
                               </p>
                            </entry>
                            <entry colname="c2">
                               <p>
                                  <it>Forward</it>: GATCACGCTGTTGTGAGTGG</p>
                            </entry>
                            <entry colname="c3" morerows="1">
                               <p>179&#160;bp</p>
                            </entry>
                            <entry colname="c4" morerows="1">
                               <p>61&#176;C</p>
                            </entry>
                         </row>
                         <row valign="top">
                            <entry colname="c2">
                               <p>
                                  <it>Reverse</it>: TCTTGTGCAGTTGCTTTTGC</p>
                            </entry>
                         </row>
                         <row valign="top">
                            <entry colname="c1" morerows="1">
                               <p>
                                  <b>&#946;-Catenin</b>
                               </p>
                            </entry>
                            <entry colname="c2">
                               <p>
                                  <it>Forward</it>: GATTTGATGGAGTTGGAC</p>
                            </entry>
                            <entry colname="c3" morerows="1">
                               <p>218&#160;bp</p>
                            </entry>
                            <entry colname="c4" morerows="1">
                               <p>52&#176;C</p>
                            </entry>
                         </row>
                         <row valign="top">
                            <entry colname="c2">
                               <p>
                                  <it>Reverse</it>: TGTTCTTGAGTGAAGGAC</p>
                            </entry>
                         </row>
                         <row valign="top">
                            <entry colname="c1" morerows="1">
                               <p>
                                  <b>Bax</b>
                               </p>
                            </entry>
                            <entry colname="c2">
                               <p>
                                  <it>Forward</it>: GCTGGACATTGGACTTCCTC</p>
                            </entry>
                            <entry colname="c3" morerows="1">
                               <p>167&#160;bp</p>
                            </entry>
                            <entry colname="c4" morerows="1">
                               <p>61&#176;C</p>
                            </entry>
                         </row>
                         <row valign="top">
                            <entry colname="c2">
                               <p>
                                  <it>Reverse</it>: TCAGCCCATCTTCTTCCAGA</p>
                            </entry>
                         </row>
                         <row valign="top">
                            <entry colname="c1" morerows="1">
                               <p>
                                  <b>Bcl-xL</b>
                               </p>
                            </entry>
                            <entry colname="c2">
                               <p>
                                  <it>Forward</it>: ACAATGCAGCAGCCGAGAG</p>
                            </entry>
                            <entry colname="c3" morerows="1">
                               <p>167&#160;bp</p>
                            </entry>
                            <entry colname="c4" morerows="1">
                               <p>61&#176;C</p>
                            </entry>
                         </row>
                         <row valign="top">
                            <entry colname="c2">
                               <p>
                                  <it>Reverse</it>: ATGTGGTGGAGCAGAGAAGG</p>
                            </entry>
                         </row>
                         <row valign="top">
                            <entry colname="c1" morerows="1">
                               <p>
                                  <b>Caspase 3</b>
                               </p>
                            </entry>
                            <entry colname="c2">
                               <p>
                                  <it>Forward:</it> AAGGATCCTTAATAAAGGTATCCATGGAGAACACT</p>
                            </entry>
                            <entry colname="c3" morerows="1">
                               <p>322&#160;bp</p>
                            </entry>
                            <entry colname="c4" morerows="1">
                               <p>55&#176;C</p>
                            </entry>
                         </row>
                         <row valign="top">
                            <entry colname="c2">
                               <p>
                                  <it>Reverse</it>: AAAGAATTCCATCACGCATCAATTCCACAATTTCTT</p>
                            </entry>
                         </row>
                         <row valign="top">
                            <entry colname="c1" morerows="1">
                               <p>
                                  <b>Cyclin-D1</b>
                               </p>
                            </entry>
                            <entry colname="c2">
                               <p>
                                  <it>Forward</it>: AACTACCTGGACCGCTTCCT</p>
                            </entry>
                            <entry colname="c3" morerows="1">
                               <p>165&#160;bp</p>
                            </entry>
                            <entry colname="c4" morerows="1">
                               <p>62&#176;C</p>
                            </entry>
                         </row>
                         <row valign="top">
                            <entry colname="c2">
                               <p>
                                  <it>Reverse</it>: CCACTTGAGCTTGTTCACCA</p>
                            </entry>
                         </row>
                         <row valign="top">
                            <entry colname="c1" morerows="1">
                               <p>
                                  <b>GAPDH</b>
                               </p>
                            </entry>
                            <entry colname="c2">
                               <p>
                                  <it>Forward</it>: CAGAACATCATCCCTGCATCCACT</p>
                            </entry>
                            <entry colname="c3" morerows="1">
                               <p>185&#160;bp</p>
                            </entry>
                            <entry colname="c4" morerows="1">
                               <p>60&#176;C</p>
                            </entry>
                         </row>
                         <row valign="top">
                            <entry colname="c2">
                               <p>
                                  <it>Reverse</it>: GTTGCTGTTGAAGTCACAGGAGAC</p>
                            </entry>
                         </row>
                         <row valign="top">
                            <entry colname="c1" morerows="1">
                               <p>
                                  <b>Ki-67</b>
                               </p>
                            </entry>
                            <entry colname="c2">
                               <p>
                                  <it>Forward</it>: AGTCAGACCCAGTGGACACC</p>
                            </entry>
                            <entry colname="c3" morerows="1">
                               <p>225&#160;bp</p>
                            </entry>
                            <entry colname="c4" morerows="1">
                               <p>60&#176;C</p>
                            </entry>
                         </row>
                         <row valign="top">
                            <entry colname="c2">
                               <p>
                                  <it>Reverse</it>: TGCTGCCGGTTAAGTTCTCT</p>
                            </entry>
                         </row>
                         <row valign="top">
                            <entry colname="c1" morerows="1">
                               <p>
                                  <b>L19</b>
                               </p>
                            </entry>
                            <entry colname="c2">
                               <p>
                                  <it>Forward</it>: CTGAAGGTCAAAGGGAATGTG</p>
                            </entry>
                            <entry colname="c3" morerows="1">
                               <p>194&#160;bp</p>
                            </entry>
                            <entry colname="c4" morerows="1">
                               <p>52&#176;C</p>
                            </entry>
                         </row>
                         <row valign="top">
                            <entry colname="c2">
                               <p>
                                  <it>Reverse</it>: GGACAGAGTCTTGATGATCTC</p>
                            </entry>
                         </row>
                         <row valign="top">
                            <entry colname="c1" morerows="1">
                               <p>
                                  <b>p21</b>
                                  <sup>
                                     <b>WAF1</b>
                                  </sup>
                               </p>
                            </entry>
                            <entry colname="c2">
                               <p>
                                  <it>Forward</it>: CCGAAGTCAGTTCCTTGTGG</p>
                            </entry>
                            <entry colname="c3" morerows="1">
                               <p>333&#160;bp</p>
                            </entry>
                            <entry colname="c4" morerows="1">
                               <p>61&#176;C</p>
                            </entry>
                         </row>
                         <row valign="top">
                            <entry colname="c2">
                               <p>
                                  <it>Reverse</it>: AAGTCGAAGTTCCATCGCTCA</p>
                            </entry>
                         </row>
                         <row valign="top">
                            <entry colname="c1" morerows="1">
                               <p>
                                  <b>sFRP4</b>
                               </p>
                            </entry>
                            <entry colname="c2">
                               <p>
                                  <it>Forward</it>: CGATCGGTGCAAGTGTAAAA</p>
                            </entry>
                            <entry colname="c3" morerows="1">
                               <p>181&#160;bp</p>
                            </entry>
                            <entry colname="c4" morerows="1">
                               <p>56&#176;C</p>
                            </entry>
                         </row>
                         <row valign="top">
                            <entry colname="c2">
                               <p>
                                  <it>Reverse</it>: GACTTGAGTTCGAGGGATGG</p>
                            </entry>
                         </row>
                         <row valign="top">
                            <entry colname="c1" morerows="1">
                               <p>
                                  <b>XIAP</b>
                               </p>
                            </entry>
                            <entry colname="c2">
                               <p>
                                  <it>Forward</it>: GGGGTTCAGTTTCAAGGACA</p>
                            </entry>
                            <entry colname="c3" morerows="1">
                               <p>183&#160;bp</p>
                            </entry>
                            <entry colname="c4" morerows="1">
                               <p>56&#176;C</p>
                            </entry>
                         </row>
                         <row valign="top">
                            <entry colname="c2">
                               <p>
                                  <it>Reverse</it>: CGCCTTAGCTGCTCTTCAGT</p>
                            </entry>
                         </row>
                      </tbody>
                   </tgroup>
                </table>
             
          </sec>
          <sec>
             <st>
                <p>Data presentation and statistics</p>
             </st>
             <p>Data are presented as mean&#8201;&#177;&#8201;SEM. For each experiment <it>n</it> is indicated in figure legends and refers to the number of well replicates per group. Differences between control and treatment group means were measured by 2-sample t-tests. Statistical significance is p &lt;0.05.</p>
          </sec>
       </sec>
       <sec>
          <st>
             <p>Competing interests</p>
          </st>
          <p>The authors declare that they have no competing interests.</p>
       </sec>
       <sec>
          <st>
             <p>Authors&#8217; contributions</p>
          </st>
          <p>SM, FA, MW, and AD participated in the design of the study, analysis of the data and drafting the manuscript. SM carried out the experimental work. All authors read and approved the final manuscript.</p>
       </sec>
    </bdy>
    <bm>
       <ack>
          <sec>
             <st>
                <p>Acknowledgements</p>
             </st>
             <p>AD is supported by the Cancer Council of Western Australia.</p>
          </sec>
       </ack>
       <refgrp>
          
          <bibl id="B1">
             <title>
                <p>Docetaxel for treatment of solid tumours: a systematic review of clinical data</p>
             </title>
             <aug>
                <au>
                   <snm>Montero</snm>
                   <fnm>A</fnm>
                </au>
                <au>
                   <snm>Fossella</snm>
                   <fnm>F</fnm>
                </au>
                <au>
                   <snm>Hortobagyi</snm>
                   <fnm>G</fnm>
                </au>
                <au>
                   <snm>Valero</snm>
                   <fnm>V</fnm>
                </au>
             </aug>
             <source>Lancet Oncol</source>
             <pubdate>2005</pubdate>
             <volume>6</volume>
             <issue>4</issue>
             <fpage>229</fpage>
             <lpage>239</lpage>
             <xrefbib>
                <pubidlist>
                   <pubid idtype="doi">10.1016/S1470-2045(05)70094-2</pubid>
                   <pubid idtype="pmpid" link="fulltext">15811618</pubid>
                </pubidlist>
             </xrefbib>
          </bibl>
          <bibl id="B2">
             <title>
                <p>Bortezomib inhibits docetaxel-induced apoptosis via a p21-dependent mechanism in human prostate cancer cells</p>
             </title>
             <aug>
                <au>
                   <snm>Canfield</snm>
                   <fnm>SE</fnm>
                </au>
                <au>
                   <snm>Zhu</snm>
                   <fnm>K</fnm>
                </au>
                <au>
                   <snm>Williams</snm>
                   <fnm>SA</fnm>
                </au>
                <au>
                   <snm>McConkey</snm>
                   <fnm>DJ</fnm>
                </au>
             </aug>
             <source>Mol Cancer Ther</source>
             <pubdate>2006</pubdate>
             <volume>5</volume>
             <issue>8</issue>
             <fpage>2043</fpage>
             <lpage>2050</lpage>
             <xrefbib>
                <pubidlist>
                   <pubid idtype="doi">10.1158/1535-7163.MCT-05-0437</pubid>
                   <pubid idtype="pmpid" link="fulltext">16928825</pubid>
                </pubidlist>
             </xrefbib>
          </bibl>
          <bibl id="B3">
             <title>
                <p>The hallmarks of cancer</p>
             </title>
             <aug>
                <au>
                   <snm>Hanahan</snm>
                   <fnm>D</fnm>
                </au>
                <au>
                   <snm>Weinberg</snm>
                   <fnm>RA</fnm>
                </au>
             </aug>
             <source>Cell</source>
             <pubdate>2000</pubdate>
             <volume>100</volume>
             <issue>1</issue>
             <fpage>57</fpage>
             <lpage>70</lpage>
             <xrefbib>
                <pubidlist>
                   <pubid idtype="doi">10.1016/S0092-8674(00)81683-9</pubid>
                   <pubid idtype="pmpid" link="fulltext">10647931</pubid>
                </pubidlist>
             </xrefbib>
          </bibl>
          <bibl id="B4">
             <note>Marieb E, Hoehn K: <b>Human Anatomy and Physiology.</b> 9th edition. Sydney: Pearson; 2012.</note>
          </bibl>
          <bibl id="B5">
             <title>
                <p>Reappraisal of serum starvation, the restriction point, G0, and G1 phase arrest points</p>
             </title>
             <aug>
                <au>
                   <snm>Cooper</snm>
                   <fnm>S</fnm>
                </au>
             </aug>
             <source>FASEB J</source>
             <pubdate>2003</pubdate>
             <volume>17</volume>
             <issue>3</issue>
             <fpage>333</fpage>
             <lpage>340</lpage>
             <xrefbib>
                <pubidlist>
                   <pubid idtype="doi">10.1096/fj.02-0352rev</pubid>
                   <pubid idtype="pmpid" link="fulltext">12631573</pubid>
                </pubidlist>
             </xrefbib>
          </bibl>
          <bibl id="B6">
             <title>
                <p>A restriction point for control of normal animal cell proliferation</p>
             </title>
             <aug>
                <au>
                   <snm>Pardee</snm>
                   <fnm>AB</fnm>
                </au>
             </aug>
             <source>Proc Natl Acad Sci U S A</source>
             <pubdate>1974</pubdate>
             <volume>71</volume>
             <issue>4</issue>
             <fpage>1286</fpage>
             <lpage>1290</lpage>
             <xrefbib>
                <pubidlist>
                   <pubid idtype="doi">10.1073/pnas.71.4.1286</pubid>
                   <pubid idtype="pmpid" link="fulltext">4524638</pubid>
                </pubidlist>
             </xrefbib>
          </bibl>
          <bibl id="B7">
             <title>
                <p>Risks and benefits of taxanes in breast and ovarian cancer</p>
             </title>
             <aug>
                <au>
                   <snm>Michaud</snm>
                   <fnm>LB</fnm>
                </au>
                <au>
                   <snm>Valero</snm>
                   <fnm>V</fnm>
                </au>
                <au>
                   <snm>Hortobagyi</snm>
                   <fnm>G</fnm>
                </au>
             </aug>
             <source>Drug Saf</source>
             <pubdate>2000</pubdate>
             <volume>23</volume>
             <issue>5</issue>
             <fpage>401</fpage>
             <lpage>428</lpage>
             <xrefbib>
                <pubidlist>
                   <pubid idtype="doi">10.2165/00002018-200023050-00005</pubid>
                   <pubid idtype="pmpid" link="fulltext">11085347</pubid>
                </pubidlist>
             </xrefbib>
          </bibl>
          <bibl id="B8">
             <title>
                <p>Resistance to docetaxel-induced apoptosis in prostate cancer cells by p38/p53/p21 signaling</p>
             </title>
             <aug>
                <au>
                   <snm>Gan</snm>
                   <fnm>L</fnm>
                </au>
                <au>
                   <snm>Wang</snm>
                   <fnm>J</fnm>
                </au>
                <au>
                   <snm>Xu</snm>
                   <fnm>H</fnm>
                </au>
                <au>
                   <snm>Yang</snm>
                   <fnm>X</fnm>
                </au>
             </aug>
             <source>Prostate</source>
             <pubdate>2011</pubdate>
             <volume>71</volume>
             <issue>11</issue>
             <fpage>1158</fpage>
             <lpage>1166</lpage>
             <xrefbib>
                <pubidlist>
                   <pubid idtype="doi">10.1002/pros.21331</pubid>
                   <pubid idtype="pmpid" link="fulltext">21656826</pubid>
                </pubidlist>
             </xrefbib>
          </bibl>
          <bibl id="B9">
             <title>
                <p>Phenoxodiol (2H-1-benzopyran-7-0,1,3-(4-hydroxyphenyl)), a novel isoflavone derivative, inhibits DNA topoisomerase II by stabilizing the cleavable complex</p>
             </title>
             <aug>
                <au>
                   <snm>Constantinou</snm>
                   <fnm>AI</fnm>
                </au>
                <au>
                   <snm>Husband</snm>
                   <fnm>A</fnm>
                </au>
             </aug>
             <source>Anticancer Res</source>
             <pubdate>2002</pubdate>
             <volume>22</volume>
             <issue>5</issue>
             <fpage>2581</fpage>
             <lpage>2585</lpage>
             <xrefbib>
                <pubidlist>
                   <pubid idtype="pmpid" link="fulltext">12529967</pubid>
                </pubidlist>
             </xrefbib>
          </bibl>
          <bibl id="B10">
             <title>
                <p>Phenoxodiol treatment alters the subsequent response of ENOX2 (tNOX) and growth of hela cells to paclitaxel and cisplatin</p>
             </title>
             <aug>
                <au>
                   <snm>Morre</snm>
                   <fnm>DJ</fnm>
                </au>
                <au>
                   <snm>McClain</snm>
                   <fnm>N</fnm>
                </au>
                <au>
                   <snm>Wu</snm>
                   <fnm>LY</fnm>
                </au>
                <au>
                   <snm>Kelly</snm>
                   <fnm>G</fnm>
                </au>
                <au>
                   <snm>Morre</snm>
                   <fnm>DM</fnm>
                </au>
             </aug>
             <source>Mol Biotechnol</source>
             <pubdate>2009</pubdate>
             <volume>42</volume>
             <issue>1</issue>
             <fpage>100</fpage>
             <lpage>109</lpage>
             <xrefbib>
                <pubidlist>
                   <pubid idtype="doi">10.1007/s12033-008-9132-x</pubid>
                   <pubid idtype="pmpid" link="fulltext">19156549</pubid>
                </pubidlist>
             </xrefbib>
          </bibl>
          <bibl id="B11">
             <title>
                <p>Cytotoxic effects of the novel isoflavone, phenoxodiol, on prostate cancer cell lines</p>
             </title>
             <aug>
                <au>
                   <snm>Mahoney</snm>
                   <fnm>S</fnm>
                </au>
                <au>
                   <snm>Arfuso</snm>
                   <fnm>F</fnm>
                </au>
                <au>
                   <snm>Rogers</snm>
                   <fnm>P</fnm>
                </au>
                <au>
                   <snm>Hisheh</snm>
                   <fnm>S</fnm>
                </au>
                <au>
                   <snm>Brown</snm>
                   <fnm>D</fnm>
                </au>
                <au>
                   <snm>Millward</snm>
                   <fnm>M</fnm>
                </au>
                <au>
                   <snm>Dharmarajan</snm>
                   <fnm>A</fnm>
                </au>
             </aug>
             <source>J Biosci</source>
             <pubdate>2012</pubdate>
             <volume>37</volume>
             <issue>1</issue>
             <fpage>73</fpage>
             <lpage>84</lpage>
             <xrefbib>
                <pubidlist>
                   <pubid idtype="doi">10.1007/s12038-011-9170-6</pubid>
                   <pubid idtype="pmpid" link="fulltext">22357205</pubid>
                </pubidlist>
             </xrefbib>
          </bibl>
          <bibl id="B12">
             <title>
                <p>Myc: the beauty and the beast</p>
             </title>
             <aug>
                <au>
                   <snm>Wasylishen</snm>
                   <fnm>AR</fnm>
                </au>
                <au>
                   <snm>Penn</snm>
                   <fnm>LZ</fnm>
                </au>
             </aug>
             <source>Genes Cancer</source>
             <pubdate>2010</pubdate>
             <volume>1</volume>
             <issue>6</issue>
             <fpage>532</fpage>
             <lpage>541</lpage>
             <xrefbib>
                <pubidlist>
                   <pubid idtype="doi">10.1177/1947601910378024</pubid>
                   <pubid idtype="pmpid" link="fulltext">21779457</pubid>
                </pubidlist>
             </xrefbib>
          </bibl>
          <bibl id="B13">
             <title>
                <p>Regulation of exit from quiescence by p27 and cyclin D1-CDK4</p>
             </title>
             <aug>
                <au>
                   <snm>Ladha</snm>
                   <fnm>MH</fnm>
                </au>
                <au>
                   <snm>Lee</snm>
                   <fnm>KY</fnm>
                </au>
                <au>
                   <snm>Upton</snm>
                   <fnm>TM</fnm>
                </au>
                <au>
                   <snm>Reed</snm>
                   <fnm>MF</fnm>
                </au>
                <au>
                   <snm>Ewen</snm>
                   <fnm>ME</fnm>
                </au>
             </aug>
             <source>Mol Cell Biol</source>
             <pubdate>1998</pubdate>
             <volume>18</volume>
             <issue>11</issue>
             <fpage>6605</fpage>
             <lpage>6615</lpage>
             <xrefbib>
                <pubidlist>
                   <pubid idtype="pmpid" link="fulltext">9774675</pubid>
                </pubidlist>
             </xrefbib>
          </bibl>
          <bibl id="B14">
             <title>
                <p>The effect of chemotherapy on Ki-67, Bcl-2 and Bak expression in primary tumors and lymph node metastases of breast cancer</p>
             </title>
             <aug>
                <au>
                   <snm>Koda</snm>
                   <fnm>M</fnm>
                </au>
                <au>
                   <snm>Sulkowska</snm>
                   <fnm>M</fnm>
                </au>
                <au>
                   <snm>Kanczuga-Koda</snm>
                   <fnm>L</fnm>
                </au>
                <au>
                   <snm>Tomaszewski</snm>
                   <fnm>J</fnm>
                </au>
                <au>
                   <snm>Kucharczuk</snm>
                   <fnm>W</fnm>
                </au>
                <au>
                   <snm>Lesniewicz</snm>
                   <fnm>T</fnm>
                </au>
                <au>
                   <snm>Cymek</snm>
                   <fnm>S</fnm>
                </au>
                <au>
                   <snm>Sulkowski</snm>
                   <fnm>S</fnm>
                </au>
             </aug>
             <source>Oncol Rep</source>
             <pubdate>2007</pubdate>
             <volume>18</volume>
             <issue>1</issue>
             <fpage>113</fpage>
             <lpage>119</lpage>
             <xrefbib>
                <pubidlist>
                   <pubid idtype="pmpid" link="fulltext">17549355</pubid>
                </pubidlist>
             </xrefbib>
          </bibl>
          <bibl id="B15">
             <title>
                <p>p21 and p27 induction by silibinin is essential for its cell cycle arrest effect in prostate carcinoma cells</p>
             </title>
             <aug>
                <au>
                   <snm>Roy</snm>
                   <fnm>S</fnm>
                </au>
                <au>
                   <snm>Kaur</snm>
                   <fnm>M</fnm>
                </au>
                <au>
                   <snm>Agarwal</snm>
                   <fnm>C</fnm>
                </au>
                <au>
                   <snm>Tecklenburg</snm>
                   <fnm>M</fnm>
                </au>
                <au>
                   <snm>Sclafani</snm>
                   <fnm>RA</fnm>
                </au>
                <au>
                   <snm>Agarwal</snm>
                   <fnm>R</fnm>
                </au>
             </aug>
             <source>Mol Cancer Ther</source>
             <pubdate>2007</pubdate>
             <volume>6</volume>
             <issue>10</issue>
             <fpage>2696</fpage>
             <lpage>2707</lpage>
             <xrefbib>
                <pubidlist>
                   <pubid idtype="doi">10.1158/1535-7163.MCT-07-0104</pubid>
                   <pubid idtype="pmpid" link="fulltext">17938263</pubid>
                </pubidlist>
             </xrefbib>
          </bibl>
          <bibl id="B16">
             <title>
                <p>Hallmarks of cancer: the next generation</p>
             </title>
             <aug>
                <au>
                   <snm>Hanahan</snm>
                   <fnm>D</fnm>
                </au>
                <au>
                   <snm>Weinberg</snm>
                   <fnm>RA</fnm>
                </au>
             </aug>
             <source>Cell</source>
             <pubdate>2011</pubdate>
             <volume>144</volume>
             <issue>5</issue>
             <fpage>646</fpage>
             <lpage>674</lpage>
             <xrefbib>
                <pubidlist>
                   <pubid idtype="doi">10.1016/j.cell.2011.02.013</pubid>
                   <pubid idtype="pmpid" link="fulltext">21376230</pubid>
                </pubidlist>
             </xrefbib>
          </bibl>
          <bibl id="B17">
             <title>
                <p>Ras mutation cooperates with beta-catenin activation to drive bladder tumourigenesis</p>
             </title>
             <aug>
                <au>
                   <snm>Ahmad</snm>
                   <fnm>I</fnm>
                </au>
                <au>
                   <snm>Patel</snm>
                   <fnm>R</fnm>
                </au>
                <au>
                   <snm>Liu</snm>
                   <fnm>Y</fnm>
                </au>
                <au>
                   <snm>Singh</snm>
                   <fnm>LB</fnm>
                </au>
                <au>
                   <snm>Taketo</snm>
                   <fnm>MM</fnm>
                </au>
                <au>
                   <snm>Wu</snm>
                   <fnm>XR</fnm>
                </au>
                <au>
                   <snm>Leung</snm>
                   <fnm>HY</fnm>
                </au>
                <au>
                   <snm>Sansom</snm>
                   <fnm>OJ</fnm>
                </au>
             </aug>
             <source>Cell Death Dis</source>
             <pubdate>2011</pubdate>
             <volume>2</volume>
             <fpage>e124</fpage>
             <xrefbib>
                <pubidlist>
                   <pubid idtype="doi">10.1038/cddis.2011.7</pubid>
                   <pubid idtype="pmpid" link="fulltext">21368895</pubid>
                </pubidlist>
             </xrefbib>
          </bibl>
          <bibl id="B18">
             <title>
                <p>p21WAF1/CIP1 gene is inactivated in metastatic prostatic cancer cell lines by promoter methylation</p>
             </title>
             <aug>
                <au>
                   <snm>Bott</snm>
                   <fnm>SR</fnm>
                </au>
                <au>
                   <snm>Arya</snm>
                   <fnm>M</fnm>
                </au>
                <au>
                   <snm>Kirby</snm>
                   <fnm>RS</fnm>
                </au>
                <au>
                   <snm>Williamson</snm>
                   <fnm>M</fnm>
                </au>
             </aug>
             <source>Prostate Cancer Prostatic Dis</source>
             <pubdate>2005</pubdate>
             <volume>8</volume>
             <issue>4</issue>
             <fpage>321</fpage>
             <lpage>326</lpage>
             <xrefbib>
                <pubidlist>
                   <pubid idtype="doi">10.1038/sj.pcan.4500822</pubid>
                   <pubid idtype="pmpid" link="fulltext">16276353</pubid>
                </pubidlist>
             </xrefbib>
          </bibl>
          <bibl id="B19">
             <title>
                <p>A mimic of phosphorylated prolactin inhibits human breast cancer cell proliferation via upregulation of p21 waf1</p>
             </title>
             <aug>
                <au>
                   <snm>Xie</snm>
                   <fnm>W</fnm>
                </au>
                <au>
                   <snm>He</snm>
                   <fnm>Y</fnm>
                </au>
                <au>
                   <snm>Huo</snm>
                   <fnm>D</fnm>
                </au>
                <au>
                   <snm>Huang</snm>
                   <fnm>Y</fnm>
                </au>
                <au>
                   <snm>Wu</snm>
                   <fnm>W</fnm>
                </au>
             </aug>
             <source>Med Oncol</source>
             <pubdate>2010</pubdate>
             <volume>27</volume>
             <issue>4</issue>
             <fpage>1340</fpage>
             <lpage>1345</lpage>
             <xrefbib>
                <pubidlist>
                   <pubid idtype="doi">10.1007/s12032-009-9386-6</pubid>
                   <pubid idtype="pmpid" link="fulltext">20013077</pubid>
                </pubidlist>
             </xrefbib>
          </bibl>
          <bibl id="B20">
             <title>
                <p>Targeting cell cycle and apoptosis for the treatment of human malignancies</p>
             </title>
             <aug>
                <au>
                   <snm>Senderowicz</snm>
                   <fnm>AM</fnm>
                </au>
             </aug>
             <source>Curr Opin Cell Biol</source>
             <pubdate>2004</pubdate>
             <volume>16</volume>
             <issue>6</issue>
             <fpage>670</fpage>
             <lpage>678</lpage>
             <xrefbib>
                <pubidlist>
                   <pubid idtype="doi">10.1016/j.ceb.2004.09.014</pubid>
                   <pubid idtype="pmpid" link="fulltext">15530779</pubid>
                </pubidlist>
             </xrefbib>
          </bibl>
          <bibl id="B21">
             <title>
                <p>Cyclins, cyclin-dependent kinases and cdk inhibitors: implications in cell cycle control and cancer</p>
             </title>
             <aug>
                <au>
                   <snm>MacLachlan</snm>
                   <fnm>TK</fnm>
                </au>
                <au>
                   <snm>Sang</snm>
                   <fnm>N</fnm>
                </au>
                <au>
                   <snm>Giordano</snm>
                   <fnm>A</fnm>
                </au>
             </aug>
             <source>Crit Rev Eukaryot Gene Expr</source>
             <pubdate>1995</pubdate>
             <volume>5</volume>
             <issue>2</issue>
             <fpage>127</fpage>
             <lpage>156</lpage>
             <xrefbib>
                <pubidlist>
                   <pubid idtype="doi">10.1615/CritRevEukarGeneExpr.v5.i2.20</pubid>
                   <pubid idtype="pmpid" link="fulltext">8845581</pubid>
                </pubidlist>
             </xrefbib>
          </bibl>
          <bibl id="B22">
             <title>
                <p>Impairment of the DNA repair and growth arrest pathways by p53R2 silencing enhances DNA damage-induced apoptosis in a p53-dependent manner in prostate cancer cells</p>
             </title>
             <aug>
                <au>
                   <snm>Devlin</snm>
                   <fnm>HL</fnm>
                </au>
                <au>
                   <snm>Mack</snm>
                   <fnm>PC</fnm>
                </au>
                <au>
                   <snm>Burich</snm>
                   <fnm>RA</fnm>
                </au>
                <au>
                   <snm>Gumerlock</snm>
                   <fnm>PH</fnm>
                </au>
                <au>
                   <snm>Kung</snm>
                   <fnm>HJ</fnm>
                </au>
                <au>
                   <snm>Mudryj</snm>
                   <fnm>M</fnm>
                </au>
                <au>
                   <snm>de Vere White</snm>
                   <fnm>RW</fnm>
                </au>
             </aug>
             <source>Mol Cancer Res</source>
             <pubdate>2008</pubdate>
             <volume>6</volume>
             <issue>5</issue>
             <fpage>808</fpage>
             <lpage>818</lpage>
             <xrefbib>
                <pubidlist>
                   <pubid idtype="doi">10.1158/1541-7786.MCR-07-2027</pubid>
                   <pubid idtype="pmpid" link="fulltext">18505925</pubid>
                </pubidlist>
             </xrefbib>
          </bibl>
          <bibl id="B23">
             <title>
                <p>Linkage of curcumin-induced cell cycle arrest and apoptosis by cyclin-dependent kinase inhibitor p21(/WAF1/CIP1)</p>
             </title>
             <aug>
                <au>
                   <snm>Srivastava</snm>
                   <fnm>RK</fnm>
                </au>
                <au>
                   <snm>Chen</snm>
                   <fnm>Q</fnm>
                </au>
                <au>
                   <snm>Siddiqui</snm>
                   <fnm>I</fnm>
                </au>
                <au>
                   <snm>Sarva</snm>
                   <fnm>K</fnm>
                </au>
                <au>
                   <snm>Shankar</snm>
                   <fnm>S</fnm>
                </au>
             </aug>
             <source>Cell Cycle</source>
             <pubdate>2007</pubdate>
             <volume>6</volume>
             <issue>23</issue>
             <fpage>2953</fpage>
             <lpage>2961</lpage>
             <xrefbib>
                <pubidlist>
                   <pubid idtype="doi">10.4161/cc.6.23.4951</pubid>
                   <pubid idtype="pmpid" link="fulltext">18156803</pubid>
                </pubidlist>
             </xrefbib>
          </bibl>
          <bibl id="B24">
             <title>
                <p>WAF1, a potential mediator of p53 tumor suppression</p>
             </title>
             <aug>
                <au>
                   <snm>El-Deiry</snm>
                   <fnm>WS</fnm>
                </au>
                <au>
                   <snm>Tokino</snm>
                   <fnm>T</fnm>
                </au>
                <au>
                   <snm>Velculescu</snm>
                   <fnm>VE</fnm>
                </au>
                <au>
                   <snm>Levy</snm>
                   <fnm>DB</fnm>
                </au>
                <au>
                   <snm>Parsons</snm>
                   <fnm>R</fnm>
                </au>
                <au>
                   <snm>Trent</snm>
                   <fnm>JM</fnm>
                </au>
                <au>
                   <snm>Lin</snm>
                   <fnm>D</fnm>
                </au>
                <au>
                   <snm>Mercer</snm>
                   <fnm>WE</fnm>
                </au>
                <au>
                   <snm>Kinzler</snm>
                   <fnm>KW</fnm>
                </au>
                <au>
                   <snm>Vogelstein</snm>
                   <fnm>B</fnm>
                </au>
             </aug>
             <source>Cell</source>
             <pubdate>1993</pubdate>
             <volume>75</volume>
             <issue>4</issue>
             <fpage>817</fpage>
             <lpage>825</lpage>
             <xrefbib>
                <pubidlist>
                   <pubid idtype="doi">10.1016/0092-8674(93)90500-P</pubid>
                   <pubid idtype="pmpid" link="fulltext">8242752</pubid>
                </pubidlist>
             </xrefbib>
          </bibl>
          <bibl id="B25">
             <title>
                <p>Phenoxodiol, a novel isoflavone, induces G1 arrest by specific loss in cyclin-dependent kinase 2 activity by p53-independent induction of p21WAF1/CIP1</p>
             </title>
             <aug>
                <au>
                   <snm>Aguero</snm>
                   <fnm>MF</fnm>
                </au>
                <au>
                   <snm>Facchinetti</snm>
                   <fnm>MM</fnm>
                </au>
                <au>
                   <snm>Sheleg</snm>
                   <fnm>Z</fnm>
                </au>
                <au>
                   <snm>Senderowicz</snm>
                   <fnm>AM</fnm>
                </au>
             </aug>
             <source>Cancer Res</source>
             <pubdate>2005</pubdate>
             <volume>65</volume>
             <issue>8</issue>
             <fpage>3364</fpage>
             <lpage>3373</lpage>
             <xrefbib>
                <pubidlist>
                   <pubid idtype="pmpid" link="fulltext">15833870</pubid>
                </pubidlist>
             </xrefbib>
          </bibl>
          <bibl id="B26">
             <title>
                <p>Downregulation of both p21/Cip1 and p27/Kip1 produces a more aggressive prostate cancer phenotype</p>
             </title>
             <aug>
                <au>
                   <snm>Roy</snm>
                   <fnm>S</fnm>
                </au>
                <au>
                   <snm>Singh</snm>
                   <fnm>RP</fnm>
                </au>
                <au>
                   <snm>Agarwal</snm>
                   <fnm>C</fnm>
                </au>
                <au>
                   <snm>Siriwardana</snm>
                   <fnm>S</fnm>
                </au>
                <au>
                   <snm>Sclafani</snm>
                   <fnm>R</fnm>
                </au>
                <au>
                   <snm>Agarwal</snm>
                   <fnm>R</fnm>
                </au>
             </aug>
             <source>Cell Cycle</source>
             <pubdate>2008</pubdate>
             <volume>7</volume>
             <issue>12</issue>
             <fpage>1828</fpage>
             <lpage>1835</lpage>
             <xrefbib>
                <pubidlist>
                   <pubid idtype="doi">10.4161/cc.7.12.6024</pubid>
                   <pubid idtype="pmpid" link="fulltext">18583941</pubid>
                </pubidlist>
             </xrefbib>
          </bibl>
          <bibl id="B27">
             <title>
                <p>Phenoxodiol inhibits growth of metastatic prostate cancer cells</p>
             </title>
             <aug>
                <au>
                   <snm>Aguero</snm>
                   <fnm>MF</fnm>
                </au>
                <au>
                   <snm>Venero</snm>
                   <fnm>M</fnm>
                </au>
                <au>
                   <snm>Brown</snm>
                   <fnm>DM</fnm>
                </au>
                <au>
                   <snm>Smulson</snm>
                   <fnm>ME</fnm>
                </au>
                <au>
                   <snm>Espinoza</snm>
                   <fnm>LA</fnm>
                </au>
             </aug>
             <source>Prostate</source>
             <pubdate>2010</pubdate>
             <volume>70</volume>
             <issue>11</issue>
             <fpage>1211</fpage>
             <lpage>1221</lpage>
             <xrefbib>
                <pubidlist>
                   <pubid idtype="doi">10.1002/pros.21156</pubid>
                   <pubid idtype="pmpid" link="fulltext">20564423</pubid>
                </pubidlist>
             </xrefbib>
          </bibl>
          <bibl id="B28">
             <title>
                <p>Apoptotic effects of genistein, biochanin-A and apigenin on LNCaP and PC-3 cells by p21 through transcriptional inhibition of polo-like kinase-1</p>
             </title>
             <aug>
                <au>
                   <snm>Seo</snm>
                   <fnm>YJ</fnm>
                </au>
                <au>
                   <snm>Kim</snm>
                   <fnm>BS</fnm>
                </au>
                <au>
                   <snm>Chun</snm>
                   <fnm>SY</fnm>
                </au>
                <au>
                   <snm>Park</snm>
                   <fnm>YK</fnm>
                </au>
                <au>
                   <snm>Kang</snm>
                   <fnm>KS</fnm>
                </au>
                <au>
                   <snm>Kwon</snm>
                   <fnm>TG</fnm>
                </au>
             </aug>
             <source>J Korean Med Sci</source>
             <pubdate>2011</pubdate>
             <volume>26</volume>
             <issue>11</issue>
             <fpage>1489</fpage>
             <lpage>1494</lpage>
             <xrefbib>
                <pubidlist>
                   <pubid idtype="doi">10.3346/jkms.2011.26.11.1489</pubid>
                   <pubid idtype="pmpid" link="fulltext">22065906</pubid>
                </pubidlist>
             </xrefbib>
          </bibl>
          <bibl id="B29">
             <title>
                <p>Cyclin D1 is a nuclear protein required for cell cycle progression in G1</p>
             </title>
             <aug>
                <au>
                   <snm>Baldin</snm>
                   <fnm>V</fnm>
                </au>
                <au>
                   <snm>Lukas</snm>
                   <fnm>J</fnm>
                </au>
                <au>
                   <snm>Marcote</snm>
                   <fnm>MJ</fnm>
                </au>
                <au>
                   <snm>Pagano</snm>
                   <fnm>M</fnm>
                </au>
                <au>
                   <snm>Draetta</snm>
                   <fnm>G</fnm>
                </au>
             </aug>
             <source>Genes Dev</source>
             <pubdate>1993</pubdate>
             <volume>7</volume>
             <issue>5</issue>
             <fpage>812</fpage>
             <lpage>821</lpage>
             <xrefbib>
                <pubidlist>
                   <pubid idtype="doi">10.1101/gad.7.5.812</pubid>
                   <pubid idtype="pmpid" link="fulltext">8491378</pubid>
                </pubidlist>
             </xrefbib>
          </bibl>
          <bibl id="B30">
             <title>
                <p>GATA3 in the urinary bladder: suppression of neoplastic transformation and down-regulation by androgens</p>
             </title>
             <aug>
                <au>
                   <snm>Li</snm>
                   <fnm>Y</fnm>
                </au>
                <au>
                   <snm>Ishiguro</snm>
                   <fnm>H</fnm>
                </au>
                <au>
                   <snm>Kawahara</snm>
                   <fnm>T</fnm>
                </au>
                <au>
                   <snm>Miyamoto</snm>
                   <fnm>Y</fnm>
                </au>
                <au>
                   <snm>Izumi</snm>
                   <fnm>K</fnm>
                </au>
                <au>
                   <snm>Miyamoto</snm>
                   <fnm>H</fnm>
                </au>
             </aug>
             <source>Am J Cancer Res</source>
             <pubdate>2014</pubdate>
             <volume>4</volume>
             <issue>5</issue>
             <fpage>461</fpage>
             <lpage>473</lpage>
             <xrefbib>
                <pubidlist>
                   <pubid idtype="pmpid" link="fulltext">25232488</pubid>
                </pubidlist>
             </xrefbib>
          </bibl>
          <bibl id="B31">
             <title>
                <p>Identification of a Src tyrosine kinase/SIAH2 E3 ubiquitin ligase pathway that regulates C/EBPdelta expression and contributes to transformation of breast tumor cells</p>
             </title>
             <aug>
                <au>
                   <snm>Sarkar</snm>
                   <fnm>TR</fnm>
                </au>
                <au>
                   <snm>Sharan</snm>
                   <fnm>S</fnm>
                </au>
                <au>
                   <snm>Wang</snm>
                   <fnm>J</fnm>
                </au>
                <au>
                   <snm>Pawar</snm>
                   <fnm>SA</fnm>
                </au>
                <au>
                   <snm>Cantwell</snm>
                   <fnm>CA</fnm>
                </au>
                <au>
                   <snm>Johnson</snm>
                   <fnm>PF</fnm>
                </au>
                <au>
                   <snm>Morrison</snm>
                   <fnm>DK</fnm>
                </au>
                <au>
                   <snm>Wang</snm>
                   <fnm>JM</fnm>
                </au>
                <au>
                   <snm>Sterneck</snm>
                   <fnm>E</fnm>
                </au>
             </aug>
             <source>Mol Cell Biol</source>
             <pubdate>2012</pubdate>
             <volume>32</volume>
             <issue>2</issue>
             <fpage>320</fpage>
             <lpage>332</lpage>
             <xrefbib>
                <pubidlist>
                   <pubid idtype="doi">10.1128/MCB.05790-11</pubid>
                   <pubid idtype="pmpid" link="fulltext">22037769</pubid>
                </pubidlist>
             </xrefbib>
          </bibl>
          <bibl id="B32">
             <title>
                <p>Targeted cancer therapy: what if the driver is just a messenger?</p>
             </title>
             <aug>
                <au>
                   <snm>Schatz</snm>
                   <fnm>JH</fnm>
                </au>
                <au>
                   <snm>Wendel</snm>
                   <fnm>HG</fnm>
                </au>
             </aug>
             <source>Cell Cycle</source>
             <pubdate>2011</pubdate>
             <volume>10</volume>
             <issue>22</issue>
             <fpage>3830</fpage>
             <lpage>3833</lpage>
             <xrefbib>
                <pubidlist>
                   <pubid idtype="doi">10.4161/cc.10.22.18288</pubid>
                   <pubid idtype="pmpid" link="fulltext">22064518</pubid>
                </pubidlist>
             </xrefbib>
          </bibl>
          <bibl id="B33">
             <title>
                <p>Minireview: Cyclin D1: normal and abnormal functions</p>
             </title>
             <aug>
                <au>
                   <snm>Fu</snm>
                   <fnm>M</fnm>
                </au>
                <au>
                   <snm>Wang</snm>
                   <fnm>C</fnm>
                </au>
                <au>
                   <snm>Li</snm>
                   <fnm>Z</fnm>
                </au>
                <au>
                   <snm>Sakamaki</snm>
                   <fnm>T</fnm>
                </au>
                <au>
                   <snm>Pestell</snm>
                   <fnm>RG</fnm>
                </au>
             </aug>
             <source>Endocrinology</source>
             <pubdate>2004</pubdate>
             <volume>145</volume>
             <issue>12</issue>
             <fpage>5439</fpage>
             <lpage>5447</lpage>
             <xrefbib>
                <pubidlist>
                   <pubid idtype="doi">10.1210/en.2004-0959</pubid>
                   <pubid idtype="pmpid" link="fulltext">15331580</pubid>
                </pubidlist>
             </xrefbib>
          </bibl>
          <bibl id="B34">
             <title>
                <p>Frequency of Ki-67 (MIB-1) and P53 expressions among patients with prostate cancer</p>
             </title>
             <aug>
                <au>
                   <snm>Madani</snm>
                   <fnm>SH</fnm>
                </au>
                <au>
                   <snm>Ameli</snm>
                   <fnm>S</fnm>
                </au>
                <au>
                   <snm>Khazaei</snm>
                   <fnm>S</fnm>
                </au>
                <au>
                   <snm>Kanani</snm>
                   <fnm>M</fnm>
                </au>
                <au>
                   <snm>Izadi</snm>
                   <fnm>B</fnm>
                </au>
             </aug>
             <source>Indian J Pathol Microbiol</source>
             <pubdate>2011</pubdate>
             <volume>54</volume>
             <issue>4</issue>
             <fpage>688</fpage>
             <lpage>691</lpage>
             <xrefbib>
                <pubidlist>
                   <pubid idtype="pmpid" link="fulltext">22234091</pubid>
                </pubidlist>
             </xrefbib>
          </bibl>
       </refgrp>
    </bm>
 </art>