<art>
    <ui>s12955-014-0143-y</ui>
    <ji>1477-7525</ji>
    <fm>
       <dochead>Research</dochead>
       <bibl>
          <title>
             <p>Linguistic validation and cultural adaptation of an English version of the Evaluation of Daily Activity Questionnaire in rheumatoid arthritis</p>
          </title>
          <aug>
             <au id="A1" ca="yes">
                <snm>Hammond</snm>
                <fnm>Alison</fnm>
                <insr iid="I1"/>
                <email>a.hammond@salford.ac.uk</email>
             </au>
             <au id="A2">
                <snm>Tyson</snm>
                <fnm>Sarah</fnm>
                <insr iid="I2"/>
                <email>sarah.tyson@manchester.ac.uk</email>
             </au>
             <au id="A3">
                <snm>Prior</snm>
                <fnm>Yeliz</fnm>
                <insr iid="I3"/>
                <email>y.prior@salford.ac.uk</email>
             </au>
             <au id="A4">
                <snm>Hawkins</snm>
                <fnm>Ruth</fnm>
                <insr iid="I4"/>
                <email>ruthh@talktalk.net</email>
             </au>
             <au id="A5">
                <snm>Tennant</snm>
                <fnm>Alan</fnm>
                <insr iid="I5"/>
                <email>alan.tennant@paraplegie.ch</email>
             </au>
             <au id="A6">
                <snm>Nordenskiold</snm>
                <fnm>Ulla</fnm>
                <insr iid="I6"/>
                <email>ulla.nordenskiold@medfak.gu.se</email>
             </au>
             <au id="A7">
                <snm>Thyberg</snm>
                <fnm>Ingrid</fnm>
                <insr iid="I7"/>
                <email>Ingrid.thyberg@lio.se</email>
             </au>
             <au id="A8">
                <snm>Sandqvist</snm>
                <fnm>Gunnel</fnm>
                <insr iid="I8"/>
                <email>Gunnel.sandqvist@med.lu.se</email>
             </au>
             <au id="A9">
                <snm>Cederlund</snm>
                <fnm>Ragnhild</fnm>
                <insr iid="I9"/>
                <email>Ragnhild.cederlund@med.lu.se</email>
             </au>
          </aug>
          <insg>
             <ins id="I1">
                <p>Centre for Health Sciences Research (OT), University of Salford, Frederick Road, Salford, M6 6PU, UK</p>
             </ins>
             <ins id="I2">
                <p>Stroke &amp; Vascular Research Centre, School of Nursing, Midwifery &amp; Social Work, University of Manchester, Manchester, UK</p>
             </ins>
             <ins id="I3">
                <p>Centre for Health Sciences Research (OT), University of Salford, Salford, UK</p>
             </ins>
             <ins id="I4">
                <p>Derby branch National Rheumatoid Arthritis Society (patient research partner), Derby, UK</p>
             </ins>
             <ins id="I5">
                <p>ICF Research Branch, Swiss Paraplegic Research (previously: Academic Department of Rehabilitation Medicine, Section of Musculoskeletal Disease, Leeds Institute of Molecular Medicine, Faculty of Medicine and Health, The University of Leeds), Nottwil, Switzerland</p>
             </ins>
             <ins id="I6">
                <p>Institute of Neuroscience and Physiology, Rehabilitation Medicine, Sahlgrenska Academy, G&#246;teborg University, G&#246;teborg, Sweden</p>
             </ins>
             <ins id="I7">
                <p>Department of Clinical and Experimental Medicine, Link&#246;ping University, Link&#246;ping, Sweden</p>
             </ins>
             <ins id="I8">
                <p>Department of Rheumatology, Lund University, Lund, Sweden</p>
             </ins>
             <ins id="I9">
                <p>Department of Health Sciences, Lund University, Lund, Sweden</p>
             </ins>
          </insg>
          <source>Health and Quality of Life Outcomes</source>
          <issn>1477-7525</issn>
          <pubdate>2014</pubdate>
          <volume>12</volume>
          <issue>1</issue>
          <fpage>143</fpage>
          <url>http://www.hqlo.com/content/12/1/143</url>
          <xrefbib>
             <pubidlist>
                <pubid idtype="doi">10.1186/s12955-014-0143-y</pubid>
                <pubid idtype="pmpid"><!-- Need to check source for data--></pubid>
             </pubidlist>
          </xrefbib>
       </bibl>
       <history>
          <rec>
             <date>
                <day>4</day>
                <month>5</month>
                <year>2014</year>
             </date>
          </rec>
          <acc>
             <date>
                <day>9</day>
                <month>9</month>
                <year>2014</year>
             </date>
          </acc>
          <pub>
             <date>
                <day>20</day>
                <month>9</month>
                <year>2014</year>
             </date>
          </pub>
       </history>
       <cpyrt>
          <year>2014</year>
          <collab>Hammond et al.; licensee BioMed Central Ltd.</collab>
          <note>This is an Open Access article distributed under the terms of the Creative Commons Attribution License (<url>http://creativecommons.org/licenses/by/4.0</url>), which permits unrestricted use, distribution, and reproduction in any medium, provided the original work is properly credited. The Creative Commons Public Domain Dedication waiver (<url>http://creativecommons.org/publicdomain/zero/1.0/</url>) applies to the data made available in this article, unless otherwise stated.</note>
       </cpyrt>
       <kwdg>
          <kwd>Patient reported outcome measures</kwd>
          <kwd>Rheumatoid arthritis</kwd>
          <kwd>Daily activities</kwd>
          <kwd>Occupational therapy</kwd>
       </kwdg>
       <abs>
          <sec>
             <st>
                <p>Abstract</p>
             </st>
             <sec>
                <st>
                   <p>Background</p>
                </st>
                <p>To linguistically validate and culturally adapt the Evaluation of Daily Activity Questionnaire (EDAQ) for use in rheumatoid arthritis (RA) from Swedish to British English. The EDAQ is a patient reported outcome measure of daily activity ability. It includes 11 activity domains (Eating and Drinking; Personal Care; Dressing; Bathing; Cooking; Moving Indoors; House Cleaning; Laundry; Moving and Transfers; Communication; Moving Outdoors) and was developed for use in rheumatoid arthritis (RA).</p>
             </sec>
             <sec>
                <st>
                   <p>Methods</p>
                </st>
                <p>The EDAQ was translated from Swedish to English using standard methods. Activity diaries, cognitive debriefing interviews and focus groups were completed with people with RA to: generate new culturally applicable items; identify important items in the Swedish version to retain in the English version; and develop the English EDAQ based on their views of content and layout. Content validity was established by linking the EDAQ to the International Classification of Functioning RA Core Set.</p>
             </sec>
             <sec>
                <st>
                   <p>Results</p>
                </st>
                <p>The English EDAQ translation was harmonized with the Swedish version to ensure equivalence of meaning. Sixty-one people with RA participated. 156 activities were identified from 31 activity diaries and included in a draft English EDAQ. Following interviews (n&#8201;=&#8201;20) and four focus groups, 138 activities were retained and three additional domains added (Gardening/Household Maintenance; Caring; and Leisure/Social Activities). Most ICF RA Core Set activities are in the EDAQ.</p>
             </sec>
             <sec>
                <st>
                   <p>Conclusions</p>
                </st>
                <p>The English EDAQ is a detailed self-report measure of ability in RA with good content validity.</p>
             </sec>
          </sec>
       </abs>
    </fm>
    <bdy>
       <sec>
          <st>
             <p>1
 						Background</p>
          </st>
          <p>People with arthritis easily identify major difficulties with every-day activity, but specific ones can be harder to articulate. People are busy getting on &#8220;living their lives&#8221; rather than closely monitoring their problems. Yet difficulty with many simple things (e.g. using a computer, turning taps, gripping) limit ability to work, do housework, cook, manage self-care and leisure, causing frustration, pain and fatigue. Helping people with arthritis to identify (and manage) such problems is a key aspect of occupational therapy (OT) but this is hampered by a lack of effective assessment tools.</p>
          <p>Most standardised assessments have relatively few physical function items (for example, the Health Assessment Questionnaire (HAQ) <abbrgrp>
                <abbr bid="B1">1</abbr>
             </abbrgrp> and Arthritis Impact Measurement Scales 2 (AIMS2) <abbrgrp>
                <abbr bid="B2">2</abbr>
             </abbrgrp>). Consequently, they are seldom used in OT practice as they lack the detail to identify problems. In contrast, the Evaluation of Daily Activity Questionnaire (EDAQ) is a self-report assessment which facilitates detailed assessment, treatment planning and outcome measurement in rheumatoid arthritis (RA) <abbrgrp>
                <abbr bid="B3">3</abbr>
             </abbrgrp>,<abbrgrp>
                <abbr bid="B4">4</abbr>
             </abbrgrp>. It was developed, and is used in Sweden in both OT practice and research <abbrgrp>
                <abbr bid="B5">5</abbr>
             </abbrgrp>&#8211;<abbrgrp>
                <abbr bid="B9">9</abbr>
             </abbrgrp>. It has three parts:</p><p>1) details of the patients&#8217; disease duration, patient education programme attendance and 10 visual analogue scales (VAS) measuring symptom severity, mood and life satisfaction;</p>
             <p>2) 11 domains assessing 102 daily activities including Eating, Dressing, Personal Care, Bathing, Cooking, Cleaning the House, Laundry, Communication, Moving Indoors, Transfers and Moving Outdoors. Each domain is assessed in two sections: (A) evaluates activities without using ergonomic methods or help; and (B) with ergonomic methods (e.g. joint protection, activity pacing, assistive technology). The activities with which patients are least and most satisfied with are also recorded; and</p>
             <p>3) a checklist regarding the use of assistive devices (40 items).</p>
          <p>The EDAQ is completed by people at home, allowing time to reflect, before or between OT appointments <abbrgrp>
                <abbr bid="B10">10</abbr>
             </abbrgrp>.</p>
          <p>Although published in English, the Swedish EDAQ has limitations. It was not professionally translated meaning some activities are unclear (e.g. &#8220;managing potato water&#8221;). Some commonly problematic activities for people with RA in the United Kingdom (UK) are not included, e.g. using a kettle, turning taps. Furthermore, the EDAQ was developed in the 1990&#8217;s and some activities are now infrequent (e.g. writing a postcard, taking bread from the oven) and others, not included, are commonplace (e.g. using a computer). Also only women with RA helped develop its content. Thus the EDAQ needs to be revised to include activities that all people with RA in the UK consider problematic, ensuring it reflects users&#8217; perspectives <abbrgrp>
                <abbr bid="B11">11</abbr>
             </abbrgrp>,<abbrgrp>
                <abbr bid="B12">12</abbr>
             </abbrgrp>.</p>
          <p>Consequently, the aims of this study were to: linguistically validate and culturally adapt the EDAQ into British English; and revise it to include daily activities people with RA consider problematic, important and culturally relevant in the UK, establishing its content validity. We also investigated validity by: matching the EDAQ with the daily activities Rheumatology occupational therapists (OTs) commonly assess, as well as their opinions of the EDAQ; and systematically linking the EDAQ with the International Classification of Function, Disability and Health (ICF) <abbrgrp>
                <abbr bid="B13">13</abbr>
             </abbrgrp> and the ICF Core Set for RA <abbrgrp>
                <abbr bid="B14">14</abbr>
             </abbrgrp>.</p>
       </sec>
       <sec>
          <st>
             <p>2
 						Methods</p>
          </st>
          <p>Four phases were conducted: linguistic validation into British English using forward and backward translation; cultural adaptation and item generation using activity diaries, cognitive debriefing interviews and focus groups; content analysis of OT activity assessments; and linking the EDAQ with the ICF and ICF Core Set for RA.</p>
          <p>Ethical approval was obtained from Oldham Local Research Ethics Committee (09/H1011/25) and the University of Salford&#8217;s Ethics Committee. The study was carried out in accordance with the Declaration of Helsinki.</p>
          <sec>
             <st>
                <p>2.1 Linguistic validation</p>
             </st>
             <p>Recommended procedures were followed <abbrgrp>
                   <abbr bid="B15">15</abbr>
                </abbrgrp>,<abbrgrp>
                   <abbr bid="B16">16</abbr>
                </abbrgrp> as follows:</p><p>1) The meaning of EDAQ content was identified at a &#8216;conceptual definition&#8217; meeting with the Swedish EDAQ research team (UN, IT, GS, RC).</p>
                <p>2) Independent professional forward translation from Swedish to British English by two translators (one informed and one uninformed about the study purpose; both bilingual but native Swedish speakers).</p>
                <p>3) Synthesis and refinement of the translations by members of the UK research team (AH, ST, RH)</p>
                <p>4) Independent backward translation from British English into Swedish by two different translators (one informed and one uninformed; both bilingual but native British English speakers).</p>
                <p>5) Synthesis by the Swedish research team.</p>
                <p>6) Harmonization between the UK and Swedish research teams to ensure equivalence of meaning.</p>
          </sec>
          <sec>
             <st>
                <p>2.2 Cultural adaptation and item generation</p>
             </st>
             <sec>
                <st>
                   <p>2.2.1 Participants</p>
                </st>
                <p>Adults with RA attending five rheumatology out-patient departments were invited to participate if they were able to read, write and understand English. Patients were excluded if they had other medical condition(s) causing difficulties with daily activities. Participants were purposefully sampled to ensure a range of age, disease duration, disability, employment and living/family status. A minimum of 30 people were therefore required. All participants were provided with study information verbally and in writing and provided written consent.</p>
             </sec>
             <sec>
                <st>
                   <p>2.2.2 Procedures</p>
                </st>
                <p>To check applicability of Swedish EDAQ items and generate any new items for the English EDAQ, people with RA completed activity diaries <abbrgrp>
                      <abbr bid="B5">5</abbr>
                   </abbrgrp>,<abbrgrp>
                      <abbr bid="B17">17</abbr>
                   </abbrgrp>,<abbrgrp>
                      <abbr bid="B18">18</abbr>
                   </abbrgrp>, recording problematic activities for seven days, including weekend days. Following development of a draft English EDAQ, including revised instructions and a Part 2 completed example, semi-structured cognitive debriefing interviews were conducted with people with RA who participated in the activity diary phase. Participants were timed completing the draft English EDAQ and asked about: ease of completion; length; clarity of instructions; layout; how important they considered it to include each item on a scale of 1 (not at all) to 5 (extremely); whether any important activities were omitted; and if the EDAQ would give an OT sufficient insight into their daily activity problems. Categorical responses were provided and any comments recorded verbatim. Focus groups with people with RA were then conducted, asking for consensus within groups about the wording of the introduction and instructions, layout and which items to add, delete or merge. All had completed the EDAQ beforehand.</p>
             </sec>
             <sec>
                <st>
                   <p>2.2.3 Data analysis</p>
                </st>
                <p>Diaries were content analysed by two reviewers independently to identify activities reported as causing difficulties, their frequency and then agreeing analyses <abbrgrp>
                      <abbr bid="B19">19</abbr>
                   </abbrgrp>. These activities were cross-matched with items in Part 2 of the EDAQ. New activities identified as problematic were added to a draft English language EDAQ. From the cognitive debriefing interviews, medians (IQRs) for importance responses for each item were calculated, with items scoring 3 or less (ie not at all to moderately important) considered for deletion. Importance ratings were reviewed by two researchers, and new activities and potential items for deletion or merging identified. The research team finalised the English EDAQ using these patient-generated decisions.</p>
             </sec>
          </sec>
          <sec>
             <st>
                <p>2.3 Content of occupational therapists&#8217; daily activity assessments and their views of the EDAQ</p>
             </st>
             <p>Members of the North West College of OTs&#8217; Specialist Section-Rheumatology (NWCOTSS-R: n&#8201;=&#8201;23) were asked for their standardized and non-standardized daily activity assessments. These were content analyzed and cross-matched to identify to what extent these overlapped with the draft EDAQ Part 2. The OTs were also asked to rate importance of including items. OT ratings were compared with participants with RA&#8217;s ratings, using Mann &#8211; Whitney U tests, to identify if any differences in opinion about item inclusion. A focus group with Rheumatology OTs was conducted to: identify if any common problems treated were omitted in Part 2; ensure Part 3 included the most commonly recommended assistive devices; and discuss the EDAQ&#8217;s potential use in practice. Recommendations were considered when finalizing the EDAQ.</p>
          </sec>
          <sec>
             <st>
                <p>2.4 ICF linking</p>
             </st>
             <p>To evaluate content validity of the EDAQ, items were systematically linked by two researchers (AH, YP) to the International Classification of Functioning, Disability and Health (ICF) <abbrgrp>
                   <abbr bid="B13">13</abbr>
                </abbrgrp> and ICF Core Set for RA <abbrgrp>
                   <abbr bid="B14">14</abbr>
                </abbrgrp> using the ICF linking rules <abbrgrp>
                   <abbr bid="B20">20</abbr>
                </abbrgrp>,<abbrgrp>
                   <abbr bid="B21">21</abbr>
                </abbrgrp>.</p>
          </sec>
       </sec>
       <sec>
          <st>
             <p>3
 						Results</p>
          </st>
          <sec>
             <st>
                <p>3.1 Linguistic validation</p>
             </st>
             <p>Several changes were made following forward translation. For example, the mood VAS in Part 1 translated to &#8220;high and low spirited.&#8221; These terms are not in everyday use in British English and we decided &#8220;happy and unhappy&#8221; would better capture mood. Sixteen Swedish activities were modified because they were rarely performed in the UK and were replaced by more generic activities, for example: &#8220;take bread out of the oven&#8221; to &#8220;take things out of the oven&#8221;; &#8220;drain potato water&#8221; to &#8220;drain water from a pan (e.g. pasta, vegetables)&#8221;; &#8220;write a postcard&#8221; to &#8220;write&#8221;.</p>
          </sec>
          <sec>
             <st>
                <p>3.2 Cultural adaptation and item generation</p>
             </st>
             <p>Activity diary respondents&#8217; characteristics are shown in Table&#160;<tblr tid="T1">1</tblr>. Forty-two people agreed to participate. There were no significant differences in age, gender, disease duration or severity, activity ability, employment or children living at home status between responders (n&#8201;=&#8201;31) and non-responders (n&#8201;=&#8201;11). Of the 102 activities in Part 2 of the Swedish EDAQ: 84 were identified in participants&#8217; diaries; and 18 were not. Fifty-four new items were generated: 26 were incorporated into the original Part 2 domains of the Swedish EDAQ and a further 28 were fitted into three new domains; Gardening and House Maintenance, Caring, and Leisure and Social Activities. Thus, Part 2 of the draft EDAQ was extended to 14 domains, including 156 activities (Additional file <supplr sid="S1">1</supplr>).</p>
                <table id="T1">
                   <title>
                      <p>Table 1</p>
                   </title>
                   <caption>
                      <p>
                         <b>Participant characteristics in the item generation and cognitive debriefing interview phases</b>
                      </p>
                   </caption>
                   <tgroup align="left" cols="4">
                      <colspec align="left" colname="c1" colnum="1" colwidth="*"/>
                      <colspec align="left" colname="c2" colnum="2" colwidth="*"/>
                      <colspec align="left" colname="c3" colnum="3" colwidth="*"/>
                      <colspec align="left" colname="c4" colnum="4" colwidth="*"/>
                      <thead>
                         <row valign="top">
                            <entry colname="c1"/>
                            <entry colname="c2">
                               <p>
                                  <b>Item generation (activity diary) phase (Responders: n&#8201;=&#8201;31)</b>
                               </p>
                            </entry>
                            <entry colname="c3">
                               <p>
                                  <b>Item generation (activity diary) phase (Non-responders: n&#8201;=&#8201;11)</b>
                               </p>
                            </entry>
                            <entry colname="c4">
                               <p>
                                  <b>Interview phase: (n&#8201;=&#8201;20)</b>
                               </p>
                            </entry>
                         </row>
                      </thead>
                      <tbody>
                         <row valign="top">
                            <entry colname="c1">
                               <p>Average age (years)</p>
                            </entry>
                            <entry colname="c2">
                               <p>60.29 (SD 15.43)</p>
                            </entry>
                            <entry colname="c3">
                               <p>54.36 (SD 14.32)</p>
                            </entry>
                            <entry colname="c4">
                               <p>61.55 (SD 17.1)</p>
                            </entry>
                         </row>
                         <row valign="top">
                            <entry colname="c1">
                               <p>Gender M:F (n)</p>
                            </entry>
                            <entry colname="c2">
                               <p>7:24</p>
                            </entry>
                            <entry colname="c3">
                               <p>2:9</p>
                            </entry>
                            <entry colname="c4">
                               <p>4:16</p>
                            </entry>
                         </row>
                         <row valign="top">
                            <entry colname="c1">
                               <p>Disease duration (years)</p>
                            </entry>
                            <entry colname="c2">
                               <p>13.14 (SD 12.17)</p>
                            </entry>
                            <entry colname="c3">
                               <p>12.68 (SD 11.84)</p>
                            </entry>
                            <entry colname="c4">
                               <p>16.43 (SD 14.14)</p>
                            </entry>
                         </row>
                         <row valign="top">
                            <entry colname="c1">
                               <p>Health assessment questionnaire (0&#8211;3)</p>
                            </entry>
                            <entry colname="c2">
                               <p>0.64 (SD 0.47)</p>
                            </entry>
                            <entry colname="c3">
                               <p>0.89 (SD 0.47)</p>
                            </entry>
                            <entry colname="c4">
                               <p>0.87 (SD 0.78)</p>
                            </entry>
                         </row>
                         <row valign="top">
                            <entry colname="c1">
                               <p>Perceived disease severity (0&#8211;10 scale)</p>
                            </entry>
                            <entry colname="c2">
                               <p>4.31 (SD 2.25)</p>
                            </entry>
                            <entry colname="c3">
                               <p>4.43 (SD 2.14)</p>
                            </entry>
                            <entry colname="c4">
                               <p>4.76 (SD 2.20).</p>
                            </entry>
                         </row>
                         <row valign="top">
                            <entry colname="c1">
                               <p>Employed (n)</p>
                            </entry>
                            <entry colname="c2">
                               <p>7</p>
                            </entry>
                            <entry colname="c3">
                               <p>6</p>
                            </entry>
                            <entry colname="c4">
                               <p>4</p>
                            </entry>
                         </row>
                         <row valign="top">
                            <entry colname="c1">
                               <p>Children under 18&#160;years living at home (n)</p>
                            </entry>
                            <entry colname="c2">
                               <p>8</p>
                            </entry>
                            <entry colname="c3">
                               <p>6</p>
                            </entry>
                            <entry colname="c4">
                               <p>4</p>
                            </entry>
                         </row>
                      </tbody>
                   </tgroup>
                </table>
             
             <p>Cognitive debriefing interview participants&#8217; characteristics are shown in Table&#160;<tblr tid="T1">1</tblr> (n&#8201;=&#8201;20). The draft EDAQ took 48 (SD 19; range 22 to 84) minutes to complete. Those taking longer had breaks to avoid fatigue and hand pain. Participants rated all Part 1 rating scales as very or extremely important (Table&#160;<tblr tid="T2">2</tblr>). For items in Part 2, the median (IQR) scores for the importance of activities are shown in Additional file <supplr sid="S1">1</supplr>. Participants rated 145/156 items as either very or extremely important. All assistive devices (Part 3) were rated as very or extremely important, primarily because it helped participants be aware of what was available. Only a few additional items were suggested by participants, most of which were already in the EDAQ. Work was recommended to be added (n&#8201;=&#8201;3) and a question therefore included in Part 1, to prompt OTs to use a work assessment if necessary.</p>
                <table id="T2">
                   <title>
                      <p>Table 2</p>
                   </title>
                   <caption>
                      <p>
                         <b>Median (IQR) importance ratings and ICF codes for EDAQ Part 1 scales</b>
                      </p>
                   </caption>
                   <tgroup align="left" cols="6">
                      <colspec align="left" colname="c1" colnum="1" colwidth="*"/>
                      <colspec align="left" colname="c2" colnum="2" colwidth="*"/>
                      <colspec align="left" colname="c3" colnum="3" colwidth="*"/>
                      <colspec align="left" colname="c4" colnum="4" colwidth="*"/>
                      <colspec align="left" colname="c5" colnum="5" colwidth="*"/>
                      <colspec align="left" colname="c6" colnum="6" colwidth="*"/>
                      <thead>
                         <row valign="top">
                            <entry colname="c1">
                               <p>
                                  <b>Part one: numeric rating scales</b>
                               </p>
                            </entry>
                            <entry colname="c2">
                               <p>
                                  <b>RA participants&#8217; ratings (n&#8201;=&#8201;20)</b>
                               </p>
                            </entry>
                            <entry colname="c3">
                               <p>
                                  <b>OT participants&#8217; ratings (n&#8201;=&#8201;11)</b>
                               </p>
                            </entry>
                            <entry colname="c4">
                               <p>
                                  <b>p</b>
                               </p>
                            </entry>
                            <entry colname="c5">
                               <p>
                                  <b>ICF code</b>
                               </p>
                            </entry>
                            <entry colname="c6">
                               <p>
                                  <b>ICF category</b>
                               </p>
                            </entry>
                         </row>
                      </thead>
                      <tbody>
                         <row valign="top">
                            <entry colname="c1">
                               <p>Disease activity</p>
                            </entry>
                            <entry colname="c2">
                               <p>4 (4&#8211;5)</p>
                            </entry>
                            <entry colname="c3">
                               <p>4 (4&#8211;5)</p>
                            </entry>
                            <entry colname="c4">
                               <p>0.85</p>
                            </entry>
                            <entry colname="c5">
                               <p>nd-ph</p>
                            </entry>
                            <entry colname="c6">
                               <p>Not definable- physical health</p>
                            </entry>
                         </row>
                         <row valign="top">
                            <entry colname="c1">
                               <p>Mood</p>
                            </entry>
                            <entry colname="c2">
                               <p>4 (4&#8211;5)</p>
                            </entry>
                            <entry colname="c3">
                               <p>4 (4&#8211;5)</p>
                            </entry>
                            <entry colname="c4">
                               <p>0.67</p>
                            </entry>
                            <entry colname="c5">
                               <p>b152</p>
                            </entry>
                            <entry colname="c6">
                               <p>Emotional functions</p>
                            </entry>
                         </row>
                         <row valign="top">
                            <entry colname="c1">
                               <p>Pain when resting</p>
                            </entry>
                            <entry colname="c2">
                               <p>5 (4.25-5)</p>
                            </entry>
                            <entry colname="c3">
                               <p>4 (4&#8211;5)</p>
                            </entry>
                            <entry colname="c4">
                               <p>0.12</p>
                            </entry>
                            <entry colname="c5">
                               <p>b280</p>
                            </entry>
                            <entry colname="c6">
                               <p>Sensation of pain</p>
                            </entry>
                         </row>
                         <row valign="top">
                            <entry colname="c1">
                               <p>Pain when moving</p>
                            </entry>
                            <entry colname="c2">
                               <p>5 (4.25-5)</p>
                            </entry>
                            <entry colname="c3">
                               <p>5 (4&#8211;5)</p>
                            </entry>
                            <entry colname="c4">
                               <p>0.92</p>
                            </entry>
                            <entry colname="c5">
                               <p>b280</p>
                            </entry>
                            <entry colname="c6">
                               <p>Sensation of pain</p>
                            </entry>
                         </row>
                         <row valign="top">
                            <entry colname="c1">
                               <p>Stiffness</p>
                            </entry>
                            <entry colname="c2">
                               <p>5 (4&#8211;5)</p>
                            </entry>
                            <entry colname="c3">
                               <p>4 (4&#8211;5)</p>
                            </entry>
                            <entry colname="c4">
                               <p>0.28</p>
                            </entry>
                            <entry colname="c5">
                               <p>b7800</p>
                            </entry>
                            <entry colname="c6">
                               <p>Sensation of muscle stiffness</p>
                            </entry>
                         </row>
                         <row valign="top">
                            <entry colname="c1">
                               <p>Limitations in joint movement</p>
                            </entry>
                            <entry colname="c2">
                               <p>5 (4.25-5)</p>
                            </entry>
                            <entry colname="c3">
                               <p>5 (4&#8211;5)</p>
                            </entry>
                            <entry colname="c4">
                               <p>0.61</p>
                            </entry>
                            <entry colname="c5">
                               <p>b710</p>
                            </entry>
                            <entry colname="c6">
                               <p>Mobility of joint functions</p>
                            </entry>
                         </row>
                         <row valign="top">
                            <entry colname="c1">
                               <p>Fatigue</p>
                            </entry>
                            <entry colname="c2">
                               <p>5 (4.25-5)</p>
                            </entry>
                            <entry colname="c3">
                               <p>5 (4&#8211;5)</p>
                            </entry>
                            <entry colname="c4">
                               <p>0.92</p>
                            </entry>
                            <entry colname="c5">
                               <p>b130</p>
                            </entry>
                            <entry colname="c6">
                               <p>Energy and drive functions</p>
                            </entry>
                         </row>
                         <row valign="top">
                            <entry colname="c1">
                               <p>Worry</p>
                            </entry>
                            <entry colname="c2">
                               <p>4 (4&#8211;5)</p>
                            </entry>
                            <entry colname="c3">
                               <p>4 (4&#8211;5)</p>
                            </entry>
                            <entry colname="c4">
                               <p>0.56</p>
                            </entry>
                            <entry colname="c5">
                               <p>b152</p>
                            </entry>
                            <entry colname="c6">
                               <p>Emotional functions</p>
                            </entry>
                         </row>
                         <row valign="top">
                            <entry colname="c1">
                               <p>Sleep problems</p>
                            </entry>
                            <entry colname="c2">
                               <p>4 (4&#8211;5)</p>
                            </entry>
                            <entry colname="c3">
                               <p>5 (4&#8211;5)</p>
                            </entry>
                            <entry colname="c4">
                               <p>0.67</p>
                            </entry>
                            <entry colname="c5">
                               <p>b134</p>
                            </entry>
                            <entry colname="c6">
                               <p>Sleep problems</p>
                            </entry>
                         </row>
                         <row valign="top">
                            <entry colname="c1">
                               <p>Satisfaction with life</p>
                            </entry>
                            <entry colname="c2">
                               <p>4 (4&#8211;5)</p>
                            </entry>
                            <entry colname="c3">
                               <p>4 (4&#8211;5)</p>
                            </entry>
                            <entry colname="c4">
                               <p>0.61</p>
                            </entry>
                            <entry colname="c5">
                               <p>nd-gh</p>
                            </entry>
                            <entry colname="c6">
                               <p>Not definable- general health</p>
                            </entry>
                         </row>
                         <row valign="top">
                            <entry colname="c1">
                               <p>Additional questions: work (paid, unpaid) or education</p>
                            </entry>
                            <entry colname="c2"/>
                            <entry colname="c3"/>
                            <entry colname="c4"/>
                            <entry colname="c5"/>
                            <entry colname="c6">
                               <p>d850 Remunerative employment; d855 Non-remunerative employment; d825 Vocational training; d830 Higher education; d839 Education, other</p>
                            </entry>
                         </row>
                         <row valign="top">
                            <entry colname="c1">
                               <p>Patient education programme attendance</p>
                            </entry>
                            <entry colname="c2"/>
                            <entry colname="c3"/>
                            <entry colname="c4"/>
                            <entry colname="c5"/>
                            <entry colname="c6">
                               <p>d570 Looking after one&#8217;s health</p>
                            </entry>
                         </row>
                      </tbody>
                   </tgroup>
                </table>
             
             <p>Fifteen considered the assessment easy to complete; two partially (having to re-read instructions); and three not easy. Two were unclear how to complete Part 2B and one did not like thinking about difficulties. Most (n&#8201;=&#8201;15) considered the EDAQ had &#8220;about the right amount&#8221; of questions. However, five said it had too many questions and 10 considered it took too long. Recommendations to shorten it included: combining activities where possible (for example, &#8220;Slicing food (eg bread and cheese)&#8221; rather than separate items); deleting uncommon items (eg going out onto a balcony, opening a lift door); omitting the sections in Part 2 about the least and most satisfactory items, other problems and solutions (n&#8201;=&#8201;6); and making Part 3 optional (n&#8201;=&#8201;5). Some considered the Caring domain less important (n&#8201;=&#8201;7).</p>
             <p>Eighteen considered the EDAQ Part 2 Sections A and B layout easy to follow but five commented the instructions and example needed careful reading first. Half (n&#8201;=&#8201;12) considered the instructions adequate, but seven wanted more (one did not reply). Recommendations were to: add a &#8220;not applicable&#8221; column in Section A; emphasizing that section B is not completed if activities are not applicable or not difficult; clarifying how to answer if the person has help; and including a wider range of answers in the example. These changes were made.</p>
             <p>Four focus groups were conducted with four to six participants with RA. The introduction content was agreed. The consensus was to retain all 10 scales in Part 1 but use horizontal 0-10 numeric rating scales (NRS) rather than 100mm VAS as NRS were considered easier to complete, and the wording of scale anchors was agreed. A consensus regarding the layout was finalized. For Part 2, five activities were deleted and 25 combined into 13 activities (see Additional file <supplr sid="S1">1</supplr>). All 14 domains were kept. Although Caring was a possible exclusion, many looked after grandchildren. Gardening and Leisure were considered especially important to retain as &#8220;<it>there is more to life than just doing everyday activities</it>.&#8221; The revised Part 2 thus included 138 activities in 14 domains (Additional file <supplr sid="S1">1</supplr>). The &#8220;most and least satisfactory activities&#8221; sections were removed and Part 3 made optional, as device use is noted in Section B of Part 2.</p><p>The final EDAQ normally takes 25 to 35&#160;minutes to complete. Almost all (n&#8201;=&#8201;19) considered the EDAQ would help OTs gain adequate insight into their difficulties, (one could not answer as she had never seen OTs).</p>
          </sec>
          <sec>
             <st>
                <p>3.3 Content of occupational therapists&#8217; daily activity assessments and their views of the EDAQ</p>
             </st>
             <p>Twenty NWCOTSS-R members responded, submitting assessments from 17 departments. All used their own department-devised checklists. Standardized assessments were occasionally used by six departments. These were the HAQ (n&#8201;=&#8201;5); Disability Arm Shoulder Hand scale <abbrgrp>
                   <abbr bid="B22">22</abbr>
                </abbrgrp>: n&#8201;=&#8201;3); AIMS2 (n&#8201;=&#8201;2). Checklists included 33 (IQR 23&#8211;45; range 5 to 55) daily activities. All items on the checklists and assessments were matched to the items in the draft EDAQ and corresponded to 91 activities (Additional file <supplr sid="S1">1</supplr>). Eleven OTs rated the importance of draft EDAQ activities; 83/156 were thought to be very or extremely important to include (Additional file <supplr sid="S1">1</supplr>). OTs rated 83 (53%) activities of similar importance as participants with RA, 9 (6%) as more important and 64 (41%) less important. In the focus group (n&#8201;=&#8201;7), no additional activities were recommended and the assistive device list was modified to include devices commonly recommended in the UK and ensure terminology was correct. Initially, OTs were concerned by the EDAQ&#8217;s length because it would take too long during an appointment and some patients would be unable or uninterested in doing it. We explained the EDAQ is completed at home in the person&#8217;s own time and most participants with RA considered it acceptable and relevant. This allayed their concerns and they reflected:</p>
             <p>
                <it>&#8220;It might save time &#8230;if they do it in their own time, it is taking out the time of having to actually go through it all with them. You've got your talking points there straight away, which helps focus a lot more [OT2].&#8221;</it>
             </p></sec>
          <sec>
             <st>
                <p>3.4 ICF linking</p>
             </st>
             <p>The EDAQ has good content validity as all but three ICF RA Core Set Activities and Participation items (32 categories) are included. Part 2 items relate to 6/9 ICF Activities and Participation chapters (see Additional file <supplr sid="S1">1</supplr>).</p></sec>
       </sec>
       <sec>
          <st>
             <p>4
 						Discussion</p>
          </st>
          <p>In this study, we linguistically validated and culturally adapted a British English version of the Evaluation of Daily Activity Questionnaire, based on what participants with RA in the UK considered the most important content. We established the EDAQ&#8217;s content validity for the first time. Future research will establish the psychometric properties of the EDAQ in RA and other musculoskeletal conditions.</p>
          <p>A strength of this study is that it meets requirements for patient reported outcome measures, as it was developed from the people with RA&#8217;s perspectives <abbrgrp>
                <abbr bid="B11">11</abbr>
             </abbrgrp>,<abbrgrp>
                <abbr bid="B12">12</abbr>
             </abbrgrp>. The OT participants considered fewer activities very or extremely important to include than people with RA. Patients&#8217; perspectives can differ from health professionals, which is why patients&#8217; views should be incorporated when developing patient reported outcomes <abbrgrp>
                <abbr bid="B23">23</abbr>
             </abbrgrp>,<abbrgrp>
                <abbr bid="B24">24</abbr>
             </abbrgrp>. As one EDAQ respondent commented:</p>
          <p>
             <it>&#8220;Little things to help can make life better&#8230;. It&#8217;s stupid little things; the EDAQ shows those small things&#8221;.</it>
          </p>
          <p>Additionally, the EDAQ measures activity both without and with ergonomic solutions, allowing both therapist and patient to evaluate their impact. Initially, we anticipated fewer activities would be included but were surprised that most participants with RA considered the longer draft EDAQ necessary to identify their problems sufficiently. They were however concerned how long it took, so we followed their advice to delete or merge activities (by 10%) and made Part 3 optional, reducing completion time by a third. Although it takes about 35&#160;minutes, people normally do it at their leisure over several days at home, allowing time for reflection.</p>
          <p>The EDAQ has good content validity based on the ICF Core Set for RA activities as almost all are included and it has more activities related to Domestic Life than most other measures <abbrgrp>
                <abbr bid="B25">25</abbr>
             </abbrgrp>,<abbrgrp>
                <abbr bid="B26">26</abbr>
             </abbrgrp>. The limitations of this study are that personal and intimate relationships (ICF Chapter 7) were not identified as problematic in the diary, interview or focus group stages, although people with RA can find these difficult. These are not included in the Swedish EDAQ and our instructions may have been too focused on everyday activities for people to consider relationships as appropriate. Including more people with RA in the EDAQ&#8217;s development or changing the instructions given could have identified further problematic activities. However, the EDAQ cannot include everything; it is not intended to replace a clinical interview and this may be a more appropriate setting for such topics. Additionally, during forward and backward translation, we used professional translators and thus did not include a translator with a clinical background. However, the research team included experienced Rheumatology occupational therapists (AH, UN, IT, GS, RC), the Swedish research team (UN, IT, GS, RC) are bilingual and the meaning of EDAQ content was discussed extensively, during both the two day conceptual definition meeting and later teleconferences following the translations, to clarify meaning.</p>
          <p>Developing the English EDAQ for the UK demonstrated why assessments from other countries must be culturally adapted as well as translated. We identified activities commonly problematic in the UK, such as using kettles and teapots, turning taps and flushing toilets, which were not in the Swedish EDAQ. The conceptual definition meeting identified why. The Swedes are a nation of &#8216;real coffee&#8217; drinkers using coffee machines, rather than kettles, whereas two-thirds of Britons drink tea daily <abbrgrp>
                <abbr bid="B27">27</abbr>
             </abbrgrp>. Sweden adopted principles of universal design in the 1970&#8217;s, thus most Swedish taps and toilets are easy to use. In the UK, this is still not the case so difficulties persist. Similarly, the EDAQ requires cultural adaptation for other countries as activities may be problematic in the UK but not elsewhere. For example, UK electric plugs are hard to push and pull but much smaller and easier to use in the USA.</p>
       </sec>
       <sec>
          <st>
             <p>5
 						Conclusions</p>
          </st>
          <p>The English EDAQ is a detailed measure of daily activity ability, reflecting what people with RA consider is most important to include, with good content validity. As a comprehensive measure of activities commonly found difficult by people with RA in the UK, the EDAQ has the potential to be both a useful clinical tool and an outcome measure for research. Completing it at home saves time in OT appointments and it could facilitate in-depth discussion between client and therapist as they jointly seek solutions and treatments to help. Further testing is needed to establish reliability and validity.</p>
       </sec>
       <sec>
          <st>
             <p>Competing interests</p>
          </st>
          <p>The authors declare they have no competing interests.</p>
       </sec>
       <sec>
          <st>
             <p>Authors&#8217; contributions</p>
          </st>
          <p>AH, ST, AT and UN were involved in the conception and design of the study. AH, ST and YP were involved in acquisition of data; AH, ST, YP, AT, RH, UN, IT, GS, RC in analysis and interpretation of the data. AH and ST drafted the original manuscript. All authors were involved in the review of draft manuscripts and read and approved a final version prior to submission.</p>
       </sec>
       <sec>
          <st>
             <p>Additional file</p>
          </st>
          <suppl id="S1">
             <title>
                <p>Additional file 1:</p>
             </title>
             <text>
                <p>
                   <b>Frequency of Swedish EDAQ and UK activities recorded in activity diaries and OT assessments; participants&#8217; and OTs&#8217; activity importance ratings (median, IQR) for English EDAQ inclusion; differences between participants&#8217; with RA and OTs&#8217; ratings; and ICF codes.</b>
                </p>
             </text>
             <file name="s12955-014-0143-y-S1.doc">
                <p>Click here for file</p>
             </file>
          </suppl>
          
       </sec>
    </bdy>
    <bm>
       <ack>
          <sec>
             <st>
                <p>Acknowledgements</p>
             </st>
             <p>The study was funded by Arthritis Research UK (Project grant no:18497).</p>
             <p>The authors wish to thank: all the study participants with RA; members of the North West College of Occupational Therapists Specialist Section &#8211; Rheumatology for providing assessments, rating EDAQ content importance and/or focus group participation - Yvonne Hough (St Helens Hospital), Angela Jacklin (Stepping Hill Hospital), Val Oultram (Countess of Chester Hospital), Nicky Walker (Leighton Hospital), Karen Crosby (Manchester Royal Infirmary), Charlie Laver (Pennine MSK Ltd), Mary Dooley (Southport &amp; Ormskirk District General Hospital), Sandra Hargreaves (Macclesfield, District General Hospital), Lynette Bowler (Victoria Infirmary, Northwich), Janet Perkins (Trafford General Hospital), Aviva Richards (North Manchester General Hospital), Annette Sands, Tracey White, Holly Hawtin (Wrightington Hospital), Fiona Caven (Cumberland Infirmary), Sarah Geeson (Aintree Hospital), Cynthia Durkin (Burnley General Hospital), Louise Minnis, Susan Ellis (Royal Blackburn Hospital), Debra Allen (Royal Lancaster Hospital); Rachel Gill and Rachel Shuttleworth, Centre for Health Sciences, University of Salford, for assistance with data collection and data entry; Dr. Lynne Goodacre, North West Research Design Service for study advice; Vikki Lane, Academic Rehabilitation, University of Leeds for assistance with EDAQ layout; SEL &#8211; University of Salford Translation Service for EDAQ forward and backward translations; and the Principal Investigators and research nurses for assistance with participant recruitment: Dr Chris Deighton, Lindsey Kimber, Nicola Watson, Karen Pearson, Alison Booth (Royal Derby Hospital); Prof Ian Bruce, Lindsey Barnes, Dmitrij Bartosi (Manchester Royal Infirmary); Dr Neil Snowden, Denise McSorland (North Manchester General Hospital); Prof David Walsh, Debbie Wilson (King&#8217;s Mill Hospital, Sutton-in-Ashfield); and Prof Anthony Jones, Anne Lenton (Salford Royal Hospital).</p>
             <p>The EDAQ and EDAQ User manual are available for free download and use under Creative Commons Licenses from:</p>
             <p>EDAQ: <url>http://usir.salford.ac.uk/30754/</url>
             </p>
             <p>EDAQ User Manualv1: <url>http://usir.salford.ac.uk/30752/</url>
             </p>
          </sec>
       </ack>
       <refgrp>
          
          <bibl id="B1">
             <title>
                <p>Assessment of patient satisfaction in activities of daily living using a modified Stanford health assessment questionnaire</p>
             </title>
             <aug>
                <au>
                   <snm>Pincus</snm>
                   <fnm>T</fnm>
                </au>
                <au>
                   <snm>Summey</snm>
                   <fnm>JA</fnm>
                </au>
                <au>
                   <snm>Soraci</snm>
                   <fnm>SA</fnm>
                </au>
                <au>
                   <snm>Wallston</snm>
                   <fnm>KA</fnm>
                </au>
                <au>
                   <snm>Hummon</snm>
                   <fnm>NP</fnm>
                </au>
             </aug>
             <source>Arthr Rheum</source>
             <pubdate>1983</pubdate>
             <volume>26</volume>
             <issue>11</issue>
             <fpage>1346</fpage>
             <lpage>1353</lpage>
             <xrefbib>
                <pubidlist>
                   <pubid idtype="doi">10.1002/art.1780261107</pubid>
                </pubidlist>
             </xrefbib>
          </bibl>
          <bibl id="B2">
             <title>
                <p>The content and properties of a revised and expanded Arthritis Impact Measurement Scales Health Status Questionnaire</p>
             </title>
             <aug>
                <au>
                   <snm>Meenan</snm>
                   <fnm>RF</fnm>
                </au>
                <au>
                   <snm>Mason</snm>
                   <fnm>JH</fnm>
                </au>
                <au>
                   <snm>Anderson</snm>
                   <fnm>JJ</fnm>
                </au>
                <au>
                   <snm>Guccione</snm>
                   <fnm>AA</fnm>
                </au>
                <au>
                   <snm>Kazis</snm>
                   <fnm>LE</fnm>
                </au>
             </aug>
             <source>Arthr Rheum</source>
             <pubdate>1992</pubdate>
             <volume>35</volume>
             <issue>1</issue>
             <fpage>1</fpage>
             <lpage>10</lpage>
             <xrefbib>
                <pubidlist>
                   <pubid idtype="doi">10.1002/art.1780350102</pubid>
                </pubidlist>
             </xrefbib>
          </bibl>
          <bibl id="B3">
             <title>
                <p>The structure of an instrument for assessing the effect of assistive devices and altered working methods in women with rheumatoid arthritis</p>
             </title>
             <aug>
                <au>
                   <snm>Nordenskiold</snm>
                   <fnm>U</fnm>
                </au>
                <au>
                   <snm>Grimby</snm>
                   <fnm>G</fnm>
                </au>
                <au>
                   <snm>Hedberg</snm>
                   <fnm>M</fnm>
                </au>
                <au>
                   <snm>Wright</snm>
                   <fnm>B</fnm>
                </au>
                <au>
                   <snm>Linacre</snm>
                   <fnm>JM</fnm>
                </au>
             </aug>
             <source>Arthr Care Res</source>
             <pubdate>1996</pubdate>
             <volume>9</volume>
             <fpage>21</fpage>
             <lpage>30</lpage>
             <xrefbib>
                <pubidlist>
                   <pubid idtype="doi">10.1002/1529-0131(199610)9:5&lt;358::AID-ANR1790090504&gt;3.0.CO;2-B</pubid>
                </pubidlist>
             </xrefbib>
          </bibl>
          <bibl id="B4">
             <title>
                <p>Questionnaire to evaluate the effects of assistive devices and altered working methods in women with rheumatoid arthritis</p>
             </title>
             <aug>
                <au>
                   <snm>Nordenskiold</snm>
                   <fnm>U</fnm>
                </au>
                <au>
                   <snm>Grimby</snm>
                   <fnm>G</fnm>
                </au>
                <au>
                   <snm>Dahlin-Ivanoff</snm>
                   <fnm>S</fnm>
                </au>
             </aug>
             <source>Clin Rheumatol</source>
             <pubdate>1998</pubdate>
             <volume>17</volume>
             <fpage>6</fpage>
             <lpage>16</lpage>
             <xrefbib>
                <pubidlist>
                   <pubid idtype="doi">10.1007/BF01450952</pubid>
                   <pubid idtype="pmpid" link="fulltext">9586673</pubid>
                </pubidlist>
             </xrefbib>
          </bibl>
          <bibl id="B5">
             <title>
                <p>Hand-arm vibration exposure influences performance of daily activities</p>
             </title>
             <aug>
                <au>
                   <snm>Cederlund</snm>
                   <fnm>R</fnm>
                </au>
                <au>
                   <snm>Nordenskiold</snm>
                   <fnm>U</fnm>
                </au>
                <au>
                   <snm>Lundborg</snm>
                   <fnm>G</fnm>
                </au>
             </aug>
             <source>Disabil Rehabil</source>
             <pubdate>2001</pubdate>
             <volume>23</volume>
             <issue>13</issue>
             <fpage>570</fpage>
             <lpage>577</lpage>
             <xrefbib>
                <pubidlist>
                   <pubid idtype="doi">10.1080/09638280010036535</pubid>
                   <pubid idtype="pmpid" link="fulltext">11451191</pubid>
                </pubidlist>
             </xrefbib>
          </bibl>
          <bibl id="B6">
             <title>
                <p>Quality of life in Swedish workers exposed to hand-arm vibration syndrome</p>
             </title>
             <aug>
                <au>
                   <snm>Cederlund</snm>
                   <fnm>R</fnm>
                </au>
                <au>
                   <snm>Iwarsson</snm>
                   <fnm>S</fnm>
                </au>
                <au>
                   <snm>Lundborg</snm>
                   <fnm>G</fnm>
                </au>
             </aug>
             <source>Occup Ther Int</source>
             <pubdate>2007</pubdate>
             <volume>14</volume>
             <fpage>156</fpage>
             <lpage>169</lpage>
             <xrefbib>
                <pubidlist>
                   <pubid idtype="doi">10.1002/oti.231</pubid>
                   <pubid idtype="pmpid" link="fulltext">17624874</pubid>
                </pubidlist>
             </xrefbib>
          </bibl>
          <bibl id="B7">
             <title>
                <p>ADL activities and hand function in women with scleroderma</p>
             </title>
             <aug>
                <au>
                   <snm>Sandqvist</snm>
                   <fnm>G</fnm>
                </au>
                <au>
                   <snm>Eklund</snm>
                   <fnm>MA</fnm>
                </au>
                <au>
                   <snm>Akesson</snm>
                   <fnm>A</fnm>
                </au>
                <au>
                   <snm>Nordenskiold</snm>
                   <fnm>U</fnm>
                </au>
             </aug>
             <source>Scand J Rheumatol</source>
             <pubdate>2004</pubdate>
             <volume>33</volume>
             <fpage>102</fpage>
             <lpage>7</lpage>
             <xrefbib>
                <pubidlist>
                   <pubid idtype="doi">10.1080/03009740410006060</pubid>
                   <pubid idtype="pmpid" link="fulltext">15163111</pubid>
                </pubidlist>
             </xrefbib>
          </bibl>
          <bibl id="B8">
             <title>
                <p>Survey of the use and effect of assistive devices in patients with early rheumatoid arthritis: a two-year follow-up of women and men</p>
             </title>
             <aug>
                <au>
                   <snm>Thyberg</snm>
                   <fnm>I</fnm>
                </au>
                <au>
                   <snm>Hass</snm>
                   <fnm>UAM</fnm>
                </au>
                <au>
                   <snm>Nordenskiold</snm>
                   <fnm>U</fnm>
                </au>
                <au>
                   <snm>Skogh</snm>
                   <fnm>T</fnm>
                </au>
             </aug>
             <source>Arthr Care Res</source>
             <pubdate>2004</pubdate>
             <volume>51</volume>
             <issue>3</issue>
             <fpage>413</fpage>
             <lpage>421</lpage>
             <xrefbib>
                <pubidlist>
                   <pubid idtype="doi">10.1002/art.20410</pubid>
                </pubidlist>
             </xrefbib>
          </bibl>
          <bibl id="B9">
             <title>
                <p>Activity limitation in rheumatoid arthritis correlates with reduced grip force regardless of sex: The Swedish TIRA Project</p>
             </title>
             <aug>
                <au>
                   <snm>Thyberg</snm>
                   <fnm>I</fnm>
                </au>
                <au>
                   <snm>Hass</snm>
                   <fnm>UAM</fnm>
                </au>
                <au>
                   <snm>Nordenskiold</snm>
                   <fnm>U</fnm>
                </au>
                <au>
                   <snm>Gerdle</snm>
                   <fnm>B</fnm>
                </au>
                <au>
                   <snm>Skogh</snm>
                   <fnm>T</fnm>
                </au>
             </aug>
             <source>Arthritis Care Res</source>
             <pubdate>2005</pubdate>
             <volume>53</volume>
             <issue>6</issue>
             <fpage>886</fpage>
             <lpage>896</lpage>
             <xrefbib>
                <pubidlist>
                   <pubid idtype="doi">10.1002/art.21595</pubid>
                </pubidlist>
             </xrefbib>
          </bibl>
          <bibl id="B10">
             <aug>
                <au>
                   <snm>Nordenskiold</snm>
                   <fnm>U</fnm>
                </au>
             </aug>
             <source>EDAQ Manual Version 5</source>
             <pubdate>2007</pubdate>
          </bibl>
          <bibl id="B11">
             <title>
                <p>Incorporating the patient perspective into outcome assessment in rheumatoid arthritis. &#8211; progress at OMERACT 7</p>
             </title>
             <aug>
                <au>
                   <snm>Kirwan</snm>
                   <fnm>JR</fnm>
                </au>
                <au>
                   <snm>Hewlett</snm>
                   <fnm>SE</fnm>
                </au>
                <au>
                   <snm>Heiberg</snm>
                   <fnm>T</fnm>
                </au>
                <au>
                   <snm>Hughes</snm>
                   <fnm>RA</fnm>
                </au>
                <au>
                   <snm>Carr</snm>
                   <fnm>M</fnm>
                </au>
                <au>
                   <snm>Hehir</snm>
                   <fnm>M</fnm>
                </au>
                <au>
                   <snm>Kvien</snm>
                   <fnm>TK</fnm>
                </au>
                <au>
                   <snm>Minnock</snm>
                   <fnm>P</fnm>
                </au>
                <au>
                   <snm>Newman</snm>
                   <fnm>SP</fnm>
                </au>
                <au>
                   <snm>Quest</snm>
                   <fnm>EM</fnm>
                </au>
                <au>
                   <snm>Taal</snm>
                   <fnm>E</fnm>
                </au>
                <au>
                   <snm>Wale</snm>
                   <fnm>J</fnm>
                </au>
             </aug>
             <source>J Rheumatol</source>
             <pubdate>2005</pubdate>
             <volume>32</volume>
             <fpage>2250</fpage>
             <lpage>2256</lpage>
             <xrefbib>
                <pubidlist>
                   <pubid idtype="pmpid" link="fulltext">16265712</pubid>
                </pubidlist>
             </xrefbib>
          </bibl>
          <bibl id="B12">
             
                <url>www.fda.gov/downloads/drugs/guidancecomplianceregulatoryinformation/guidances/ucm193282.pdf</url>
             
<note>United States Department of Health and Human Services Food and Drug Administration (USFDA): <b>Guidance for industry: patient-reported outcome measures: use in medical product development to support labeling claims.</b> 2009. . accessed 24.9.14.</note>
          </bibl>
          <bibl id="B13">
             <source>International Classification of Functioning, Disability and Health</source>
             <publisher>World Health Organisation, Geneva</publisher>
             <pubdate>2001</pubdate>
          </bibl>
          <bibl id="B14">
             <title>
                <p>ICF Core Set for Rheumatoid Arthritis</p>
             </title>
             <aug>
                <au>
                   <snm>Stucki</snm>
                   <fnm>G</fnm>
                </au>
                <au>
                   <snm>Cieza</snm>
                   <fnm>A</fnm>
                </au>
                <au>
                   <snm>Geyh</snm>
                   <fnm>S</fnm>
                </au>
                <au>
                   <snm>Battistella</snm>
                   <fnm>L</fnm>
                </au>
                <au>
                   <snm>Lloyd</snm>
                   <fnm>J</fnm>
                </au>
                <au>
                   <snm>Simmons</snm>
                   <fnm>D</fnm>
                </au>
                <au>
                   <snm>Kostanjsek</snm>
                   <fnm>N</fnm>
                </au>
                <au>
                   <snm>Schouten</snm>
                   <fnm>J</fnm>
                </au>
             </aug>
             <source>J Rehabil Med Suppl</source>
             <pubdate>2004</pubdate>
             <volume>44</volume>
             <fpage>87</fpage>
             <lpage>93</lpage>
             <xrefbib>
                <pubidlist>
                   <pubid idtype="doi">10.1080/16501960410015470</pubid>
                </pubidlist>
             </xrefbib>
          </bibl>
          <bibl id="B15">
             <title>
                <p>Guidelines for the process of cross-cultural adaptation of self-report measures</p>
             </title>
             <aug>
                <au>
                   <snm>Beaton</snm>
                   <fnm>DE</fnm>
                </au>
                <au>
                   <snm>Bombardier</snm>
                   <fnm>C</fnm>
                </au>
                <au>
                   <snm>Guillemin</snm>
                   <fnm>F</fnm>
                </au>
                <au>
                   <snm>Marcos</snm>
                   <fnm>BF</fnm>
                </au>
             </aug>
             <source>Spine</source>
             <pubdate>2004</pubdate>
             <volume>25</volume>
             <fpage>3186</fpage>
             <lpage>3191</lpage>
             <xrefbib>
                <pubidlist>
                   <pubid idtype="doi">10.1097/00007632-200012150-00014</pubid>
                </pubidlist>
             </xrefbib>
          </bibl>
          <bibl id="B16">
             
                <url>https://store.mapigroup.com/</url>
             
<note>Acquadro C, Joyce CRB, Patrick DL, Ware JE, Wu AW: <it>Linguistic Validation Manual for Patient-Reported Outcomes (PRO) Instruments.</it> Lyon, France: Mapi Research Trust; 2004. ().</note>
          </bibl>
          <bibl id="B17">
             
                <url>http://sru.soc.surrey.ac.uk/SRU2.html</url>
             
<note>Corti L: <b>Using diaries in social research.</b> In <it>Social Research Update 2.</it> Surrey University: 1993. Downloaded from . Accessed 24.2.14.</note>
          </bibl>
          <bibl id="B18">
             <title>
                <p>Daily activities in women with rheumatoid arthritis: Aspects of patient education, assistive devices, and methods for disability and impairments assessment</p>
             </title>
             <aug>
                <au>
                   <snm>Nordenskiold</snm>
                   <fnm>U</fnm>
                </au>
             </aug>
             <source>Scand J Rehabil Med Suppl</source>
             <pubdate>1997</pubdate>
             <volume>37</volume>
             <fpage>1</fpage>
             <lpage>72</lpage>
             <xrefbib>
                <pubidlist>
                   <pubid idtype="pmpid" link="fulltext">9428052</pubid>
                </pubidlist>
             </xrefbib>
          </bibl>
          <bibl id="B19">
             <aug>
                <au>
                   <snm>Neuendorf</snm>
                   <fnm>KA</fnm>
                </au>
             </aug>
             <source>The Content Analysis Guidebook</source>
             <publisher>Sage, Thousand Oaks</publisher>
             <pubdate>2002</pubdate>
          </bibl>
          <bibl id="B20">
             <title>
                <p>Linking health status measurements to the International Classification of Functioning, Disability and Health</p>
             </title>
             <aug>
                <au>
                   <snm>Cieza</snm>
                   <fnm>A</fnm>
                </au>
                <au>
                   <snm>Brockow</snm>
                   <fnm>T</fnm>
                </au>
                <au>
                   <snm>Ewart</snm>
                   <fnm>T</fnm>
                </au>
                <au>
                   <snm>Amman</snm>
                   <fnm>E</fnm>
                </au>
                <au>
                   <snm>Killerits</snm>
                   <fnm>B</fnm>
                </au>
                <au>
                   <snm>Chatterji</snm>
                   <fnm>S</fnm>
                </au>
                <au>
                   <snm>Ustun</snm>
                   <fnm>TB</fnm>
                </au>
                <au>
                   <snm>Stucki</snm>
                   <fnm>G</fnm>
                </au>
             </aug>
             <source>J Rehabil Med</source>
             <pubdate>2002</pubdate>
             <volume>34</volume>
             <fpage>205</fpage>
             <lpage>10</lpage>
             <xrefbib>
                <pubidlist>
                   <pubid idtype="doi">10.1080/165019702760279189</pubid>
                   <pubid idtype="pmpid" link="fulltext">12392234</pubid>
                </pubidlist>
             </xrefbib>
          </bibl>
          <bibl id="B21">
             <title>
                <p>ICF linking rules: an update based on lessons learnt</p>
             </title>
             <aug>
                <au>
                   <snm>Cieza</snm>
                   <fnm>A</fnm>
                </au>
                <au>
                   <snm>Geyh</snm>
                   <fnm>S</fnm>
                </au>
                <au>
                   <snm>Chatterji</snm>
                   <fnm>S</fnm>
                </au>
                <au>
                   <snm>Kostansjek</snm>
                   <fnm>N</fnm>
                </au>
                <au>
                   <snm>Ustun</snm>
                   <fnm>B</fnm>
                </au>
                <au>
                   <snm>Stucki</snm>
                   <fnm>G</fnm>
                </au>
             </aug>
             <source>J Rehabil Med</source>
             <pubdate>2004</pubdate>
             <volume>37</volume>
             <fpage>212</fpage>
             <lpage>218</lpage>
             <xrefbib>
                <pubidlist>
                   <pubid idtype="doi">10.1080/16501970510040263</pubid>
                </pubidlist>
             </xrefbib>
          </bibl>
          <bibl id="B22">
             <title>
                <p>Development of an Upper Extremity Outcome Measure: the DASH (Disabilities of the Arm, Shoulder and Hand)</p>
             </title>
             <aug>
                <au>
                   <snm>Hudek</snm>
                   <fnm>PL</fnm>
                </au>
                <au>
                   <snm>Amadio</snm>
                   <fnm>PC</fnm>
                </au>
                <au>
                   <snm>Bombardier</snm>
                   <fnm>C</fnm>
                </au>
             </aug>
             <source>Am J Indl Med</source>
             <pubdate>1995</pubdate>
             <volume>29</volume>
             <fpage>602</fpage>
             <lpage>608</lpage>
             <xrefbib>
                <pubidlist>
                   <pubid idtype="doi">10.1002/(SICI)1097-0274(199606)29:6&lt;602::AID-AJIM4&gt;3.0.CO;2-L</pubid>
                </pubidlist>
             </xrefbib>
          </bibl>
          <bibl id="B23">
             <title>
                <p>Similar problem in the Activities of Daily Living but different experience: a qualitative analysis in six rheumatic conditions and eight European countries</p>
             </title>
             <aug>
                <au>
                   <snm>Stamm</snm>
                   <fnm>T</fnm>
                </au>
                <au>
                   <snm>Heiblinger</snm>
                   <fnm>R</fnm>
                </au>
                <au>
                   <snm>Bostrom</snm>
                   <fnm>C</fnm>
                </au>
                <au>
                   <snm>Mihai</snm>
                   <fnm>C</fnm>
                </au>
                <au>
                   <snm>Birrell</snm>
                   <fnm>F</fnm>
                </au>
                <au>
                   <snm>Throstensson</snm>
                   <fnm>C</fnm>
                </au>
                <au>
                   <snm>Thorstensson</snm>
                   <fnm>C</fnm>
                </au>
                <au>
                   <snm>Fialka-Moser</snm>
                   <fnm>V</fnm>
                </au>
                <au>
                   <snm>Meriaux-Kratochvila</snm>
                   <fnm>S</fnm>
                </au>
                <au>
                   <snm>Smolen</snm>
                   <fnm>J</fnm>
                </au>
                <au>
                   <snm>Coenen</snm>
                   <fnm>M</fnm>
                </au>
             </aug>
             <source>Musculoskel Care</source>
             <pubdate>2014</pubdate>
             <volume>12</volume>
             <fpage>22</fpage>
             <lpage>33</lpage>
             <xrefbib>
                <pubidlist>
                   <pubid idtype="doi">10.1002/msc.1047</pubid>
                </pubidlist>
             </xrefbib>
          </bibl>
          <bibl id="B24">
             <title>
                <p>Patients and clinicians have different perspectives on outcomes in arthritis</p>
             </title>
             <aug>
                <au>
                   <snm>Hewlett</snm>
                   <fnm>S</fnm>
                </au>
             </aug>
             <source>J Rheumatol</source>
             <pubdate>2003</pubdate>
             <volume>30</volume>
             <fpage>877</fpage>
             <lpage>879</lpage>
             <xrefbib>
                <pubidlist>
                   <pubid idtype="pmpid" link="fulltext">12672220</pubid>
                </pubidlist>
             </xrefbib>
          </bibl>
          <bibl id="B25">
             <title>
                <p>Functional and health assessment used in rheumatology occupational therapy: a review and United Kingdom survey</p>
             </title>
             <aug>
                <au>
                   <snm>Hammond</snm>
                   <fnm>A</fnm>
                </au>
             </aug>
             <source>Br J Occup Ther</source>
             <pubdate>1996</pubdate>
             <volume>59</volume>
             <fpage>254</fpage>
             <lpage>259</lpage>
          </bibl>
          <bibl id="B26">
             <title>
                <p>Measurement properties of physical function scales validated for use in patients with rheumatoid arthritis: a systematic review of the literature</p>
             </title>
             <aug>
                <au>
                   <snm>Oude Voshaar</snm>
                   <fnm>MAH</fnm>
                </au>
                <au>
                   <snm>ten Klooster</snm>
                   <fnm>PM</fnm>
                </au>
                <au>
                   <snm>Taal</snm>
                   <fnm>E</fnm>
                </au>
                <au>
                   <snm>van der Laar</snm>
                   <fnm>MAFJ</fnm>
                </au>
             </aug>
             <source>Health Qual Life Outcomes</source>
             <pubdate>2011</pubdate>
             <volume>9</volume>
             <fpage>99</fpage>
             <note>http://www.hqlo.com/content/9/1/99
                     
                     </note>
             <xrefbib>
                <pubidlist>
                   <pubid idtype="doi">10.1186/1477-7525-9-99</pubid>
                   <pubid idtype="pmpid" link="fulltext">22059801</pubid>
                </pubidlist>
             </xrefbib>
          </bibl>
          <bibl id="B27">
             
                <url>http://www.tea.co.uk/tea-faqs</url>
             
<note>UK Tea Council: <b>Tea Glossary and FAQs.</b>. Accessed 24.9.14.</note>
          </bibl>
       </refgrp>
    </bm>
 </art>
