<art>
    <ui>s12941-014-0043-3</ui>
    <ji>1476-0711</ji>
    <fm>
       <dochead>Research</dochead>
       <bibl>
          <title>
             <p>Characterization of carbapenem-resistant <it>Pseudomonas aeruginosa</it> clinical isolates, carrying multiple genes coding for this antibiotic resistance</p>
          </title>
          <aug>
             <au id="A1">
                <snm>Rizek</snm>
                <fnm>Camila</fnm>
                <insr iid="I1"/>
                <email>cammybio02@gmail.com</email>
             </au>
             <au id="A2">
                <snm>Fu</snm>
                <fnm>Liang</fnm>
                <insr iid="I1"/>
                <email>liang.fung@einstein.br</email>
             </au>
             <au id="A3">
                <snm>dos Santos</snm>
                <mnm>Cavalcanti</mnm>
                <fnm>Leticia</fnm>
                <insr iid="I1"/>
                <email>gcih@hcnet.usp.br</email>
             </au>
             <au id="A4">
                <snm>Leite</snm>
                <fnm>Gleice</fnm>
                <insr iid="I1"/>
                <email>gleicl@yahoo.com.br</email>
             </au>
             <au id="A5">
                <snm>Ramos</snm>
                <fnm>Jessica</fnm>
                <insr iid="I2"/>
                <email>djessica_ramos@yahoo.com.br</email>
             </au>
             <au id="A6">
                <snm>Rossi</snm>
                <fnm>Flavia</fnm>
                <insr iid="I3"/>
                <email>frossi@hcnet.ups.br</email>
             </au>
             <au id="A7">
                <snm>Guimaraes</snm>
                <fnm>Thais</fnm>
                <insr iid="I2"/>
                <email>tguimaraes@terra.com.br</email>
             </au>
             <au id="A8">
                <snm>Levin</snm>
                <mi>S</mi>
                <fnm>Anna</fnm>
                <insr iid="I1"/>
                <insr iid="I2"/>
                <email>anna@usp.br</email>
             </au>
             <au id="A9" ca="yes">
                <snm>Costa</snm>
                <mnm>Figueiredo</mnm>
                <fnm>Silvia</fnm>
                <insr iid="I1"/>
                <insr iid="I2"/>
                <email>silviacosta@usp.br</email>
             </au>
          </aug>
          <insg>
             <ins id="I1">
                <p>Laboratory of Bacteriology of Department of Infectious, Diseases of University of S&#227;o Paulo, Dr. Eneas Carvalho de Aguiar 470, S&#227;o Paulo Zip Code 02461011, Brazil</p>
             </ins>
             <ins id="I2">
                <p>Department of Infectious, Diseases of University of S&#227;o Paulo, Dr. Eneas Carvalho de Aguiar 470, S&#227;o Paulo Zip Code 02461011, Brazil</p>
             </ins>
             <ins id="I3">
                <p>Laboratory of Microbiology of Hospital das Clinicas of University of S&#227;o Paulo, Dr. Eneas Carvalho de Aguiar 255, S&#227;o Paulo Zip Code 02461011, Brazil</p>
             </ins>
          </insg>
          <source>Annals of Clinical Microbiology and Antimicrobials</source>
          <issn>1476-0711</issn>
          <pubdate>2014</pubdate>
          <volume>13</volume>
          <issue>1</issue>
          <fpage>43</fpage>
          <url>http://www.ann-clinmicrob.com/content/13/1/43</url>
          <xrefbib>
             <pubidlist>
                <pubid idtype="doi">10.1186/s12941-014-0043-3</pubid>
                <pubid idtype="pmpid"><!-- Need to check source for data--></pubid>
             </pubidlist>
          </xrefbib>
       </bibl>
       <history>
          <rec>
             <date>
                <day>22</day>
                <month>4</month>
                <year>2014</year>
             </date>
          </rec>
          <acc>
             <date>
                <day>20</day>
                <month>8</month>
                <year>2014</year>
             </date>
          </acc>
          <pub>
             <date>
                <day>2</day>
                <month>9</month>
                <year>2014</year>
             </date>
          </pub>
       </history>
       <cpyrt>
          <year>2014</year>
          <collab>Rizek et al.; licensee BioMed Central Ltd.</collab>
          <note>This is an Open Access article distributed under the terms of the Creative Commons Attribution License (<url>http://creativecommons.org/licenses/by/4.0</url>), which permits unrestricted use, distribution, and reproduction in any medium, provided the original work is properly credited. The Creative Commons Public Domain Dedication waiver (<url>http://creativecommons.org/publicdomain/zero/1.0/</url>) applies to the data made available in this article, unless otherwise stated.</note>
       </cpyrt>
       <kwdg>
          <kwd>Pseudomonas</kwd>
          <kwd>Carbapenemases</kwd>
          <kwd>KPC</kwd>
          <kwd>VIM</kwd>
          <kwd>SPM</kwd>
       </kwdg>
       <abs>
          <sec>
             <st>
                <p>Abstract</p>
             </st>
             <sec>
                <st>
                   <p>Background</p>
                </st>
                <p>Carbapenemase genes are one of the most frequent mechanisms reported in carbapenem-resistant <it>P. aeruginosa;</it> however, description of <it>P. aeruginosa</it> co-harbouring two or more carbapenemases is unusual.</p>
             </sec>
             <sec>
                <st>
                   <p>Methods</p>
                </st>
                <p>In this study we evaluated the presence of carbapenemase genes and the clonality of <it>P. aeruginosa</it> isolates obtained from a hospital over a 12-year period. A total of 127 isolates of carbapenem-resistant <it>P. aeruginosa</it> recovered from 109 patients feces (four samples), rectal swab (three samples), nasal swab (one sample) and anal abscess (one sample), were evaluated. Minimum inhibitory concentrations of the following antibiotics imipenem, meropenem and polymyxin E were determined by broth microdilution. The molecular profile of isolates was evaluated by pulsed field gel electrophoresis (PFGE). PCR for the following carbapenemase genes <it>bla</it>
                   <sub>IMP;</sub>
                   <it>bla</it>
                   <sub>SPM;</sub>
                   <it>bla</it>
                   <sub>VIM;</sub>
                   <it>bla</it>
                   <sub>SIM;</sub>
                   <it>bla</it>
                   <sub>NDM;</sub>
                   <it>bla</it>
                   <sub>KPC;</sub>
                   <it>bla</it>
                   <sub>GES</sub> and nucleotide sequencing to confirm the enzyme gene types were performed and compared with the database available on the Internet (BLAST-<url>http://www.ncbi.nlm.nhi.gov/blast/</url>).</p>
             </sec>
             <sec>
                <st>
                   <p>Results</p>
                </st>
                <p>All isolates were carbapenem-resistant, their MIC<sub>50</sub> and MIC<sub>90</sub> were respectively 64 &#956;g/mL and 256 &#956;g/mL to imipenem and 32 &#956;g/mL and 256 &#956;g/mL to meropenem, all isolates except one (MIC = 8 mg/L) were susceptible to polymyxin E. The most frequent carbapenemase genes identified were <it>bla</it>
                   <sub>SPM</sub> identified in 41 isolates (32%), followed by 10 with <it>bla</it>
                   <sub>kpc</sub> and 5 with <it>bla</it>
                   <sub>VIM</sub> (3.9%). All belonged to the class SPM-1 and VIM-2. In 2011, one isolate harbouring three carbapenemase genes (SPM-1, VIM-2 and KPC-2) that belonged to a new clone was identified in a hematopoietic stem cell transplanted patient. Then, 19 carbapenem-resistant <it>P. aeruginosa</it> were identified in an outbreak that occurred in the bone marrow transplant unit, all positive for SPM-1 gene, and 9 (47.3%) harbored both SPM-1 and KPC.</p>
             </sec>
             <sec>
                <st>
                   <p>Conclusion</p>
                </st>
                <p>Our findings showed that PCR for KPC gene should be performed to evaluate carbapenem resistance in <it>P. aeruginosa</it> and that this agent can harbor more than one carbapenemase gene. Attention should be focused on the possible rapid spread of KPC in <it>P. aeruginosa</it> isolates and for the fact that <it>P. aeruginosa</it> may become a reservoir of this transmissible resistance mechanism.</p>
             </sec>
          </sec>
       </abs>
    </fm>
    <bdy>
       <sec>
          <st>
             <p>Background</p>
          </st>
          <p>Carbapenem&#8211;resistant <it>P. aeruginosa</it> has become an important problem all over the world challenging the current diagnostic approaches. Carbapenemase genes are one of the most frequent mechanisms reported in carbapenem-resistant <it>P. aeruginosa</it>
             <abbrgrp>
                <abbr bid="B1">1</abbr>
             </abbrgrp>-<abbrgrp>
                <abbr bid="B5">5</abbr>
             </abbrgrp>. It is important to identify carbapenemase genes transmitted on mobile genetic elements which can lead to the spread of resistance of <it>P. aeruginosa</it> to carbapenem, which are the main drugs used to treat infections caused by this agent. In Brazil, the most common carbapenemase is the metallo-betalactamase, SPM, however, recently <it>P. aeruginosa</it> harboring KPC was identified <abbrgrp>
                <abbr bid="B2">2</abbr>
             </abbrgrp>.</p>
          <p>In this study, we evaluated the presence of carbapenemase genes and the clonality of carbapenem- resistant <it>P. aeruginosa</it> isolates obtained from a teaching hospital over a 12-year period.</p>
       </sec>
       <sec>
          <st>
             <p>Methods</p>
          </st>
          <sec>
             <st>
                <p>Study setting</p>
             </st>
             <p>The study was conducted in The <it>Central Institute of Hospital das Clinicas</it> (ICHC &#8211; FMUSP), Brazil, a teaching hospital with 1,000 beds, ten intensive care units totalizing 110 beds and a bone marrow transplant ward with 20 beds.</p>
          </sec>
          <sec>
             <st>
                <p>Isolates</p>
             </st>
             <p>A total of 129 <it>P. aeruginosa</it> carbapenem-resistant clinical isolates identified over a 12-year period, from 1998 to 2012, recovered from 109 patients, hospitalized in the Clinical and Surgical nursery, Intensive Care, Burned, Haematology and Bone Marrow units at Hospital das Clinicas-FMUSP were evaluated.</p>
          </sec>
          <sec>
             <st>
                <p>Susceptible profile</p>
             </st>
             <p>Minimum inhibitory concentrations (MICs) of imipenem, meropenem and polymixin E were determined by broth microdilution according with Clinical Laboratory Standards Institute (CLSI 2012).</p>
          </sec>
          <sec>
             <st>
                <p>Molecular typing</p>
             </st>
             <p>Bacterial isolates were grown on blood agar overnight at 37&#176;C. Gel blocks were made by using equal volumes of 2% low-melting-point agar (BioRad, USA) and a bacterial suspension of 9&#8201;&#215;&#8201;10<sup>8</sup> cells. Genomic DNA was digested with 10U of XBAI (Fermentas, USA), <abbrgrp>
                   <abbr bid="B6">6</abbr>
                </abbrgrp> (Sekiguchi ref). DNAs were separated by pulsed-field gel electrophoresis (PFGE) using a CHEF-DR III system (Bio-Rad, USA). Running conditions were 21&#160;h at 14&#176;C, with and initial switching time of 1&#160;s and final time of 30&#160;s, at 6&#160;V/cm. PFGE patterns were interpreted according to Tenover <it>et al.</it> 1997 <abbrgrp>
                   <abbr bid="B7">7</abbr>
                </abbrgrp>.</p>
          </sec>
          <sec>
             <st>
                <p>Carbapenemases genes</p>
             </st>
             <p>PCR for the following carbapenemase genes <it>bla</it>
                <sub>IMP;</sub>
                <it>bla</it>
                <sub>SPM;</sub>
                <it>bla</it>
                <sub>VIM;</sub>
                <it>bla</it>
                <sub>SIM;</sub>
                <it>bla</it>
                <sub>NDM;</sub>
                <it>bla</it>
                <sub>KPC;</sub>
                <it>bla</it>
                <sub>GES</sub> was done as described previously <abbrgrp>
                   <abbr bid="B8">8</abbr>
                </abbrgrp>-<abbrgrp>
                   <abbr bid="B11">11</abbr>
                </abbrgrp>. The following reference strains were used as control in this study<it>: P. aeruginosa</it> that produced IMP-1, VIM-2, SIM-1, SPM-1 <abbrgrp>
                   <abbr bid="B10">10</abbr>
                </abbrgrp>, KPC ATCC and <it>E. coli</it> NDM. Nucleotide sequencing to confirm the enzyme gene types was performed by MegaBACE 1000. The sequences were analyzed using the software Sequence Analyzer with the Base Caller Cimarron 3.12. The genetic sequence was compared with the database available on the Internet (BLAST-<url>http://www.ncbi.nlm.nhi.gov/blast/</url>). The KPC sequence was also comparing with KPC lahey databases (<url>http://www.lahey.org/Studies/other.asp#table1</url>).</p>
          </sec>
       </sec>
       <sec>
          <st>
             <p>Results</p>
          </st>
          <p>All isolates were carbapenem-resistant, their MIC<sub>50</sub> and MIC<sub>90</sub> were respectively 64&#160;&#956;g/mL and 256&#160;&#956;g/mL to imipenem and 32&#160;&#956;g/mL and 256&#160;&#956;g/mL to meropenem. All isolates except one (MIC: 8&#160;&#956;g/mL), were susceptible to colistin, MICs varied from 0.25 to 2&#160;&#956;g/mL. They were recovered from blood (120 samples), feces (four samples), rectal swab (three samples), nasal swab (one sample) and anal abscess (one sample). PFGE showed that, from 1998 to 2009, 25% (27 of 108 strains) belonged to one predominant clone (A1), thirty-two (A2) of 108 isolates (29.7%) were closely related to them and sixteen (14.8%) were possibly related (A3, A4, A5, A6 and A7) to the predominant clone (A1). Thirty-three (30.5%) showed no relation with the predominant clone A1. Among the 129 isolates 50 (39%) harboured a carbapenemase, the most frequent carbapenemase genes identified were <it>bla</it>
             <sub>SPM</sub> identified in 41 isolates (32%) (Figure&#160;<figr fid="F1">1</figr>), followed by 10 with <it>bla</it>
             <sub>kpc</sub> (Figure&#160;<figr fid="F2">2</figr>) and 5 with <it>bla</it>
             <sub>VIM</sub> (Figure&#160;<figr fid="F3">3</figr>). GES-5 was identified only in 3 isolates from one burned patient. <it>Pseudomonas aeruginosa</it> harbouring SPM-1 was identified for the first time in the Bone Marrow Transplant unit in 1998, VIM-2 in the Emergency Room in 2001 and GES-5 in the Burned Intensive Care Unit. GenBank accession numbers: JX840596 (VIM-2), JX682700-JX682705 (KPC-2) and JX870518-JX870528 (SPM-1).</p>
          
             <fig id="F1">
                <title>
                   <p>Figure 1</p>
                </title>
                <caption>
                   <p>PCR for detection of SPM gene in P. aeruginosa carbapenem-resistant isolates.</p>
                </caption>
                <text>
                   <p>
                      <b>PCR for detection of SPM gene in P. aeruginosa carbapenem-resistant isolates.</b> 1 - SPM Positive Control (amplicon size 798 bp). 2, 3 and 4 - P. aeruginosa SPM positive; 5, 6 - Negative Control and 6 - Molecular Weight.</p>
                </text>
                <graphic file="s12941-014-0043-3-1"/>
             </fig>
          
          
             <fig id="F2">
                <title>
                   <p>Figure 2</p>
                </title>
                <caption>
                   <p>PCR for detection KPC gene in</p>
                </caption>
                <text>
                   <p>
                      <b>PCR for detection KPC gene in</b>
                      <b>
                         <it>P. aeruginosa</it>
                      </b>
                      <b>carbapenem-resistant isolates.</b> 1 &#8211; Molecular Weight; 2, 3 &#8211; Negative Control; 4 &#8211; KPC Positive Control (amplicon size 893 bp); 5, 6 and 7 &#8211; <it>P. aeruginosa</it> KPC positive.</p>
                </text>
                <graphic file="s12941-014-0043-3-2"/>
             </fig>
          
          
             <fig id="F3">
                <title>
                   <p>Figure 3</p>
                </title>
                <caption>
                   <p>PCR for detection of VIM gene in</p>
                </caption>
                <text>
                   <p>
                      <b>PCR for detection of VIM gene in</b>
                      <b>
                         <it>P. aeruginosa</it>
                      </b>
                      <b>carbapenem-resistant isolates.</b> 1, 6 &#8211; Molecular Weight; 2 &#8211; VIM Positive Control (amplicon size 382 bp); 3, 4 &#8211; <it>P. aeruginosa</it> VIM positive and 5 - Negative Control.</p>
                </text>
                <graphic file="s12941-014-0043-3-3"/>
             </fig>
          
          <p>In 2012 during an outbreak that occurred in the bone marrow transplant unit, 19 carbapemem-resistant <it>P. aeruginosa</it> were identified (clone K, L, L1, L2, L3 and M), all positive for SPM-1 gene, and 10 (47.3%) harboured both SPM-1 and KPC-2. The majority of the KPC, six isolates of nine, belong to the clone of the outbreak (K).</p>
          <p>The relation between molecular profile and carbapenemase gene for all period is shown on Table&#160;<tblr tid="T1">1</tblr>.</p>
          
             <table id="T1">
                <title>
                   <p>Table 1</p>
                </title>
                <caption>
                   <p>
                      <b>Carbapenemase genes and clonality of 129 carbapenem-resistant</b>
                      <b>
                         <it>P. aeruginosa</it>
                      </b>
                      <b>isolated in Hospital das Clinicas, over a 12-year period</b>
                   </p>
                </caption>
                <tgroup align="left" cols="4">
                   <colspec align="left" colname="c1" colnum="1" colwidth="*"/>
                   <colspec align="left" colname="c2" colnum="2" colwidth="*"/>
                   <colspec align="left" colname="c3" colnum="3" colwidth="*"/>
                   <colspec align="left" colname="c4" colnum="4" colwidth="*"/>
                   <thead>
                      <row valign="top">
                         <entry colname="c1">
                            <p>
                               <b>Carbapenemase gene</b>
                            </p>
                         </entry>
                         <entry colname="c2">
                            <p>
                               <b>Number of isolates</b>
                            </p>
                         </entry>
                         <entry colname="c3">
                            <p>
                               <b>PFGE clone</b>
                            </p>
                         </entry>
                         <entry colname="c4">
                            <p>
                               <b>Year of identification</b>
                            </p>
                         </entry>
                      </row>
                   </thead>
                   <tbody>
                      <row valign="top">
                         <entry colname="c1" morerows="8">
                            <p>None (n&#8201;=&#8201;79)</p>
                         </entry>
                         <entry colname="c2">
                            <p>27</p>
                         </entry>
                         <entry colname="c3">
                            <p>A1</p>
                         </entry>
                         <entry colname="c4">
                            <p>1998-2008</p>
                         </entry>
                      </row>
                      <row valign="top">
                         <entry colname="c2">
                            <p>25</p>
                         </entry>
                         <entry colname="c3">
                            <p>A2</p>
                         </entry>
                         <entry colname="c4"/>
                      </row>
                      <row valign="top">
                         <entry colname="c2">
                            <p>2</p>
                         </entry>
                         <entry colname="c3">
                            <p>A3</p>
                         </entry>
                         <entry colname="c4"/>
                      </row>
                      <row valign="top">
                         <entry colname="c2">
                            <p>5</p>
                         </entry>
                         <entry colname="c3">
                            <p>A5</p>
                         </entry>
                         <entry colname="c4"/>
                      </row>
                      <row valign="top">
                         <entry colname="c2">
                            <p>8</p>
                         </entry>
                         <entry colname="c3">
                            <p>B</p>
                         </entry>
                         <entry colname="c4"/>
                      </row>
                      <row valign="top">
                         <entry colname="c2">
                            <p>6</p>
                         </entry>
                         <entry colname="c3">
                            <p>C</p>
                         </entry>
                         <entry colname="c4"/>
                      </row>
                      <row valign="top">
                         <entry colname="c2">
                            <p>2</p>
                         </entry>
                         <entry colname="c3">
                            <p>D</p>
                         </entry>
                         <entry colname="c4"/>
                      </row>
                      <row valign="top">
                         <entry colname="c2">
                            <p>2</p>
                         </entry>
                         <entry colname="c3">
                            <p>E</p>
                         </entry>
                         <entry colname="c4"/>
                      </row>
                      <row valign="top">
                         <entry colname="c2">
                            <p>2</p>
                         </entry>
                         <entry colname="c3">
                            <p>F</p>
                         </entry>
                         <entry colname="c4"/>
                      </row>
                      <row valign="top">
                         <entry colname="c1" morerows="11">
                            <p>SPM-1 (n&#8201;=&#8201;33)</p>
                         </entry>
                         <entry colname="c2">
                            <p>7</p>
                         </entry>
                         <entry colname="c3">
                            <p>A2</p>
                         </entry>
                         <entry colname="c4"/>
                      </row>
                      <row valign="top">
                         <entry colname="c2">
                            <p>3</p>
                         </entry>
                         <entry colname="c3">
                            <p>A3</p>
                         </entry>
                         <entry colname="c4"/>
                      </row>
                      <row valign="top">
                         <entry colname="c2">
                            <p>1</p>
                         </entry>
                         <entry colname="c3">
                            <p>A4</p>
                         </entry>
                         <entry colname="c4"/>
                      </row>
                      <row valign="top">
                         <entry colname="c2">
                            <p>1</p>
                         </entry>
                         <entry colname="c3">
                            <p>A6</p>
                         </entry>
                         <entry colname="c4"/>
                      </row>
                      <row valign="top">
                         <entry colname="c2">
                            <p>1</p>
                         </entry>
                         <entry colname="c3">
                            <p>A7</p>
                         </entry>
                         <entry colname="c4"/>
                      </row>
                      <row valign="top">
                         <entry colname="c2">
                            <p>6</p>
                         </entry>
                         <entry colname="c3">
                            <p>G</p>
                         </entry>
                         <entry colname="c4">
                            <p>1998-2012</p>
                         </entry>
                      </row>
                      <row valign="top">
                         <entry colname="c2">
                            <p>2</p>
                         </entry>
                         <entry colname="c3">
                            <p>I</p>
                         </entry>
                         <entry colname="c4"/>
                      </row>
                      <row valign="top">
                         <entry colname="c2">
                            <p>6</p>
                         </entry>
                         <entry colname="c3">
                            <p>L</p>
                         </entry>
                         <entry colname="c4"/>
                      </row>
                      <row valign="top">
                         <entry colname="c2">
                            <p>2</p>
                         </entry>
                         <entry colname="c3">
                            <p>L1</p>
                         </entry>
                         <entry colname="c4"/>
                      </row>
                      <row valign="top">
                         <entry colname="c2">
                            <p>1</p>
                         </entry>
                         <entry colname="c3">
                            <p>L2</p>
                         </entry>
                         <entry colname="c4"/>
                      </row>
                      <row valign="top">
                         <entry colname="c2">
                            <p>1</p>
                         </entry>
                         <entry colname="c3">
                            <p>L3</p>
                         </entry>
                         <entry colname="c4"/>
                      </row>
                      <row valign="top">
                         <entry colname="c2">
                            <p>2</p>
                         </entry>
                         <entry colname="c3">
                            <p>M</p>
                         </entry>
                         <entry colname="c4"/>
                      </row>
                      <row valign="top">
                         <entry colname="c1" morerows="2">
                            <p>VIM-2 (n&#8201;=&#8201;4)</p>
                         </entry>
                         <entry colname="c2">
                            <p>1</p>
                         </entry>
                         <entry colname="c3">
                            <p>B</p>
                         </entry>
                         <entry colname="c4"/>
                      </row>
                      <row valign="top">
                         <entry colname="c2">
                            <p>1</p>
                         </entry>
                         <entry colname="c3">
                            <p>D</p>
                         </entry>
                         <entry colname="c4"/>
                      </row>
                      <row valign="top">
                         <entry colname="c2">
                            <p>2</p>
                         </entry>
                         <entry colname="c3">
                            <p>H</p>
                         </entry>
                         <entry colname="c4">
                            <p>2001-2009</p>
                         </entry>
                      </row>
                      <row valign="top">
                         <entry colname="c1" morerows="1">
                            <p>GES-5 (n&#8201;=&#8201;3)</p>
                         </entry>
                         <entry colname="c2">
                            <p>3</p>
                         </entry>
                         <entry colname="c3">
                            <p>A5</p>
                         </entry>
                         <entry colname="c4"/>
                      </row>
                      <row valign="top">
                         <entry colname="c2"/>
                         <entry colname="c3"/>
                         <entry colname="c4">
                            <p>2001</p>
                         </entry>
                      </row>
                      <row valign="top">
                         <entry colname="c1" morerows="4">
                            <p>SPM-1 and KPC-2 (n&#8201;=&#8201;9)</p>
                         </entry>
                         <entry colname="c2"/>
                         <entry colname="c3"/>
                         <entry colname="c4"/>
                      </row>
                      <row valign="top">
                         <entry colname="c2">
                            <p>6</p>
                         </entry>
                         <entry colname="c3">
                            <p>K<sup>B</sup>
                            </p>
                         </entry>
                         <entry colname="c4"/>
                      </row>
                      <row valign="top">
                         <entry colname="c2">
                            <p>1</p>
                         </entry>
                         <entry colname="c3">
                            <p>L<sup>C</sup>
                            </p>
                         </entry>
                         <entry colname="c4"/>
                      </row>
                      <row valign="top">
                         <entry colname="c2">
                            <p>1</p>
                         </entry>
                         <entry colname="c3">
                            <p>L1<sup>D</sup>
                            </p>
                         </entry>
                         <entry colname="c4">
                            <p>2012</p>
                         </entry>
                      </row>
                      <row valign="top">
                         <entry colname="c2">
                            <p>1</p>
                         </entry>
                         <entry colname="c3">
                            <p>M<sup>E</sup>
                            </p>
                         </entry>
                         <entry colname="c4"/>
                      </row>
                      <row valign="top">
                         <entry colname="c1">
                            <p>SPM-1 and VIM-2 and KPC-2 (n&#8201;=&#8201;1)</p>
                         </entry>
                         <entry colname="c2">
                            <p>1</p>
                         </entry>
                         <entry colname="c3">
                            <p>J<sup>A</sup>
                            </p>
                         </entry>
                         <entry colname="c4">
                            <p>2011</p>
                         </entry>
                      </row>
                   </tbody>
                </tgroup>
             </table>
          
       </sec>
       <sec>
          <st>
             <p>Discussion</p>
          </st>
          <p>It is the first report of <it>P. aeruginosa</it> co-harbouring <it>bla</it>
             <sub>KPC</sub> and <it>bla</it>
             <sub>SPM</sub> genes and the first report in Brazil of <it>P. aeruginosa</it> carrying KPC-2, VIM-2 and SPM-1. SPM-1 was the most frequent carbapenemase identified in our hospital, followed by KPC-2. KPC in <it>P. aeruginosa</it> is rare and occurs mainly in the American continent <abbrgrp>
                <abbr bid="B1">1</abbr>
             </abbrgrp>-<abbrgrp>
                <abbr bid="B5">5</abbr>
             </abbrgrp>,<abbrgrp>
                <abbr bid="B12">12</abbr>
             </abbrgrp>. Recently, <it>P. aeruginosa</it> harbouring KPC was described in Argentina <abbrgrp>
                <abbr bid="B13">13</abbr>
             </abbrgrp> and Iran <abbrgrp>
                <abbr bid="B14">14</abbr>
             </abbrgrp>, showing the potential rapid dissemination of this mechanism of resistance to the world.</p>
          <p>Even though <it>P. aeruginosa</it> harbouring KPC was identified in 2010 in Brazil <abbrgrp>
                <abbr bid="B2">2</abbr>
             </abbrgrp>, no other report was published since then.</p>
          <p>Only 50 of 129 <it>P. aeruginosa</it> carbapenem-resistant harboured a carbapenemase evaluated in this study. Thus, the carbapenem resistance could be related to other mechanism of resistance such as outer-membrane protein alteration, efflux system overexpression or new carbapenemase not yet identified <abbrgrp>
                <abbr bid="B15">15</abbr>
             </abbrgrp>-<abbrgrp>
                <abbr bid="B17">17</abbr>
             </abbrgrp>.</p>
          <p>
             <it>Pseudomonas aeruginosa</it> co-harbouring carbapenemase is uncommon; there are few reports in the literature [1;3]. <it>Pseudomonas aeruginosa</it> isolate co-harbouring KPC and a metallo-&#946;-lactamase (IMP-8) was recently reported in Puerto Rico <abbrgrp>
                <abbr bid="B3">3</abbr>
             </abbrgrp> and isolates co-harbouring KPC and VIM gene were identified in Colombia <abbrgrp>
                <abbr bid="B1">1</abbr>
             </abbrgrp>. We described a new clone of <it>P. aeruginosa</it> co-harbouring SPM-1 and KPC-2 that caused an outbreak in a Bone Marrow transplantation unit, and an isolate co-harbouring three carbapenemase (SPM-1; KPC-2 and VIM-2) that belonged to a different clone then previous described in two outbreaks that occurred in this unit and were controlled with reinforcement of hand hygiene and contact precautions, one due to <it>P. aeruginosa</it> harbouring SPM-1 and other harbouring VIM-2 <abbrgrp>
                <abbr bid="B18">18</abbr>
             </abbrgrp>.</p>
          <p>This <it>P. aeruginosa</it> isolate harbouring KPC-2 was identified for the first time in our hospital in 2011 in a hematopoietic stem cell transplanted patient. It harboured three carbapanemase genes (SPM-1, VIM-2 and KPC-2), and belonged to a new clone (J<sup>A</sup>) not identified before in the hospital. This isolate showed a resistant profile to both imipenem and meropenem with MIC of 64&#160;&#956;g/mL and 32&#160;&#956;g /mL, respectively, but was susceptible to polymyxin and colistin with a MIC of 2&#160;&#956;g /mL for both drugs.</p>
          <p>In 2012 during an outbreak that occurred in the Bone Marrow Transplant unit, 19 carbapemem-resistant <it>P. aeruginosa</it> were identified (clone K, L, L1, L2, L3 and M), all positive for SPM-1 gene, and 10 (47.3%) harbored both SPM-1 and KPC-2. The majority of the KPC, six isolates of ten, belong to the clone of the outbreak (K<sup>B</sup>). Our data showed different clones circulating in our hospital and a new one predominate clone harboring KPC. A recent study also described dissemination of a new clone of <it>P. aeruginosa</it> harbouring KPC in a hospital in Argentina after a <it>K. pneumonia-</it>KPC positive outbreak <abbrgrp>
                <abbr bid="B13">13</abbr>
             </abbrgrp>.</p>
          <p>Other interesting findings of our study are that GES-5 was restricted to the Burned Intensive Care Unit and was identified only in 2001. VIM-1 was first identified in the Emergency Room and then in the Bone Marrow Transplant Unit, and SPM is spread in different units in the hospital. These results were similar with previous Brazilian reports that showed that SPM-1 is endemic in several hospitals in the country <abbrgrp>
                <abbr bid="B19">19</abbr>
             </abbrgrp>,<abbrgrp>
                <abbr bid="B20">20</abbr>
             </abbrgrp>.</p>
          <p>The complete sequence of two KPC-harbouring plasmids, Plasmid pCOL-1 (31&#8202;529&#160;bp), IncP-6 replicon group and Plasmid pPA-2 (7995&#160;bp) from <it>P. aeruginosa</it> showed that they differing in size and in incompatibility group, and harbouring different genetic structures containing the blaKPC-2 genes <abbrgrp>
                <abbr bid="B21">21</abbr>
             </abbrgrp>. These findings suggest that the carbapenemase resistance dissemination due to KPC in <it>P. aeruginosa</it> will be similar to that seen in Enterobacteriaceae. Thus, it is very important to understand the epidemiology of these multiresistant isolates, in order to achieve early implementation of adequate control measures to contain and reduce their dissemination in the hospital setting. <it>Pseudomonas aeruginosa</it> can acquired this transmissible resistance mechanism, going unnoticed and be a source of spread of KPC to other genus and species of bacteria. Besides carbapenem-resistance in <it>P. aeruginosa</it> can be due to two or more carbapenemase genes, including KPC-gene.</p>
          <p>In conclusion, our findings showed that SPM-1 is the most frequent carbapenemase identified in our hospital, followed by KPC-2. Thus, PCR for KPC gene should be performed to evaluate carbapenem resistance in <it>P. aeruginosa</it> and this agent can harbor more than one carbapenemase gene. Attention should be focused on the possible rapid spread of KPC in <it>P. aeruginosa</it> isolates and for the fact that <it>P. aeruginosa</it> may become a reservoir of this transmissible resistance mechanism.</p>
       </sec>
       <sec>
          <st>
             <p>Competing interests</p>
          </st>
          <p>The authors declare that they have no competing interests.</p>
       </sec>
       <sec>
          <st>
             <p>Authors&#8217; contributions</p>
          </st>
          <p>Concept and design (SFC), data collection and laboratory work (CR, LF, JR, GL, LCS) data analysis and interpretation (CR, ASL, SFC), drafting of the manuscript (CR,TG, ASL, SFC), critical review of the manuscript (CR, TG, SL, SFc), final approval of manuscript for publication (CR, LF, JR, GL, LCS,TG, ASl, SFC). All authors read and approved the final manuscript.</p>
       </sec>
    </bdy>
    <bm>
       <ack>
          <sec>
             <st>
                <p>Funding section</p>
             </st>
             <p>This study was performed using internal funding.</p>
          </sec>
       </ack>
       <refgrp>
          
          <bibl id="B1">
             <title>
                <p>First report of a pseudomonas aeruginosa isolate co-harboring KPC and VIM carbapenemases</p>
             </title>
             <aug>
                <au>
                   <snm>Correa</snm>
                   <fnm>A</fnm>
                </au>
                <au>
                   <snm>Montealegre</snm>
                   <fnm>MC</fnm>
                </au>
                <au>
                   <snm>Mojica</snm>
                   <fnm>MF</fnm>
                </au>
                <au>
                   <snm>Maya</snm>
                   <fnm>JJ</fnm>
                </au>
                <au>
                   <snm>Rojas</snm>
                   <fnm>LJ</fnm>
                </au>
                <au>
                   <snm>De La Cadena</snm>
                   <fnm>EP</fnm>
                </au>
                <au>
                   <snm>Ruiz</snm>
                   <fnm>SJ</fnm>
                </au>
                <au>
                   <snm>Recalde</snm>
                   <fnm>M</fnm>
                </au>
                <au>
                   <snm>Rosso</snm>
                   <fnm>F</fnm>
                </au>
                <au>
                   <snm>Quinn</snm>
                   <fnm>JP</fnm>
                </au>
                <au>
                   <snm>Villegas</snm>
                   <fnm>MV</fnm>
                </au>
             </aug>
             <source>Antimicrob Agents Chemother</source>
             <pubdate>2012</pubdate>
             <volume>56</volume>
             <issue>10</issue>
             <fpage>5422</fpage>
             <lpage>5423</lpage>
             <xrefbib>
                <pubidlist>
                   <pubid idtype="doi">10.1128/AAC.00695-12</pubid>
                   <pubid idtype="pmpid" link="fulltext">22825120</pubid>
                </pubidlist>
             </xrefbib>
          </bibl>
          <bibl id="B2">
             <note>J&#225;come PR, Alves LR, Cabral AB, Lopes AC, Maciel MA: <b>First report of KPC-producing pseudomonas aeruginosa in Brazil.</b>
                <it>Antimicrob Agents Chemother</it> 2012, <b>56</b>(9):4990.</note>
          </bibl>
          <bibl id="B3">
             <title>
                <p>First report of a Pseudomonas aeruginosa clinical isolate co-harboring KPC-2 and IMP-18 carbapenemases</p>
             </title>
             <aug>
                <au>
                   <snm>Mart&#237;nez</snm>
                   <fnm>T</fnm>
                </au>
                <au>
                   <snm>V&#225;zquez</snm>
                   <fnm>GJ</fnm>
                </au>
                <au>
                   <snm>Aquino</snm>
                   <fnm>EE</fnm>
                </au>
                <au>
                   <snm>Ram&#237;rez-Ronda</snm>
                   <fnm>R</fnm>
                </au>
                <au>
                   <snm>Robledo</snm>
                   <fnm>IE</fnm>
                </au>
             </aug>
             <source>Int J Antimicrob Agents</source>
             <pubdate>2012</pubdate>
             <volume>39</volume>
             <issue>6</issue>
             <fpage>542</fpage>
             <lpage>543</lpage>
             <xrefbib>
                <pubidlist>
                   <pubid idtype="doi">10.1016/j.ijantimicag.2012.02.009</pubid>
                   <pubid idtype="pmpid" link="fulltext">22521765</pubid>
                </pubidlist>
             </xrefbib>
          </bibl>
          <bibl id="B4">
             <title>
                <p>Wide dissemination of Pseudomonas aeruginosa producing beta-lactamase blaKPC-2 gene in Colombia</p>
             </title>
             <aug>
                <au>
                   <snm>Cuzon</snm>
                   <fnm>G</fnm>
                </au>
                <au>
                   <snm>Naas</snm>
                   <fnm>T</fnm>
                </au>
                <au>
                   <snm>Villegas</snm>
                   <fnm>MV</fnm>
                </au>
                <au>
                   <snm>Correa</snm>
                   <fnm>A</fnm>
                </au>
                <au>
                   <snm>Quinn</snm>
                   <fnm>JP</fnm>
                </au>
                <au>
                   <snm>Nordmann</snm>
                   <fnm>P</fnm>
                </au>
             </aug>
             <source>Antimicrob Agents Chemother</source>
             <pubdate>2011</pubdate>
             <volume>55</volume>
             <issue>11</issue>
             <fpage>5350</fpage>
             <lpage>5353</lpage>
             <xrefbib>
                <pubidlist>
                   <pubid idtype="doi">10.1128/AAC.00297-11</pubid>
                   <pubid idtype="pmpid" link="fulltext">21844315</pubid>
                </pubidlist>
             </xrefbib>
          </bibl>
          <bibl id="B5">
             <title>
                <p>First identification of Pseudomonas aeruginosa isolates producing a KPC-type carbapenem-hydrolyzing beta-lactamase</p>
             </title>
             <aug>
                <au>
                   <snm>Villegas</snm>
                   <fnm>MV</fnm>
                </au>
                <au>
                   <snm>Lolans</snm>
                   <fnm>K</fnm>
                </au>
                <au>
                   <snm>Correa</snm>
                   <fnm>A</fnm>
                </au>
                <au>
                   <snm>Kattan</snm>
                   <fnm>JN</fnm>
                </au>
                <au>
                   <snm>Lopez</snm>
                   <fnm>JA</fnm>
                </au>
                <au>
                   <snm>Quinn</snm>
                   <fnm>JP</fnm>
                </au>
             </aug>
             <source>Antimicrob Agents Chemother</source>
             <pubdate>2007</pubdate>
             <volume>51</volume>
             <issue>4</issue>
             <fpage>1553</fpage>
             <lpage>1555</lpage>
             <xrefbib>
                <pubidlist>
                   <pubid idtype="doi">10.1128/AAC.01405-06</pubid>
                   <pubid idtype="pmpid" link="fulltext">17261621</pubid>
                </pubidlist>
             </xrefbib>
          </bibl>
          <bibl id="B6">
             <title>
                <p>Multidrug-resistant Pseudomonas aeruginosa strain that caused an outbreak in a neurosurgery ward and its aac(6')-Iae gene cassette encoding a novel aminoglycoside acetyltransferase</p>
             </title>
             <aug>
                <au>
                   <snm>Sekiguchi</snm>
                   <fnm>J</fnm>
                </au>
                <au>
                   <snm>Asagi</snm>
                   <fnm>T</fnm>
                </au>
                <au>
                   <snm>Miyoshi-Akiyama</snm>
                   <fnm>T</fnm>
                </au>
                <au>
                   <snm>Fujino</snm>
                   <fnm>T</fnm>
                </au>
                <au>
                   <snm>Kobayashi</snm>
                   <fnm>I</fnm>
                </au>
                <au>
                   <snm>Morita</snm>
                   <fnm>K</fnm>
                </au>
                <au>
                   <snm>Kikuchi</snm>
                   <fnm>Y</fnm>
                </au>
                <au>
                   <snm>Kuratsuji</snm>
                   <fnm>T</fnm>
                </au>
                <au>
                   <snm>Kirikae</snm>
                   <fnm>T</fnm>
                </au>
             </aug>
             <source>Antimicrob Agents Chemother</source>
             <pubdate>2005</pubdate>
             <volume>49</volume>
             <issue>9</issue>
             <fpage>3734</fpage>
             <lpage>3742</lpage>
             <xrefbib>
                <pubidlist>
                   <pubid idtype="doi">10.1128/AAC.49.9.3734-3742.2005</pubid>
                   <pubid idtype="pmpid" link="fulltext">16127047</pubid>
                </pubidlist>
             </xrefbib>
          </bibl>
          <bibl id="B7">
             <title>
                <p>Interpreting chromosomal DNA restriction patterns produced by pulsed-field gel electrophoresis: criteria for bacterial strains typing</p>
             </title>
             <aug>
                <au>
                   <snm>Tenover</snm>
                   <fnm>F</fnm>
                </au>
                <au>
                   <snm>Arbeit</snm>
                   <fnm>RD</fnm>
                </au>
                <au>
                   <snm>Goering</snm>
                   <fnm>RV</fnm>
                </au>
                <au>
                   <snm>Mickelsen</snm>
                   <fnm>PA</fnm>
                </au>
                <au>
                   <snm>Murray</snm>
                   <fnm>BE</fnm>
                </au>
                <au>
                   <snm>Persing</snm>
                   <fnm>DH</fnm>
                </au>
                <au>
                   <snm>Swaminathan</snm>
                   <fnm>B</fnm>
                </au>
             </aug>
             <source>J Clin Microbiol</source>
             <pubdate>1995</pubdate>
             <volume>33</volume>
             <issue>9</issue>
             <fpage>2233</fpage>
             <lpage>2239</lpage>
             <xrefbib>
                <pubidlist>
                   <pubid idtype="pmpid" link="fulltext">7494007</pubid>
                </pubidlist>
             </xrefbib>
          </bibl>
          <bibl id="B8">
             <title>
                <p>Emergence of carbapenem-resistant Klebsiella species possessing the class A carbanem hydrolyzing KPC-2 and Inhibithor-resitant TEM30 &#946;-lactamases in New York</p>
             </title>
             <aug>
                <au>
                   <snm>Bradford</snm>
                   <fnm>PA</fnm>
                </au>
                <au>
                   <snm>Bratu</snm>
                   <fnm>C</fnm>
                </au>
                <au>
                   <snm>Urban</snm>
                   <fnm>C</fnm>
                </au>
                <au>
                   <snm>Visalli</snm>
                   <fnm>M</fnm>
                </au>
                <au>
                   <snm>Mariano</snm>
                   <fnm>N</fnm>
                </au>
                <au>
                   <snm>Landman</snm>
                   <fnm>D</fnm>
                </au>
                <au>
                   <snm>Rahal</snm>
                   <fnm>JJ</fnm>
                </au>
                <au>
                   <snm>Brooks</snm>
                   <fnm>S</fnm>
                </au>
                <au>
                   <snm>Cebular</snm>
                   <fnm>S</fnm>
                </au>
                <au>
                   <snm>Quale</snm>
                   <fnm>J</fnm>
                </au>
             </aug>
             <source>Clin Infect Dis</source>
             <pubdate>2004</pubdate>
             <volume>39</volume>
             <issue>1</issue>
             <fpage>55</fpage>
             <lpage>60</lpage>
             <xrefbib>
                <pubidlist>
                   <pubid idtype="doi">10.1086/421495</pubid>
                   <pubid idtype="pmpid" link="fulltext">15206053</pubid>
                </pubidlist>
             </xrefbib>
          </bibl>
          <bibl id="B9">
             <title>
                <p>Emergence of NDM-1 producing <it>Acinetobacter baumannii</it> in China</p>
             </title>
             <aug>
                <au>
                   <snm>Chen</snm>
                   <fnm>Y</fnm>
                </au>
                <au>
                   <snm>Zhou</snm>
                   <fnm>Z</fnm>
                </au>
                <au>
                   <snm>Zang</snm>
                   <fnm>Y</fnm>
                </au>
                <au>
                   <snm>Yu</snm>
                   <fnm>Y</fnm>
                </au>
             </aug>
             <source>J Antimicrob Chemother</source>
             <pubdate>2011</pubdate>
             <volume>66</volume>
             <issue>6</issue>
             <fpage>1255</fpage>
             <lpage>1259</lpage>
             <xrefbib>
                <pubidlist>
                   <pubid idtype="doi">10.1093/jac/dkr082</pubid>
                   <pubid idtype="pmpid" link="fulltext">21398294</pubid>
                </pubidlist>
             </xrefbib>
          </bibl>
          <bibl id="B10">
             <title>
                <p>Rapid detection and identification of Metallo-&#946;-lactamase- encoding genes by multiplex real time PCR assay and melt curve analysis</p>
             </title>
             <aug>
                <au>
                   <snm>Mendes</snm>
                   <fnm>ER</fnm>
                </au>
                <au>
                   <snm>Kiyota</snm>
                   <fnm>KA</fnm>
                </au>
                <au>
                   <snm>Monteiro</snm>
                   <fnm>J</fnm>
                </au>
                <au>
                   <snm>Castanheira</snm>
                   <fnm>M</fnm>
                </au>
                <au>
                   <snm>Andrade</snm>
                   <fnm>SS</fnm>
                </au>
                <au>
                   <snm>Gales</snm>
                   <fnm>AC</fnm>
                </au>
                <au>
                   <snm>Pignatari</snm>
                   <fnm>AC</fnm>
                </au>
                <au>
                   <snm>Tufik</snm>
                   <fnm>S</fnm>
                </au>
             </aug>
             <source>J Clin Microbiol</source>
             <pubdate>2007</pubdate>
             <volume>45</volume>
             <issue>2</issue>
             <fpage>544</fpage>
             <lpage>547</lpage>
             <xrefbib>
                <pubidlist>
                   <pubid idtype="doi">10.1128/JCM.01728-06</pubid>
                   <pubid idtype="pmpid" link="fulltext">17093019</pubid>
                </pubidlist>
             </xrefbib>
          </bibl>
          <bibl id="B11">
             <title>
                <p>Prevalence and mechanisms of decreased susceptibility to carbapenems in <it>Klebsiella pneumoniae</it> isolates</p>
             </title>
             <aug>
                <au>
                   <snm>Kim</snm>
                   <fnm>SY</fnm>
                </au>
                <au>
                   <snm>Park</snm>
                   <fnm>YJ</fnm>
                </au>
                <au>
                   <snm>Yu</snm>
                   <fnm>JK</fnm>
                </au>
                <au>
                   <snm>Kim</snm>
                   <fnm>HS</fnm>
                </au>
                <au>
                   <snm>Park</snm>
                   <fnm>YS</fnm>
                </au>
                <au>
                   <snm>Yoon</snm>
                   <fnm>JB</fnm>
                </au>
                <au>
                   <snm>Yoo</snm>
                   <fnm>JY</fnm>
                </au>
                <au>
                   <snm>Lee</snm>
                   <fnm>K</fnm>
                </au>
             </aug>
             <source>Diagn Microbiol Infect Dis</source>
             <pubdate>2007</pubdate>
             <volume>57</volume>
             <issue>1</issue>
             <fpage>85</fpage>
             <lpage>91</lpage>
             <xrefbib>
                <pubidlist>
                   <pubid idtype="doi">10.1016/j.diagmicrobio.2006.05.008</pubid>
                   <pubid idtype="pmpid" link="fulltext">16854555</pubid>
                </pubidlist>
             </xrefbib>
          </bibl>
          <bibl id="B12">
             <title>
                <p>Emergence of Pseudomonas aeruginosa with KPC-type carbapenemase in a teaching hospital: an 8-year study</p>
             </title>
             <aug>
                <au>
                   <snm>Garc&#237;a Ram&#237;rez</snm>
                   <fnm>D</fnm>
                </au>
                <au>
                   <snm>Nicola</snm>
                   <fnm>F</fnm>
                </au>
                <au>
                   <snm>Zarate</snm>
                   <fnm>S</fnm>
                </au>
                <au>
                   <snm>Relloso</snm>
                   <fnm>S</fnm>
                </au>
                <au>
                   <snm>Smayevsky</snm>
                   <fnm>J</fnm>
                </au>
                <au>
                   <snm>Arduino</snm>
                   <fnm>S</fnm>
                </au>
             </aug>
             <source>J Med Microbiol</source>
             <pubdate>2013</pubdate>
             <volume>62</volume>
             <fpage>1565</fpage>
             <lpage>1570</lpage>
             <xrefbib>
                <pubidlist>
                   <pubid idtype="doi">10.1099/jmm.0.059923-0</pubid>
                   <pubid idtype="pmpid" link="fulltext">23831767</pubid>
                </pubidlist>
             </xrefbib>
          </bibl>
          <bibl id="B13">
             <title>
                <p>First clonal spread of KPC-producing Pseudomonas aeruginosa in Buenos Aires, Argentina</p>
             </title>
             <aug>
                <au>
                   <snm>Santella</snm>
                   <fnm>G</fnm>
                </au>
                <au>
                   <snm>Cittadini</snm>
                   <fnm>R</fnm>
                </au>
                <au>
                   <snm>Papalia</snm>
                   <fnm>M</fnm>
                </au>
                <au>
                   <snm>Vera Ocampo</snm>
                   <fnm>C</fnm>
                </au>
                <au>
                   <snm>Del Castillo</snm>
                   <fnm>M</fnm>
                </au>
                <au>
                   <snm>Vay</snm>
                   <fnm>C</fnm>
                </au>
                <au>
                   <snm>Gutkind</snm>
                   <fnm>G</fnm>
                </au>
                <au>
                   <snm>Radice</snm>
                   <fnm>M</fnm>
                </au>
             </aug>
             <source>Infect Genet Evol</source>
             <pubdate>2012</pubdate>
             <volume>12</volume>
             <issue>8</issue>
             <fpage>2003</fpage>
             <lpage>2005</lpage>
             <xrefbib>
                <pubidlist>
                   <pubid idtype="doi">10.1016/j.meegid.2012.03.022</pubid>
                   <pubid idtype="pmpid" link="fulltext">22484108</pubid>
                </pubidlist>
             </xrefbib>
          </bibl>
          <bibl id="B14">
             <note>Lari AR, Azimi L, Rahbar M, Alaghehbandan R, Sattarzadeh-Tabrizi M: <b>First report of Klebsiella pneumonia carbapenemase-producing Pseudomonas aeruginosa isolated from burn patients in Iran: phenotypic and genotypic methods.</b>
                <it>GMS Hyg Infect Control</it> 2014, <b>9</b>(1):Doc06.</note>
          </bibl>
          <bibl id="B15">
             <title>
                <p>Efflux system overexpression and decreased OprD contribute to the carbapenem resistance among extended-spectrum beta-lactamase-producing Pseudomonas aeruginosa isolates from a Chinese university hospital</p>
             </title>
             <aug>
                <au>
                   <snm>Liu</snm>
                   <fnm>Y</fnm>
                </au>
                <au>
                   <snm>Li</snm>
                   <fnm>XY</fnm>
                </au>
                <au>
                   <snm>Wan</snm>
                   <fnm>LG</fnm>
                </au>
                <au>
                   <snm>Jiang</snm>
                   <fnm>WY</fnm>
                </au>
                <au>
                   <snm>Li</snm>
                   <fnm>FQ</fnm>
                </au>
                <au>
                   <snm>Yang</snm>
                   <fnm>JH</fnm>
                </au>
             </aug>
             <source>Microb Drug Resist</source>
             <pubdate>2013</pubdate>
             <volume>19</volume>
             <issue>6</issue>
             <fpage>463</fpage>
             <lpage>468</lpage>
             <xrefbib>
                <pubidlist>
                   <pubid idtype="doi">10.1089/mdr.2013.0010</pubid>
                   <pubid idtype="pmpid" link="fulltext">23865862</pubid>
                </pubidlist>
             </xrefbib>
          </bibl>
          <bibl id="B16">
             <title>
                <p>Epidemiology and carbapenem resistance mechanisms of carbapenem-non-susceptible Pseudomonasaeruginosa collected during 2009&#8211;11 in 14 European and Mediterranean countries</p>
             </title>
             <aug>
                <au>
                   <snm>Castanheira</snm>
                   <fnm>M</fnm>
                </au>
                <au>
                   <snm>Deshpande</snm>
                   <fnm>LM</fnm>
                </au>
                <au>
                   <snm>Costello</snm>
                   <fnm>A</fnm>
                </au>
                <au>
                   <snm>Davies</snm>
                   <fnm>TA</fnm>
                </au>
                <au>
                   <snm>Jones</snm>
                   <fnm>RN</fnm>
                </au>
             </aug>
             <source>J Antimicrob Chemother</source>
             <pubdate>2014</pubdate>
             <volume>69</volume>
             <issue>7</issue>
             <fpage>1804</fpage>
             <lpage>1814</lpage>
             <xrefbib>
                <pubidlist>
                   <pubid idtype="doi">10.1093/jac/dku048</pubid>
                   <pubid idtype="pmpid" link="fulltext">24603963</pubid>
                </pubidlist>
             </xrefbib>
          </bibl>
          <bibl id="B17">
             <title>
                <p>Role of efflux pumps: MexAB-OprM and MexXY(&#8722;OprA), AmpC cephalosporinase and OprD porin in non-metallo-&#946;-lactamase producing Pseudomonas aeruginosa isolated from cystic fibrosis and burn patients</p>
             </title>
             <aug>
                <au>
                   <snm>Aghazadeh</snm>
                   <fnm>M</fnm>
                </au>
                <au>
                   <snm>Hojabri</snm>
                   <fnm>Z</fnm>
                </au>
                <au>
                   <snm>Mahdian</snm>
                   <fnm>R</fnm>
                </au>
                <au>
                   <snm>Nahaei</snm>
                   <fnm>MR</fnm>
                </au>
                <au>
                   <snm>Rahmati</snm>
                   <fnm>M</fnm>
                </au>
                <au>
                   <snm>Hojabri</snm>
                   <fnm>T</fnm>
                </au>
                <au>
                   <snm>Pirzadeh</snm>
                   <fnm>T</fnm>
                </au>
                <au>
                   <snm>Pajand</snm>
                   <fnm>O</fnm>
                </au>
             </aug>
             <source>Infect Genet Evol</source>
             <pubdate>2014</pubdate>
             <volume>24</volume>
             <fpage>187</fpage>
             <lpage>192</lpage>
             <xrefbib>
                <pubidlist>
                   <pubid idtype="doi">10.1016/j.meegid.2014.03.018</pubid>
                   <pubid idtype="pmpid" link="fulltext">24694825</pubid>
                </pubidlist>
             </xrefbib>
          </bibl>
          <bibl id="B18">
             <title>
                <p>Clusters of infection due to metallo-&#946;-lactamase-producing Pseudomonas aeruginosa in stem cell transplant and haematology units</p>
             </title>
             <aug>
                <au>
                   <snm>Paez</snm>
                   <fnm>J</fnm>
                </au>
                <au>
                   <snm>Levin</snm>
                   <fnm>AS</fnm>
                </au>
                <au>
                   <snm>Fu</snm>
                   <fnm>L</fnm>
                </au>
                <au>
                   <snm>Basso</snm>
                   <fnm>M</fnm>
                </au>
                <au>
                   <snm>Fonseca</snm>
                   <fnm>GH</fnm>
                </au>
                <au>
                   <snm>Dulley</snm>
                   <fnm>FL</fnm>
                </au>
                <au>
                   <snm>Rossi</snm>
                   <fnm>F</fnm>
                </au>
                <au>
                   <snm>Guimar&#227;es</snm>
                   <fnm>T</fnm>
                </au>
                <au>
                   <snm>Costa</snm>
                   <fnm>SF</fnm>
                </au>
             </aug>
             <source>J Hosp Infect</source>
             <pubdate>2011</pubdate>
             <volume>77</volume>
             <issue>1</issue>
             <fpage>76</fpage>
             <lpage>77</lpage>
             <xrefbib>
                <pubidlist>
                   <pubid idtype="doi">10.1016/j.jhin.2010.08.007</pubid>
                   <pubid idtype="pmpid" link="fulltext">21030111</pubid>
                </pubidlist>
             </xrefbib>
          </bibl>
          <bibl id="B19">
             <title>
                <p>Detection of SPM and IMP metallo-&#946;-lactamases in clinical specimens of Pseudomonas aeruginosa from a Brazilian public tertiary hospital</p>
             </title>
             <aug>
                <au>
                   <snm>Camargo</snm>
                   <fnm>CH</fnm>
                </au>
                <au>
                   <snm>Bruder-Nascimento</snm>
                   <fnm>A</fnm>
                </au>
                <au>
                   <snm>Mondelli</snm>
                   <fnm>AL</fnm>
                </au>
                <au>
                   <snm>Montelli</snm>
                   <fnm>AC</fnm>
                </au>
                <au>
                   <snm>Sadatsune</snm>
                   <fnm>T</fnm>
                </au>
             </aug>
             <source>Braz J Infect Dis</source>
             <pubdate>2011</pubdate>
             <volume>15</volume>
             <issue>5</issue>
             <fpage>478</fpage>
             <lpage>481</lpage>
             <xrefbib>
                <pubidlist>
                   <pubid idtype="doi">10.1016/S1413-8670(11)70231-8</pubid>
                   <pubid idtype="pmpid" link="fulltext">22230856</pubid>
                </pubidlist>
             </xrefbib>
          </bibl>
          <bibl id="B20">
             <title>
                <p>Carbapenem-resistant Pseudomonas aeruginosa: clonal spread in southern Brazil and in the state of Goi&#225;s</p>
             </title>
             <aug>
                <au>
                   <snm>Scheffer</snm>
                   <fnm>MC</fnm>
                </au>
                <au>
                   <snm>Gales</snm>
                   <fnm>AC</fnm>
                </au>
                <au>
                   <snm>Barth</snm>
                   <fnm>AL</fnm>
                </au>
                <au>
                   <snm>Carmo Filho</snm>
                   <fnm>JR</fnm>
                </au>
                <au>
                   <snm>Dalla-Costa</snm>
                   <fnm>LM</fnm>
                </au>
             </aug>
             <source>Braz J Infect Dis</source>
             <pubdate>2010</pubdate>
             <volume>14</volume>
             <issue>5</issue>
             <fpage>508</fpage>
             <lpage>509</lpage>
             <xrefbib>
                <pubidlist>
                   <pubid idtype="pmpid" link="fulltext">21221481</pubid>
                </pubidlist>
             </xrefbib>
          </bibl>
          <bibl id="B21">
             <title>
                <p>Complete sequence of two KPC-harbouring plasmids from Pseudomonas aeruginosa</p>
             </title>
             <aug>
                <au>
                   <snm>Naas</snm>
                   <fnm>T</fnm>
                </au>
                <au>
                   <snm>Bonnin</snm>
                   <fnm>RA</fnm>
                </au>
                <au>
                   <snm>Cuzon</snm>
                   <fnm>G</fnm>
                </au>
                <au>
                   <snm>Villegas</snm>
                   <fnm>MV</fnm>
                </au>
                <au>
                   <snm>Nordmann</snm>
                   <fnm>P</fnm>
                </au>
             </aug>
             <source>J Antimicrob Chemother</source>
             <pubdate>2013</pubdate>
             <volume>68</volume>
             <issue>8</issue>
             <fpage>1757</fpage>
             <lpage>1762</lpage>
             <xrefbib>
                <pubidlist>
                   <pubid idtype="doi">10.1093/jac/dkt094</pubid>
                   <pubid idtype="pmpid" link="fulltext">23569197</pubid>
                </pubidlist>
             </xrefbib>
          </bibl>
       </refgrp>
    </bm>
 </art>
