s12245-014-0036-1
1471-244X-12-235
s12052-014-0022-3
s12052-014-0023-2
s12052-014-0024-1
s12052-014-0025-0
s12052-014-0027-y
s12245-014-0032-5
s12245-014-0033-4
s12245-014-0034-3
s12245-014-0035-2
s12245-014-0037-0
s12245-014-0038-z
s12245-014-0039-y
s12245-014-0040-5
s12245-014-0042-3
s12245-014-0043-2
s12284-014-0018-1
s12284-014-0021-6
s12284-014-0022-5
s12284-014-0023-4
s12284-014-0024-3
s12284-014-0025-2
s12284-014-0026-1
s12284-014-0027-0
s12284-014-0028-z
s12284-014-0031-4
s12302-014-0021-6
s12302-014-0024-3
s12302-014-0025-2
s12302-014-0026-1
s12302-014-0027-0
s12302-014-0028-z
s12302-014-0029-y
s12348-014-0022-z
s12348-014-0023-y
s12348-014-0024-x
s12348-014-0025-9
s12348-014-0026-8
s12348-014-0027-7
s12348-014-0028-6
s12348-014-0029-5
s12645-014-0005-7
s12645-014-0006-6
s12645-014-0007-5
s12711-014-0052-x
s12711-014-0058-4
s12711-014-0059-3
s12711-014-0060-x
s12711-014-0061-9
s12711-014-0062-8
s12711-014-0063-7
s12711-014-0064-6
s12711-014-0065-5
s12711-014-0066-4
s12711-014-0067-3
s12711-014-0068-2
s12711-014-0069-1
s12711-014-0070-8
s12711-014-0072-6
s12711-014-0076-2
s12711-014-0077-1
s12858-014-0024-3
s12859-014-0346-6
s12859-014-0348-4
s12859-014-0349-3
s12859-014-0351-9
s12859-014-0352-8
s12859-014-0353-7
s12859-014-0354-6
s12859-014-0355-5
s12859-014-0356-4
s12859-014-0357-3
s12859-014-0358-2
s12859-014-0378-y
s12859-014-0380-4
s12860-014-0038-0
s12860-014-0039-z
s12860-014-0042-4
s12861-014-0035-8
s12861-014-0036-7
s12861-014-0038-5
s12861-014-0039-4
s12861-014-0040-y
s12862-014-0168-1
s12862-014-0170-7
s12862-014-0171-6
s12862-014-0174-3
s12862-014-0176-1
s12862-014-0178-z
s12862-014-0182-3
s12862-014-0183-2
s12862-014-0187-y
s12862-014-0189-9
s12862-014-0201-4
s12862-014-0202-3
s12862-014-0204-1
s12862-014-0206-z
s12862-014-0207-y
s12862-014-0208-x
s12862-014-0209-9
s12862-014-0210-3
s12862-014-0212-1
s12862-014-0214-z
s12862-014-0216-x
s12862-014-0217-9
s12862-014-0218-8
s12862-014-0219-7
s12862-014-0220-1
s12862-014-0221-0
s12862-014-0224-x
s12862-014-0225-9
s12862-014-0228-6
s12862-014-0229-5
s12862-014-0238-4
s12862-014-0239-3
s12863-014-0089-4
s12863-014-0090-y
s12863-014-0092-9
s12863-014-0094-7
s12863-014-0095-6
s12863-014-0097-4
s12863-014-0100-0
s12863-014-0101-z
s12863-014-0102-y
s12863-014-0103-x
s12863-014-0104-9
s12863-014-0106-7
s12863-014-0108-5
s12863-014-0109-4
s12863-014-0110-y
s12863-014-0111-x
s12863-014-0112-9
s12863-014-0113-8
s12863-014-0121-8
s12863-014-0123-6
s12863-014-0125-4
s12863-014-0126-3
s12863-014-0127-2
s12863-014-0128-1
s12865-014-0028-1
s12865-014-0031-6
s12865-014-0032-5
s12865-014-0033-4
s12865-014-0035-2
s12865-014-0037-0
s12865-014-0039-y
s12865-014-0040-5
s12865-014-0042-3
s12865-014-0043-2
s12865-014-0044-1
s12865-014-0045-0
s12865-014-0046-z
s12865-014-0047-y
s12859-014-0359-1
s12859-014-0360-8
s12859-014-0361-7
s12859-014-0367-1
s12859-014-0375-1
s12862-014-0191-2
s12862-014-0192-1
s12862-014-0193-0
s12862-014-0194-z
s12862-014-0195-y
s12862-014-0196-x
s12862-014-0197-9
s12862-014-0199-7
s12862-014-0200-5
s12862-014-0232-x
s12862-014-0234-8
s12862-014-0237-5
s12863-014-0115-6
s12863-014-0117-4
s12863-014-0119-2
s12865-014-0048-x
s12865-014-0049-9
s12865-014-0050-3
s12865-014-0051-2
s12865-014-0052-1
s12865-014-0055-y
s12866-014-0203-9
s12866-014-0205-7
s12866-014-0214-6
s12866-014-0216-4
s12866-014-0219-1
s12866-014-0220-8
s12711-014-0053-9
s12711-014-0056-6
s12711-014-0057-5
s12711-014-0071-7
s12711-014-0075-3
s12711-014-0079-z
s12859-014-0350-x
s12859-014-0366-2
s12859-014-0368-0
s12859-014-0376-0
s12859-014-0379-x
s12862-014-0198-8
s12862-014-0203-2
s12862-014-0205-0
s12862-014-0211-2
s12862-014-0213-0
s12862-014-0215-y
s12862-014-0223-y
s12862-014-0227-7
s12863-014-0098-3
s12863-014-0105-8
s12863-014-0107-6
s12863-014-0114-7
s12863-014-0116-5
s12863-014-0118-3
s12865-014-0034-3
s12865-014-0036-1
s12865-014-0041-4
s12866-014-0217-3
s12866-014-0221-7
s12900-014-0022-0
s12900-014-0023-z
s12905-014-0132-7
s12905-014-0133-6
s12905-014-0134-5
s12905-014-0135-4
s12905-014-0136-3
s12905-014-0137-2
s12905-014-0138-1
s12905-014-0139-0
s12905-014-0140-7
s12905-014-0141-6
s12905-014-0143-4
s12905-014-0148-z
s12909-014-0239-4
s12909-014-0241-x
s12909-014-0242-9
s12909-014-0243-8
s12909-014-0244-7
s12911-014-0099-1
s12911-014-0100-z
s12911-014-0101-y
s12911-014-0109-3
s12912-014-0033-y
s12912-014-0035-9
s12912-014-0037-7
s12913-014-0484-6
s12913-014-0485-5
s12913-014-0486-4
s12913-014-0487-3
s12913-014-0488-2
s12913-014-0489-1
s12913-014-0490-8
s12913-014-0491-7
s12913-014-0492-6
s12913-014-0493-5
s12913-014-0494-4
s12913-014-0495-3
s12913-014-0496-2
s12913-014-0497-1
s12913-014-0498-0
s12913-014-0499-z
s12913-014-0500-x
s12913-014-0501-9
s12913-014-0502-8
s12913-014-0503-7
s12913-014-0504-6
s12913-014-0505-5
s12913-014-0506-4
s12913-014-0507-3
s12913-014-0508-2
s12913-014-0509-1
s12913-014-0510-8
s12913-014-0511-7
s12913-014-0512-6
s12913-014-0513-5
s12913-014-0514-4
s12913-014-0515-3
s12913-014-0516-2
s12913-014-0517-1
s12913-014-0518-0
s12913-014-0519-z
s12913-014-0520-6
s12913-014-0521-5
s12913-014-0522-4
s12913-014-0523-3
s12913-014-0524-2
s12913-014-0525-1
s12913-014-0526-0
s12913-014-0527-z
s12913-014-0528-y
s12913-014-0531-3
s12913-014-0532-2
s12913-014-0533-1
s12913-014-0534-0
s12913-014-0535-z
s12913-014-0536-y
s12913-014-0537-x
s12913-014-0538-9
s12913-014-0539-8
s12913-014-0540-2
s12913-014-0541-1
s12913-014-0542-0
s12913-014-0543-z
s12913-014-0544-y
s12913-014-0545-x
s12913-014-0546-9
s12913-014-0547-8
s12913-014-0549-6
s12913-014-0550-0
s12913-014-0553-x
s12913-014-0554-9
s12913-014-0555-8
s12913-014-0558-5
s12913-014-0559-4
s12913-014-0560-y
s12913-014-0561-x
s12913-014-0562-9
s12913-014-0563-8
s12913-014-0564-7
s12913-014-0565-6
s12913-014-0566-5
s12913-014-0567-4
s12913-014-0568-3
s12913-014-0570-9
s12913-014-0571-8
s12913-014-0572-7
s12913-014-0573-6
s12913-014-0574-5
s12913-014-0575-4
s12913-014-0576-3
s12913-014-0577-2
s12913-014-0578-1
s12913-014-0580-7
s12913-014-0581-6
s12913-014-0583-4
s12913-014-0584-3
s12913-014-0585-2
s12913-014-0586-1
s12913-014-0588-z
s12913-014-0589-y
s12913-014-0590-5
s12913-014-0593-2
s12913-014-0598-x
s12913-014-0601-6
s12913-014-0606-1
s12913-014-0618-x
s12913-014-0623-0
s12914-014-0028-5
s12914-014-0029-4
s12914-014-0030-y
s12914-014-0031-x
s12915-014-0055-7
s12915-014-0056-6
s12915-014-0059-3
s12915-014-0060-x
s12915-014-0061-9
s12915-014-0063-7
s12915-014-0064-6
s12915-014-0065-5
s12915-014-0066-4
s12915-014-0067-3
s12915-014-0068-2
s12915-014-0070-8
s12915-014-0071-7
s12915-014-0072-6
s12915-014-0073-5
s12915-014-0074-4
s12915-014-0075-3
s12915-014-0076-2
s12915-014-0077-1
s12915-014-0078-0
s12915-014-0079-z
s12915-014-0080-6
s12915-014-0081-5
s12915-014-0082-4
s12915-014-0083-3
s12915-014-0084-2
s12915-014-0085-1
s12915-014-0086-0
s12915-014-0087-z
s12915-014-0088-y
s12915-014-0089-x
s12915-014-0090-4
s12915-014-0091-3
s12915-014-0092-2
s12915-014-0093-1
s12915-014-0094-0
s12915-014-0095-z
s12915-014-0098-9
s12916-014-0123-4
s12916-014-0129-y
s12916-014-0130-5
s12916-014-0131-4
s12916-014-0132-3
s12916-014-0133-2
s12916-014-0135-0
s12916-014-0136-z
s12916-014-0137-y
s12916-014-0139-9
s12916-014-0140-3
s12916-014-0141-2
s12916-014-0142-1
s12916-014-0144-z
s12916-014-0145-y
s12916-014-0146-x
s12916-014-0147-9
s12916-014-0150-1
s12916-014-0151-0
s12916-014-0152-z
s12916-014-0154-x
s12916-014-0155-9
s12916-014-0156-8
s12916-014-0157-7
s12916-014-0158-6
s12916-014-0159-5
s12916-014-0160-z
s12916-014-0161-y
s12916-014-0162-x
s12916-014-0163-9
s12916-014-0164-8
s12916-014-0165-7
s12916-014-0166-6
s12916-014-0167-5
s12916-014-0168-4
s12916-014-0169-3
s12916-014-0170-x
s12916-014-0171-9
s12916-014-0172-8
s12916-014-0173-7
s12916-014-0174-6
s12916-014-0175-5
s12916-014-0176-4
s12916-014-0177-3
s12916-014-0178-2
s12916-014-0179-1
s12916-014-0180-8
s12916-014-0181-7
s12916-014-0182-6
s12916-014-0183-5
s12916-014-0184-4
s12916-014-0185-3
s12916-014-0186-2
s12916-014-0187-1
s12916-014-0188-0
s12916-014-0189-z
s12916-014-0190-6
s12916-014-0191-5
s12916-014-0192-4
s12916-014-0193-3
s12916-014-0194-2
s12916-014-0195-1
s12916-014-0196-0
s12916-014-0197-z
s12916-014-0198-y
s12916-014-0199-x
s12916-014-0200-8
s12916-014-0201-7
s12916-014-0203-5
s12916-014-0204-4
s12916-014-0205-3
s12916-014-0206-2
s12916-014-0207-1
s12916-014-0208-0
s12916-014-0209-z
s12916-014-0211-5
s12916-014-0212-4
s12916-014-0213-3
s12916-014-0214-2
s12916-014-0215-1
s12916-014-0216-0
s12916-014-0218-y
s12916-014-0219-x
s12916-014-0220-4
s12916-014-0221-3
s12917-014-0175-x
s12917-014-0179-6
s12917-014-0180-0
s12917-014-0184-9
s12917-014-0185-8
s12917-014-0188-5
s12917-014-0189-4
s12917-014-0190-y
s12917-014-0193-8
s12917-014-0194-7
s12917-014-0195-6
s12917-014-0196-5
s12917-014-0197-4
s12917-014-0198-3
s12917-014-0199-2
s12917-014-0200-0
s12917-014-0201-z
s12917-014-0203-x
s12917-014-0204-9
s12917-014-0205-8
s12917-014-0206-7
s12917-014-0207-6
s12917-014-0208-5
s12917-014-0209-4
s12917-014-0210-y
s12917-014-0211-x
s12917-014-0212-9
s12917-014-0213-8
s12917-014-0214-7
s12917-014-0215-6
s12917-014-0216-5
s12917-014-0217-4
s12917-014-0218-3
s12917-014-0219-2
s12917-014-0220-9
s12917-014-0221-8
s12917-014-0222-7
s12917-014-0223-6
s12917-014-0224-5
s12917-014-0225-4
s12917-014-0226-3
s12917-014-0227-2
s12917-014-0228-1
s12917-014-0229-0
s12917-014-0230-7
s12917-014-0231-6
s12917-014-0232-5
s12917-014-0233-4
s12917-014-0234-3
s12917-014-0235-2
s12917-014-0236-1
s12917-014-0237-0
s12917-014-0238-z
s12917-014-0239-y
s12917-014-0240-5
s12917-014-0241-4
s12917-014-0242-3
s12917-014-0243-2
s12917-014-0244-1
s12917-014-0245-0
s12917-014-0246-z
s12917-014-0247-y
s12917-014-0248-x
s12917-014-0249-9





